   -92.310	   122.143
   -29.817	   138.829
   -10.611	   120.020
    -7.174	   119.857
   -52.365	   138.288
   -27.117	   120.803
   -21.881	   111.804
   -36.836	   137.010
   -14.634	   135.036
   -18.335	   143.268
   -21.179	   137.495
   -30.010	   120.453
   -27.459	   113.162
   -30.341	   133.191
   -11.807	   135.116
   -35.045	   129.232
   -31.694	   135.283
   -34.728	   130.045
   -22.127	   129.001
   -38.561	   140.510
    -2.666	   127.756
   -25.570	   140.946
   -29.757	   125.484
   -23.560	   118.281
   -19.558	   139.330
   -25.912	   126.850
   -36.749	   138.892
   -12.269	   122.679
    -9.056	   125.924
   -33.748	   129.223
   -42.875	   121.225
   -38.496	   140.802
   -23.244	   140.299
   -24.891	   144.083
   -12.343	   129.166
   -19.968	   116.429
    -4.626	   122.078
   -45.565	   136.619
   -30.021	   125.532
   -31.831	   126.389
   -27.413	   136.301
   -31.359	   130.925
    -9.829	   129.150
     6.813	   111.063
   -18.794	   136.905
   -36.736	   123.549
    -8.764	   123.528
    -8.000	   115.330
   -30.598	   120.082
   -53.933	   132.547
   -33.899	   125.196
    -3.849	   113.606
   -14.814	   133.758
   -27.435	   141.718
   -41.036	   134.577
   -47.277	   154.837
    -8.722	   131.580
   -30.164	   133.127
   -20.140	   138.935
    -3.444	   123.821
   -39.254	   121.572
   -48.035	   130.096
   -15.581	   106.516
   -19.295	   102.808
   -47.116	   144.427
   -34.100	   132.525
   -34.415	   128.004
   -13.203	   125.578
   -25.272	   135.987
   -26.636	   125.415
   -13.157	   130.894
   -31.599	   131.664
    30.714	   126.255
    -1.598	   115.817
    -2.410	   117.624
   -18.867	   126.227
   -15.565	   127.188
    -7.440	   127.480
   -27.378	   115.340
   -31.915	   146.275
    21.425	   113.138
     0.763	   102.746
   -32.826	   140.531
   -23.227	   137.346
   -35.539	   129.644
   -36.251	   149.007
   -20.120	   119.470
    -3.037	   113.818
     2.230	   112.620
    23.972	    80.049
   -35.259	   132.315
   -42.065	   139.591
   -21.847	   122.572
   -47.205	   124.923
   -44.025	   139.175
   -45.662	   151.644
    -8.302	   118.667
   -47.352	   132.433
    -2.465	   123.531
   -17.974	   132.637
   -12.155	    98.213
    -8.593	   110.527
     0.237	   123.460
    24.419	   108.318
    -0.947	   100.942
   -16.683	   127.854
    -4.471	   123.210
    -7.364	   127.166
    20.504	   110.013
   -24.380	   131.088
   -43.031	   139.613
   -42.799	   142.657
   -44.058	   124.681
   -44.683	   136.436
    -2.842	   129.652
     8.219	   113.417
    31.867	   126.715
    25.887	   127.385
    18.508	   112.290
     2.338	   101.787
    37.123	   111.476
     9.650	    94.263
    17.746	   101.718
    17.932	   101.380
    -6.675	   129.364
   -16.029	   137.175
   -10.072	   134.970
     2.263	   124.289
    -4.896	   111.243
   -12.055	   120.623
     0.322	   121.226
   -18.001	   121.934
     8.317	   112.336
     9.665	   101.204
    -5.308	   125.466
   -37.324	   109.230
   -18.385	   127.982
     4.526	   117.474
   -29.125	   124.874
     1.100	   119.117
    22.937	   122.978
    51.710	   120.455
    45.648	   113.313
    24.671	   117.774
    31.383	   126.260
    43.517	   115.488
    27.630	   111.624
    24.639	   108.079
   -12.447	   112.237
   -36.579	   144.504
   -57.116	   128.519
   -49.628	   141.438
   -33.831	   106.708
   -31.441	   134.752
   -42.436	   120.892
   -23.144	   111.550
   -37.084	   142.868
   -33.271	   117.911
   -21.403	   126.398
   -28.205	   129.089
   -25.218	   121.508
   -18.664	   126.895
   -28.054	   141.301
    -2.014	   121.435
   -19.826	   116.863
   -41.006	   127.323
   -21.294	   140.092
    17.202	   119.267
    11.333	   115.360
    15.608	   100.668
    11.128	   112.372
    40.458	    99.169
    -5.987	   140.346
   -15.164	   140.355
   -29.884	   129.781
   -35.176	   146.845
   -37.178	   142.793
   -11.006	   117.564
    10.416	   113.649
     6.771	   116.164
    12.088	   117.775
   -35.179	   144.368
   -18.061	   118.161
   -21.682	   142.378
   -17.105	   111.865
   -24.396	   136.465
    -6.666	   124.208
   -33.496	   129.829
   -15.042	   120.715
   -35.232	   119.717
   -20.436	   137.967
   -27.850	   138.565
    -1.719	   114.062
   -27.846	   127.458
   -16.673	   132.859
   -28.234	   136.188
   -15.466	   137.276
   -27.094	   138.578
   -13.615	   124.505
   -22.540	   122.807
   -14.461	   119.729
   -21.750	   128.196
   -28.150	   133.789
   -16.006	   126.114
   -20.910	   123.103
   -24.377	   126.290
   -43.992	   128.259
   -44.637	   119.831
   -27.602	   130.241
   -26.194	   138.964
   -22.403	   119.033
   -50.510	   128.339
   -49.389	   139.868
   -23.225	   137.753
   -14.678	   128.188
   -32.977	   150.161
    -9.962	   110.772
   -39.680	   143.216
   -33.255	   124.702
    -7.577	   124.836
    12.549	   130.304
   -14.039	   119.826
    -6.120	   124.469
   -10.790	   131.229
   -35.955	   139.135
   -42.654	   139.819
   -40.083	   130.843
   -22.179	   114.587
    17.961	   126.444
    45.000	   109.394
    38.313	   141.555
    46.459	   146.847
    38.028	   132.906
    44.882	   132.204
    24.798	    87.655
     4.291	    99.712
    31.445	    91.286
    14.716	   111.759
    24.350	   115.632
    47.113	    93.415
    45.255	   107.908
    44.478	   141.227
    49.152	   158.822
    51.052	   130.991
    49.090	   121.102
    18.712	   114.295
    31.204	    92.259
   -22.856	   133.326
    -0.048	   107.063
   -41.796	   138.360
     7.915	   112.823
   -17.279	   121.750
   -16.167	   130.278
    -7.987	   116.199
   -23.347	   129.299
   -24.393	   140.630
    -5.337	   120.034
    -6.640	   126.590
   -10.001	   128.125
   -17.509	   128.278
   -28.629	   122.730
   -29.329	   130.059
   -28.088	   126.759
   -44.955	   120.866
   -32.444	   110.853
   -36.641	   127.680
     0.879	   105.088
    12.221	   105.460
   -26.896	   113.617
    -6.286	   110.011
    -3.903	   101.976
    21.832	    98.200
    35.514	    91.683
    38.489	   116.892
     0.866	    95.808
     0.865	   107.536
   -15.890	   116.889
    -4.229	   114.932
    14.595	   107.216
     5.701	   120.501
   -17.521	   113.181
    19.097	   104.706
    15.449	   120.950
   -36.145	   139.869
   -21.957	   128.395
    -5.536	   121.218
   -15.958	   124.234
   -20.254	   123.868
    11.925	   138.991
   -20.837	   138.939
   -11.691	   124.782
   -33.213	   152.059
    -8.533	   119.105
   -20.849	   126.126
   -19.619	   119.920
   -41.466	   147.022
   -28.985	   126.671
   -18.055	   119.865
   -35.871	   116.143
   -27.569	   116.072
   -48.104	   124.932
   -18.689	   130.783
   -29.374	   137.010
   -27.388	   117.455
   -35.100	   127.197
   -39.886	   124.668
   -14.300	   131.537
    -2.395	   118.635
    19.782	   115.209
     8.008	   125.481
   -18.606	   138.061
    -7.957	   150.088
    14.119	   119.403
     0.931	   135.614
   -22.170	   135.659
   -30.437	   115.403
   -35.260	   128.062
   -18.638	   129.831
     6.068	   108.262
   -35.349	   139.698
   -34.932	   138.342
     6.038	   100.856
   -30.700	   141.175
   -22.181	   135.535
   -36.002	   120.955
   -24.290	   119.534
   -32.318	   117.385
   -26.124	   119.856
    -3.227	   104.904
    -4.641	   119.616
     8.073	   113.017
    -4.595	   128.039
   -25.954	   126.614
   -32.137	   128.032
   -25.026	   122.760
   -43.001	   127.347
   -35.677	   120.625
   -26.730	   127.776
     6.755	   103.081
    26.933	   107.671
   -28.789	   126.684
   -24.739	   117.007
   -25.774	   133.434
   -22.696	   116.366
   -36.625	   130.558
    -1.122	   111.678
   -21.880	   120.041
   -31.107	   121.017
   -24.702	   116.039
    -6.875	   123.032
    -4.099	   120.673
    17.973	    96.236
   -25.985	   120.870
    -7.506	   138.130
    -7.868	   104.714
   -22.507	   131.775
   -36.760	   142.095
   -35.695	   142.102
    13.190	   106.338
    10.742	   100.303
    31.053	   118.392
    21.682	    96.110
    -4.350	   116.281
    12.438	   106.258
    36.749	   125.013
     4.979	   125.465
    18.267	   113.477
    -0.635	   126.807
    -4.398	   131.904
   -37.547	   133.691
   -19.871	   130.606
   -45.030	   130.980
   -39.061	   132.518
   -22.820	   117.688
   -21.332	   116.845
   -43.432	   131.401
   -31.778	   126.398
   -21.942	   148.557
   -24.278	   126.688
   -28.878	   134.401
   -41.558	   131.497
    -4.854	   128.584
    -8.882	   130.784
   -39.416	   147.288
   -29.034	   145.373
   -41.106	   128.596
    -3.891	   123.543
   -29.766	   136.155
   -25.546	   124.443
    -7.850	   120.701
   -23.659	   126.178
   -35.667	   130.053
   -25.616	   145.646
   -26.401	   130.151
   -11.231	   120.837
   -27.218	   126.613
    -3.829	   117.638
    -0.197	   125.275
   -15.590	   131.304
   -13.848	   135.079
   -25.971	   109.210
   -30.647	   136.824
    27.780	   112.281
    35.190	   131.687
    -5.736	   123.090
   -10.851	   118.117
   -23.804	   120.738
    -6.015	   119.872
   -27.258	   128.545
   -10.627	   108.690
    -4.487	   105.321
    28.975	   104.837
    22.536	    77.975
     6.122	    91.105
    49.535	   142.448
    57.586	   158.849
    48.332	   143.225
    66.718	   164.712
    39.517	   134.302
    41.054	   115.235
    24.188	   121.465
    19.862	   137.812
    46.343	   128.558
    51.361	   153.707
    51.899	   151.103
    39.033	   124.724
    32.681	   118.307
    37.278	   112.943
    26.345	   102.933
    24.498	   103.609
    16.731	   136.662
    29.656	   122.805
    41.094	   101.276
    -9.180	   111.099
   -42.837	   133.411
   -33.248	   138.095
   -37.125	   140.356
   -18.238	   130.806
   -17.628	   129.425
   -30.679	   126.710
   -34.319	   126.084
   -24.354	   124.479
   -24.374	   130.938
   -29.657	   139.359
   -17.746	   132.240
   -29.690	   133.812
   -26.654	   130.510
   -21.674	   126.951
   -37.449	   122.874
    -4.054	   121.075
   -37.363	   122.578
   -20.874	   112.414
    11.146	   117.054
   -16.452	   133.950
   -30.583	   132.943
     1.000	   110.679
   -11.044	   123.122
    -4.411	   139.179
   -11.372	   119.687
   -14.914	   127.869
    -9.697	   109.319
   -27.309	   140.866
   -37.515	   127.998
   -14.604	   106.945
   -45.322	   144.858
    -6.892	   112.754
   -32.003	   141.743
   -32.620	   132.475
    -9.744	   114.742
   -19.103	   124.208
     0.446	   121.379
   -23.000	   131.596
   -27.137	   132.189
   -30.674	   115.710
   -29.203	   129.552
   -39.311	   137.497
    -3.713	   116.524
    -1.100	   118.868
   -32.248	   125.722
   -34.102	   125.581
   -28.494	   127.692
   -21.032	   110.103
   -32.770	   130.907
   -22.851	   129.131
   -18.059	   121.214
   -15.372	   121.636
   -32.735	   130.618
   -21.605	   125.395
    -7.370	   103.366
   -38.602	   128.549
   -18.192	   130.258
     7.639	   122.005
   -32.166	   139.675
   -26.550	   120.598
     4.151	   108.462
    -7.312	   105.468
    13.774	   124.308
   -12.419	   120.528
    -3.914	   136.105
   -32.451	   130.932
   -32.562	   128.757
    -1.757	   127.271
    26.336	   103.668
    13.776	   114.223
   -37.969	   125.074
   -15.553	   107.994
   -20.451	   107.050
   -16.560	   121.884
   -14.033	   133.325
   -14.931	   131.134
    -5.347	   126.232
   -19.933	   155.177
   -17.223	   138.272
   -35.988	   133.607
   -14.238	   132.108
   -44.804	   125.824
   -26.645	   133.040
   -15.096	   131.197
   -26.059	   123.844
   -16.366	   121.893
   -39.043	   140.055
   -18.457	   129.578
   -36.390	   124.419
   -34.247	   130.196
    -9.525	   129.234
   -12.946	   113.215
   -41.600	   131.919
   -40.061	   115.891
   -29.450	   133.441
   -15.029	   113.482
    12.278	   109.751
   -29.566	   114.261
   -14.902	   110.323
    -0.388	   113.411
    18.442	   109.991
   -14.734	   133.356
     8.586	   111.142
   -32.950	   138.387
   -25.868	   132.020
   -29.955	   120.279
   -20.472	   140.882
   -44.325	   129.792
   -28.698	   143.380
   -19.268	   114.255
   -24.789	   132.733
   -42.416	   135.757
   -31.884	   116.159
   -10.960	   108.753
   -28.624	   133.283
   -17.370	   128.400
   -18.867	   145.764
   -36.497	   109.340
    -7.135	   139.370
     0.453	   123.340
   -21.772	   119.779
   -38.053	   142.207
   -27.337	   145.508
   -20.415	   119.361
   -25.628	   118.618
   -40.373	   130.036
   -17.171	   125.033
    -8.274	   119.846
   -10.254	   109.324
    -3.844	   115.567
    -4.585	   131.291
    13.046	   119.647
   -23.719	   115.700
   -27.525	   124.123
   -28.439	   117.926
   -29.455	   131.151
   -16.578	   116.842
   -10.781	   127.124
    -4.449	   105.120
     8.129	   121.369
    45.075	   126.810
    39.843	   154.063
    49.159	   145.068
    51.801	   130.103
    41.232	   155.662
    30.647	   126.669
    28.455	   132.838
    42.586	   131.302
    69.183	   145.543
    47.379	   141.053
    43.621	   120.417
    32.334	   103.875
    -1.465	   124.502
    -2.450	   122.032
   -15.113	   113.771
   -29.163	   125.616
   -16.906	   131.948
   -17.696	   136.614
   -44.063	   153.711
   -29.473	   127.562
   -19.422	   126.037
   -29.075	   124.315
   -23.887	   131.960
   -30.861	   131.049
   -29.596	   127.071
   -26.185	   128.553
   -41.411	   137.228
   -28.526	   119.214
    -6.288	   144.140
    19.411	   120.991
   -28.365	   141.837
   -33.513	   144.567
   -30.934	   154.382
    -3.537	   120.403
   -24.569	   118.939
   -14.301	   129.759
   -11.363	   124.084
   -37.239	   128.620
   -16.864	   127.812
   -37.917	   128.016
   -20.347	   134.895
   -32.933	   133.853
   -45.666	   134.141
   -20.814	   117.123
   -11.525	   116.281
   -19.494	   133.317
   -15.733	   131.541
     2.261	   130.338
   -15.310	   122.205
   -37.654	   143.576
   -20.703	   120.242
   -46.606	   152.379
   -15.513	   135.208
   -43.764	   148.565
   -32.504	   133.061
   -17.552	   121.058
     3.419	   128.053
   -37.212	   130.341
    16.049	   114.689
    24.207	   122.659
    23.237	    95.476
   -13.612	   130.762
     9.666	   110.934
    -5.834	   118.025
   -26.771	   117.037
   -27.415	   118.515
   -25.937	   134.286
   -18.914	   131.713
   -28.783	   125.654
   -48.665	   130.273
   -37.975	   136.147
     0.429	   109.250
   -13.815	   134.009
   -27.832	   124.143
    22.944	   109.730
   -10.831	   120.982
   -22.024	   145.327
   -19.588	   136.675
   -37.276	   134.195
   -46.508	   128.644
   -19.414	   123.682
   -24.557	   129.472
   -34.338	   143.513
   -18.841	   123.381
   -27.465	   135.006
   -32.059	   136.176
   -30.393	   108.236
   -43.313	   135.460
   -37.408	   121.644
     1.057	   108.535
    -2.940	   135.128
     3.384	   128.135
    -4.149	   120.477
   -27.751	   121.786
   -49.566	   139.013
   -15.344	   128.165
   -10.644	   140.274
   -24.271	   125.382
   -36.334	   129.501
   -10.320	   140.498
   -34.492	   136.482
   -31.296	   154.141
   -42.349	   133.932
   -22.339	   114.581
   -23.543	   132.953
    10.860	    94.805
    18.536	   108.737
   -12.294	   137.917
    17.466	   119.456
     2.045	   111.442
   -29.170	   136.453
   -13.792	   104.846
   -40.030	   140.615
   -43.921	   140.947
   -19.045	   130.489
   -33.702	   132.233
   -23.179	   111.662
     2.865	   104.512
   -27.773	   126.558
   -15.486	   133.940
   -21.629	   125.676
   -23.182	   122.741
   -20.400	   138.097
   -31.650	   130.145
   -29.752	   143.742
   -15.127	   122.479
   -30.438	   132.613
   -13.289	   123.976
   -38.114	   130.048
   -28.406	   132.758
   -46.480	   143.921
   -39.660	   149.994
   -27.834	   128.555
   -13.237	   127.494
     6.951	   118.522
     2.810	   131.123
   -33.606	   151.452
   -17.709	   142.149
   -32.081	   131.430
    -4.249	   125.805
   -26.822	   110.713
   -15.586	   133.512
   -17.588	   126.205
    31.648	   106.832
    19.469	   112.812
    20.719	   117.639
    25.533	   104.923
     5.279	   114.220
    12.978	   105.938
   -13.123	   115.326
     6.237	   121.400
     2.557	   127.809
   -21.114	   114.378
    12.335	   117.529
    -9.838	   125.358
     9.710	   101.027
   -15.112	   112.602
     8.828	   125.021
    -1.588	   101.883
   -34.393	   140.058
   -34.864	   132.249
   -20.291	   141.223
    -5.671	   105.855
   -29.570	   124.762
   -14.117	    99.131
    23.126	   115.741
    45.588	   112.051
    29.985	   121.039
    44.904	   123.640
    41.555	   110.297
    35.077	   131.788
    33.286	   122.372
    52.939	   101.869
    47.949	   128.037
    43.116	   124.760
   -44.122	   136.192
   -41.534	   141.493
   -16.076	    97.921
   -42.256	   122.491
     2.833	   102.034
   -24.875	   113.661
   -25.093	   132.705
   -18.527	   129.675
   -14.908	   137.899
   -13.026	   122.305
   -25.596	   131.486
   -32.500	   128.697
   -27.341	   131.552
   -32.011	   136.538
   -55.107	   134.397
   -35.006	   125.120
   -40.412	   118.473
   -30.884	   137.633
   -17.045	   131.338
   -36.106	   132.947
    -6.677	   127.994
   -19.367	   135.810
   -21.398	   148.654
   -14.851	   119.940
   -26.891	   124.969
   -29.995	   126.755
    -6.190	   119.394
    10.783	   124.337
   -25.771	   127.131
    22.608	   113.243
    19.710	   119.804
     8.259	   109.513
    26.462	   103.808
    14.739	   111.982
    22.332	    99.256
    15.600	   120.182
    12.407	   101.828
    20.457	   105.327
   -15.961	   131.131
   -20.675	   130.984
     6.772	   130.116
   -30.135	   141.118
   -26.214	   130.207
    -6.388	   111.287
   -36.693	   128.406
     7.493	   108.586
   -42.148	   120.591
   -10.828	   137.024
   -16.240	   132.601
   -12.986	   129.561
    -1.715	   119.889
   -44.118	   131.142
   -30.564	   140.616
   -21.377	   138.164
   -20.628	   127.943
   -31.120	   136.896
   -15.752	   126.716
   -19.814	   135.159
   -33.449	   120.979
   -30.091	   122.036
   -32.688	   124.763
   -15.887	   150.143
    -7.673	   120.748
   -28.329	   132.509
   -10.656	   128.756
   -26.595	   131.959
   -13.048	   122.710
   -26.189	   126.168
   -37.022	   138.194
   -12.419	   124.928
   -29.112	   129.276
   -33.583	   121.817
   -21.066	   108.773
   -50.145	   146.800
    -3.388	   108.365
   -16.663	   127.127
    -5.102	   133.454
   -27.689	   134.130
   -11.115	   112.429
   -19.087	   121.795
   -31.306	   135.273
   -27.607	   140.979
   -10.752	   128.412
   -31.697	   133.012
   -13.521	   121.793
   -14.606	   128.814
   -26.416	   137.211
   -46.142	   123.161
   -20.959	   131.569
   -19.178	   116.263
   -36.412	   123.844
   -29.266	   112.079
   -20.378	   119.097
   -22.698	   108.531
   -22.810	   133.058
   -32.314	   133.112
   -21.767	   118.051
   -36.554	   135.264
   -12.182	   128.046
   -13.519	   129.396
    15.685	   106.244
    50.352	   152.489
    40.423	   145.389
    24.092	   137.642
    26.058	   103.019
     6.667	   104.501
   -18.631	   133.652
    -2.327	   125.150
   -22.985	   123.254
   -25.947	   114.974
   -40.349	   132.773
   -27.088	   143.551
   -19.917	   121.383
   -45.041	   127.563
   -26.650	   109.930
   -23.347	   124.324
   -21.907	   123.401
   -38.140	   126.412
   -38.466	   129.148
   -36.474	   126.252
   -24.227	   108.285
   -36.433	   126.438
   -16.233	   113.206
   -40.240	   149.427
   -46.863	   125.507
   -15.567	   108.956
   -29.227	   129.873
   -28.348	   139.377
   -21.910	   140.700
   -35.215	   146.173
    -7.928	   129.618
   -24.971	   126.769
   -34.902	   143.160
   -38.608	   137.183
   -24.001	   138.849
   -36.975	   137.377
   -25.818	   146.347
   -25.174	   111.891
   -10.899	   104.568
    19.800	   102.785
    -5.516	   123.406
    -4.865	   111.249
    -7.567	   129.683
   -27.036	   129.771
   -17.107	   129.856
     8.414	   120.778
    -1.095	   130.208
   -46.037	   122.834
    22.523	   124.158
    -2.625	   130.538
    -8.175	   142.541
   -25.503	   132.291
   -21.916	   119.167
   -29.115	   124.371
   -39.745	   134.716
   -20.596	   136.835
    -6.814	   122.069
   -36.199	   141.125
   -44.853	   144.169
   -15.843	   126.305
   -27.594	   152.137
   -33.927	   127.356
   -28.824	   130.856
   -20.109	   130.404
   -30.116	   137.160
   -32.795	   151.070
   -19.978	   129.508
   -30.753	   138.215
   -27.898	   139.574
   -24.810	   125.708
   -19.982	   128.540
   -27.818	   124.871
   -18.878	   136.728
   -36.623	   146.014
    -6.451	   120.057
   -20.627	   132.075
   -42.409	   137.219
   -27.690	   111.266
   -26.409	   137.185
   -10.308	   119.877
   -13.286	   126.462
   -35.115	   146.316
   -36.477	   145.956
   -25.335	   137.926
   -40.052	   129.787
   -29.985	   144.303
   -30.970	   130.660
   -19.502	   125.950
     6.168	   116.479
   -16.200	   118.885
   -34.644	   122.806
   -20.138	   134.082
   -12.401	   116.712
   -28.340	   137.414
   -28.756	   126.505
   -26.320	   130.141
   -27.824	   125.530
   -15.973	   118.604
   -20.851	   131.277
   -41.805	   143.936
   -27.042	   133.204
   -47.792	   139.211
   -47.565	   143.569
   -10.079	   123.704
   -32.067	   132.629
   -22.478	   128.150
   -15.551	   124.422
   -37.669	   143.540
   -35.786	   149.202
   -37.853	   137.446
   -22.214	   140.530
    11.125	   120.283
   -32.765	   143.613
    -7.858	   116.719
    -8.616	   122.892
    19.527	   112.014
   -36.770	   137.602
   -35.315	   149.437
   -17.497	   112.902
   -25.769	   133.454
   -27.752	   141.329
   -12.492	   125.822
   -14.687	   120.106
   -35.396	   117.833
   -23.240	   145.344
   -19.007	   126.789
     2.096	   116.294
   -25.154	   133.941
   -23.678	   121.998
   -28.593	   128.135
   -27.869	   132.928
   -42.094	   130.525
   -33.776	   138.114
   -26.643	   127.140
   -30.120	   122.679
   -51.338	   132.763
   -31.138	   139.141
   -24.549	   133.882
    -5.767	   122.645
     8.975	   123.588
    22.627	   107.038
    35.365	   111.231
     3.446	   140.503
   -19.734	   139.710
   -28.801	   143.711
   -41.973	   138.735
   -29.491	   141.170
   -31.562	   141.759
   -49.048	   153.797
   -40.647	   139.856
   -33.350	   122.034
   -22.536	   122.519
