   -92.310	   122.143
  -145.583	    90.039
  -163.574	    89.812
  -164.505	   110.642
  -160.506	   120.023
  -155.000	   117.096
  -170.352	   100.759
  -166.630	    99.397
  -165.728	   124.892
  -167.686	   108.618
  -172.676	   105.630
  -165.818	   104.488
  -160.299	   111.830
  -163.895	   107.756
   177.528	   125.273
  -167.695	    93.937
  -157.016	   132.528
  -168.454	   119.747
  -160.432	   114.611
   175.350	   101.222
  -172.478	    84.657
  -169.736	   133.938
  -174.696	   111.166
  -174.870	   140.911
  -175.581	   115.644
  -162.385	   105.347
   170.314	   135.518
  -170.102	   116.928
  -175.575	   135.831
  -150.950	   138.356
  -162.258	   102.858
  -158.955	   119.100
  -154.309	   139.090
  -159.584	   114.868
   178.254	    91.667
  -173.472	   125.242
  -169.071	   148.616
  -162.417	   128.791
  -161.574	   108.656
  -175.726	   116.846
  -168.277	   115.112
  -166.635	   125.171
  -178.369	   117.481
  -158.693	    98.178
  -150.560	    90.753
  -163.560	   121.686
   177.715	    95.016
   170.245	   124.950
  -163.875	   128.571
  -171.738	   119.908
  -177.312	   125.344
  -159.302	   107.158
  -171.585	   112.610
   174.895	   111.959
  -165.274	   115.627
  -171.078	   112.738
  -157.145	   104.779
  -160.777	   102.649
   178.553	   101.740
  -176.319	   123.058
  -162.600	   109.817
  -171.650	   116.027
  -168.945	   104.943
  -174.929	   117.349
  -172.521	   121.113
  -155.023	   139.285
  -166.423	   101.303
  -158.068	   111.262
   173.687	    62.747
  -156.172	   111.108
  -160.144	   128.872
  -157.182	   101.518
  -162.640	   116.474
  -165.765	   104.105
   169.574	   114.694
  -159.770	    94.256
  -163.769	    77.664
   178.051	   129.004
  -164.494	    89.821
  -164.120	   121.149
  -151.878	   126.820
  -162.274	   129.925
  -165.554	   112.416
  -171.714	   104.606
  -167.832	    97.417
  -161.496	   115.387
  -162.193	    76.117
  -174.400	    96.919
  -156.589	    95.290
  -176.265	   100.193
  -161.496	    85.884
  -176.511	   101.826
  -156.727	   123.759
  -176.488	   122.391
  -163.311	   107.276
  -169.586	   128.380
  -175.934	   117.120
  -170.548	   134.365
  -154.540	   117.813
  -170.376	    96.975
  -155.774	   105.565
  -167.554	   115.501
  -172.732	   110.958
  -159.804	   123.681
  -154.963	    95.564
  -157.361	   103.581
  -151.240	    90.986
  -172.584	   112.758
  -167.598	   104.485
  -164.107	    82.855
  -164.809	   111.400
  -159.284	   102.790
  -170.692	   108.944
  -167.165	   117.424
  -169.700	    93.324
  -165.621	   136.253
   179.312	   102.851
  -160.233	   123.265
  -166.416	   111.229
  -169.384	   101.892
  -164.761	   119.394
  -169.322	   141.442
  -175.392	   113.921
  -154.518	   120.049
  -158.652	   120.899
  -173.274	   101.407
  -164.355	   114.706
  -158.657	   119.992
  -157.537	   127.697
  -165.498	   132.322
  -155.850	    96.436
  -157.929	   106.353
  -153.286	   120.437
  -169.020	   103.156
  -172.106	   125.117
  -174.158	   110.988
  -160.777	   101.603
  -171.321	   110.343
  -153.885	   125.034
  -159.264	   127.012
  -165.762	   125.178
  -157.764	   130.779
  -169.881	   121.249
  -168.175	   107.785
  -177.576	   118.726
  -166.450	   123.081
  -177.816	   108.222
  -168.015	   126.315
  -166.824	   113.494
  -170.205	   141.734
  -160.294	   133.845
  -167.465	   141.824
  -176.578	   119.874
  -163.437	   124.293
  -175.674	   113.380
  -170.714	   113.976
  -156.690	    93.765
  -168.314	   107.079
  -166.521	   114.237
  -161.851	   112.804
  -163.917	   123.153
  -154.771	   121.492
  -163.163	   117.026
  -161.367	    94.012
  -173.880	    93.178
  -172.142	    94.462
  -165.268	    99.182
  -154.210	   106.076
  -166.626	   140.712
  -163.273	   105.480
  -169.038	    97.637
  -144.900	   113.400
  -168.579	    98.496
   179.602	   129.914
  -176.983	   122.595
  -172.457	   126.763
   179.740	   132.614
  -154.684	    99.162
  -166.972	   108.152
  -172.388	   136.954
  -159.157	   123.372
  -159.599	   135.408
  -160.421	   116.390
  -172.751	   108.969
  -162.314	   113.647
  -170.619	   117.333
  -170.783	   129.455
  -163.059	   119.985
  -173.439	   119.761
  -169.047	   115.908
  -176.076	   115.177
  -173.271	   126.335
  -176.869	   132.278
   175.898	    88.574
  -172.595	    90.938
  -167.993	   125.396
  -176.408	   117.972
  -161.640	   132.276
  -167.561	   121.107
  -166.282	   114.274
  -158.565	   131.052
  -170.358	   124.492
  -175.983	   100.454
  -168.587	    99.759
  -170.915	   118.342
  -172.502	   109.379
  -161.350	   110.431
  -168.336	   102.027
  -168.820	   138.542
  -166.743	    95.022
  -154.924	    92.284
  -170.611	    95.227
  -164.006	   134.283
  -178.437	    99.072
  -170.362	   109.153
  -150.779	   138.898
  -158.260	   125.284
  -173.392	    92.640
  -163.234	   102.370
  -175.573	   115.513
  -155.658	    99.888
   176.408	   100.722
  -156.778	    85.704
  -155.511	   105.577
  -160.915	   122.768
  -144.411	   139.152
  -151.965	   126.536
  -165.149	   111.412
  -171.617	   114.369
  -171.909	   120.260
  -170.299	   112.483
  -162.030	   128.105
  -172.260	   103.625
  -153.566	   117.590
  -169.503	    89.489
  -171.020	    97.378
  -157.650	   123.825
  -144.341	   111.089
  -165.239	   106.764
  -167.064	   119.771
  -166.656	   126.769
  -167.874	   105.221
  -164.194	    88.765
  -168.015	   126.890
  -161.590	   111.494
  -153.885	   108.747
  -154.808	   135.301
  -169.613	   153.448
  -160.619	   126.874
  -173.246	   104.852
  -156.862	   132.109
  -164.277	   129.180
  -164.324	   111.936
  -174.877	   111.573
  -164.271	   130.896
  -157.261	   101.641
  -169.707	   123.180
  -175.648	    86.148
  -162.813	   110.330
   179.974	    94.628
  -172.973	    78.768
  -177.945	    90.859
  -168.975	    96.682
  -165.263	   100.748
  -161.290	   105.503
  -147.689	   110.702
  -169.268	   107.639
  -159.611	    92.107
  -175.747	    98.545
  -171.896	    84.479
  -155.071	   104.165
  -169.813	   128.189
  -165.601	   116.443
  -166.944	   118.481
  -175.422	   130.848
  -163.304	    98.134
  -167.235	   122.503
  -163.038	   116.813
  -170.739	   127.462
   173.784	   129.226
  -155.774	   114.040
  -168.356	   119.967
  -169.580	   115.421
  -145.425	    97.061
   177.083	    94.990
  -172.004	   116.102
  -154.421	   117.436
  -160.603	   126.687
  -173.436	   100.106
  -163.279	   112.761
  -171.658	   122.328
  -159.347	   109.233
   176.751	   102.443
  -169.171	   124.154
  -176.239	   112.976
  -168.893	   123.877
  -154.060	   122.834
  -173.813	    98.558
   174.678	   125.299
  -159.411	    84.347
   176.572	   102.445
  -176.575	   125.265
  -172.287	   115.622
  -167.734	   130.930
  -169.050	   106.675
  -171.125	    78.455
  -174.141	   125.203
  -167.243	   112.687
  -170.140	   108.901
  -164.227	   107.098
  -168.052	   145.322
  -178.128	   125.598
   176.568	   119.184
  -151.373	   121.974
  -154.934	   113.412
  -164.372	   107.623
  -171.130	   113.795
  -153.950	   113.752
  -177.311	   124.781
  -153.633	   127.670
  -158.460	   115.772
  -176.219	   126.032
  -162.678	   142.064
  -169.612	   128.317
  -153.439	   107.072
  -170.770	   113.965
  -163.135	   117.541
  -164.909	    85.084
  -164.746	   128.265
  -156.130	   107.238
  -172.558	   115.659
   178.037	    91.876
  -173.753	   116.477
  -164.050	   129.733
   171.323	   103.565
  -170.797	   116.086
  -171.841	   103.817
  -170.241	   103.454
  -170.455	   117.170
  -176.801	   107.775
  -166.633	   113.235
  -170.325	   123.548
  -169.537	   129.531
  -168.382	   112.929
  -163.097	   126.861
  -175.416	   119.653
  -161.974	   125.340
  -159.051	   139.569
  -156.574	   107.743
  -169.814	   108.465
  -171.333	    96.196
  -151.765	    99.624
  -164.165	   107.303
  -162.850	    94.882
  -171.654	   107.262
  -160.313	    97.407
  -168.696	    88.894
  -163.586	   110.823
  -175.268	   133.351
  -172.379	   118.434
  -161.988	   110.196
  -159.084	   109.234
  -161.111	   114.559
  -148.364	    95.038
  -173.129	   111.938
  -166.694	   126.133
  -176.132	   111.669
  -162.454	   107.051
  -160.711	   113.621
  -165.763	    83.731
  -172.892	   102.866
  -167.910	   113.602
  -172.160	   111.045
  -175.796	   130.648
   179.924	   104.038
  -169.847	   124.024
  -171.134	   101.884
  -174.626	   118.929
  -157.171	   104.143
  -160.724	    93.001
  -164.613	   116.542
  -164.503	    99.064
  -152.133	   129.167
  -167.363	    89.918
  -163.839	   107.399
  -163.238	   101.753
  -150.931	   111.440
  -165.195	    98.710
  -159.279	   126.177
  -166.751	   125.526
  -155.767	    88.322
  -170.086	   115.533
  -157.434	   132.569
  -177.232	   106.508
  -171.873	   139.530
  -158.031	   119.747
  -178.749	   122.040
  -157.779	   129.387
  -169.711	   116.999
  -163.756	    75.273
  -178.516	    98.742
  -177.144	   121.349
   171.953	   122.265
  -161.503	   121.534
  -177.581	   105.737
  -164.208	    88.532
  -173.889	   119.039
  -172.705	    93.824
   168.774	    96.988
  -169.846	    88.756
  -168.798	   120.983
  -174.647	   106.713
  -152.190	   103.227
  -162.710	   118.738
  -159.253	   130.799
   178.019	   130.999
  -172.935	   122.727
  -150.671	   108.699
  -165.431	   110.314
  -167.834	   141.074
  -155.080	    81.612
  -177.497	   134.001
  -165.168	   115.843
  -177.707	   133.251
  -159.067	   120.747
  -172.506	   111.870
   176.866	   113.905
  -172.373	   116.450
   179.526	   114.739
  -157.373	   108.557
  -157.996	   119.343
  -162.197	    96.810
  -170.021	    90.788
  -172.402	   106.561
  -169.368	    88.958
  -167.412	   114.100
  -157.013	   114.237
  -154.949	    98.284
  -152.959	   101.172
  -160.996	    96.415
  -161.093	   124.605
  -172.822	    98.484
  -166.607	   109.902
  -162.900	   122.858
  -176.579	   115.782
  -161.056	   113.581
  -178.921	   121.054
  -152.827	   114.197
  -147.668	   112.918
  -174.218	   107.571
  -171.955	   111.670
  -168.588	   117.844
  -160.216	    95.043
  -158.514	   112.101
  -167.260	   124.146
  -169.126	   125.717
  -174.996	   116.810
  -163.421	   120.743
  -178.886	    99.556
   176.191	    95.229
  -157.319	   112.720
  -165.158	   139.389
  -163.369	   133.659
  -152.858	   123.089
  -166.949	   101.798
  -151.009	   105.871
  -153.785	   100.058
  -158.065	   111.941
  -163.952	   107.453
  -167.764	    80.819
  -165.703	   110.989
   175.980	   102.295
  -162.768	   100.244
  -156.025	    92.483
  -166.010	   118.703
  -162.142	   133.367
  -156.694	   129.555
  -161.182	   121.303
   179.094	   124.597
  -171.330	    96.505
  -177.655	   110.158
  -157.743	    96.611
   178.863	   115.916
  -162.057	   120.977
  -167.714	   120.515
  -165.817	   118.977
  -167.233	   103.746
   179.836	   101.603
  -176.441	   143.968
  -170.592	   125.109
  -160.149	   128.604
   177.249	   112.959
  -163.712	   118.141
  -178.583	   113.739
  -164.038	   103.879
  -172.741	   110.381
   179.552	   125.378
  -157.930	   109.730
  -161.536	   113.374
   179.980	   121.323
  -175.059	   104.487
  -167.197	   140.388
  -167.852	   128.436
  -171.268	   104.969
  -163.509	   104.674
  -163.738	   130.075
  -174.490	   107.074
  -172.877	   118.753
  -167.775	   104.540
  -171.210	   121.652
  -153.663	   105.330
  -167.103	   110.365
  -161.585	   120.203
  -172.801	   106.675
   179.385	   122.296
   166.071	   137.053
  -169.469	   131.287
  -172.743	   116.575
  -160.538	   107.560
  -167.501	    97.778
  -174.574	   137.912
  -157.399	   102.560
  -173.113	   116.789
  -163.322	   130.251
  -159.703	   129.254
  -155.553	   113.537
  -165.664	   119.939
  -179.111	   128.506
  -172.200	   129.255
  -171.546	   140.919
  -179.097	   125.956
  -169.705	   130.298
  -177.012	   101.324
  -173.258	    95.024
  -162.677	   122.807
  -167.617	   144.878
  -165.782	   107.798
  -162.473	   101.303
  -170.690	   123.721
  -155.106	   122.106
  -150.143	   112.894
   178.568	   108.465
  -166.948	    87.045
  -154.665	   127.552
  -167.464	   112.445
  -164.901	   109.062
  -157.248	   126.289
  -167.170	   104.832
  -169.660	   101.246
  -164.704	    93.978
  -163.128	   104.714
  -158.147	   103.089
  -158.012	   107.292
  -175.495	   107.351
  -165.612	   111.273
  -156.054	   117.585
  -161.445	    90.265
  -156.049	   111.081
  -153.385	    84.008
  -168.932	    89.631
  -167.229	   106.030
  -170.526	   118.041
  -166.240	    88.826
  -171.125	   107.520
  -155.196	   100.717
  -165.369	   127.325
  -175.348	   118.997
  -178.361	   107.661
  -165.593	   108.230
  -150.243	   120.497
  -149.950	   128.856
  -168.996	   107.951
  -176.897	   111.438
  -164.498	   126.955
  -172.752	   106.785
  -171.094	   133.525
  -152.170	   112.429
  -167.083	   119.698
  -163.739	   120.534
  -157.163	   117.728
  -157.771	   112.966
  -167.212	    96.365
  -179.380	   110.480
  -172.059	   114.190
  -171.925	   119.634
  -167.116	   113.915
  -157.259	   113.950
  -151.472	   114.467
  -169.912	   110.002
  -167.264	   100.007
  -167.677	   122.725
   179.155	   114.321
  -169.444	   102.693
  -177.128	   119.829
  -168.110	   108.443
  -155.613	   114.461
  -165.132	   114.232
  -175.843	   103.495
  -179.288	   131.719
  -169.066	   112.152
  -158.610	   114.494
  -176.601	   121.315
  -164.369	   110.174
  -174.997	    99.978
  -155.454	   120.594
  -166.666	   104.567
  -162.007	   124.647
  -173.234	   104.243
  -172.376	    88.653
  -176.224	   110.079
  -161.494	   122.300
  -164.320	   112.411
  -167.175	    99.756
  -161.809	   112.790
   169.229	   150.201
  -160.515	   119.667
  -174.875	   140.282
  -164.014	   136.118
  -150.675	   114.164
  -166.618	    64.991
  -155.798	   119.816
  -167.400	    98.128
  -175.026	   147.366
  -169.076	   121.864
  -175.217	    96.861
  -167.361	    95.409
  -164.160	   125.304
  -176.044	   125.379
  -155.638	   107.164
  -178.703	    99.240
  -143.288	    81.432
  -176.408	   147.211
  -153.309	   119.858
  -161.951	    99.909
  -169.322	   119.726
  -176.731	   134.451
  -160.621	   105.949
  -163.011	   131.203
  -165.871	   138.954
  -172.622	   101.427
  -160.018	   110.141
  -168.071	   108.666
  -161.913	   117.054
  -159.736	   125.308
  -153.677	    92.317
  -161.824	   111.372
  -157.388	   112.476
  -163.056	   111.208
  -174.492	   126.408
  -153.884	   110.825
  -172.242	    89.220
  -154.480	   107.208
  -166.598	    88.382
  -172.812	   103.286
  -170.309	    97.135
  -166.077	   117.845
  -176.634	   106.343
  -153.292	    97.718
  -168.233	   112.253
  -164.742	   105.369
   179.687	   122.552
  -156.836	   112.235
  -170.771	   132.691
  -163.615	   111.572
  -166.708	   111.630
  -167.772	   133.627
  -160.144	   127.821
  -178.151	   117.826
  -174.932	    89.027
  -175.256	   109.541
  -172.193	    96.045
  -163.327	   111.599
  -153.069	   112.061
  -172.591	   134.268
  -169.839	    95.702
  -176.492	   119.222
  -167.971	    91.779
  -166.397	    88.301
  -162.893	   119.308
  -168.971	   116.045
  -172.226	   120.443
  -153.852	    86.830
  -164.950	    93.624
  -159.701	    81.212
  -157.731	    97.477
  -163.343	   112.275
  -178.174	   118.144
  -171.031	   115.671
  -163.367	   132.713
   178.782	   108.766
  -156.515	   116.707
  -178.635	   130.879
  -166.175	   124.307
   178.820	   127.560
  -155.373	   101.469
   175.768	   101.934
  -169.235	    97.969
  -163.410	    90.940
  -162.475	   102.961
  -165.993	   117.317
  -166.635	   119.634
   177.803	   129.430
  -165.242	   103.510
  -169.328	   114.244
  -165.342	   108.449
  -170.507	   107.864
  -168.162	   114.776
  -168.682	   103.866
  -168.110	   110.176
  -167.334	    95.989
  -175.156	   104.491
  -160.917	    92.842
  -163.967	    98.851
  -161.346	    98.013
  -156.195	    81.272
  -168.875	   117.489
  -162.644	    90.580
  -166.507	   100.800
  -169.768	   119.563
  -161.125	    79.793
  -167.210	   124.607
  -162.656	   126.429
  -150.451	    93.644
  -155.623	   121.890
  -170.967	   114.167
  -155.842	   105.133
  -163.165	   114.660
  -174.057	   127.870
  -162.656	   104.835
  -165.101	   119.996
  -168.001	   115.409
  -146.867	   104.687
  -170.884	   114.626
  -168.755	   121.630
  -160.863	   129.863
  -164.636	   114.764
  -176.454	    98.490
  -162.382	   118.573
  -169.820	   119.666
  -169.046	   117.862
  -157.271	   136.704
  -161.552	   106.478
  -156.986	   117.241
  -159.526	   126.123
  -143.833	   116.995
  -167.761	   116.201
  -168.487	   127.181
  -163.339	   138.190
  -174.789	   114.938
  -175.049	   107.341
  -165.711	   104.618
  -166.369	   112.899
  -168.385	   117.855
  -152.696	    99.889
  -176.344	   117.233
  -174.050	   111.590
  -176.023	   119.181
  -176.823	   113.462
  -163.474	   133.511
  -156.723	   123.508
  -163.672	   112.176
  -168.462	   129.898
  -172.003	   105.868
  -172.137	   121.728
  -177.360	   116.932
  -175.672	   106.115
  -167.236	   113.584
  -175.308	   135.048
  -177.700	   123.026
  -172.356	   121.210
  -149.033	    95.488
  -171.865	   106.323
  -168.526	   110.786
  -160.138	   124.147
  -161.831	   119.950
  -169.296	   124.102
  -176.914	   124.617
  -157.558	   123.274
  -172.329	   148.848
  -157.978	   129.687
  -169.304	   108.942
  -153.648	   129.495
  -160.651	   121.573
  -169.115	   111.161
  -177.788	   128.932
  -164.713	   124.893
   175.065	   112.804
  -168.475	   104.376
  -165.891	   125.728
  -164.651	   112.160
  -165.455	   111.229
  -158.445	   127.349
  -165.918	   120.633
  -164.566	    86.483
  -154.527	   106.071
  -165.424	   119.724
  -172.968	   108.745
  -169.960	   115.793
  -170.106	   103.041
  -164.618	   111.675
   176.293	   107.051
  -164.332	    93.070
  -165.614	   111.058
  -173.914	   104.484
  -164.724	    90.570
  -174.966	   101.376
  -162.333	   105.464
  -156.599	    92.368
  -158.737	    97.241
  -162.857	    96.340
  -172.174	   105.290
  -165.408	   100.089
  -150.701	   105.763
   177.048	    94.948
  -172.559	   110.463
  -148.663	    95.850
  -172.519	   101.750
  -169.203	   122.347
  -167.185	    95.609
  -164.055	   121.907
  -172.439	   108.686
  -155.506	   102.620
  -168.766	    96.051
  -158.229	    80.188
  -158.582	    88.421
  -164.642	   109.388
  -168.748	   101.725
  -176.044	   117.080
  -175.793	   110.370
  -168.522	    98.404
  -165.734	   110.605
  -154.930	   101.806
  -162.041	   123.133
  -166.968	   116.151
  -161.805	   132.344
  -169.451	   131.145
  -156.985	   123.823
  -172.877	    99.944
  -163.471	    93.274
  -167.329	   114.063
  -156.278	   118.708
  -165.791	    98.189
  -162.109	   112.102
  -170.348	   108.431
  -162.039	   133.718
  -163.210	   115.594
  -173.818	   130.520
  -178.825	   106.827
  -159.171	   118.489
  -170.639	    94.157
  -164.686	   103.203
  -169.623	   111.467
  -158.164	   107.604
  -176.527	   112.235
  -160.403	    55.499
  -173.244	   101.634
  -164.393	   112.215
  -163.750	    95.424
  -167.237	   114.950
  -158.845	   118.917
  -159.367	   114.348
  -154.384	   116.469
  -175.146	    99.786
  -165.982	   116.360
  -165.257	    95.113
  -158.022	   123.743
  -151.944	   110.206
  -147.175	    98.374
  -176.287	   114.862
  -159.429	   118.040
  -152.668	   122.154
  -171.274	   108.942
  -158.808	   116.479
  -151.513	   123.984
  -157.351	   106.030
  -161.282	   124.545
  -175.434	   113.516
  -167.247	   115.315
  -158.045	   119.962
  -174.315	   116.657
  -173.601	    95.293
  -167.132	   108.719
  -161.449	    84.602
  -164.656	   116.360
  -162.736	    84.695
  -169.929	   103.964
  -160.554	   120.778
  -164.661	   113.224
  -177.328	   118.608
  -174.405	   133.190
  -167.332	   124.729
  -179.706	   131.301
  -168.716	   124.037
   177.160	   102.479
  -178.782	   122.445
  -162.026	   128.973
  -172.803	   131.618
  -174.133	   132.533
  -156.305	   117.813
  -165.854	    99.033
  -161.625	    83.854
  -146.075	    83.204
  -175.670	   115.388
  -166.741	   125.654
  -152.113	   124.169
   175.369	   135.753
  -179.467	   113.771
   179.035	   140.404
  -158.365	   132.074
  -177.974	   113.974
  -159.708	   116.777
  -175.525	   139.746
  -167.350	   118.975
  -168.458	   115.861
  -171.004	    96.992
  -176.514	   107.426
  -172.808	   105.978
  -154.303	   118.126
  -174.278	   107.676
  -163.533	    81.723
  -175.451	   107.547
  -158.284	   130.986
  -158.674	   119.045
  -158.807	   100.583
  -162.640	   119.053
  -178.134	    91.987
  -162.335	   126.600
  -171.511	   106.918
  -162.812	   115.259
  -171.869	   101.065
  -174.734	   121.970
  -172.765	   135.999
  -162.480	   111.660
  -164.141	   106.087
   179.606	   131.584
  -156.541	   124.281
  -171.427	   113.047
  -157.450	   127.135
  -162.948	   120.564
  -164.332	   117.358
  -159.897	   126.454
   172.017	   130.710
  -155.788	    87.808
  -154.410	   112.385
  -162.254	   123.856
  -173.041	   116.127
   179.325	    99.644
  -167.886	   109.164
  -177.750	   127.059
   177.344	   107.385
  -165.457	   103.031
  -166.277	   113.274
  -172.915	   122.978
  -159.510	   125.258
  -162.727	   113.018
  -179.325	   132.031
  -172.546	    91.908
  -154.780	   122.903
  -168.227	   131.504
  -161.707	   118.031
  -163.698	   118.048
  -172.529	   129.786
  -166.435	   137.596
  -168.063	   115.712
  -168.979	   124.216
  -170.315	   115.697
  -175.331	   119.062
  -165.949	   130.268
   165.109	   126.614
  -169.975	   128.520
  -179.774	   106.720
  -168.223	   113.828
  -169.353	   103.383
  -161.616	   121.858
  -154.798	   102.171
  -163.183	   122.324
  -151.049	   106.692
  -173.497	    95.599
  -179.032	   133.084
  -168.461	   124.036
  -168.350	   118.574
  -169.462	    96.899
  -176.718	   105.538
  -153.347	   101.795
  -170.651	   117.613
  -173.069	    90.496
  -158.293	   118.799
  -155.617	   112.287
  -161.080	   115.189
  -155.893	   100.384
  -162.585	    93.432
  -166.130	    95.582
   174.583	   123.481
  -159.459	   116.711
  -174.452	   120.053
  -179.423	   111.110
  -173.656	   114.221
  -176.678	    66.668
  -159.723	   112.509
  -169.294	    89.697
  -167.791	    95.999
