   -92.310	   122.143
  -142.321	    55.540
  -128.552	    31.521
  -161.902	    35.728
  -114.488	    18.944
  -124.575	    36.132
  -128.673	    36.820
  -137.919	    21.166
  -155.973	    49.874
  -122.534	    11.312
  -137.144	    35.657
  -132.833	    14.726
  -134.734	    40.268
  -115.842	    26.900
  -140.804	    39.236
  -138.837	    56.238
  -148.084	    47.674
  -139.022	    40.998
  -147.943	    63.411
  -119.937	    33.984
  -174.214	    48.012
  -143.082	    35.536
  -135.303	    38.269
  -143.466	    42.118
  -147.362	    40.461
  -115.224	    25.561
  -139.965	    21.763
  -144.116	    35.902
  -122.850	    20.240
  -125.285	    23.242
  -140.623	    30.018
  -145.528	    32.282
  -139.856	    37.367
  -148.597	    37.071
  -151.777	    40.366
  -140.191	    21.112
  -138.048	    31.030
  -148.163	    40.762
  -136.532	    20.751
  -128.029	    36.698
  -145.283	    26.794
  -120.445	    30.992
  -140.153	    40.578
  -157.533	    23.378
  -137.020	    36.651
  -134.637	    19.375
  -107.787	    32.382
  -120.718	    36.301
  -137.822	    30.224
  -102.907	    48.793
  -141.448	    25.577
   -98.864	    36.233
  -128.488	     6.984
  -114.748	     4.609
  -136.925	    47.660
  -133.404	    15.960
  -147.209	    11.805
  -142.741	    24.350
  -122.218	    30.457
  -124.154	    33.599
  -112.544	    35.630
  -156.259	    37.261
  -145.532	    36.262
  -142.564	    32.673
  -164.663	    29.964
  -133.197	    29.877
  -134.016	    42.005
  -131.192	    13.634
  -127.202	    30.607
  -140.608	    19.301
  -121.497	    51.384
  -128.993	    39.098
  -157.117	    27.239
  -166.579	    40.574
  -147.474	    52.587
  -134.917	    28.620
  -112.965	    52.929
  -132.449	    20.048
  -131.646	    24.245
  -121.583	    28.774
  -140.020	    32.565
  -137.050	    40.769
  -127.279	    52.899
  -104.355	    23.960
  -131.398	    20.721
  -132.394	    33.963
  -159.679	    19.890
  -125.140	    36.711
  -140.700	    24.153
  -124.049	    31.458
  -129.622	    19.301
  -154.428	    40.159
  -136.595	    43.939
  -131.234	    49.088
  -127.148	    20.301
  -125.894	    67.102
  -119.682	    45.545
  -129.469	    45.278
  -154.635	    33.854
  -144.149	    21.370
  -121.664	    41.356
  -128.413	    45.352
  -126.062	    30.519
  -132.156	    44.640
  -122.539	    50.210
  -122.885	    14.792
  -148.805	    48.898
  -141.237	    36.426
  -138.996	    36.072
  -142.360	    48.134
  -140.118	    28.047
  -154.171	    39.886
  -149.711	    23.117
  -142.044	    50.816
  -143.617	    50.535
  -139.095	    33.234
  -144.922	    41.360
  -115.822	    18.330
  -143.884	    25.218
  -153.183	    23.117
  -126.633	    40.079
  -146.937	    44.617
  -133.915	    21.694
  -134.769	    32.380
  -145.515	    48.152
  -154.296	    16.657
  -151.556	    37.734
  -139.038	    35.184
  -149.210	    34.583
  -119.446	    23.873
  -129.420	    37.515
  -147.498	    32.920
  -137.195	    35.132
  -141.001	    25.104
  -137.633	    16.145
  -144.674	    34.053
  -144.077	    29.997
  -133.557	    39.229
  -131.557	    43.549
  -140.535	    44.180
  -133.647	    46.323
  -133.146	    52.730
  -124.147	    29.695
  -158.029	    61.180
  -153.468	    27.867
  -138.548	    29.272
  -149.837	    24.094
  -126.351	    36.902
  -143.647	    37.037
  -137.033	    44.097
  -158.133	    64.422
  -143.371	    25.765
  -135.221	    25.898
  -145.343	    47.398
  -124.350	    34.153
  -133.018	    33.143
  -145.395	    33.593
  -131.280	    38.974
  -146.615	    25.573
  -147.088	    36.582
  -142.166	    30.589
  -140.292	    18.007
  -130.293	    11.528
  -149.649	     5.771
  -147.004	    17.042
  -129.785	    26.056
  -139.251	    35.486
  -146.325	    34.472
  -137.809	    34.480
  -113.370	    66.056
  -121.661	    14.831
  -137.618	    12.164
  -134.953	    42.968
  -141.869	     8.187
  -147.211	    17.394
  -142.551	    44.215
  -144.526	    44.614
  -148.312	    34.919
  -149.829	    39.153
  -149.698	    54.523
  -130.472	    21.695
  -135.650	    27.412
  -142.032	    54.433
  -127.153	    44.542
  -138.839	    38.779
  -137.379	    39.650
  -145.068	    36.340
  -139.800	    39.222
  -139.243	    40.707
  -147.427	    35.984
  -144.186	    56.582
  -144.004	    30.983
  -146.353	    34.349
  -136.618	    45.683
  -135.905	    37.625
  -136.312	    42.282
  -136.896	    27.728
  -130.891	    35.481
  -138.417	    45.921
  -119.009	    32.048
  -142.347	    27.099
  -135.805	    38.209
  -142.707	    40.413
  -135.390	    61.554
  -122.211	    49.088
  -143.677	    17.790
  -142.977	    32.939
  -130.904	    44.790
  -115.037	    24.064
  -143.898	    32.199
  -134.931	    19.074
  -135.741	     4.480
  -162.148	    20.700
  -145.447	    13.877
  -137.890	    42.192
  -122.393	    36.618
  -146.833	    45.368
  -143.092	    48.840
  -133.584	    37.328
  -122.046	    23.564
  -115.934	    34.173
  -119.368	    44.275
  -151.736	    22.535
  -131.752	    28.243
  -122.628	    27.600
  -118.039	    22.676
  -137.131	    28.166
  -120.850	    36.918
  -126.612	    23.895
  -135.230	    27.808
  -129.546	    26.669
  -141.820	    32.444
  -111.995	    40.959
  -123.146	    44.863
  -138.358	    17.863
  -132.179	    37.530
  -145.078	    32.027
  -119.482	    45.811
  -126.510	    29.165
  -138.819	    55.214
  -153.161	    19.126
  -131.713	     9.422
  -142.990	     9.046
  -139.781	    33.301
  -110.514	    44.597
  -131.047	    32.060
  -140.484	    54.885
  -127.207	    37.977
  -123.616	    32.225
  -122.166	    53.733
  -136.492	    50.438
  -140.890	    40.910
  -128.149	    63.023
  -135.543	    25.490
  -137.355	    36.025
  -116.217	    19.398
  -133.172	    25.602
  -128.190	    24.299
  -164.693	    30.366
  -140.475	    34.667
  -118.557	    26.509
  -133.495	    32.758
  -134.282	    47.010
  -143.158	    48.645
  -138.382	     8.662
  -137.500	    36.569
  -151.173	    26.339
  -145.780	    44.326
  -140.200	    23.335
  -137.006	    21.766
  -126.295	    29.460
  -144.616	    36.207
  -130.979	    12.114
  -129.341	    28.446
  -134.363	    49.298
  -129.521	    26.742
  -134.469	    33.392
  -122.613	    16.266
  -146.176	    20.008
  -139.312	    13.875
  -136.253	    30.194
  -151.845	    24.642
  -130.857	    44.217
  -150.244	    19.681
  -146.630	    28.782
  -135.838	    33.389
  -130.803	    14.193
  -130.445	    26.550
  -154.181	    52.438
  -131.758	    25.124
  -125.112	    37.082
  -148.774	    45.800
  -115.641	    25.278
  -137.042	    33.292
  -132.411	    37.143
  -138.287	    54.138
  -140.777	    41.367
  -145.689	    47.774
  -157.556	    53.121
  -135.235	    15.441
  -141.490	    28.903
  -133.781	    15.595
  -131.702	    38.533
  -142.403	    18.413
  -126.492	    30.567
  -132.248	    46.418
  -134.132	    34.125
  -147.067	    36.476
  -143.064	    24.671
  -138.926	    39.545
  -139.428	    30.458
  -142.464	    41.593
  -140.557	    33.604
  -130.864	    23.922
  -135.216	    43.060
  -144.742	    45.409
  -134.483	    36.368
  -136.385	    30.223
  -137.749	    41.697
  -130.023	    43.205
  -145.671	    37.363
  -133.674	    49.562
  -141.761	    37.778
  -111.686	    15.991
  -147.214	    52.538
  -139.161	    43.782
  -151.637	    23.172
  -149.877	    17.564
  -128.762	    22.565
  -131.271	    29.020
  -134.924	    22.321
  -124.889	    29.408
  -135.632	    16.155
  -140.854	    31.163
  -150.238	    11.749
  -125.673	    40.674
  -134.163	    25.174
  -132.449	    31.115
  -124.372	    18.476
  -140.565	    34.414
  -160.362	     3.349
  -134.372	    42.471
  -132.555	    36.127
  -144.950	    24.642
  -123.627	    39.034
  -114.546	    35.673
  -144.328	    36.350
  -140.360	    31.091
  -137.416	    33.925
  -138.086	    20.035
  -142.611	    22.299
  -129.259	    35.900
  -139.286	    49.054
  -141.520	    40.235
  -121.405	    22.188
  -142.374	    23.574
  -133.128	    25.851
  -146.060	    33.913
  -119.397	    32.031
  -128.982	    42.590
  -131.446	    24.637
  -147.585	    39.757
  -131.088	    25.600
  -144.191	    31.552
  -155.635	    39.398
  -131.740	    36.421
  -130.302	    47.643
  -145.718	    26.303
  -144.221	    43.371
  -155.261	    46.250
  -142.852	    30.689
  -132.480	    36.743
  -136.853	    29.133
  -126.307	    32.411
  -150.924	    47.161
  -129.856	    44.889
  -141.251	    37.344
  -126.794	    38.469
  -133.331	    41.262
  -143.997	    18.320
  -126.222	    22.736
  -133.839	    15.147
  -136.392	    37.439
  -132.581	    25.298
  -137.549	    36.634
  -105.604	    38.349
  -129.630	    37.473
  -155.276	    23.341
  -135.366	    19.652
  -139.296	    44.017
  -145.937	    19.000
  -149.171	    45.275
  -130.172	    48.581
  -124.769	    28.143
  -137.376	    30.610
  -146.144	    34.478
  -121.779	    50.553
  -145.459	    43.614
  -149.324	    32.384
  -138.397	    28.048
  -150.224	    33.453
  -125.714	    18.156
  -151.685	    36.560
  -147.563	    36.624
  -120.805	    43.659
  -146.192	    27.384
  -144.310	    17.388
  -143.698	    16.074
  -146.414	     9.632
  -146.822	    17.236
  -130.553	    21.800
  -145.175	    27.389
  -147.716	    36.787
  -142.690	    29.973
  -127.481	    35.728
  -133.360	    39.767
  -147.371	    24.841
  -141.408	    44.025
  -156.632	    28.626
  -146.621	    40.205
  -158.497	    33.990
  -135.650	    59.600
  -145.650	    44.273
  -146.019	    44.995
  -115.774	    15.662
  -140.043	    25.293
  -123.722	    50.359
  -147.736	    23.813
  -131.039	    26.200
  -140.800	    28.291
  -150.444	    35.081
  -149.590	    32.652
  -123.817	    27.683
  -119.355	    29.347
  -107.323	    10.730
  -117.551	    40.097
  -119.820	    42.183
  -127.634	    50.276
  -131.965	    34.181
  -149.345	    29.351
  -139.157	    38.158
  -138.730	    30.598
  -133.222	    34.025
  -139.086	    60.131
  -124.632	    51.808
  -126.683	    40.539
  -139.865	    35.788
  -120.723	    26.715
  -153.461	    28.953
  -117.131	    20.269
  -143.959	    35.820
  -146.108	    31.402
  -142.959	    37.967
  -154.055	    24.026
  -137.250	    41.584
  -133.987	    44.711
  -148.361	    51.285
  -134.778	    38.273
  -147.100	    23.869
  -132.892	    39.197
  -135.987	    30.301
  -143.473	    33.041
  -134.181	    33.838
  -133.890	    40.967
  -147.398	    28.752
  -127.108	    42.485
  -126.718	    35.690
  -150.585	    29.039
  -130.468	    22.624
  -122.536	    24.335
  -146.139	    33.123
  -140.494	    29.714
  -141.253	    18.902
  -127.352	     6.626
  -142.437	    15.566
  -145.703	    62.493
  -153.251	    49.815
  -137.562	    35.480
  -140.043	    43.700
  -124.840	    44.301
  -129.610	    29.759
  -146.069	    38.586
  -125.950	    48.347
  -149.645	    35.258
  -122.618	    23.960
  -140.101	    31.372
  -142.674	    44.995
  -140.463	    47.716
  -126.259	    39.723
  -140.839	    41.361
  -125.553	    37.346
  -129.222	    36.655
  -131.937	    29.175
  -139.982	    23.444
  -129.084	    17.571
  -134.539	    27.219
  -145.522	    40.581
  -112.139	    18.142
  -134.140	    51.272
  -149.852	    36.236
  -146.887	    26.659
  -138.376	    43.350
  -117.456	    26.462
  -136.318	    25.156
  -124.571	    41.848
  -122.394	    29.425
  -142.037	    14.417
  -147.440	    53.708
  -124.962	    54.309
  -141.644	    54.598
  -120.483	    23.933
  -125.458	    22.912
  -135.590	    26.334
  -139.463	    45.043
  -131.026	    10.952
  -146.226	    34.739
  -139.500	    30.630
  -140.734	    15.739
  -132.055	    28.442
  -135.079	    17.335
  -143.481	    39.748
  -135.865	    33.592
  -141.909	    28.736
  -141.636	    28.827
  -119.121	    13.044
  -143.750	    26.973
  -132.546	    29.706
  -121.458	    22.683
  -133.446	    29.191
  -138.561	    23.143
  -113.931	    33.515
  -110.168	     5.549
  -125.127	    19.739
  -132.891	    41.683
  -113.569	    17.198
  -132.501	    40.246
  -143.453	    41.989
  -153.325	    49.541
  -119.448	    24.005
  -132.941	    41.373
  -137.343	    39.912
  -137.252	    66.897
  -105.828	    54.280
  -148.325	    37.726
  -132.787	    23.883
  -125.784	    41.009
  -133.592	    22.122
  -132.862	    52.466
  -157.918	    32.941
  -132.197	    37.426
  -151.219	    41.549
  -127.062	    35.387
  -159.087	    45.847
  -125.626	    33.601
  -138.121	    37.319
  -139.207	    39.122
  -135.348	     1.864
  -122.925	    38.394
  -135.976	     7.260
  -137.257	    12.285
  -148.111	    38.952
  -134.612	    22.701
  -143.604	    44.606
  -126.946	    10.812
  -139.441	    54.796
  -140.121	    49.376
  -135.182	    25.204
  -126.558	    15.995
  -149.643	    42.584
  -130.109	     5.844
  -133.495	    10.070
  -148.734	    23.105
  -128.178	    26.835
  -142.057	    39.705
  -144.560	    37.266
  -156.436	    34.661
  -145.637	    30.031
  -136.665	    29.043
  -150.105	    26.186
  -129.367	    14.377
  -154.281	    14.903
  -133.035	    25.820
  -153.116	    24.224
  -157.642	    31.990
  -141.424	    26.560
  -141.548	    49.303
  -146.245	    39.795
  -127.027	    15.489
  -146.022	    24.195
  -138.043	    22.386
  -130.230	    36.051
  -143.089	    46.226
  -137.036	    42.774
  -136.445	    36.534
  -137.367	    35.932
  -152.018	    41.706
  -149.904	    33.287
  -154.971	    20.357
  -135.951	    26.017
  -133.297	    16.021
  -148.782	    33.383
  -142.129	    33.345
  -148.874	    33.315
  -151.082	    22.795
  -134.491	    24.845
  -135.459	    43.527
  -132.431	    31.179
  -156.143	    27.779
  -141.418	    16.609
  -134.087	    39.393
  -146.313	    36.696
  -129.301	    39.607
  -144.477	    24.780
  -130.618	    34.170
  -125.800	    28.629
  -150.651	    30.533
  -139.197	    20.101
  -141.327	    20.353
  -150.618	    41.300
  -145.599	    25.552
  -149.949	    44.937
  -133.656	    45.155
  -142.861	    41.049
  -143.057	    40.552
  -133.051	    11.972
  -134.697	    47.210
  -138.000	    28.202
  -132.485	    34.874
  -133.504	    27.417
  -120.625	    38.363
  -158.626	    36.805
  -141.483	    20.522
  -143.779	    31.112
  -121.890	    24.195
  -148.052	    44.523
  -145.182	    33.107
  -145.888	    58.713
  -127.915	    40.686
  -157.179	    31.000
  -126.970	    28.343
  -121.212	    16.979
  -153.075	    36.168
  -135.112	    28.368
  -148.560	    25.587
  -133.544	    41.196
  -122.149	    20.959
  -132.316	    32.446
  -131.424	    38.149
  -131.184	    46.504
  -131.540	    43.419
  -133.394	    37.716
  -123.165	    32.988
  -137.016	    42.413
  -142.391	    39.267
  -134.893	    29.822
  -121.999	    40.293
  -136.584	    40.599
  -135.918	    29.252
  -122.889	    32.954
  -145.658	    29.231
  -144.368	    33.551
  -142.325	    40.763
  -138.508	    14.543
  -118.622	    15.232
  -137.902	    23.589
  -129.553	    32.347
  -143.970	    21.551
  -139.017	    47.555
  -152.641	    41.036
  -136.963	    19.302
  -140.945	    50.298
  -140.993	    53.156
  -132.376	    36.425
  -135.207	    38.561
  -151.490	    18.367
  -161.437	    45.421
  -153.144	    31.222
  -144.268	    27.707
  -133.331	    28.072
  -124.498	    49.364
  -133.421	    50.377
  -142.306	    24.070
  -146.712	    52.360
  -134.841	    40.208
  -132.738	    47.752
  -129.052	    40.908
  -151.446	    43.626
  -153.325	    26.372
  -114.172	    44.758
  -130.925	    31.818
  -148.396	    31.559
  -143.384	    24.976
  -129.563	    15.611
  -145.860	    27.662
  -133.977	    19.685
  -149.264	    19.239
  -144.786	    29.809
  -143.463	    20.771
  -144.568	    48.167
  -132.721	    28.848
  -129.878	    25.562
  -147.922	    44.479
  -136.826	     5.526
  -126.841	    40.931
  -127.352	    37.797
  -138.041	    37.121
  -154.224	    32.220
  -138.751	    33.226
  -136.438	    33.206
  -145.791	    45.442
  -118.355	    41.694
  -124.757	    44.510
  -139.741	    34.630
  -126.781	    50.080
  -128.491	    51.109
  -145.958	    34.977
  -144.803	    37.040
  -158.436	    36.548
  -143.412	    34.121
  -138.112	    16.645
  -135.600	    33.509
  -125.881	    32.373
  -136.384	    13.832
  -156.443	    58.334
  -155.420	    63.073
  -144.780	    49.951
  -138.324	    57.320
  -136.082	    15.960
  -150.746	    28.644
  -112.242	    18.897
  -129.238	    21.198
  -145.941	    40.423
  -130.502	    38.487
  -132.928	    39.702
  -104.237	    49.542
  -128.589	    36.955
  -132.447	    33.347
  -138.277	    20.658
  -143.841	    75.042
  -118.197	    26.814
  -145.602	    27.580
  -145.500	    15.941
  -129.636	    39.673
  -124.056	    52.118
  -125.863	    32.441
  -146.692	    26.235
  -146.206	    28.252
  -138.715	    31.069
  -139.164	    78.235
  -147.247	    19.797
  -132.810	    35.108
  -134.742	    49.924
  -141.230	    39.886
  -102.942	    39.971
  -122.636	    20.708
  -130.992	    35.847
  -147.744	    18.065
  -140.749	    28.090
  -129.434	    29.078
  -138.599	    15.312
  -144.827	    36.231
  -140.704	    37.969
  -152.581	    25.759
  -145.108	    39.364
  -141.762	    35.751
  -138.842	    37.152
  -129.723	    40.931
  -129.530	    50.053
  -150.730	    23.729
  -104.365	    17.089
  -140.749	    20.598
  -138.040	    48.950
  -140.216	    16.455
  -152.772	    11.549
  -136.569	    43.202
  -147.148	    45.611
  -142.982	    36.676
  -133.558	    38.078
  -153.548	    36.859
  -146.479	    50.909
  -143.136	    55.808
  -121.738	    46.084
  -144.204	    37.361
  -112.982	    29.676
  -146.728	    47.470
  -124.436	    43.727
  -119.334	    18.404
  -129.084	    35.258
  -122.981	    44.075
  -139.866	    42.113
  -151.057	    39.832
  -137.124	    25.249
  -120.165	    24.639
  -124.377	    35.136
  -155.184	    42.768
  -130.015	    13.874
  -130.392	    21.655
  -144.770	    14.509
  -154.347	    40.187
  -150.442	    19.148
  -139.428	    31.336
  -132.699	    30.120
  -125.719	    24.153
  -135.565	    44.064
  -133.521	    31.553
  -133.859	    51.483
  -127.661	    24.536
  -125.851	    23.703
  -138.143	    32.961
  -139.252	    56.203
  -114.893	    53.547
  -148.823	    32.735
  -127.783	    36.897
  -119.633	    30.794
  -135.110	    49.898
  -114.197	    64.155
  -157.713	    54.928
  -121.272	    28.310
  -135.535	    35.203
  -135.049	    39.627
  -141.404	    28.704
  -141.606	    41.245
  -142.128	    16.597
  -145.403	    22.953
  -119.104	    27.569
  -145.062	    41.460
  -119.107	    61.863
  -143.038	    35.276
  -140.274	    32.832
  -134.580	    18.383
  -143.630	    28.640
  -129.182	    50.832
  -141.871	    36.776
  -141.039	    48.686
  -148.233	    45.983
  -148.422	    30.859
  -117.546	    28.565
  -135.746	    32.217
  -123.653	    30.649
  -146.161	    41.553
  -130.697	    32.707
  -117.035	    37.428
  -119.948	    39.031
  -138.459	    28.953
  -153.310	     1.480
  -143.155	    37.640
  -144.676	    32.380
  -121.285	    40.678
  -142.048	    40.555
  -138.934	    38.921
  -142.958	    18.734
  -115.834	    26.664
  -141.758	    10.995
  -142.139	    19.754
  -139.178	    44.943
  -146.504	    29.410
  -132.203	    32.062
  -129.964	    31.462
  -131.402	    48.702
  -151.218	    54.791
  -124.070	    31.694
  -147.099	    17.873
  -139.715	    54.558
  -135.979	    46.716
  -133.965	    45.985
  -129.200	    19.726
  -139.563	    32.902
  -137.817	    28.067
  -133.860	    26.131
  -121.853	    17.481
  -141.296	    28.135
  -129.223	    21.083
  -136.596	    47.613
  -133.778	    45.751
  -133.546	    23.048
  -151.385	    48.045
  -142.186	    32.596
  -136.602	    28.921
  -134.945	    46.260
  -152.334	    51.453
  -145.599	    20.750
  -136.952	    44.630
  -137.069	    48.487
  -142.614	    27.894
  -130.088	    51.842
  -130.837	    21.987
  -146.920	    30.130
  -140.872	    25.077
  -142.294	    11.231
  -137.151	    49.093
  -138.735	    39.552
  -146.490	    23.099
  -128.306	    35.077
  -127.759	    34.331
  -143.346	    27.334
  -136.102	    31.945
  -121.803	    20.691
  -132.163	    19.571
  -125.757	    33.530
  -131.381	     7.982
  -142.748	    23.754
  -140.538	    10.599
  -147.089	    27.006
  -141.476	    42.533
  -136.876	    45.704
  -138.412	    68.830
  -147.777	    73.969
  -123.475	    41.074
  -141.207	    33.174
  -138.387	    39.303
  -133.333	    56.863
  -154.773	    29.199
  -133.923	    19.009
  -143.664	    49.480
  -121.114	    50.280
  -129.919	    40.801
  -131.532	     7.845
  -128.660	    17.902
  -120.402	    29.701
  -134.233	    41.445
  -147.558	    20.547
  -135.011	    23.316
  -145.853	    34.696
  -151.119	    30.665
  -113.431	    34.793
  -151.885	    48.275
  -133.193	    56.550
  -150.740	    50.770
  -137.321	    28.538
  -146.105	    42.823
  -137.947	    21.519
  -139.706	    45.697
  -125.546	    24.586
  -120.636	    22.749
  -129.232	    43.492
  -145.310	    32.935
  -138.907	    25.734
  -141.900	    47.167
  -134.607	    42.086
  -151.492	    32.473
  -142.956	    36.007
  -132.946	    49.506
  -141.239	    48.779
  -127.606	    38.421
  -143.789	    25.227
  -142.359	    36.679
  -139.647	    37.570
  -142.536	    26.349
  -138.418	    46.971
  -141.525	    61.143
  -132.038	    28.632
  -131.699	    15.192
  -127.885	    19.335
  -124.847	    15.283
  -150.070	    23.601
  -135.171	    50.323
  -135.410	    19.379
  -119.465	    16.551
  -149.043	    35.681
  -145.996	    32.594
  -146.089	    17.067
  -136.035	    15.484
  -134.302	    29.379
  -138.210	    28.753
  -132.726	     7.024
  -156.136	    28.635
  -144.104	    48.869
  -126.364	    32.064
  -121.623	    23.917
  -116.847	    11.092
  -128.233	    32.639
  -146.268	    26.718
  -137.360	    18.023
  -146.780	    21.662
  -148.982	    30.672
  -142.305	    39.643
  -147.335	    -0.571
  -140.516	    40.897
  -129.553	    24.138
  -126.724	    19.475
  -139.394	    30.764
  -119.445	    46.135
  -130.671	    39.867
  -132.096	    25.667
  -130.185	    36.199
  -133.443	    35.932
  -136.350	    24.215
  -116.940	    28.483
  -122.196	    30.537
  -125.309	    40.166
  -111.041	    24.878
  -143.640	    41.355
  -134.516	    25.707
  -151.212	    10.077
  -132.713	     7.731
  -141.124	    27.533
  -135.651	    29.309
  -147.419	    51.631
  -133.815	    30.182
  -146.171	    50.505
  -134.636	    38.872
