   -92.310	   122.143
    56.293	    11.684
    50.901	     6.506
    74.110	    25.979
    64.592	    16.203
    58.898	    13.775
    69.866	    27.693
    58.756	     2.200
    57.478	    30.477
    71.425	     7.477
    63.219	    22.857
    63.164	    14.351
    62.835	    24.777
    76.636	     5.073
    60.802	    20.057
    65.439	    13.039
    53.176	    30.936
    54.679	    14.499
    55.793	    30.560
    66.808	    20.468
    57.667	    16.517
    67.939	    -7.163
    65.001	     5.100
    64.768	    -8.477
    58.276	    12.026
    56.492	    13.117
    67.853	    11.711
    67.579	    17.217
    58.920	    17.648
    58.677	    14.625
    50.988	    27.206
    71.362	    15.253
    64.502	    20.233
    76.733	    14.681
    68.247	    23.856
    69.916	    23.275
    66.937	    36.376
    52.801	    21.601
    72.438	    10.457
    50.623	    28.136
    51.860	    11.982
    43.025	    18.592
    62.034	     9.155
    57.158	    18.001
    66.202	    17.381
    66.056	     3.722
    56.167	    20.086
    56.518	    22.115
    52.697	    29.268
    62.285	    25.691
    58.532	    15.355
    51.647	    18.570
    61.428	   -13.883
    61.892	     1.426
    62.912	     3.719
    60.761	    22.099
    62.288	    18.381
    53.937	    15.320
    65.253	    18.679
    61.622	    -1.721
    65.516	    -2.873
    59.371	    -1.315
    57.740	     1.922
    60.239	    15.460
    61.527	    11.569
    70.022	    -4.574
    63.508	    -6.840
    59.963	    17.681
    55.974	    17.833
    68.534	    26.886
    63.720	    23.333
    61.161	    15.940
    60.811	    25.174
    68.781	     8.456
    61.872	    15.665
    62.153	    18.668
    62.207	    30.536
    51.845	    20.475
    62.578	    -2.826
    56.510	    15.747
    57.846	     8.489
    63.946	     5.858
    53.216	    34.387
    59.652	    19.279
    48.513	    11.497
    65.410	    21.989
    53.191	    12.861
    50.268	    25.267
    56.684	    14.124
    58.258	     7.668
    70.892	     1.695
    63.662	    16.222
    63.715	    15.241
    60.219	     2.553
    63.021	    10.434
    69.126	   -10.154
    63.592	    12.881
    57.973	    18.532
    43.435	    24.789
    56.720	    13.391
    60.639	     4.152
    66.500	     4.328
    58.892	     4.232
    56.790	    15.914
    70.409	    15.376
    61.765	    -4.169
    56.290	    31.623
    56.671	    17.651
    61.853	     8.361
    70.364	    11.884
    50.683	    28.929
    66.229	     9.217
    66.661	    -3.015
    69.445	    13.367
    58.616	    -1.567
    43.747	    14.973
    72.997	    21.537
    56.387	    19.126
    57.350	    14.002
    51.432	    25.268
    59.979	    14.546
    58.495	     3.074
    57.278	    -0.990
    65.551	    10.464
    63.621	    12.456
    55.436	     7.815
    59.657	     9.630
    61.748	    16.618
    50.961	    28.640
    61.622	    18.529
    60.381	     6.310
    50.684	     6.287
    65.740	    12.597
    62.262	     7.371
    60.727	    17.655
    64.560	    22.314
    60.221	    17.799
    58.245	    -2.241
    61.039	    30.474
    67.078	    16.271
    57.384	    14.876
    62.953	    20.001
    61.772	    21.028
    56.680	    31.473
    51.538	     8.859
    64.937	    26.083
    72.647	     0.521
    61.607	     4.161
    65.963	    -1.031
    58.220	    25.390
    58.448	    -4.564
    57.788	    17.307
    49.781	    40.238
    59.246	    22.275
    64.235	    18.676
    56.016	    29.790
    60.466	     2.749
    79.019	     6.697
    65.195	    39.522
    64.610	    11.057
    57.718	    17.204
    53.693	    19.623
    60.895	    25.830
    55.369	    29.244
    65.598	    12.994
    68.904	    21.790
    67.088	    15.234
    61.081	    23.575
    58.914	    21.490
    60.202	    14.279
    64.103	    29.284
    61.166	    37.075
    69.438	    29.737
    50.212	     9.262
    66.571	    25.093
    63.638	    33.514
    58.872	    15.679
    61.280	    12.878
    63.144	    17.805
    60.687	    19.513
    43.844	    33.284
    50.127	    34.051
    70.295	     1.534
    50.726	    24.208
    60.145	    19.849
    63.002	    19.283
    66.956	    -0.423
    54.305	    21.354
    53.821	     8.793
    67.400	     3.643
    65.675	    30.204
    64.856	    16.770
    54.032	    23.844
    67.477	    16.125
    58.124	    14.975
    56.839	    29.211
    61.316	    -0.184
    77.381	     2.213
    77.119	    13.417
    57.943	    35.537
    51.391	    32.726
    69.083	    16.400
    57.288	    14.008
    58.751	     1.380
    63.950	     8.575
    65.243	    22.911
    63.208	    19.582
    65.971	     7.038
    69.783	    -0.500
    56.151	    39.933
    65.502	    26.454
    59.045	    24.557
    67.889	    24.470
    60.696	    13.049
    63.693	    14.852
    60.077	     8.888
    62.415	    25.048
    61.677	    34.878
    62.101	    30.986
    47.368	    36.003
    81.965	    -0.023
    66.881	    11.536
    73.689	    16.770
    58.355	    17.230
    60.341	    20.544
    60.733	    12.213
    53.602	    33.477
    59.031	    11.006
    72.080	    10.411
    60.229	     5.961
    50.534	    18.406
    68.057	    -8.195
    54.318	    22.896
    54.196	    17.027
    64.154	    16.107
    71.066	    12.904
    59.717	    15.160
    60.698	    -7.282
    69.779	     9.886
    60.629	    26.951
    60.624	    12.296
    65.227	    10.508
    71.040	    11.410
    54.053	     9.784
    59.030	    13.582
    53.444	    34.407
    65.017	     4.302
    62.564	     3.269
    61.673	    10.483
    50.520	    16.281
    62.134	    15.024
    59.933	     1.323
    64.704	    -3.903
    62.270	     0.945
    60.727	    18.959
    58.708	     2.559
    63.674	     7.848
    59.805	     2.834
    57.613	    13.438
    56.891	    28.592
    64.902	    19.613
    54.914	    15.280
    62.569	    29.209
    51.254	    24.209
    62.947	   -12.099
    63.012	    -9.682
    63.925	    -3.667
    56.004	    13.767
    52.414	    10.713
    64.943	    -7.855
    57.658	    31.893
    54.248	    30.137
    56.211	    31.161
    65.572	     9.344
    59.722	    19.219
    68.270	    24.498
    64.595	    23.365
    64.142	     0.771
    61.238	    21.681
    53.100	    19.966
    54.489	    20.063
    54.340	    22.545
    59.734	    33.254
    49.682	    22.881
    49.757	    14.465
    59.568	    23.509
    57.225	    20.619
    65.131	    23.607
    56.808	    19.436
    56.488	    16.753
    51.834	     2.480
    68.483	    30.559
    61.981	    11.260
    54.937	     2.672
    55.823	    23.170
    71.876	    13.466
    59.194	    11.555
    60.118	     3.635
    60.823	    12.703
    55.164	     1.183
    65.167	     3.109
    53.312	    21.775
    59.431	    29.655
    55.338	    15.148
    71.232	    -2.671
    67.578	    22.145
    57.787	    36.376
    63.605	    28.142
    54.925	    23.313
    47.854	    42.137
    49.903	    42.580
    64.517	    15.853
    69.791	    31.581
    64.171	    19.914
    53.985	    23.567
    60.217	    26.277
    72.420	    -0.306
    59.180	    20.067
    65.814	    32.182
    50.081	    38.035
    54.495	    18.622
    64.614	    16.565
    53.111	    11.736
    64.912	     2.618
    61.120	     5.840
    48.728	    19.989
    49.207	     8.268
    55.708	     2.492
    57.145	     9.066
    57.444	    -0.170
    67.440	    -0.696
    60.978	     9.398
    60.051	    15.864
    69.539	    34.233
    73.160	    11.880
    65.029	    20.215
    69.885	     9.435
    64.973	    25.549
    64.916	    25.648
    62.415	    22.232
    53.531	    28.368
    59.034	    -1.132
    75.150	    20.150
    58.009	    27.014
    68.629	    15.273
    61.992	     5.195
    65.593	    30.323
    50.643	    27.397
    65.069	    14.349
    81.704	    18.931
    54.605	    14.849
    69.056	    12.194
    53.262	    37.124
    58.024	    23.418
    59.793	    30.887
    61.411	   -10.097
    60.550	    24.557
    68.613	     0.713
    52.932	     8.642
    62.559	    18.864
    59.025	    19.872
    64.439	    15.827
    52.289	    25.167
    59.716	    19.700
    49.135	    27.548
    62.566	    10.293
    61.352	     3.809
    62.036	    16.360
    47.938	    23.890
    62.618	    -9.846
    59.535	    24.473
    54.846	    19.061
    57.336	    19.484
    73.517	    21.469
    56.735	    12.204
    61.505	    14.820
    66.304	    -1.277
    66.656	    -0.665
    60.481	    17.903
    64.270	     2.234
    58.114	    15.434
    69.764	    -2.337
    70.270	    12.566
    50.829	    46.554
    61.109	    25.614
    59.722	    25.988
    68.256	    17.259
    61.029	     5.786
    68.573	    19.137
    62.422	    12.248
    56.964	    27.146
    55.813	    18.756
    61.896	    18.476
    50.299	    29.990
    60.312	    28.829
    53.841	     3.212
    68.834	     6.118
    56.629	    -3.978
    52.026	     4.273
    65.846	     3.624
    52.332	    20.650
    58.355	    27.135
    59.448	    14.265
    57.519	    16.736
    78.685	    -3.306
    68.375	     2.471
    62.749	    14.262
    71.978	    24.069
    52.043	    13.118
    52.990	    32.663
    43.488	    31.744
    61.706	    10.127
    74.372	     6.300
    64.403	   -21.451
    70.308	    30.599
    61.750	     0.840
    62.112	    30.790
    64.039	    16.931
    52.313	    22.406
    70.466	    15.717
    51.085	    10.524
    38.967	    41.973
    62.380	    21.578
    63.018	     7.396
    56.125	    22.294
    70.176	    -2.158
    58.362	    16.592
    64.579	    12.794
    55.149	    13.623
    68.221	     6.827
    52.347	     8.419
    50.428	    -0.496
    69.575	    22.126
    60.684	     2.020
    62.264	     8.160
    56.988	     5.076
    72.024	    13.815
    47.355	     9.178
    66.057	    -1.000
    74.243	    -2.499
    59.236	     0.175
    59.284	     7.957
    63.226	    17.682
    52.822	     1.660
    64.795	     6.084
    62.298	     7.646
    57.818	    33.669
    61.586	    27.404
    62.737	     8.033
    54.695	    23.485
    60.173	    25.486
    66.073	    25.734
    60.847	    15.977
    61.766	    14.496
    61.505	    17.700
    69.441	    15.490
    63.435	    27.891
    55.847	    19.501
    66.414	   -11.433
    63.563	    22.803
    59.252	    32.747
    60.642	    24.096
    57.759	    20.997
    59.586	    23.933
    62.472	     6.523
    60.745	    11.698
    60.543	    23.342
    58.208	    12.764
    63.245	    25.568
    55.394	    20.483
    57.763	    19.817
    65.432	     5.063
    73.233	    20.511
    59.516	     6.112
    60.908	    -0.665
    65.125	     8.110
    56.034	    33.271
    60.544	    13.933
    39.666	    19.771
    56.416	    22.140
    63.818	    10.682
    64.706	    23.551
    58.361	    31.504
    62.954	    14.587
    65.776	     6.626
    62.184	     5.838
    60.617	    30.500
    60.795	    21.409
    59.958	    21.045
    69.593	    14.231
    57.202	    13.660
    64.101	    24.277
    62.980	    24.069
    61.714	    18.192
    70.954	    13.979
    64.541	     3.711
    61.899	    11.381
    55.734	    -8.625
    53.306	     3.875
    74.920	     5.466
    53.363	     4.897
    70.634	    -6.599
    59.193	     0.927
    60.544	    -6.256
    53.614	    21.721
    60.238	     5.692
    64.821	    16.466
    62.512	    12.921
    62.826	    15.319
    61.226	    11.132
    47.387	    15.167
    56.748	    18.776
    62.858	     5.892
    54.736	    16.899
    51.471	    12.359
    47.023	    19.597
    67.434	    22.606
    51.902	    29.583
    49.173	    39.293
    63.926	    28.039
    59.140	    33.566
    63.616	    19.641
    58.963	    21.680
    60.151	    10.627
    66.643	    19.589
    51.981	    14.796
    53.154	    -0.057
    53.203	    26.963
    60.005	    21.805
    54.293	    30.647
    39.745	    38.989
    55.934	    20.824
    71.416	     0.120
    56.550	     5.237
    65.857	     6.596
    64.577	     1.723
    65.285	    23.748
    61.920	    18.849
    57.110	    39.864
    57.082	    34.962
    73.345	    25.647
    64.252	    18.078
    55.321	    16.854
    68.520	    19.980
    60.848	     9.451
    60.399	    16.407
    76.445	    25.272
    68.047	    15.658
    52.182	    25.302
    71.376	     3.782
    65.191	    14.906
    62.781	    19.004
    54.840	    18.317
    56.688	    25.348
    59.804	    14.330
    56.241	    26.115
    64.708	    24.613
    58.394	    -8.301
    42.438	    34.826
    50.300	    23.135
    57.473	    23.795
    62.119	    14.754
    48.281	    26.939
    59.460	    25.920
    53.562	    43.083
    78.711	    10.564
    61.692	    36.658
    56.216	    23.483
    60.797	    16.517
    66.859	     7.939
    75.910	     5.116
    56.926	    21.707
    54.235	    16.591
    55.903	    31.985
    62.909	    22.775
    59.550	    16.158
    51.049	    19.761
    65.416	    28.308
    51.277	    10.071
    62.326	    17.801
    60.500	    13.252
    65.477	    21.602
    57.704	    12.439
    63.283	     8.666
    69.880	    25.236
    58.285	    31.807
    66.509	    20.074
    58.751	    12.317
    59.103	    15.605
    62.392	    16.568
    61.950	     4.227
    50.652	    21.959
    52.696	    19.882
    66.224	    13.513
    60.025	    33.933
    58.000	    33.422
    62.943	    15.105
    57.485	     7.659
    51.923	    16.682
    62.182	     8.204
    57.778	    32.475
    60.515	    11.043
    56.936	    16.283
    49.825	    15.690
    53.580	     9.546
    63.307	    21.233
    59.545	    15.023
    63.853	     9.995
    65.564	     9.115
    61.647	     6.058
    64.960	    13.927
    57.815	    32.891
    51.343	    32.621
    56.782	    24.697
    68.108	    25.848
    62.188	    23.073
    53.986	    29.274
    56.563	    20.743
    62.470	    26.735
    59.781	    20.969
    58.136	    28.727
    62.012	     8.705
    64.997	     6.994
    55.533	    16.738
    63.964	     8.751
    66.992	    17.057
    65.917	    -1.957
    65.890	    26.928
    59.026	    23.464
    58.813	    12.588
    61.394	     2.861
    66.718	    26.453
    64.480	    12.349
    56.404	    13.753
    53.016	    11.179
    56.551	    16.623
    58.514	    10.838
    61.222	     7.524
    69.311	    19.487
    59.607	    29.693
    55.534	    23.987
    64.916	    16.491
    60.378	    22.128
    56.768	     3.005
    56.779	     1.498
    66.131	     1.243
    55.182	    -7.602
    62.155	    11.383
    69.565	     2.353
    58.749	    21.811
    73.200	    28.882
    59.771	    14.496
    68.897	     6.059
    58.091	    19.171
    67.256	    21.449
    56.961	    13.035
    65.172	     6.765
    73.833	     5.807
    57.505	    14.833
    57.834	    21.124
    55.636	    10.106
    55.125	    23.911
    65.497	    26.960
    65.926	    33.214
    61.183	    11.775
    73.079	     6.367
    62.986	    17.513
    55.749	    11.642
    65.252	     4.453
    68.411	    17.309
    55.297	    -6.348
    61.565	     1.706
    52.230	    21.915
    57.209	    19.773
    54.276	     6.307
    60.628	    15.994
    53.847	    23.862
    62.191	    34.380
    67.550	    19.176
    60.289	     8.510
    59.530	    33.437
    54.701	    19.841
    50.745	    22.832
    62.225	    21.751
    73.724	    14.192
    67.625	    19.686
    51.122	    26.134
    59.600	    27.027
    63.220	    13.333
    60.590	    11.266
    61.878	    26.388
    65.439	    13.344
    57.266	    16.365
    63.844	    44.616
    59.063	    36.384
    52.163	    34.627
    70.394	     5.955
    62.178	    -1.139
    62.484	    -0.739
    66.750	    -3.812
    58.570	     5.874
    51.117	     7.755
    63.627	    11.081
    56.318	    20.117
    66.685	    29.737
    62.037	    22.256
    61.638	    18.098
    54.292	    26.861
    47.934	    30.787
    54.544	    35.686
    64.179	     8.680
    48.150	    17.253
    70.351	     5.263
    65.341	     6.605
    61.176	     4.017
    59.727	    18.461
    68.209	     1.004
    60.786	    12.611
    62.485	     4.184
    54.925	    -7.845
    71.941	   -11.032
    63.772	    -1.297
    64.725	    -4.068
    59.231	    -1.874
    57.289	    16.257
    62.920	     5.025
    58.932	    16.221
    61.510	    20.032
    62.099	     5.992
    57.955	    21.794
    54.970	    14.470
    61.670	    21.106
    62.443	     5.508
    44.238	    11.845
    72.736	    11.914
    67.548	    14.243
    60.182	    25.061
    67.556	    14.184
    37.398	    40.650
    65.802	    22.475
    56.164	    -2.350
    58.062	    21.382
    65.212	     4.738
    66.627	    20.848
    58.630	    25.616
    73.768	    12.518
    65.227	    -6.304
    73.761	    -3.581
    66.796	     4.984
    61.750	    13.986
    60.161	    20.781
    68.403	   -12.164
    55.548	    12.471
    60.385	    21.155
    55.102	    32.298
    45.219	    25.239
    59.598	    18.827
    70.331	    21.623
    56.641	     3.552
    52.885	    15.918
    54.568	     2.480
    61.933	    18.229
    55.530	    26.854
    66.179	    26.296
    62.949	    22.849
    70.063	    14.537
    68.831	    22.711
    52.499	    28.735
    54.142	    18.564
    55.583	    14.480
    44.484	    31.913
    71.279	    24.429
    64.436	    27.339
    63.566	    23.928
    60.592	    21.934
    51.774	    28.217
    67.159	    -5.177
    52.539	     9.982
    74.072	    -3.400
    72.074	   -14.713
    55.581	    10.692
    62.977	     1.396
    62.439	    23.474
    59.099	    15.069
    63.427	     4.045
    63.694	    -1.711
    55.607	    27.339
    66.282	     6.259
    56.529	    14.843
    65.683	     9.473
    58.846	     9.104
    68.666	    12.297
    52.851	    35.221
    54.467	    13.154
    64.474	    23.693
    56.308	    28.024
    56.663	    28.703
    67.795	    10.527
    57.362	    14.924
    60.337	    16.650
    57.195	    33.024
    62.034	    25.538
    53.685	    13.381
    67.325	    16.409
    66.458	     3.367
    49.449	    12.678
    66.693	     4.898
    66.570	    24.170
    48.808	    26.570
    67.180	    18.175
    46.146	     5.205
    63.823	     0.318
    52.005	    24.072
    52.242	    17.188
    55.010	    32.678
    59.649	    27.542
    65.636	    -8.191
    59.254	     4.275
    74.770	    -8.537
    52.602	    23.891
    64.039	     5.583
    60.347	    21.262
    49.277	    20.092
    68.786	     3.375
    55.746	    14.665
    50.687	    18.221
    56.496	    12.647
    67.791	     9.968
    58.423	    18.679
    59.202	    -3.188
    65.141	    -0.765
    69.460	    11.118
    55.405	    26.036
    54.988	    33.342
    65.693	    -6.894
    61.828	    -7.326
    44.274	    25.186
    68.228	    15.632
    60.512	    19.715
    58.632	    25.860
    57.106	    38.673
    60.919	    17.979
    63.137	    16.109
    62.902	    14.350
    58.922	    21.432
    62.699	    25.844
    67.424	    16.846
    61.360	    17.271
    60.316	    18.704
    55.017	     4.451
    57.826	    23.194
    68.106	    11.050
    46.453	    17.243
    65.939	     2.218
    64.696	    16.113
    60.356	     6.918
    60.980	    15.983
    64.777	    22.636
    72.401	    15.665
    57.978	    12.145
    63.365	    22.966
    59.624	    21.057
    61.563	     8.019
    57.382	    13.504
    63.167	    14.264
    56.634	    16.636
    72.004	    34.529
    56.069	     4.731
    72.150	    30.297
    70.565	     5.693
    59.850	     5.286
    59.101	    21.182
    49.007	    37.518
    54.222	    15.617
    65.966	    12.612
    68.158	    23.319
    79.801	    19.858
    60.709	    21.197
    51.537	    -1.005
    50.113	    18.512
    54.531	    46.113
    58.648	   -12.270
    64.382	    10.561
    61.012	     2.877
    52.222	     2.286
    49.544	    33.325
    63.070	    25.501
    50.793	    19.008
    48.970	    34.377
    65.783	    14.610
    58.029	    22.472
    65.091	    12.261
    62.041	    19.466
    64.905	    18.749
    54.768	    15.091
    62.013	    30.765
    58.982	    27.829
    43.494	    34.090
    67.930	    27.040
    66.156	    14.541
    61.898	    26.301
    57.776	    25.438
    52.441	    13.573
    64.905	    13.566
    56.238	    29.938
    69.718	    13.025
    57.109	    15.284
    66.801	     5.465
    60.849	     5.842
    54.494	    14.489
    69.341	    19.491
    55.673	    32.477
    56.175	     4.095
    64.959	    14.722
    55.996	    14.167
    63.412	     6.412
    57.017	    14.463
    60.988	    16.749
    63.340	    -3.095
    60.027	   -11.531
    56.492	    -3.494
    64.273	     9.218
    59.327	     6.684
    52.087	     8.528
    56.203	    14.802
    55.352	    23.303
    59.153	     5.113
    75.367	    -7.904
    53.956	    -7.800
    68.573	     6.440
    63.082	    24.208
    59.291	     7.432
    67.632	     0.426
    65.685	     6.570
    65.339	    10.509
    58.385	    28.129
    57.388	     5.139
    56.994	    27.950
    60.086	    19.606
    59.478	    25.719
    51.557	    17.323
    57.495	    20.109
    76.309	     8.816
    63.203	    33.382
    59.311	     5.316
    49.394	    10.978
    55.588	    11.887
    66.315	    24.563
    73.384	    28.589
    60.298	     7.442
    54.234	    29.418
    63.036	    19.740
    68.137	    16.416
    61.377	    17.035
    67.805	    28.973
    58.324	    41.738
    54.152	    32.578
    71.736	    12.416
    63.702	    28.904
    58.199	    17.227
    60.364	     0.314
    58.529	   -17.593
    65.194	    23.359
    60.355	    14.256
    75.058	     3.390
    59.321	   -12.505
    60.552	    23.478
    54.332	    14.245
    62.744	    19.493
    61.051	    23.909
    73.722	    19.406
    63.173	    24.432
    64.371	    39.128
    50.079	    29.299
    68.305	     2.029
    67.226	    17.471
    54.593	    26.736
    73.729	    -7.164
    46.365	    12.874
    45.256	    27.047
    52.816	    -2.736
    64.571	    25.802
    66.748	     3.484
    60.452	    27.353
    62.475	    11.836
    47.844	    12.151
    60.781	    24.178
    58.527	    -5.810
    59.337	    19.132
    62.095	    35.286
    45.771	    23.708
    61.972	    15.259
    57.602	    14.590
    57.769	    16.719
    54.464	    17.672
    61.367	     6.916
    60.067	     7.151
    60.492	    21.901
    53.188	    12.451
    57.301	    32.418
    51.404	    20.184
