   -92.310	   122.143
   -63.067	    61.211
   -79.900	    69.830
   -41.446	    89.680
   -62.056	    90.429
   -60.177	    88.041
   -61.997	    86.912
   -84.123	    64.516
   -67.035	    74.752
   -85.089	    54.202
   -73.380	    63.858
   -73.357	    51.047
   -85.885	    54.160
   -79.000	    66.363
   -77.266	    45.522
   -69.017	    50.120
   -83.239	    75.716
   -72.728	    60.527
   -72.646	    60.702
   -76.574	    59.051
   -72.774	    58.574
   -69.628	    60.787
   -61.575	    82.018
   -67.323	    93.447
   -69.090	    80.795
   -72.437	    71.785
   -72.941	    59.909
   -77.503	    52.251
   -61.512	    29.831
   -84.278	    47.960
   -74.926	    66.003
   -53.886	    73.866
   -71.229	    76.311
   -69.845	    79.349
   -79.428	    72.561
   -80.539	    57.123
   -78.491	    66.177
   -66.504	    75.015
   -80.315	    76.480
   -73.913	    78.922
   -52.831	    53.428
   -63.925	    53.749
   -72.919	    92.085
   -74.901	    70.792
   -79.045	    67.956
   -78.737	    54.995
   -63.835	    49.284
   -70.313	    56.625
   -60.082	    94.609
   -73.110	   109.488
   -57.033	    95.172
   -57.976	   102.518
   -65.397	    82.545
   -70.427	    47.540
   -74.839	    88.390
   -57.906	    97.185
   -68.892	    62.819
   -71.681	    74.481
   -67.798	    75.371
   -67.384	    61.516
   -73.805	    53.256
   -82.334	    50.794
   -62.308	    62.570
   -73.775	    68.718
   -75.436	    89.474
   -76.820	    55.193
   -74.609	    71.296
   -63.282	    54.654
   -73.964	    82.643
   -57.344	    89.375
   -74.329	    77.511
   -62.776	   102.353
   -52.619	   111.826
   -66.254	    82.936
   -65.303	    68.942
   -85.151	    65.153
   -77.530	    49.229
   -80.172	    74.332
   -80.216	    66.747
   -78.201	    61.508
   -72.268	    60.836
   -57.649	   102.930
   -63.149	    81.806
   -63.635	    94.727
   -59.994	    75.698
   -69.169	    50.864
   -82.669	    62.301
   -62.857	    58.297
   -70.821	    75.633
   -78.224	    64.342
   -78.760	    71.980
   -75.227	    81.381
   -76.017	    62.309
   -78.513	    96.465
   -75.438	    58.309
   -75.459	    40.110
   -59.451	    92.247
   -80.091	    60.198
   -72.878	    61.182
   -77.184	    62.040
   -91.708	    51.611
   -73.580	    63.244
   -76.046	    64.722
   -83.591	    61.898
   -83.174	    41.491
   -78.684	    66.420
   -70.467	    82.968
   -81.448	    54.827
   -70.123	    45.438
   -73.775	    60.243
   -66.890	    47.969
   -72.271	    56.961
   -73.087	    70.335
   -77.731	    56.044
   -84.765	    52.835
   -85.538	    56.599
   -86.178	    70.548
   -91.166	    55.612
   -71.875	    47.538
   -92.624	    64.717
   -68.752	    73.291
   -68.967	    70.297
   -73.017	    71.189
   -75.857	    68.488
   -54.660	    82.444
   -64.961	    83.347
   -64.946	    75.035
   -65.144	    91.480
   -68.331	    77.166
   -80.719	    79.866
   -81.548	    51.413
   -83.198	    50.882
   -80.451	    59.908
   -91.599	    48.977
   -76.998	    52.713
   -82.957	    79.514
   -73.608	    61.645
   -77.799	    41.907
   -71.318	    57.089
   -59.359	    42.348
   -58.378	    54.412
   -72.529	    99.409
   -68.443	   109.181
   -66.940	    86.251
   -68.592	    53.237
   -76.458	    57.626
   -76.474	    59.373
   -79.043	    40.262
   -78.583	    55.327
   -69.640	    56.506
   -67.171	    50.546
   -79.761	    55.562
   -77.061	    22.384
   -66.434	    60.619
   -83.168	    71.790
   -58.371	    73.818
   -60.650	    94.892
   -67.004	    71.729
   -74.031	    53.223
   -82.018	    96.175
   -87.447	    78.249
   -80.173	    68.411
   -64.442	    73.361
   -68.807	    64.421
   -68.084	    55.163
   -65.273	    85.277
   -64.619	    53.732
   -63.297	    89.336
   -52.020	    95.342
   -61.617	   121.185
   -56.363	    99.176
   -46.516	   107.760
   -61.157	    74.745
   -80.464	    84.712
   -67.439	    89.672
   -61.517	    64.138
   -68.802	    73.235
   -52.155	    57.589
   -61.512	    59.744
   -76.265	    68.705
   -71.903	    78.612
   -69.137	    67.819
   -85.405	    72.400
   -73.428	    65.836
   -63.513	    67.759
   -65.234	    90.118
   -79.362	    68.072
   -72.010	    60.276
   -69.896	    82.159
   -68.664	    67.699
   -82.189	    52.053
   -74.580	    88.545
   -80.882	    64.639
   -61.140	    94.230
   -73.948	    77.017
   -63.514	    73.229
   -58.423	   105.866
   -73.996	    98.161
   -69.640	   116.073
   -61.160	    75.882
   -60.845	    80.601
   -63.568	   104.209
   -70.937	    75.074
   -67.045	    59.710
   -75.394	    91.222
   -89.299	    83.857
   -62.928	    59.925
   -69.716	    79.396
   -67.026	    80.409
   -61.665	    72.559
   -77.686	    98.788
   -57.216	    83.354
   -63.429	    92.086
   -68.678	   102.537
   -74.882	    78.126
   -62.765	    94.014
   -61.605	   110.181
   -67.812	   101.123
   -71.117	    59.060
   -62.487	    89.583
   -73.564	    80.478
   -58.823	   104.997
   -42.453	    87.619
   -64.619	    77.519
   -67.889	    83.829
   -79.405	    87.163
   -78.357	   102.874
   -69.374	    74.686
   -72.038	    71.556
   -69.862	    84.347
   -68.251	    78.873
   -71.360	    78.582
   -51.415	    80.140
   -59.271	    73.543
   -66.898	    69.595
   -72.121	    57.012
   -63.984	    55.397
   -67.664	    39.596
   -64.318	    81.281
   -76.138	    57.350
   -83.235	    64.539
   -78.060	    72.808
   -77.252	   101.037
   -50.053	   104.399
   -76.413	    98.356
   -63.300	    82.439
   -62.899	    76.721
   -64.343	    75.624
   -66.781	    64.139
   -74.156	    79.569
   -73.231	    95.093
   -70.668	    83.704
   -76.736	    72.905
   -70.421	    53.603
   -71.898	    84.150
   -70.234	    65.094
   -63.229	    79.185
   -75.913	    57.246
   -84.641	    53.380
   -76.700	    64.156
   -77.230	    69.572
   -72.860	    75.647
   -67.540	   103.641
   -63.426	    58.110
   -62.910	    72.996
   -80.735	    72.708
   -57.162	    71.735
   -51.177	    96.533
   -85.450	    83.547
   -70.803	    38.228
   -64.551	    52.094
   -65.617	    66.592
   -63.787	    47.439
   -59.227	    78.831
   -51.535	    94.197
   -65.213	    79.198
   -67.982	    82.210
   -67.839	   118.563
   -70.841	    72.350
   -68.849	    66.913
   -68.284	    61.848
   -77.692	    62.763
   -64.488	   100.024
   -60.292	    64.648
   -64.936	    89.221
   -66.407	    35.871
   -44.919	    52.575
   -75.429	    58.318
   -80.565	    74.588
   -58.386	    88.754
   -70.464	    82.245
   -71.140	    76.592
   -81.154	    59.147
   -64.882	    76.155
   -67.863	    52.532
   -76.890	    71.605
   -66.500	    71.076
   -76.263	    56.523
   -81.660	    61.112
   -51.765	    55.726
   -68.210	    63.760
   -59.764	    71.507
   -55.998	    97.733
   -55.770	    83.166
   -59.671	    89.053
   -66.616	    98.448
   -55.495	    96.824
   -64.079	    59.285
   -32.490	    96.207
   -68.396	   102.789
   -71.375	    81.474
   -69.170	    70.623
   -59.138	    89.863
   -67.936	    70.733
   -65.331	    74.080
   -78.378	    89.724
   -64.136	    78.987
   -73.039	    65.880
   -61.486	    60.981
   -68.709	    65.907
   -70.343	    60.016
   -66.227	    85.792
   -87.793	    66.384
   -58.483	    57.969
   -75.355	    66.679
   -70.650	    29.528
   -76.300	    49.419
   -69.479	    77.517
   -71.353	    66.968
   -90.655	    54.873
   -75.961	    83.091
   -78.462	    87.762
   -76.834	    68.733
   -75.656	    77.735
   -61.412	    72.865
   -62.783	    98.154
   -77.708	    77.340
   -75.459	    69.174
   -77.685	    53.838
   -59.761	    73.539
   -62.041	    78.568
   -63.868	    87.104
   -55.635	    68.029
   -75.798	    63.484
   -65.132	    85.865
   -92.156	    80.327
   -65.631	   101.521
   -49.630	   103.099
   -60.093	    85.146
   -63.516	    95.694
   -55.037	    82.952
   -62.406	    73.068
   -65.827	    80.529
   -72.756	    77.951
   -65.713	    81.569
   -62.932	    75.498
   -68.630	    77.619
   -70.604	    73.661
   -68.553	    39.999
   -63.630	    47.926
   -64.086	    65.061
   -67.414	    59.220
   -59.632	    78.214
   -75.115	    74.338
   -77.515	    65.396
   -77.312	    54.166
   -76.440	    67.687
   -68.050	    55.784
   -81.648	    69.522
   -67.376	    59.677
   -64.431	    61.677
   -72.074	    46.252
   -65.283	    70.696
   -71.798	    59.658
   -60.711	    83.196
   -64.163	    45.927
   -86.472	    57.528
   -68.344	    56.323
   -71.209	    82.154
   -61.505	    64.407
   -72.137	    57.295
   -63.338	    78.355
   -74.962	    49.147
   -62.654	    47.774
   -68.647	    61.520
   -76.243	    87.397
   -69.058	    62.270
   -50.063	   107.792
   -69.573	    83.518
   -65.442	    89.190
   -67.301	    99.112
   -55.679	    80.466
   -78.614	    79.436
   -58.638	    92.004
   -79.029	    72.936
   -56.901	    93.435
   -46.211	    80.347
   -63.130	    75.958
   -61.423	    92.321
   -72.172	   103.650
   -61.151	    74.504
   -63.104	    96.866
   -64.428	    99.114
   -62.226	    82.980
   -79.570	    80.582
   -67.075	    93.242
   -61.531	    89.306
   -69.591	    73.167
   -59.601	    81.602
   -61.517	    98.812
   -53.835	    88.255
   -62.250	    70.875
   -75.142	    43.254
   -76.300	    51.202
   -70.143	    54.985
   -69.658	    63.223
   -68.022	    59.843
   -77.101	    61.846
   -78.109	    49.135
   -78.172	    68.110
   -64.602	    67.718
   -61.184	    69.763
   -75.049	    64.934
   -73.078	    67.252
   -70.347	    71.334
   -68.808	    74.636
   -78.085	    61.639
   -70.230	    77.449
   -61.192	    58.666
   -68.854	    53.778
   -79.343	    78.939
   -74.649	    62.333
   -60.158	    96.715
   -63.420	   108.744
   -54.728	    97.753
   -64.577	    79.368
   -74.989	    58.000
   -74.166	    63.999
   -80.190	    58.738
   -72.069	    66.804
   -85.251	    56.064
   -76.972	    67.234
   -63.046	    68.641
   -62.970	    87.170
   -54.653	    81.881
   -63.039	    91.020
   -71.920	    63.729
   -62.636	    74.561
   -77.543	    74.229
   -52.592	    96.865
   -57.008	    99.506
   -71.352	    83.595
   -69.449	    79.185
   -79.175	    64.178
   -71.323	    57.529
   -62.985	    53.435
   -72.530	    45.651
   -74.315	    71.937
   -65.787	    79.640
   -67.823	    67.332
   -67.370	    78.024
   -68.660	    65.150
   -78.793	    55.917
   -79.797	    53.969
   -76.740	    90.764
   -75.165	    72.867
   -80.847	    69.422
   -75.210	    72.731
   -70.049	    45.507
   -73.416	    65.093
   -67.098	    61.200
   -74.794	    98.359
   -64.809	    92.628
   -67.053	    71.107
   -85.028	    69.019
   -70.091	    50.599
   -71.473	    85.967
   -70.268	    63.818
   -66.556	    57.131
   -73.426	    55.243
   -74.429	    61.734
   -64.798	    63.689
   -82.034	    77.605
   -69.274	    69.865
   -66.124	    74.044
   -66.606	    46.020
   -71.187	    68.717
   -56.479	    76.331
   -68.134	    60.395
   -60.197	    57.584
   -76.593	    49.008
   -71.359	    66.807
   -70.893	    62.122
   -65.296	    71.722
   -62.399	    74.347
   -76.835	    77.486
   -78.986	    70.530
   -93.882	    61.096
   -67.315	    79.982
   -67.376	    85.074
   -75.118	    58.206
   -87.466	    57.104
   -73.759	    65.289
   -72.480	    60.393
   -71.033	    65.528
   -81.641	    53.808
   -81.915	    64.041
   -67.394	    69.801
   -63.301	    79.533
   -67.073	    99.688
   -75.613	    57.856
   -71.600	    71.684
   -68.416	    50.088
   -67.752	    66.028
   -58.075	    79.787
   -72.923	    89.026
   -81.304	    79.967
   -77.580	    50.901
   -79.717	    43.533
   -65.426	    72.979
   -68.197	    82.925
   -74.857	    74.572
   -71.242	    60.277
   -71.448	    53.106
   -68.063	    51.082
   -74.019	    54.120
   -67.249	    63.579
   -63.109	    35.819
   -81.019	    78.637
   -81.506	    74.140
   -64.445	    96.081
   -82.451	    62.231
   -61.830	    82.404
   -47.965	    95.954
   -63.349	    94.956
   -62.480	    92.070
   -75.429	    70.209
   -71.874	    63.744
   -71.956	    66.054
   -47.496	    71.484
   -76.245	    59.053
   -70.077	    70.647
   -59.130	    67.089
   -70.083	    82.296
   -62.884	    81.106
   -71.706	    76.201
   -71.673	    67.811
   -70.240	    83.872
   -59.875	    71.671
   -71.847	    88.259
   -73.676	    76.002
   -66.194	   110.069
   -70.324	   100.514
   -68.196	    71.815
   -59.910	    95.491
   -79.405	    68.053
   -58.678	    87.785
   -78.218	    87.713
   -73.603	    47.199
   -89.178	    45.370
   -66.929	    58.428
   -74.441	    66.064
   -58.903	    90.625
   -52.141	   107.051
   -69.822	    71.715
   -76.804	    80.639
   -70.731	    87.701
   -57.696	    60.226
   -65.565	    86.850
   -69.514	    92.219
   -50.205	   107.333
   -55.113	   101.573
   -34.165	   106.950
   -72.731	    76.575
   -45.345	    87.681
   -60.601	    86.184
   -62.063	    72.556
   -55.119	    66.669
   -81.742	    37.862
   -69.605	    65.980
   -73.982	    81.886
   -76.194	    69.442
   -75.746	    68.060
   -67.742	    85.623
   -57.147	   114.683
   -67.674	    71.228
   -68.577	    71.609
   -86.257	    72.734
   -71.084	    82.342
   -71.761	    99.190
   -67.265	    82.021
   -73.952	    80.042
   -65.511	    76.265
   -52.508	    87.403
   -71.125	    97.051
   -65.705	    96.672
   -80.385	   101.044
   -45.539	    87.357
   -76.081	    49.894
   -71.254	    87.871
   -69.460	    87.618
   -79.639	    77.892
   -80.594	    62.275
   -75.425	    72.467
   -62.545	    82.437
   -54.758	    93.347
   -49.719	    96.559
   -58.601	    86.763
   -58.329	    81.941
   -74.311	    73.535
   -67.767	    47.723
   -72.023	    49.360
   -66.177	    68.828
   -71.079	    97.173
   -67.901	    82.232
   -77.142	    82.569
   -60.431	    82.594
   -67.763	    72.322
   -68.845	    56.817
   -71.489	    68.524
   -76.939	    58.080
   -72.164	    73.336
   -74.262	    90.877
   -70.119	    91.652
   -82.726	    64.376
   -74.776	    61.534
   -85.716	    84.520
   -69.882	    89.262
   -74.799	    63.416
   -77.799	    90.809
   -68.288	    78.064
   -72.350	    88.026
   -67.665	    70.720
   -81.749	   105.203
   -56.191	   101.221
   -56.482	    71.109
   -62.090	    83.220
   -65.664	   101.925
   -57.604	    94.979
   -75.020	    80.302
   -59.023	    72.740
   -62.360	    91.772
   -72.496	    73.705
   -55.068	   111.975
   -73.642	    52.618
   -74.265	    82.317
   -67.278	    55.919
   -72.139	    71.526
   -81.037	    57.106
   -58.146	    94.438
   -74.684	    76.377
   -75.092	    91.456
   -65.908	    87.989
   -78.055	    78.111
   -76.352	    59.068
   -75.451	    56.874
   -53.623	    70.958
   -73.018	    77.434
   -93.248	    74.426
   -71.503	    67.073
   -69.466	    44.628
   -70.756	    48.720
   -74.140	    45.428
   -63.808	    56.052
   -73.116	    45.063
   -60.605	    74.952
   -81.770	    54.560
   -80.121	    58.316
   -72.133	    49.767
   -76.273	    30.966
   -70.919	    42.531
   -64.403	    62.299
   -85.266	    73.388
   -66.960	    74.896
   -74.498	    55.560
   -68.718	    68.063
   -78.289	    73.693
   -71.290	    68.207
   -68.319	    47.231
   -73.818	    82.445
   -62.671	    78.993
   -67.867	    74.463
   -70.095	    76.875
   -66.290	    77.150
   -56.385	   106.703
   -62.529	    90.960
   -69.335	    85.902
   -81.162	    76.865
   -76.770	    73.594
   -74.131	    59.172
   -78.708	    61.456
   -72.608	    54.194
   -73.938	    81.761
   -71.542	    85.639
   -61.844	    95.312
   -70.651	    84.170
   -67.689	    80.776
   -63.611	    61.075
   -76.943	    89.326
   -65.094	    59.470
   -69.569	    81.580
   -71.842	    68.879
   -71.307	    65.304
   -86.031	    68.500
   -79.544	    78.175
   -68.421	    69.218
   -86.823	    54.540
   -74.101	    67.945
   -63.277	    69.961
   -68.277	    68.846
   -63.805	    70.828
   -63.865	    58.306
   -59.915	   118.420
   -59.678	    90.576
   -69.694	    81.448
   -68.966	    72.553
   -50.491	    75.813
   -52.748	    87.980
   -64.085	   102.648
   -58.823	   104.420
   -68.324	    67.052
   -69.381	   115.654
   -65.649	    73.009
   -63.929	    88.939
   -62.356	    62.355
   -50.663	    65.381
   -69.226	    71.423
   -75.238	    73.665
   -71.816	    75.168
   -63.704	    63.724
   -77.848	    60.854
   -79.712	    50.083
   -70.126	    63.347
   -71.709	    73.715
   -77.619	    68.902
   -62.917	    87.890
   -69.196	    78.376
   -73.674	    85.631
   -51.318	    83.921
   -56.711	    90.360
   -65.653	    82.014
   -69.314	    78.930
   -56.379	    86.573
   -69.015	    83.206
   -69.831	    83.804
   -63.207	   106.821
   -71.335	   116.283
   -64.223	    90.727
   -68.324	    68.784
   -71.775	    83.940
   -72.730	    68.028
   -61.198	    65.687
   -79.776	    52.451
   -71.012	    78.415
   -65.515	    98.612
   -74.135	    63.746
   -67.628	    53.143
   -68.509	    75.310
   -62.532	    77.576
   -83.386	    65.543
   -75.413	    57.281
   -76.038	    77.080
   -73.780	    81.991
   -70.243	    57.953
   -70.593	    44.245
   -81.725	    45.288
   -57.413	    69.223
   -66.077	    92.178
   -69.780	    74.919
   -62.916	    68.602
   -66.486	    90.698
   -75.947	    83.920
   -66.128	    69.241
   -61.390	    73.686
   -80.388	    80.581
   -64.106	    63.689
   -57.863	    77.962
   -79.300	    96.782
   -64.496	    95.364
   -62.697	   101.063
   -70.118	    89.020
   -78.426	    64.727
   -71.066	    81.704
   -71.359	    95.235
   -68.415	   104.031
   -70.939	    90.211
   -64.219	   100.852
   -52.702	   103.409
   -60.059	    89.154
   -56.110	    55.858
   -70.421	    62.467
   -78.288	    45.968
   -73.119	    64.232
   -69.943	    58.506
   -62.588	    78.368
   -75.350	    70.476
   -72.492	    93.662
   -93.418	    74.519
   -63.083	    74.997
   -69.303	    85.842
   -69.772	    81.486
   -75.376	    81.134
   -60.005	    96.513
   -65.545	   104.382
   -76.630	    73.182
   -75.420	    92.995
   -71.448	    89.413
   -76.826	    68.786
   -74.252	    40.884
   -51.528	    99.698
   -81.808	    70.819
   -77.258	    88.709
   -80.373	    78.941
   -74.633	    64.332
   -50.974	    90.666
   -75.823	    74.228
   -65.069	    54.057
   -83.495	    74.893
   -66.631	    66.500
   -81.951	    56.724
   -76.607	    50.246
   -77.225	    66.177
   -67.376	    62.850
   -63.335	    52.824
   -62.852	    55.950
   -54.949	    90.139
   -60.767	    91.671
   -75.693	    99.631
   -65.571	    95.330
   -68.278	    76.341
   -79.223	    68.942
   -76.139	    71.515
   -62.561	    72.441
   -73.123	    49.602
   -79.034	    55.771
   -79.065	    78.132
   -73.314	   101.346
   -78.745	    94.537
   -62.032	    89.250
   -42.723	   100.099
   -75.181	    66.521
   -79.618	    61.120
   -80.177	    62.994
   -75.010	    35.762
   -67.298	    92.046
   -63.931	    63.013
   -73.626	    69.322
   -51.914	    79.730
   -71.052	    85.044
   -74.240	    69.957
   -72.250	    64.223
   -56.378	    84.929
   -53.505	    64.633
   -66.708	    94.248
   -70.307	    88.996
   -64.586	    83.380
   -78.776	    56.939
   -74.187	    78.231
   -67.827	    73.749
   -76.204	    66.989
   -81.961	    73.445
   -85.196	    75.107
   -75.130	    60.515
   -74.032	    67.519
   -31.755	    77.612
   -73.043	    67.941
   -70.808	    65.012
   -72.505	    59.309
   -64.517	    85.186
   -58.043	    88.280
   -69.712	    92.571
   -89.969	    52.008
   -72.950	    62.232
   -83.608	    73.044
   -68.206	    61.947
   -65.915	    60.214
   -64.032	    64.063
   -58.988	    59.183
   -76.088	    82.678
   -62.927	    79.241
   -74.456	    99.074
   -76.071	   117.607
   -73.786	    64.880
   -81.546	    57.189
   -54.926	   110.737
   -70.825	    80.403
   -60.706	    80.860
   -68.010	    82.493
   -54.389	    90.668
   -66.869	    78.556
   -68.662	    86.440
   -71.513	    71.415
   -67.785	    81.565
   -68.359	    81.065
   -58.791	    61.864
   -75.574	    60.764
   -76.576	    69.155
   -75.995	    53.655
   -60.521	    82.732
   -73.964	    68.869
   -72.864	    74.718
   -82.660	    57.711
   -80.935	    52.205
   -85.943	    73.863
   -53.272	    82.341
   -65.389	    64.158
   -64.257	    55.249
   -75.492	    61.841
   -72.360	    71.782
   -74.388	    65.535
   -68.682	    71.548
   -68.393	    79.702
   -61.417	    67.876
   -68.430	    74.473
   -76.400	    48.643
   -72.207	    63.738
   -51.886	    64.392
   -74.380	    72.634
   -74.588	    67.234
   -78.924	    69.257
   -79.689	    61.686
   -69.169	    54.928
   -70.574	    67.169
   -78.288	    58.017
   -82.142	    65.806
   -64.290	    64.394
   -55.580	    71.585
   -69.079	    44.637
   -67.936	    58.566
   -59.787	    66.434
   -42.766	    85.896
   -54.858	    97.629
   -65.233	    77.016
   -63.590	    67.390
   -85.356	    69.883
   -55.915	    68.228
   -80.747	    43.375
   -71.892	    30.486
   -74.753	    71.536
   -76.074	    90.153
   -61.942	    61.867
   -71.436	    75.460
   -71.420	    49.673
   -63.810	    57.122
   -61.229	    79.782
   -48.461	    98.048
   -53.406	    75.558
   -53.562	   113.551
   -59.507	    78.877
   -69.304	    77.853
   -77.771	    51.545
   -82.545	    65.416
   -74.839	    68.922
   -77.194	    55.137
   -75.373	    59.331
   -67.159	    70.302
   -70.609	    66.810
   -70.089	    70.024
   -65.379	    87.149
   -58.139	    68.837
   -72.209	    54.616
   -61.132	    61.255
   -79.498	    85.037
   -65.075	    63.664
   -73.789	    57.872
   -65.038	    72.112
   -75.038	    49.326
   -70.518	    68.638
   -64.082	    68.776
   -54.117	    88.561
   -70.166	   108.438
   -53.821	    91.793
   -80.021	    55.370
   -67.522	    52.505
   -65.823	    65.943
   -77.309	    65.616
   -61.944	    79.413
   -49.878	    89.357
   -64.769	    73.287
   -71.397	    76.177
   -78.416	    68.029
   -76.389	    71.210
   -68.639	    64.067
   -69.284	    69.631
   -58.274	    96.257
   -51.398	    89.808
   -71.624	    76.016
   -74.797	    67.502
   -66.059	    91.191
   -69.096	    47.801
   -69.524	    63.842
   -68.006	    71.705
   -66.812	    78.629
   -71.861	    78.454
   -72.496	    57.147
   -79.931	    57.088
   -82.350	    68.312
   -74.757	    68.412
   -73.088	    51.757
   -57.588	    74.301
   -42.330	    64.763
