   -92.310	   122.143
    57.267	   173.505
    67.024	   147.582
    62.590	   170.171
    74.565	   167.479
    77.517	   159.097
    54.141	   179.251
    61.444	   173.608
    64.377	   157.766
    58.400	   175.938
    65.979	  -175.618
    70.836	   167.548
    51.731	  -168.264
    53.691	   174.433
    60.827	   164.782
    61.729	  -172.933
    58.102	   178.923
    50.623	   179.712
    69.688	   169.288
    53.876	  -178.727
    63.503	   177.264
    51.711	  -171.108
    65.420	   165.508
    66.805	   166.894
    75.517	   177.672
    63.466	   157.552
    61.101	  -174.719
    53.140	  -166.885
    65.303	   179.218
    65.210	  -177.627
    60.516	   179.321
    61.170	  -170.286
    50.461	  -155.323
    64.871	  -179.770
    49.589	  -161.681
    63.087	  -156.666
    63.386	  -140.058
    67.949	  -159.347
    65.362	  -156.693
    53.317	  -161.694
    55.209	  -177.921
    46.861	  -165.682
    52.509	   178.321
    54.494	  -170.971
    52.308	   172.839
    69.973	   173.337
    60.175	  -169.187
    60.525	  -169.686
    63.529	   179.991
    58.288	  -161.235
    47.591	  -167.232
    65.012	   168.895
    67.661	   171.533
    55.958	  -171.488
    58.663	  -176.401
    47.781	   171.503
    60.656	  -150.201
    61.979	  -163.995
    66.346	  -169.952
    63.376	  -164.532
    65.627	   173.777
    63.887	   177.876
    57.066	  -167.453
    59.807	  -179.962
    68.147	  -169.542
    50.781	   178.219
    57.297	  -164.515
    68.720	   168.324
    60.991	  -167.114
    64.374	  -170.468
    50.678	  -146.684
    58.444	  -168.546
    52.592	  -179.733
    50.811	  -168.412
    62.348	   174.603
    60.190	   156.725
    75.556	  -166.130
    56.551	  -179.486
    66.393	   170.068
    57.464	  -167.880
    64.758	  -161.794
    69.380	   166.947
    60.968	  -174.313
    58.949	   174.545
    59.831	  -177.888
    55.903	  -176.337
    61.368	  -144.117
    60.449	  -177.950
    64.884	  -157.396
    70.504	  -160.651
    66.736	   169.574
    58.617	  -162.087
    51.806	  -165.730
    56.908	  -169.133
    61.982	   170.916
    45.092	  -163.792
    71.934	   174.756
    55.006	  -155.989
    49.326	  -164.854
    59.816	  -167.164
    61.433	  -176.956
    59.502	  -178.233
    57.614	   178.548
    68.248	  -178.769
    51.625	   173.055
    60.300	   171.751
    52.183	  -167.279
    70.253	   166.517
    58.115	   168.831
    48.891	  -179.039
    61.657	  -170.973
    59.347	  -176.704
    61.118	  -158.739
    55.648	  -166.597
    49.397	  -162.381
    64.619	   179.306
    60.399	   167.736
    59.422	   159.974
    66.714	  -178.978
    55.740	   178.398
    81.935	  -179.684
    59.183	   173.016
    68.260	   168.526
    71.489	  -179.945
    65.395	  -169.956
    61.437	   178.387
    57.816	  -179.652
    63.062	  -162.742
    68.703	  -157.240
    72.367	  -177.964
    62.850	   177.596
    68.005	  -179.250
    71.151	   179.763
    62.803	   179.145
    61.009	  -163.813
    69.594	  -165.372
    66.608	  -173.485
    57.014	  -151.874
    65.817	  -175.836
    68.274	  -177.121
    51.937	  -151.569
    62.507	  -174.058
    55.840	  -175.946
    71.559	  -173.794
    70.145	  -170.819
    63.067	  -158.338
    64.108	   155.465
    55.257	  -176.286
    51.901	   167.743
    55.065	  -167.176
    50.081	  -179.367
    69.314	   177.400
    54.952	  -176.965
    59.412	  -176.115
    59.828	  -163.839
    64.585	  -163.575
    66.096	  -178.442
    65.270	   174.602
    64.828	  -168.493
    69.770	   173.915
    63.632	  -179.649
    52.650	  -162.928
    64.975	  -158.037
    68.413	  -166.089
    59.822	  -173.897
    63.874	  -173.042
    56.792	  -178.575
    57.305	  -177.440
    60.179	   179.791
    60.736	   164.879
    67.311	   171.385
    65.232	   162.342
    60.976	   168.838
    60.340	  -151.239
    56.048	   167.202
    73.169	   168.844
    52.945	  -161.898
    58.602	  -163.053
    62.099	  -150.897
    61.525	  -175.208
    59.124	   171.574
    58.317	   177.698
    56.591	   178.829
    45.827	  -156.480
    57.185	  -160.859
    62.925	  -172.130
    60.581	   172.220
    54.226	   168.115
    44.684	  -164.286
    73.906	   171.513
    55.062	  -177.280
    68.749	   177.518
    64.977	  -170.660
    62.616	  -172.928
    52.978	  -170.408
    58.915	  -171.512
    63.822	  -154.495
    52.831	  -139.970
    62.592	  -170.031
    74.075	   175.236
    61.683	  -170.369
    60.121	   167.332
    66.531	  -156.217
    50.875	  -176.612
    67.294	  -161.325
    62.154	  -171.060
    74.170	  -163.921
    57.788	  -160.560
    63.735	  -174.599
    55.772	  -167.939
    60.669	  -173.369
    56.781	  -156.310
    59.640	  -176.627
    56.102	   164.360
    62.010	   174.548
    55.334	  -175.128
    52.704	  -172.243
    65.224	   174.966
    66.065	  -172.084
    65.619	  -174.727
    62.082	  -159.885
    64.824	  -174.603
    56.845	  -169.881
    59.981	  -149.927
    65.321	  -163.000
    59.922	  -168.767
    55.314	   177.472
    48.976	  -163.507
    60.757	  -167.317
    60.958	  -173.991
    57.431	   179.124
    70.820	   157.919
    66.759	   169.172
    61.911	  -177.562
    73.789	   161.129
    53.651	  -149.232
    63.091	  -171.578
    66.757	  -163.302
    56.750	  -157.874
    60.529	  -165.583
    51.323	  -178.751
    64.999	  -145.658
    55.108	  -151.924
    54.598	  -148.911
    64.141	  -160.924
    62.251	  -178.248
    69.054	   176.444
    68.724	  -171.197
    47.329	   168.147
    68.012	   164.339
    74.397	  -177.095
    62.077	  -167.812
    72.537	  -172.428
    51.644	  -178.341
    67.912	  -172.470
    67.123	  -178.387
    68.728	  -175.077
    67.348	  -171.094
    57.826	  -172.762
    57.762	  -176.966
    64.546	   178.616
    68.228	  -174.827
    62.310	  -173.714
    61.299	   168.709
    64.242	  -177.051
    57.890	  -174.608
    54.616	  -165.034
    63.329	  -156.361
    68.181	   169.853
    59.456	  -169.779
    61.780	   175.824
    63.182	  -173.849
    61.627	  -174.816
    60.105	   165.125
    56.521	  -178.921
    45.728	  -174.076
    53.954	  -177.991
    57.257	   161.818
    65.240	  -158.330
    61.198	  -176.923
    57.843	   178.766
    62.197	   175.520
    56.652	  -177.037
    62.381	  -177.657
    62.180	   177.055
    51.925	  -166.598
    59.015	  -163.957
    59.733	   169.375
    55.983	  -161.952
    59.056	  -165.528
    62.827	  -168.919
    53.785	  -178.442
    47.799	  -170.972
    65.499	  -177.952
    61.429	  -171.591
    60.631	  -175.827
    62.444	  -164.300
    56.829	  -176.234
    64.716	   177.148
    66.371	   170.297
    59.307	   179.044
    51.999	   179.086
    53.916	  -170.720
    66.038	   177.290
    55.145	   168.329
    61.553	  -176.157
    56.186	  -179.981
    68.601	   173.680
    65.456	  -177.602
    66.078	  -153.848
    47.875	  -172.424
    51.823	  -176.228
    55.618	   177.125
    58.247	  -165.774
    62.774	  -158.782
    57.536	   171.583
    56.827	   149.774
    64.574	   173.433
    59.463	  -179.381
    56.866	  -175.755
    62.811	   161.379
    62.467	  -170.755
    67.056	  -166.568
    70.706	  -171.625
    55.451	  -166.121
    64.044	   164.025
    69.600	   172.078
    66.927	  -151.137
    54.834	  -178.240
    58.949	  -177.678
    67.222	   167.299
    52.830	  -179.944
    51.315	  -172.248
    55.599	  -172.976
    66.780	  -164.604
    60.063	   164.932
    47.160	  -167.216
    54.616	  -171.058
    60.858	  -176.274
    60.986	  -148.828
    57.980	  -163.748
    57.913	   178.692
    69.980	  -144.948
    55.142	  -178.620
    65.223	  -177.376
    57.100	  -160.711
    57.298	  -160.043
    54.252	  -161.012
    54.138	  -178.165
    61.402	  -170.872
    54.616	  -170.959
    63.947	   179.523
    50.230	  -164.652
    46.075	  -154.317
    54.815	  -177.789
    57.048	  -153.569
    60.287	  -174.918
    64.769	  -163.738
    60.607	  -176.581
    56.145	  -177.282
    74.270	  -169.837
    66.125	  -163.420
    53.043	   179.365
    55.347	  -175.403
    58.232	  -157.110
    66.949	   179.743
    63.889	  -174.987
    61.113	  -169.593
    56.895	   175.970
    65.150	  -168.030
    61.809	  -179.828
    62.614	  -176.842
    64.697	   170.510
    72.014	   177.453
    69.755	   171.528
    66.175	   174.324
    50.322	  -164.546
    46.851	  -173.276
    47.972	  -158.617
    52.297	  -170.311
    48.106	  -171.010
    58.372	  -166.805
    60.561	  -159.027
    68.590	  -170.447
    66.209	  -174.351
    62.285	  -170.285
    47.979	  -150.624
    46.201	  -159.578
    53.388	  -160.006
    48.765	  -158.379
    55.810	  -173.508
    63.756	  -174.001
    68.460	   154.204
    57.619	   168.545
    47.191	   178.394
    56.703	  -179.867
    69.526	   165.533
    66.048	   164.572
    58.615	   172.256
    71.665	  -167.839
    69.219	  -175.410
    51.766	  -161.826
    63.863	   168.522
    51.521	  -159.190
    58.186	  -160.934
    54.900	   176.919
    56.841	   175.085
    76.016	   166.624
    62.408	  -167.801
    69.321	   169.298
    59.775	  -175.651
    58.694	  -170.307
    53.055	  -157.498
    62.557	  -177.310
    63.219	  -171.939
    55.048	  -170.348
    51.843	  -171.843
    68.609	  -166.095
    57.135	  -166.160
    59.924	   174.293
    53.457	  -170.457
    62.384	   178.050
    73.241	   174.692
    61.343	  -179.694
    53.766	  -169.936
    74.932	  -178.252
    62.065	   177.570
    54.594	  -158.971
    61.464	  -159.210
    60.933	  -169.588
    66.426	  -178.430
    51.813	   166.966
    73.038	  -168.727
    71.630	   169.557
    47.087	  -172.582
    67.787	  -174.488
    75.016	   156.193
    59.024	   179.695
    74.356	   177.772
    55.734	  -179.228
    66.017	   170.773
    52.457	  -160.381
    71.330	  -162.662
    64.796	  -165.106
    63.505	  -179.596
    65.311	   179.718
    61.409	   171.878
    49.724	  -173.109
    67.429	  -178.408
    64.998	  -153.603
    62.966	   165.668
    70.526	   166.921
    60.784	  -154.023
    59.478	  -174.685
    54.710	   176.215
    53.323	  -170.707
    62.928	  -168.959
    60.430	  -177.871
    59.283	  -154.653
    50.318	  -154.379
    59.296	   168.335
    65.008	  -175.443
    59.569	   179.247
    61.778	   173.472
    72.562	   171.137
    61.429	  -175.427
    53.979	  -165.905
    70.414	  -134.104
    55.877	  -166.619
    55.743	   174.273
    58.826	  -153.179
    73.507	  -161.807
    62.267	  -168.755
    59.274	   179.054
    62.591	   170.701
    66.421	  -169.080
    68.252	  -175.815
    62.648	  -161.907
    55.880	  -166.618
    56.075	  -176.031
    58.721	  -158.747
    67.966	  -158.103
    54.952	  -179.892
    55.499	  -157.376
    67.911	   174.882
    54.098	  -174.341
    56.547	   159.739
    62.718	   177.277
    65.959	  -178.475
    52.444	  -164.241
    67.740	  -176.628
    62.025	  -167.781
    70.742	  -174.967
    59.571	  -169.650
    56.695	  -175.665
    45.038	  -160.966
    58.695	  -178.901
    62.452	   168.008
    59.987	  -174.425
    63.306	   175.771
    66.964	   179.850
    58.590	   170.355
    55.054	  -179.889
    60.206	  -172.792
    57.369	   162.507
    64.251	  -178.776
    56.081	   172.446
    74.606	  -176.821
    61.789	   174.405
    61.766	  -173.996
    51.603	  -176.790
    70.177	   167.796
    67.652	  -172.244
    58.962	  -155.956
    69.867	  -148.523
    61.276	  -166.123
    64.814	   172.719
    60.453	  -175.146
    56.084	   178.103
    60.687	  -157.233
    61.507	  -171.320
    51.135	  -174.575
    46.535	  -171.843
    66.595	   174.853
    58.365	  -170.752
    70.191	  -172.115
    66.299	  -176.505
    56.022	   177.905
    55.852	   174.377
    54.835	  -175.568
    64.041	   176.091
    60.477	  -169.714
    58.186	  -163.136
    71.204	  -165.410
    66.746	  -179.714
    57.038	  -178.087
    55.993	   165.134
    68.036	  -179.783
    70.111	   177.438
    63.714	  -171.561
    56.658	  -171.422
    59.483	   178.699
    60.554	  -177.916
    56.023	  -171.404
    63.101	  -174.177
    59.435	  -163.999
    54.417	  -179.804
    49.293	  -176.212
    66.638	  -172.373
    59.393	   174.967
    58.362	  -174.844
    72.527	  -172.105
    71.075	   176.021
    56.756	  -174.897
    63.904	  -170.530
    63.490	   178.032
    62.497	  -175.195
    57.297	  -172.892
    57.309	   173.814
    66.192	   177.314
    61.137	  -147.473
    56.271	  -159.120
    64.927	  -168.907
    62.972	  -169.775
    63.888	  -177.629
    60.574	  -177.536
    60.277	   173.622
    71.247	  -161.000
    58.364	  -163.209
    55.532	  -174.119
    69.261	  -171.520
    53.963	  -167.163
    58.157	  -178.503
    56.532	  -172.005
    51.534	  -177.424
    62.176	  -178.704
    60.244	   165.517
    54.360	  -163.354
    55.565	  -160.194
    66.715	  -170.435
    65.286	   177.470
    66.194	   166.802
    67.669	   175.523
    53.889	  -169.570
    62.805	  -177.307
    55.330	  -170.970
    55.702	  -177.001
    59.203	   172.556
    65.470	   165.713
    61.398	  -177.333
    63.403	   175.543
    60.563	  -178.706
    65.870	  -179.743
    58.866	   158.024
    57.165	  -170.402
    59.330	   165.438
    60.031	  -175.949
    62.783	   165.647
    57.297	  -176.966
    65.403	   172.764
    41.782	   173.450
    72.846	  -178.906
    59.169	  -167.629
    67.691	  -175.143
    66.354	   176.216
    47.008	   177.702
    51.714	   178.392
    54.733	  -171.282
    61.066	   170.958
    57.238	  -159.212
    55.218	  -156.591
    59.974	  -170.457
    62.376	  -168.485
    63.032	  -152.085
    57.632	  -172.838
    60.075	   174.350
    74.353	   178.264
    56.803	   165.143
    58.638	   179.410
    67.297	  -178.805
    58.341	  -174.519
    64.720	  -173.093
    73.547	  -170.853
    55.482	  -154.006
    51.972	   177.355
    62.085	  -176.228
    52.910	  -178.909
    58.959	   161.798
    53.347	  -166.175
    64.819	  -179.439
    52.480	  -171.911
    45.587	  -172.277
    49.656	  -162.571
    57.565	   178.325
    57.876	   176.051
    56.483	   179.770
    61.942	  -173.389
    73.499	   170.108
    55.007	   162.214
    59.900	   170.324
    57.932	  -162.364
    68.638	  -166.351
    62.726	  -176.346
    60.684	  -156.929
    56.069	  -156.018
    59.427	  -170.501
    54.423	  -158.942
    69.576	  -172.867
    64.186	   175.405
    67.767	  -179.314
    54.913	   166.195
    52.331	   176.423
    58.225	   173.828
    55.081	   179.968
    67.540	  -179.462
    48.921	   173.327
    68.002	   161.382
    66.049	  -175.777
    56.214	  -177.243
    70.420	  -163.632
    70.545	  -178.602
    53.190	  -168.763
    53.743	  -175.072
    66.480	  -177.890
    53.887	  -165.913
    66.221	  -143.893
    56.084	  -172.800
    56.631	  -167.129
    64.838	  -173.699
    62.825	  -175.324
    56.478	  -161.539
    56.756	  -167.232
    54.151	  -149.360
    56.613	  -165.300
    60.924	  -175.191
    63.977	  -174.003
    65.701	  -164.068
    59.654	  -172.886
    70.698	   177.855
    59.031	  -174.985
    62.739	  -174.068
    64.691	   167.123
    66.561	  -167.617
    65.063	   175.695
    58.304	  -173.490
    58.674	  -177.181
    59.365	   175.827
    65.810	   171.899
    68.302	   170.220
    59.698	   176.932
    66.241	   167.442
    57.777	   174.266
    59.054	   175.422
    61.553	   178.996
    55.507	   172.776
    51.682	  -155.745
    56.138	  -175.725
    58.591	   173.312
    62.432	  -166.187
    55.782	  -179.811
    64.499	  -143.736
    55.418	  -161.802
    67.073	   168.450
    73.152	   172.927
    66.397	  -172.825
    58.575	   179.770
    67.932	  -175.438
    63.938	   177.255
    66.411	  -175.020
    48.138	  -174.028
    70.238	   169.154
    61.005	   173.588
    63.737	   169.140
    73.104	   165.302
    58.984	   175.785
    58.643	   171.943
    58.357	  -167.350
    72.056	  -169.903
    53.719	  -170.620
    67.940	   174.583
    60.304	  -178.506
    65.407	  -177.457
    65.881	   175.517
    59.725	  -173.615
    60.515	  -174.911
    64.983	  -165.226
    66.989	  -154.850
    54.070	  -167.435
    56.478	   179.103
    57.649	   178.063
    56.071	   173.995
    56.885	   165.581
    65.138	  -178.263
    70.381	  -166.440
    60.156	  -166.093
    60.306	  -176.872
    53.803	   163.616
    66.346	  -146.847
    54.256	  -170.557
    61.705	  -175.899
    54.559	  -163.639
    56.459	  -166.860
    47.401	  -164.113
    62.429	  -169.814
    59.800	   177.529
    65.383	  -175.360
    56.184	   179.296
    48.042	  -160.223
    51.143	   170.124
    61.648	  -158.255
    64.723	  -144.499
    58.450	  -176.494
    60.669	  -162.792
    59.031	  -159.234
    66.181	  -159.769
    58.588	   175.499
    48.262	  -175.008
    44.386	  -167.537
    54.977	  -155.951
    58.740	  -162.357
    63.927	  -175.633
    57.336	  -174.827
    61.320	  -162.937
    43.659	  -159.337
    65.009	  -179.258
    67.606	  -167.540
    59.269	  -169.160
    60.099	  -163.538
    62.793	  -176.912
    54.001	  -174.139
    61.742	  -168.012
    63.165	   164.611
    58.869	   151.464
    43.339	  -172.880
    62.922	   174.582
    60.054	  -176.862
    65.805	  -174.053
    63.607	  -159.942
    64.193	  -164.114
    60.009	  -167.280
    60.080	   175.725
    60.949	  -170.717
    56.699	  -171.315
    68.548	   179.545
    50.674	   175.854
    51.933	  -157.521
    62.616	  -167.548
    53.781	   167.941
    55.385	  -175.865
    64.576	   173.891
    64.386	   151.859
    55.482	  -179.869
    58.481	  -159.231
    51.931	   168.726
    59.902	   159.540
    62.926	   171.230
    63.997	  -163.036
    57.640	  -172.176
    59.786	  -167.937
    63.343	  -174.278
    61.064	  -171.502
    59.283	  -159.446
    60.216	  -179.027
    59.279	   178.768
    57.579	   168.931
    78.120	   156.845
    73.987	   156.891
    66.032	   170.594
    66.195	  -172.370
    56.976	  -173.451
    55.098	   178.818
    65.186	  -161.107
    52.554	  -154.885
    66.372	   169.861
    67.235	   172.336
    66.180	  -177.426
    65.174	  -157.800
    60.209	  -175.179
    62.248	  -167.557
    54.055	   177.267
    66.141	   176.278
    56.489	   175.641
    51.553	  -172.455
    52.994	   178.654
    49.206	  -152.939
    56.115	  -166.259
    59.422	  -168.051
    59.059	  -157.482
    55.291	  -164.257
    58.410	   165.093
    62.148	  -159.449
    67.862	  -170.135
    76.921	  -172.454
    69.695	  -177.634
    70.469	  -168.594
    60.780	  -162.079
    60.973	   174.017
    58.677	  -165.264
    58.686	  -161.147
    61.087	  -171.903
    56.277	  -154.042
    59.712	  -174.903
    59.677	  -163.137
    49.916	  -155.231
    52.052	  -154.313
    58.728	  -151.654
    51.345	  -173.723
    64.986	  -169.336
    71.305	   179.603
    61.203	   176.141
    61.756	   177.015
    53.505	  -179.340
    66.163	   170.088
    68.354	   156.211
    64.961	   163.674
    50.376	  -176.610
    63.579	   160.807
    76.443	  -179.695
    60.253	  -176.101
    63.539	  -179.572
    53.622	   163.890
    65.925	   150.673
    57.009	   174.298
    61.890	   161.843
    65.125	   179.114
    51.495	  -178.287
    68.248	  -171.526
    56.713	  -173.467
    74.476	   165.630
    76.634	   166.385
    64.279	  -172.657
    53.357	   175.128
    61.777	   173.010
    61.345	   179.649
    47.363	  -157.866
    57.179	  -171.333
    57.116	   175.665
    68.023	   171.566
    54.417	  -179.438
    52.974	  -163.945
    55.735	  -172.180
    59.211	  -175.137
    68.374	  -179.418
    49.589	  -151.641
    52.753	  -179.789
    67.295	  -171.430
    65.748	   176.279
    66.495	  -175.736
    52.894	   174.855
    58.462	  -177.540
    67.959	   166.992
    76.530	  -177.061
    54.521	  -179.962
    66.051	   179.261
    64.435	   170.820
    46.561	   176.767
    61.885	  -162.364
    59.031	  -162.772
    66.375	   171.654
    51.823	  -164.582
    55.151	  -174.424
    64.486	  -175.406
    57.513	  -166.590
    65.335	   177.302
    59.219	   174.757
    64.745	   173.996
    61.800	   176.977
    57.351	  -158.240
    67.604	   177.904
    56.977	  -179.328
    62.896	  -175.729
    49.511	  -178.043
    76.777	   176.979
    70.919	  -160.100
    49.982	  -144.494
    61.580	  -153.481
    61.139	  -175.141
    65.973	  -159.204
    72.144	  -159.537
    47.326	  -153.548
    51.806	  -157.311
    68.860	  -173.126
    58.598	  -165.380
    56.388	  -179.017
    57.782	   164.518
    62.078	  -177.216
    58.775	  -158.610
    51.571	   171.027
    59.527	  -148.778
    63.023	  -140.724
    65.447	  -153.179
    53.778	  -151.361
    59.238	  -170.044
    50.357	  -177.745
    50.079	  -176.027
    48.980	  -166.818
    63.005	   170.595
    60.929	  -174.503
    57.019	  -168.826
    57.203	  -170.979
    61.001	  -166.578
    59.648	  -164.054
    57.084	  -171.130
    52.263	  -168.969
    62.362	   174.762
    54.285	  -177.813
    63.946	   167.595
    54.608	   177.279
    57.479	  -166.019
    63.899	  -162.323
    58.036	   175.807
    52.055	   179.468
    44.595	  -155.217
    70.442	  -170.700
    57.401	  -169.125
    71.230	  -164.144
    70.794	   168.397
    64.972	  -176.445
    70.511	  -173.563
    68.347	  -178.032
    51.701	  -170.014
    55.440	  -178.435
    50.844	  -170.000
    57.653	  -171.056
    75.993	   171.417
    54.914	  -171.999
    74.278	  -174.659
    58.171	  -169.186
    74.753	  -168.583
    69.842	  -176.242
    56.114	   171.872
    60.301	   178.494
    55.465	   170.667
    57.591	   172.470
    51.333	   172.055
    69.916	  -177.112
    65.313	   177.085
    61.540	  -174.929
    57.316	   173.230
    64.958	  -174.924
    70.623	   172.882
    62.932	   171.814
    52.828	  -162.042
    62.493	  -177.705
    51.279	  -164.168
    56.888	  -174.847
    56.030	  -162.860
    63.439	  -154.744
    60.102	  -146.099
    63.433	   178.467
    60.330	  -157.433
    73.011	  -170.670
    61.847	  -161.814
    68.958	  -171.324
    40.262	  -165.530
    58.797	  -159.897
    66.065	  -176.107
    66.512	   171.095
    51.890	  -176.182
    63.559	  -170.627
    50.645	  -145.968
