   -92.310	   122.143
  -147.172	    53.531
  -146.581	    31.044
  -143.081	     2.856
  -160.164	   -17.494
  -147.577	    10.841
  -163.055	    -5.205
  -148.604	    20.830
  -137.372	     1.199
  -163.800	     7.267
  -157.366	     5.950
  -161.084	    11.693
  -146.015	   -12.656
  -152.768	    12.402
  -143.638	    -3.610
  -156.547	    33.365
  -169.965	   -11.320
  -159.590	     8.183
  -156.162	    10.824
  -158.569	   -13.111
  -149.875	     4.876
  -148.712	    -1.399
  -170.000	    -2.290
  -167.871	    27.290
  -164.756	    14.798
  -155.470	     3.851
  -155.436	    13.134
  -156.499	     4.734
  -143.402	    12.936
  -136.564	    -2.013
  -146.761	     0.989
  -145.806	    14.514
  -158.130	    17.925
  -150.804	    22.463
  -147.787	     9.765
  -151.601	     2.485
  -145.555	    20.543
  -158.626	     7.993
  -157.235	    -8.481
  -134.599	    -0.823
  -146.629	    11.911
  -142.274	     9.105
  -158.640	    14.457
  -146.964	     3.227
  -152.183	    -0.481
  -138.537	    -1.052
  -158.389	   -17.726
  -168.905	    19.439
  -145.060	    14.572
  -157.228	     8.826
  -158.859	    15.372
  -150.377	    16.820
  -139.258	    19.929
  -160.881	    14.387
  -138.297	    -2.059
  -150.558	    13.775
  -145.963	     8.924
  -155.425	     3.878
  -155.579	    27.756
  -148.117	     6.164
  -152.063	     2.134
  -143.826	     8.143
  -150.424	    -9.314
  -144.965	     1.798
  -150.991	    -9.711
  -135.043	    10.028
  -164.608	   -12.322
  -158.950	     3.997
  -159.763	     5.791
  -161.840	    12.622
  -163.142	    10.164
  -149.802	    10.768
  -142.878	    -6.763
  -160.917	     6.761
  -164.754	     5.479
  -152.763	    20.419
  -164.247	    -1.868
  -145.936	    -5.002
  -145.894	     2.722
  -161.788	    -5.111
  -152.875	    -4.748
  -151.601	    36.226
  -152.664	    14.376
  -140.727	    16.145
  -152.016	     4.739
  -158.233	    10.460
  -143.158	     7.286
  -138.488	     1.857
  -155.497	    16.235
  -155.886	   -10.100
  -148.480	     8.953
  -151.329	    -7.315
  -154.383	     3.603
  -157.914	     3.309
  -141.859	    10.679
  -155.129	    12.789
  -151.128	     6.739
  -142.387	    12.346
  -150.128	   -14.310
  -156.475	     5.522
  -140.688	    12.512
  -153.018	    -9.284
  -173.961	    -3.779
  -158.941	    -3.758
  -135.650	     5.787
  -166.589	    23.289
  -146.318	     8.303
  -152.804	    11.451
  -163.570	    24.399
  -166.894	    24.496
  -143.249	     6.704
  -142.102	     1.477
  -149.047	    29.592
  -144.930	    23.053
  -145.170	     4.043
  -151.292	    24.141
  -147.330	    13.326
  -160.781	    -0.141
  -156.030	     9.064
  -138.422	    -1.944
  -142.382	    11.294
  -157.716	    23.643
  -162.357	     8.535
  -167.778	    22.021
  -159.916	     5.613
  -147.702	    24.798
  -157.499	    14.087
  -170.451	    18.669
  -157.039	    14.557
  -152.991	    -4.438
  -155.696	    12.013
  -158.555	    -6.166
  -146.803	     6.340
  -135.350	    -1.956
  -137.228	     5.179
  -152.805	   -24.989
  -144.536	    36.531
  -143.986	    12.698
  -153.109	    -1.036
  -153.147	    14.078
  -155.734	     9.852
  -166.168	    20.688
  -145.708	     8.696
  -143.084	    17.280
  -139.219	    40.468
  -160.662	    31.216
  -159.922	    17.008
  -160.237	    25.437
  -148.855	    16.288
  -154.796	    31.353
  -153.473	     7.282
  -145.026	    25.882
  -163.033	    31.203
  -149.878	     8.078
  -159.822	    17.133
  -155.965	     5.558
  -157.364	    10.029
  -152.962	    18.416
  -144.289	    10.538
  -151.419	     8.056
  -148.978	    13.179
  -148.684	    -1.872
  -160.389	    11.243
  -153.205	     3.198
  -145.410	    16.625
  -154.099	    32.368
  -143.743	    16.348
  -164.635	    -3.418
  -146.069	    34.387
  -136.769	    10.932
  -150.673	    10.828
  -149.249	     2.125
  -152.204	    17.972
  -147.702	    18.735
  -137.376	    -3.534
  -146.707	     5.236
  -160.342	    -7.146
  -143.251	     5.342
  -159.276	     4.478
  -164.799	    14.447
  -154.326	    24.989
  -165.755	    18.416
  -157.488	     5.631
  -148.910	    12.806
  -152.700	    10.998
  -163.462	     5.796
  -147.685	     4.178
  -148.635	     0.154
  -133.465	     3.640
  -136.511	     6.404
  -143.800	    -4.690
  -136.394	     7.435
  -145.215	   -17.318
  -156.160	   -14.282
  -153.842	    12.363
  -160.266	    10.976
  -147.135	    -3.639
  -149.734	     0.075
  -139.496	     1.818
  -146.663	    -7.427
  -153.297	   -11.916
  -156.636	    -3.604
  -168.135	    -8.022
  -166.560	     0.904
  -144.851	     9.816
  -154.628	    10.215
  -147.373	   -15.454
  -154.365	    -1.056
  -154.749	    -4.624
  -150.169	     7.278
  -152.295	    13.598
  -140.370	    18.087
  -148.500	    23.537
  -153.272	    -4.107
  -160.157	    29.169
  -154.613	    22.363
  -160.562	    13.154
  -172.116	    21.398
  -168.190	    21.129
  -148.471	    15.506
  -146.852	     3.319
  -153.351	    -7.354
  -155.976	     8.411
  -144.209	    20.119
  -148.554	    17.306
  -158.234	    -0.463
  -151.610	     0.560
  -155.685	     9.041
  -136.285	     5.447
  -137.950	    16.892
  -156.425	    10.930
  -155.113	    -0.773
  -152.982	    30.903
  -165.871	     5.930
  -152.718	    14.500
  -143.128	    13.963
  -152.375	    14.092
  -157.851	    11.824
  -158.366	     4.610
  -159.950	     9.971
  -146.938	    -1.268
  -152.228	    12.265
  -152.278	    15.251
  -150.316	    22.957
  -159.917	    14.845
  -136.096	     0.382
  -146.298	    13.805
  -159.950	    -2.868
  -155.973	     0.147
  -146.568	    -3.545
  -151.908	    13.408
  -154.763	    15.541
  -150.249	    32.774
  -144.973	     0.680
  -171.068	    20.097
  -163.395	    14.428
  -146.919	    -6.681
  -153.050	    -7.314
  -167.291	    -3.587
  -144.137	    -2.721
  -148.732	   -13.423
  -151.511	    24.417
  -155.420	    20.149
  -152.069	    21.765
  -145.679	    -0.657
  -140.473	    16.943
  -142.305	    10.578
  -147.846	    31.771
  -144.120	    29.510
  -149.335	     4.050
  -168.661	    21.324
  -156.570	     9.864
  -159.643	    17.598
  -148.719	     1.930
  -168.217	    22.975
  -152.333	    17.082
  -159.892	     7.419
  -161.115	     8.063
  -156.192	    23.128
  -162.636	     2.113
  -141.957	    19.079
  -154.055	     5.424
  -156.010	     4.714
  -143.557	    10.090
  -157.880	     9.043
  -142.474	     6.229
  -163.855	    -4.966
  -138.425	    18.508
  -158.885	     5.013
  -154.086	    -2.606
  -148.563	    13.310
  -138.727	    13.304
  -150.695	     5.213
  -159.056	     4.649
  -155.125	    24.662
  -150.866	   -16.813
  -140.365	    15.520
  -159.775	    10.201
  -170.965	    12.609
  -136.485	    -2.138
  -155.435	    13.485
  -151.952	     6.717
  -136.851	     6.442
  -148.160	     7.809
  -160.208	    30.056
  -160.190	    17.783
  -141.398	    16.421
  -149.149	   -29.016
  -165.953	   -22.704
  -137.305	    20.182
  -147.892	    -6.716
  -155.623	     9.205
  -143.057	     1.536
  -148.094	    11.517
  -145.967	    17.992
  -160.519	     5.109
  -159.934	    -4.505
  -155.515	     9.705
  -154.045	   -10.657
  -149.368	     6.611
  -145.347	    -2.445
  -138.357	     3.208
  -148.221	    -4.121
  -150.389	    -7.108
  -143.342	    -4.671
  -143.569	    29.691
  -146.201	     4.718
  -155.155	    31.640
  -133.931	    18.486
  -154.454	    13.291
   178.396	    -3.217
  -166.922	    -6.410
  -139.529	    11.336
  -138.610	     9.743
  -148.863	    32.637
  -146.655	     7.330
  -148.895	    13.682
  -159.946	    14.842
  -162.490	     5.716
  -149.623	    23.807
  -165.801	    36.204
  -162.749	    20.288
  -153.072	    22.090
  -158.091	    33.186
  -166.953	   -12.937
  -150.483	    -8.690
  -146.843	     8.951
  -151.943	     7.284
  -160.737	    -2.538
  -160.401	    23.447
  -150.155	     7.961
  -155.522	    29.813
  -156.392	    17.907
  -149.325	    -5.699
  -154.221	    -5.259
  -156.776	    -5.758
  -139.240	     1.632
  -152.522	    -6.861
  -149.987	    -1.431
  -165.898	     5.517
  -166.214	     6.087
  -150.539	    13.411
  -136.683	    -0.457
  -156.358	     0.937
  -161.574	    -0.296
  -153.880	   -13.944
  -164.910	    13.731
  -147.870	     9.460
  -163.711	     3.629
  -155.153	     5.939
  -160.243	    30.861
  -162.072	    15.511
  -142.479	    20.432
  -152.802	    -0.787
  -159.549	     9.234
  -159.810	     0.967
  -159.814	    -7.634
  -144.456	    -0.684
  -158.897	    34.607
  -157.973	     8.058
  -152.003	    15.682
  -137.827	     9.410
  -151.765	    13.087
  -162.062	     5.236
  -143.611	    14.373
  -152.178	    -2.774
  -157.360	    30.743
  -157.535	    27.109
  -161.611	    29.883
  -139.129	     3.591
  -150.943	    18.962
  -145.465	    25.752
  -146.755	    27.299
  -145.685	    -1.074
  -131.948	    10.250
  -150.047	    35.953
  -156.473	    -1.557
  -147.668	    31.677
  -145.542	    -4.591
  -146.331	     3.118
  -156.682	    15.123
  -159.977	     2.231
  -137.123	     1.281
  -145.343	    -3.319
  -155.635	    -6.691
  -160.823	     3.010
  -143.347	   -11.695
  -147.364	    -3.726
  -153.835	     5.483
  -148.841	    16.177
  -158.806	    25.278
  -147.664	    -7.139
  -158.606	     5.734
  -147.574	    15.377
  -149.043	    14.931
  -153.610	    17.218
  -146.320	    20.497
  -160.325	     8.218
  -145.092	    17.181
  -148.839	    10.731
  -147.555	     9.774
  -156.151	     8.546
  -146.468	    17.954
  -157.727	    16.274
  -149.405	    32.714
  -158.993	     0.897
  -152.662	     5.699
  -155.786	   -11.250
  -168.225	   -28.283
  -161.822	     8.794
  -152.297	    12.831
  -154.237	    12.583
  -149.600	     5.601
  -139.616	     1.534
  -149.638	    13.172
  -144.058	    17.681
  -147.391	    13.471
  -150.671	     5.546
  -158.322	    -7.913
  -145.495	     6.011
  -143.075	    23.075
  -149.507	    21.852
  -159.757	    12.484
  -158.140	    24.305
  -148.455	    12.947
  -144.076	     5.438
  -139.125	    -1.291
  -149.723	    20.865
  -153.101	     5.138
  -156.704	    -7.349
  -148.436	     1.021
  -155.324	    14.703
  -162.062	    25.712
  -149.788	    20.437
  -146.426	   -11.137
  -150.173	    10.827
  -162.619	     8.791
  -146.801	    29.926
  -158.416	    27.601
  -137.222	    25.634
  -145.432	    17.970
  -132.051	    19.929
  -162.308	   -18.947
  -138.894	     9.736
  -151.005	    -8.215
  -152.941	   -12.703
  -153.117	     0.044
  -160.042	    26.497
  -142.652	    -8.421
  -141.043	     3.187
  -150.638	    -2.038
  -150.857	    16.714
  -144.301	     2.214
  -151.853	     1.178
  -155.636	    10.750
  -163.808	    21.280
  -162.088	    22.432
  -158.153	    25.492
  -153.597	    15.893
  -154.797	    15.948
  -138.720	     4.628
  -158.048	    18.695
  -157.023	    18.028
  -163.418	    12.849
  -171.417	     1.772
  -159.609	   -12.441
  -168.041	    -4.057
  -143.231	    -4.240
  -155.277	     5.499
  -146.624	   -10.665
  -156.959	    15.602
  -127.831	    -8.628
  -162.996	   -14.795
  -155.572	    20.383
  -145.966	    -2.316
  -146.427	    -0.732
  -155.301	    13.827
  -156.946	    -6.780
  -170.435	     4.536
  -159.224	    24.922
  -159.488	     4.900
  -154.947	    16.853
  -143.610	     0.797
  -153.535	     4.064
  -140.300	    11.616
  -156.759	     9.805
  -147.819	     1.317
  -155.534	    12.998
  -157.399	     7.205
  -142.544	    16.775
  -154.911	     5.452
  -139.007	     2.725
  -153.842	    22.479
  -156.220	     4.385
  -147.855	    13.413
  -157.357	     5.897
  -148.930	    -7.285
  -150.905	    -2.702
  -171.055	   -15.478
  -170.271	   -13.376
  -152.807	    18.865
  -140.630	     1.603
  -139.746	    -2.073
  -150.574	    -8.115
  -155.094	    18.113
  -161.594	     9.092
  -155.401	     9.546
  -151.529	    -7.967
  -157.615	    16.751
  -138.136	    14.211
  -158.785	    15.252
  -153.797	     6.338
  -154.122	    11.074
  -147.123	    10.590
  -144.352	     7.794
  -153.998	     3.132
  -153.002	    22.611
  -153.104	     5.126
  -152.853	     2.334
  -152.765	     2.131
  -152.288	    -2.745
  -156.577	     8.301
  -152.019	    -2.582
  -145.224	    13.859
  -151.546	    -2.241
  -156.157	     5.512
  -138.532	    20.983
  -160.427	     6.131
  -144.665	    16.729
  -139.481	    -2.162
  -160.287	     3.196
  -146.847	    -3.026
  -161.141	     0.178
  -149.923	    17.295
  -143.471	     0.524
  -146.981	     9.243
  -142.458	     7.340
  -154.140	    31.801
  -141.817	    20.808
  -156.952	     8.506
  -147.017	    10.947
  -132.420	    16.718
  -141.745	    10.354
  -132.751	    25.436
  -152.560	     8.250
  -165.330	    20.814
  -165.778	    15.212
  -152.070	     8.509
  -153.039	    24.457
  -149.815	    -0.201
  -149.652	    -1.143
  -144.439	    28.510
  -144.047	    19.681
  -154.363	    12.169
  -162.038	    -7.266
  -144.220	     0.141
  -155.806	   -15.430
  -159.138	    -5.876
  -157.355	   -10.268
  -146.798	    -8.509
  -157.825	    -3.143
  -145.519	     8.123
  -153.265	    13.931
  -154.490	    24.381
  -156.282	    -5.389
  -164.994	    20.502
  -164.383	    -8.138
  -164.315	     8.690
  -155.924	    14.904
  -136.338	     5.359
  -152.565	    22.437
  -155.034	    18.076
  -158.444	     1.113
  -152.651	     4.530
  -154.260	    21.368
  -155.356	    11.048
  -138.586	     5.600
  -130.497	     7.332
  -152.487	    22.789
  -145.312	     9.376
  -166.672	    17.493
  -153.339	    16.265
  -141.143	    18.194
  -149.245	    17.930
  -144.812	     8.910
  -128.142	     6.199
  -143.052	    -4.962
  -155.256	    -5.673
  -142.881	     1.343
  -155.612	     2.686
  -156.233	     3.154
  -156.218	    35.411
  -146.820	    12.678
  -142.532	    -3.191
  -158.924	    15.365
  -164.635	     2.900
  -152.177	     1.666
  -159.343	     3.523
  -145.232	     1.664
  -154.546	     6.496
  -153.221	   -13.325
  -164.667	     3.698
  -144.119	    14.329
  -157.858	     0.523
  -152.745	   -13.846
  -152.756	     1.866
  -139.344	     0.798
  -143.959	   -12.813
  -131.451	    15.804
  -141.442	   -16.448
  -149.464	    21.643
  -132.934	    -1.745
  -155.141	    -2.919
  -159.483	   -11.509
  -144.552	     3.660
  -156.822	     3.880
  -151.970	     9.228
  -156.111	     6.759
  -155.087	    12.512
  -149.888	     8.202
  -152.687	    -3.520
  -135.512	    -8.229
  -145.887	   -14.865
  -158.658	   -16.810
  -171.537	     7.870
  -152.264	     6.080
  -151.260	     1.073
  -137.244	     6.807
  -162.982	    15.541
  -157.164	    18.445
  -147.955	     2.303
  -149.804	    -5.429
  -143.579	    -3.709
  -150.666	     0.693
  -145.042	     8.313
  -154.404	   -11.162
  -153.889	    18.226
  -165.511	     3.725
  -141.512	     6.067
  -155.654	     9.739
  -151.440	     6.055
  -154.085	    -7.932
  -145.528	    -1.967
  -161.702	    34.052
  -145.431	    29.025
  -141.371	    13.207
  -144.078	    24.292
  -152.696	    18.627
  -155.053	   -31.022
  -164.733	     6.995
  -160.848	     9.804
  -159.557	   -17.679
  -148.037	     6.282
  -160.865	     4.807
  -165.402	    -4.049
  -154.176	    -6.882
  -139.312	     0.070
  -157.315	    -4.658
  -156.252	    -0.726
  -156.420	     6.304
  -141.682	    11.145
  -152.634	    -9.363
  -158.940	    -2.327
  -145.861	     8.819
  -151.276	    -3.477
  -153.445	     0.996
  -155.256	     9.111
  -150.871	    17.512
  -153.829	    10.935
  -144.716	    -0.978
  -150.088	     8.882
  -157.005	    23.066
  -142.602	    13.440
  -157.099	    20.331
  -156.494	    24.492
  -150.505	     9.886
  -148.690	    10.513
  -146.483	     1.987
  -155.161	    31.835
  -150.445	    -2.205
  -156.326	     5.654
  -141.536	    22.341
  -150.025	    11.017
  -155.817	   -17.154
  -165.743	    -7.531
  -143.920	    13.578
  -159.854	    22.321
  -153.095	    26.098
  -162.411	    -0.643
  -153.686	    -8.218
  -153.130	    -0.413
  -154.951	    20.353
  -168.604	    29.762
  -161.867	     8.648
  -162.024	    -3.414
  -160.539	    -2.427
  -159.296	    11.601
  -149.104	    30.072
  -152.008	   -13.771
  -147.644	   -13.433
  -141.921	    -1.399
  -151.342	    38.735
  -157.288	    12.985
  -159.372	    10.979
  -142.437	    10.361
  -145.049	    -7.398
  -147.938	     4.303
  -158.973	     3.280
  -154.687	   -15.372
  -161.030	    -0.666
  -155.272	     2.047
  -167.843	    12.897
  -151.094	    17.017
  -150.456	   -11.488
  -148.384	    19.841
  -132.157	    -8.914
  -145.681	    15.975
  -145.636	    11.474
  -162.525	     3.645
  -162.288	     5.505
  -163.947	     2.908
  -151.629	    -5.517
  -154.094	    19.271
  -174.267	    -0.803
  -155.094	     6.546
  -153.968	   -14.629
  -148.511	     9.080
  -169.788	     5.227
  -147.703	    25.615
  -154.310	    -0.181
  -158.262	    -7.034
  -159.244	    15.905
  -153.248	     8.791
  -149.721	     4.451
  -137.097	     8.851
  -131.813	    -2.119
  -147.037	    -7.483
  -159.163	    -9.380
  -154.297	    13.921
  -140.354	    -3.009
  -149.944	    17.539
  -154.910	   -10.705
  -158.379	    -2.486
  -150.302	     0.935
  -158.186	     0.794
  -159.428	    12.022
  -137.971	     3.575
  -134.618	    15.142
  -162.370	     4.874
  -152.140	    16.822
  -146.193	     4.498
  -135.996	    23.965
  -159.090	    -1.856
  -164.716	     8.065
  -146.357	   -15.703
  -138.762	    33.148
  -166.651	    13.133
  -156.259	    19.527
  -130.375	    18.124
  -141.540	    -7.822
  -148.656	     5.059
  -142.854	    12.018
  -169.584	    15.396
  -160.872	    24.777
  -137.766	    22.796
  -144.373	    19.828
  -146.608	    -0.302
  -154.649	     3.942
  -155.081	    21.309
  -153.238	    -3.320
  -147.074	    24.990
  -154.684	    10.226
  -143.251	    10.262
  -158.161	    35.800
  -146.371	     3.092
  -165.750	    18.215
  -160.926	     3.730
  -155.750	     7.354
  -147.198	   -16.050
  -168.126	    -0.621
  -149.088	    25.339
  -144.906	    11.814
  -160.747	    14.371
  -155.683	    16.294
  -153.181	     8.238
  -149.889	    -1.080
  -151.987	   -25.242
  -142.181	    12.520
  -162.323	    15.078
  -170.226	    13.280
  -143.934	    -4.705
  -157.140	    15.417
  -158.367	   -20.855
  -151.297	     4.541
  -136.007	    -6.830
  -143.870	    -1.714
  -156.265	    15.699
  -153.735	    -0.948
  -159.397	    12.972
  -166.396	    -3.188
  -142.798	    10.493
  -138.581	    -3.078
  -143.751	    10.110
  -130.956	    15.468
  -154.326	     1.815
  -157.038	    -1.161
  -148.898	     1.206
  -145.526	    -6.670
  -146.276	     7.012
  -154.921	   -12.262
  -163.862	    10.004
  -154.456	   -13.484
  -154.020	    -0.826
  -154.506	     3.659
  -156.132	    27.262
  -150.076	    12.894
  -153.449	    12.495
  -139.217	    -3.470
  -159.462	   -18.837
  -155.915	   -10.247
  -157.469	    -0.238
  -154.798	   -11.481
  -154.666	     2.778
  -143.666	    -8.680
  -145.343	    20.221
  -148.371	    16.520
  -164.894	    -2.767
  -146.921	    10.408
  -159.047	    -0.216
  -154.242	    -3.504
  -157.282	     0.209
  -160.074	    18.123
  -148.655	    17.369
  -150.368	    -3.362
  -162.597	    -8.857
  -173.231	    -5.784
  -144.751	     4.819
  -149.466	    12.984
  -154.811	    -1.815
  -165.995	    15.858
  -147.492	    19.385
  -128.529	     3.838
  -150.656	    31.251
  -147.962	    45.879
  -162.611	     8.287
  -148.787	     2.744
  -144.776	    14.186
  -157.571	     5.743
  -149.965	    14.528
  -136.468	     1.716
  -142.414	     0.751
  -150.234	   -10.092
  -150.165	    -0.415
  -167.483	    -5.629
  -145.199	    -0.760
  -151.171	     0.472
  -159.157	     8.414
  -156.376	    -4.734
  -153.591	     9.709
  -154.149	    21.933
  -153.660	    28.372
  -155.155	    21.460
  -148.612	     7.247
  -147.436	    -0.627
  -154.028	    -2.889
  -164.322	     5.780
  -155.181	    -1.709
  -146.695	    -7.235
  -158.198	    13.180
  -151.374	    11.004
  -150.260	     3.070
  -149.066	    13.438
  -143.748	     2.322
  -157.701	    -3.021
  -179.688	    -3.158
  -169.316	   -14.631
  -157.500	     6.973
  -151.930	    -5.480
  -147.115	    -9.637
  -148.574	    12.066
  -163.218	    20.166
  -159.731	    18.856
  -146.333	    21.214
  -158.884	    19.330
  -143.754	    -5.350
  -144.152	   -23.866
  -137.267	     8.386
  -145.284	    24.796
  -141.095	    10.549
  -156.302	     6.135
  -147.719	    17.712
  -152.133	    18.413
  -134.999	     6.317
  -140.403	    -3.274
  -156.273	     2.117
  -145.768	    -6.023
  -150.123	     4.323
  -146.888	     1.904
  -151.904	    16.004
  -139.457	    17.485
  -143.309	    -7.175
  -143.811	     8.982
  -154.451	    13.577
  -166.074	     5.818
  -161.915	    10.252
  -162.367	    17.989
  -147.454	     4.492
  -147.838	     8.129
  -156.042	    -3.224
  -171.096	    -3.463
  -155.451	    11.161
  -147.244	    14.356
  -154.713	    -8.499
  -153.886	    -1.188
  -153.478	     0.640
  -148.869	    24.462
  -161.493	    12.880
  -154.802	     2.029
  -147.222	    23.816
  -149.605	    13.942
  -157.339	    12.831
  -157.071	    10.798
  -151.553	    14.622
  -150.797	     0.188
  -160.411	     2.809
  -144.054	     6.018
  -158.471	    -5.855
  -157.590	     5.044
  -156.988	    -3.931
  -151.099	    17.721
  -141.400	     2.771
  -155.666	    24.882
  -161.844	     2.641
  -151.508	    -0.512
  -146.204	    17.836
  -155.696	     9.334
  -156.616	    23.756
  -160.310	     7.722
  -149.318	     9.080
  -154.533	     4.384
  -168.916	     4.285
  -169.319	     8.148
  -150.035	   -12.587
  -136.274	     9.914
  -141.686	     6.868
  -155.448	     5.389
  -157.811	    14.185
  -146.717	    -0.615
  -155.389	     9.143
  -143.531	    14.247
  -146.520	    27.267
  -145.186	    23.243
  -149.589	    15.441
  -149.571	    20.471
  -164.257	    -4.839
  -142.510	     8.724
  -159.357	    -6.024
  -147.327	     1.540
  -149.908	     3.338
  -152.654	    -4.043
  -146.640	     4.938
  -140.271	     4.309
  -150.737	    -1.672
  -143.967	     3.179
  -146.899	     0.073
  -162.658	    -2.250
  -153.363	     6.737
  -161.695	    12.586
  -146.282	    25.923
  -143.664	    11.750
  -150.133	     0.209
  -151.915	     3.684
  -137.182	    13.107
  -147.754	    21.030
  -132.322	     5.013
  -136.809	    11.898
  -150.385	     8.477
  -142.065	    -6.748
  -149.102	    14.679
  -158.963	    24.340
  -139.147	    11.930
