   -92.310	   122.143
  -111.356	   154.151
  -102.138	   133.554
  -101.712	   147.658
  -106.614	   136.913
   -98.636	   135.665
  -113.573	   137.245
  -113.550	   165.065
  -112.125	   150.622
   -83.323	   123.308
  -105.567	   144.911
   -93.359	   138.008
   -86.608	   153.008
  -118.711	   141.500
   -74.400	   141.199
  -103.936	   135.155
   -93.757	   135.738
  -102.942	   139.086
  -102.564	   150.350
  -120.646	   145.876
  -111.645	   145.460
  -108.670	   146.700
   -95.512	   155.364
  -101.493	   137.979
  -111.430	   159.737
  -112.131	   145.172
  -104.553	   158.862
  -104.539	   133.457
  -114.021	   143.086
   -96.490	   142.991
   -89.642	   130.826
  -120.385	   139.708
  -111.906	   136.539
  -120.630	   157.298
  -112.157	   160.081
   -94.968	   143.589
   -92.708	   127.100
   -86.840	   138.252
  -104.573	   135.605
  -117.300	   145.514
   -79.224	   144.385
  -110.385	   159.658
  -123.002	   126.593
   -95.885	   139.026
  -118.495	   139.617
  -118.396	   135.507
  -129.548	   124.886
  -126.901	   136.337
  -122.720	   140.492
  -104.665	   128.044
  -100.960	   139.546
  -107.629	   133.983
   -81.902	   137.784
  -104.526	   123.305
  -122.861	   126.633
  -107.329	   149.288
  -126.677	   144.990
  -143.636	   154.290
  -108.529	   131.789
  -117.902	   137.846
  -109.339	   141.549
   -96.110	   131.915
  -102.573	   141.387
  -119.033	   155.660
  -104.703	   137.090
  -116.612	   148.939
  -122.041	   133.132
   -85.645	   148.111
  -110.683	   133.649
   -76.215	   124.474
   -94.382	   124.695
  -104.951	   129.046
  -114.772	   131.188
   -87.494	   141.596
   -80.172	   140.605
   -88.705	   134.682
   -70.054	   133.699
  -121.503	   124.789
  -115.171	   138.585
  -139.736	   131.786
  -109.531	   156.215
   -92.884	   139.939
  -113.350	   148.280
   -90.249	   153.575
  -137.848	   129.654
  -105.323	   139.141
  -133.569	   147.215
  -131.084	   151.618
   -87.321	   142.213
  -121.591	   147.810
   -95.146	   145.768
   -92.562	   120.405
  -110.202	   138.429
  -124.204	   139.822
  -124.286	   149.525
  -111.258	   147.976
  -111.728	   123.530
   -98.890	   143.167
  -113.693	   130.771
  -106.803	   131.786
  -106.171	   135.570
  -102.950	   124.047
  -104.405	   140.158
  -107.320	   154.712
  -138.438	   152.001
  -132.614	   146.500
  -140.568	   130.978
  -121.936	   136.241
  -135.439	   138.388
  -118.013	   134.612
  -129.483	   134.934
  -106.365	   154.609
  -105.228	   134.053
   -80.615	   133.738
  -112.915	   134.561
  -100.721	   132.852
  -105.381	   122.028
  -115.403	   158.656
  -113.870	   145.950
   -93.330	   136.665
   -79.377	   141.748
   -91.987	   137.998
   -95.627	   142.729
   -90.819	   145.342
   -98.789	   127.656
   -88.172	   121.274
   -86.550	   124.805
   -91.102	   141.275
  -108.017	   147.655
   -83.593	   121.284
  -115.797	   135.918
  -103.056	   132.888
  -106.074	   125.466
   -78.000	   139.371
  -101.752	   142.141
   -98.259	   141.897
   -98.571	   144.548
  -106.485	   138.409
   -94.551	   146.749
   -94.885	   158.740
   -94.833	   144.992
   -83.609	   141.235
   -89.140	   150.232
  -109.221	   147.823
   -85.248	   140.968
   -96.127	   124.243
   -99.149	   130.022
  -106.241	   158.015
   -78.280	   132.711
   -90.757	   147.675
   -92.213	   150.271
   -89.005	   143.763
  -142.685	   140.124
  -114.005	   119.978
  -104.106	   117.724
  -110.041	   130.504
  -102.954	   145.417
   -92.717	   131.661
   -92.423	   152.680
   -90.285	   123.267
  -102.657	   123.219
   -94.328	   141.893
   -98.657	   141.122
  -101.654	   132.754
  -103.203	   130.027
   -94.590	   150.701
  -129.221	   103.887
  -100.937	   153.985
   -93.077	   123.032
  -127.930	   135.576
  -129.882	   133.639
  -102.941	   157.984
  -143.084	   155.844
   -96.206	   146.547
   -94.818	   122.085
   -74.199	   141.533
   -84.119	   155.681
  -101.822	   137.440
   -99.782	   112.386
  -121.866	   151.889
  -126.502	   136.559
   -79.300	   131.060
   -92.685	   150.483
  -108.556	   155.002
   -94.183	   154.836
  -105.657	   145.418
   -86.956	   132.153
   -88.591	   135.444
  -123.917	   135.695
  -109.227	   141.780
  -100.601	   109.521
  -108.688	   124.447
  -108.640	   143.466
  -121.486	   139.389
   -96.190	   136.915
  -111.565	   125.293
  -113.129	   155.853
   -99.923	   144.560
   -78.511	   137.248
  -116.809	   137.009
   -96.741	   130.567
  -121.294	   151.817
  -120.215	   139.883
  -106.850	   133.335
   -94.871	   138.425
   -76.844	   135.584
  -101.460	   148.701
  -105.731	   139.063
   -99.614	   142.496
  -115.342	   135.595
   -97.102	   143.489
  -124.132	   130.222
  -126.339	   134.029
   -96.864	   143.013
   -99.746	   161.254
   -94.202	   146.700
  -106.107	   142.243
  -115.107	   123.532
  -122.152	   123.959
  -113.999	   147.784
  -112.687	   123.123
  -115.580	   145.202
  -120.676	   141.767
  -127.391	   132.619
   -89.786	   118.276
  -108.424	   135.645
   -87.790	   123.610
   -93.970	   135.916
   -78.519	   119.483
  -114.508	   124.914
   -98.493	   120.914
  -109.359	   158.203
  -116.984	   147.530
   -97.512	   143.559
  -101.583	   152.296
   -87.113	   143.742
  -100.877	   151.351
   -93.996	   130.448
   -86.620	   118.528
   -82.653	   145.275
  -108.655	   138.320
  -109.670	   152.087
   -79.232	   145.815
   -92.918	   161.582
   -79.566	   151.391
   -96.973	   153.448
  -122.315	   144.665
  -112.258	   144.612
   -89.234	   143.046
   -98.800	   125.334
  -111.470	   141.774
  -116.742	   158.656
   -95.740	   130.858
   -91.232	   129.378
  -116.574	   162.583
   -99.717	   135.335
  -100.641	   122.395
  -119.545	   136.406
   -93.486	   138.485
  -110.180	   133.034
   -92.966	   120.941
  -116.401	   152.729
  -108.747	   123.523
   -94.251	   144.972
  -121.498	   148.177
  -110.078	   132.435
   -81.685	   142.323
   -96.711	   136.959
   -92.474	   134.721
   -98.731	   132.605
  -121.282	   121.531
  -124.464	   143.674
  -116.784	   132.631
  -108.897	   141.259
  -103.349	   135.024
  -105.351	   129.642
  -117.075	   135.411
  -126.406	   130.521
   -93.520	   128.688
   -98.642	   158.642
   -93.291	   157.515
   -89.953	   160.773
   -88.338	   139.805
   -84.490	   149.263
  -108.250	   149.734
  -104.156	   158.300
   -84.297	   128.099
  -112.212	   137.882
   -94.052	   147.836
  -109.452	   133.892
  -108.845	   144.619
  -113.974	   159.265
   -95.451	   150.650
   -79.897	   116.728
   -84.712	   135.406
  -102.497	   156.220
   -87.489	   144.063
  -106.270	   155.153
  -126.967	   132.186
  -126.132	   137.592
   -92.465	   143.785
   -90.965	   137.287
   -95.586	   136.438
  -101.418	   128.864
   -83.486	   130.068
   -90.046	   156.306
  -101.656	   144.700
  -115.393	   115.633
  -120.005	   155.476
  -125.524	   142.461
  -117.651	   129.345
  -114.802	   134.136
  -108.106	   105.998
  -117.447	   124.890
  -130.456	   140.944
  -132.745	   148.136
  -128.149	   147.957
   -96.525	   143.588
   -95.693	   131.476
   -77.700	   141.195
  -100.314	   142.357
  -111.745	   142.796
  -109.266	   133.472
  -113.189	   147.893
   -91.635	   142.569
   -84.184	   130.894
  -114.619	   119.599
   -98.678	   132.586
   -99.139	   142.873
  -108.709	   164.372
  -103.852	   138.892
  -130.603	   149.821
  -142.671	   131.998
   -89.621	   146.316
  -116.811	   137.020
  -122.559	   136.275
  -116.640	   142.796
  -116.689	   146.765
  -123.088	   124.244
  -116.772	   121.092
  -103.518	   143.047
  -110.675	   133.014
  -128.404	   133.866
  -111.402	   144.401
  -125.384	   121.982
  -124.679	   127.176
   -99.592	   127.631
  -110.415	   139.508
   -87.657	   131.480
  -112.614	   143.805
  -122.279	   138.723
  -103.889	   131.016
  -115.592	   138.214
  -129.575	   127.469
   -86.920	   149.500
  -122.477	   153.515
  -120.605	   143.437
  -110.178	   120.439
   -88.656	   137.724
  -110.540	   142.524
   -94.438	   143.519
   -72.865	   132.341
   -79.885	   136.713
   -96.169	   146.366
  -106.445	   152.756
   -95.165	   140.397
   -90.978	   141.180
  -116.455	   154.325
   -75.859	   147.545
  -100.695	   138.205
   -90.793	   142.962
  -121.990	   138.750
   -76.442	   119.516
   -90.194	   116.648
   -95.486	   147.301
   -90.403	   144.203
  -127.700	   144.696
  -125.837	   155.315
  -127.457	   125.771
  -109.890	   134.904
  -110.996	   137.770
  -127.722	   140.023
  -130.775	   143.435
   -89.078	   125.296
  -111.516	   153.434
   -99.050	   135.847
   -99.295	   147.056
  -134.800	   131.609
  -124.451	   150.200
  -112.190	   125.834
  -114.373	   130.700
   -99.476	   149.237
  -123.241	   139.330
  -118.989	   161.399
  -126.412	   121.411
  -108.675	   132.968
   -93.718	   139.151
  -111.742	   134.764
   -91.572	   131.179
  -107.758	   146.344
   -99.146	   133.593
   -93.522	   131.859
   -94.147	   140.580
   -97.826	   135.820
  -115.541	   133.560
  -114.486	   150.575
  -117.782	   137.358
   -98.830	   126.659
  -126.625	   154.503
  -112.644	   126.313
  -119.974	   121.422
  -119.664	   148.136
  -106.694	   150.796
  -112.156	   126.728
  -121.439	   148.685
  -128.018	   137.766
   -94.291	   146.038
  -112.066	   128.778
  -103.236	   136.390
  -103.376	   140.542
   -98.658	   130.271
  -108.536	   112.696
  -117.992	   161.546
  -114.900	   146.306
  -118.053	   137.787
  -126.013	   141.596
  -110.468	   138.293
  -137.579	   160.633
  -132.847	   122.663
  -119.946	   126.496
  -129.282	   140.288
  -116.444	   143.950
  -137.031	   155.453
   -99.934	   123.223
  -115.520	   136.775
  -118.165	   166.080
  -113.133	   137.115
  -108.532	   131.438
  -117.342	   141.188
   -92.349	   134.070
  -112.286	   142.226
  -120.401	   140.892
  -102.853	   125.750
  -124.963	   139.885
  -119.237	   133.508
  -109.420	   117.428
  -112.809	   138.144
  -109.416	   139.104
  -106.054	   131.559
  -104.350	   128.946
   -90.194	   126.900
  -109.226	   127.406
  -120.994	   131.773
  -128.151	   130.928
  -118.015	   129.214
  -102.941	   117.325
  -115.947	   130.622
  -109.421	   136.752
   -84.415	   141.581
  -102.522	   149.543
  -124.470	   134.821
   -80.803	   135.222
   -93.431	   131.096
   -93.684	   119.024
   -94.253	   141.741
  -115.532	   149.617
  -123.775	   134.668
  -100.737	   136.494
  -117.378	   125.226
  -100.680	   131.888
  -124.896	   143.360
   -94.155	   138.682
  -110.246	   133.072
  -117.078	   143.602
  -135.994	   147.158
  -129.595	   124.799
  -115.797	   117.895
  -112.894	   107.563
  -133.432	   143.681
   -95.719	   133.685
   -96.740	   148.409
  -103.057	   142.533
   -86.228	   120.429
   -95.218	   132.423
  -119.585	   141.159
   -87.999	   134.126
   -98.866	   128.000
  -123.781	   142.219
  -128.673	   150.128
  -155.305	   124.195
  -114.523	   128.942
  -112.489	   152.512
  -107.729	   136.594
  -128.368	   128.951
  -137.273	   147.275
  -116.788	   139.126
  -116.586	   117.057
  -100.990	   138.595
  -110.220	   142.344
  -121.261	   144.474
   -97.025	   151.573
  -138.963	   139.803
  -134.880	   115.438
  -147.749	   138.108
  -115.615	   128.346
  -110.951	   139.111
  -146.364	   141.564
  -145.861	   158.264
   -86.048	   144.647
  -125.657	   143.514
   -91.348	   145.474
  -126.999	   130.824
  -104.867	   143.887
   -83.028	   142.795
   -92.176	   120.175
  -100.288	   108.136
   -83.666	   115.977
   -82.350	   143.374
  -101.886	   137.410
   -92.203	   140.419
   -93.391	   132.822
   -94.999	   119.892
   -87.325	   128.949
   -97.866	   144.068
  -115.906	   157.521
  -117.445	   154.208
  -122.517	   143.977
  -117.851	   131.776
  -133.013	   143.330
  -110.646	   139.963
  -114.838	   148.687
  -124.181	   141.104
  -110.278	   141.296
  -122.073	   131.056
   -89.306	   117.380
   -87.335	   166.546
  -105.017	   159.328
  -129.306	   137.772
  -112.376	   141.609
  -111.528	   138.181
  -127.861	   131.988
  -107.156	   145.262
   -69.266	   155.842
   -94.345	   130.204
   -88.670	   144.283
   -67.211	   132.557
   -80.932	   159.128
   -99.168	   141.479
   -81.162	   127.458
   -85.490	   165.067
  -111.654	   150.803
   -91.132	   148.338
  -116.416	   146.540
   -91.839	   159.736
  -106.290	   132.957
  -119.187	   129.086
  -105.205	   134.314
   -87.406	   137.338
   -89.138	   144.706
  -114.131	   133.411
   -98.226	   130.807
   -90.898	   139.057
  -125.751	   141.652
  -114.893	   145.911
  -114.513	   142.092
  -115.600	   141.156
   -86.188	   135.929
   -97.971	   141.491
   -94.515	   158.129
   -97.131	   148.360
   -90.155	   141.177
  -109.353	   149.553
  -121.609	   144.244
  -121.655	   165.855
  -108.515	   150.880
  -120.911	   153.651
   -97.852	   125.837
  -101.672	   136.239
  -116.828	   142.540
  -100.714	   144.535
  -128.458	   130.248
  -124.696	   123.982
  -117.799	   112.432
  -122.306	   143.268
  -105.248	   153.172
  -110.648	   119.019
  -122.354	   146.576
  -111.740	   128.446
  -104.135	   136.076
  -105.094	   137.438
  -126.809	   149.407
   -85.401	   150.445
   -86.370	   144.916
  -118.141	   141.636
  -106.252	   148.620
  -100.905	   135.614
  -106.220	   158.894
  -117.877	   140.932
  -127.808	   126.146
  -131.432	   133.537
  -124.340	   152.000
  -114.828	   115.732
  -102.939	   123.608
  -101.484	   130.410
   -99.008	   120.896
   -91.876	   136.353
   -92.967	   133.085
   -86.363	   144.649
   -73.770	   155.642
   -76.763	   136.557
   -95.215	   144.142
  -100.420	   140.912
  -142.488	   172.046
  -116.057	   136.092
  -118.329	   165.835
  -104.540	   126.490
  -127.672	   149.785
  -104.761	   133.884
  -107.862	   130.210
  -105.153	   152.902
  -121.953	   147.211
   -92.871	   145.746
   -92.322	   121.174
   -99.491	   126.821
   -99.343	   135.017
   -91.873	   126.750
  -140.512	   158.872
  -104.601	   148.354
  -121.792	   149.737
  -132.830	   147.052
   -96.951	   150.333
  -103.266	   132.093
  -106.460	   153.127
  -128.044	   141.085
  -114.314	   130.287
  -122.479	   133.128
  -123.314	   140.416
  -124.758	   143.027
  -120.665	   131.910
  -126.060	   116.755
  -130.410	   132.309
  -139.117	   122.463
  -133.479	   142.521
   -85.455	   127.342
   -92.768	   126.702
  -103.261	   131.399
  -117.228	   146.460
   -98.292	   153.299
  -100.455	   118.545
  -116.723	   118.273
   -97.422	   152.218
  -102.545	   130.981
  -107.279	   140.874
  -117.297	   149.410
  -121.437	   141.190
  -110.985	   138.212
   -85.616	   125.342
   -84.412	   147.260
   -96.645	   134.652
   -93.958	   135.227
  -111.157	   142.701
  -119.379	   137.049
  -102.011	   154.223
   -89.993	   149.465
   -77.281	   125.898
  -102.568	   129.595
   -96.447	   145.855
  -114.416	   130.332
  -127.307	   165.962
  -119.281	   147.407
   -87.888	   140.340
  -134.139	   139.945
   -99.089	   143.672
  -107.039	   143.813
  -117.912	   127.246
  -111.577	   129.590
   -84.220	   139.970
   -93.571	   130.635
   -76.406	   135.989
  -105.390	   141.792
   -92.319	   144.829
   -99.886	   139.367
   -98.148	   137.041
  -116.054	   126.032
  -123.344	   136.499
  -112.468	   127.908
   -96.424	   138.020
   -75.936	   146.168
   -79.538	   137.759
  -111.968	   149.623
   -90.190	   158.102
  -110.351	   134.564
  -111.449	   134.090
  -121.248	   148.715
  -132.635	   145.570
  -113.791	   134.325
  -124.528	   141.801
  -129.528	   147.935
  -128.175	   143.009
  -109.286	   139.544
   -99.771	   137.705
  -112.014	   138.755
  -129.803	   146.220
  -106.439	   135.796
  -107.906	   145.858
   -84.230	   149.039
   -80.841	   134.524
   -83.881	   127.328
  -111.702	   124.301
  -117.868	   118.537
  -122.954	   139.583
   -90.093	   144.287
   -82.196	   141.742
  -105.940	   135.273
  -102.183	   134.884
  -119.451	   142.802
  -106.378	   132.214
   -94.944	   129.037
  -120.879	   162.165
  -118.528	   145.280
  -107.164	   144.926
   -87.123	   163.392
   -83.787	   125.744
   -75.406	   122.180
   -88.969	   139.548
  -143.303	   146.764
  -112.241	   125.704
  -121.506	   138.581
   -95.572	   170.549
  -108.508	   143.217
   -89.334	   134.678
   -97.326	   153.305
  -116.778	   131.116
  -108.834	   125.087
  -122.558	   134.194
  -117.195	   144.793
  -131.817	   124.808
  -132.201	   136.374
   -94.542	   124.168
  -112.114	   126.269
  -110.909	   131.313
  -120.553	   125.270
   -88.981	   107.982
  -107.040	   127.410
   -95.181	   128.003
  -106.853	   147.218
   -97.065	   135.374
  -150.740	   152.677
  -138.225	   124.975
  -115.896	   150.936
  -126.760	   127.359
  -120.713	   130.839
  -118.455	   150.433
  -122.800	   120.489
  -127.793	   146.538
  -126.323	   129.901
  -122.695	   116.143
   -97.647	   128.066
  -100.968	   130.005
  -105.258	   113.039
  -133.111	   125.433
  -120.264	   135.122
  -111.123	   142.508
  -105.892	   138.826
  -104.437	   130.708
  -115.640	   148.516
  -100.643	   142.639
   -91.512	   121.347
   -87.210	   144.590
  -100.530	   134.891
  -124.576	   139.214
  -104.863	   130.347
   -98.595	   145.590
   -92.218	   125.261
   -88.235	   138.240
   -94.374	   134.773
  -120.315	   131.656
   -92.537	   139.377
  -116.046	   128.052
  -100.832	   140.204
   -99.738	   145.373
  -105.611	   153.111
  -125.719	   158.470
  -118.551	   151.145
  -136.011	   139.338
  -131.036	   135.249
  -128.582	   141.220
  -135.006	   160.662
  -102.356	   147.620
   -81.619	   127.791
  -105.175	   136.600
  -110.130	   128.924
   -96.289	   162.538
   -83.978	   147.787
  -118.794	   137.441
  -110.779	   127.749
  -139.694	   150.338
  -131.687	   146.721
  -119.764	   147.844
  -111.380	   149.996
  -113.608	   152.295
   -97.629	   139.032
  -106.068	   115.901
  -100.669	   130.166
  -116.733	   137.035
   -94.129	   124.946
  -115.819	   143.157
  -131.072	   134.371
  -107.629	   117.047
   -85.375	   149.438
   -94.156	   157.518
  -102.160	   143.469
   -90.915	   133.267
   -86.799	   142.469
  -118.553	   137.015
  -120.913	   147.300
  -127.436	   136.380
  -113.845	   148.451
   -97.971	   135.720
  -101.682	   134.397
  -114.206	   150.826
  -106.061	   125.239
  -103.621	   145.539
  -110.384	   160.442
  -110.149	   138.327
  -121.453	   162.474
  -144.044	   125.758
  -108.758	   144.246
  -102.749	   125.241
  -113.191	   144.294
   -99.018	   132.998
  -114.953	   148.412
  -100.651	   131.468
  -107.419	   141.824
   -96.257	   157.336
   -94.979	   133.756
   -91.270	   110.893
  -114.817	   157.833
   -80.748	   153.684
  -102.948	   149.888
  -117.230	   130.917
   -86.505	   137.429
   -78.826	   132.587
   -91.191	   160.001
  -108.297	   137.801
   -91.516	   140.586
   -68.188	   122.458
  -117.344	   135.759
  -130.182	   150.675
   -93.093	   139.228
  -112.875	   131.541
  -101.918	   134.975
   -97.083	   131.228
   -83.728	   139.974
  -101.130	   139.316
   -99.593	   133.956
   -82.155	   145.330
  -111.225	   139.239
   -85.607	   126.893
  -124.246	   134.858
  -104.875	   149.729
  -100.610	   122.084
   -93.315	   149.288
   -89.996	   129.225
  -102.620	   129.177
  -110.142	   133.523
  -108.355	   142.104
  -130.582	   129.506
  -120.410	   150.035
  -105.260	   150.973
  -136.046	   141.829
  -130.849	   145.007
  -109.397	   143.438
  -131.511	   139.490
  -145.030	   139.047
  -116.065	   125.310
  -125.549	   133.347
  -121.281	   154.951
  -102.717	   151.847
  -105.520	   153.757
  -101.298	   151.352
  -118.660	   153.143
  -135.808	   133.244
  -131.717	   140.021
  -126.247	   161.903
  -123.344	   156.666
   -91.410	   139.738
  -104.606	   136.215
   -98.239	   144.222
   -94.278	   141.684
  -117.242	   127.486
  -118.221	   138.957
  -105.574	   133.206
  -118.914	   107.795
  -111.470	   126.560
  -128.457	   145.259
  -115.411	   137.961
  -111.631	   148.335
  -115.322	   145.626
  -112.305	   143.187
  -111.405	   157.105
   -87.126	   161.382
   -86.495	   145.210
  -101.139	   137.466
   -80.271	   122.798
  -103.493	   137.033
  -121.845	   141.848
  -102.690	   140.985
  -115.997	   134.865
  -120.691	   136.342
  -131.418	   144.229
  -121.007	   106.232
  -103.042	   127.452
  -116.482	   150.562
  -106.282	   141.707
  -109.824	   146.233
  -103.490	   151.608
   -92.622	   131.236
  -110.268	   149.874
  -121.055	   143.892
  -140.573	   150.717
  -114.450	   142.127
  -117.346	   146.121
  -104.789	   139.532
  -139.295	   167.697
   -93.195	   125.099
   -82.273	   127.194
   -93.279	   139.554
  -106.046	   135.764
  -116.191	   131.851
  -110.633	   132.952
  -146.260	   146.213
  -119.992	   156.763
  -113.059	   158.812
  -119.901	   130.377
   -77.659	   126.888
   -93.702	   131.475
  -106.540	   133.812
  -107.673	   143.667
  -104.265	   145.361
   -87.615	   130.057
  -102.060	   162.940
  -102.854	   139.224
  -102.562	   170.136
   -81.193	   129.249
  -108.150	   135.209
   -81.830	   133.376
   -95.492	   132.496
  -107.301	   145.334
  -105.283	   133.380
   -75.822	   141.034
  -108.993	   137.130
  -114.739	   126.252
   -94.338	   131.937
   -82.696	   123.477
   -98.691	   152.356
  -109.759	   154.830
  -131.284	   130.035
   -99.013	   124.547
  -129.510	   149.121
  -107.451	   121.414
  -111.772	   126.724
   -98.981	   143.601
  -105.073	   132.535
  -102.515	   143.322
  -111.381	   129.846
  -101.084	   112.927
  -115.658	   142.831
  -110.779	   152.049
  -112.218	   161.013
  -110.165	   126.088
  -100.549	   119.803
   -87.019	   118.257
   -60.125	   123.447
   -63.487	   131.241
   -80.688	   140.037
   -71.913	   129.911
  -119.250	   137.453
  -110.816	   142.003
  -119.345	   145.213
  -129.965	   135.273
  -107.595	   125.239
  -100.353	   129.289
   -91.296	   129.384
  -101.158	   136.653
  -110.663	   118.471
  -115.933	   145.413
  -126.080	   133.810
  -108.561	   136.613
  -116.261	   153.986
   -90.592	   123.893
  -106.226	   145.897
   -89.287	   144.548
  -111.750	   149.310
  -134.936	   140.206
  -113.313	   143.606
   -97.929	   134.347
  -124.723	   146.066
   -94.694	   133.908
   -72.376	   132.400
   -97.396	   141.600
