   -92.310	   122.143
   -81.535	   -77.885
   -33.723	   -55.014
   -42.116	   -63.991
   -53.246	   -68.969
   -43.073	   -66.923
   -51.783	   -58.324
   -42.215	   -40.856
   -46.568	   -61.372
   -33.955	   -62.634
   -44.366	   -47.200
   -22.597	   -66.929
   -34.063	   -90.128
   -37.898	   -55.767
   -44.401	   -50.630
   -37.364	   -66.597
   -50.949	   -58.948
   -40.705	   -65.540
   -37.892	   -64.872
   -37.986	   -81.627
   -65.996	   -69.999
   -49.687	   -61.084
    -6.981	   -76.793
   -30.458	   -50.381
   -22.370	   -56.787
   -44.721	   -73.449
   -34.970	   -55.171
   -48.243	   -57.704
   -45.188	   -60.148
   -48.179	   -67.634
   -54.597	   -64.708
   -44.838	   -72.306
   -24.949	   -60.659
   -39.548	   -70.847
   -53.945	   -58.126
   -41.853	   -68.010
   -28.162	   -92.636
   -47.495	   -60.550
   -34.950	   -54.359
   -47.148	   -64.595
   -46.727	   -55.130
   -32.489	   -68.250
   -51.880	   -52.733
   -60.483	   -51.929
   -52.675	   -59.491
   -32.663	   -56.345
   -34.211	   -52.792
   -34.626	   -61.802
   -42.105	   -52.834
   -44.573	   -58.629
   -58.456	   -62.518
   -29.955	   -65.175
   -34.373	   -43.665
   -33.904	   -72.357
   -35.910	   -44.699
   -31.342	   -50.825
   -32.938	   -59.902
   -23.798	   -68.878
   -35.592	   -55.536
   -48.990	   -91.110
   -32.316	   -84.194
   -39.427	   -60.800
   -39.078	   -69.490
   -43.670	   -68.052
   -45.103	   -66.669
   -41.647	   -53.826
   -32.773	   -67.898
   -22.873	   -51.904
   -30.580	   -92.304
   -60.363	   -71.138
   -56.025	   -50.675
   -26.441	   -66.394
   -34.996	   -40.101
   -50.377	   -47.821
   -34.999	   -66.067
   -51.025	   -67.574
   -27.056	   -63.165
   -29.921	   -56.082
   -41.054	   -47.775
   -41.955	   -67.031
   -34.112	   -55.479
   -38.336	   -61.509
   -54.546	   -39.029
   -37.584	   -49.867
   -43.217	   -64.538
   -28.278	   -63.913
   -52.270	   -54.654
   -38.086	   -51.758
   -28.474	   -52.662
   -38.654	   -65.709
   -36.611	   -47.175
   -27.378	   -60.237
   -24.385	   -57.408
   -51.698	   -57.326
   -52.937	   -63.007
   -36.289	   -81.951
   -38.365	   -64.805
   -33.313	   -56.356
   -46.544	   -60.683
   -25.876	   -56.845
   -36.653	   -56.534
   -53.148	   -62.536
   -43.149	   -51.555
   -43.281	   -56.770
   -44.343	   -49.472
   -52.362	   -66.299
   -57.177	   -60.473
   -45.631	   -59.959
   -50.710	   -51.968
   -56.449	   -49.866
   -48.158	   -67.554
   -31.984	   -71.255
   -31.362	   -53.493
   -33.420	   -66.707
   -48.374	   -65.759
   -36.587	   -58.789
   -49.178	   -60.422
   -59.805	   -59.033
   -51.607	   -69.141
   -29.698	   -76.414
   -41.975	   -52.286
   -50.607	   -60.627
   -43.409	   -47.912
   -20.132	   -70.685
   -48.613	   -61.760
   -42.813	   -47.735
   -46.768	   -54.148
   -25.666	   -66.564
   -49.153	   -44.706
   -55.502	   -54.112
   -20.307	   -67.233
   -24.342	   -56.780
   -42.802	   -54.880
   -37.340	   -61.198
   -54.018	   -68.665
   -54.062	   -79.984
   -39.575	   -58.840
   -36.653	   -58.841
   -57.492	   -55.777
   -41.421	   -51.576
   -46.730	   -69.558
   -40.274	   -66.604
   -43.291	   -82.452
   -37.444	   -58.230
   -51.137	   -43.213
   -37.934	   -69.235
   -35.133	   -62.215
   -37.367	   -69.389
   -41.218	   -47.538
   -20.538	   -61.531
   -48.253	   -57.176
   -42.769	   -74.972
   -47.386	   -52.191
   -61.642	   -50.962
   -29.706	   -72.261
   -35.680	   -46.677
   -47.346	   -52.130
   -44.111	   -55.131
   -24.961	   -60.880
   -36.325	   -72.482
   -48.552	   -53.339
   -55.581	   -54.044
   -35.717	   -58.133
     7.926	   -81.469
     7.224	   -81.428
   -26.795	   -53.348
   -52.567	   -43.439
   -38.612	   -50.234
   -21.905	   -72.594
   -29.468	   -65.082
   -39.736	   -50.992
   -48.139	   -56.375
   -41.804	   -71.349
   -37.783	   -64.159
   -35.525	   -57.899
   -38.196	   -51.849
   -37.265	   -57.423
   -34.762	   -49.603
   -40.939	   -65.734
   -35.692	   -66.219
   -50.648	   -73.722
   -40.289	   -56.801
   -40.915	   -79.523
   -40.297	   -64.155
   -43.987	   -81.718
   -42.823	   -62.572
   -66.959	   -36.989
   -35.335	   -88.107
   -39.961	   -75.861
   -39.951	   -59.582
   -49.997	   -60.174
   -48.213	   -45.726
   -32.122	   -71.525
   -48.126	   -69.374
   -30.229	   -60.673
   -21.732	   -71.084
   -46.256	   -48.495
   -53.614	   -76.372
   -46.997	   -64.466
   -33.491	   -58.104
   -47.531	   -45.466
   -44.270	   -65.110
   -37.540	   -51.958
   -53.287	   -46.950
   -44.173	   -73.421
   -47.253	   -53.293
   -33.048	   -63.914
   -39.971	   -65.786
   -48.005	   -55.550
   -42.696	   -62.651
   -44.678	   -59.800
   -40.573	   -62.428
   -24.025	   -74.892
   -37.126	   -51.499
   -14.435	   -66.550
   -43.439	   -50.588
   -49.861	   -79.739
   -40.372	   -61.162
   -49.535	   -67.745
   -32.677	   -71.620
   -42.223	   -64.198
   -41.198	   -40.356
   -39.464	   -58.327
   -46.727	   -45.270
   -23.097	   -62.611
   -60.137	   -63.591
   -36.152	   -47.625
   -46.439	   -55.566
   -40.762	   -57.668
   -28.626	   -53.696
   -39.609	   -54.169
    17.971	   -84.441
    22.518	   -85.247
   -44.104	   -57.259
   -62.505	   -43.011
   -51.804	   -38.577
   -24.712	   -62.872
   -58.445	   -45.029
   -60.476	   -40.203
   -42.407	   -56.299
   -36.299	   -56.879
   -43.670	   -41.561
   -65.152	   -62.606
   -42.261	   -44.783
   -57.171	   -53.392
   -42.417	   -56.400
   -37.425	   -66.599
   -39.979	   -65.559
   -32.825	   -65.282
   -41.326	   -73.485
   -46.204	   -67.755
   -48.554	   -61.061
   -56.518	   -46.606
   -37.106	   -47.165
   -34.151	   -55.407
   -52.951	   -49.089
   -62.267	   -55.969
   -43.087	   -51.615
   -40.860	   -51.004
   -53.429	   -36.363
   -46.060	   -49.605
   -47.692	   -52.489
   -53.730	   -52.894
   -53.814	   -69.629
   -41.990	   -51.453
   -41.683	   -47.518
   -29.595	   -20.371
   -20.948	   -61.521
   -42.984	   -50.716
   -34.969	   -48.497
   -26.545	   -82.620
   -43.235	   -56.637
   -37.565	   -65.745
   -38.445	   -46.120
   -26.427	   -62.907
   -33.168	   -84.468
   -26.012	   -83.179
   -37.927	   -65.123
   -52.420	   -59.341
   -35.951	   -61.353
   -54.402	   -54.189
   -42.593	   -50.862
   -46.729	   -50.000
    -8.092	   -56.247
   -21.134	   -77.498
   -34.660	   -59.620
   -18.221	   -72.416
   -13.547	   -67.236
   -32.347	   -58.379
   -44.591	   -63.557
   -34.064	   -47.630
   -56.753	   -58.882
   -53.111	   -65.182
   -46.850	   -66.474
   -42.257	   -47.092
   -43.486	   -54.877
   -35.592	   -76.282
   -54.488	   -55.750
   -56.406	   -67.208
   -50.445	   -75.247
   -44.851	   -62.002
   -59.907	   -57.726
   -39.544	   -36.087
   -44.920	   -55.431
   -45.328	   -52.399
   -55.365	   -67.300
   -41.381	   -60.412
   -49.263	   -66.265
   -35.210	   -49.587
   -54.417	   -67.500
   -32.895	   -65.926
   -56.474	   -59.366
   -57.401	   -75.935
   -49.171	   -62.373
   -49.610	   -71.313
   -49.888	   -69.075
   -43.719	   -59.810
   -35.577	   -76.781
   -36.490	   -43.644
   -34.311	   -80.806
   -50.569	   -49.206
   -43.032	   -60.511
   -34.774	   -50.437
   -45.128	   -47.701
   -44.855	   -62.385
   -47.314	   -53.272
   -50.131	   -66.438
   -53.117	   -55.789
   -31.251	   -49.119
   -40.967	   -51.979
   -18.363	   -53.454
   -47.546	   -51.563
   -42.258	   -64.384
   -17.463	   -84.612
   -29.197	   -45.446
   -36.717	   -69.933
   -39.112	   -55.879
   -56.241	   -53.349
   -38.769	   -73.968
   -41.169	   -63.735
   -61.345	   -64.417
   -18.477	   -78.183
   -49.585	   -68.502
   -48.465	   -64.552
   -36.013	   -65.833
   -38.323	   -50.560
   -37.160	   -60.119
   -29.938	   -51.086
   -57.872	   -47.055
   -73.100	   -59.765
   -43.880	   -57.616
   -33.225	   -56.267
   -46.762	   -43.644
   -46.701	   -71.789
   -42.288	   -37.547
   -29.323	   -42.003
   -31.646	   -67.936
   -40.517	   -49.417
   -39.164	   -40.072
   -32.877	   -57.537
   -42.630	   -49.003
   -28.700	   -70.692
   -43.975	   -63.730
   -42.271	   -39.128
   -32.162	   -55.471
   -30.431	   -55.861
   -31.176	   -64.982
   -47.348	   -64.010
   -37.804	   -66.638
   -35.433	   -67.440
   -62.824	   -54.533
   -67.656	   -55.855
   -33.481	   -73.067
   -47.144	   -72.741
   -39.398	   -53.834
   -49.245	   -65.788
   -25.891	   -76.350
   -17.046	   -71.531
   -62.440	   -74.094
   -61.226	   -50.869
   -57.059	   -48.946
   -50.601	   -58.480
   -49.279	   -59.833
   -33.799	   -48.710
   -50.314	   -46.029
   -42.450	   -56.123
   -48.761	   -49.095
   -59.354	   -68.302
   -51.880	   -62.693
   -40.394	   -70.733
   -18.092	   -79.205
   -39.385	   -56.668
   -31.309	   -72.010
   -44.358	   -58.208
   -35.331	   -49.831
   -45.330	   -50.545
   -49.349	   -54.331
   -53.593	   -67.437
   -31.105	   -75.011
   -47.628	   -44.389
   -54.948	   -53.334
   -35.778	   -82.376
   -32.641	   -51.671
   -20.932	   -51.864
   -28.351	   -61.284
   -55.451	   -67.427
   -55.916	   -48.720
   -60.624	   -66.346
   -44.540	   -41.839
   -58.743	   -62.854
   -19.839	   -90.313
   -53.550	   -65.454
   -45.952	   -48.996
   -52.069	   -53.790
   -56.356	   -33.525
   -56.550	   -46.422
   -49.334	   -56.457
   -36.175	   -52.812
   -48.838	   -39.023
   -41.075	   -55.833
   -39.368	   -42.913
   -45.901	   -61.921
   -56.325	   -52.844
   -16.750	   -60.765
   -43.246	   -61.374
   -32.016	   -72.316
   -38.603	   -57.280
   -30.284	   -58.368
   -38.046	   -58.194
   -40.291	   -62.247
   -36.935	   -50.333
   -19.154	   -68.702
   -56.951	   -56.529
   -38.775	   -63.752
   -49.234	   -68.611
   -56.349	   -49.607
   -21.410	   -55.801
   -46.117	   -66.685
   -37.469	   -64.451
   -38.394	   -80.664
   -41.987	   -50.232
   -44.278	   -60.201
   -46.499	   -58.142
   -48.361	   -54.320
   -50.689	   -76.652
   -39.769	   -61.626
   -41.307	   -57.012
   -61.040	   -38.355
   -46.844	   -59.206
   -53.529	   -57.041
   -41.310	   -64.237
   -62.652	   -61.658
   -37.582	   -51.208
   -59.414	   -54.218
   -56.876	   -60.622
   -29.274	   -65.785
   -41.614	   -60.680
   -35.398	   -65.043
   -57.583	   -58.979
   -54.171	   -65.715
   -55.645	   -68.239
   -41.671	   -46.014
   -40.696	   -56.172
   -58.980	   -70.143
   -48.176	   -56.345
   -28.948	   -68.619
   -41.350	   -69.726
   -20.810	   -58.018
   -49.422	   -48.960
   -43.199	   -65.339
   -29.940	   -58.385
   -49.326	   -43.555
   -38.997	   -49.866
   -39.905	   -57.053
   -37.581	   -55.555
   -50.289	   -50.502
   -44.338	   -67.250
   -33.292	   -71.038
   -55.270	   -42.959
   -43.196	   -44.899
   -61.338	   -49.986
   -45.448	   -53.380
   -55.224	   -35.634
   -32.247	   -54.845
   -21.414	   -64.635
   -24.937	   -56.048
   -37.680	   -58.061
   -41.705	   -53.704
   -39.397	   -59.064
   -35.940	   -73.413
   -32.396	   -75.970
   -62.693	   -72.581
   -50.433	   -75.944
   -40.462	   -64.830
   -47.198	   -57.202
   -54.631	   -45.204
   -33.088	   -53.183
   -52.651	   -77.131
   -49.778	   -61.996
   -22.513	   -66.374
   -44.607	   -60.177
   -37.033	   -73.749
   -39.047	   -67.707
   -27.812	   -58.671
   -46.923	   -48.555
   -30.403	   -62.033
   -36.310	   -72.663
   -50.331	   -56.181
   -14.751	   -58.694
   -28.660	   -47.647
   -25.396	   -58.239
   -28.805	   -44.622
   -51.145	   -59.004
   -44.558	   -52.598
   -66.712	   -47.323
   -31.774	   -54.077
   -22.593	   -62.675
   -36.827	   -49.966
   -58.453	   -54.650
   -45.667	   -56.922
   -34.361	   -74.758
   -42.107	   -58.382
   -27.252	   -56.090
   -37.963	   -51.964
   -63.187	   -59.172
   -30.419	   -75.857
   -42.082	   -71.672
   -30.879	   -43.370
   -33.956	   -61.529
   -35.310	   -48.991
   -26.376	   -64.632
   -34.247	   -53.940
   -35.671	   -65.477
   -22.479	   -57.132
   -25.279	   -73.974
   -51.832	   -46.546
   -36.586	   -62.586
   -50.147	   -56.570
   -40.188	   -74.950
   -50.963	   -46.593
   -49.202	   -56.847
   -47.242	   -49.800
   -21.194	   -74.633
   -31.915	   -64.821
   -41.738	   -54.701
   -56.193	   -53.327
   -48.037	   -77.908
   -50.774	   -62.261
   -40.844	   -49.542
   -46.174	   -64.435
   -47.365	   -64.126
   -59.272	   -50.764
   -54.920	   -58.407
   -45.692	   -77.510
   -24.993	   -75.204
   -54.352	   -47.381
   -39.435	   -65.296
   -30.618	   -43.410
   -27.464	   -47.173
   -61.513	   -50.265
   -35.533	   -38.095
   -44.949	   -60.358
   -38.003	   -52.768
   -33.316	   -55.325
   -40.912	   -72.688
   -30.286	   -57.942
   -32.619	   -52.875
   -56.790	   -60.153
   -32.870	   -58.075
   -36.181	   -48.467
   -50.551	   -51.326
   -37.606	   -62.154
   -55.633	   -63.615
   -36.914	   -48.886
   -49.106	   -43.439
   -29.442	   -50.631
   -40.994	   -43.067
   -41.370	   -47.310
   -48.132	   -66.113
   -33.297	   -58.873
   -57.361	   -67.282
   -21.450	   -61.301
   -46.864	   -54.179
   -39.773	   -58.063
   -36.430	   -50.462
   -45.802	   -50.047
   -51.549	   -55.729
   -63.830	   -60.613
   -38.714	   -63.912
   -37.431	   -60.001
   -52.180	   -45.852
   -56.099	   -47.922
   -43.105	   -54.213
   -25.296	   -86.470
   -36.732	   -60.969
   -18.361	   -64.096
   -41.411	   -55.645
   -36.648	   -58.206
   -40.154	   -62.752
   -53.972	   -61.283
   -63.225	   -64.973
   -44.549	   -81.006
   -51.048	   -59.491
   -51.809	   -74.653
   -41.629	   -74.150
   -62.142	   -49.674
   -35.947	   -57.682
   -41.923	   -55.752
   -33.325	   -69.756
   -59.664	   -33.099
   -52.797	   -53.027
   -39.760	   -44.365
   -26.524	   -68.567
   -61.956	   -49.733
   -19.788	   -58.356
   -31.710	   -54.141
   -21.582	   -60.400
   -46.555	   -60.671
   -53.498	   -71.665
   -30.976	   -61.569
   -27.424	   -62.219
   -51.455	   -79.671
   -51.830	   -59.572
   -41.764	   -46.077
   -63.111	   -39.642
   -40.689	   -61.025
   -35.948	   -50.046
   -37.990	   -70.523
   -29.309	   -60.216
   -33.455	   -58.972
   -28.034	   -65.379
   -57.721	   -84.502
   -50.178	   -84.642
   -44.030	   -42.572
   -54.132	   -43.948
   -31.444	   -63.480
   -69.366	   -44.795
   -44.845	   -47.160
   -37.215	   -56.256
   -43.095	   -63.164
   -46.503	   -35.791
   -20.346	   -63.318
   -44.620	   -33.746
   -41.592	   -57.913
   -44.912	   -56.270
   -36.986	   -66.702
   -45.194	   -54.535
   -68.043	   -51.386
   -54.115	   -50.821
   -48.611	   -55.344
   -53.558	   -45.469
   -58.513	   -61.522
   -48.796	   -52.259
   -49.094	   -58.200
   -52.551	   -73.772
   -57.373	   -64.816
   -50.730	   -75.012
   -27.671	   -67.441
   -31.700	   -64.584
   -45.875	   -44.758
   -34.947	   -51.743
   -41.128	   -54.780
   -41.101	   -57.157
   -38.303	   -55.586
   -39.651	   -62.743
   -28.519	   -62.286
   -66.750	   -60.608
   -63.465	   -61.982
   -48.326	   -60.983
   -49.142	   -49.249
   -40.030	   -62.953
   -35.957	   -65.520
    -8.398	   -67.904
   -17.360	   -84.899
   -32.465	   -68.533
   -41.773	   -49.850
   -52.878	   -53.323
   -25.338	   -46.265
   -39.857	   -43.472
   -49.422	   -76.490
   -53.990	   -63.270
   -45.713	   -56.326
   -45.957	   -56.447
   -28.971	   -66.868
   -50.699	   -58.865
   -37.043	   -71.522
   -62.443	   -65.981
   -38.788	   -49.167
   -43.574	   -48.215
   -39.031	   -55.855
   -52.423	   -54.313
   -51.858	   -90.900
   -43.274	   -54.808
   -43.090	   -49.041
   -38.575	   -60.523
   -35.714	   -64.484
   -60.445	   -65.398
   -32.667	   -71.999
   -27.679	   -58.879
   -15.824	   -80.987
   -30.760	   -64.796
   -66.845	   -72.287
   -37.264	   -75.112
   -32.493	   -56.034
   -46.005	   -51.794
   -41.448	   -63.369
   -30.160	   -74.493
   -42.275	   -64.233
   -28.247	   -56.846
   -36.098	   -56.930
   -48.839	   -59.815
   -26.561	   -71.180
   -33.297	   -59.056
   -41.538	   -58.021
   -39.053	   -58.735
   -47.939	   -45.583
   -49.182	   -67.918
   -37.169	   -48.599
   -22.773	   -49.034
   -36.430	   -57.183
   -54.081	   -52.401
   -26.518	   -83.404
   -41.200	   -67.227
   -28.519	   -54.795
   -59.759	   -57.174
   -29.897	   -53.622
   -41.761	   -53.329
   -41.755	   -57.363
   -64.340	   -62.767
   -44.345	   -58.275
   -38.144	   -56.704
   -60.188	   -67.870
   -41.213	   -58.278
   -42.660	   -71.342
   -43.368	   -58.559
   -31.498	   -54.678
   -37.441	   -70.598
   -60.526	   -71.073
   -38.193	   -73.490
   -45.002	   -64.490
   -48.937	   -60.504
   -29.252	   -67.473
   -41.465	   -74.922
   -20.517	   -72.771
   -45.137	   -59.736
   -32.766	   -65.100
   -53.815	   -48.543
   -48.208	   -56.036
   -41.855	   -49.729
   -45.080	   -58.722
   -40.040	   -51.130
   -48.043	   -51.353
   -41.303	   -55.888
   -37.236	   -58.895
   -50.141	   -66.835
   -35.025	   -48.529
   -34.845	   -50.394
   -36.812	   -55.277
   -41.362	   -55.057
   -35.429	   -46.586
   -53.965	   -51.909
   -38.923	   -61.009
   -26.762	   -63.516
   -31.230	   -74.419
   -59.138	   -37.535
   -29.101	   -59.645
   -35.166	   -68.833
   -34.433	   -60.088
   -30.234	   -63.207
   -43.729	   -60.750
   -41.681	   -61.065
   -28.917	   -56.180
   -53.164	   -58.116
   -51.907	   -58.306
   -29.833	   -77.514
   -28.055	   -63.097
   -46.097	   -45.415
   -46.621	   -49.463
   -45.417	   -70.396
   -24.097	   -71.153
   -31.518	   -56.911
   -43.321	   -69.078
   -39.356	   -69.860
   -30.609	   -64.580
   -32.442	   -91.958
   -38.696	   -72.475
   -61.378	   -56.755
   -37.903	   -61.966
   -38.712	   -62.309
   -49.864	   -48.785
   -56.660	   -70.018
   -16.669	   -65.529
   -48.424	   -60.752
   -53.160	   -53.419
   -30.706	   -52.510
   -38.300	   -57.317
   -56.349	   -65.241
   -43.022	   -60.673
   -46.464	   -58.541
   -50.082	   -42.302
   -44.031	   -66.055
   -45.109	   -49.090
   -38.550	   -54.242
   -40.557	   -44.904
   -28.001	   -58.626
   -12.220	   -59.101
   -34.604	   -65.731
   -25.860	   -67.342
   -15.731	   -87.511
   -42.229	   -67.126
   -45.877	   -59.762
   -62.463	   -63.003
   -54.206	   -51.991
   -34.806	   -76.129
   -29.373	   -69.004
   -33.567	   -71.432
   -28.233	   -60.487
   -32.999	   -72.010
   -32.336	   -63.961
   -53.924	   -52.672
   -52.658	   -55.618
   -41.209	   -52.949
   -14.132	   -89.766
   -37.658	   -49.340
   -52.145	   -77.001
   -44.153	   -57.751
   -32.840	   -48.954
   -31.404	   -67.942
   -40.811	   -52.984
   -54.604	   -47.696
   -47.685	   -43.648
   -41.328	   -67.690
   -64.367	   -64.359
   -35.280	   -73.232
   -44.302	   -72.414
   -46.573	   -70.742
   -46.172	   -65.589
   -47.052	   -64.881
   -35.058	   -63.333
   -58.374	   -48.419
   -51.487	   -63.800
   -33.586	   -50.526
   -39.869	   -58.407
   -53.813	   -33.600
   -56.074	   -35.897
   -13.050	   -75.052
   -50.614	   -66.638
   -38.094	   -64.854
   -38.133	   -59.256
   -49.181	   -56.931
   -47.270	   -68.104
   -37.881	   -57.562
   -44.750	   -46.871
   -13.854	   -92.861
   -50.070	   -65.292
   -30.108	   -71.020
   -44.320	   -72.700
   -30.851	   -50.810
   -49.281	   -53.377
   -45.392	   -51.331
   -42.643	   -50.032
   -19.322	   -78.698
   -56.720	   -55.809
   -57.067	   -53.004
   -52.080	   -48.957
   -42.346	   -59.344
   -58.775	   -59.810
   -39.744	   -59.474
   -52.085	   -45.970
   -18.053	   -76.570
   -45.196	   -71.775
   -53.207	   -71.417
   -42.292	   -59.305
   -41.478	   -43.004
   -50.014	   -47.503
   -37.222	   -60.930
   -45.716	   -57.535
   -46.202	   -62.416
   -31.323	   -68.663
   -49.310	   -57.346
   -47.590	   -50.070
   -39.389	   -68.765
   -60.583	   -44.317
   -47.376	   -58.808
   -38.769	   -56.451
   -35.161	   -70.657
   -36.803	   -64.314
   -57.172	   -66.563
   -42.469	   -46.601
   -43.883	   -37.894
   -49.909	   -56.019
   -40.577	   -51.542
   -17.146	   -65.963
   -54.488	   -62.839
   -23.755	   -53.686
   -35.024	   -67.570
   -47.790	   -52.173
   -33.844	   -58.547
   -40.864	   -46.669
   -62.917	   -62.384
   -47.647	   -55.833
   -30.134	   -57.828
   -40.586	   -57.608
   -46.576	   -59.936
   -38.261	   -50.003
   -26.128	   -50.257
   -40.180	   -69.530
   -51.554	   -50.370
   -34.354	   -62.969
   -21.516	   -57.013
     2.915	   -63.400
   -32.960	   -71.773
   -48.187	   -52.722
   -47.796	   -55.206
   -34.871	   -60.288
   -51.262	   -35.095
   -47.930	   -64.496
   -45.249	   -45.774
   -42.511	   -68.790
   -43.413	   -53.957
   -35.949	   -50.967
   -50.268	   -52.736
   -43.515	   -62.400
   -46.833	   -53.333
   -37.904	   -58.794
   -63.476	   -52.215
   -46.881	   -64.069
   -39.852	   -64.374
   -48.974	   -55.095
   -54.457	   -58.712
   -51.115	   -54.525
   -52.530	   -51.939
   -30.548	   -72.789
   -49.079	   -57.900
   -41.414	   -42.466
   -46.986	   -58.611
   -21.250	   -71.595
   -37.761	   -46.720
   -36.566	   -58.290
   -48.872	   -67.863
   -43.682	   -54.093
   -38.588	   -74.756
   -32.271	   -70.717
   -54.249	   -59.836
   -40.676	   -46.171
   -41.282	   -61.218
   -32.527	   -73.662
   -29.487	   -55.526
   -26.507	   -59.977
   -24.562	   -50.917
   -53.150	   -65.005
   -54.476	   -37.149
   -46.427	   -64.229
   -30.134	   -60.340
   -41.337	   -57.845
   -46.351	   -64.544
   -37.842	   -33.293
   -52.586	   -43.153
   -38.237	   -56.522
   -38.154	   -55.549
   -47.789	   -70.753
   -31.353	   -62.176
   -38.046	   -60.278
   -53.833	   -53.415
   -20.294	   -70.199
   -57.748	   -40.434
   -50.030	   -75.779
   -28.110	   -83.812
   -38.193	   -60.150
   -18.634	   -71.309
   -53.336	   -72.067
   -22.149	   -41.687
   -39.198	   -52.894
   -29.186	   -44.479
   -48.204	   -54.312
   -19.462	   -63.170
   -20.078	   -53.567
   -31.076	   -68.904
   -62.899	   -66.379
   -50.909	   -58.260
   -55.307	   -61.135
   -35.503	   -58.818
   -45.925	   -57.531
   -34.104	   -64.984
   -30.677	   -74.616
   -46.117	   -54.825
   -14.988	   -81.104
   -39.860	   -65.418
   -35.488	   -68.660
   -44.204	   -67.395
     2.992	   -75.699
   -28.257	   -69.699
   -27.262	   -49.614
   -39.912	   -53.017
   -47.028	   -58.604
   -43.628	   -70.183
   -43.252	   -56.656
   -52.967	   -74.476
   -40.401	   -58.939
   -47.579	   -70.849
   -56.212	   -60.450
