   -92.310	   122.143
   -91.592	   -35.960
   -74.797	   -27.731
  -100.444	   -41.381
   -88.380	   -31.012
  -122.102	   -23.425
   -84.707	   -47.159
   -88.481	   -41.794
   -97.869	   -42.398
   -95.263	   -33.871
  -139.921	   -47.042
  -136.308	   -48.965
  -106.893	   -49.792
   -93.978	   -34.399
  -101.596	   -22.166
  -114.931	   -33.867
   -85.201	   -39.895
   -97.891	   -35.663
   -98.517	   -44.415
  -124.274	   -56.936
  -133.415	   -59.713
   -99.686	   -42.356
  -101.973	   -56.547
   -91.401	   -46.057
  -134.222	   -38.431
   -79.794	   -47.290
   -93.057	   -54.455
  -110.586	   -52.805
  -134.491	   -37.387
  -126.696	   -25.206
  -109.019	   -45.233
  -104.920	   -21.695
  -107.805	   -33.835
  -124.586	   -34.914
   -92.721	   -19.165
   -98.152	   -30.698
  -107.671	   -33.459
   -88.816	   -32.253
  -106.819	   -52.754
  -115.518	   -37.732
  -118.753	   -49.536
  -110.974	   -28.208
  -107.043	   -37.045
   -86.069	   -51.709
   -95.953	   -37.052
  -119.602	   -38.924
  -107.061	   -38.434
  -102.261	   -39.667
  -111.855	   -46.729
  -105.009	   -40.909
  -124.981	   -28.779
  -111.812	   -46.306
  -127.712	   -37.174
  -134.696	   -26.112
   -99.959	   -44.125
  -106.164	   -31.190
  -122.807	    -8.170
  -114.364	   -34.511
  -108.114	   -30.142
   -99.819	   -47.135
  -107.351	   -43.737
  -101.525	   -38.952
  -123.159	   -45.214
  -113.543	   -44.144
  -103.385	   -46.243
  -111.691	   -39.521
   -95.299	   -28.968
  -106.116	   -43.252
  -102.813	   -56.855
   -93.445	   -56.403
   -95.435	   -47.251
   -94.380	   -43.012
   -99.518	   -47.486
   -96.435	   -26.896
  -114.738	   -46.596
  -110.002	   -52.072
  -120.964	   -54.495
   -99.712	   -38.229
  -106.646	   -33.946
   -90.832	   -36.563
  -123.627	   -26.113
  -140.292	   -51.583
  -117.139	   -52.518
  -107.896	   -20.466
  -128.461	   -28.848
   -99.100	   -36.955
   -84.549	   -16.044
   -99.555	   -19.693
  -110.372	   -42.505
  -113.490	   -40.958
  -122.602	   -35.617
  -101.451	   -30.822
  -105.432	   -48.063
  -117.277	   -32.747
   -84.143	   -45.253
   -90.636	   -47.585
  -110.140	   -42.486
  -112.118	   -45.469
   -97.338	   -47.104
  -113.874	   -37.385
  -100.302	   -51.293
   -94.399	   -48.042
  -110.661	   -33.709
  -100.113	   -36.654
   -80.145	   -40.110
  -106.218	   -38.869
   -85.442	   -43.389
   -94.512	   -38.606
   -95.345	   -41.385
  -119.175	   -36.891
  -116.950	   -34.633
  -103.779	   -38.096
  -103.258	   -39.411
  -105.297	   -36.435
  -119.170	   -29.606
  -115.629	   -38.789
  -112.957	   -18.687
  -129.855	   -24.448
   -86.669	    -2.377
   -95.638	   -44.266
   -83.867	   -35.014
  -101.269	   -55.124
  -101.118	   -25.087
   -88.981	   -16.754
   -83.816	   -29.218
  -113.990	   -33.131
   -95.828	   -42.307
  -117.982	   -33.496
  -120.796	   -33.458
  -118.265	   -42.092
   -93.131	   -44.958
  -122.184	   -56.939
  -121.588	   -36.121
   -99.599	   -44.232
   -82.350	   -12.236
  -107.305	   -32.138
  -106.411	   -31.521
  -121.780	   -36.794
   -94.267	   -26.218
  -122.044	   -34.616
   -98.742	   -22.987
  -108.652	   -43.921
   -97.245	   -52.852
  -101.459	   -33.273
   -96.726	   -27.751
  -102.082	   -44.353
   -88.342	   -29.224
   -90.991	   -30.338
   -99.256	   -39.125
  -106.676	   -44.013
  -107.875	   -28.751
  -124.451	   -31.963
   -93.764	   -36.185
   -91.128	   -44.444
   -73.921	   -40.100
   -68.848	   -31.263
   -81.448	   -44.689
   -74.647	   -41.010
   -81.737	   -46.544
  -112.550	   -43.835
   -86.829	   -43.505
   -91.867	   -26.138
  -107.533	   -38.507
  -115.265	   -57.254
   -93.557	   -33.920
  -110.829	   -25.533
  -114.682	   -52.410
  -112.211	   -42.316
  -112.438	   -48.390
  -130.512	   -19.258
  -120.361	   -25.217
   -76.513	   -46.415
  -103.343	   -25.327
   -89.756	   -33.386
  -100.532	   -29.804
   -98.331	   -13.280
  -112.243	   -26.334
   -88.006	   -29.204
   -96.586	   -40.030
  -127.262	   -21.232
  -102.567	   -54.993
  -105.289	   -41.931
  -106.944	   -38.105
  -103.241	   -34.266
  -103.973	   -40.684
  -130.825	   -36.619
  -115.442	   -42.269
  -113.030	   -14.192
  -108.977	   -34.786
   -84.352	   -31.037
  -106.289	   -18.250
  -110.523	   -35.462
  -136.462	   -21.889
  -108.936	   -53.079
  -117.561	   -50.548
  -113.781	   -42.337
  -116.952	   -35.541
   -98.247	   -36.008
  -112.092	   -40.422
  -109.992	   -44.937
  -129.858	   -45.198
   -96.724	   -51.039
  -116.428	   -54.460
  -127.758	   -38.284
   -82.929	   -41.567
  -108.952	   -52.536
   -96.054	   -39.377
  -129.265	   -55.492
   -94.379	   -32.610
   -95.782	   -22.184
  -101.732	   -41.973
  -106.949	   -47.463
   -90.474	   -26.769
   -99.808	   -52.101
  -115.713	   -39.893
  -126.533	   -34.314
  -132.102	   -33.109
  -101.988	   -36.383
  -101.030	   -27.367
  -128.553	   -31.201
  -117.316	   -23.410
  -126.114	   -24.309
  -102.796	   -39.268
  -120.391	   -41.539
  -121.601	   -42.293
  -127.178	   -39.897
   -96.374	   -39.066
  -131.719	   -30.786
  -108.390	   -41.670
  -117.519	   -38.184
  -102.134	   -53.019
   -97.635	   -50.326
  -130.272	   -25.299
   -98.494	   -30.146
   -75.627	   -49.493
   -92.966	   -21.181
   -96.915	   -12.123
  -107.035	   -26.148
   -85.834	   -23.316
   -94.971	   -27.925
   -92.007	   -55.575
   -93.125	   -39.333
   -99.844	   -40.331
  -107.815	   -55.685
  -110.403	   -36.654
  -118.773	   -31.121
  -125.824	   -38.546
   -99.757	   -55.811
  -120.337	   -28.550
  -102.354	   -54.430
  -106.997	   -58.959
   -96.181	   -42.660
   -81.766	   -37.368
  -127.143	   -21.715
  -134.955	   -59.755
  -127.926	   -53.187
   -95.249	   -55.715
   -87.379	   -47.256
   -96.487	   -36.560
   -89.580	   -33.376
  -106.590	   -42.524
  -102.820	   -52.335
   -89.803	   -51.548
  -112.687	   -56.578
   -89.651	   -37.500
   -93.942	   -38.331
  -131.415	   -18.786
  -108.590	   -46.156
  -126.562	   -16.794
  -116.628	   -20.828
  -127.028	   -48.005
   -83.463	   -32.281
  -112.729	   -19.253
   -97.369	   -39.952
  -120.928	   -45.140
  -107.356	   -44.247
  -103.563	   -43.128
  -114.260	   -31.444
  -117.458	   -53.644
  -107.303	   -41.656
  -111.478	   -37.282
  -130.684	   -41.933
   -97.302	   -33.478
  -102.378	   -47.397
   -80.740	   -37.650
   -86.555	   -21.046
   -81.787	   -15.396
  -122.684	   -19.381
  -115.157	   -16.788
   -93.513	   -16.059
  -121.473	   -22.809
  -116.197	   -42.613
  -117.836	   -44.248
   -87.647	   -61.454
   -76.693	   -43.089
  -123.089	   -18.312
   -78.928	   -35.603
   -97.658	   -35.269
   -89.253	   -41.399
  -111.333	   -14.903
   -98.334	   -39.509
   -93.381	   -39.241
  -115.644	   -39.092
  -108.371	   -56.639
  -101.435	   -42.204
  -112.314	   -37.104
  -135.625	   -47.093
  -114.817	   -51.077
  -109.001	   -54.535
  -143.685	   -42.335
  -110.825	   -37.220
  -112.748	   -34.965
  -121.359	   -36.722
  -120.326	   -40.220
  -107.524	   -54.406
  -121.536	   -36.953
   -99.381	   -53.885
  -129.627	   -38.148
   -74.917	   -22.401
  -120.817	   -34.390
   -93.709	   -18.639
   -98.461	   -34.724
  -102.427	   -29.138
  -109.010	   -31.231
   -93.275	   -18.571
  -113.184	   -44.838
  -109.196	   -50.772
  -116.926	   -40.663
  -110.716	   -43.069
  -122.490	   -45.402
  -104.902	   -36.947
  -114.483	   -48.094
  -116.019	   -23.045
   -97.070	   -65.264
   -75.187	   -42.399
   -89.445	   -30.062
   -93.189	   -33.949
  -101.803	   -30.485
   -94.848	   -40.870
   -96.292	   -32.740
   -94.667	   -40.175
  -101.943	   -27.696
   -87.540	   -30.122
  -109.922	   -45.892
  -108.919	   -26.819
  -102.924	   -49.333
  -123.637	   -47.591
  -138.517	   -37.533
  -126.796	   -34.558
  -120.831	   -31.651
  -139.033	   -49.056
   -69.914	   -36.067
  -118.019	   -49.352
  -131.912	   -24.302
  -105.697	   -35.374
  -101.087	   -32.359
  -120.442	   -42.568
  -102.899	   -52.327
   -95.090	   -28.024
   -99.994	   -37.863
   -96.775	   -66.757
  -106.724	   -58.724
  -111.559	   -40.867
   -92.413	   -61.178
  -118.967	   -37.025
  -107.205	   -57.931
   -82.918	   -27.767
  -128.651	   -32.140
  -112.925	   -28.953
  -101.288	   -45.658
  -108.053	   -43.274
  -120.995	   -47.497
  -125.200	   -38.741
  -104.911	   -36.107
  -128.699	   -53.922
   -83.168	   -29.673
   -96.847	   -46.967
   -95.074	   -40.541
  -102.480	   -35.844
  -112.253	   -49.848
  -118.791	   -27.783
  -107.739	   -54.890
   -98.571	   -39.227
  -100.500	    -8.392
  -114.593	   -31.826
  -106.268	   -32.843
  -106.115	   -39.638
  -103.073	   -48.157
   -91.948	   -41.579
  -108.519	   -49.549
   -93.284	   -22.762
  -102.060	   -28.606
  -100.546	   -32.335
  -108.382	   -30.116
  -114.964	   -39.081
  -122.444	   -48.074
  -112.338	   -38.114
  -131.609	   -28.631
  -102.621	   -33.979
   -84.109	   -29.021
  -104.427	   -35.759
  -138.232	   -41.555
  -140.087	   -33.001
  -119.518	   -34.049
   -99.743	   -25.330
  -104.416	   -35.619
  -115.468	   -35.411
  -105.019	   -30.332
   -92.644	   -56.559
  -104.772	   -47.044
  -114.490	   -48.714
  -129.102	   -28.488
   -92.629	   -47.690
  -114.451	   -45.368
  -122.388	   -39.242
   -81.435	   -41.014
   -92.682	   -21.776
   -88.279	   -47.394
   -88.026	   -38.603
  -100.921	   -45.227
  -117.533	   -27.653
  -112.829	   -33.352
   -97.834	   -23.602
   -93.306	   -49.564
  -110.223	   -27.250
  -113.673	   -46.993
  -149.062	   -21.044
  -112.796	   -46.112
   -96.331	   -33.279
   -93.213	   -24.717
  -112.955	   -32.655
  -111.459	   -37.809
  -107.552	   -34.809
   -99.230	   -55.124
  -108.546	   -49.005
   -98.088	   -37.909
  -127.892	   -33.473
  -109.933	   -29.327
   -93.012	   -50.467
  -116.044	   -43.236
   -89.297	   -48.724
  -126.597	   -34.805
  -114.244	   -53.952
  -118.031	   -28.463
  -108.274	   -49.514
  -121.737	   -42.195
  -145.602	   -27.228
  -113.184	   -52.939
  -106.212	   -32.234
   -88.896	   -42.433
   -99.830	   -40.253
  -145.452	   -32.181
   -93.312	   -29.582
  -113.097	   -45.994
   -93.293	   -33.005
   -87.983	   -28.997
  -110.797	   -32.674
  -112.569	   -30.175
  -127.617	   -39.237
  -132.596	   -32.144
   -90.205	   -32.256
  -120.871	   -41.292
  -123.099	   -24.873
  -114.479	   -43.913
  -100.958	   -56.877
   -98.312	   -43.963
   -97.419	   -36.964
  -107.622	   -10.966
  -108.416	   -32.130
   -86.700	   -22.445
  -111.368	   -35.373
  -103.099	   -14.998
  -107.108	   -32.928
   -99.311	   -31.212
   -85.664	   -25.802
   -91.228	   -30.290
  -100.020	   -50.901
   -87.870	   -54.976
   -92.458	   -34.344
  -117.625	   -35.838
   -97.842	   -35.965
  -114.454	   -27.249
   -72.096	   -33.509
   -95.951	   -42.432
   -97.619	   -43.518
  -135.750	   -28.291
  -113.489	   -40.599
  -132.800	   -39.413
  -111.890	   -46.389
   -99.302	   -31.470
  -127.291	   -42.544
   -95.388	   -43.734
  -144.729	   -39.270
  -103.044	   -36.650
  -112.076	   -32.698
  -115.820	   -24.061
  -119.855	   -28.483
  -108.594	   -60.898
  -101.111	   -29.685
  -122.353	   -42.164
  -101.617	   -14.494
  -113.558	   -33.358
  -107.997	   -42.048
  -117.279	   -39.756
  -122.166	   -50.011
  -107.353	   -32.077
   -96.095	   -45.270
  -103.902	   -36.122
   -98.750	   -50.392
  -112.592	   -37.119
   -87.995	   -24.184
   -95.448	   -32.759
  -116.006	   -21.816
  -100.777	   -56.473
  -103.877	   -29.969
  -116.872	   -31.929
  -115.478	   -43.062
   -84.007	   -51.408
   -93.012	   -44.377
   -89.612	   -59.698
   -93.528	   -32.748
  -101.352	   -46.222
   -82.815	   -41.575
  -107.589	   -53.349
   -88.936	   -15.168
   -89.153	   -67.175
   -97.991	   -49.559
  -110.686	   -32.596
  -108.981	   -43.264
   -97.412	   -17.436
  -104.502	   -38.757
  -122.947	   -42.781
  -106.960	   -47.924
   -96.020	   -42.778
  -130.568	   -45.209
  -116.589	   -54.756
   -94.961	   -49.486
   -86.560	   -46.392
  -106.108	   -33.492
   -98.323	   -24.157
   -92.582	   -42.614
  -114.001	   -55.064
   -99.870	   -27.183
   -76.721	   -36.734
  -113.090	   -41.313
  -124.076	   -36.490
   -97.727	   -15.873
  -110.823	   -21.135
  -100.056	   -40.892
   -93.719	   -36.805
   -72.152	   -38.659
   -73.718	   -30.876
  -105.889	    -9.194
   -97.658	   -26.955
  -120.829	   -36.877
  -118.512	   -32.867
  -115.588	   -25.146
   -76.417	   -44.097
   -73.490	   -30.237
   -88.089	   -49.244
   -96.536	   -39.325
  -106.704	   -42.507
  -132.958	   -46.518
   -85.835	   -43.610
  -101.279	   -20.745
  -111.423	   -73.078
  -102.253	   -27.519
   -81.976	   -42.625
  -119.802	   -30.282
  -129.680	   -30.920
  -125.976	   -32.266
  -121.047	   -32.035
  -108.656	   -35.795
  -121.494	   -28.472
   -92.820	   -45.723
  -132.383	   -40.102
   -94.184	   -39.340
  -135.152	   -50.622
  -116.876	   -51.783
  -124.049	   -42.809
  -101.895	   -22.046
  -122.532	   -32.212
  -102.837	   -28.523
  -120.094	   -41.021
   -98.835	   -29.026
   -88.384	   -45.102
   -88.217	   -58.408
  -106.078	   -54.925
  -112.598	   -33.709
   -91.109	   -23.436
  -102.626	   -36.266
   -96.969	   -34.589
   -96.013	   -53.556
   -83.117	   -35.485
  -102.366	   -32.975
  -107.417	   -43.102
   -93.728	   -30.371
  -117.937	   -21.122
  -133.549	   -22.125
   -92.314	   -44.662
  -107.315	   -46.444
  -110.640	   -26.072
  -115.463	   -25.756
  -131.592	   -38.997
  -124.339	   -44.819
  -130.206	   -24.467
  -110.826	   -34.142
   -98.576	   -43.323
  -109.066	   -57.461
   -95.733	   -28.219
  -113.601	   -37.900
   -86.976	   -35.845
  -122.970	   -37.915
   -95.340	   -28.448
  -118.144	   -35.982
  -132.938	   -26.953
  -118.709	   -52.875
  -108.041	   -51.050
  -102.510	   -38.508
  -104.627	   -38.751
  -103.384	    -7.883
  -112.435	   -40.136
  -107.125	   -45.298
   -91.093	   -29.344
  -124.760	   -36.567
   -96.622	   -54.180
  -114.163	   -30.604
  -109.574	    -7.703
  -137.263	   -37.244
  -121.504	   -27.448
   -89.312	   -23.528
  -103.058	   -23.167
  -130.774	   -25.792
  -102.004	   -40.335
   -97.799	   -36.564
   -99.442	   -70.923
  -137.888	   -35.100
  -120.819	   -38.669
   -88.130	   -26.215
  -110.636	   -55.255
   -67.166	   -17.005
  -115.493	   -42.726
  -111.708	   -48.553
   -80.766	   -26.314
   -72.502	   -36.917
   -98.205	   -51.917
   -98.806	   -55.143
  -114.782	   -35.429
  -128.932	   -39.434
  -111.309	   -30.930
  -119.601	   -40.489
  -102.886	   -33.928
  -105.285	   -45.109
  -117.521	   -24.018
  -104.552	   -40.618
   -74.760	   -46.440
  -126.558	   -34.039
   -90.871	   -39.295
   -96.067	   -31.675
  -109.781	   -27.342
   -95.511	   -24.534
  -130.265	   -43.169
  -118.337	   -52.465
  -108.627	   -46.218
  -137.188	   -54.480
  -114.321	   -46.744
   -82.430	   -38.967
  -111.102	   -35.521
  -112.917	   -40.537
  -123.960	   -40.404
  -128.541	   -35.574
  -100.927	   -33.428
  -125.415	   -33.845
  -104.818	   -23.451
  -111.008	   -23.486
  -101.894	   -27.798
  -117.188	   -38.490
  -105.631	   -46.283
  -110.926	   -38.904
  -108.791	   -37.460
  -121.267	   -24.339
   -88.409	   -28.957
  -125.959	   -54.462
   -98.029	   -42.421
  -123.212	   -27.668
  -118.026	   -43.140
  -116.364	   -47.770
   -84.878	   -44.438
   -83.179	   -44.815
   -91.917	   -21.889
   -89.267	   -46.975
   -82.680	   -38.359
   -79.388	   -31.611
  -109.415	   -18.228
  -122.430	   -29.546
  -107.213	   -47.632
   -76.224	   -38.653
   -86.373	   -31.920
   -83.221	   -30.789
   -90.347	   -45.144
   -93.880	   -49.962
   -97.613	   -18.576
  -114.371	   -53.344
   -89.591	   -52.458
   -97.845	   -25.386
   -87.489	   -38.410
  -101.693	   -34.348
   -82.846	   -48.679
   -89.549	   -18.791
   -92.240	   -39.445
  -119.111	   -32.602
  -126.192	   -43.130
  -101.030	   -27.105
   -98.993	   -32.165
  -117.434	   -42.248
  -134.944	   -38.722
  -132.744	   -47.061
  -119.719	   -32.902
  -116.988	   -44.625
  -133.241	    -7.928
   -99.581	   -36.444
  -100.891	   -61.929
   -96.497	   -36.948
   -99.655	   -29.934
  -112.715	   -39.846
  -110.022	   -27.330
  -121.047	   -41.134
  -128.452	   -25.735
  -105.989	   -45.245
  -120.164	   -28.936
  -103.354	   -35.858
  -125.791	   -46.931
  -103.172	   -41.125
  -107.369	   -36.112
  -104.419	   -31.437
  -101.467	   -34.443
  -123.193	   -33.024
  -122.823	   -44.842
  -110.216	   -42.720
   -99.187	   -45.113
  -104.297	   -51.876
  -120.364	   -33.151
  -111.351	   -25.897
  -100.267	   -27.549
   -87.482	    -7.486
  -112.599	   -17.047
   -90.704	   -37.612
  -101.538	    -9.126
   -94.645	   -36.701
  -103.132	   -36.878
   -98.821	   -40.349
   -97.488	   -19.002
  -119.423	   -20.215
  -118.810	   -21.958
   -67.851	   -42.836
   -97.088	   -25.168
   -98.807	   -34.210
  -106.888	   -27.313
  -121.488	   -34.486
  -120.146	   -24.998
  -113.781	   -50.182
   -88.821	   -42.936
  -103.547	   -64.705
  -129.691	   -45.343
  -126.974	   -34.456
  -119.224	   -27.057
  -124.319	   -36.189
  -115.279	   -43.205
  -119.441	   -44.612
  -113.352	   -36.453
  -124.497	   -37.782
   -88.144	   -28.398
  -129.560	   -47.776
   -81.314	   -30.249
  -104.041	   -44.872
  -106.778	   -45.040
  -108.701	   -28.257
  -106.545	   -60.438
  -103.406	   -30.130
  -123.786	   -38.020
  -103.556	   -29.355
  -114.369	   -48.924
   -82.739	   -50.809
  -103.834	   -36.502
  -103.391	   -47.278
   -86.140	   -24.512
   -98.104	   -58.694
  -103.397	   -43.359
  -103.310	   -25.771
  -113.476	   -37.434
  -115.615	   -27.125
   -99.292	   -24.036
   -83.862	   -26.582
  -107.480	   -34.318
  -108.275	   -34.447
  -123.528	   -58.499
  -111.946	   -42.423
  -106.428	   -35.364
  -115.792	   -33.180
  -122.166	   -42.726
  -132.278	   -48.928
  -127.671	   -26.097
  -121.099	   -43.888
   -96.573	   -44.680
  -104.940	   -38.145
  -128.581	   -41.412
  -113.129	   -20.683
   -79.563	   -62.347
  -114.925	   -24.633
   -92.111	   -25.487
  -113.256	   -27.255
  -117.736	   -28.603
  -126.861	   -24.195
  -102.009	   -34.156
  -130.477	   -36.590
   -92.723	   -34.004
  -130.471	   -50.562
   -85.771	   -25.586
  -125.532	   -32.048
  -103.773	   -18.932
  -108.295	   -33.185
  -102.846	   -43.589
  -105.541	   -44.232
  -108.235	   -35.087
  -124.979	   -41.663
   -99.840	   -32.811
   -91.348	    -7.853
   -70.608	   -22.432
  -114.138	   -37.458
  -124.896	   -31.954
   -91.032	   -30.802
   -94.857	   -47.464
  -105.378	   -32.705
  -112.623	   -40.355
  -141.109	   -60.287
  -112.463	   -42.543
  -126.052	   -31.034
  -115.026	   -45.116
  -111.500	   -41.788
  -104.017	   -42.357
   -91.911	   -41.181
   -89.379	   -29.567
  -128.966	   -40.556
  -103.054	   -63.932
   -90.114	   -18.867
   -72.806	   -40.266
  -127.316	   -25.418
  -124.479	   -58.793
   -87.133	   -38.719
   -92.707	   -38.043
  -115.845	   -46.305
  -126.754	   -39.997
  -136.432	   -21.448
   -89.126	   -23.097
  -102.614	   -21.343
  -109.862	   -26.206
   -96.074	   -33.453
   -91.079	   -27.686
   -95.610	   -62.921
  -102.235	   -37.205
   -95.445	   -35.257
  -109.414	   -27.701
  -106.702	   -30.976
  -108.519	   -73.581
  -105.102	   -43.893
  -106.161	   -29.705
   -92.642	   -36.789
  -100.354	   -36.580
   -68.092	   -27.083
   -96.831	   -26.562
   -74.672	   -26.054
   -82.619	   -20.750
   -70.995	   -19.306
   -90.272	   -42.586
  -111.011	   -29.312
   -89.367	   -32.169
   -92.163	   -50.339
   -96.753	   -44.354
  -107.061	   -45.725
   -88.292	   -27.332
  -113.470	   -46.549
   -81.492	   -20.407
  -112.368	   -36.242
  -106.827	   -45.314
  -102.249	   -38.992
   -98.875	   -40.734
   -99.060	   -55.260
  -114.786	   -17.567
   -94.968	   -28.293
  -120.167	   -45.483
  -105.930	   -26.751
  -116.645	   -40.860
  -112.850	   -37.045
   -94.194	   -28.531
   -98.873	   -38.921
  -108.787	   -35.168
  -107.528	   -36.064
   -97.042	   -49.217
   -95.179	   -47.365
   -92.829	   -23.661
   -96.981	   -40.847
  -114.003	   -34.137
  -104.647	   -55.373
   -96.356	   -18.772
   -79.035	   -38.316
   -98.030	   -25.426
   -93.833	   -52.923
  -110.762	   -49.038
   -95.789	   -50.426
   -84.502	   -49.076
  -106.900	   -49.401
   -97.620	   -42.126
  -104.005	   -49.309
   -91.673	   -47.448
   -95.100	   -51.481
  -106.033	   -39.781
  -112.789	   -45.308
  -109.414	   -51.296
  -110.450	   -28.096
  -148.410	   -27.533
  -123.604	   -42.252
  -116.023	   -44.558
  -109.296	   -23.429
  -127.452	   -50.729
  -107.448	   -45.405
   -93.838	   -33.258
  -102.005	   -16.032
  -109.800	   -40.348
  -125.151	   -36.705
   -97.185	   -40.456
  -112.630	   -31.704
   -80.474	   -35.301
   -80.653	   -29.440
  -101.237	   -14.445
  -101.095	   -34.381
   -91.627	   -35.957
   -92.892	   -45.531
  -107.353	   -39.529
  -101.386	   -37.705
  -109.572	   -37.008
  -118.335	   -38.817
  -113.089	   -38.452
   -92.469	   -42.115
   -92.337	   -24.315
   -94.668	   -37.286
  -114.890	   -44.118
  -123.032	   -30.877
  -108.218	   -32.721
  -105.302	   -45.619
  -100.786	   -39.280
  -135.919	   -54.838
  -131.352	   -25.604
  -124.646	   -45.007
  -112.207	   -36.491
  -105.375	   -39.213
  -123.959	   -21.856
  -105.516	   -24.812
   -99.244	   -40.505
  -103.164	   -58.272
  -128.820	   -46.034
  -129.479	   -38.574
  -116.765	   -34.546
  -113.070	   -55.148
  -115.935	   -50.293
  -114.167	   -12.165
  -132.173	   -28.320
  -133.441	   -36.599
  -106.626	   -39.311
   -91.570	   -42.374
  -106.443	   -35.045
  -107.575	   -47.503
  -122.603	   -31.703
   -93.231	   -30.658
  -102.092	   -32.367
  -111.702	   -46.015
  -128.435	   -47.367
  -101.914	   -17.636
  -105.848	   -18.358
  -105.373	   -18.436
  -102.307	   -31.538
  -101.827	   -43.957
  -106.532	   -38.873
  -109.178	   -56.635
  -102.633	   -35.990
   -74.544	   -39.055
   -85.291	   -36.657
  -117.054	   -47.599
  -141.191	   -57.387
  -132.836	   -45.283
   -88.322	   -31.794
  -103.430	   -36.926
  -101.178	   -14.230
   -84.449	   -36.828
   -81.763	   -38.948
   -85.459	   -33.576
   -93.305	   -58.015
  -124.534	   -54.421
  -114.117	   -22.883
  -125.081	   -41.533
  -123.633	   -34.474
  -121.624	   -42.996
