   -92.310	   122.143
  -134.893	    -7.222
  -125.996	     0.922
  -125.665	   -32.808
  -140.955	   -23.217
  -155.316	    -6.929
  -142.650	   -26.537
  -155.400	   -24.975
  -153.531	   -41.946
  -147.604	    -9.895
  -145.914	   -21.960
  -128.233	   -31.039
  -145.947	   -21.589
  -125.530	   -16.437
  -130.223	   -11.726
  -112.524	   -21.792
  -142.468	    -9.389
  -138.292	   -16.241
  -152.965	   -40.934
  -125.174	   -17.723
  -139.845	   -23.193
  -125.001	   -38.829
  -137.012	   -10.813
  -123.831	   -11.902
  -130.879	   -18.128
  -116.288	    -8.151
  -135.931	   -22.646
  -149.311	    -4.502
  -140.025	   -10.863
  -129.521	   -10.955
  -127.176	   -21.964
  -138.287	   -12.158
  -142.031	    -6.979
  -120.727	    -1.634
  -123.962	   -30.877
  -136.548	   -27.362
  -129.709	    -8.878
  -148.018	    -9.604
  -139.275	   -24.012
  -140.401	   -11.272
  -138.706	   -19.411
  -139.979	   -12.129
  -140.328	   -19.368
  -144.105	    -4.773
  -119.886	   -18.591
  -150.284	   -20.982
  -127.861	   -12.853
  -124.316	   -29.915
  -140.100	    -9.374
  -119.023	    -6.287
  -130.605	     8.458
  -128.213	    -9.617
  -132.765	   -12.604
  -134.037	   -28.920
  -142.853	    -8.977
  -132.768	   -19.200
  -123.771	   -10.186
  -126.071	   -14.913
  -113.752	   -27.787
  -153.767	    -1.135
  -122.709	   -26.469
  -121.957	   -34.189
  -133.544	     0.225
  -126.620	    11.882
  -119.320	   -16.744
  -127.778	    -5.205
  -119.814	   -19.866
  -125.878	   -17.233
  -128.143	    -9.791
  -138.087	   -12.158
  -143.722	   -35.994
  -128.960	   -26.860
  -124.620	   -31.743
  -126.892	    10.773
  -119.121	    -8.019
  -130.563	   -34.781
  -135.698	   -39.049
  -148.914	   -19.548
  -120.175	   -18.381
  -150.308	    -7.868
  -147.477	   -14.606
  -131.954	   -14.806
  -136.926	   -23.888
  -132.945	    -2.858
  -117.242	   -19.657
  -139.297	   -13.397
  -115.313	   -29.907
  -148.949	   -25.613
  -142.430	   -12.364
  -155.209	   -22.439
  -130.232	    -3.378
  -124.841	    -2.823
  -129.715	   -18.219
  -112.097	   -12.672
  -100.439	   -10.445
  -144.764	   -18.462
  -145.976	   -21.608
  -156.084	    -6.084
  -122.694	    -2.274
  -150.570	   -26.223
  -144.277	   -17.189
  -133.413	   -18.449
  -114.544	   -17.134
  -144.645	   -19.782
  -126.973	   -20.417
  -143.215	     2.069
  -120.139	     6.431
  -128.283	     1.143
  -152.419	   -10.031
  -141.443	   -23.026
  -122.100	   -24.917
  -142.285	   -26.945
  -136.687	   -28.497
  -131.294	   -21.598
  -127.352	   -28.464
  -132.790	   -18.512
  -129.468	   -15.348
  -135.895	    -3.280
  -139.034	   -26.341
  -135.430	   -20.917
  -130.713	    -8.983
  -117.069	     0.800
  -150.227	   -13.106
  -127.603	    -9.777
  -145.506	   -13.681
  -132.374	    -7.477
  -134.848	   -17.931
  -145.052	   -26.498
  -124.756	     5.686
  -129.236	   -11.244
  -130.975	     3.502
  -144.082	   -11.401
  -127.107	   -21.535
  -142.670	   -11.519
  -137.767	   -31.078
  -145.661	   -12.213
  -150.925	   -45.592
  -134.438	   -12.646
  -157.090	   -16.661
  -147.532	   -23.062
  -151.802	   -20.383
  -125.024	    -1.096
  -139.673	   -12.525
  -161.227	     2.438
  -142.637	    -4.289
  -116.558	   -19.849
  -137.387	   -20.131
  -140.205	   -19.606
  -146.437	    -8.154
  -137.557	   -43.453
  -134.741	   -11.093
  -147.162	    -1.763
  -110.744	    -9.513
  -132.630	     5.087
  -135.117	   -10.426
  -145.491	    -0.038
  -152.669	   -16.626
  -144.899	    -2.327
  -125.224	   -35.440
  -135.844	    -3.610
  -135.825	   -15.600
  -158.227	   -19.303
  -153.732	   -20.753
  -122.004	    -6.253
  -142.905	    -1.512
  -154.322	   -11.490
  -152.589	   -10.660
  -131.286	    -9.039
  -117.056	    -6.872
  -133.564	   -11.960
  -112.876	   -33.860
  -144.516	    -2.478
  -129.736	     3.381
  -128.430	    -8.505
  -141.212	   -22.211
  -136.172	   -10.960
  -144.637	   -36.388
  -139.232	    -9.521
  -135.690	   -19.368
  -136.133	   -17.991
  -132.356	    -7.965
  -123.857	   -23.650
  -103.543	    -4.382
  -122.738	   -19.272
  -121.057	    -9.682
  -129.140	   -31.374
  -133.964	   -17.825
  -138.967	   -30.067
  -153.808	   -26.544
  -148.973	    -9.097
  -146.232	   -31.268
  -126.945	   -20.287
  -127.685	   -25.600
  -142.038	   -21.787
  -150.570	    -4.236
  -141.040	    18.932
  -127.379	    -8.312
  -157.136	    -2.931
  -147.590	   -31.994
  -128.311	   -16.238
  -134.626	    -2.608
  -130.836	   -20.691
  -121.551	   -23.723
  -132.577	   -25.580
  -120.954	   -23.711
  -121.862	    -4.721
  -141.733	   -22.091
  -133.409	   -17.618
  -141.905	   -14.873
  -138.947	   -16.129
  -143.356	    -1.244
  -126.762	   -19.482
  -146.901	   -10.882
  -152.353	   -15.861
  -136.872	    -6.051
  -137.807	     5.793
  -132.724	   -24.687
  -136.023	   -36.660
  -142.367	   -28.059
  -153.244	   -41.143
  -136.134	   -24.453
  -116.525	     4.767
  -141.402	   -11.437
  -124.831	   -30.037
  -148.519	   -28.639
  -136.069	     6.033
  -142.265	   -10.155
  -116.313	   -16.557
  -121.673	   -25.609
  -145.602	     2.610
  -123.546	   -22.481
  -139.275	    -8.804
  -135.725	   -28.803
  -146.382	   -12.805
  -124.360	    -1.806
  -114.834	   -17.831
  -125.561	   -11.282
  -141.436	    -1.921
  -128.840	    -1.796
  -105.849	   -10.836
  -120.780	     1.155
  -162.392	   -11.782
  -126.938	    -3.653
  -139.373	   -29.507
  -134.246	   -15.900
  -140.183	     6.444
  -133.952	    10.734
  -140.038	   -16.271
  -116.196	   -12.656
  -142.065	    -3.888
  -137.269	   -13.210
  -155.670	   -18.428
  -151.455	   -18.079
  -153.082	   -14.391
  -139.901	    -2.560
  -128.369	    -9.090
  -130.437	   -21.792
  -140.706	    -3.099
  -131.733	   -26.370
  -158.817	    -7.806
  -156.495	   -18.681
  -134.611	   -24.939
  -139.645	    -4.504
  -138.702	    -4.356
  -144.443	   -16.231
  -155.313	   -19.797
  -156.331	   -25.264
  -129.413	   -24.399
  -141.970	   -11.288
  -135.515	   -22.796
  -153.812	    -7.977
  -130.182	    -6.973
  -144.931	    -6.757
  -138.478	   -20.466
  -113.536	    -1.331
  -131.132	    -4.627
  -142.488	   -29.100
  -137.369	   -22.202
  -141.534	   -31.451
  -138.417	   -23.396
  -151.507	   -15.962
  -143.156	   -13.308
  -126.965	   -22.338
  -141.189	    -9.848
  -140.175	     0.520
  -130.376	   -24.571
  -130.120	   -30.140
  -132.740	   -10.351
  -125.879	   -23.889
  -125.983	   -30.010
  -136.408	   -17.267
  -117.834	   -16.483
  -141.338	   -17.242
  -123.648	   -19.542
  -131.649	   -30.303
  -147.339	   -26.403
  -144.297	   -35.278
  -135.046	   -24.783
  -113.530	   -23.059
  -148.050	   -15.220
  -150.579	   -30.879
  -126.264	   -24.264
  -150.369	    -0.844
  -142.843	   -16.644
  -139.911	   -12.752
  -141.692	   -12.187
  -141.704	   -19.411
  -145.022	   -28.098
  -135.911	   -32.938
  -149.243	   -10.251
  -125.210	    -1.913
  -130.781	   -12.898
  -130.935	   -24.810
  -140.760	   -35.566
  -141.768	   -12.656
  -136.430	     2.877
  -149.697	    -4.181
  -138.183	   -11.700
  -134.216	   -17.670
   -94.363	   -21.952
  -134.099	    -7.798
  -122.810	   -25.764
  -121.832	   -36.729
  -145.229	   -21.069
  -143.832	   -25.644
  -141.025	    -8.973
  -133.998	     0.993
  -130.565	   -11.070
  -135.172	   -11.790
  -132.814	   -21.726
  -139.759	   -22.195
  -152.638	   -33.057
  -123.091	   -13.204
  -146.357	   -22.943
  -124.478	   -31.963
  -137.167	   -15.024
  -150.906	    -7.386
  -137.338	    -3.908
  -129.952	   -27.392
  -134.368	    -1.068
  -142.906	   -15.847
  -138.593	    -9.297
  -138.471	   -26.461
  -147.055	   -11.929
  -111.818	    -2.737
  -135.070	   -19.390
  -141.354	   -26.537
  -136.911	    -4.932
  -135.855	   -13.574
  -117.577	   -10.765
  -138.449	   -23.010
  -126.413	   -30.820
  -138.524	   -22.080
  -146.722	   -12.582
  -148.823	   -20.803
  -149.173	   -27.300
  -141.402	   -11.253
  -125.249	   -17.517
  -129.753	    11.302
  -130.524	    -6.266
  -141.306	   -18.343
  -147.072	   -11.744
  -131.681	   -14.502
  -140.028	   -27.888
  -129.926	   -21.768
  -134.013	   -26.915
  -132.251	   -13.122
  -142.383	   -36.658
  -144.235	   -27.023
  -137.966	    -7.965
  -140.193	   -12.725
  -148.253	   -25.066
  -137.332	    -8.794
  -138.919	   -13.105
  -143.071	    17.845
  -125.388	   -10.392
  -137.602	   -12.006
  -127.977	    -5.247
  -146.388	    -5.868
  -132.648	    -9.518
  -134.285	   -17.133
  -147.473	   -14.950
  -144.841	   -44.829
  -138.946	    -0.110
  -140.395	   -43.744
  -145.899	   -31.060
  -137.743	   -19.525
  -143.172	   -17.811
  -136.550	   -22.575
  -147.666	   -22.506
  -154.802	    -4.933
  -130.231	   -14.822
  -153.686	   -12.313
  -157.786	   -42.898
  -150.000	   -20.943
  -133.336	   -39.024
  -145.635	   -23.768
  -153.159	   -17.296
  -144.937	     0.284
  -125.915	   -12.594
  -132.762	   -30.742
  -136.558	   -24.648
  -127.889	    -8.341
  -146.745	   -17.275
  -110.911	   -15.209
  -131.940	    -0.835
  -137.175	   -19.345
  -124.491	   -12.752
  -140.448	   -13.251
  -146.772	   -21.848
  -145.944	   -31.396
  -134.070	   -22.946
  -139.284	    -4.289
  -139.617	     5.820
  -147.554	   -35.117
  -122.485	    -0.414
  -122.159	   -21.866
  -112.969	   -29.740
  -128.316	   -12.614
  -140.818	   -11.478
  -155.118	   -22.071
  -147.673	    22.334
  -129.263	   -43.674
  -148.147	   -29.539
  -128.294	   -14.025
  -117.963	    -6.060
  -134.458	   -12.896
  -143.923	   -19.060
  -138.027	   -16.494
  -153.159	    -5.710
  -130.143	   -15.638
  -131.704	    -4.786
  -142.154	     0.779
  -146.542	   -19.794
  -122.641	   -24.723
  -149.194	   -11.499
  -156.355	   -16.812
  -124.454	   -16.284
  -122.725	   -21.651
  -136.967	    -9.298
  -140.794	   -22.362
  -149.430	   -13.063
   -98.568	   -23.418
  -143.177	   -37.485
  -127.204	   -31.895
  -128.912	   -22.008
  -121.142	   -23.704
  -141.292	    -5.854
  -145.393	   -10.221
  -126.753	   -14.398
  -129.100	   -21.098
  -149.843	   -10.963
  -138.431	   -38.893
  -130.425	   -24.892
  -133.105	    -1.428
  -137.794	   -10.026
  -147.142	    -8.353
  -133.612	   -11.131
  -130.937	     6.732
  -117.602	   -19.163
  -130.083	   -27.384
  -122.538	   -36.729
  -128.441	   -13.368
  -132.141	   -34.828
  -128.002	   -11.632
  -146.171	   -21.417
  -150.308	     1.903
  -136.305	    -5.054
  -125.962	    -8.677
  -143.343	   -19.224
  -130.702	   -38.287
  -108.010	   -13.804
  -100.396	    -7.496
  -119.381	    -6.531
  -130.381	    -4.957
  -131.826	   -10.977
  -128.319	   -29.940
  -127.307	   -14.516
  -123.953	   -30.198
  -111.595	   -29.780
  -147.545	   -15.873
  -118.539	   -22.406
  -114.994	   -29.741
  -150.301	   -17.649
  -153.005	   -19.885
  -113.689	    -9.828
  -130.689	   -25.300
  -153.477	    -9.005
  -139.569	   -24.797
  -150.766	    -9.237
  -138.572	    -9.982
  -120.658	   -11.897
  -132.066	   -11.283
  -134.368	   -33.269
  -141.026	   -37.003
  -141.719	   -12.828
  -121.766	   -43.523
  -152.854	   -16.388
  -154.623	   -34.017
  -132.052	   -28.730
  -129.126	    -7.444
  -143.391	   -11.527
  -121.887	   -11.910
  -135.837	   -22.434
  -138.963	     0.781
  -127.037	     0.081
  -140.307	   -11.813
  -138.810	    -5.872
  -139.108	   -15.738
  -140.903	   -11.269
  -140.976	   -23.816
  -133.702	   -15.558
  -107.994	   -21.670
  -133.969	    -8.416
  -143.883	    -8.613
  -124.851	   -24.477
  -141.072	   -17.489
  -138.897	   -17.565
  -141.026	   -11.849
  -156.313	    -4.884
  -140.887	   -15.023
  -140.956	   -19.312
  -153.314	   -28.428
  -135.357	     5.265
  -132.253	   -11.265
  -142.102	     2.366
  -130.619	     6.831
  -139.254	    -5.723
  -142.412	    -7.332
  -128.145	   -22.739
  -128.463	   -12.072
  -135.363	    -7.631
  -131.051	    -1.184
  -132.423	   -15.712
  -126.265	   -38.960
  -126.739	   -11.707
  -129.864	   -29.925
  -132.858	   -10.674
  -143.867	   -14.880
  -123.882	   -23.827
  -147.446	   -27.805
  -125.594	   -14.499
  -142.102	    -6.446
  -142.899	    -3.568
  -136.521	   -38.325
  -126.258	   -15.069
  -147.541	   -21.270
  -145.566	   -38.325
  -133.526	   -15.410
  -121.516	    -8.170
  -122.769	   -18.451
  -130.948	   -14.404
  -140.710	   -13.108
  -140.915	   -14.319
  -144.763	   -31.669
  -153.370	   -13.422
  -137.276	   -31.627
  -141.980	    -6.040
  -141.535	     2.173
  -132.977	    -9.062
  -127.367	   -12.403
  -134.997	   -36.050
  -136.678	   -23.468
  -125.396	   -11.643
  -137.682	   -17.167
  -128.880	    -2.115
  -133.414	   -39.686
  -146.380	   -19.303
  -143.508	   -23.716
  -127.431	     0.447
  -144.274	   -22.469
  -132.718	   -23.490
  -126.770	   -20.676
  -141.008	   -11.770
  -126.943	   -10.571
  -139.044	   -11.869
  -126.150	   -16.159
  -140.164	    -3.832
  -132.644	   -23.170
  -129.395	   -16.170
  -141.042	   -20.152
  -141.206	   -18.741
  -132.131	    -8.348
  -143.264	    -9.372
  -148.423	    -1.556
  -139.192	   -18.557
  -144.400	    -7.338
  -143.126	    -8.610
  -132.757	   -13.744
  -125.602	   -18.720
  -148.142	    -4.319
  -147.940	   -28.184
  -118.427	    -5.831
  -149.692	   -20.719
  -121.107	   -41.940
  -133.253	   -13.952
  -124.173	    -5.458
  -137.267	   -24.655
  -124.113	   -35.392
  -160.423	   -22.149
  -142.072	   -45.175
  -141.622	   -21.439
  -144.734	   -34.982
  -123.315	   -27.889
  -155.733	   -14.071
  -152.573	     2.291
  -122.424	    -7.652
  -129.532	    -6.342
  -138.170	   -11.216
  -144.936	   -25.212
  -122.390	   -23.858
  -143.924	   -18.978
  -146.250	   -17.312
  -131.002	   -44.888
  -140.704	   -16.107
  -140.489	   -26.230
  -136.752	   -23.031
  -129.297	     1.643
  -122.483	   -22.692
  -138.176	   -20.508
  -146.735	   -16.586
  -128.876	   -34.012
  -125.988	   -19.874
  -132.383	    -2.250
  -147.707	    -0.474
  -129.756	   -31.957
  -154.703	    -1.252
  -133.804	   -16.204
  -126.113	   -37.380
  -131.969	   -10.055
  -143.404	    -3.691
  -137.548	   -25.758
  -137.369	   -10.960
  -127.876	   -14.571
  -115.662	   -15.733
  -132.295	   -14.125
  -144.757	     4.311
  -126.253	   -12.662
  -127.266	   -10.815
  -123.717	   -20.918
  -126.955	   -30.576
  -128.960	   -10.609
  -118.815	   -12.758
  -129.814	    -4.051
  -132.391	   -11.309
  -149.478	   -13.569
  -142.406	   -12.680
  -137.945	     1.149
  -133.509	   -20.166
  -116.975	   -27.432
  -150.816	   -22.574
  -134.150	   -14.590
  -145.792	   -28.324
  -143.024	   -17.913
  -125.731	   -13.628
  -130.431	     5.072
  -137.258	     5.630
  -143.727	     0.646
  -146.615	   -14.777
  -130.820	   -34.957
  -133.714	   -26.936
  -146.134	   -25.871
  -107.178	   -12.293
  -133.953	   -28.051
  -110.789	   -19.518
  -140.438	   -15.880
  -135.244	   -16.557
  -135.038	     5.670
  -138.802	    11.262
  -121.573	    -3.278
  -143.506	     1.657
  -135.480	   -24.082
  -140.207	   -32.917
  -132.073	    -7.243
  -135.928	   -21.634
  -149.379	   -29.840
  -132.787	    -9.135
  -143.933	   -13.857
  -144.343	   -32.409
  -145.354	   -29.374
  -140.773	   -33.855
  -122.979	   -33.199
  -139.844	   -20.755
  -128.507	    -1.689
  -140.915	   -12.823
  -133.832	   -30.940
  -144.982	   -16.800
  -133.813	   -10.810
  -118.488	   -21.404
  -142.560	   -16.177
  -141.204	   -16.004
  -145.972	   -18.293
  -130.819	    13.644
  -133.196	    -5.346
  -132.869	    -6.488
  -141.548	   -22.691
  -132.924	   -21.245
  -136.110	    -2.337
  -120.074	   -29.472
  -128.147	   -10.704
  -140.892	   -25.226
  -140.866	   -22.165
  -157.291	   -31.598
  -119.210	   -24.574
  -141.948	   -15.933
  -116.730	   -12.616
  -138.529	   -27.312
  -127.306	   -21.814
  -143.854	   -29.098
  -134.271	    -6.286
  -139.120	   -22.317
  -137.548	   -24.024
  -153.408	   -31.720
  -154.370	   -26.902
  -144.214	   -30.460
  -114.676	    -4.818
  -131.139	    -8.792
  -147.175	    -2.951
  -120.412	     8.213
  -127.544	   -20.291
  -130.153	   -19.777
  -135.893	    -0.973
  -148.563	     2.496
  -154.616	   -10.972
  -131.672	   -12.655
  -143.244	   -37.154
  -155.429	   -17.653
  -142.754	    -1.327
  -135.902	    -6.399
  -142.167	   -24.579
  -137.521	   -14.991
  -135.956	   -20.914
  -144.266	    -8.648
  -127.229	   -34.341
  -122.975	   -38.076
  -147.776	   -23.375
  -139.547	   -18.788
  -130.450	   -23.803
  -134.311	   -17.188
  -152.320	   -38.039
  -144.118	   -26.402
  -150.969	   -18.857
  -135.154	   -19.455
  -143.286	    -8.571
   -99.937	   -14.784
  -141.989	   -34.972
  -130.282	   -40.904
  -152.585	   -14.636
  -139.865	   -25.984
  -149.002	   -12.073
  -154.605	   -34.443
  -125.206	    -9.251
  -158.214	   -13.942
  -138.467	   -18.282
  -132.592	   -13.758
  -141.420	   -21.923
  -118.582	   -19.797
  -142.921	    -5.504
  -144.017	   -28.797
  -149.942	   -13.187
  -139.158	   -33.154
  -127.185	   -16.071
  -127.160	   -14.050
  -149.553	   -19.156
  -128.415	   -37.375
  -116.729	   -18.188
  -154.278	   -28.982
  -136.530	    -9.134
  -134.199	   -33.312
  -132.489	   -29.563
  -150.446	     5.667
  -138.059	   -18.295
  -153.829	    -3.479
  -142.414	    -2.097
  -117.773	   -30.418
  -146.654	   -30.535
  -138.123	    -8.587
  -142.551	   -23.994
  -148.036	    -3.625
  -137.530	   -12.674
  -153.254	   -21.830
  -141.648	    -1.289
  -142.587	    -2.889
  -143.584	    -4.827
  -143.421	   -28.550
  -125.907	   -11.661
  -125.735	   -19.598
  -146.783	   -21.880
  -110.705	   -25.547
  -112.804	   -17.423
  -111.034	    -6.222
  -138.406	   -46.762
  -138.606	   -30.240
  -132.461	    -1.458
  -133.700	   -16.817
  -137.708	   -28.860
  -150.494	    11.637
  -137.980	     0.215
  -129.784	     1.602
  -121.056	    -4.891
  -120.728	    -0.392
  -114.915	   -20.052
  -139.042	   -15.035
  -153.194	    -5.061
  -158.300	   -16.420
  -143.242	     0.414
  -138.360	   -12.007
  -133.712	    -0.866
  -124.976	    -0.079
  -111.418	     1.936
  -145.611	   -29.460
  -141.785	   -38.487
  -131.440	   -25.895
  -139.953	   -11.959
  -135.998	    -5.914
   -96.470	   -17.125
  -140.366	   -15.644
  -133.486	    -8.793
  -134.303	    12.850
  -121.708	    -3.558
  -133.404	    -6.167
  -148.902	   -32.504
   -94.537	   -24.549
  -113.083	   -14.927
  -114.295	    -9.363
  -123.545	     8.817
  -118.353	   -21.830
  -129.098	   -14.660
  -140.499	   -18.659
  -125.083	     1.151
  -145.765	   -17.297
  -138.341	   -11.152
  -143.578	     4.929
  -136.933	    -2.440
  -147.645	   -37.144
  -151.715	   -26.097
  -127.748	   -11.421
  -130.281	     2.731
  -139.090	    -2.514
  -130.719	   -19.903
  -136.202	   -22.092
  -153.769	   -17.212
  -155.371	   -19.385
  -135.444	   -19.374
  -157.387	   -20.405
  -153.674	   -31.211
  -130.824	   -12.710
  -147.101	     4.593
  -121.027	   -25.034
  -136.459	   -25.662
  -140.125	   -32.089
  -148.254	   -31.846
  -136.583	   -12.301
  -128.513	   -36.037
  -132.589	   -21.252
  -145.083	   -22.478
  -157.863	   -32.448
  -146.407	     5.468
  -120.873	   -15.218
  -125.986	     0.706
  -144.450	    -3.231
  -137.344	    -9.377
  -128.115	    -8.035
  -111.063	   -24.988
  -125.100	    -6.796
  -153.911	   -23.973
  -144.590	   -12.811
  -133.275	    -2.153
  -133.693	   -24.418
  -142.006	    -9.334
  -138.300	   -31.792
  -118.385	   -10.392
  -140.518	   -15.115
  -149.514	   -13.612
  -140.055	   -26.471
  -149.901	   -11.965
  -121.522	   -16.392
  -113.896	   -12.868
   -96.024	   -13.278
  -126.608	   -15.612
  -132.374	   -12.814
  -138.073	     0.661
  -134.507	    -2.015
  -125.599	   -29.998
  -145.304	   -20.553
  -132.522	    -8.199
  -137.728	   -16.003
  -147.956	   -41.015
  -143.311	    -9.512
  -137.778	    -7.156
  -133.602	   -12.420
  -149.715	   -18.866
  -137.710	    -7.391
  -130.713	     3.065
  -127.691	   -16.086
  -152.014	    -3.497
  -130.337	    -9.567
  -105.964	   -15.972
  -112.507	   -10.660
  -122.378	   -23.700
  -124.061	   -11.960
  -150.976	    -8.915
  -132.228	   -16.809
  -138.100	   -12.063
  -109.266	   -20.195
  -142.759	     1.794
  -112.601	    -1.488
  -139.164	    -4.875
  -141.805	    -6.505
  -124.123	   -14.954
  -128.403	   -19.539
  -117.353	    -4.186
  -116.764	   -16.921
  -135.167	    -8.750
  -133.453	     0.900
  -128.753	    -5.975
  -121.856	    -8.713
  -145.432	    -8.093
  -137.187	   -27.275
  -141.979	   -23.517
   -97.644	   -17.812
  -141.612	    -8.976
  -136.364	   -16.534
  -161.013	   -36.665
  -136.474	     8.358
  -138.561	     7.799
  -140.244	   -12.520
  -113.281	    -1.484
  -152.771	   -13.080
  -133.705	   -12.575
  -135.600	    -0.178
  -131.700	   -21.674
  -139.886	   -14.976
  -139.107	   -29.908
  -109.714	   -20.115
  -126.210	   -17.226
  -140.642	   -15.565
  -141.420	    -3.371
  -143.413	    -5.097
  -144.854	    -7.445
  -138.833	   -21.193
  -127.769	   -32.707
  -135.916	   -17.972
  -148.481	   -18.774
  -150.056	   -36.291
  -144.081	   -11.871
  -144.557	   -30.605
  -140.950	    17.975
  -132.897	    -9.692
  -134.100	   -20.470
  -135.784	    -5.273
  -126.986	   -28.374
  -130.020	   -22.177
  -137.023	   -16.435
  -112.316	    -8.079
  -131.211	   -17.192
  -127.136	    -2.316
  -119.402	   -19.075
  -141.283	   -24.913
  -133.416	   -16.155
  -139.440	   -20.789
  -135.623	   -25.351
  -136.034	   -28.084
  -132.359	   -17.567
  -132.796	   -32.804
  -137.969	   -17.933
  -139.275	   -13.225
  -121.943	   -35.142
  -129.159	   -29.503
  -141.714	   -10.847
  -154.625	   -25.364
  -146.666	   -12.729
  -135.027	   -22.026
  -136.882	     5.678
  -132.954	   -15.956
  -142.681	   -25.357
  -128.336	   -13.795
  -122.007	   -25.294
  -133.500	    -0.609
  -117.949	   -16.932
  -137.375	   -21.882
  -127.454	   -29.289
  -118.935	   -34.835
  -112.204	   -14.240
  -123.094	   -29.053
  -139.446	   -19.013
  -134.152	   -13.691
  -136.869	    -4.294
  -131.390	   -20.639
  -124.084	     3.417
  -133.383	    -6.624
  -130.818	    -8.999
  -142.971	   -17.146
  -117.567	   -24.323
  -105.877	   -28.474
  -120.282	   -15.592
  -148.041	   -12.235
  -135.175	   -19.104
  -121.847	    -0.900
  -145.781	   -18.215
  -147.333	    -4.530
