   -92.310	   122.143	    -3.179
   -81.535	   -77.885	     3.348
   -33.723	   -55.014	   -15.686
   -42.116	   -63.991	     6.790
   -53.246	   -68.969	   -14.960
   -43.073	   -66.923	   -12.570
   -51.783	   -58.324	     9.115
   -42.215	   -40.856	   -12.409
   -46.568	   -61.372	    -2.074
   -33.955	   -62.634	   -18.548
   -44.366	   -47.200	   -20.729
   -22.597	   -66.929	     5.584
   -34.063	   -90.128	    -8.179
   -37.898	   -55.767	    -3.782
   -44.401	   -50.630	    -2.449
   -37.364	   -66.597	     1.683
   -50.949	   -58.948	     1.490
   -40.705	   -65.540	   -21.009
   -37.892	   -64.872	   -20.311
   -37.986	   -81.627	    -0.824
   -65.996	   -69.999	     3.274
   -49.687	   -61.084	   -11.754
    -6.981	   -76.793	   -20.588
   -30.458	   -50.381	   -13.422
   -22.370	   -56.787	     8.069
   -44.721	   -73.449	    10.008
   -34.970	   -55.171	   -23.458
   -48.243	   -57.704	    -4.212
   -45.188	   -60.148	    -0.824
   -48.179	   -67.634	   -17.295
   -54.597	   -64.708	     1.429
   -44.838	   -72.306	     1.114
   -24.949	   -60.659	     4.738
   -39.548	   -70.847	    -1.514
   -53.945	   -58.126	     8.993
   -41.853	   -68.010	    -1.673
   -28.162	   -92.636	     6.799
   -47.495	   -60.550	   -12.172
   -34.950	   -54.359	   -13.925
   -47.148	   -64.595	    -4.778
   -46.727	   -55.130	    -3.092
   -32.489	   -68.250	    -5.164
   -51.880	   -52.733	     4.619
   -60.483	   -51.929	    10.105
   -52.675	   -59.491	    -9.262
   -32.663	   -56.345	    13.909
   -34.211	   -52.792	    -1.989
   -34.626	   -61.802	   -18.994
   -42.105	   -52.834	    -6.756
   -44.573	   -58.629	   -22.859
   -58.456	   -62.518	   -10.461
   -29.955	   -65.175	     7.688
   -34.373	   -43.665	   -11.985
   -33.904	   -72.357	    12.521
   -35.910	   -44.699	    -9.059
   -31.342	   -50.825	    -2.518
   -32.938	   -59.902	     3.730
   -23.798	   -68.878	    15.219
   -35.592	   -55.536	     4.901
   -48.990	   -91.110	    23.399
   -32.316	   -84.194	    12.574
   -39.427	   -60.800	     0.718
   -39.078	   -69.490	   -15.828
   -43.670	   -68.052	    -4.277
   -45.103	   -66.669	   -16.748
   -41.647	   -53.826	    -5.762
   -32.773	   -67.898	    -0.205
   -22.873	   -51.904	    -6.668
   -30.580	   -92.304	    -2.323
   -60.363	   -71.138	     3.633
   -56.025	   -50.675	     2.791
   -26.441	   -66.394	     2.230
   -34.996	   -40.101	   -11.300
   -50.377	   -47.821	    -0.143
   -34.999	   -66.067	     6.240
   -51.025	   -67.574	    -1.860
   -27.056	   -63.165	    -6.356
   -29.921	   -56.082	   -15.903
   -41.054	   -47.775	    -4.088
   -41.955	   -67.031	    -5.309
   -34.112	   -55.479	    -3.528
   -38.336	   -61.509	     7.649
   -54.546	   -39.029	    11.009
   -37.584	   -49.867	     2.748
   -43.217	   -64.538	    -2.111
   -28.278	   -63.913	    -5.272
   -52.270	   -54.654	     3.999
   -38.086	   -51.758	    -4.631
   -28.474	   -52.662	    -0.713
   -38.654	   -65.709	    -4.591
   -36.611	   -47.175	    -6.513
   -27.378	   -60.237	     8.032
   -24.385	   -57.408	    -9.909
   -51.698	   -57.326	     4.957
   -52.937	   -63.007	    -1.240
   -36.289	   -81.951	    -7.673
   -38.365	   -64.805	     2.722
   -33.313	   -56.356	    -6.575
   -46.544	   -60.683	     4.578
   -25.876	   -56.845	    -3.681
   -36.653	   -56.534	   -27.905
   -53.148	   -62.536	     8.873
   -43.149	   -51.555	   -15.563
   -43.281	   -56.770	    10.297
   -44.343	   -49.472	   -13.462
   -52.362	   -66.299	    -9.310
   -57.177	   -60.473	   -11.723
   -45.631	   -59.959	    -3.642
   -50.710	   -51.968	   -17.613
   -56.449	   -49.866	     6.948
   -48.158	   -67.554	     6.490
   -31.984	   -71.255	    -4.736
   -31.362	   -53.493	    -6.484
   -33.420	   -66.707	    -9.493
   -48.374	   -65.759	     3.029
   -36.587	   -58.789	   -17.845
   -49.178	   -60.422	   -10.035
   -59.805	   -59.033	    10.863
   -51.607	   -69.141	    13.906
   -29.698	   -76.414	     3.045
   -41.975	   -52.286	    -4.035
   -50.607	   -60.627	    -1.879
   -43.409	   -47.912	     4.723
   -20.132	   -70.685	    -4.315
   -48.613	   -61.760	    -1.834
   -42.813	   -47.735	   -13.119
   -46.768	   -54.148	    -9.321
   -25.666	   -66.564	   -24.841
   -49.153	   -44.706	   -14.369
   -55.502	   -54.112	    13.985
   -20.307	   -67.233	    -8.087
   -24.342	   -56.780	   -11.315
   -42.802	   -54.880	   -20.100
   -37.340	   -61.198	    -7.630
   -54.018	   -68.665	    -2.163
   -54.062	   -79.984	     8.123
   -39.575	   -58.840	   -13.012
   -36.653	   -58.841	   -14.467
   -57.492	   -55.777	    -7.001
   -41.421	   -51.576	    -6.218
   -46.730	   -69.558	     4.428
   -40.274	   -66.604	   -19.675
   -43.291	   -82.452	     1.169
   -37.444	   -58.230	   -13.193
   -51.137	   -43.213	    16.306
   -37.934	   -69.235	     8.240
   -35.133	   -62.215	     6.876
   -37.367	   -69.389	   -10.714
   -41.218	   -47.538	     8.870
   -20.538	   -61.531	     6.925
   -48.253	   -57.176	    19.500
   -42.769	   -74.972	     2.641
   -47.386	   -52.191	    -4.709
   -61.642	   -50.962	     9.515
   -29.706	   -72.261	     3.603
   -35.680	   -46.677	    -1.354
   -47.346	   -52.130	     2.830
   -44.111	   -55.131	     7.255
   -24.961	   -60.880	     5.976
   -36.325	   -72.482	   -10.229
   -48.552	   -53.339	     7.995
   -55.581	   -54.044	     6.301
   -35.717	   -58.133	    30.628
     7.926	   -81.469	    25.740
     7.224	   -81.428	    15.071
   -26.795	   -53.348	     9.413
   -52.567	   -43.439	   -12.578
   -38.612	   -50.234	    -2.012
   -21.905	   -72.594	    -4.350
   -29.468	   -65.082	   -12.703
   -39.736	   -50.992	   -10.471
   -48.139	   -56.375	    -1.229
   -41.804	   -71.349	   -16.353
   -37.783	   -64.159	    -7.197
   -35.525	   -57.899	    -3.401
   -38.196	   -51.849	   -10.237
   -37.265	   -57.423	    -5.654
   -34.762	   -49.603	    -0.395
   -40.939	   -65.734	   -24.894
   -35.692	   -66.219	    -4.487
   -50.648	   -73.722	    -4.711
   -40.289	   -56.801	   -10.408
   -40.915	   -79.523	    -5.148
   -40.297	   -64.155	   -14.490
   -43.987	   -81.718	    -5.507
   -42.823	   -62.572	   -18.375
   -66.959	   -36.989	    -5.124
   -35.335	   -88.107	   -20.476
   -39.961	   -75.861	    -1.938
   -39.951	   -59.582	    -7.919
   -49.997	   -60.174	    -9.453
   -48.213	   -45.726	    -4.810
   -32.122	   -71.525	    -2.439
   -48.126	   -69.374	   -13.801
   -30.229	   -60.673	   -26.624
   -21.732	   -71.084	   -16.337
   -46.256	   -48.495	    -2.694
   -53.614	   -76.372	   -13.505
   -46.997	   -64.466	     2.857
   -33.491	   -58.104	   -22.470
   -47.531	   -45.466	     8.176
   -44.270	   -65.110	     2.885
   -37.540	   -51.958	     4.851
   -53.287	   -46.950	     6.548
   -44.173	   -73.421	   -23.178
   -47.253	   -53.293	   -30.084
   -33.048	   -63.914	     4.731
   -39.971	   -65.786	    -3.180
   -48.005	   -55.550	     8.805
   -42.696	   -62.651	   -18.841
   -44.678	   -59.800	   -19.295
   -40.573	   -62.428	    10.824
   -24.025	   -74.892	     7.034
   -37.126	   -51.499	     4.259
   -14.435	   -66.550	    -9.433
   -43.439	   -50.588	   -10.994
   -49.861	   -79.739	     4.496
   -40.372	   -61.162	    -5.516
   -49.535	   -67.745	     6.135
   -32.677	   -71.620	    -7.336
   -42.223	   -64.198	     3.481
   -41.198	   -40.356	    -0.327
   -39.464	   -58.327	    -3.287
   -46.727	   -45.270	     0.443
   -23.097	   -62.611	    -2.446
   -60.137	   -63.591	    14.782
   -36.152	   -47.625	    -8.198
   -46.439	   -55.566	    -3.434
   -40.762	   -57.668	    -9.825
   -28.626	   -53.696	   -19.333
   -39.609	   -54.169	    -7.186
    17.971	   -84.441	     5.642
    22.518	   -85.247	    25.250
   -44.104	   -57.259	    17.248
   -62.505	   -43.011	     0.564
   -51.804	   -38.577	   -13.400
   -24.712	   -62.872	   -27.646
   -58.445	   -45.029	   -17.831
   -60.476	   -40.203	    -2.605
   -42.407	   -56.299	     6.098
   -36.299	   -56.879	     3.206
   -43.670	   -41.561	    -1.565
   -65.152	   -62.606	     2.493
   -42.261	   -44.783	    -4.076
   -57.171	   -53.392	     5.592
   -42.417	   -56.400	   -11.382
   -37.425	   -66.599	   -10.471
   -39.979	   -65.559	     7.632
   -32.825	   -65.282	    -7.119
   -41.326	   -73.485	    -7.458
   -46.204	   -67.755	   -12.208
   -48.554	   -61.061	    -0.990
   -56.518	   -46.606	    -8.089
   -37.106	   -47.165	   -16.608
   -34.151	   -55.407	    -3.720
   -52.951	   -49.089	   -14.958
   -62.267	   -55.969	   -15.076
   -43.087	   -51.615	    -4.249
   -40.860	   -51.004	   -13.380
   -53.429	   -36.363	    -4.435
   -46.060	   -49.605	    -7.410
   -47.692	   -52.489	     6.497
   -53.730	   -52.894	   -17.456
   -53.814	   -69.629	   -19.304
   -41.990	   -51.453	     3.965
   -41.683	   -47.518	     1.693
   -29.595	   -20.371	   -16.853
   -20.948	   -61.521	   -13.091
   -42.984	   -50.716	    19.061
   -34.969	   -48.497	    -3.425
   -26.545	   -82.620	    -3.400
   -43.235	   -56.637	   -23.408
   -37.565	   -65.745	   -27.684
   -38.445	   -46.120	   -11.651
   -26.427	   -62.907	    -7.113
   -33.168	   -84.468	   -14.296
   -26.012	   -83.179	    -3.460
   -37.927	   -65.123	   -15.285
   -52.420	   -59.341	    -1.536
   -35.951	   -61.353	    -5.212
   -54.402	   -54.189	    11.121
   -42.593	   -50.862	    15.826
   -46.729	   -50.000	    -5.344
    -8.092	   -56.247	    -0.904
   -21.134	   -77.498	    -6.229
   -34.660	   -59.620	    12.693
   -18.221	   -72.416	    -4.030
   -13.547	   -67.236	     5.027
   -32.347	   -58.379	     1.037
   -44.591	   -63.557	     4.237
   -34.064	   -47.630	   -15.737
   -56.753	   -58.882	    -4.323
   -53.111	   -65.182	     5.434
   -46.850	   -66.474	    -4.981
   -42.257	   -47.092	    -2.682
   -43.486	   -54.877	    -6.567
   -35.592	   -76.282	   -13.464
   -54.488	   -55.750	    -3.155
   -56.406	   -67.208	    -0.321
   -50.445	   -75.247	    -5.865
   -44.851	   -62.002	     2.261
   -59.907	   -57.726	     4.506
   -39.544	   -36.087	    10.055
   -44.920	   -55.431	    -3.968
   -45.328	   -52.399	   -14.159
   -55.365	   -67.300	     0.860
   -41.381	   -60.412	   -14.009
   -49.263	   -66.265	    -5.433
   -35.210	   -49.587	   -12.212
   -54.417	   -67.500	    -1.910
   -32.895	   -65.926	    -3.823
   -56.474	   -59.366	    -3.003
   -57.401	   -75.935	    16.242
   -49.171	   -62.373	    -1.742
   -49.610	   -71.313	    -4.945
   -49.888	   -69.075	   -10.392
   -43.719	   -59.810	    -3.724
   -35.577	   -76.781	    -6.707
   -36.490	   -43.644	   -19.571
   -34.311	   -80.806	   -10.413
   -50.569	   -49.206	    -6.359
   -43.032	   -60.511	    -7.810
   -34.774	   -50.437	   -14.162
   -45.128	   -47.701	    -1.603
   -44.855	   -62.385	    -1.614
   -47.314	   -53.272	    -3.253
   -50.131	   -66.438	     7.772
   -53.117	   -55.789	    13.938
   -31.251	   -49.119	    10.224
   -40.967	   -51.979	     3.624
   -18.363	   -53.454	   -15.229
   -47.546	   -51.563	    23.363
   -42.258	   -64.384	    -1.468
   -17.463	   -84.612	     2.625
   -29.197	   -45.446	    11.138
   -36.717	   -69.933	     8.656
   -39.112	   -55.879	   -20.352
   -56.241	   -53.349	     3.508
   -38.769	   -73.968	     8.100
   -41.169	   -63.735	     6.142
   -61.345	   -64.417	    23.977
   -18.477	   -78.183	   -18.952
   -49.585	   -68.502	     1.600
   -48.465	   -64.552	    -5.763
   -36.013	   -65.833	     2.028
   -38.323	   -50.560	   -14.902
   -37.160	   -60.119	    23.794
   -29.938	   -51.086	    -1.536
   -57.872	   -47.055	     2.363
   -73.100	   -59.765	     9.385
   -43.880	   -57.616	     8.091
   -33.225	   -56.267	    -3.455
   -46.762	   -43.644	    -6.698
   -46.701	   -71.789	    -6.259
   -42.288	   -37.547	    -2.796
   -29.323	   -42.003	    -6.950
   -31.646	   -67.936	    -4.749
   -40.517	   -49.417	     1.120
   -39.164	   -40.072	    14.221
   -32.877	   -57.537	    -4.585
   -42.630	   -49.003	    22.031
   -28.700	   -70.692	    -6.506
   -43.975	   -63.730	    21.778
   -42.271	   -39.128	    -3.296
   -32.162	   -55.471	   -17.136
   -30.431	   -55.861	     2.920
   -31.176	   -64.982	    -3.345
   -47.348	   -64.010	     7.234
   -37.804	   -66.638	   -14.273
   -35.433	   -67.440	   -21.250
   -62.824	   -54.533	   -12.599
   -67.656	   -55.855	   -10.680
   -33.481	   -73.067	     0.224
   -47.144	   -72.741	    -9.692
   -39.398	   -53.834	    -1.074
   -49.245	   -65.788	    -2.912
   -25.891	   -76.350	    -9.070
   -17.046	   -71.531	    -3.506
   -62.440	   -74.094	    16.378
   -61.226	   -50.869	    -3.561
   -57.059	   -48.946	     7.245
   -50.601	   -58.480	    -3.164
   -49.279	   -59.833	   -21.732
   -33.799	   -48.710	    -2.322
   -50.314	   -46.029	     0.437
   -42.450	   -56.123	   -13.342
   -48.761	   -49.095	   -13.059
   -59.354	   -68.302	     3.134
   -51.880	   -62.693	    -8.617
   -40.394	   -70.733	    -1.568
   -18.092	   -79.205	     4.726
   -39.385	   -56.668	     6.782
   -31.309	   -72.010	   -16.759
   -44.358	   -58.208	    -7.621
   -35.331	   -49.831	    -6.582
   -45.330	   -50.545	     4.088
   -49.349	   -54.331	     3.927
   -53.593	   -67.437	    -9.540
   -31.105	   -75.011	   -17.435
   -47.628	   -44.389	   -32.251
   -54.948	   -53.334	    -3.348
   -35.778	   -82.376	    -7.519
   -32.641	   -51.671	    12.727
   -20.932	   -51.864	   -19.769
   -28.351	   -61.284	    -6.981
   -55.451	   -67.427	     5.895
   -55.916	   -48.720	    13.334
   -60.624	   -66.346	    -3.080
   -44.540	   -41.839	     0.045
   -58.743	   -62.854	    12.624
   -19.839	   -90.313	   -21.555
   -53.550	   -65.454	    13.535
   -45.952	   -48.996	   -13.950
   -52.069	   -53.790	    -2.092
   -56.356	   -33.525	     2.045
   -56.550	   -46.422	    -9.064
   -49.334	   -56.457	     1.020
   -36.175	   -52.812	     2.008
   -48.838	   -39.023	    -8.005
   -41.075	   -55.833	    -2.893
   -39.368	   -42.913	    -6.230
   -45.901	   -61.921	    10.191
   -56.325	   -52.844	    19.002
   -16.750	   -60.765	    15.742
   -43.246	   -61.374	     5.686
   -32.016	   -72.316	   -23.387
   -38.603	   -57.280	     9.483
   -30.284	   -58.368	    -6.113
   -38.046	   -58.194	     1.289
   -40.291	   -62.247	    -0.990
   -36.935	   -50.333	    -3.489
   -19.154	   -68.702	     3.133
   -56.951	   -56.529	     5.871
   -38.775	   -63.752	    11.838
   -49.234	   -68.611	    -7.261
   -56.349	   -49.607	     3.178
   -21.410	   -55.801	   -18.881
   -46.117	   -66.685	     1.485
   -37.469	   -64.451	    -8.263
   -38.394	   -80.664	    -1.308
   -41.987	   -50.232	   -12.525
   -44.278	   -60.201	   -13.082
   -46.499	   -58.142	   -13.101
   -48.361	   -54.320	     5.875
   -50.689	   -76.652	    -7.929
   -39.769	   -61.626	    10.408
   -41.307	   -57.012	     2.603
   -61.040	   -38.355	    10.948
   -46.844	   -59.206	   -10.934
   -53.529	   -57.041	    -0.414
   -41.310	   -64.237	     4.238
   -62.652	   -61.658	     2.380
   -37.582	   -51.208	     1.157
   -59.414	   -54.218	     0.968
   -56.876	   -60.622	    10.706
   -29.274	   -65.785	     3.797
   -41.614	   -60.680	    18.490
   -35.398	   -65.043	     3.655
   -57.583	   -58.979	   -10.413
   -54.171	   -65.715	     0.445
   -55.645	   -68.239	     0.561
   -41.671	   -46.014	     6.576
   -40.696	   -56.172	     0.135
   -58.980	   -70.143	     5.031
   -48.176	   -56.345	    -3.384
   -28.948	   -68.619	   -11.102
   -41.350	   -69.726	     9.716
   -20.810	   -58.018	   -14.874
   -49.422	   -48.960	    -3.070
   -43.199	   -65.339	    -7.094
   -29.940	   -58.385	   -19.351
   -49.326	   -43.555	   -10.679
   -38.997	   -49.866	    -5.070
   -39.905	   -57.053	    18.515
   -37.581	   -55.555	    -4.642
   -50.289	   -50.502	    17.716
   -44.338	   -67.250	     1.872
   -33.292	   -71.038	     7.874
   -55.270	   -42.959	    11.088
   -43.196	   -44.899	    18.573
   -61.338	   -49.986	    -7.575
   -45.448	   -53.380	   -10.722
   -55.224	   -35.634	   -13.246
   -32.247	   -54.845	    -6.474
   -21.414	   -64.635	    15.251
   -24.937	   -56.048	    -9.053
   -37.680	   -58.061	     5.309
   -41.705	   -53.704	     6.036
   -39.397	   -59.064	    -4.232
   -35.940	   -73.413	    -3.785
   -32.396	   -75.970	    -5.413
   -62.693	   -72.581	    14.461
   -50.433	   -75.944	    -5.195
   -40.462	   -64.830	    -1.372
   -47.198	   -57.202	   -10.873
   -54.631	   -45.204	     7.039
   -33.088	   -53.183	    -7.071
   -52.651	   -77.131	    -8.950
   -49.778	   -61.996	   -27.289
   -22.513	   -66.374	    -5.772
   -44.607	   -60.177	    -3.188
   -37.033	   -73.749	   -21.274
   -39.047	   -67.707	    -7.405
   -27.812	   -58.671	   -11.260
   -46.923	   -48.555	    -3.637
   -30.403	   -62.033	     3.177
   -36.310	   -72.663	     6.231
   -50.331	   -56.181	   -16.841
   -14.751	   -58.694	   -24.826
   -28.660	   -47.647	     3.885
   -25.396	   -58.239	    -4.387
   -28.805	   -44.622	   -27.248
   -51.145	   -59.004	   -12.131
   -44.558	   -52.598	     2.815
   -66.712	   -47.323	    -4.424
   -31.774	   -54.077	     2.956
   -22.593	   -62.675	   -16.419
   -36.827	   -49.966	   -13.428
   -58.453	   -54.650	     9.880
   -45.667	   -56.922	    11.923
   -34.361	   -74.758	    -3.260
   -42.107	   -58.382	    -3.357
   -27.252	   -56.090	     4.700
   -37.963	   -51.964	   -11.503
   -63.187	   -59.172	    12.421
   -30.419	   -75.857	    -4.283
   -42.082	   -71.672	    -7.320
   -30.879	   -43.370	    -6.889
   -33.956	   -61.529	     1.246
   -35.310	   -48.991	    -0.973
   -26.376	   -64.632	    19.016
   -34.247	   -53.940	    -8.563
   -35.671	   -65.477	     4.432
   -22.479	   -57.132	     0.803
   -25.279	   -73.974	     4.923
   -51.832	   -46.546	    12.588
   -36.586	   -62.586	    -2.435
   -50.147	   -56.570	    -1.764
   -40.188	   -74.950	    -8.059
   -50.963	   -46.593	    -8.795
   -49.202	   -56.847	     2.332
   -47.242	   -49.800	     2.149
   -21.194	   -74.633	    -2.930
   -31.915	   -64.821	    16.673
   -41.738	   -54.701	    -2.936
   -56.193	   -53.327	    -5.854
   -48.037	   -77.908	     9.118
   -50.774	   -62.261	     1.145
   -40.844	   -49.542	     0.887
   -46.174	   -64.435	    -5.656
   -47.365	   -64.126	     3.758
   -59.272	   -50.764	     3.251
   -54.920	   -58.407	     7.406
   -45.692	   -77.510	    -2.378
   -24.993	   -75.204	   -10.368
   -54.352	   -47.381	     5.757
   -39.435	   -65.296	     1.995
   -30.618	   -43.410	    -8.576
   -27.464	   -47.173	    -4.503
   -61.513	   -50.265	     8.050
   -35.533	   -38.095	    -1.704
   -44.949	   -60.358	     3.239
   -38.003	   -52.768	     0.472
   -33.316	   -55.325	    16.837
   -40.912	   -72.688	     3.890
   -30.286	   -57.942	   -13.846
   -32.619	   -52.875	    14.310
   -56.790	   -60.153	     1.421
   -32.870	   -58.075	   -19.025
   -36.181	   -48.467	   -12.750
   -50.551	   -51.326	    -0.285
   -37.606	   -62.154	   -25.859
   -55.633	   -63.615	    -9.574
   -36.914	   -48.886	     2.973
   -49.106	   -43.439	     1.899
   -29.442	   -50.631	     6.606
   -40.994	   -43.067	    -7.939
   -41.370	   -47.310	    19.893
   -48.132	   -66.113	     7.020
   -33.297	   -58.873	    -6.316
   -57.361	   -67.282	     4.011
   -21.450	   -61.301	    -6.924
   -46.864	   -54.179	    -7.314
   -39.773	   -58.063	    -1.436
   -36.430	   -50.462	     5.291
   -45.802	   -50.047	     1.642
   -51.549	   -55.729	   -10.677
   -63.830	   -60.613	   -19.291
   -38.714	   -63.912	     0.397
   -37.431	   -60.001	    -0.644
   -52.180	   -45.852	    -1.454
   -56.099	   -47.922	    12.749
   -43.105	   -54.213	     1.435
   -25.296	   -86.470	    -0.745
   -36.732	   -60.969	     6.227
   -18.361	   -64.096	    -6.061
   -41.411	   -55.645	    -4.060
   -36.648	   -58.206	     4.686
   -40.154	   -62.752	    -4.667
   -53.972	   -61.283	    -6.470
   -63.225	   -64.973	     8.099
   -44.549	   -81.006	     1.193
   -51.048	   -59.491	     3.073
   -51.809	   -74.653	   -10.235
   -41.629	   -74.150	   -17.991
   -62.142	   -49.674	    -2.318
   -35.947	   -57.682	   -15.509
   -41.923	   -55.752	   -13.399
   -33.325	   -69.756	    -0.797
   -59.664	   -33.099	     9.070
   -52.797	   -53.027	    10.466
   -39.760	   -44.365	    -4.912
   -26.524	   -68.567	   -13.877
   -61.956	   -49.733	    10.057
   -19.788	   -58.356	    -3.951
   -31.710	   -54.141	   -12.438
   -21.582	   -60.400	    -6.668
   -46.555	   -60.671	   -19.270
   -53.498	   -71.665	    -5.072
   -30.976	   -61.569	   -11.147
   -27.424	   -62.219	     6.285
   -51.455	   -79.671	     4.212
   -51.830	   -59.572	    -1.615
   -41.764	   -46.077	   -11.905
   -63.111	   -39.642	    -1.297
   -40.689	   -61.025	    -1.995
   -35.948	   -50.046	     2.343
   -37.990	   -70.523	     2.207
   -29.309	   -60.216	    -2.354
   -33.455	   -58.972	   -11.857
   -28.034	   -65.379	    -2.410
   -57.721	   -84.502	    -2.845
   -50.178	   -84.642	    -8.019
   -44.030	   -42.572	    -9.599
   -54.132	   -43.948	     2.485
   -31.444	   -63.480	   -15.430
   -69.366	   -44.795	    -3.206
   -44.845	   -47.160	    -0.051
   -37.215	   -56.256	    -0.514
   -43.095	   -63.164	     3.229
   -46.503	   -35.791	   -15.360
   -20.346	   -63.318	   -16.979
   -44.620	   -33.746	    -2.833
   -41.592	   -57.913	   -12.225
   -44.912	   -56.270	    -0.055
   -36.986	   -66.702	   -14.851
   -45.194	   -54.535	   -11.962
   -68.043	   -51.386	     4.963
   -54.115	   -50.821	    31.136
   -48.611	   -55.344	    -1.467
   -53.558	   -45.469	     4.896
   -58.513	   -61.522	     4.661
   -48.796	   -52.259	    -3.103
   -49.094	   -58.200	     5.566
   -52.551	   -73.772	     6.429
   -57.373	   -64.816	     7.606
   -50.730	   -75.012	    -1.848
   -27.671	   -67.441	   -15.716
   -31.700	   -64.584	     0.086
   -45.875	   -44.758	    -0.872
   -34.947	   -51.743	    -8.286
   -41.128	   -54.780	   -12.688
   -41.101	   -57.157	     0.288
   -38.303	   -55.586	     3.948
   -39.651	   -62.743	    -4.440
   -28.519	   -62.286	   -27.786
   -66.750	   -60.608	    14.646
   -63.465	   -61.982	    -6.592
   -48.326	   -60.983	   -28.603
   -49.142	   -49.249	   -11.323
   -40.030	   -62.953	    -3.154
   -35.957	   -65.520	   -11.632
    -8.398	   -67.904	     4.857
   -17.360	   -84.899	     2.539
   -32.465	   -68.533	     2.259
   -41.773	   -49.850	    12.159
   -52.878	   -53.323	    -2.188
   -25.338	   -46.265	   -12.852
   -39.857	   -43.472	    -5.767
   -49.422	   -76.490	    -5.286
   -53.990	   -63.270	    -2.445
   -45.713	   -56.326	    18.973
   -45.957	   -56.447	     2.662
   -28.971	   -66.868	    -2.059
   -50.699	   -58.865	    22.807
   -37.043	   -71.522	    -7.454
   -62.443	   -65.981	    -4.400
   -38.788	   -49.167	   -22.370
   -43.574	   -48.215	    -6.727
   -39.031	   -55.855	    -7.276
   -52.423	   -54.313	   -20.020
   -51.858	   -90.900	    -7.783
   -43.274	   -54.808	     8.873
   -43.090	   -49.041	   -10.017
   -38.575	   -60.523	     0.492
   -35.714	   -64.484	   -14.185
   -60.445	   -65.398	    -9.733
   -32.667	   -71.999	    -2.971
   -27.679	   -58.879	   -15.304
   -15.824	   -80.987	    -0.022
   -30.760	   -64.796	   -12.230
   -66.845	   -72.287	    10.092
   -37.264	   -75.112	   -20.791
   -32.493	   -56.034	   -25.349
   -46.005	   -51.794	   -22.469
   -41.448	   -63.369	    -7.445
   -30.160	   -74.493	   -14.823
   -42.275	   -64.233	    -3.080
   -28.247	   -56.846	     6.379
   -36.098	   -56.930	     1.789
   -48.839	   -59.815	     7.032
   -26.561	   -71.180	    -1.125
   -33.297	   -59.056	     4.418
   -41.538	   -58.021	    -1.398
   -39.053	   -58.735	     4.213
   -47.939	   -45.583	     8.318
   -49.182	   -67.918	     1.070
   -37.169	   -48.599	    30.490
   -22.773	   -49.034	   -11.262
   -36.430	   -57.183	    -1.772
   -54.081	   -52.401	     9.657
   -26.518	   -83.404	     3.328
   -41.200	   -67.227	    -7.045
   -28.519	   -54.795	    -7.932
   -59.759	   -57.174	     0.620
   -29.897	   -53.622	   -14.681
   -41.761	   -53.329	    -8.425
   -41.755	   -57.363	    -9.394
   -64.340	   -62.767	     6.686
   -44.345	   -58.275	   -14.815
   -38.144	   -56.704	    -9.588
   -60.188	   -67.870	   -11.531
   -41.213	   -58.278	   -22.802
   -42.660	   -71.342	     3.696
   -43.368	   -58.559	   -20.727
   -31.498	   -54.678	   -14.300
   -37.441	   -70.598	     9.757
   -60.526	   -71.073	     5.290
   -38.193	   -73.490	   -14.794
   -45.002	   -64.490	    -6.644
   -48.937	   -60.504	   -24.252
   -29.252	   -67.473	    -6.639
   -41.465	   -74.922	    -2.667
   -20.517	   -72.771	    -6.927
   -45.137	   -59.736	   -18.683
   -32.766	   -65.100	     1.223
   -53.815	   -48.543	     0.995
   -48.208	   -56.036	   -14.038
   -41.855	   -49.729	    -6.047
   -45.080	   -58.722	     6.169
   -40.040	   -51.130	   -12.805
   -48.043	   -51.353	    -5.687
   -41.303	   -55.888	    -8.409
   -37.236	   -58.895	    -9.611
   -50.141	   -66.835	     2.140
   -35.025	   -48.529	     1.953
   -34.845	   -50.394	     8.684
   -36.812	   -55.277	   -12.721
   -41.362	   -55.057	    14.440
   -35.429	   -46.586	     4.154
   -53.965	   -51.909	     7.646
   -38.923	   -61.009	    19.729
   -26.762	   -63.516	    -6.571
   -31.230	   -74.419	   -27.201
   -59.138	   -37.535	    23.831
   -29.101	   -59.645	    -2.453
   -35.166	   -68.833	     5.920
   -34.433	   -60.088	    13.836
   -30.234	   -63.207	    17.435
   -43.729	   -60.750	    -1.832
   -41.681	   -61.065	     1.083
   -28.917	   -56.180	    -2.392
   -53.164	   -58.116	    19.310
   -51.907	   -58.306	     2.310
   -29.833	   -77.514	    -1.814
   -28.055	   -63.097	    -1.179
   -46.097	   -45.415	    -4.689
   -46.621	   -49.463	   -11.197
   -45.417	   -70.396	     7.372
   -24.097	   -71.153	     1.160
   -31.518	   -56.911	     9.659
   -43.321	   -69.078	    13.668
   -39.356	   -69.860	    24.751
   -30.609	   -64.580	    -5.068
   -32.442	   -91.958	     8.120
   -38.696	   -72.475	    -0.980
   -61.378	   -56.755	     5.204
   -37.903	   -61.966	     5.104
   -38.712	   -62.309	     9.996
   -49.864	   -48.785	   -10.792
   -56.660	   -70.018	    -6.914
   -16.669	   -65.529	   -26.239
   -48.424	   -60.752	     9.600
   -53.160	   -53.419	     6.446
   -30.706	   -52.510	   -18.275
   -38.300	   -57.317	    -9.382
   -56.349	   -65.241	     0.318
   -43.022	   -60.673	   -33.397
   -46.464	   -58.541	   -15.077
   -50.082	   -42.302	     7.558
   -44.031	   -66.055	   -17.886
   -45.109	   -49.090	   -13.369
   -38.550	   -54.242	    -1.482
   -40.557	   -44.904	    -1.752
   -28.001	   -58.626	   -15.076
   -12.220	   -59.101	   -20.519
   -34.604	   -65.731	    -0.483
   -25.860	   -67.342	    -5.224
   -15.731	   -87.511	    -0.450
   -42.229	   -67.126	   -14.651
   -45.877	   -59.762	    -5.780
   -62.463	   -63.003	     4.161
   -54.206	   -51.991	    -2.304
   -34.806	   -76.129	     2.154
   -29.373	   -69.004	     8.740
   -33.567	   -71.432	    -2.213
   -28.233	   -60.487	   -14.117
   -32.999	   -72.010	     1.338
   -32.336	   -63.961	   -16.801
   -53.924	   -52.672	    -2.064
   -52.658	   -55.618	    -2.348
   -41.209	   -52.949	     2.231
   -14.132	   -89.766	    -0.491
   -37.658	   -49.340	    11.949
   -52.145	   -77.001	    -0.512
   -44.153	   -57.751	    -4.748
   -32.840	   -48.954	   -22.611
   -31.404	   -67.942	   -10.031
   -40.811	   -52.984	   -18.642
   -54.604	   -47.696	    -3.197
   -47.685	   -43.648	    -2.415
   -41.328	   -67.690	    -1.041
   -64.367	   -64.359	    10.993
   -35.280	   -73.232	     5.197
   -44.302	   -72.414	   -14.302
   -46.573	   -70.742	     2.343
   -46.172	   -65.589	    -8.154
   -47.052	   -64.881	    -2.601
   -35.058	   -63.333	    -5.649
   -58.374	   -48.419	     5.598
   -51.487	   -63.800	     3.499
   -33.586	   -50.526	   -20.433
   -39.869	   -58.407	   -14.969
   -53.813	   -33.600	     5.381
   -56.074	   -35.897	    10.748
   -13.050	   -75.052	    -0.021
   -50.614	   -66.638	    -2.589
   -38.094	   -64.854	    -9.942
   -38.133	   -59.256	    -6.307
   -49.181	   -56.931	     9.186
   -47.270	   -68.104	    -4.361
   -37.881	   -57.562	   -13.107
   -44.750	   -46.871	    -7.312
   -13.854	   -92.861	   -12.051
   -50.070	   -65.292	     4.187
   -30.108	   -71.020	     5.370
   -44.320	   -72.700	   -15.216
   -30.851	   -50.810	     0.339
   -49.281	   -53.377	    -1.620
   -45.392	   -51.331	    -7.665
   -42.643	   -50.032	     8.890
   -19.322	   -78.698	    -6.731
   -56.720	   -55.809	    -6.775
   -57.067	   -53.004	   -14.126
   -52.080	   -48.957	    -1.654
   -42.346	   -59.344	    -5.525
   -58.775	   -59.810	    -4.232
   -39.744	   -59.474	   -28.018
   -52.085	   -45.970	    -1.382
   -18.053	   -76.570	    16.683
   -45.196	   -71.775	     7.153
   -53.207	   -71.417	   -23.162
   -42.292	   -59.305	     0.307
   -41.478	   -43.004	    -6.105
   -50.014	   -47.503	     5.762
   -37.222	   -60.930	   -10.222
   -45.716	   -57.535	    -3.359
   -46.202	   -62.416	    -1.785
   -31.323	   -68.663	   -14.944
   -49.310	   -57.346	    18.799
   -47.590	   -50.070	     8.720
   -39.389	   -68.765	    10.740
   -60.583	   -44.317	    17.139
   -47.376	   -58.808	    11.859
   -38.769	   -56.451	    -8.349
   -35.161	   -70.657	   -14.124
   -36.803	   -64.314	   -18.669
   -57.172	   -66.563	   -27.011
   -42.469	   -46.601	   -11.341
   -43.883	   -37.894	   -11.679
   -49.909	   -56.019	   -13.129
   -40.577	   -51.542	   -14.182
   -17.146	   -65.963	   -19.127
   -54.488	   -62.839	    -1.306
   -23.755	   -53.686	     7.143
   -35.024	   -67.570	     2.836
   -47.790	   -52.173	    -0.688
   -33.844	   -58.547	    -8.162
   -40.864	   -46.669	   -18.800
   -62.917	   -62.384	     6.724
   -47.647	   -55.833	    19.356
   -30.134	   -57.828	     9.800
   -40.586	   -57.608	     3.309
   -46.576	   -59.936	    -7.777
   -38.261	   -50.003	    -2.323
   -26.128	   -50.257	   -18.349
   -40.180	   -69.530	    -8.348
   -51.554	   -50.370	     0.626
   -34.354	   -62.969	    -2.113
   -21.516	   -57.013	    16.227
     2.915	   -63.400	     2.724
   -32.960	   -71.773	     0.690
   -48.187	   -52.722	     9.572
   -47.796	   -55.206	    13.903
   -34.871	   -60.288	     5.868
   -51.262	   -35.095	     9.334
   -47.930	   -64.496	    -5.171
   -45.249	   -45.774	    -9.748
   -42.511	   -68.790	   -19.276
   -43.413	   -53.957	     1.638
   -35.949	   -50.967	     1.648
   -50.268	   -52.736	     9.155
   -43.515	   -62.400	    -8.570
   -46.833	   -53.333	    -1.028
   -37.904	   -58.794	   -12.766
   -63.476	   -52.215	     4.854
   -46.881	   -64.069	     3.929
   -39.852	   -64.374	   -14.433
   -48.974	   -55.095	    -8.549
   -54.457	   -58.712	    -5.511
   -51.115	   -54.525	   -13.061
   -52.530	   -51.939	    -0.182
   -30.548	   -72.789	   -24.776
   -49.079	   -57.900	    -2.642
   -41.414	   -42.466	   -15.150
   -46.986	   -58.611	    -8.696
   -21.250	   -71.595	   -27.225
   -37.761	   -46.720	     8.766
   -36.566	   -58.290	    -2.279
   -48.872	   -67.863	     6.133
   -43.682	   -54.093	    -7.504
   -38.588	   -74.756	    -3.143
   -32.271	   -70.717	   -16.610
   -54.249	   -59.836	     1.917
   -40.676	   -46.171	    -4.454
   -41.282	   -61.218	     9.660
   -32.527	   -73.662	     3.140
   -29.487	   -55.526	   -11.136
   -26.507	   -59.977	    -9.161
   -24.562	   -50.917	   -16.488
   -53.150	   -65.005	     6.341
   -54.476	   -37.149	     3.577
   -46.427	   -64.229	     2.154
   -30.134	   -60.340	     5.391
   -41.337	   -57.845	    -3.758
   -46.351	   -64.544	     5.562
   -37.842	   -33.293	    -9.982
   -52.586	   -43.153	     7.216
   -38.237	   -56.522	     1.271
   -38.154	   -55.549	     0.807
   -47.789	   -70.753	    21.053
   -31.353	   -62.176	    15.083
   -38.046	   -60.278	     1.852
   -53.833	   -53.415	    14.123
   -20.294	   -70.199	    -8.988
   -57.748	   -40.434	   -15.526
   -50.030	   -75.779	   -10.038
   -28.110	   -83.812	   -22.247
   -38.193	   -60.150	     0.769
   -18.634	   -71.309	   -16.045
   -53.336	   -72.067	     0.595
   -22.149	   -41.687	   -10.902
   -39.198	   -52.894	    -8.233
   -29.186	   -44.479	   -18.548
   -48.204	   -54.312	    13.761
   -19.462	   -63.170	     4.453
   -20.078	   -53.567	   -22.748
   -31.076	   -68.904	    -9.570
   -62.899	   -66.379	   -29.044
   -50.909	   -58.260	   -22.842
   -55.307	   -61.135	   -11.233
   -35.503	   -58.818	   -10.565
   -45.925	   -57.531	    -6.141
   -34.104	   -64.984	    -5.720
   -30.677	   -74.616	   -14.977
   -46.117	   -54.825	     8.903
   -14.988	   -81.104	   -10.054
   -39.860	   -65.418	     2.315
   -35.488	   -68.660	     6.848
   -44.204	   -67.395	    14.431
     2.992	   -75.699	     1.148
   -28.257	   -69.699	     4.902
   -27.262	   -49.614	    -7.412
   -39.912	   -53.017	     2.734
   -47.028	   -58.604	     5.908
   -43.628	   -70.183	    -8.500
   -43.252	   -56.656	   -24.457
   -52.967	   -74.476	     0.523
   -40.401	   -58.939	    -8.373
   -47.579	   -70.849	    -5.511
   -56.212	   -60.450	    -4.826
