   -92.310	   122.143	    -3.179
  -142.321	    55.540	    10.052
  -128.552	    31.521	    19.778
  -161.902	    35.728	     9.986
  -114.488	    18.944	    -5.205
  -124.575	    36.132	    -2.159
  -128.673	    36.820	     6.474
  -137.919	    21.166	     9.643
  -155.973	    49.874	     6.709
  -122.534	    11.312	    13.063
  -137.144	    35.657	    -4.098
  -132.833	    14.726	    -0.970
  -134.734	    40.268	     2.182
  -115.842	    26.900	    -1.886
  -140.804	    39.236	    13.612
  -138.837	    56.238	     8.468
  -148.084	    47.674	    14.832
  -139.022	    40.998	     0.498
  -147.943	    63.411	     3.164
  -119.937	    33.984	    -0.622
  -174.214	    48.012	     3.609
  -143.082	    35.536	    -0.445
  -135.303	    38.269	    -6.984
  -143.466	    42.118	     5.376
  -147.362	    40.461	     3.153
  -115.224	    25.561	    -8.970
  -139.965	    21.763	   -11.729
  -144.116	    35.902	     5.943
  -122.850	    20.240	     7.624
  -125.285	    23.242	    -1.112
  -140.623	    30.018	    -1.759
  -145.528	    32.282	    -2.576
  -139.856	    37.367	     3.526
  -148.597	    37.071	    11.695
  -151.777	    40.366	    18.998
  -140.191	    21.112	    -5.749
  -138.048	    31.030	    -6.816
  -148.163	    40.762	    -2.307
  -136.532	    20.751	    11.076
  -128.029	    36.698	    -1.347
  -145.283	    26.794	    21.971
  -120.445	    30.992	    -4.836
  -140.153	    40.578	   -12.144
  -157.533	    23.378	     3.497
  -137.020	    36.651	   -13.276
  -134.637	    19.375	     3.999
  -107.787	    32.382	    13.275
  -120.718	    36.301	     5.918
  -137.822	    30.224	     2.166
  -102.907	    48.793	    11.769
  -141.448	    25.577	     0.773
   -98.864	    36.233	     3.687
  -128.488	     6.984	    24.388
  -114.748	     4.609	     3.355
  -136.925	    47.660	    -4.040
  -133.404	    15.960	    18.221
  -147.209	    11.805	    -7.222
  -142.741	    24.350	    -2.072
  -122.218	    30.457	     1.409
  -124.154	    33.599	     6.649
  -112.544	    35.630	    -4.662
  -156.259	    37.261	    -0.908
  -145.532	    36.262	    16.028
  -142.564	    32.673	     0.718
  -164.663	    29.964	     4.448
  -133.197	    29.877	    15.138
  -134.016	    42.005	    -3.796
  -131.192	    13.634	     9.912
  -127.202	    30.607	    -1.196
  -140.608	    19.301	     8.535
  -121.497	    51.384	    -6.507
  -128.993	    39.098	    -7.833
  -157.117	    27.239	    11.972
  -166.579	    40.574	    17.102
  -147.474	    52.587	   -14.946
  -134.917	    28.620	   -13.383
  -112.965	    52.929	     1.696
  -132.449	    20.048	    12.462
  -131.646	    24.245	    -6.845
  -121.583	    28.774	    -2.973
  -140.020	    32.565	     3.971
  -137.050	    40.769	    -5.192
  -127.279	    52.899	     5.357
  -104.355	    23.960	   -11.505
  -131.398	    20.721	    -3.317
  -132.394	    33.963	    15.254
  -159.679	    19.890	     0.434
  -125.140	    36.711	    11.396
  -140.700	    24.153	    12.192
  -124.049	    31.458	    -9.043
  -129.622	    19.301	    -3.763
  -154.428	    40.159	    13.878
  -136.595	    43.939	    11.040
  -131.234	    49.088	     3.512
  -127.148	    20.301	    14.826
  -125.894	    67.102	    24.381
  -119.682	    45.545	    19.174
  -129.469	    45.278	    12.279
  -154.635	    33.854	     7.571
  -144.149	    21.370	    11.744
  -121.664	    41.356	    11.438
  -128.413	    45.352	    14.253
  -126.062	    30.519	     7.445
  -132.156	    44.640	    11.422
  -122.539	    50.210	     1.084
  -122.885	    14.792	    -3.051
  -148.805	    48.898	   -16.348
  -141.237	    36.426	     8.054
  -138.996	    36.072	    -7.491
  -142.360	    48.134	     2.677
  -140.118	    28.047	    -0.933
  -154.171	    39.886	    10.278
  -149.711	    23.117	    10.926
  -142.044	    50.816	    -2.496
  -143.617	    50.535	     7.357
  -139.095	    33.234	     6.183
  -144.922	    41.360	     6.192
  -115.822	    18.330	     6.904
  -143.884	    25.218	     8.852
  -153.183	    23.117	   -10.049
  -126.633	    40.079	     7.444
  -146.937	    44.617	    -9.021
  -133.915	    21.694	    32.740
  -134.769	    32.380	    13.263
  -145.515	    48.152	     4.522
  -154.296	    16.657	   -11.372
  -151.556	    37.734	     0.123
  -139.038	    35.184	     0.451
  -149.210	    34.583	    13.903
  -119.446	    23.873	    -1.073
  -129.420	    37.515	     0.577
  -147.498	    32.920	    -0.164
  -137.195	    35.132	     9.308
  -141.001	    25.104	     6.838
  -137.633	    16.145	    13.200
  -144.674	    34.053	     5.501
  -144.077	    29.997	    -2.709
  -133.557	    39.229	     8.465
  -131.557	    43.549	    -0.713
  -140.535	    44.180	     4.460
  -133.647	    46.323	     7.299
  -133.146	    52.730	    -1.028
  -124.147	    29.695	    11.673
  -158.029	    61.180	    -5.088
  -153.468	    27.867	    -1.129
  -138.548	    29.272	    -1.564
  -149.837	    24.094	   -12.464
  -126.351	    36.902	   -10.676
  -143.647	    37.037	     5.170
  -137.033	    44.097	    -5.747
  -158.133	    64.422	    -9.729
  -143.371	    25.765	     4.761
  -135.221	    25.898	    14.735
  -145.343	    47.398	     0.468
  -124.350	    34.153	     2.080
  -133.018	    33.143	   -17.642
  -145.395	    33.593	   -16.329
  -131.280	    38.974	   -17.443
  -146.615	    25.573	    -6.618
  -147.088	    36.582	    11.436
  -142.166	    30.589	    -6.743
  -140.292	    18.007	     0.344
  -130.293	    11.528	    13.669
  -149.649	     5.771	    16.241
  -147.004	    17.042	     2.015
  -129.785	    26.056	     7.946
  -139.251	    35.486	     3.820
  -146.325	    34.472	   -11.035
  -137.809	    34.480	     9.918
  -113.370	    66.056	    -3.593
  -121.661	    14.831	    -0.796
  -137.618	    12.164	     6.263
  -134.953	    42.968	     1.484
  -141.869	     8.187	     6.188
  -147.211	    17.394	    -9.684
  -142.551	    44.215	    -8.597
  -144.526	    44.614	     9.110
  -148.312	    34.919	    -5.336
  -149.829	    39.153	    15.344
  -149.698	    54.523	     1.317
  -130.472	    21.695	    -1.100
  -135.650	    27.412	     0.493
  -142.032	    54.433	    13.484
  -127.153	    44.542	    20.506
  -138.839	    38.779	     3.206
  -137.379	    39.650	     0.438
  -145.068	    36.340	     2.553
  -139.800	    39.222	    -3.726
  -139.243	    40.707	     3.944
  -147.427	    35.984	    -0.097
  -144.186	    56.582	    -8.511
  -144.004	    30.983	    -2.516
  -146.353	    34.349	    10.256
  -136.618	    45.683	   -12.121
  -135.905	    37.625	     8.272
  -136.312	    42.282	     4.351
  -136.896	    27.728	   -21.653
  -130.891	    35.481	    -9.382
  -138.417	    45.921	    -2.344
  -119.009	    32.048	    -4.244
  -142.347	    27.099	    16.763
  -135.805	    38.209	    -0.365
  -142.707	    40.413	     2.155
  -135.390	    61.554	   -17.313
  -122.211	    49.088	    -7.374
  -143.677	    17.790	    17.154
  -142.977	    32.939	    -4.048
  -130.904	    44.790	    18.046
  -115.037	    24.064	    -5.889
  -143.898	    32.199	   -11.606
  -134.931	    19.074	    -8.532
  -135.741	     4.480	     8.425
  -162.148	    20.700	    -1.344
  -145.447	    13.877	    -0.815
  -137.890	    42.192	    19.532
  -122.393	    36.618	     0.089
  -146.833	    45.368	    -6.412
  -143.092	    48.840	     0.261
  -133.584	    37.328	    -2.115
  -122.046	    23.564	     1.173
  -115.934	    34.173	   -18.859
  -119.368	    44.275	    -1.374
  -151.736	    22.535	     4.787
  -131.752	    28.243	    31.697
  -122.628	    27.600	    -4.382
  -118.039	    22.676	    -7.765
  -137.131	    28.166	    19.563
  -120.850	    36.918	     6.684
  -126.612	    23.895	    15.983
  -135.230	    27.808	     5.306
  -129.546	    26.669	     0.869
  -141.820	    32.444	    13.702
  -111.995	    40.959	     6.024
  -123.146	    44.863	     6.318
  -138.358	    17.863	    -1.881
  -132.179	    37.530	    -6.460
  -145.078	    32.027	     4.172
  -119.482	    45.811	     1.480
  -126.510	    29.165	     2.113
  -138.819	    55.214	     2.746
  -153.161	    19.126	    10.154
  -131.713	     9.422	   -16.335
  -142.990	     9.046	    28.292
  -139.781	    33.301	    11.612
  -110.514	    44.597	     4.990
  -131.047	    32.060	    13.544
  -140.484	    54.885	    -2.890
  -127.207	    37.977	    13.508
  -123.616	    32.225	   -15.985
  -122.166	    53.733	     7.427
  -136.492	    50.438	    19.482
  -140.890	    40.910	    -2.751
  -128.149	    63.023	     1.397
  -135.543	    25.490	    13.427
  -137.355	    36.025	   -10.631
  -116.217	    19.398	     6.092
  -133.172	    25.602	     9.706
  -128.190	    24.299	     7.737
  -164.693	    30.366	    16.218
  -140.475	    34.667	    13.775
  -118.557	    26.509	    -2.223
  -133.495	    32.758	     7.873
  -134.282	    47.010	    -4.495
  -143.158	    48.645	     9.576
  -138.382	     8.662	     8.726
  -137.500	    36.569	     1.133
  -151.173	    26.339	     2.645
  -145.780	    44.326	     6.247
  -140.200	    23.335	     7.491
  -137.006	    21.766	     2.676
  -126.295	    29.460	     3.395
  -144.616	    36.207	    11.169
  -130.979	    12.114	     7.184
  -129.341	    28.446	    -1.775
  -134.363	    49.298	    -5.393
  -129.521	    26.742	    10.499
  -134.469	    33.392	    -1.886
  -122.613	    16.266	    18.794
  -146.176	    20.008	    17.849
  -139.312	    13.875	     9.002
  -136.253	    30.194	   -15.961
  -151.845	    24.642	    -9.301
  -130.857	    44.217	    -6.487
  -150.244	    19.681	     3.431
  -146.630	    28.782	    11.334
  -135.838	    33.389	    16.517
  -130.803	    14.193	     5.071
  -130.445	    26.550	    -3.643
  -154.181	    52.438	    20.518
  -131.758	    25.124	     6.846
  -125.112	    37.082	    -6.120
  -148.774	    45.800	   -12.877
  -115.641	    25.278	     5.455
  -137.042	    33.292	    -8.460
  -132.411	    37.143	   -14.827
  -138.287	    54.138	     3.901
  -140.777	    41.367	     6.586
  -145.689	    47.774	    -9.104
  -157.556	    53.121	    11.091
  -135.235	    15.441	    -9.144
  -141.490	    28.903	   -11.616
  -133.781	    15.595	    10.560
  -131.702	    38.533	    -5.052
  -142.403	    18.413	     0.410
  -126.492	    30.567	    -6.923
  -132.248	    46.418	    16.464
  -134.132	    34.125	     3.856
  -147.067	    36.476	     1.310
  -143.064	    24.671	    -3.380
  -138.926	    39.545	   -14.294
  -139.428	    30.458	     9.624
  -142.464	    41.593	   -16.266
  -140.557	    33.604	    10.542
  -130.864	    23.922	    -7.087
  -135.216	    43.060	    -7.171
  -144.742	    45.409	     4.203
  -134.483	    36.368	     3.994
  -136.385	    30.223	    12.818
  -137.749	    41.697	   -16.014
  -130.023	    43.205	    10.257
  -145.671	    37.363	     7.563
  -133.674	    49.562	     3.162
  -141.761	    37.778	     3.367
  -111.686	    15.991	     9.584
  -147.214	    52.538	    -5.917
  -139.161	    43.782	    -1.951
  -151.637	    23.172	    -1.942
  -149.877	    17.564	   -14.397
  -128.762	    22.565	   -16.395
  -131.271	    29.020	    19.471
  -134.924	    22.321	     8.817
  -124.889	    29.408	    -1.080
  -135.632	    16.155	    -5.232
  -140.854	    31.163	     5.760
  -150.238	    11.749	    -4.106
  -125.673	    40.674	     9.799
  -134.163	    25.174	    19.366
  -132.449	    31.115	    14.030
  -124.372	    18.476	    -2.720
  -140.565	    34.414	    14.595
  -160.362	     3.349	    -1.816
  -134.372	    42.471	   -12.582
  -132.555	    36.127	   -17.318
  -144.950	    24.642	    -7.256
  -123.627	    39.034	     5.480
  -114.546	    35.673	     2.531
  -144.328	    36.350	     6.855
  -140.360	    31.091	    -3.545
  -137.416	    33.925	    10.558
  -138.086	    20.035	     3.178
  -142.611	    22.299	    -4.966
  -129.259	    35.900	    -2.116
  -139.286	    49.054	    -6.580
  -141.520	    40.235	    -1.115
  -121.405	    22.188	    14.699
  -142.374	    23.574	    10.072
  -133.128	    25.851	     6.867
  -146.060	    33.913	     6.164
  -119.397	    32.031	     6.818
  -128.982	    42.590	     1.246
  -131.446	    24.637	    15.615
  -147.585	    39.757	     5.379
  -131.088	    25.600	     6.776
  -144.191	    31.552	     9.162
  -155.635	    39.398	    -9.741
  -131.740	    36.421	    12.970
  -130.302	    47.643	    10.751
  -145.718	    26.303	    13.452
  -144.221	    43.371	    -0.076
  -155.261	    46.250	     7.951
  -142.852	    30.689	     6.485
  -132.480	    36.743	     2.828
  -136.853	    29.133	    -7.169
  -126.307	    32.411	    -3.017
  -150.924	    47.161	    18.543
  -129.856	    44.889	    -8.551
  -141.251	    37.344	    -8.246
  -126.794	    38.469	     2.532
  -133.331	    41.262	     0.665
  -143.997	    18.320	    17.589
  -126.222	    22.736	     8.475
  -133.839	    15.147	     2.025
  -136.392	    37.439	    -0.328
  -132.581	    25.298	     3.214
  -137.549	    36.634	    -8.190
  -105.604	    38.349	     9.671
  -129.630	    37.473	   -12.055
  -155.276	    23.341	     0.144
  -135.366	    19.652	     2.740
  -139.296	    44.017	    18.092
  -145.937	    19.000	    10.793
  -149.171	    45.275	     9.874
  -130.172	    48.581	    -6.076
  -124.769	    28.143	     3.371
  -137.376	    30.610	    11.459
  -146.144	    34.478	    -3.568
  -121.779	    50.553	   -10.919
  -145.459	    43.614	    -5.532
  -149.324	    32.384	    10.314
  -138.397	    28.048	    -9.073
  -150.224	    33.453	    15.638
  -125.714	    18.156	    10.194
  -151.685	    36.560	   -12.350
  -147.563	    36.624	     3.119
  -120.805	    43.659	     8.920
  -146.192	    27.384	    15.577
  -144.310	    17.388	     9.515
  -143.698	    16.074	    -4.648
  -146.414	     9.632	    10.696
  -146.822	    17.236	   -10.641
  -130.553	    21.800	     9.661
  -145.175	    27.389	     0.361
  -147.716	    36.787	    24.263
  -142.690	    29.973	    -0.612
  -127.481	    35.728	     6.772
  -133.360	    39.767	    15.386
  -147.371	    24.841	    -7.401
  -141.408	    44.025	    -3.655
  -156.632	    28.626	     6.031
  -146.621	    40.205	     5.254
  -158.497	    33.990	     7.377
  -135.650	    59.600	    -1.872
  -145.650	    44.273	     8.378
  -146.019	    44.995	     7.835
  -115.774	    15.662	    -1.429
  -140.043	    25.293	    25.109
  -123.722	    50.359	     4.783
  -147.736	    23.813	     6.706
  -131.039	    26.200	    -3.117
  -140.800	    28.291	    -2.778
  -150.444	    35.081	    -5.504
  -149.590	    32.652	     4.471
  -123.817	    27.683	    19.533
  -119.355	    29.347	     3.139
  -107.323	    10.730	    15.650
  -117.551	    40.097	    15.610
  -119.820	    42.183	     4.414
  -127.634	    50.276	    11.962
  -131.965	    34.181	     1.033
  -149.345	    29.351	     7.827
  -139.157	    38.158	     7.467
  -138.730	    30.598	     8.810
  -133.222	    34.025	   -23.675
  -139.086	    60.131	     8.809
  -124.632	    51.808	    -7.669
  -126.683	    40.539	     4.382
  -139.865	    35.788	    -8.410
  -120.723	    26.715	   -16.558
  -153.461	    28.953	     7.809
  -117.131	    20.269	    -5.131
  -143.959	    35.820	     3.407
  -146.108	    31.402	    12.399
  -142.959	    37.967	    -0.443
  -154.055	    24.026	    -7.529
  -137.250	    41.584	    14.362
  -133.987	    44.711	     0.463
  -148.361	    51.285	    10.415
  -134.778	    38.273	    12.126
  -147.100	    23.869	    23.495
  -132.892	    39.197	    16.717
  -135.987	    30.301	     7.326
  -143.473	    33.041	   -15.851
  -134.181	    33.838	     2.004
  -133.890	    40.967	     1.207
  -147.398	    28.752	    16.208
  -127.108	    42.485	    18.966
  -126.718	    35.690	    -3.200
  -150.585	    29.039	    -0.192
  -130.468	    22.624	    -4.658
  -122.536	    24.335	    13.035
  -146.139	    33.123	    10.648
  -140.494	    29.714	    -1.970
  -141.253	    18.902	    11.881
  -127.352	     6.626	     2.746
  -142.437	    15.566	     7.776
  -145.703	    62.493	    17.152
  -153.251	    49.815	     7.053
  -137.562	    35.480	    22.113
  -140.043	    43.700	    13.427
  -124.840	    44.301	     7.380
  -129.610	    29.759	     6.183
  -146.069	    38.586	    -5.234
  -125.950	    48.347	    -0.347
  -149.645	    35.258	    14.023
  -122.618	    23.960	   -11.857
  -140.101	    31.372	   -17.260
  -142.674	    44.995	     3.883
  -140.463	    47.716	    -7.058
  -126.259	    39.723	    -0.573
  -140.839	    41.361	    -1.257
  -125.553	    37.346	    -8.451
  -129.222	    36.655	     8.858
  -131.937	    29.175	     9.367
  -139.982	    23.444	    20.283
  -129.084	    17.571	     3.895
  -134.539	    27.219	    -5.450
  -145.522	    40.581	    22.286
  -112.139	    18.142	    16.092
  -134.140	    51.272	    -3.230
  -149.852	    36.236	    -1.661
  -146.887	    26.659	    17.887
  -138.376	    43.350	     6.366
  -117.456	    26.462	    18.324
  -136.318	    25.156	    -0.946
  -124.571	    41.848	     4.278
  -122.394	    29.425	     0.886
  -142.037	    14.417	     8.352
  -147.440	    53.708	    14.437
  -124.962	    54.309	     7.054
  -141.644	    54.598	    26.157
  -120.483	    23.933	    -4.207
  -125.458	    22.912	    -6.105
  -135.590	    26.334	    19.447
  -139.463	    45.043	    -5.434
  -131.026	    10.952	   -11.610
  -146.226	    34.739	    -3.249
  -139.500	    30.630	     9.167
  -140.734	    15.739	    14.348
  -132.055	    28.442	     9.097
  -135.079	    17.335	    17.507
  -143.481	    39.748	    17.784
  -135.865	    33.592	     0.418
  -141.909	    28.736	     7.369
  -141.636	    28.827	     0.921
  -119.121	    13.044	    11.747
  -143.750	    26.973	    15.404
  -132.546	    29.706	    -9.038
  -121.458	    22.683	    11.758
  -133.446	    29.191	    -2.174
  -138.561	    23.143	    -2.987
  -113.931	    33.515	    -4.741
  -110.168	     5.549	    12.391
  -125.127	    19.739	     1.591
  -132.891	    41.683	    11.075
  -113.569	    17.198	    15.279
  -132.501	    40.246	    -2.455
  -143.453	    41.989	    -7.669
  -153.325	    49.541	     6.996
  -119.448	    24.005	    11.925
  -132.941	    41.373	     0.763
  -137.343	    39.912	     6.747
  -137.252	    66.897	     5.300
  -105.828	    54.280	   -13.459
  -148.325	    37.726	    -4.017
  -132.787	    23.883	    30.165
  -125.784	    41.009	    10.005
  -133.592	    22.122	    11.391
  -132.862	    52.466	   -11.979
  -157.918	    32.941	     5.195
  -132.197	    37.426	   -21.384
  -151.219	    41.549	    -3.138
  -127.062	    35.387	    26.318
  -159.087	    45.847	    -3.262
  -125.626	    33.601	    -2.670
  -138.121	    37.319	     2.809
  -139.207	    39.122	     4.120
  -135.348	     1.864	    16.586
  -122.925	    38.394	     9.785
  -135.976	     7.260	   -15.970
  -137.257	    12.285	    16.868
  -148.111	    38.952	    27.090
  -134.612	    22.701	    -5.366
  -143.604	    44.606	     8.071
  -126.946	    10.812	     6.369
  -139.441	    54.796	     1.028
  -140.121	    49.376	     0.506
  -135.182	    25.204	    -9.239
  -126.558	    15.995	    15.862
  -149.643	    42.584	    10.836
  -130.109	     5.844	   -13.433
  -133.495	    10.070	     0.627
  -148.734	    23.105	     2.372
  -128.178	    26.835	    -1.252
  -142.057	    39.705	    10.768
  -144.560	    37.266	     4.184
  -156.436	    34.661	   -11.325
  -145.637	    30.031	    -8.081
  -136.665	    29.043	     4.814
  -150.105	    26.186	     9.489
  -129.367	    14.377	   -12.291
  -154.281	    14.903	    17.133
  -133.035	    25.820	   -12.842
  -153.116	    24.224	    -0.622
  -157.642	    31.990	    -9.384
  -141.424	    26.560	   -17.814
  -141.548	    49.303	    -6.310
  -146.245	    39.795	    -7.157
  -127.027	    15.489	    -9.911
  -146.022	    24.195	    13.395
  -138.043	    22.386	    -2.156
  -130.230	    36.051	     3.180
  -143.089	    46.226	    31.993
  -137.036	    42.774	     2.046
  -136.445	    36.534	   -10.133
  -137.367	    35.932	    13.301
  -152.018	    41.706	     4.036
  -149.904	    33.287	     8.284
  -154.971	    20.357	    -0.665
  -135.951	    26.017	    -0.045
  -133.297	    16.021	     3.360
  -148.782	    33.383	    -5.359
  -142.129	    33.345	     5.083
  -148.874	    33.315	     1.819
  -151.082	    22.795	     5.545
  -134.491	    24.845	    17.344
  -135.459	    43.527	   -14.410
  -132.431	    31.179	    -2.924
  -156.143	    27.779	     9.233
  -141.418	    16.609	    -3.136
  -134.087	    39.393	    11.465
  -146.313	    36.696	     1.990
  -129.301	    39.607	     4.803
  -144.477	    24.780	     1.678
  -130.618	    34.170	    18.757
  -125.800	    28.629	   -31.903
  -150.651	    30.533	     7.707
  -139.197	    20.101	    -4.772
  -141.327	    20.353	    -6.593
  -150.618	    41.300	    17.482
  -145.599	    25.552	    19.130
  -149.949	    44.937	    -0.682
  -133.656	    45.155	    -7.542
  -142.861	    41.049	   -14.376
  -143.057	    40.552	    10.765
  -133.051	    11.972	    22.977
  -134.697	    47.210	    -1.847
  -138.000	    28.202	     2.903
  -132.485	    34.874	    -5.821
  -133.504	    27.417	    -2.034
  -120.625	    38.363	    -1.403
  -158.626	    36.805	     9.454
  -141.483	    20.522	    -2.618
  -143.779	    31.112	   -13.421
  -121.890	    24.195	     5.910
  -148.052	    44.523	     3.577
  -145.182	    33.107	     5.861
  -145.888	    58.713	    -7.017
  -127.915	    40.686	    -4.798
  -157.179	    31.000	    12.039
  -126.970	    28.343	     9.572
  -121.212	    16.979	    14.702
  -153.075	    36.168	    -6.042
  -135.112	    28.368	    -3.393
  -148.560	    25.587	     8.178
  -133.544	    41.196	     6.387
  -122.149	    20.959	     2.242
  -132.316	    32.446	     3.635
  -131.424	    38.149	   -17.510
  -131.184	    46.504	     9.890
  -131.540	    43.419	     3.045
  -133.394	    37.716	    -4.885
  -123.165	    32.988	    -9.158
  -137.016	    42.413	    13.033
  -142.391	    39.267	     7.867
  -134.893	    29.822	     4.792
  -121.999	    40.293	    10.198
  -136.584	    40.599	    10.018
  -135.918	    29.252	    -7.578
  -122.889	    32.954	   -17.084
  -145.658	    29.231	    -3.880
  -144.368	    33.551	   -10.031
  -142.325	    40.763	    -1.805
  -138.508	    14.543	    16.947
  -118.622	    15.232	    16.205
  -137.902	    23.589	     5.740
  -129.553	    32.347	     5.228
  -143.970	    21.551	    -0.362
  -139.017	    47.555	    -1.401
  -152.641	    41.036	   -11.221
  -136.963	    19.302	     3.693
  -140.945	    50.298	    -8.711
  -140.993	    53.156	     2.917
  -132.376	    36.425	    -6.509
  -135.207	    38.561	     8.199
  -151.490	    18.367	     0.660
  -161.437	    45.421	     3.010
  -153.144	    31.222	     9.941
  -144.268	    27.707	   -17.011
  -133.331	    28.072	   -18.299
  -124.498	    49.364	     5.105
  -133.421	    50.377	    -2.852
  -142.306	    24.070	     9.184
  -146.712	    52.360	    17.921
  -134.841	    40.208	    25.612
  -132.738	    47.752	    -4.814
  -129.052	    40.908	    -3.820
  -151.446	    43.626	    23.929
  -153.325	    26.372	    28.556
  -114.172	    44.758	    -2.250
  -130.925	    31.818	    -6.659
  -148.396	    31.559	    21.942
  -143.384	    24.976	    13.578
  -129.563	    15.611	    -6.241
  -145.860	    27.662	    -1.871
  -133.977	    19.685	    -6.855
  -149.264	    19.239	    12.268
  -144.786	    29.809	    -8.882
  -143.463	    20.771	    20.820
  -144.568	    48.167	     5.351
  -132.721	    28.848	     2.012
  -129.878	    25.562	    -5.084
  -147.922	    44.479	    -1.700
  -136.826	     5.526	    -7.998
  -126.841	    40.931	     2.367
  -127.352	    37.797	    -6.946
  -138.041	    37.121	    16.835
  -154.224	    32.220	     7.499
  -138.751	    33.226	     6.469
  -136.438	    33.206	    -6.888
  -145.791	    45.442	     2.173
  -118.355	    41.694	    -1.348
  -124.757	    44.510	    -2.061
  -139.741	    34.630	    -1.597
  -126.781	    50.080	     0.640
  -128.491	    51.109	    19.177
  -145.958	    34.977	     5.440
  -144.803	    37.040	   -14.000
  -158.436	    36.548	   -24.624
  -143.412	    34.121	    25.530
  -138.112	    16.645	   -13.301
  -135.600	    33.509	    -4.856
  -125.881	    32.373	     3.028
  -136.384	    13.832	   -14.920
  -156.443	    58.334	     9.847
  -155.420	    63.073	    -3.201
  -144.780	    49.951	    12.414
  -138.324	    57.320	    13.228
  -136.082	    15.960	   -10.559
  -150.746	    28.644	    16.092
  -112.242	    18.897	    15.672
  -129.238	    21.198	   -12.993
  -145.941	    40.423	    -7.447
  -130.502	    38.487	    18.336
  -132.928	    39.702	     3.698
  -104.237	    49.542	    17.154
  -128.589	    36.955	   -17.561
  -132.447	    33.347	     0.069
  -138.277	    20.658	     4.073
  -143.841	    75.042	     7.058
  -118.197	    26.814	   -12.911
  -145.602	    27.580	     1.551
  -145.500	    15.941	    12.524
  -129.636	    39.673	     5.442
  -124.056	    52.118	     9.814
  -125.863	    32.441	    -1.223
  -146.692	    26.235	   -21.255
  -146.206	    28.252	     6.514
  -138.715	    31.069	    -6.809
  -139.164	    78.235	    20.806
  -147.247	    19.797	    15.109
  -132.810	    35.108	    19.537
  -134.742	    49.924	    17.782
  -141.230	    39.886	     2.221
  -102.942	    39.971	   -23.244
  -122.636	    20.708	   -13.844
  -130.992	    35.847	    14.801
  -147.744	    18.065	    23.587
  -140.749	    28.090	     4.611
  -129.434	    29.078	   -16.332
  -138.599	    15.312	   -11.362
  -144.827	    36.231	    -4.591
  -140.704	    37.969	   -18.559
  -152.581	    25.759	     3.837
  -145.108	    39.364	    -6.306
  -141.762	    35.751	     2.012
  -138.842	    37.152	     1.052
  -129.723	    40.931	    -2.883
  -129.530	    50.053	     7.052
  -150.730	    23.729	    23.371
  -104.365	    17.089	    12.901
  -140.749	    20.598	     7.688
  -138.040	    48.950	     1.507
  -140.216	    16.455	    -5.579
  -152.772	    11.549	    18.763
  -136.569	    43.202	     2.714
  -147.148	    45.611	   -17.854
  -142.982	    36.676	     3.315
  -133.558	    38.078	   -11.318
  -153.548	    36.859	    -2.377
  -146.479	    50.909	    24.519
  -143.136	    55.808	     0.090
  -121.738	    46.084	    11.925
  -144.204	    37.361	    -0.349
  -112.982	    29.676	     2.865
  -146.728	    47.470	    -2.879
  -124.436	    43.727	    11.589
  -119.334	    18.404	     0.259
  -129.084	    35.258	    -4.107
  -122.981	    44.075	    17.095
  -139.866	    42.113	     4.112
  -151.057	    39.832	     2.315
  -137.124	    25.249	     6.471
  -120.165	    24.639	     6.496
  -124.377	    35.136	   -14.504
  -155.184	    42.768	     0.196
  -130.015	    13.874	    10.722
  -130.392	    21.655	     6.326
  -144.770	    14.509	    -7.127
  -154.347	    40.187	    -1.615
  -150.442	    19.148	    18.143
  -139.428	    31.336	     9.477
  -132.699	    30.120	    -3.488
  -125.719	    24.153	     7.968
  -135.565	    44.064	     4.118
  -133.521	    31.553	    -9.594
  -133.859	    51.483	     4.456
  -127.661	    24.536	     4.489
  -125.851	    23.703	     6.478
  -138.143	    32.961	    -1.155
  -139.252	    56.203	     4.734
  -114.893	    53.547	    13.636
  -148.823	    32.735	     0.872
  -127.783	    36.897	     1.555
  -119.633	    30.794	    25.948
  -135.110	    49.898	    -2.264
  -114.197	    64.155	     8.499
  -157.713	    54.928	    -0.633
  -121.272	    28.310	    14.072
  -135.535	    35.203	    11.832
  -135.049	    39.627	    -0.581
  -141.404	    28.704	     5.959
  -141.606	    41.245	    -5.989
  -142.128	    16.597	    17.129
  -145.403	    22.953	   -17.362
  -119.104	    27.569	    -9.505
  -145.062	    41.460	    18.530
  -119.107	    61.863	    -0.092
  -143.038	    35.276	    10.130
  -140.274	    32.832	    21.661
  -134.580	    18.383	     5.800
  -143.630	    28.640	     5.779
  -129.182	    50.832	    10.478
  -141.871	    36.776	     4.833
  -141.039	    48.686	    -3.543
  -148.233	    45.983	     1.497
  -148.422	    30.859	    13.891
  -117.546	    28.565	    12.011
  -135.746	    32.217	    11.502
  -123.653	    30.649	    11.792
  -146.161	    41.553	    -0.050
  -130.697	    32.707	     9.673
  -117.035	    37.428	    13.856
  -119.948	    39.031	     5.104
  -138.459	    28.953	    21.034
  -153.310	     1.480	     3.693
  -143.155	    37.640	   -12.287
  -144.676	    32.380	   -10.567
  -121.285	    40.678	   -16.931
  -142.048	    40.555	     3.790
  -138.934	    38.921	    -7.065
  -142.958	    18.734	     2.037
  -115.834	    26.664	     2.537
  -141.758	    10.995	    -3.257
  -142.139	    19.754	   -23.090
  -139.178	    44.943	    -7.598
  -146.504	    29.410	     5.191
  -132.203	    32.062	    13.159
  -129.964	    31.462	    -2.236
  -131.402	    48.702	    -3.458
  -151.218	    54.791	    16.048
  -124.070	    31.694	     9.634
  -147.099	    17.873	     2.048
  -139.715	    54.558	    -5.599
  -135.979	    46.716	     3.338
  -133.965	    45.985	     1.918
  -129.200	    19.726	     2.356
  -139.563	    32.902	     7.886
  -137.817	    28.067	    -6.601
  -133.860	    26.131	     1.696
  -121.853	    17.481	    10.737
  -141.296	    28.135	   -22.805
  -129.223	    21.083	    14.494
  -136.596	    47.613	    -4.815
  -133.778	    45.751	    -2.715
  -133.546	    23.048	     2.830
  -151.385	    48.045	    -1.812
  -142.186	    32.596	    -5.618
  -136.602	    28.921	     1.693
  -134.945	    46.260	     9.397
  -152.334	    51.453	   -20.405
  -145.599	    20.750	     3.378
  -136.952	    44.630	    -6.536
  -137.069	    48.487	    -2.233
  -142.614	    27.894	    16.656
  -130.088	    51.842	    14.135
  -130.837	    21.987	     5.449
  -146.920	    30.130	    13.572
  -140.872	    25.077	     9.618
  -142.294	    11.231	     3.013
  -137.151	    49.093	     7.437
  -138.735	    39.552	   -10.317
  -146.490	    23.099	    12.781
  -128.306	    35.077	     2.019
  -127.759	    34.331	     6.860
  -143.346	    27.334	     0.916
  -136.102	    31.945	     1.073
  -121.803	    20.691	    22.169
  -132.163	    19.571	     1.183
  -125.757	    33.530	    -0.231
  -131.381	     7.982	    -3.838
  -142.748	    23.754	    17.240
  -140.538	    10.599	    15.250
  -147.089	    27.006	     8.873
  -141.476	    42.533	     6.926
  -136.876	    45.704	    -9.389
  -138.412	    68.830	    -5.832
  -147.777	    73.969	     7.294
  -123.475	    41.074	     0.051
  -141.207	    33.174	    15.513
  -138.387	    39.303	     8.017
  -133.333	    56.863	    -3.663
  -154.773	    29.199	    15.063
  -133.923	    19.009	   -20.710
  -143.664	    49.480	    27.961
  -121.114	    50.280	   -11.447
  -129.919	    40.801	     1.732
  -131.532	     7.845	    28.136
  -128.660	    17.902	     2.471
  -120.402	    29.701	     7.978
  -134.233	    41.445	    -4.388
  -147.558	    20.547	     0.822
  -135.011	    23.316	    -5.413
  -145.853	    34.696	    -9.685
  -151.119	    30.665	     5.489
  -113.431	    34.793	    -8.495
  -151.885	    48.275	    18.967
  -133.193	    56.550	     5.077
  -150.740	    50.770	   -11.284
  -137.321	    28.538	     0.668
  -146.105	    42.823	    -6.174
  -137.947	    21.519	    -9.186
  -139.706	    45.697	     2.873
  -125.546	    24.586	    -3.088
  -120.636	    22.749	     5.371
  -129.232	    43.492	    -6.142
  -145.310	    32.935	     5.698
  -138.907	    25.734	     5.800
  -141.900	    47.167	    -1.606
  -134.607	    42.086	     2.825
  -151.492	    32.473	     2.586
  -142.956	    36.007	    10.434
  -132.946	    49.506	    -6.640
  -141.239	    48.779	     0.412
  -127.606	    38.421	    19.565
  -143.789	    25.227	     5.551
  -142.359	    36.679	    -0.870
  -139.647	    37.570	    18.552
  -142.536	    26.349	     7.907
  -138.418	    46.971	     1.984
  -141.525	    61.143	     6.985
  -132.038	    28.632	     4.872
  -131.699	    15.192	    -0.466
  -127.885	    19.335	    -3.720
  -124.847	    15.283	     8.870
  -150.070	    23.601	    -4.499
  -135.171	    50.323	    12.744
  -135.410	    19.379	     8.642
  -119.465	    16.551	     7.097
  -149.043	    35.681	   -30.370
  -145.996	    32.594	     6.716
  -146.089	    17.067	     2.591
  -136.035	    15.484	    -6.944
  -134.302	    29.379	    -5.393
  -138.210	    28.753	    -8.395
  -132.726	     7.024	     4.099
  -156.136	    28.635	     6.405
  -144.104	    48.869	    10.487
  -126.364	    32.064	    -0.601
  -121.623	    23.917	     3.828
  -116.847	    11.092	    -2.958
  -128.233	    32.639	    -5.484
  -146.268	    26.718	     5.506
  -137.360	    18.023	    -6.239
  -146.780	    21.662	    -5.406
  -148.982	    30.672	     1.252
  -142.305	    39.643	   -17.448
  -147.335	    -0.571	    -0.494
  -140.516	    40.897	     8.896
  -129.553	    24.138	   -16.880
  -126.724	    19.475	     7.814
  -139.394	    30.764	     7.361
  -119.445	    46.135	   -16.592
  -130.671	    39.867	    -1.909
  -132.096	    25.667	    19.738
  -130.185	    36.199	     9.912
  -133.443	    35.932	    17.380
  -136.350	    24.215	     6.650
  -116.940	    28.483	    16.193
  -122.196	    30.537	     9.234
  -125.309	    40.166	     1.789
  -111.041	    24.878	     5.990
  -143.640	    41.355	     5.405
  -134.516	    25.707	    17.638
  -151.212	    10.077	     1.962
  -132.713	     7.731	     3.152
  -141.124	    27.533	     3.499
  -135.651	    29.309	    11.098
  -147.419	    51.631	    11.937
  -133.815	    30.182	    -7.124
  -146.171	    50.505	   -14.199
  -134.636	    38.872	    11.088
