   -92.310	   122.143	    -3.179
   -59.591	   111.301	     5.228
   -58.567	   129.837	    -8.308
   -50.489	   133.223	    -7.162
   -49.765	   125.627	   -13.978
   -32.433	   112.714	    -3.369
   -49.925	   100.409	   -26.361
   -27.005	   101.287	    -5.451
   -29.585	    99.639	     1.286
   -51.945	   115.563	    -8.479
   -50.358	   108.590	    -0.067
   -51.222	   124.226	     3.280
   -36.626	   123.163	   -24.301
   -28.158	   123.412	   -25.271
   -41.676	   110.637	    -5.458
   -48.934	   133.670	    -3.833
   -48.100	   111.109	   -13.200
   -43.832	   122.659	     3.370
     5.552	    89.151	   -15.396
   -39.221	   108.713	    -4.669
   -39.633	   116.735	    -4.920
   -51.824	   134.926	    -6.859
   -28.348	   118.261	   -29.991
   -57.165	   133.460	    -2.473
   -38.434	   128.378	   -15.171
   -46.891	   127.693	     2.468
   -64.273	   120.160	    -2.225
   -52.012	   120.203	    -0.896
   -45.212	   100.858	   -17.959
   -50.119	   114.011	    -6.387
   -36.919	   108.832	     5.881
   -49.080	   119.198	   -10.531
   -50.206	   122.574	    -4.974
   -32.555	   118.659	     0.676
   -10.855	    91.116	     2.384
   -49.643	   137.888	    -3.716
   -43.933	   124.739	   -16.827
   -33.947	   133.785	   -26.326
   -49.167	   119.200	   -10.490
   -30.408	   109.974	    -2.262
   -47.109	   132.666	     6.942
   -27.983	   118.369	    -7.774
   -34.625	   113.459	    -4.666
   -42.935	   126.051	     1.160
   -40.791	   126.362	    -1.579
   -46.268	   112.435	    -6.598
   -49.913	   103.533	    -2.717
   -38.271	   131.959	     8.618
   -51.357	   109.490	     2.409
   -45.761	   120.310	   -19.917
   -55.554	   108.955	     8.126
   -33.365	   127.606	    -3.232
   -42.836	   126.927	    -9.954
   -38.094	   105.800	    -6.598
   -33.024	   100.081	    -6.174
   -10.182	   103.199	   -13.135
   -46.039	   102.135	   -21.424
   -58.591	   106.298	   -26.663
   -53.378	   106.909	    -9.970
   -38.840	   128.700	     7.449
   -26.389	   103.034	    -3.127
   -43.567	   105.891	    -8.014
   -37.567	   110.754	    -7.400
   -40.211	   135.367	   -16.284
   -38.348	   112.288	   -21.209
   -50.671	   125.274	    -8.188
   -47.806	   114.124	   -19.246
   -38.053	   110.992	     9.733
   -28.739	   113.895	    -8.450
   -38.788	   127.163	   -19.546
   -54.920	   123.156	    -6.319
   -59.528	   130.231	     2.155
   -42.736	   130.204	   -18.775
   -52.719	   122.774	    -0.270
   -27.547	   120.771	    -4.748
   -30.751	   106.448	    -4.900
   -51.162	    98.718	   -16.864
   -53.622	   111.539	    10.486
   -46.877	   144.204	   -16.431
   -44.590	   103.396	    -5.150
   -42.046	   135.269	    -5.066
   -47.903	   117.093	   -10.013
   -43.103	   107.295	    -0.597
   -25.686	   143.306	   -32.252
   -38.293	   112.714	     7.403
   -64.179	   111.522	   -15.176
   -72.354	   106.265	   -12.358
   -58.837	    94.346	    -4.680
   -25.558	   122.515	   -11.058
   -33.730	   105.602	   -20.570
   -53.916	   118.847	     2.993
   -41.183	   116.109	     7.166
   -19.753	   124.357	   -16.389
    -0.370	    89.112	    -8.983
   -45.447	   102.082	     2.008
   -10.535	   105.623	   -25.648
   -28.792	   114.805	    16.181
   -28.033	   125.684	   -11.805
   -41.286	    98.194	   -30.975
   -35.626	    98.216	    11.114
   -27.823	   104.890	   -15.289
   -40.428	   103.901	   -12.995
   -48.363	   122.681	    -4.754
   -56.937	   138.078	     9.443
   -47.358	   113.527	   -15.913
   -34.214	   112.770	     1.525
   -55.379	   106.389	    -9.732
   -37.851	   126.484	   -14.654
   -55.609	   126.905	     0.245
   -42.796	   109.841	    -7.190
   -47.396	   120.157	   -20.158
   -26.772	   107.501	   -25.082
   -61.615	   123.643	     2.100
   -27.762	   104.635	    -5.721
   -38.403	   120.680	     1.221
   -44.657	   130.002	   -14.283
   -31.409	   119.695	   -12.147
   -47.208	   111.058	     3.979
   -51.163	   107.684	    -2.507
   -32.232	   116.848	   -10.587
   -46.006	   113.058	    -6.885
   -35.603	   112.211	     2.878
   -48.651	   119.870	     7.808
   -43.491	   127.525	    -3.934
   -39.623	   120.718	   -14.168
   -38.267	   115.581	    24.507
   -35.085	   116.135	    -7.283
   -50.562	   130.565	    -3.397
   -33.289	   101.588	     0.935
   -32.719	   128.481	     2.918
   -66.510	   120.474	    -6.924
   -46.171	   115.462	    -9.499
   -59.925	   107.465	   -11.322
   -29.454	    98.822	     7.208
   -28.903	   121.595	    -8.963
   -39.801	   109.830	    -7.269
   -56.563	   120.278	   -16.455
   -35.326	   106.236	     6.180
   -44.518	   107.973	     1.143
   -44.531	   112.260	   -11.872
    17.391	    72.963	   -25.697
   -26.745	    94.148	    18.956
   -35.396	   117.584	     4.487
   -35.481	   126.026	    -5.266
   -37.901	   118.377	   -31.090
   -34.481	   109.199	   -18.593
   -49.164	   129.372	    -6.650
   -46.901	   105.354	    -4.468
   -56.761	   121.735	    -0.645
   -45.599	   107.604	   -17.114
   -48.474	   114.585	   -24.861
   -47.683	   130.983	    -7.321
   -66.816	   121.477	    -6.093
   -46.477	   117.878	     1.460
   -51.004	   140.174	    -8.133
   -36.524	   122.896	   -10.499
   -52.868	   123.506	     2.113
   -26.978	   116.290	     4.588
   -29.651	   116.112	    -9.043
   -24.123	   105.508	    -4.261
   -33.843	   118.936	    -8.911
   -48.578	   101.619	    -6.378
   -43.899	   115.230	   -18.661
   -46.277	   127.479	    -5.422
   -52.304	   130.701	    -6.686
   -35.955	   121.959	   -18.387
   -26.438	   121.261	   -10.223
   -38.739	   130.544	     7.393
   -42.488	   125.776	    -9.614
   -41.890	   122.790	     6.561
   -48.129	   128.286	    -3.004
   -33.689	   121.448	   -24.451
   -41.819	   127.354	   -11.030
   -35.474	   118.248	   -15.623
   -43.890	   111.416	   -12.366
   -45.241	   113.126	   -11.588
   -36.901	   131.949	    -6.262
   -40.644	   129.121	     0.276
   -39.196	   126.919	    -2.058
   -33.347	   121.687	    -2.205
   -39.758	   105.799	     1.841
   -35.208	   113.525	   -17.140
   -38.791	   126.016	   -13.136
   -25.610	   124.962	    -8.020
   -35.872	   119.110	    -6.772
   -29.509	    98.151	     4.044
   -46.083	   102.260	   -11.824
   -64.501	    96.396	     2.597
   -60.124	   120.259	     2.835
   -35.100	   106.601	    -1.706
   -30.041	   114.611	   -19.417
   -55.438	   127.151	     0.544
   -32.952	   137.249	   -16.818
   -42.494	   124.831	   -10.041
   -57.177	   129.588	   -11.158
   -45.891	   118.895	   -14.501
   -49.288	   119.037	    -6.803
   -41.964	   108.818	     1.153
   -31.247	   106.964	    -9.388
   -41.246	   115.968	    -9.938
   -45.410	   111.130	    -2.319
   -39.711	   115.732	    -3.390
   -29.016	   112.839	    -5.487
   -43.220	   111.362	    -2.858
   -51.238	   100.436	    -7.120
   -29.950	    96.751	    -8.240
   -54.639	   103.206	    -3.246
   -49.942	   105.574	   -22.257
   -34.014	   105.559	    -7.394
   -18.181	   109.365	     0.219
   -45.320	   111.291	   -14.321
   -49.790	   129.498	     5.549
   -33.105	   111.211	   -20.847
   -32.750	   121.616	   -10.562
   -49.155	   132.425	   -12.644
   -59.496	   121.003	   -14.051
   -45.950	   120.081	   -15.836
   -59.051	   114.724	    -6.108
   -50.303	   118.299	     1.099
   -49.580	   115.230	     2.077
   -47.941	   115.535	     5.232
   -31.339	   101.331	   -11.998
   -55.826	   132.111	    -6.254
   -28.694	   130.124	     5.111
   -37.195	    99.823	   -13.543
   -46.924	    97.691	     3.181
   -50.968	   107.135	     7.609
   -49.810	   113.414	    11.426
   -49.879	   123.347	    -3.700
   -39.301	   101.069	     3.616
   -33.765	   116.895	     0.006
   -25.941	   128.688	   -14.229
   -61.807	   121.807	     8.006
   -34.945	   120.275	   -20.272
   -52.142	   131.285	   -16.277
   -43.702	   110.250	     7.163
   -51.454	   121.007	    -2.661
   -40.027	   114.609	   -27.091
   -44.337	   109.621	    -7.612
   -53.746	   126.810	    -3.557
   -47.538	   124.374	   -10.751
   -48.020	   126.363	    -5.667
   -35.221	   124.167	    -4.373
   -38.898	   104.961	   -13.141
   -41.175	   132.611	   -19.342
   -47.074	   129.543	   -12.705
   -47.611	   105.895	    -1.614
   -46.325	   103.169	    -7.786
   -43.740	   128.434	    -7.360
   -40.516	   123.368	    -7.567
   -41.005	   118.795	   -20.599
   -50.575	   103.354	    -4.300
   -34.128	   115.533	   -19.811
   -38.302	   112.446	   -21.484
   -43.074	   119.839	    -4.614
   -43.817	   108.254	    -7.062
   -52.059	   115.102	   -15.946
   -48.427	   117.587	    -1.463
   -55.374	    96.963	    -6.947
   -50.080	   120.786	   -12.696
   -23.889	   113.580	   -19.829
   -35.648	   130.765	   -11.308
   -53.945	    98.135	   -16.592
   -49.537	   108.289	    -6.348
   -53.385	   103.118	    10.661
   -43.034	   104.102	   -13.478
   -24.390	   127.405	     1.226
   -27.182	   123.408	    -2.061
   -48.386	   129.683	    -9.618
   -38.320	   114.402	    -6.488
   -60.573	   100.872	    12.083
   -48.280	   116.607	     4.016
   -56.272	   131.109	    -5.171
   -26.280	   124.097	    -2.015
   -24.578	   113.738	     9.050
   -48.989	   113.130	    -4.852
   -57.038	   126.812	    -1.062
   -37.647	   116.537	   -19.107
   -34.513	   115.178	    13.356
   -40.398	   130.221	     0.327
   -52.135	   106.471	   -12.262
   -53.190	   119.975	    -5.772
   -37.073	   137.804	   -27.177
   -59.303	   119.910	    -8.924
   -37.201	   120.569	    -3.839
   -46.028	   112.901	     7.644
   -40.707	   108.597	   -13.633
   -60.798	   120.688	     6.088
   -25.641	   121.544	   -10.525
   -35.762	   111.304	   -13.930
   -49.061	   114.247	    -8.463
   -48.823	   119.840	     1.632
   -54.357	   127.174	    -2.193
   -25.212	   102.788	     0.610
   -40.096	   112.307	    10.054
   -52.793	   111.125	    -3.616
   -41.596	   104.157	   -21.280
   -48.900	   110.530	    -4.051
   -41.134	   117.687	   -24.053
   -44.954	    99.645	    -5.321
   -48.287	   102.465	    -8.118
   -54.104	   134.338	    -2.155
   -43.830	   120.782	   -18.267
   -50.640	   134.240	   -12.699
   -43.130	   106.678	    -6.960
   -72.356	   104.019	   -14.216
   -64.859	    97.209	    -1.355
   -44.077	   108.222	   -14.767
   -53.163	   123.161	     3.150
   -38.838	   102.807	     4.868
   -50.979	   109.023	     3.540
   -26.523	   117.720	   -16.461
   -47.896	   114.599	   -11.462
   -44.247	   110.547	    -0.056
   -43.993	   118.243	     7.644
   -57.638	   109.646	    15.051
    10.114	    98.859	   -10.460
   -35.451	   107.710	   -14.602
   -64.288	   112.838	     7.603
   -60.028	    80.603	   -15.090
   -56.941	   119.375	    -9.008
   -35.801	    85.080	   -11.592
   -53.780	   112.894	     5.811
   -38.040	   114.407	   -18.920
   -51.706	   124.913	    19.955
   -39.272	   132.639	   -13.932
   -27.299	   110.564	    -9.791
   -43.941	   121.393	    15.758
   -19.428	   108.438	     6.959
   -57.977	   129.023	   -10.366
   -45.043	   112.572	     4.631
   -34.793	   123.555	    -6.533
   -17.035	   115.284	    -0.390
   -17.634	    94.984	    -4.658
   -40.146	   122.124	    -4.109
   -35.791	   130.781	   -14.066
   -30.917	   129.023	   -18.295
   -56.672	   105.703	    -8.306
   -37.693	   128.783	   -15.942
   -41.089	   130.009	    -8.199
   -51.306	   105.530	   -23.062
   -49.174	   112.065	    -8.479
   -52.790	   116.199	   -14.757
   -38.330	   123.434	    -1.920
   -44.102	   119.671	   -20.089
   -43.443	   107.530	    -5.724
   -55.467	   127.878	    -5.619
   -47.572	    91.821	    -7.994
   -30.114	   106.776	   -23.450
   -57.753	   110.527	    15.690
   -43.331	    97.946	   -10.808
   -47.118	   125.820	    -8.640
   -41.935	   107.160	    21.266
   -39.787	    89.668	     5.317
   -43.123	   123.045	    -1.862
   -47.741	   115.555	    -7.923
   -44.681	   106.874	    -6.210
   -41.489	   110.650	    -9.383
   -50.198	   119.775	    -2.809
   -44.277	   124.872	    -7.204
   -30.375	    98.874	    -6.005
   -39.034	   118.232	    -4.088
   -41.211	   125.087	   -17.493
   -36.971	   113.569	    -4.596
   -38.561	   114.718	   -12.068
   -41.443	   109.700	    -6.627
   -52.535	   123.614	    -8.192
   -29.456	   118.799	    -8.376
   -41.367	   117.408	   -10.265
   -48.835	   121.605	    -1.859
   -34.241	   125.497	   -12.606
   -50.281	   112.918	   -15.470
   -32.760	   117.491	   -12.104
   -36.572	   117.144	   -13.265
   -41.719	   106.476	     3.280
   -58.160	   119.158	    -0.423
   -27.541	   101.125	   -13.136
   -27.176	   105.387	    -9.866
    10.784	    85.257	    -6.748
     1.584	    93.175	    25.681
   -23.427	   103.732	     8.591
    -6.247	    87.089	   -12.167
     3.102	    96.781	   -12.227
   -38.693	   113.000	    12.966
   -48.818	   129.885	   -11.089
   -59.982	   123.626	   -19.152
   -54.055	   118.593	     2.527
   -48.152	    99.626	    -0.072
   -31.761	   104.049	     1.343
   -51.783	   121.755	    -0.055
   -26.509	   124.077	   -21.031
   -31.554	   112.672	    -7.242
   -48.985	   104.472	   -13.749
   -49.615	    99.237	   -21.969
   -58.335	   108.401	    -0.888
   -49.936	    98.669	     6.694
   -46.825	    93.145	    -4.700
   -46.733	   118.242	    18.489
   -40.281	   119.498	    -4.104
   -45.276	   106.120	     4.106
   -54.698	   118.241	   -10.375
   -53.666	    96.295	   -10.178
   -37.747	   106.833	   -12.562
   -49.972	   124.948	    12.017
   -49.615	    96.765	     1.184
   -51.181	   121.794	     0.078
   -31.482	   120.433	    -3.695
   -42.666	   113.420	     4.040
   -58.892	   120.408	    -0.002
   -59.370	   122.595	   -15.495
   -21.840	   116.510	   -11.072
   -55.927	   124.159	    -0.901
   -46.129	   130.008	     1.131
   -48.054	   130.846	    -4.444
   -35.530	    88.655	   -18.144
   -66.996	   108.941	     1.038
   -42.510	   122.924	    -2.228
   -35.316	   116.658	   -21.969
   -51.640	   135.114	   -13.356
   -41.135	   115.125	    -5.518
   -61.576	   100.587	    -9.865
   -64.717	   119.375	    -4.533
   -33.934	   107.682	   -18.981
   -48.375	   112.908	     8.768
   -17.717	   102.481	    -7.353
   -30.508	   117.013	     0.551
   -48.941	   114.608	     6.810
   -43.918	   110.244	    -3.605
   -37.800	   112.881	   -10.556
   -52.072	   133.725	    -3.462
   -15.335	    99.602	    -4.095
   -32.404	   106.207	    -8.367
   -19.200	   112.459	    -4.706
   -52.905	   124.685	   -14.275
   -33.512	   114.670	   -12.868
   -39.540	   111.400	     9.033
   -47.944	   126.919	    -7.999
   -35.804	   105.869	     1.650
   -43.340	   103.480	    -3.940
   -40.620	   110.894	   -11.199
   -51.404	    96.401	    -2.019
   -30.398	   111.871	    10.821
   -47.128	   124.691	    -8.829
   -29.200	   131.226	   -15.309
   -44.509	   139.000	    -8.791
   -26.703	   109.042	    -5.310
   -41.113	   129.919	    -3.736
   -48.753	   130.157	   -19.103
   -50.180	   112.824	     4.960
   -33.393	   112.383	   -13.238
   -24.852	   117.858	   -14.924
   -37.770	   113.371	     1.955
   -14.102	   118.742	   -18.473
   -38.681	   126.256	    -0.735
   -38.392	   119.584	   -11.416
   -52.906	   118.864	   -21.736
   -61.005	   120.261	    -4.001
   -39.349	   124.201	   -29.078
   -61.800	   111.573	   -18.834
   -46.535	   121.400	    -7.396
   -39.091	   112.536	    -7.609
   -52.162	   111.107	    -3.031
   -36.610	   122.095	     3.091
   -36.528	   105.826	   -22.543
   -42.528	    98.709	   -16.266
   -23.003	   136.213	   -21.141
   -45.848	   122.102	    -6.158
   -34.493	   119.969	   -28.548
   -50.100	   116.309	   -10.063
   -41.819	   122.840	   -28.012
   -29.252	   123.306	    -8.280
   -44.570	   125.897	    -4.905
   -50.524	   126.352	    13.297
   -41.869	   114.212	   -16.745
   -31.405	   105.394	    12.755
   -22.886	   109.795	     0.887
   -40.376	   122.902	    -9.459
   -49.090	   122.107	    -5.851
   -45.368	   114.494	   -10.703
   -50.056	   113.795	    -1.443
   -47.809	   145.056	     3.046
   -59.221	   109.741	   -12.731
   -34.890	   120.994	    -8.205
   -42.691	   120.304	    -4.120
   -41.319	   127.691	   -10.367
   -53.090	   112.588	    -7.006
   -52.949	    98.478	    -2.773
   -40.966	    99.906	    -8.101
   -58.474	   116.069	    -3.662
   -24.917	    90.826	    -9.009
   -49.078	   112.178	    -7.725
   -41.145	   114.717	    -0.493
   -49.406	    89.987	     2.557
   -37.163	   118.846	     6.028
   -44.724	   117.119	   -11.351
   -36.305	   112.842	    10.320
   -11.223	   120.347	    17.418
   -31.335	   107.589	     4.862
   -39.825	   114.107	     4.998
   -44.973	   101.598	    10.882
   -38.946	   116.484	    14.923
   -37.449	   105.959	    -7.991
   -54.063	   117.438	    -9.180
   -54.973	   111.256	    -8.046
   -37.782	   113.511	   -26.496
   -46.002	   104.079	   -19.049
   -56.023	   126.419	     4.993
   -43.767	   122.649	   -25.773
   -49.802	    94.607	    -9.879
   -54.220	   108.672	    -2.025
   -30.690	   122.142	    -3.087
   -40.139	    99.773	    -7.598
   -22.941	   119.962	   -13.251
   -58.941	   102.934	   -23.836
   -39.789	   111.032	     2.423
   -27.149	   127.644	   -20.142
   -55.540	   121.626	     3.339
   -45.684	   125.895	    -3.388
   -53.611	   133.096	     2.911
   -51.027	   102.325	   -24.563
   -52.984	   108.262	   -12.884
   -55.496	   124.348	   -10.823
   -58.630	   124.381	    -3.715
   -53.863	    99.539	    -8.057
   -55.299	    97.750	    -7.906
   -36.557	   123.503	    -2.496
   -62.827	   121.457	     7.381
   -49.959	   126.644	   -12.631
   -54.035	   129.017	    17.239
   -35.633	   117.089	   -21.497
   -53.143	   138.478	     7.638
   -42.705	   123.807	    -6.827
   -17.338	   126.493	   -14.156
   -55.487	   123.812	     5.908
   -38.440	   107.481	   -19.615
   -37.012	   121.217	    -3.137
   -44.789	   108.537	     2.164
   -37.173	   124.910	   -13.482
   -51.580	   118.841	     3.654
   -43.954	   125.216	    -1.613
   -62.865	   120.535	     9.248
   -37.584	   118.659	    -2.865
   -30.587	   126.161	    -7.176
   -21.771	   112.757	    11.380
   -19.054	   114.937	    -0.992
   -48.057	   120.342	    -3.445
   -26.425	   110.402	   -22.302
   -42.526	   108.137	     2.317
   -50.483	   133.827	    -7.867
   -60.178	   125.359	    -6.445
   -46.349	   101.043	   -13.119
   -22.556	    95.110	    11.937
    -7.419	    90.630	     2.451
   -33.554	   124.391	   -14.682
   -46.788	   113.072	    -4.144
   -27.765	   122.677	    -6.567
   -42.774	   115.876	    -8.664
   -43.789	   138.549	    -6.558
   -38.729	   117.784	   -15.962
   -55.301	   135.598	    -5.081
   -42.163	   131.838	    -7.568
   -34.039	   108.095	    -0.186
   -54.883	   120.864	    -6.795
   -45.279	   110.657	   -13.852
   -43.484	   114.900	    -9.708
   -55.878	   125.726	     7.793
   -44.207	   112.144	    -0.133
   -37.522	   125.083	   -20.593
   -36.826	   123.100	    -9.530
   -55.498	   126.799	    -0.389
   -36.531	   116.745	   -15.325
   -19.996	    93.172	     0.128
   -44.034	   103.662	   -21.859
   -39.462	   104.089	    14.414
   -44.489	   113.640	   -12.472
   -44.942	   119.932	   -22.363
   -42.336	   119.498	   -18.929
   -42.956	   104.765	   -29.381
   -43.074	   105.564	    -2.219
   -51.567	   113.477	     4.902
   -25.914	   108.761	     6.292
   -40.808	    98.172	    -0.774
   -39.337	   125.929	    -3.613
   -51.766	   123.612	    -9.720
   -51.391	   117.263	     5.559
   -51.080	   114.259	   -14.052
   -49.128	   120.253	    -9.873
   -34.621	   111.096	    -0.968
   -33.709	   139.043	   -10.772
   -40.838	   112.785	    15.326
   -41.922	   109.890	    -7.438
   -42.466	   116.697	    -7.192
   -52.051	   117.059	    -0.375
   -55.067	   127.649	    -1.068
   -45.549	   106.022	    -3.967
   -61.352	   117.619	     9.125
   -41.758	   110.827	    -1.774
   -53.550	   114.324	    -4.115
    -9.622	   113.586	     1.952
   -34.352	    98.948	   -10.406
   -36.034	   114.655	   -18.074
   -21.754	   107.185	     3.472
   -55.242	   130.290	   -13.254
   -59.856	   117.445	   -15.352
   -29.562	   137.715	     1.895
    -6.523	   115.056	    -9.818
   -31.057	   110.251	    -5.626
   -58.946	   125.424	    -0.970
   -53.522	   131.373	     9.151
   -45.368	   119.142	     1.531
   -34.509	   131.594	    -6.762
   -27.587	   127.820	   -13.942
   -60.013	   106.638	    -9.944
   -46.680	   119.830	     2.220
   -56.976	   120.365	    -6.002
   -45.197	   124.399	   -12.682
   -48.068	   144.009	   -13.471
   -44.005	   116.997	   -13.072
   -31.759	   118.803	   -19.340
   -42.614	   102.248	    -6.335
   -42.691	   111.352	   -18.668
   -37.468	   111.098	     9.101
   -35.165	   127.918	    -3.598
   -22.459	   112.682	   -19.186
   -51.559	   118.945	    -0.611
   -55.544	   109.181	     1.634
   -24.553	   109.606	    -4.006
   -35.510	    93.743	    13.921
   -44.833	   133.369	    -3.163
   -41.605	   120.913	    -4.998
   -43.671	   120.009	    -7.045
   -28.171	    98.783	   -11.628
   -56.215	   150.133	   -14.560
   -55.813	   127.565	    -6.268
   -51.376	   116.898	    -8.025
   -49.009	   118.686	    -3.095
   -43.952	   111.880	    -9.651
   -46.561	   108.783	   -17.977
   -50.082	    97.596	    17.296
   -48.429	   121.414	    -2.816
   -58.381	   123.414	    -0.200
   -22.754	    98.395	   -16.876
   -18.693	   126.553	   -14.569
   -35.225	   129.135	    -4.073
   -57.962	   106.436	    -6.950
   -45.399	   107.611	   -25.699
   -38.846	   116.143	    -6.643
   -36.758	   119.787	    -0.205
   -55.399	    96.985	   -19.115
   -39.758	   108.698	    -7.433
   -43.959	   101.821	    18.147
   -35.894	   129.749	    -6.593
   -48.836	   130.982	   -27.893
   -51.158	   128.224	   -12.672
   -51.321	   106.013	    16.912
   -42.678	   124.688	    -1.680
   -26.015	   119.727	   -13.674
   -42.030	   123.726	    -2.953
   -45.474	   117.151	     6.784
   -44.037	   104.773	    -6.980
   -49.822	   120.539	    -8.417
   -51.280	   122.841	    -8.163
   -47.294	   105.654	   -17.071
   -36.392	   125.272	    -2.879
   -48.474	   120.257	     8.548
   -43.368	    88.377	    -1.876
   -10.590	   101.605	    12.356
   -37.171	   126.762	    18.775
   -42.934	   114.641	     0.296
   -36.540	   110.752	     3.408
   -23.150	    83.666	     1.821
   -35.821	   125.455	    -1.758
   -30.778	   119.904	    -3.086
   -37.259	   107.755	    -7.075
   -47.268	   112.129	    -5.098
   -37.292	   107.644	   -23.678
   -57.405	   122.049	    -6.023
   -44.670	   105.661	    -9.288
   -48.012	   120.422	    -2.972
   -60.452	   116.252	    -6.336
   -39.976	   108.394	   -13.778
   -35.421	   120.676	   -13.976
   -48.849	   118.395	   -28.098
   -61.342	   127.202	    11.704
   -36.741	   112.297	    -8.289
   -39.377	   121.800	   -14.279
   -34.816	   118.933	   -10.261
   -36.203	   115.449	    -5.927
   -54.947	   128.764	    -0.013
   -44.574	   116.134	    -9.161
   -43.954	   121.346	   -22.835
   -41.103	   100.795	     5.206
   -41.573	   107.167	    -2.448
   -39.186	   114.031	    11.086
   -49.501	   122.928	    13.193
   -53.885	   106.483	    -6.545
   -46.143	   120.739	    -0.146
   -52.925	   101.085	     0.937
   -38.125	   103.171	    -8.030
   -57.725	   101.132	   -13.089
   -38.426	   108.222	   -17.428
   -55.676	    87.831	   -13.084
   -41.987	   118.616	     6.326
   -44.017	   122.797	    21.007
   -34.404	   124.917	   -18.039
   -17.104	   120.496	   -14.597
   -37.054	   118.154	     2.538
   -43.280	   130.596	    -8.378
   -42.131	   138.022	     6.576
   -31.043	   134.598	   -20.093
   -26.104	   133.214	   -13.752
   -48.911	   103.820	    -5.073
   -50.737	   127.158	    -5.642
   -44.916	   133.511	   -16.121
   -46.048	   124.737	    -4.274
   -36.432	   133.710	   -11.836
   -33.222	   119.366	     1.167
   -35.268	   122.037	    -1.423
   -45.857	   123.999	    -8.697
   -39.933	   120.309	     7.010
   -24.829	    91.630	   -19.903
   -44.386	   114.799	    -5.437
   -25.719	   103.567	     1.076
   -43.000	   122.801	   -20.372
   -33.604	   111.967	     6.649
   -35.889	   126.620	   -19.184
   -41.465	   117.402	    -2.775
   -69.310	   126.914	    -7.609
   -42.053	   115.714	     2.545
    -8.663	    97.600	    -3.182
   -46.552	   121.322	    14.993
   -42.008	   102.722	   -13.579
   -49.382	   102.928	    -8.207
   -53.849	   130.541	    -0.578
   -36.526	   129.663	     4.917
   -59.938	   110.812	    -8.485
    -9.205	    98.747	   -26.801
   -41.410	   125.846	   -13.706
   -28.144	    92.693	    -2.723
   -41.059	   116.869	   -14.752
   -43.245	   109.393	    -9.387
   -50.906	    88.460	   -11.476
   -42.592	   103.571	     2.145
   -48.848	   124.816	   -11.080
   -20.208	   109.922	     2.991
   -40.944	    98.674	    14.550
   -51.409	   131.831	    -9.935
   -43.177	   105.585	   -18.682
   -45.289	   105.979	     9.250
   -62.264	   107.692	    -5.770
   -58.284	    90.090	     6.508
   -28.685	   108.123	     1.189
   -34.503	   104.929	   -18.961
   -40.253	   125.568	   -14.970
   -54.605	   140.045	   -13.306
   -35.935	   106.201	   -12.146
   -62.567	   110.658	   -15.056
   -21.930	   122.350	   -11.220
   -33.038	   124.055	    -5.291
   -29.997	   113.186	   -17.489
   -54.014	   113.198	   -10.844
   -59.954	   118.565	   -11.104
   -48.827	   116.895	   -12.058
   -46.493	   117.413	     7.360
   -41.196	   103.173	    -8.467
   -48.485	   129.445	    -0.316
   -56.965	   108.150	    -4.643
   -36.212	   109.301	    -1.989
   -49.279	   124.009	    -1.370
   -33.558	   123.453	   -13.856
   -36.734	   118.614	   -21.926
   -50.556	   110.462	     1.582
   -39.643	   120.726	    -8.208
   -52.247	   114.139	     0.167
   -62.160	   135.425	    -5.872
   -36.811	   120.781	   -10.629
   -39.738	   106.615	    -4.422
   -35.852	   115.218	     1.679
   -28.498	   102.542	   -10.901
   -29.355	   110.993	    10.916
   -37.435	   114.441	    -7.955
   -34.598	   118.729	   -17.355
   -29.523	   111.768	    -2.326
   -60.810	    98.052	    -8.704
   -38.357	   130.751	   -11.781
   -43.742	   136.507	   -11.627
   -38.285	   133.770	    -7.800
   -41.343	   123.705	   -11.108
   -50.692	   130.866	    -3.020
   -54.117	   128.715	    -0.284
   -49.654	   114.461	    -4.955
   -47.882	   108.489	   -16.337
   -33.428	   102.716	     6.236
   -40.888	   115.175	   -15.232
   -17.137	    81.823	     9.140
   -34.422	   102.946	    -3.644
   -43.506	   111.102	     1.168
   -45.613	   120.993	   -24.262
   -44.810	    94.730	    -2.200
   -49.833	   113.824	    14.985
   -20.954	   116.414	   -19.645
   -34.656	   113.440	     1.277
   -48.406	   127.003	   -24.161
   -57.653	   101.739	     6.186
   -45.217	   132.851	   -13.440
   -56.235	   124.045	    -3.788
   -39.547	   118.878	   -12.901
   -41.072	    94.502	    -9.896
   -41.246	   123.506	    -4.317
   -52.741	   107.648	     2.752
   -50.925	   116.655	     4.430
   -46.353	   112.089	    -7.041
   -44.949	   115.785	    -5.549
   -35.094	   126.564	   -16.184
   -14.776	    95.002	   -13.383
   -41.728	   121.516	   -10.212
   -42.566	   121.057	   -24.604
   -60.100	   108.222	     3.614
   -49.785	   113.117	     6.627
   -25.132	   102.969	    -2.054
   -49.491	   144.733	    -8.916
   -35.795	   138.653	     4.584
   -42.059	   101.548	   -20.065
   -54.028	   114.442	     6.266
   -44.031	   112.413	   -10.051
   -35.483	   113.091	    -0.218
   -30.838	    98.976	    -2.003
   -44.460	   116.218	    -8.513
   -39.546	   100.541	    -7.064
   -48.624	   108.995	     4.616
   -30.880	   110.414	   -23.416
   -33.068	   122.910	    -8.984
   -31.200	   113.901	   -10.488
   -44.483	   138.245	   -16.867
   -31.364	   124.721	     3.969
   -78.345	   127.739	   -19.467
   -60.578	   115.629	     7.662
   -57.809	    97.706	   -13.212
   -42.758	   115.023	   -20.823
   -37.167	   135.103	   -10.969
   -41.467	   128.652	    -2.400
   -35.781	   121.742	   -10.251
   -30.735	   110.201	   -17.111
   -61.590	   125.234	   -19.154
   -54.923	   116.117	   -16.550
   -47.151	   119.124	    -2.943
   -53.188	   111.363	     5.989
   -51.469	   116.173	     4.331
   -35.020	   100.948	   -11.058
   -40.457	   123.266	    -6.027
   -27.530	   119.288	   -22.603
   -47.031	   135.410	     3.322
   -48.462	   128.946	    -6.346
   -40.418	   103.607	   -11.710
   -19.714	   112.791	   -11.904
   -45.634	    99.888	    -0.348
   -53.325	   120.922	    -7.595
   -48.052	   116.622	   -13.183
   -49.428	   124.130	   -10.891
   -49.566	   120.613	     9.000
   -45.903	   119.098	    23.641
   -43.827	   126.465	    -4.306
   -49.087	   118.561	     8.502
   -23.873	   103.808	   -22.648
   -43.532	   114.713	   -10.593
   -42.832	   112.604	   -11.978
   -58.701	   130.772	     2.311
   -52.571	   123.854	     7.292
   -44.097	   106.019	    -6.395
   -47.619	   119.624	    -0.647
   -33.193	   121.687	   -14.092
   -58.412	   113.519	   -15.319
   -58.251	   106.576	     2.025
   -29.384	   108.533	   -11.595
   -41.347	   119.640	   -14.849
   -42.006	   126.477	    -4.265
   -37.781	   113.000	   -14.516
   -37.586	   123.016	    -8.149
   -39.007	   122.451	   -13.135
   -32.171	   101.015	     6.298
   -60.233	   135.037	    20.745
   -27.699	   103.851	    -3.693
   -41.031	   104.102	    -3.811
   -25.806	    97.711	     2.329
   -36.921	   114.719	   -15.514
   -67.946	    98.959	     4.872
   -40.928	   108.942	    -9.475
   -43.506	   118.477	   -17.640
   -68.252	   125.796	     0.384
   -42.499	   111.266	    -6.936
   -46.730	   118.307	    -2.226
   -44.696	   117.156	   -14.793
   -52.673	   117.218	    -8.929
   -43.779	   112.020	   -23.019
   -32.209	   123.381	   -13.896
   -55.895	   104.709	     7.517
   -15.701	   113.586	   -21.974
   -38.686	   119.112	     0.024
   -39.234	   108.050	    -9.692
   -48.057	   118.755	    24.165
   -46.197	   117.936	   -14.414
   -48.599	    94.778	    -2.968
   -45.167	   115.082	   -26.776
   -41.363	   127.286	     2.192
   -38.318	   114.545	    -4.749
   -35.195	   111.714	    -1.042
   -48.594	   128.424	    -8.896
   -47.401	   122.692	   -12.738
   -60.945	   130.509	    12.025
   -62.064	   132.197	     5.270
   -53.742	   115.872	     8.563
   -48.594	   123.263	     0.902
   -49.945	   119.457	   -18.185
   -42.927	   116.803	    -5.953
   -43.539	   132.185	   -20.569
   -43.130	   111.318	    -5.573
   -43.176	   133.947	   -16.955
   -44.920	   125.430	    -3.794
   -40.038	   114.238	   -12.977
   -48.673	   104.768	   -14.839
   -51.908	   105.062	    -8.988
   -46.457	   127.237	    -2.814
   -37.264	   105.605	     3.339
   -21.679	    97.839	    -9.030
   -45.702	   104.085	    20.266
   -41.211	   110.378	   -12.896
   -48.106	   119.705	    13.641
   -58.072	   108.751	   -19.558
   -29.475	   114.330	    -3.914
   -31.586	   119.318	    -2.975
   -66.806	   108.784	     6.054
   -38.018	   120.847	    -2.589
   -27.852	   122.814	    -9.609
   -37.648	   121.075	    -1.501
   -62.673	   141.131	    -1.155
   -50.742	   136.747	   -21.599
   -49.314	    97.290	    -4.381
   -44.855	    99.370	   -15.354
   -39.954	   109.826	   -22.208
   -55.979	   123.884	   -11.002
   -43.899	   106.062	     0.175
   -34.090	   117.838	   -37.704
   -35.374	   117.558	   -20.993
   -46.946	   113.537	     8.362
   -46.645	    96.007	   -13.800
   -62.679	   126.928	   -14.201
   -44.213	   106.372	   -22.263
   -45.590	   118.177	   -15.354
   -42.534	   120.945	     8.523
   -45.643	   103.446	    -7.338
   -52.429	   120.129	    22.518
   -58.064	   123.617	   -14.031
   -51.995	   111.132	     3.660
   -45.301	   107.419	   -22.127
   -63.158	   120.824	     0.532
   -41.365	   118.342	   -22.154
   -53.852	   111.686	     5.156
   -17.574	   113.749	   -31.501
   -54.463	   141.050	   -18.908
   -38.319	   115.478	    -2.188
   -22.554	   101.962	   -18.214
   -28.445	   110.604	    -4.375
   -40.292	   124.014	   -15.491
   -42.445	   135.567	    -3.482
   -50.223	   135.619	   -12.873
   -43.853	   132.001	     3.544
   -27.717	   123.880	   -10.461
   -28.564	   114.315	     1.902
    -3.907	   104.165	    -6.030
   -48.232	   125.198	   -10.478
   -65.834	   125.718	     0.740
   -45.397	   122.245	    -1.997
   -43.975	   122.110	     1.735
   -40.061	   104.783	    11.577
   -54.917	   126.747	    -0.713
   -45.717	   113.360	     3.214
   -44.936	   117.850	    -3.793
   -54.875	   113.317	     2.566
   -44.195	   102.711	    -9.166
   -51.378	    99.312	   -20.143
   -65.436	   137.841	   -20.210
   -30.653	   113.176	    -5.713
   -21.583	   106.432	    -2.709
   -42.006	   113.906	    -9.658
   -42.725	   117.568	   -10.931
   -58.393	   105.683	     3.569
   -27.540	   116.252	   -22.692
   -53.437	   124.294	    -2.076
   -35.220	   127.303	    -0.244
   -50.083	   127.571	   -10.209
   -51.004	   127.215	     0.652
   -30.721	   122.302	    -6.751
   -35.134	   103.744	     0.541
   -46.713	   137.064	    -5.111
   -51.512	   131.144	     7.174
   -43.246	   121.002	   -25.486
   -43.677	   109.850	    -0.530
   -36.440	   111.876	   -10.813
   -43.686	   121.855	     5.962
   -50.291	   127.310	   -11.954
   -21.619	   111.950	    -1.093
