   -92.310	   122.143	    -3.179
    57.267	   173.505	   -16.694
    67.024	   147.582	    18.513
    62.590	   170.171	    -2.774
    74.565	   167.479	    -8.961
    77.517	   159.097	   -11.962
    54.141	   179.251	     3.923
    61.444	   173.608	     8.901
    64.377	   157.766	     9.669
    58.400	   175.938	     9.720
    65.979	  -175.618	    -7.404
    70.836	   167.548	   -24.299
    51.731	  -168.264	    12.841
    53.691	   174.433	     2.503
    60.827	   164.782	   -14.711
    61.729	  -172.933	     3.856
    58.102	   178.923	    11.603
    50.623	   179.712	     5.018
    69.688	   169.288	     9.358
    53.876	  -178.727	    14.257
    63.503	   177.264	    -7.328
    51.711	  -171.108	     0.207
    65.420	   165.508	    -0.613
    66.805	   166.894	     1.518
    75.517	   177.672	    11.936
    63.466	   157.552	    19.026
    61.101	  -174.719	   -10.310
    53.140	  -166.885	    -0.556
    65.303	   179.218	     9.116
    65.210	  -177.627	     0.558
    60.516	   179.321	    -6.451
    61.170	  -170.286	     5.363
    50.461	  -155.323	     3.585
    64.871	  -179.770	    22.982
    49.589	  -161.681	    14.096
    63.087	  -156.666	    33.106
    63.386	  -140.058	     1.794
    67.949	  -159.347	     0.818
    65.362	  -156.693	     0.530
    53.317	  -161.694	     6.060
    55.209	  -177.921	     7.010
    46.861	  -165.682	     5.239
    52.509	   178.321	    -1.752
    54.494	  -170.971	     8.496
    52.308	   172.839	     9.728
    69.973	   173.337	    -5.023
    60.175	  -169.187	    10.926
    60.525	  -169.686	    -2.633
    63.529	   179.991	    -8.233
    58.288	  -161.235	     2.187
    47.591	  -167.232	     3.770
    65.012	   168.895	    13.121
    67.661	   171.533	    -1.906
    55.958	  -171.488	    17.169
    58.663	  -176.401	     5.590
    47.781	   171.503	    25.875
    60.656	  -150.201	   -31.388
    61.979	  -163.995	    10.995
    66.346	  -169.952	    -2.124
    63.376	  -164.532	     5.271
    65.627	   173.777	    -3.795
    63.887	   177.876	    -1.871
    57.066	  -167.453	    11.765
    59.807	  -179.962	    31.567
    68.147	  -169.542	    19.107
    50.781	   178.219	    -6.983
    57.297	  -164.515	    15.376
    68.720	   168.324	    14.232
    60.991	  -167.114	     0.194
    64.374	  -170.468	     2.083
    50.678	  -146.684	    12.912
    58.444	  -168.546	    10.488
    52.592	  -179.733	     4.878
    50.811	  -168.412	    16.316
    62.348	   174.603	    -5.988
    60.190	   156.725	     5.386
    75.556	  -166.130	    10.146
    56.551	  -179.486	    13.451
    66.393	   170.068	    -2.851
    57.464	  -167.880	   -17.288
    64.758	  -161.794	    -9.232
    69.380	   166.947	   -15.664
    60.968	  -174.313	    -2.224
    58.949	   174.545	     3.644
    59.831	  -177.888	    -3.118
    55.903	  -176.337	    -7.133
    61.368	  -144.117	    -5.170
    60.449	  -177.950	    12.239
    64.884	  -157.396	   -10.014
    70.504	  -160.651	    -4.741
    66.736	   169.574	    13.427
    58.617	  -162.087	    16.123
    51.806	  -165.730	     6.919
    56.908	  -169.133	     2.168
    61.982	   170.916	     7.838
    45.092	  -163.792	     8.061
    71.934	   174.756	   -14.621
    55.006	  -155.989	    12.196
    49.326	  -164.854	    31.631
    59.816	  -167.164	     8.743
    61.433	  -176.956	    13.748
    59.502	  -178.233	    18.720
    57.614	   178.548	    15.367
    68.248	  -178.769	   -22.238
    51.625	   173.055	    18.655
    60.300	   171.751	     2.233
    52.183	  -167.279	     2.458
    70.253	   166.517	    10.569
    58.115	   168.831	    29.853
    48.891	  -179.039	    -5.102
    61.657	  -170.973	    -5.789
    59.347	  -176.704	    11.019
    61.118	  -158.739	    -7.149
    55.648	  -166.597	    -0.283
    49.397	  -162.381	     4.229
    64.619	   179.306	    -8.249
    60.399	   167.736	     1.424
    59.422	   159.974	     1.341
    66.714	  -178.978	     0.386
    55.740	   178.398	     5.346
    81.935	  -179.684	   -19.360
    59.183	   173.016	    -3.793
    68.260	   168.526	     1.248
    71.489	  -179.945	    -6.487
    65.395	  -169.956	   -13.745
    61.437	   178.387	    -6.024
    57.816	  -179.652	    -2.282
    63.062	  -162.742	     4.271
    68.703	  -157.240	    -2.569
    72.367	  -177.964	    -2.937
    62.850	   177.596	    -0.228
    68.005	  -179.250	     8.177
    71.151	   179.763	     8.148
    62.803	   179.145	     9.588
    61.009	  -163.813	    -2.173
    69.594	  -165.372	    -0.569
    66.608	  -173.485	    22.359
    57.014	  -151.874	     2.787
    65.817	  -175.836	    -0.186
    68.274	  -177.121	    -7.431
    51.937	  -151.569	    -6.755
    62.507	  -174.058	    12.340
    55.840	  -175.946	     6.678
    71.559	  -173.794	    13.915
    70.145	  -170.819	    -6.855
    63.067	  -158.338	     1.999
    64.108	   155.465	    16.845
    55.257	  -176.286	     2.575
    51.901	   167.743	     9.195
    55.065	  -167.176	    -4.716
    50.081	  -179.367	    21.254
    69.314	   177.400	    13.552
    54.952	  -176.965	    11.899
    59.412	  -176.115	    -4.743
    59.828	  -163.839	    -0.659
    64.585	  -163.575	   -10.606
    66.096	  -178.442	    -4.528
    65.270	   174.602	    -1.259
    64.828	  -168.493	    -0.982
    69.770	   173.915	   -19.395
    63.632	  -179.649	     0.823
    52.650	  -162.928	    -5.868
    64.975	  -158.037	     8.882
    68.413	  -166.089	   -13.878
    59.822	  -173.897	     9.332
    63.874	  -173.042	     5.401
    56.792	  -178.575	    -5.890
    57.305	  -177.440	     1.593
    60.179	   179.791	    14.577
    60.736	   164.879	    14.036
    67.311	   171.385	    -3.160
    65.232	   162.342	    -4.340
    60.976	   168.838	    -2.858
    60.340	  -151.239	    -1.390
    56.048	   167.202	     2.354
    73.169	   168.844	     4.883
    52.945	  -161.898	    -8.972
    58.602	  -163.053	    -3.657
    62.099	  -150.897	     2.982
    61.525	  -175.208	    -9.802
    59.124	   171.574	     4.623
    58.317	   177.698	     7.495
    56.591	   178.829	    -0.225
    45.827	  -156.480	    20.197
    57.185	  -160.859	    -5.453
    62.925	  -172.130	   -18.156
    60.581	   172.220	    20.004
    54.226	   168.115	    -2.003
    44.684	  -164.286	   -10.526
    73.906	   171.513	    -1.088
    55.062	  -177.280	     5.009
    68.749	   177.518	     4.832
    64.977	  -170.660	     1.277
    62.616	  -172.928	     5.172
    52.978	  -170.408	    10.139
    58.915	  -171.512	     4.880
    63.822	  -154.495	     2.729
    52.831	  -139.970	     1.353
    62.592	  -170.031	   -13.737
    74.075	   175.236	    -8.460
    61.683	  -170.369	    15.525
    60.121	   167.332	    24.459
    66.531	  -156.217	     5.303
    50.875	  -176.612	    10.857
    67.294	  -161.325	    -3.785
    62.154	  -171.060	    -2.069
    74.170	  -163.921	    -4.778
    57.788	  -160.560	     0.787
    63.735	  -174.599	    -6.609
    55.772	  -167.939	    -4.311
    60.669	  -173.369	    -4.983
    56.781	  -156.310	     6.181
    59.640	  -176.627	    15.903
    56.102	   164.360	     7.716
    62.010	   174.548	     4.365
    55.334	  -175.128	    22.559
    52.704	  -172.243	     7.339
    65.224	   174.966	    20.120
    66.065	  -172.084	    -2.833
    65.619	  -174.727	   -10.511
    62.082	  -159.885	    -5.429
    64.824	  -174.603	     1.304
    56.845	  -169.881	    -2.652
    59.981	  -149.927	    -4.688
    65.321	  -163.000	    -1.150
    59.922	  -168.767	    -9.942
    55.314	   177.472	    11.584
    48.976	  -163.507	     2.245
    60.757	  -167.317	    -4.880
    60.958	  -173.991	     5.820
    57.431	   179.124	     7.411
    70.820	   157.919	     4.825
    66.759	   169.172	   -15.092
    61.911	  -177.562	    -8.647
    73.789	   161.129	     4.383
    53.651	  -149.232	    17.034
    63.091	  -171.578	   -13.508
    66.757	  -163.302	     1.694
    56.750	  -157.874	    -2.411
    60.529	  -165.583	     0.043
    51.323	  -178.751	     9.211
    64.999	  -145.658	    -0.862
    55.108	  -151.924	    -3.518
    54.598	  -148.911	    -9.209
    64.141	  -160.924	    -7.699
    62.251	  -178.248	     3.721
    69.054	   176.444	     7.879
    68.724	  -171.197	   -17.033
    47.329	   168.147	    18.139
    68.012	   164.339	     5.194
    74.397	  -177.095	     4.780
    62.077	  -167.812	    -6.564
    72.537	  -172.428	     5.748
    51.644	  -178.341	    18.818
    67.912	  -172.470	    -0.256
    67.123	  -178.387	     2.610
    68.728	  -175.077	     6.743
    67.348	  -171.094	   -16.954
    57.826	  -172.762	     8.068
    57.762	  -176.966	    23.661
    64.546	   178.616	     1.331
    68.228	  -174.827	    12.086
    62.310	  -173.714	     1.426
    61.299	   168.709	     2.026
    64.242	  -177.051	    -3.176
    57.890	  -174.608	    12.872
    54.616	  -165.034	     9.367
    63.329	  -156.361	    -3.205
    68.181	   169.853	    15.167
    59.456	  -169.779	    -7.674
    61.780	   175.824	    11.747
    63.182	  -173.849	    -3.164
    61.627	  -174.816	    13.798
    60.105	   165.125	    10.094
    56.521	  -178.921	    17.573
    45.728	  -174.076	     6.299
    53.954	  -177.991	    12.274
    57.257	   161.818	     5.801
    65.240	  -158.330	     5.302
    61.198	  -176.923	    -8.919
    57.843	   178.766	     2.494
    62.197	   175.520	    -5.029
    56.652	  -177.037	     6.130
    62.381	  -177.657	     7.833
    62.180	   177.055	     9.931
    51.925	  -166.598	   -16.621
    59.015	  -163.957	    -1.531
    59.733	   169.375	     1.314
    55.983	  -161.952	    12.173
    59.056	  -165.528	    -4.530
    62.827	  -168.919	     6.901
    53.785	  -178.442	    12.307
    47.799	  -170.972	     5.942
    65.499	  -177.952	    -4.480
    61.429	  -171.591	     1.760
    60.631	  -175.827	    25.809
    62.444	  -164.300	     6.697
    56.829	  -176.234	     1.933
    64.716	   177.148	    -9.509
    66.371	   170.297	     7.932
    59.307	   179.044	   -10.862
    51.999	   179.086	    -3.635
    53.916	  -170.720	     5.368
    66.038	   177.290	     0.457
    55.145	   168.329	    -0.878
    61.553	  -176.157	    12.466
    56.186	  -179.981	    22.463
    68.601	   173.680	    -5.307
    65.456	  -177.602	     6.096
    66.078	  -153.848	    18.912
    47.875	  -172.424	     7.165
    51.823	  -176.228	     5.999
    55.618	   177.125	    -0.026
    58.247	  -165.774	    -2.981
    62.774	  -158.782	    -9.300
    57.536	   171.583	    10.807
    56.827	   149.774	    -3.178
    64.574	   173.433	     0.011
    59.463	  -179.381	     3.790
    56.866	  -175.755	     4.909
    62.811	   161.379	    -2.650
    62.467	  -170.755	     0.511
    67.056	  -166.568	    -7.543
    70.706	  -171.625	    -4.635
    55.451	  -166.121	   -13.116
    64.044	   164.025	    11.142
    69.600	   172.078	    14.926
    66.927	  -151.137	     0.675
    54.834	  -178.240	     1.614
    58.949	  -177.678	    -1.236
    67.222	   167.299	    -4.756
    52.830	  -179.944	     2.480
    51.315	  -172.248	    14.474
    55.599	  -172.976	    -7.345
    66.780	  -164.604	    -1.645
    60.063	   164.932	    -2.182
    47.160	  -167.216	     8.028
    54.616	  -171.058	     1.415
    60.858	  -176.274	    -5.025
    60.986	  -148.828	    -1.345
    57.980	  -163.748	    -4.680
    57.913	   178.692	    -3.190
    69.980	  -144.948	    -8.431
    55.142	  -178.620	     4.711
    65.223	  -177.376	   -11.040
    57.100	  -160.711	     4.477
    57.298	  -160.043	    -2.109
    54.252	  -161.012	     4.632
    54.138	  -178.165	    18.215
    61.402	  -170.872	    14.749
    54.616	  -170.959	    13.073
    63.947	   179.523	    10.630
    50.230	  -164.652	     2.026
    46.075	  -154.317	     9.490
    54.815	  -177.789	    11.946
    57.048	  -153.569	     5.788
    60.287	  -174.918	     3.808
    64.769	  -163.738	    -4.377
    60.607	  -176.581	    15.547
    56.145	  -177.282	     6.020
    74.270	  -169.837	    -3.826
    66.125	  -163.420	    10.730
    53.043	   179.365	    11.037
    55.347	  -175.403	     2.317
    58.232	  -157.110	     3.384
    66.949	   179.743	    -2.374
    63.889	  -174.987	    -1.569
    61.113	  -169.593	     6.172
    56.895	   175.970	    -7.967
    65.150	  -168.030	    12.541
    61.809	  -179.828	     1.373
    62.614	  -176.842	    -3.231
    64.697	   170.510	     1.359
    72.014	   177.453	    -4.102
    69.755	   171.528	     7.020
    66.175	   174.324	    -2.768
    50.322	  -164.546	    11.233
    46.851	  -173.276	    15.330
    47.972	  -158.617	     0.732
    52.297	  -170.311	    10.155
    48.106	  -171.010	    11.485
    58.372	  -166.805	     5.768
    60.561	  -159.027	    -2.898
    68.590	  -170.447	     6.499
    66.209	  -174.351	    -2.681
    62.285	  -170.285	    -1.775
    47.979	  -150.624	    13.259
    46.201	  -159.578	    17.996
    53.388	  -160.006	     9.680
    48.765	  -158.379	    18.881
    55.810	  -173.508	    11.807
    63.756	  -174.001	     3.097
    68.460	   154.204	     9.660
    57.619	   168.545	    11.681
    47.191	   178.394	     2.655
    56.703	  -179.867	    26.160
    69.526	   165.533	    -2.409
    66.048	   164.572	     2.095
    58.615	   172.256	     6.315
    71.665	  -167.839	    -6.547
    69.219	  -175.410	   -18.521
    51.766	  -161.826	     3.748
    63.863	   168.522	     0.646
    51.521	  -159.190	    -2.972
    58.186	  -160.934	    -7.665
    54.900	   176.919	     3.580
    56.841	   175.085	    19.487
    76.016	   166.624	   -16.659
    62.408	  -167.801	    -1.179
    69.321	   169.298	     1.722
    59.775	  -175.651	    16.436
    58.694	  -170.307	     6.630
    53.055	  -157.498	     5.140
    62.557	  -177.310	     2.906
    63.219	  -171.939	    -0.627
    55.048	  -170.348	     9.229
    51.843	  -171.843	    14.319
    68.609	  -166.095	   -10.679
    57.135	  -166.160	     7.786
    59.924	   174.293	     9.115
    53.457	  -170.457	     9.386
    62.384	   178.050	     6.855
    73.241	   174.692	   -11.091
    61.343	  -179.694	     2.240
    53.766	  -169.936	     3.932
    74.932	  -178.252	    -7.903
    62.065	   177.570	   -15.731
    54.594	  -158.971	     3.420
    61.464	  -159.210	     1.891
    60.933	  -169.588	   -16.420
    66.426	  -178.430	     3.750
    51.813	   166.966	     2.085
    73.038	  -168.727	    -1.953
    71.630	   169.557	   -22.048
    47.087	  -172.582	    10.255
    67.787	  -174.488	     7.236
    75.016	   156.193	    -8.729
    59.024	   179.695	    -1.088
    74.356	   177.772	     0.114
    55.734	  -179.228	     9.457
    66.017	   170.773	    -3.580
    52.457	  -160.381	     8.314
    71.330	  -162.662	     7.209
    64.796	  -165.106	    -9.148
    63.505	  -179.596	     0.947
    65.311	   179.718	    -1.503
    61.409	   171.878	    -7.786
    49.724	  -173.109	     1.202
    67.429	  -178.408	    -6.710
    64.998	  -153.603	   -10.045
    62.966	   165.668	   -17.155
    70.526	   166.921	     5.868
    60.784	  -154.023	    14.359
    59.478	  -174.685	    -3.101
    54.710	   176.215	     9.131
    53.323	  -170.707	    -3.188
    62.928	  -168.959	   -10.132
    60.430	  -177.871	    -5.278
    59.283	  -154.653	     6.153
    50.318	  -154.379	     1.039
    59.296	   168.335	     7.420
    65.008	  -175.443	     5.081
    59.569	   179.247	     5.622
    61.778	   173.472	    -1.613
    72.562	   171.137	   -10.422
    61.429	  -175.427	    13.164
    53.979	  -165.905	     6.995
    70.414	  -134.104	     5.102
    55.877	  -166.619	    12.028
    55.743	   174.273	    11.748
    58.826	  -153.179	    -0.099
    73.507	  -161.807	     1.098
    62.267	  -168.755	     9.679
    59.274	   179.054	     4.633
    62.591	   170.701	    26.716
    66.421	  -169.080	    12.196
    68.252	  -175.815	   -21.988
    62.648	  -161.907	    -2.006
    55.880	  -166.618	     1.220
    56.075	  -176.031	     4.400
    58.721	  -158.747	    11.845
    67.966	  -158.103	    -1.443
    54.952	  -179.892	     0.440
    55.499	  -157.376	     4.998
    67.911	   174.882	    -6.432
    54.098	  -174.341	     5.068
    56.547	   159.739	    10.899
    62.718	   177.277	     3.926
    65.959	  -178.475	    -8.167
    52.444	  -164.241	     2.654
    67.740	  -176.628	    14.427
    62.025	  -167.781	     5.111
    70.742	  -174.967	    -3.518
    59.571	  -169.650	    -3.225
    56.695	  -175.665	    -8.086
    45.038	  -160.966	    11.105
    58.695	  -178.901	     3.234
    62.452	   168.008	    -6.842
    59.987	  -174.425	     8.115
    63.306	   175.771	     7.886
    66.964	   179.850	    10.040
    58.590	   170.355	    -5.138
    55.054	  -179.889	    -1.750
    60.206	  -172.792	     5.625
    57.369	   162.507	    15.095
    64.251	  -178.776	    13.364
    56.081	   172.446	     1.382
    74.606	  -176.821	     3.513
    61.789	   174.405	     3.389
    61.766	  -173.996	     4.034
    51.603	  -176.790	    13.169
    70.177	   167.796	     7.131
    67.652	  -172.244	   -28.062
    58.962	  -155.956	    14.677
    69.867	  -148.523	    -1.621
    61.276	  -166.123	     9.042
    64.814	   172.719	     5.868
    60.453	  -175.146	     1.967
    56.084	   178.103	     6.817
    60.687	  -157.233	    11.868
    61.507	  -171.320	    -0.200
    51.135	  -174.575	    16.397
    46.535	  -171.843	     7.134
    66.595	   174.853	    -0.818
    58.365	  -170.752	   -10.652
    70.191	  -172.115	    11.616
    66.299	  -176.505	     2.155
    56.022	   177.905	   -11.766
    55.852	   174.377	     7.657
    54.835	  -175.568	    16.049
    64.041	   176.091	     9.457
    60.477	  -169.714	    -2.153
    58.186	  -163.136	     7.277
    71.204	  -165.410	     2.968
    66.746	  -179.714	    -6.101
    57.038	  -178.087	    16.631
    55.993	   165.134	    10.988
    68.036	  -179.783	   -10.155
    70.111	   177.438	   -15.172
    63.714	  -171.561	   -13.593
    56.658	  -171.422	    -4.033
    59.483	   178.699	     7.165
    60.554	  -177.916	   -12.703
    56.023	  -171.404	     8.839
    63.101	  -174.177	   -10.851
    59.435	  -163.999	     2.736
    54.417	  -179.804	     9.087
    49.293	  -176.212	   -11.937
    66.638	  -172.373	     2.330
    59.393	   174.967	     1.654
    58.362	  -174.844	     0.222
    72.527	  -172.105	    12.702
    71.075	   176.021	   -12.491
    56.756	  -174.897	    10.245
    63.904	  -170.530	     0.229
    63.490	   178.032	    10.689
    62.497	  -175.195	     1.909
    57.297	  -172.892	     0.595
    57.309	   173.814	    -1.498
    66.192	   177.314	    17.601
    61.137	  -147.473	    15.273
    56.271	  -159.120	     0.009
    64.927	  -168.907	     9.784
    62.972	  -169.775	     0.756
    63.888	  -177.629	     0.261
    60.574	  -177.536	    19.107
    60.277	   173.622	     6.847
    71.247	  -161.000	   -15.448
    58.364	  -163.209	    -8.076
    55.532	  -174.119	    -7.288
    69.261	  -171.520	   -24.414
    53.963	  -167.163	    -8.709
    58.157	  -178.503	    -2.440
    56.532	  -172.005	    -5.828
    51.534	  -177.424	     9.104
    62.176	  -178.704	    -4.206
    60.244	   165.517	    -3.721
    54.360	  -163.354	     0.353
    55.565	  -160.194	    -7.065
    66.715	  -170.435	     6.650
    65.286	   177.470	    -5.755
    66.194	   166.802	     2.520
    67.669	   175.523	    -2.372
    53.889	  -169.570	     7.938
    62.805	  -177.307	     5.843
    55.330	  -170.970	    -2.415
    55.702	  -177.001	     5.179
    59.203	   172.556	     6.655
    65.470	   165.713	    -3.868
    61.398	  -177.333	     1.251
    63.403	   175.543	     8.487
    60.563	  -178.706	    13.224
    65.870	  -179.743	     9.463
    58.866	   158.024	    10.987
    57.165	  -170.402	    -1.537
    59.330	   165.438	    17.435
    60.031	  -175.949	    -9.527
    62.783	   165.647	     1.841
    57.297	  -176.966	    18.178
    65.403	   172.764	     7.952
    41.782	   173.450	    33.380
    72.846	  -178.906	     9.383
    59.169	  -167.629	    -3.624
    67.691	  -175.143	    10.995
    66.354	   176.216	   -17.186
    47.008	   177.702	    11.210
    51.714	   178.392	     8.570
    54.733	  -171.282	    17.093
    61.066	   170.958	     3.715
    57.238	  -159.212	    17.297
    55.218	  -156.591	     0.081
    59.974	  -170.457	    18.423
    62.376	  -168.485	    -5.939
    63.032	  -152.085	     9.580
    57.632	  -172.838	     1.105
    60.075	   174.350	    -1.157
    74.353	   178.264	    -5.687
    56.803	   165.143	     1.898
    58.638	   179.410	   -12.154
    67.297	  -178.805	     7.842
    58.341	  -174.519	    16.509
    64.720	  -173.093	     2.860
    73.547	  -170.853	   -16.369
    55.482	  -154.006	    -3.342
    51.972	   177.355	    -3.379
    62.085	  -176.228	     5.839
    52.910	  -178.909	    18.365
    58.959	   161.798	     0.573
    53.347	  -166.175	     4.341
    64.819	  -179.439	     3.311
    52.480	  -171.911	     7.902
    45.587	  -172.277	     9.381
    49.656	  -162.571	    -5.604
    57.565	   178.325	     3.761
    57.876	   176.051	    11.467
    56.483	   179.770	    -3.830
    61.942	  -173.389	    -1.421
    73.499	   170.108	    -8.252
    55.007	   162.214	    15.110
    59.900	   170.324	    -2.966
    57.932	  -162.364	    -5.679
    68.638	  -166.351	   -10.487
    62.726	  -176.346	     3.077
    60.684	  -156.929	    -9.646
    56.069	  -156.018	    -4.251
    59.427	  -170.501	     9.061
    54.423	  -158.942	    -8.141
    69.576	  -172.867	     1.402
    64.186	   175.405	    -8.166
    67.767	  -179.314	     6.111
    54.913	   166.195	     5.195
    52.331	   176.423	     5.395
    58.225	   173.828	    -0.063
    55.081	   179.968	     7.770
    67.540	  -179.462	     6.598
    48.921	   173.327	    10.634
    68.002	   161.382	   -15.157
    66.049	  -175.777	    15.674
    56.214	  -177.243	    -4.143
    70.420	  -163.632	    -0.246
    70.545	  -178.602	     1.981
    53.190	  -168.763	     7.068
    53.743	  -175.072	    -4.531
    66.480	  -177.890	     6.441
    53.887	  -165.913	    16.094
    66.221	  -143.893	    -3.600
    56.084	  -172.800	     1.551
    56.631	  -167.129	     1.560
    64.838	  -173.699	     1.627
    62.825	  -175.324	     5.938
    56.478	  -161.539	     8.791
    56.756	  -167.232	    10.916
    54.151	  -149.360	     1.194
    56.613	  -165.300	     1.567
    60.924	  -175.191	     2.169
    63.977	  -174.003	    10.801
    65.701	  -164.068	     5.541
    59.654	  -172.886	     8.441
    70.698	   177.855	   -12.503
    59.031	  -174.985	    13.043
    62.739	  -174.068	     2.058
    64.691	   167.123	    -3.191
    66.561	  -167.617	   -10.458
    65.063	   175.695	    -6.331
    58.304	  -173.490	     1.742
    58.674	  -177.181	    -5.711
    59.365	   175.827	    -0.108
    65.810	   171.899	    -5.774
    68.302	   170.220	     0.236
    59.698	   176.932	     1.062
    66.241	   167.442	     8.905
    57.777	   174.266	    -2.239
    59.054	   175.422	     4.661
    61.553	   178.996	    -3.844
    55.507	   172.776	    16.246
    51.682	  -155.745	     9.374
    56.138	  -175.725	    -6.274
    58.591	   173.312	    -4.130
    62.432	  -166.187	   -10.557
    55.782	  -179.811	     4.416
    64.499	  -143.736	    21.376
    55.418	  -161.802	     6.174
    67.073	   168.450	     6.370
    73.152	   172.927	    -0.574
    66.397	  -172.825	     8.077
    58.575	   179.770	    -0.956
    67.932	  -175.438	    -2.092
    63.938	   177.255	     7.459
    66.411	  -175.020	   -12.425
    48.138	  -174.028	    16.438
    70.238	   169.154	     4.990
    61.005	   173.588	    -9.770
    63.737	   169.140	    -7.072
    73.104	   165.302	    11.438
    58.984	   175.785	     6.064
    58.643	   171.943	    23.950
    58.357	  -167.350	    -0.349
    72.056	  -169.903	    -5.371
    53.719	  -170.620	     4.385
    67.940	   174.583	    -4.992
    60.304	  -178.506	    11.363
    65.407	  -177.457	    13.655
    65.881	   175.517	   -13.069
    59.725	  -173.615	    12.811
    60.515	  -174.911	    15.080
    64.983	  -165.226	    16.828
    66.989	  -154.850	   -10.698
    54.070	  -167.435	     6.761
    56.478	   179.103	     7.124
    57.649	   178.063	    -7.850
    56.071	   173.995	     7.866
    56.885	   165.581	    15.191
    65.138	  -178.263	    -4.451
    70.381	  -166.440	    -1.506
    60.156	  -166.093	    -2.371
    60.306	  -176.872	     1.369
    53.803	   163.616	    13.671
    66.346	  -146.847	   -21.515
    54.256	  -170.557	     3.997
    61.705	  -175.899	    -0.619
    54.559	  -163.639	    10.104
    56.459	  -166.860	    15.396
    47.401	  -164.113	     2.324
    62.429	  -169.814	    -7.967
    59.800	   177.529	     6.045
    65.383	  -175.360	   -13.773
    56.184	   179.296	    -4.744
    48.042	  -160.223	    -0.572
    51.143	   170.124	    10.827
    61.648	  -158.255	    -2.129
    64.723	  -144.499	    -7.870
    58.450	  -176.494	     7.433
    60.669	  -162.792	     8.144
    59.031	  -159.234	    -0.453
    66.181	  -159.769	    -8.911
    58.588	   175.499	    14.348
    48.262	  -175.008	     9.276
    44.386	  -167.537	    -5.093
    54.977	  -155.951	    -3.645
    58.740	  -162.357	    -3.147
    63.927	  -175.633	     5.979
    57.336	  -174.827	   -14.536
    61.320	  -162.937	     0.334
    43.659	  -159.337	    -6.242
    65.009	  -179.258	     9.347
    67.606	  -167.540	    -3.878
    59.269	  -169.160	     3.279
    60.099	  -163.538	     6.590
    62.793	  -176.912	    -0.612
    54.001	  -174.139	    13.578
    61.742	  -168.012	     3.224
    63.165	   164.611	     2.313
    58.869	   151.464	     3.556
    43.339	  -172.880	    15.089
    62.922	   174.582	    -6.067
    60.054	  -176.862	    12.589
    65.805	  -174.053	    -0.713
    63.607	  -159.942	    -9.517
    64.193	  -164.114	    -4.268
    60.009	  -167.280	     6.170
    60.080	   175.725	    -2.078
    60.949	  -170.717	    -3.349
    56.699	  -171.315	    21.958
    68.548	   179.545	   -10.420
    50.674	   175.854	    15.930
    51.933	  -157.521	     5.273
    62.616	  -167.548	    10.552
    53.781	   167.941	    -5.426
    55.385	  -175.865	    15.974
    64.576	   173.891	     1.542
    64.386	   151.859	    17.672
    55.482	  -179.869	     6.583
    58.481	  -159.231	     0.933
    51.931	   168.726	    32.008
    59.902	   159.540	    20.655
    62.926	   171.230	     0.831
    63.997	  -163.036	    -5.071
    57.640	  -172.176	    -8.786
    59.786	  -167.937	     7.435
    63.343	  -174.278	    15.899
    61.064	  -171.502	     0.943
    59.283	  -159.446	   -11.211
    60.216	  -179.027	    13.847
    59.279	   178.768	     9.291
    57.579	   168.931	     8.966
    78.120	   156.845	     6.746
    73.987	   156.891	     6.281
    66.032	   170.594	     5.083
    66.195	  -172.370	   -12.518
    56.976	  -173.451	    16.777
    55.098	   178.818	     6.838
    65.186	  -161.107	    -2.062
    52.554	  -154.885	     5.184
    66.372	   169.861	     2.269
    67.235	   172.336	     4.527
    66.180	  -177.426	     7.291
    65.174	  -157.800	     6.101
    60.209	  -175.179	    18.693
    62.248	  -167.557	   -15.876
    54.055	   177.267	     8.887
    66.141	   176.278	    -1.620
    56.489	   175.641	    -3.286
    51.553	  -172.455	    11.325
    52.994	   178.654	     7.054
    49.206	  -152.939	    -6.008
    56.115	  -166.259	    27.119
    59.422	  -168.051	    13.338
    59.059	  -157.482	    13.742
    55.291	  -164.257	    -0.767
    58.410	   165.093	     3.638
    62.148	  -159.449	     3.700
    67.862	  -170.135	     5.886
    76.921	  -172.454	     6.385
    69.695	  -177.634	    -9.815
    70.469	  -168.594	     0.228
    60.780	  -162.079	    15.854
    60.973	   174.017	    13.862
    58.677	  -165.264	     5.400
    58.686	  -161.147	     1.910
    61.087	  -171.903	    -2.370
    56.277	  -154.042	    11.644
    59.712	  -174.903	    -1.064
    59.677	  -163.137	    -0.379
    49.916	  -155.231	     3.267
    52.052	  -154.313	    -0.300
    58.728	  -151.654	    -4.503
    51.345	  -173.723	     0.764
    64.986	  -169.336	    -7.587
    71.305	   179.603	     5.741
    61.203	   176.141	     0.093
    61.756	   177.015	     5.645
    53.505	  -179.340	     3.391
    66.163	   170.088	     8.618
    68.354	   156.211	    -5.165
    64.961	   163.674	     4.106
    50.376	  -176.610	     5.147
    63.579	   160.807	     7.477
    76.443	  -179.695	     7.535
    60.253	  -176.101	    -5.278
    63.539	  -179.572	   -10.865
    53.622	   163.890	     6.086
    65.925	   150.673	    13.119
    57.009	   174.298	    26.653
    61.890	   161.843	    16.645
    65.125	   179.114	     2.455
    51.495	  -178.287	    -1.695
    68.248	  -171.526	    10.811
    56.713	  -173.467	     5.790
    74.476	   165.630	    -7.580
    76.634	   166.385	    -2.788
    64.279	  -172.657	    -9.385
    53.357	   175.128	    10.414
    61.777	   173.010	     0.557
    61.345	   179.649	    10.135
    47.363	  -157.866	     7.713
    57.179	  -171.333	    -3.799
    57.116	   175.665	     3.487
    68.023	   171.566	     0.018
    54.417	  -179.438	     8.384
    52.974	  -163.945	     0.180
    55.735	  -172.180	     8.456
    59.211	  -175.137	   -15.896
    68.374	  -179.418	     6.052
    49.589	  -151.641	    13.607
    52.753	  -179.789	     4.111
    67.295	  -171.430	     4.580
    65.748	   176.279	    -5.062
    66.495	  -175.736	    12.457
    52.894	   174.855	     1.264
    58.462	  -177.540	     6.392
    67.959	   166.992	   -12.056
    76.530	  -177.061	   -20.361
    54.521	  -179.962	    36.605
    66.051	   179.261	    -6.150
    64.435	   170.820	    -9.694
    46.561	   176.767	   -19.687
    61.885	  -162.364	   -19.887
    59.031	  -162.772	     5.653
    66.375	   171.654	    -0.416
    51.823	  -164.582	     6.028
    55.151	  -174.424	    11.226
    64.486	  -175.406	     4.132
    57.513	  -166.590	     7.785
    65.335	   177.302	   -14.486
    59.219	   174.757	     4.689
    64.745	   173.996	    -2.353
    61.800	   176.977	     4.381
    57.351	  -158.240	     4.553
    67.604	   177.904	    -7.208
    56.977	  -179.328	     8.964
    62.896	  -175.729	     5.111
    49.511	  -178.043	    11.695
    76.777	   176.979	    -9.540
    70.919	  -160.100	    12.959
    49.982	  -144.494	    21.028
    61.580	  -153.481	     0.154
    61.139	  -175.141	     0.561
    65.973	  -159.204	    -0.844
    72.144	  -159.537	    -1.946
    47.326	  -153.548	     9.199
    51.806	  -157.311	    13.538
    68.860	  -173.126	    12.183
    58.598	  -165.380	     2.084
    56.388	  -179.017	    11.295
    57.782	   164.518	     0.948
    62.078	  -177.216	     3.055
    58.775	  -158.610	    -3.662
    51.571	   171.027	    23.931
    59.527	  -148.778	    18.884
    63.023	  -140.724	   -11.008
    65.447	  -153.179	    -1.358
    53.778	  -151.361	    -7.853
    59.238	  -170.044	    -5.371
    50.357	  -177.745	    -2.099
    50.079	  -176.027	     1.730
    48.980	  -166.818	    17.570
    63.005	   170.595	    12.598
    60.929	  -174.503	    -3.891
    57.019	  -168.826	     3.278
    57.203	  -170.979	    -4.708
    61.001	  -166.578	    -8.353
    59.648	  -164.054	    18.150
    57.084	  -171.130	   -11.245
    52.263	  -168.969	    -7.176
    62.362	   174.762	    -0.277
    54.285	  -177.813	    20.406
    63.946	   167.595	     5.861
    54.608	   177.279	     2.350
    57.479	  -166.019	    -5.349
    63.899	  -162.323	    -2.008
    58.036	   175.807	     4.006
    52.055	   179.468	    18.710
    44.595	  -155.217	   -13.262
    70.442	  -170.700	    -2.757
    57.401	  -169.125	    -4.653
    71.230	  -164.144	    -7.365
    70.794	   168.397	     4.922
    64.972	  -176.445	    -7.516
    70.511	  -173.563	    -8.537
    68.347	  -178.032	    -1.753
    51.701	  -170.014	    17.609
    55.440	  -178.435	    21.172
    50.844	  -170.000	     3.705
    57.653	  -171.056	    -7.929
    75.993	   171.417	   -11.556
    54.914	  -171.999	    -2.797
    74.278	  -174.659	    -7.536
    58.171	  -169.186	     0.845
    74.753	  -168.583	     6.756
    69.842	  -176.242	     5.234
    56.114	   171.872	     3.631
    60.301	   178.494	    -1.548
    55.465	   170.667	     7.956
    57.591	   172.470	     3.268
    51.333	   172.055	    12.950
    69.916	  -177.112	    -4.730
    65.313	   177.085	    -9.094
    61.540	  -174.929	    -3.492
    57.316	   173.230	    -8.466
    64.958	  -174.924	    -2.860
    70.623	   172.882	    12.791
    62.932	   171.814	     0.159
    52.828	  -162.042	    10.752
    62.493	  -177.705	    -3.927
    51.279	  -164.168	    11.918
    56.888	  -174.847	     7.513
    56.030	  -162.860	     3.696
    63.439	  -154.744	   -12.948
    60.102	  -146.099	     5.231
    63.433	   178.467	     8.662
    60.330	  -157.433	     0.906
    73.011	  -170.670	    -2.427
    61.847	  -161.814	    10.748
    68.958	  -171.324	     2.579
    40.262	  -165.530	     6.396
    58.797	  -159.897	    -7.442
    66.065	  -176.107	     1.114
    66.512	   171.095	   -19.575
    51.890	  -176.182	     5.743
    63.559	  -170.627	   -10.881
    50.645	  -145.968	     7.932
