   -92.310	   122.143	    -3.179
   -68.491	   -39.171	     4.654
   -64.834	   -17.108	    -0.624
   -41.015	   -36.704	    -4.788
   -60.164	   -25.660	     8.270
   -57.527	   -31.006	     6.933
   -47.221	   -18.981	     0.753
   -50.340	   -36.275	     7.108
   -40.603	   -38.627	   -19.001
   -40.986	    -1.634	   -12.642
   -56.241	   -44.013	    -7.322
   -56.623	   -18.369	    -0.249
   -47.307	   -31.296	     6.444
   -48.844	   -35.903	    24.732
   -47.394	   -40.672	   -11.044
   -41.359	   -36.374	    -6.035
   -58.672	   -38.181	    -1.950
   -51.755	   -31.252	    -3.587
   -40.362	   -19.828	    -3.716
   -39.157	   -30.320	     9.577
   -36.206	   -21.804	    -3.694
   -44.883	   -21.551	    -8.106
   -59.598	   -15.619	     0.800
   -61.997	   -34.241	   -18.837
   -43.969	   -16.989	    -8.437
   -40.036	   -19.106	   -17.628
   -44.090	   -24.127	     3.306
   -47.461	   -19.904	    -0.172
   -47.004	   -26.714	    -0.859
   -57.275	    -5.006	     0.569
   -43.803	   -20.628	    -0.100
   -53.444	   -21.315	     4.451
   -40.715	   -34.323	     0.692
   -41.800	   -34.831	   -17.517
   -61.890	    -6.147	     3.209
   -54.235	   -31.669	   -17.675
   -44.260	   -18.073	    -2.329
   -54.031	   -32.673	    -0.548
   -47.866	   -33.313	    -0.919
   -45.772	   -36.153	    21.291
   -63.040	   -30.316	    20.204
   -55.702	   -18.185	    -1.643
   -58.473	   -10.929	   -20.109
   -23.481	   -37.355	    -9.968
   -56.516	   -22.663	    -8.822
   -61.291	   -42.954	     2.948
   -48.226	   -22.567	    -6.046
   -67.898	   -15.960	    -4.527
   -43.291	   -34.113	    -3.275
   -56.234	   -21.477	    -1.155
   -52.691	   -28.006	    -1.097
   -45.931	   -22.046	     0.470
   -56.138	   -23.591	     3.039
   -46.576	   -24.386	   -12.406
   -54.647	   -17.098	    -6.310
   -42.510	   -33.490	    -0.068
   -61.419	   -25.563	   -11.558
   -53.948	   -26.485	    -3.391
   -42.924	   -12.702	   -17.263
   -51.932	   -18.419	     5.687
   -46.938	   -21.684	    -3.875
   -53.393	   -21.866	    -2.593
   -59.591	   -10.104	    15.093
   -38.258	   -23.321	   -15.330
   -54.416	   -20.819	   -10.036
   -44.679	   -33.662	    -9.309
   -55.999	   -27.208	     9.990
   -51.953	   -33.193	    -5.688
   -44.483	   -19.207	   -18.195
   -37.011	   -32.785	   -16.783
   -54.868	   -23.779	     3.093
   -49.400	   -40.266	    12.848
   -42.273	   -28.213	    -5.137
   -51.950	   -18.066	    -5.500
   -52.471	   -31.756	    -2.313
   -40.044	   -35.433	    -4.705
   -37.729	   -39.946	   -13.045
   -43.446	   -37.105	    -1.135
   -51.025	   -33.625	     5.299
   -49.377	   -28.311	    -8.258
   -47.450	   -36.684	    11.711
   -51.189	   -18.280	    -2.102
   -46.659	   -61.577	     3.875
   -50.382	   -23.745	    19.226
   -52.746	   -14.335	   -16.268
   -44.816	   -34.119	    18.859
   -43.165	   -39.934	    20.108
   -69.115	   -22.716	     3.193
   -60.585	    -4.827	    -2.158
   -52.543	   -21.584	    19.335
   -52.996	   -28.253	    -3.382
   -47.566	   -28.440	    -4.568
   -48.123	   -26.825	   -14.263
   -36.807	   -35.109	   -15.520
   -36.663	   -19.746	   -26.312
   -54.310	   -33.706	    -2.683
   -57.845	   -25.114	    -0.232
   -46.057	   -40.965	    -0.541
   -40.042	   -24.766	    -4.746
   -57.866	   -37.761	    -0.387
   -59.425	   -20.588	   -12.610
   -53.033	   -21.018	    -7.853
   -39.683	   -23.229	   -16.005
   -54.195	   -12.997	    -7.179
   -53.089	   -22.317	   -19.613
   -58.642	   -32.203	    -6.747
   -54.723	   -17.292	    -2.527
   -43.935	   -23.574	    -3.004
   -47.703	   -21.359	     6.782
   -50.663	   -15.880	   -14.326
   -60.910	     5.478	    -2.861
   -52.134	   -13.447	   -16.338
   -53.274	   -23.595	     2.768
   -56.146	    -0.795	     4.973
   -27.629	   -26.750	    -4.361
   -57.243	   -26.663	    17.504
   -40.379	   -22.927	     2.407
   -64.660	   -22.163	    18.710
   -36.279	   -38.618	   -21.464
   -57.037	   -12.340	    -4.863
   -40.373	   -50.326	     3.294
   -61.033	   -25.481	     8.944
   -34.630	   -42.158	    -5.560
   -62.564	   -14.017	     7.100
   -61.363	   -34.235	   -16.080
   -36.678	   -28.859	   -16.110
   -63.549	   -27.767	     0.813
   -47.885	   -35.247	     3.652
   -42.158	   -35.569	     3.498
   -62.578	   -25.621	     1.392
   -58.583	   -28.937	    -4.841
   -54.480	   -18.200	    -9.606
   -54.908	   -35.841	     3.490
   -43.086	   -24.108	   -10.560
   -39.989	   -34.642	    -9.238
   -56.988	   -14.253	    -1.120
   -57.023	   -58.479	    -3.507
   -57.741	   -29.602	     2.242
   -49.005	   -34.288	     0.093
   -51.203	   -28.449	     0.868
   -51.043	   -35.494	    -7.046
   -43.868	   -33.705	     0.656
   -49.310	   -25.016	     5.846
   -49.860	   -29.045	    -2.761
   -63.012	   -36.720	     3.216
   -53.547	   -22.438	    -4.867
   -48.757	   -38.745	    -7.254
   -60.993	   -25.981	     3.650
   -50.181	   -23.244	   -10.446
   -61.282	   -32.464	    -5.052
   -54.374	   -30.038	    -9.138
   -52.980	   -26.445	   -14.156
   -51.175	   -38.907	   -23.757
   -50.294	   -38.902	     5.637
   -45.744	   -39.970	    -1.036
   -56.303	   -31.838	    -6.700
   -58.357	   -27.909	     2.946
   -48.808	   -52.767	    -3.058
   -43.965	   -29.107	    -3.145
   -54.933	   -27.065	     7.390
   -51.990	   -31.166	     0.208
   -43.214	   -33.154	    -1.060
   -47.110	   -24.679	     0.128
   -46.424	   -24.271	     1.186
   -48.769	   -26.020	     3.999
   -50.245	   -22.128	     6.734
   -50.324	   -36.697	    -1.228
   -55.189	   -26.868	    -3.395
   -63.395	   -25.964	    16.576
   -60.954	   -24.467	    -8.733
   -47.631	   -25.348	    -0.808
   -65.720	   -23.813	    13.082
   -54.614	   -32.401	    -2.648
   -43.158	   -41.155	     4.591
   -54.519	   -16.311	    11.848
   -51.928	   -21.378	   -18.220
   -48.932	   -25.934	   -12.015
   -44.670	   -44.739	     9.097
   -50.504	   -22.754	     7.640
   -41.583	   -49.752	     6.201
   -66.328	   -15.546	     5.612
   -51.056	   -29.471	     1.438
   -55.329	   -27.565	     1.495
   -42.212	   -27.919	    -1.943
   -45.556	   -27.554	    -6.272
   -58.867	   -27.917	     1.615
   -44.340	   -42.461	   -18.196
   -49.038	   -28.082	     2.050
   -44.843	   -43.447	     4.196
   -55.693	   -30.496	    -9.566
   -55.253	   -24.106	   -18.836
   -47.379	   -16.175	   -14.364
   -49.602	    -7.731	     2.280
   -45.516	   -28.814	   -12.497
   -44.931	   -18.880	    -2.004
   -44.784	   -33.900	    -1.973
   -57.569	   -33.962	     2.780
   -55.112	   -30.936	    -3.107
   -57.127	   -15.419	   -10.884
   -44.637	    -2.465	    -8.147
   -49.978	   -16.152	     2.607
   -46.820	   -29.009	   -12.291
   -60.709	   -20.971	     5.712
   -58.193	   -36.168	    -8.456
   -42.288	   -26.250	     2.872
   -55.310	   -33.580	     4.591
   -45.043	   -32.376	   -12.442
   -60.483	   -28.135	    -0.329
   -46.697	   -35.546	    -2.989
   -51.805	   -28.308	   -12.866
   -33.505	   -28.420	    -6.241
   -47.343	   -20.609	   -11.518
   -56.064	   -16.582	     4.250
   -53.694	   -48.754	    -6.512
   -60.205	   -30.571	    -7.195
   -52.317	   -20.773	     7.242
   -56.484	   -32.160	    -8.075
   -64.191	   -16.039	     6.972
   -67.079	    -8.839	     6.346
   -41.357	   -37.043	   -22.546
   -56.992	   -15.289	   -18.066
   -52.608	   -43.247	     4.269
   -45.043	   -26.251	   -11.845
   -54.466	   -24.479	    -8.660
   -49.795	   -25.429	    -2.455
   -69.563	   -27.703	    -4.903
   -50.942	   -34.882	     1.737
   -42.263	   -30.033	    -3.965
   -35.180	   -40.457	   -10.648
   -39.522	   -27.040	     2.427
   -57.933	   -19.077	    -4.721
   -55.395	   -11.836	    10.107
   -52.451	   -33.292	   -13.577
   -46.141	   -30.299	     3.100
   -49.455	   -11.475	     5.072
   -49.177	   -29.572	   -10.964
   -54.341	   -21.402	    -1.799
   -40.042	   -19.876	    -4.214
   -42.425	   -13.178	    -0.923
   -66.736	   -11.853	   -13.340
   -62.872	   -18.768	     2.620
   -47.897	   -20.565	    -9.292
   -57.510	   -40.665	     0.018
   -51.259	   -34.047	    -9.141
   -62.398	   -20.955	    -3.925
   -62.581	   -33.099	    -4.008
   -55.660	   -32.756	    -7.504
   -38.655	   -44.017	    -0.601
   -59.836	    -7.494	   -15.315
   -49.268	   -31.701	   -12.513
   -47.432	   -44.030	   -16.341
   -40.553	   -38.640	    -1.870
   -54.584	   -30.549	    17.823
   -45.562	   -23.232	   -13.415
   -57.720	   -18.391	    -4.523
   -60.167	   -22.226	     0.706
   -44.664	   -57.298	    -4.731
   -48.417	   -13.941	    -0.116
   -77.254	   -19.709	     1.615
   -52.587	   -29.634	     4.001
   -58.225	   -31.936	   -17.645
   -47.134	   -37.570	   -10.881
   -57.645	   -24.950	    -2.351
   -43.755	   -30.095	    -5.541
   -50.821	   -38.269	    -1.436
   -61.668	   -13.060	   -12.788
   -39.230	   -36.471	   -20.952
   -53.679	   -25.910	    -9.136
   -46.997	   -40.783	    -3.662
   -65.133	   -29.012	     2.089
   -41.651	   -24.714	   -24.309
   -52.123	   -35.298	    -1.825
   -52.374	   -26.608	    -6.540
   -38.256	   -22.709	   -12.817
   -38.289	   -46.423	   -13.321
   -74.428	   -25.951	    27.747
   -30.956	   -19.042	   -24.505
   -53.547	   -27.506	     3.957
   -43.459	    -9.285	    -2.014
   -58.463	   -13.045	    10.222
   -39.304	   -28.554	   -10.114
   -52.004	   -15.954	   -11.849
   -34.483	   -45.608	    -5.868
   -54.286	   -24.260	     2.705
   -41.391	   -29.893	     1.770
   -34.033	   -47.355	    11.351
   -63.712	   -36.321	     2.573
   -52.708	   -15.925	     0.977
   -51.343	   -32.119	    12.311
   -41.842	   -38.761	     3.871
   -40.706	   -22.734	    -6.300
   -63.313	   -29.235	   -15.940
   -47.388	   -28.539	    -7.471
   -46.875	   -37.703	    -4.280
   -47.309	   -46.981	    -5.212
   -48.751	   -13.269	   -16.982
   -53.413	   -40.605	   -12.053
   -62.183	   -27.298	     0.567
   -46.980	   -23.481	    -6.494
   -51.555	   -24.569	    -8.209
   -52.908	   -21.136	     4.256
   -51.523	   -24.869	    -4.142
   -43.119	   -17.647	   -11.700
   -57.888	   -21.195	    -2.197
   -47.980	   -15.004	   -10.617
   -51.959	   -32.522	    -0.015
   -53.596	   -10.739	     1.291
   -53.507	   -32.603	    -9.482
   -51.976	   -33.917	    -2.889
   -48.570	   -19.426	    -7.791
   -47.911	   -16.169	     8.011
   -43.116	    -6.780	   -10.589
   -54.376	   -10.994	     4.764
   -41.358	   -14.779	   -10.992
   -44.387	   -16.462	   -11.124
   -47.791	   -33.760	    -7.450
   -59.653	   -36.260	    -9.174
   -45.970	   -40.316	    -5.115
   -66.528	   -40.666	     3.591
   -46.393	   -28.051	    -7.805
   -59.188	   -26.530	    -8.182
   -54.193	   -14.357	    -7.984
   -53.159	   -25.605	   -11.360
   -43.686	   -31.616	   -21.488
   -60.649	   -24.858	   -17.670
   -58.391	    -8.933	   -13.810
   -46.835	   -40.971	     4.517
   -43.511	   -40.305	   -13.879
   -57.471	   -26.837	    -4.684
   -54.227	   -14.790	    -2.793
   -54.208	   -32.707	    19.294
   -37.501	   -45.873	     4.987
   -58.000	   -29.180	   -10.739
   -42.465	   -39.063	     3.974
   -57.502	    -5.869	    -8.718
   -68.609	     7.645	    -0.066
   -34.753	   -36.802	    -7.937
   -42.719	   -28.797	    -4.837
   -34.587	   -36.861	   -17.200
   -58.483	   -18.456	     4.355
   -51.523	   -27.238	     3.876
   -44.736	   -20.866	    -9.651
   -50.717	   -18.996	    -0.657
   -52.579	   -28.525	    10.008
   -50.583	   -16.247	   -14.763
   -74.293	   -32.494	     7.612
   -43.777	   -42.665	   -21.673
   -55.578	   -31.268	    -0.923
   -56.396	   -32.797	     5.513
   -62.783	   -19.862	    -6.917
   -52.141	   -37.595	    15.430
   -50.357	    -6.252	   -19.765
   -52.664	   -21.994	     2.263
   -41.363	   -26.131	    -6.744
   -65.332	   -20.194	    -6.743
   -65.514	   -25.182	     9.685
   -42.932	   -25.525	   -11.472
   -61.632	   -27.476	     6.715
   -46.631	   -24.865	    11.951
   -55.507	   -23.260	     3.640
   -52.597	   -14.848	     0.279
   -56.478	   -12.685	     3.537
   -55.220	   -29.164	    -4.927
   -41.364	   -41.484	   -11.575
   -62.715	    -6.071	     0.110
   -52.860	   -22.466	   -12.781
   -59.309	   -37.575	     0.748
   -45.056	   -12.868	     2.957
   -49.696	   -23.230	    -1.739
   -40.440	   -15.067	   -11.392
   -62.287	   -32.414	     5.587
   -54.658	   -21.207	     7.228
   -69.127	   -29.199	    16.496
   -53.540	   -30.882	     6.439
   -54.140	   -25.139	    -6.082
   -60.843	   -28.000	     0.488
   -58.488	   -32.280	     0.371
   -54.229	   -26.139	   -17.449
   -48.305	   -40.751	    -4.901
   -44.969	   -34.310	    -2.448
   -47.145	   -32.390	    -7.100
   -67.465	   -15.177	    10.254
   -62.884	   -23.885	    12.789
   -43.787	   -33.061	    -1.152
   -43.851	   -30.826	     4.308
   -44.680	   -35.912	    -0.273
   -51.409	   -22.334	    -1.552
   -46.198	   -37.607	   -16.796
   -52.237	   -27.168	    -8.952
   -40.960	   -36.934	   -18.845
   -44.760	   -37.678	    10.847
   -53.436	   -14.381	    -5.268
   -41.433	   -33.110	    -4.019
   -60.245	   -19.563	    -9.636
   -35.149	   -28.888	   -18.167
   -65.732	    -5.940	    -4.346
   -49.194	   -25.411	    -5.624
   -51.088	   -17.299	    13.858
   -60.605	   -17.494	     0.235
   -51.525	   -19.721	   -12.451
   -59.623	   -18.437	    -0.928
   -51.423	   -41.140	     5.012
   -62.283	   -36.998	     6.338
   -53.988	   -22.271	     1.930
   -42.161	   -39.693	   -22.680
   -56.472	   -29.610	    -9.380
   -60.056	   -32.471	     6.191
   -60.691	   -27.060	   -12.464
   -62.103	   -21.630	   -19.992
   -58.974	   -19.943	   -17.906
   -59.250	   -26.145	    -9.131
   -58.131	   -24.535	    -1.023
   -56.900	   -18.635	     6.217
   -34.158	   -36.394	    -8.009
   -52.925	   -27.736	    -2.392
   -51.211	   -25.870	    -5.614
   -35.781	   -34.826	    -1.768
   -55.742	   -31.081	    -0.467
   -51.640	    -6.557	   -11.500
   -60.322	   -20.334	    -9.216
   -63.527	   -29.365	     6.964
   -54.738	   -32.158	     7.190
   -59.792	   -22.343	    -5.574
   -48.903	   -31.900	     0.289
   -49.728	   -37.276	    -0.771
   -47.068	   -12.591	    -9.078
   -47.196	   -17.505	    -7.984
   -52.111	   -51.729	    -1.072
   -58.315	    -5.440	     5.233
   -41.301	   -38.549	    -9.388
   -36.459	   -40.001	   -15.074
   -63.746	   -19.080	    -2.281
   -40.900	   -27.741	    -8.658
   -36.884	   -37.113	   -21.744
   -73.149	   -10.199	     3.299
   -48.506	   -37.547	    -2.301
   -38.991	   -32.231	    -6.221
   -46.852	   -27.084	   -16.133
   -57.230	   -14.051	    -1.474
   -44.651	   -31.185	    -9.766
   -42.477	   -28.118	     2.975
   -54.379	   -32.059	    -2.509
   -53.641	    -8.680	    12.585
   -42.954	   -32.987	     0.101
   -61.135	   -21.330	    -6.620
   -58.817	   -29.355	    -8.094
   -54.762	   -20.738	     4.518
   -62.308	   -27.642	    11.247
   -48.323	   -31.078	    -4.815
   -58.676	   -21.635	     7.876
   -36.760	   -18.995	    -9.560
   -76.147	     2.608	   -10.904
   -32.451	   -22.981	   -11.444
   -73.928	    -1.501	    16.156
   -58.588	   -24.550	    11.994
   -52.616	   -36.600	     2.718
   -58.006	   -29.663	   -15.734
   -52.256	   -35.258	    -5.965
   -44.244	   -39.672	   -19.045
   -47.209	   -22.849	     4.392
   -40.174	   -33.275	    -6.972
   -56.307	   -10.378	    -8.566
   -52.255	   -30.155	   -11.818
   -45.957	   -35.257	     4.235
   -55.042	   -26.250	   -11.935
   -54.188	   -31.676	     1.557
   -53.889	   -14.987	     8.191
   -72.908	    -3.585	    13.982
   -45.985	   -33.161	    -3.626
   -48.219	   -28.387	    -3.844
   -63.223	   -34.383	    13.439
   -35.536	   -34.857	   -24.761
   -56.318	   -37.444	   -10.147
   -59.108	   -21.220	     8.018
   -60.556	   -24.038	    -2.309
   -37.795	   -28.819	     1.290
   -47.552	   -22.947	    -9.797
   -51.840	   -21.588	   -13.614
   -56.531	   -26.313	   -17.254
   -43.874	   -19.355	   -17.491
   -46.920	   -33.037	   -13.412
   -44.524	   -28.660	   -13.061
   -40.456	   -27.168	     1.135
   -49.330	   -29.268	    -7.221
   -56.793	   -28.232	     2.326
   -39.216	   -40.153	   -12.897
   -56.274	   -33.328	    -5.368
   -59.759	   -23.184	    -0.121
   -55.164	   -24.278	     1.636
   -50.083	   -15.033	   -20.493
   -51.555	   -21.898	    10.858
   -36.512	   -31.178	    18.696
   -51.932	   -13.649	    10.638
   -48.833	   -33.798	   -11.336
   -68.276	   -22.878	     5.116
   -45.179	   -13.451	     0.556
   -54.231	   -37.924	    -8.620
   -55.748	   -19.613	    12.753
   -44.823	   -27.205	     3.067
   -51.990	   -17.745	     3.612
   -54.248	    -5.464	     4.147
   -36.249	   -25.229	   -16.893
   -43.197	   -20.629	   -17.799
   -59.206	     0.245	   -17.761
   -48.970	   -31.556	    -2.240
   -49.022	   -35.276	   -18.066
   -62.200	   -22.107	    13.287
   -47.902	   -37.038	    -1.815
   -41.309	   -32.732	     1.327
   -53.546	   -28.343	    11.118
   -46.997	   -32.306	    -0.828
   -51.506	   -21.465	    -2.323
   -52.090	   -13.219	    10.333
   -42.409	   -38.993	    12.309
   -50.336	    -8.025	    -7.530
   -59.525	   -38.257	    13.102
   -49.912	   -23.762	   -18.477
   -47.876	   -17.121	   -12.937
   -63.313	   -20.539	     6.083
   -35.222	   -31.898	   -18.747
   -64.609	   -29.390	     3.181
   -53.624	   -33.826	    -1.751
   -44.666	   -46.141	     5.830
   -30.404	   -27.522	    -8.979
   -68.543	   -30.567	    -4.510
   -52.620	   -28.656	   -17.754
   -68.257	   -41.443	    11.790
   -39.175	   -31.451	    -6.153
   -56.282	   -20.790	    14.416
   -67.362	   -22.214	    24.866
   -49.639	   -29.945	    -6.721
   -59.482	   -29.155	    11.042
   -49.207	   -25.859	    -5.249
   -49.091	   -38.978	    -5.120
   -55.591	   -23.075	     6.287
   -54.015	    -4.744	     3.801
   -53.381	   -27.333	    -4.197
   -45.242	   -31.200	    -1.205
   -47.947	   -36.690	    14.003
   -39.712	   -40.928	   -22.160
   -54.688	   -19.753	    -2.248
   -62.258	   -25.258	    -4.083
   -51.382	   -39.415	    11.482
   -63.907	   -29.349	    13.405
   -36.278	   -23.591	     1.137
   -56.932	   -11.935	    11.532
   -51.655	    -9.213	    -4.118
   -39.709	   -21.840	     0.232
   -54.107	   -15.377	   -21.637
   -49.513	   -44.853	   -10.990
   -58.828	   -25.259	    -4.394
   -46.116	   -39.811	    -1.250
   -46.320	   -21.782	    -9.481
   -46.117	   -30.996	    -6.067
   -61.761	   -24.499	    -4.121
   -55.745	   -35.810	     9.821
   -54.107	   -27.803	     1.643
   -45.070	   -15.669	   -11.394
   -59.920	   -31.094	    -4.238
   -61.273	   -10.034	    11.800
   -64.362	   -30.020	    -2.874
   -43.233	   -33.510	     0.863
   -58.310	   -30.841	     4.227
   -51.260	   -16.669	   -13.909
   -58.953	   -40.942	     1.444
   -60.012	    -2.352	     4.081
   -51.982	   -24.709	    -9.350
   -53.529	   -31.107	    -7.761
   -62.471	   -41.066	   -10.521
   -41.184	   -21.928	   -15.160
   -46.607	   -34.923	   -19.588
   -48.211	   -29.025	    -7.911
   -81.433	   -23.523	    -8.589
   -50.654	   -26.636	   -20.526
   -60.180	   -36.518	    -3.942
   -31.729	   -44.616	    -7.192
   -49.130	   -24.585	     0.045
   -59.900	   -21.217	     2.982
   -60.178	   -18.712	    -5.237
   -54.225	   -21.064	   -22.877
   -53.825	   -15.148	     4.614
   -57.370	   -32.173	    -1.809
   -43.466	   -39.953	   -21.606
   -52.227	   -20.250	     0.166
   -70.647	   -30.515	     3.497
   -64.148	   -43.650	    -4.609
   -40.788	   -39.199	     0.433
   -47.386	   -18.719	    -2.999
   -54.732	   -30.090	     0.608
   -54.790	   -28.615	     6.495
   -51.160	   -24.181	    11.613
   -40.124	   -28.510	   -23.127
   -41.188	    -9.957	    -9.801
   -52.369	     0.244	    -1.752
   -51.154	   -16.396	    -4.848
   -42.726	   -19.721	     6.159
   -39.815	   -23.874	   -17.375
   -46.698	   -20.973	    -9.162
   -53.376	   -23.438	    -7.608
   -46.510	   -31.391	    -6.551
   -35.070	   -28.015	    -8.099
   -59.680	   -24.182	   -16.575
   -37.340	   -26.994	   -12.172
   -54.004	   -22.256	     0.073
   -50.799	   -25.375	   -13.958
   -43.712	   -32.593	     3.123
   -42.711	   -30.060	   -10.139
   -56.817	   -27.115	   -13.103
   -40.248	   -33.053	   -11.416
   -67.675	   -17.490	     7.172
   -51.837	   -34.312	     1.824
   -59.930	   -21.204	    13.714
   -68.514	    -2.216	    -4.338
   -51.740	   -30.687	   -35.166
   -50.194	   -31.040	    -9.961
   -36.946	   -31.539	   -13.329
   -54.633	   -26.126	     1.168
   -47.156	   -16.362	   -12.503
   -49.496	   -24.006	    -3.369
   -51.705	   -32.762	    -5.000
   -40.125	   -39.569	    -0.453
   -51.843	   -25.013	     3.271
   -54.045	   -52.189	    10.188
   -62.736	   -20.885	     3.280
   -39.917	   -28.370	     1.733
   -53.623	   -20.978	    -3.881
   -45.967	   -33.244	     0.227
   -49.994	   -32.861	   -21.335
   -53.585	   -29.557	    -7.606
   -50.059	   -32.505	   -12.351
   -56.091	   -27.043	   -11.712
   -44.331	   -34.191	     5.134
   -52.729	   -25.401	    10.036
   -56.830	   -45.740	   -19.303
   -54.629	   -15.735	     5.999
   -63.568	   -31.962	    -5.028
   -44.715	   -46.109	    -8.192
   -59.416	   -24.631	     2.961
   -55.386	   -28.793	    -2.115
   -51.652	   -34.147	   -20.592
   -48.571	   -34.492	    -1.900
   -68.706	   -14.394	    10.629
   -54.558	   -12.776	    -9.514
   -58.880	    -1.782	     4.532
   -57.464	   -19.597	   -10.612
   -37.078	   -29.924	    -8.767
   -47.798	   -26.645	   -15.143
   -61.292	   -11.612	    -6.319
   -55.176	   -31.125	   -13.233
   -61.698	    -7.231	     6.943
   -69.714	    -2.793	    13.021
   -48.757	   -38.060	     1.591
   -54.729	   -25.902	    11.365
   -37.403	   -50.084	    -9.634
   -56.835	   -30.064	    11.711
   -56.576	   -25.661	    -2.805
   -58.845	   -14.894	     7.004
   -56.253	   -18.206	     1.844
   -54.155	   -29.615	    -7.217
   -61.282	   -35.353	     3.273
   -50.067	   -41.298	     0.302
   -42.176	   -33.634	    -6.033
   -61.590	   -34.852	     7.068
   -49.091	   -19.475	    -3.649
   -39.382	   -28.024	   -11.552
   -71.578	    -9.291	     4.639
   -49.211	   -20.292	    -1.814
   -63.091	   -16.194	    -2.999
   -48.345	   -21.195	     1.050
   -45.009	   -20.867	   -10.488
   -72.706	   -13.596	     8.955
   -57.149	    -9.347	     5.815
   -44.966	    -8.854	    -9.367
   -51.691	   -10.236	    -0.372
   -62.146	    -9.790	     1.390
   -57.977	   -23.354	    12.565
   -48.764	   -39.526	    -3.982
   -50.791	   -17.817	     5.019
   -55.128	   -30.202	     3.950
   -37.512	   -38.342	   -14.761
   -58.549	   -25.686	    28.046
   -50.786	   -27.733	    -2.097
   -52.476	   -18.829	    10.362
   -43.906	   -24.836	    -5.586
   -56.956	   -18.638	    -2.799
   -24.728	   -36.921	    -1.361
   -63.494	   -17.205	     5.206
   -49.515	   -33.705	     6.389
   -48.901	   -34.418	    -8.961
   -48.403	   -31.116	    -0.512
   -39.420	   -44.900	   -11.808
   -41.865	   -29.979	   -11.225
   -51.205	   -43.254	    -3.460
   -47.985	   -33.099	    20.469
   -47.804	   -25.880	   -17.293
   -48.540	   -29.057	    -8.434
   -54.095	   -16.475	   -19.193
   -46.262	   -26.689	    -7.461
   -45.554	   -30.871	    -2.292
   -52.546	   -29.121	   -15.568
   -49.381	   -24.933	   -10.910
   -29.047	   -31.379	   -21.294
   -45.645	   -28.353	   -10.937
   -66.958	   -27.601	     3.012
   -64.028	   -22.139	    -1.762
   -41.939	   -30.841	   -10.314
   -58.944	   -31.917	     7.919
   -40.361	   -31.113	    -3.804
   -28.477	   -30.090	    -0.059
   -54.009	   -21.668	    -3.587
   -55.360	   -31.334	     0.264
   -41.284	   -25.864	    -7.213
   -50.501	    -7.094	   -12.975
   -39.603	   -38.712	    -5.338
   -64.962	   -20.969	    15.267
   -56.092	   -25.157	    -8.580
   -41.880	   -24.885	     2.059
   -40.923	   -24.109	    -2.096
   -60.849	   -20.372	     6.496
   -51.123	   -26.798	     2.332
   -62.710	   -27.495	     2.202
   -39.851	   -37.375	   -20.111
   -54.212	   -11.468	   -12.912
   -54.957	   -40.519	    -2.573
   -54.424	   -21.000	    -9.852
   -44.487	   -30.722	    -8.186
   -47.096	   -35.248	     0.796
   -43.132	   -33.106	    -0.952
   -46.271	   -24.122	     2.468
   -57.140	   -23.867	   -13.068
   -58.214	   -13.169	     0.409
   -60.403	   -24.857	     4.380
   -48.351	   -29.642	     7.206
   -45.240	   -34.100	    -8.175
   -40.165	   -29.555	     6.733
   -59.174	   -28.034	     1.245
   -57.284	   -27.257	    -9.999
   -43.140	   -34.708	    -7.258
   -49.055	    -7.825	    -3.498
   -61.514	   -21.449	    -5.112
   -36.427	   -23.789	     3.152
   -65.445	   -11.190	     0.788
   -48.777	   -18.070	    -9.028
   -68.743	   -10.008	    -2.664
   -46.429	   -17.044	   -21.275
   -61.736	    -4.870	    -2.120
   -56.718	   -31.673	     0.164
   -58.430	   -22.844	    -7.522
   -53.813	   -12.397	     8.437
   -61.858	    -9.369	    -7.484
   -40.989	   -28.787	   -28.590
   -64.952	   -16.274	   -17.321
   -46.589	   -48.195	   -12.949
   -49.704	   -27.910	    14.463
   -58.696	   -17.496	     9.812
   -40.073	   -25.465	     4.516
   -43.673	   -33.697	    -5.659
   -54.122	    -9.267	    -3.722
   -47.606	   -26.988	   -15.613
   -45.405	   -44.203	    -4.470
   -39.422	   -29.797	     7.409
   -43.234	   -36.087	    -3.278
   -63.916	   -22.185	    -2.577
   -56.343	   -23.152	     6.152
   -58.893	   -32.693	    -9.199
   -56.985	   -34.671	    -5.250
   -49.479	   -26.646	     3.559
   -51.398	   -19.491	    -5.463
   -37.929	   -29.495	    -5.572
   -46.634	   -29.793	     9.894
   -55.973	   -34.330	   -12.846
   -50.388	   -27.998	    -1.586
   -36.339	   -28.489	   -13.019
   -58.742	   -26.467	    -8.227
   -58.358	   -21.483	   -10.760
   -48.387	   -49.026	     0.327
   -52.178	   -29.098	   -25.416
   -50.664	   -26.853	     0.924
   -42.370	   -47.644	    -2.747
   -64.736	   -17.079	     7.751
   -43.522	   -12.096	    -5.219
   -55.268	   -23.124	     9.490
   -58.921	   -57.605	    -1.840
   -61.925	   -27.481	    -2.135
   -40.111	   -30.276	    -1.148
   -41.789	   -35.172	    -8.222
   -43.775	   -39.441	    -4.296
   -55.071	   -23.726	   -12.428
   -61.324	   -29.043	     0.020
   -55.463	   -42.929	    -0.728
   -46.883	   -47.607	    -2.510
   -47.849	   -27.528	     0.216
   -68.806	   -27.211	    -1.659
   -46.325	   -41.990	    14.074
   -67.386	   -15.480	     2.696
   -53.849	   -29.680	    -0.746
   -54.284	   -21.203	    12.674
   -57.309	   -28.632	    22.111
   -54.587	   -33.491	     9.328
   -70.279	   -11.606	    -3.046
   -49.736	   -27.674	    -4.980
   -64.288	   -11.828	    -0.684
   -59.756	   -26.282	     1.091
   -46.781	   -26.959	    -5.786
   -49.077	   -19.402	    11.962
   -51.659	   -27.934	    -0.858
   -59.503	   -20.510	     8.139
   -42.970	   -30.046	    -4.821
   -66.571	   -23.704	     2.686
   -58.237	   -34.456	     1.461
   -44.731	   -35.482	    -3.117
   -41.910	   -46.597	     1.781
   -49.552	   -22.858	     0.845
   -61.746	   -31.293	     3.496
   -55.826	   -17.987	     2.042
   -43.476	   -22.133	    -9.795
   -44.374	   -33.775	    -9.662
   -35.380	   -14.405	   -13.079
   -32.530	   -20.753	   -10.643
   -49.558	   -38.222	     5.983
   -47.560	   -26.902	    -2.451
   -89.118	   -13.639	    19.594
   -49.164	   -32.790	   -13.113
   -50.370	   -16.617	    -8.079
   -52.922	   -34.473	    -2.988
   -56.121	   -27.795	   -32.124
   -51.400	   -31.357	   -18.749
   -56.577	   -24.629	   -40.822
   -50.751	   -42.447	    -8.863
   -43.530	   -19.835	   -17.504
   -56.971	   -32.678	    15.659
   -65.341	   -17.145	    -3.059
   -58.129	   -17.255	    -9.538
   -49.161	   -36.296	     2.913
   -62.819	   -19.164	    -3.080
   -37.636	   -28.137	     7.514
   -67.488	   -15.319	     7.035
   -52.944	   -31.317	    -5.349
   -56.306	   -43.660	    -8.349
   -36.749	   -30.525	    -8.147
   -46.589	   -41.058	     5.934
   -45.428	   -36.029	    -8.625
   -50.474	   -30.922	   -13.733
   -58.045	   -23.627	    -2.887
   -41.654	   -38.528	   -12.377
   -61.413	   -29.892	    10.570
   -43.489	   -43.056	     8.834
   -41.152	   -36.824	    -3.369
   -54.215	   -10.951	     3.544
   -46.579	   -35.466	   -10.911
   -53.014	   -25.975	     2.257
   -56.896	   -19.250	     2.668
   -64.276	   -20.680	     0.896
   -61.454	   -29.361	    10.043
   -53.681	    -8.636	     1.315
   -46.224	   -17.338	     0.593
   -51.908	   -23.217	    -1.088
   -43.785	   -21.175	     5.184
   -52.080	    -7.632	    -6.141
   -50.577	   -26.343	     7.660
   -50.734	   -26.201	    -2.743
   -43.291	   -29.540	     0.352
   -40.522	   -14.680	    -6.528
   -48.959	   -19.169	   -28.204
   -43.488	   -31.352	   -17.690
   -52.675	   -18.998	     9.332
   -56.281	   -15.343	   -17.005
   -27.463	   -37.842	   -19.035
   -47.543	   -36.945	     4.629
   -44.550	   -24.254	    -4.208
   -53.293	   -31.446	    13.126
   -36.364	   -38.520	     1.372
   -59.078	   -28.769	    17.389
   -43.623	   -33.570	    -2.113
   -50.597	   -21.588	    -2.830
   -53.378	   -20.578	    -1.963
   -48.119	   -27.628	     3.707
   -54.009	   -20.982	    -1.072
   -52.945	   -24.304	    -2.703
   -41.250	   -33.717	     2.625
   -67.115	   -18.686	    -7.510
   -64.096	   -27.979	   -11.082
   -49.302	   -23.966	   -12.088
   -58.723	   -32.988	    -1.049
   -67.504	   -19.158	     5.836
   -54.099	   -12.100	   -18.669
   -36.456	   -31.409	   -14.102
   -47.528	   -36.474	   -13.315
   -59.633	   -17.699	    -8.464
   -50.273	   -38.056	   -10.636
   -45.747	   -16.214	   -17.354
   -51.923	   -32.794	     8.879
   -53.907	   -16.059	   -10.411
   -58.129	   -25.655	     3.166
   -68.399	     1.545	     6.559
   -58.330	   -25.492	    -2.524
   -40.105	   -20.167	    -7.502
   -47.528	   -11.272	     0.480
   -64.268	   -32.218	    -1.823
   -33.355	   -30.899	   -10.937
   -49.490	   -13.102	   -13.108
   -52.564	   -49.870	    13.778
   -48.569	   -39.530	    -8.657
   -48.473	   -38.085	   -19.932
   -62.090	   -24.310	   -12.576
   -47.742	   -23.759	   -12.126
   -51.434	   -33.727	    -4.715
   -50.372	   -27.013	   -10.035
   -50.197	   -10.462	    -6.638
   -61.082	   -36.453	   -11.479
   -52.571	   -14.915	    -0.917
   -48.852	   -32.765	   -30.827
   -59.110	   -24.364	   -12.226
   -50.342	   -21.185	    -0.418
   -50.199	   -17.846	   -12.180
   -56.263	   -24.952	     9.757
   -42.629	   -29.257	    -1.080
   -48.383	   -20.258	   -10.819
   -51.173	   -47.348	     4.848
   -60.021	   -22.570	     9.786
   -38.129	   -22.323	   -10.042
   -44.977	   -31.246	    -3.835
   -47.045	   -28.213	     1.811
   -63.254	   -31.448	    15.743
   -46.999	   -20.651	     2.610
   -53.093	   -24.011	    -2.297
   -66.367	    -9.562	     2.302
   -49.176	    -3.111	    -4.874
   -51.901	   -26.264	    -7.524
   -42.159	   -23.636	   -22.675
   -48.201	   -34.471	    -5.838
   -47.115	   -37.204	    -4.586
   -57.425	   -31.406	    -4.170
   -63.151	   -34.544	    -2.501
   -59.948	   -26.512	    -2.611
   -55.599	   -38.139	     0.454
   -52.771	   -32.382	    -7.540
   -44.424	   -31.787	     2.023
   -46.982	   -26.557	    -4.826
   -58.482	   -25.503	    12.613
   -30.510	   -39.285	    -6.843
   -43.522	   -30.423	   -11.184
   -48.899	   -24.501	    -4.846
   -60.725	   -18.565	    11.778
   -42.808	   -38.275	    -6.085
   -39.828	   -27.119	    -1.108
   -75.545	   -14.512	    12.623
   -52.595	   -48.131	     6.070
   -59.757	   -12.297	    -5.667
   -46.170	   -31.805	     1.675
   -45.929	   -36.231	    -2.126
   -46.615	   -23.716	   -12.749
   -64.115	   -15.109	     7.109
   -42.018	   -41.768	    16.628
   -39.494	   -33.791	    -2.272
   -65.022	   -16.018	     9.825
   -53.244	   -43.235	     2.306
   -59.210	   -27.867	     0.081
   -39.510	   -32.428	     9.249
   -45.602	   -10.983	    -5.576
   -40.031	   -24.204	   -10.370
   -41.649	   -30.730	    -8.837
   -54.944	   -10.500	    -5.311
   -54.108	   -21.965	   -19.805
   -52.327	   -27.788	    -5.191
   -63.226	   -24.627	    13.387
   -47.045	   -27.215	    -7.767
   -61.671	   -20.838	    10.099
   -60.827	   -27.272	    14.054
   -36.570	   -24.767	   -13.685
   -52.255	   -23.195	   -12.183
   -51.084	   -32.384	    -6.842
   -55.386	   -22.512	    -1.176
   -38.323	   -37.556	    -0.816
   -33.841	   -34.827	     7.935
   -51.912	   -11.239	     6.453
   -41.926	   -20.686	     9.115
   -40.149	   -37.285	     0.259
   -58.793	   -24.908	    -8.249
   -49.736	   -26.376	    15.842
   -43.902	   -17.300	    -3.382
   -44.964	   -19.531	     0.402
   -47.595	   -29.379	    -3.376
   -56.521	   -34.004	     4.553
   -56.769	   -19.985	   -14.899
   -43.230	   -20.534	    -8.289
   -52.435	   -28.481	    -7.389
   -65.827	   -13.357	    -4.518
   -58.741	   -37.825	    -9.693
   -43.640	   -32.155	   -14.866
   -68.908	   -20.447	     6.014
   -47.703	   -34.083	     2.315
   -60.486	   -36.958	    -6.431
   -53.696	   -25.999	   -12.330
   -53.367	     3.131	    -1.255
   -33.750	   -37.600	    -6.134
   -68.181	   -24.713	   -13.598
   -56.456	   -23.824	     2.997
   -51.474	   -27.227	    -8.852
   -48.371	   -35.009	    -5.434
   -48.720	   -22.785	    -9.015
