   -92.310	   122.143	    -3.179
  -118.039	    95.204	     5.895
  -158.195	    84.969	    -2.914
  -141.563	   104.826	     4.241
  -145.627	   102.282	   -11.628
  -134.830	    83.304	    -3.484
  -139.847	   119.083	    -1.727
  -136.101	   121.041	    -4.243
  -128.178	   125.636	     1.055
  -139.196	   113.456	     2.259
  -132.174	   133.425	   -10.600
  -122.996	   149.204	     0.324
  -143.184	   114.128	    -2.937
  -141.233	   126.577	   -14.450
  -144.203	    97.870	   -16.362
  -137.329	    86.014	    -5.639
  -151.886	   119.734	    -4.954
  -142.539	    72.994	     6.679
  -138.639	   105.090	    -8.907
  -154.081	   114.865	    14.829
  -147.522	   133.524	    -0.440
  -136.173	   119.828	     0.221
  -136.128	   124.905	     1.668
  -140.712	   118.340	   -14.998
  -148.693	   116.948	    14.439
  -142.528	   133.839	    10.469
  -131.537	   118.772	     8.591
  -148.439	    94.605	    -1.259
  -130.518	   114.223	    -3.251
  -143.872	   119.967	    10.386
  -146.177	   106.104	   -18.038
  -127.934	   101.836	     2.849
  -130.383	   102.753	    -5.482
  -140.812	   103.654	    12.308
  -132.973	   110.923	    24.067
  -125.641	   125.950	     4.371
  -127.015	   126.413	    -1.619
  -150.185	   140.778	    16.465
  -107.190	   126.469	     2.149
  -145.301	   126.891	     9.694
  -129.869	   123.884	    -6.302
  -142.559	   141.655	    -6.964
  -137.765	   117.086	     8.954
  -155.974	   108.825	    23.975
  -146.901	   120.655	     0.780
  -141.902	   124.077	    -6.538
  -148.129	   131.948	     8.917
  -124.048	   102.519	   -16.654
  -143.923	    90.753	    13.670
  -139.657	   132.181	     7.014
  -132.288	   125.878	    -9.437
  -152.884	   111.954	    -0.534
  -147.169	   113.985	    -2.292
  -147.931	    98.030	    11.057
  -137.550	   123.077	     1.886
  -137.054	   119.628	    -9.239
  -150.605	   110.521	    -3.216
  -140.530	   110.004	    -7.176
  -120.663	   118.060	     5.573
  -138.272	    58.561	   -19.228
  -154.351	   108.324	    -9.255
  -145.796	   133.642	    10.657
  -154.549	   115.964	    22.794
  -139.686	    94.629	     0.639
  -145.676	   111.916	     4.854
  -132.210	   137.595	     1.438
  -118.428	   108.043	    12.715
  -138.218	   118.875	    -1.265
  -141.454	   114.615	   -11.929
  -146.394	   120.867	    -0.558
  -139.286	    97.263	    -9.452
  -150.382	    99.852	    -6.100
  -132.966	   113.150	     2.097
  -127.560	   124.914	     4.376
  -146.689	   122.156	   -16.426
  -157.557	   122.762	     3.372
  -134.875	   113.934	    12.566
  -112.989	    81.276	     8.621
  -155.516	   119.233	    -0.893
  -159.582	   116.393	     5.061
  -137.545	   122.475	     2.783
  -138.083	   115.991	    10.126
  -148.871	   114.229	    -1.874
  -130.275	   117.244	    16.988
  -116.362	   129.858	    17.328
  -135.583	   127.514	     4.658
  -132.139	   115.544	    -7.648
  -136.615	    79.182	     3.464
  -147.107	    99.085	    -8.532
  -125.253	   108.636	     6.928
  -132.933	   122.916	   -17.207
  -143.099	    85.437	    -5.051
  -146.243	   102.980	    -3.511
  -147.158	   109.961	    -7.892
  -134.578	    95.203	    14.818
  -123.793	   121.372	    -0.847
  -154.487	    84.740	    -1.154
  -151.297	   120.593	     5.194
  -137.766	   110.687	     1.359
  -139.109	   126.798	    -7.144
  -150.247	   129.200	     3.915
  -128.848	   117.875	     2.105
  -146.539	   127.549	     0.919
  -142.673	   116.231	    -0.400
  -138.622	   118.987	    -2.257
  -147.897	   112.447	     5.438
  -110.933	   110.672	    17.148
  -151.082	   135.077	    -9.157
  -143.868	   109.915	     5.315
  -147.905	   134.286	    -3.363
  -127.249	   115.684	    -1.277
  -141.187	   108.384	     2.632
  -136.151	   107.700	    19.573
  -163.064	   111.012	    -1.192
  -144.420	    96.030	    10.701
  -125.650	   109.497	    -2.719
  -141.383	   125.778	    -0.008
  -151.060	   124.235	    -6.864
  -143.379	   121.387	     3.831
  -139.270	   105.438	    -1.548
  -129.608	   118.655	    -2.222
  -148.696	   112.271	    -1.122
  -148.975	   104.244	     9.764
  -146.162	   111.742	   -21.438
  -150.732	   103.450	    -9.317
  -140.903	   116.271	    -8.617
  -129.028	   119.420	     7.234
  -146.411	   120.238	   -11.366
  -160.358	   128.225	    13.637
  -136.080	   117.049	    -4.821
  -146.396	   122.872	    16.783
  -138.831	   123.202	     1.801
  -143.455	   116.912	    -1.533
  -127.374	   101.135	     3.842
  -131.931	   108.026	    -6.873
  -133.799	   126.202	    -9.791
  -144.014	   148.801	    -2.904
  -131.376	   126.192	    -6.050
  -140.448	   105.152	    -0.538
  -150.662	   108.688	     2.173
  -130.953	   112.445	    -3.383
  -145.729	   113.923	    -2.644
  -130.809	   115.185	    -2.005
  -153.530	   106.015	    -3.126
  -139.263	   140.202	    -3.138
  -150.776	    93.268	     0.291
  -148.299	   113.304	    -6.518
  -139.574	   124.441	   -13.400
  -134.439	    96.381	     3.784
  -134.863	   100.421	    -2.598
  -142.442	   126.562	    -1.998
  -149.480	   128.112	   -11.053
  -149.634	   127.977	    -6.401
  -134.294	   111.971	     1.318
  -140.933	   103.229	     3.958
  -134.205	   105.535	    -3.734
  -140.833	    89.418	     7.566
  -152.511	    88.146	    -0.756
  -156.079	   106.897	     9.459
  -136.957	    87.863	     6.307
  -147.761	   102.632	   -10.745
  -142.917	   114.442	     0.176
  -143.719	   136.524	     0.902
  -156.547	   119.407	     8.472
  -148.935	   113.245	    -2.579
  -119.985	    92.582	    -6.904
  -152.773	   118.475	    -6.646
  -128.905	    86.706	   -18.039
  -160.248	   105.658	   -12.158
  -150.560	    96.420	    -2.692
  -122.114	   108.012	   -14.021
  -146.841	   116.965	     9.054
  -142.351	    99.796	   -17.542
  -143.478	   130.847	    -0.409
  -135.161	   108.045	     7.620
  -129.651	    97.940	    -4.031
  -143.992	   113.128	     1.617
  -146.166	   120.054	    12.848
  -153.581	   112.206	     0.671
  -134.522	   129.738	    10.254
  -128.403	   104.553	     6.317
  -135.127	   118.977	   -15.123
  -154.881	   115.532	   -27.876
  -128.358	   107.835	    19.318
  -137.562	   125.471	    24.234
  -124.154	   122.428	   -21.124
  -128.755	   128.915	    -5.942
  -117.983	   120.855	    -3.111
  -139.554	   137.870	    14.192
  -155.399	   103.928	    11.818
  -137.689	   135.148	   -11.798
  -148.103	   137.437	    12.787
  -147.900	   118.900	    -0.925
  -143.845	   110.394	    11.435
  -139.188	   132.082	    13.889
  -134.214	   118.521	     3.617
  -132.821	   120.659	    -9.014
  -128.621	   123.918	    -4.948
  -138.676	   138.609	    -4.064
  -144.899	   138.212	     9.360
  -142.433	   111.402	    -4.612
  -143.812	   147.887	    -7.112
  -143.726	   126.638	    -4.515
  -131.447	    99.839	    -6.355
  -130.797	   116.807	    22.308
  -162.127	   103.422	    11.814
  -143.712	   142.597	     5.272
  -148.001	   109.064	    16.323
  -157.905	   128.237	     2.613
  -141.353	   108.604	    15.898
  -137.382	   110.299	     2.063
  -135.129	   121.500	     0.438
  -121.553	   118.439	    -5.193
  -152.039	   128.707	    -2.983
  -147.116	    84.602	    -4.447
  -133.826	   111.288	     0.846
  -125.377	   114.046	    -2.506
  -149.921	   118.194	     6.443
  -139.246	    91.052	     7.104
  -139.731	   110.368	    -1.389
  -163.028	    91.122	    -9.426
  -137.180	    94.565	     6.259
  -141.723	    88.192	    -2.517
  -131.142	   105.999	     1.997
  -144.543	   120.740	   -11.266
  -147.421	   101.722	    13.301
  -156.525	   108.559	    -0.562
  -139.605	   123.413	     1.841
  -142.956	   125.886	    22.868
  -123.851	    98.368	    -6.824
  -135.190	    78.434	   -12.675
  -142.844	    82.341	     1.913
  -113.918	   134.176	    -3.099
  -132.441	   119.373	    13.425
  -101.490	   119.970	     8.002
  -130.070	   134.307	    -8.444
  -118.119	   128.958	    -8.458
  -131.629	   120.671	     5.508
  -149.517	   108.877	     0.183
  -139.882	    96.630	   -14.900
  -136.982	   111.631	     7.942
  -130.523	    94.615	   -16.347
  -151.492	   106.475	   -10.690
  -141.727	   113.588	     2.210
  -147.312	   124.084	     1.506
  -151.130	   114.580	    -1.113
  -130.092	    92.882	     5.742
  -143.381	   111.030	    -9.535
  -132.499	   109.842	   -14.034
  -145.674	   127.147	     5.007
  -143.564	   102.368	     7.262
  -131.603	   117.605	   -28.647
  -152.301	   101.225	    10.805
  -149.993	    92.169	    -4.106
  -130.984	    92.214	    -8.776
  -155.098	   122.228	     7.546
  -127.642	   117.916	     1.715
  -152.222	   121.574	    13.504
  -137.947	   117.770	    -8.537
  -140.148	   110.230	     8.517
  -134.714	   104.970	   -11.023
  -140.102	   100.480	   -15.009
  -152.161	   124.588	   -29.853
  -138.915	   123.178	     6.397
  -136.350	   120.895	    10.391
  -145.186	   102.667	    17.585
  -140.176	    74.685	    -1.540
  -149.763	   126.499	    10.294
  -130.588	   128.221	     0.119
  -136.169	   132.716	    -6.603
  -154.803	   121.859	     8.317
  -120.133	   103.867	     5.658
  -142.672	    88.329	   -21.088
  -143.330	    77.449	    -3.978
  -139.368	   107.673	   -18.592
  -120.738	   124.130	    -4.658
  -127.233	   105.969	    -9.022
  -149.307	    90.771	     6.145
  -137.265	   125.922	    -9.355
  -150.672	    76.581	    13.848
  -139.126	   119.715	   -12.619
  -146.903	   110.717	     0.513
  -133.558	    95.360	    -1.574
  -146.177	   123.165	     2.422
  -145.166	   112.306	     8.862
  -124.601	   113.875	     9.395
  -147.386	    94.582	    -1.199
  -132.162	   122.106	   -17.788
  -133.954	   124.673	    -5.201
  -125.252	   132.179	    -2.612
  -137.321	   132.762	    12.719
  -124.708	   127.561	    14.804
  -135.799	   120.923	     7.355
  -129.722	   115.426	     4.875
  -141.204	   116.301	   -10.054
  -117.364	    83.323	     9.206
  -130.525	   117.980	   -21.018
  -142.912	   102.288	     0.304
  -163.833	    91.563	    20.890
  -124.775	   117.861	   -21.335
  -136.661	   114.475	     9.494
  -122.560	   131.860	   -19.571
  -148.195	    91.764	    12.929
  -131.883	   113.476	    -0.357
  -138.164	   107.487	     4.738
  -131.267	   105.509	     5.136
  -144.674	   107.450	     9.472
  -145.118	   111.721	     7.890
  -136.370	   116.125	   -18.555
  -136.261	   102.089	    -1.651
  -115.204	   100.133	    -3.265
  -131.417	   111.292	     3.967
  -151.246	   118.720	     7.033
  -140.300	   133.201	    -9.282
  -127.551	   120.428	    -9.288
  -156.701	    99.682	    -5.090
  -158.110	   119.331	    -6.790
  -139.458	   109.673	     0.324
  -145.132	   117.909	     0.507
  -116.982	    94.615	    -3.820
  -131.584	   101.869	     3.037
  -123.351	   100.486	   -14.406
  -136.417	   110.199	     7.625
  -130.429	   122.402	     5.183
  -144.344	   104.149	    12.524
  -153.478	   107.427	   -12.541
  -149.547	   134.519	   -10.021
  -152.962	   112.029	    -7.967
  -156.198	   116.228	    -4.496
  -138.373	   128.098	     4.405
  -133.217	   115.970	     1.901
  -133.726	   138.509	   -11.406
  -151.630	   123.051	    -2.530
  -126.935	   129.440	    -5.218
  -133.218	   102.792	     7.363
  -153.023	   100.470	    -0.118
  -134.150	    77.963	   -12.640
  -155.078	    99.008	     4.728
  -149.620	    97.012	    -7.714
  -136.141	   139.897	   -12.992
  -132.939	   105.684	   -21.543
  -142.556	   100.454	   -12.452
  -166.241	    90.103	    18.792
  -137.861	   107.989	   -17.465
  -157.204	    74.235	     6.153
  -146.459	    88.456	     2.191
  -136.077	   117.580	     1.999
  -146.525	   126.572	   -12.907
  -137.028	   105.305	     1.288
  -139.200	   117.940	    -3.404
  -137.014	   144.462	     1.825
  -137.493	   131.370	    -4.389
  -132.268	   122.742	    -4.522
  -151.313	   104.931	     0.523
  -144.206	   136.885	     5.578
  -150.270	   116.842	    11.821
  -120.651	   134.960	    -3.474
  -158.017	   102.935	     6.210
  -141.906	   113.609	     0.406
  -141.650	   107.091	     0.708
  -127.823	   141.079	    -1.634
  -135.241	   110.999	    -0.464
  -132.619	   108.865	   -12.155
  -137.206	    99.099	     5.391
  -138.916	   104.581	    -3.014
  -134.250	   125.419	     5.049
  -136.277	   103.160	   -12.962
  -125.839	   111.153	   -14.526
  -144.828	   102.803	     5.782
  -137.018	   105.194	   -19.931
  -128.203	    92.926	     2.442
  -137.630	    93.492	     1.271
  -159.758	   123.341	     0.147
  -134.640	    93.468	    -1.533
  -134.994	   109.316	    13.257
  -148.811	   110.698	     9.350
  -134.771	   127.723	     2.396
  -141.033	   105.835	     1.739
  -140.048	   111.556	   -14.062
  -120.586	    96.614	    18.693
  -136.198	   106.312	    -8.956
  -152.595	   108.777	     1.858
  -145.365	   109.865	    -3.913
  -156.184	   119.203	    12.035
  -129.467	   109.167	    -6.637
  -141.049	   119.860	    -0.549
  -137.727	   111.565	    -4.624
  -146.913	   112.790	   -12.740
  -143.496	    95.159	   -10.504
  -154.745	    95.153	   -11.294
  -133.700	   134.130	     8.454
  -150.897	   104.265	    -5.333
  -136.475	   100.579	   -13.789
  -124.734	    89.925	     0.499
  -150.220	    80.955	     2.101
  -142.696	    97.267	     6.518
  -138.787	   101.247	     5.410
  -121.732	   124.119	    -4.081
  -149.938	   115.063	    15.750
  -147.399	   131.398	     8.672
  -145.994	   110.163	     3.408
  -123.821	   132.011	    -3.907
  -132.291	   123.750	    -1.103
  -144.348	    97.002	    -7.174
  -130.872	   130.870	     5.843
  -147.287	   118.271	    -3.369
  -151.376	   126.863	     3.890
  -153.005	   133.485	    -1.950
  -134.303	   118.453	   -12.578
  -147.211	    92.352	    -8.992
  -139.854	   110.850	     3.308
  -140.436	   107.844	    -5.318
  -149.528	   111.344	   -11.142
  -130.410	    97.662	   -14.598
  -141.042	    97.886	     7.884
  -154.439	   125.262	   -12.641
  -134.593	   117.951	    -2.745
  -134.531	   131.288	   -12.436
  -138.505	   129.582	    -0.884
  -138.779	   141.484	     2.032
  -128.096	    99.603	   -14.851
  -149.723	   105.908	    -4.752
  -135.745	   125.214	     2.995
  -143.854	   129.679	    11.590
  -137.431	   129.525	     7.899
  -140.603	   126.074	    12.705
  -134.188	    90.868	    -6.225
  -115.700	    80.705	     1.190
  -137.298	    93.038	   -17.137
  -154.179	    91.994	     7.180
  -136.618	    76.409	    -1.458
  -146.167	    77.184	     6.453
  -143.102	   115.637	     0.858
  -152.426	    99.012	    -1.377
  -141.056	   122.062	     7.340
  -129.172	   103.143	     3.213
  -144.720	   121.295	   -11.955
  -140.880	   114.087	     5.250
  -131.667	   103.593	   -13.526
  -144.715	    98.402	    -6.026
  -139.562	   120.683	    -2.596
  -142.655	    84.015	   -14.194
  -135.452	   115.200	    -2.948
  -146.737	   126.671	     5.437
  -177.306	   119.952	    23.586
  -156.878	   134.200	    10.080
  -147.060	   137.541	     7.989
  -114.523	   115.092	    -0.977
  -138.558	    99.457	     7.962
  -146.254	   127.630	    -1.828
  -139.937	   115.401	     7.865
  -136.182	   129.598	     0.185
  -122.072	    81.440	    20.911
  -140.313	   115.754	    -5.367
  -136.548	   132.571	   -34.347
  -133.233	   118.994	    -4.900
  -132.588	    92.980	    -3.858
  -144.972	    81.350	     2.851
  -156.834	    95.799	    -7.309
  -138.877	    76.208	   -13.413
  -132.967	   117.449	     3.983
  -163.687	   123.662	    -3.672
  -135.580	   128.946	    13.132
  -130.842	   107.553	     6.660
  -137.402	   124.506	    17.559
  -146.291	   125.466	    12.769
  -141.555	   120.063	     7.156
  -120.787	   111.285	     9.936
  -120.118	    86.122	     2.312
  -152.373	   103.520	    22.918
  -139.446	   103.036	    -4.028
  -151.279	   107.155	     3.407
  -142.072	   113.492	    -4.024
  -150.108	   138.245	    -9.605
  -121.676	   127.730	    -5.688
  -148.597	   119.027	    -8.767
  -140.677	   110.991	     5.988
  -135.534	   120.436	     2.235
  -143.816	   122.305	    26.300
  -138.455	   137.046	     7.037
  -149.883	   123.090	     7.272
  -145.325	    98.839	     4.671
  -133.201	    82.945	    -4.092
  -154.008	    96.580	   -12.580
  -136.625	   121.053	    13.964
  -151.371	   126.263	   -11.021
  -154.130	   102.370	     1.507
  -132.647	    93.680	   -24.107
  -136.298	    85.043	    -8.447
  -144.569	   111.452	   -13.274
  -139.258	   124.485	   -13.844
  -157.822	   135.657	   -10.987
  -143.081	   116.444	   -17.511
  -155.192	   122.007	     3.094
  -139.806	   121.624	   -15.486
  -114.613	   107.939	    13.932
  -135.399	    84.091	     1.025
  -134.073	   112.196	     3.014
  -152.789	   111.140	   -12.550
  -145.335	   103.205	    -0.133
  -140.646	   133.620	   -12.376
  -136.752	   109.955	    -2.500
  -154.161	    95.771	    14.513
  -150.193	   107.252	    -5.567
  -148.791	   101.335	    -4.371
  -144.680	   126.783	    -6.463
  -133.434	   114.411	    18.572
  -141.468	   132.251	    -4.338
  -131.738	   102.038	   -19.400
  -134.635	   101.538	     6.668
  -142.065	    82.210	     8.948
  -137.586	   100.731	    -0.855
  -122.253	   127.843	    -2.646
  -124.685	   115.292	   -13.403
  -159.470	   109.637	    -5.714
  -145.985	   120.362	    -4.396
  -142.903	    94.829	    22.144
  -146.700	   116.392	     0.342
  -141.485	   118.245	   -14.132
  -140.028	   124.004	     7.210
  -144.738	   119.547	     6.632
  -134.950	   108.019	    18.807
  -137.788	   114.117	     5.653
  -151.135	    67.912	     4.410
  -123.191	   112.923	     9.146
  -140.610	   102.209	    -0.962
  -132.950	   114.020	     4.200
  -122.682	   121.276	    21.992
  -132.418	    96.241	    13.686
  -127.245	   108.975	    -0.017
  -143.505	   121.397	    -1.726
  -151.477	   123.628	    13.958
  -137.361	   116.844	     7.835
  -116.790	   108.958	     7.452
  -135.772	    97.689	     2.787
  -139.708	    93.512	    12.705
  -143.317	   120.477	     3.093
  -110.212	   102.855	    20.560
  -146.180	   122.059	    -2.745
  -144.593	   103.869	    -2.585
  -136.134	   113.406	     0.092
  -151.854	   120.888	    -8.823
  -131.061	    96.325	    -9.762
  -132.001	    96.502	     7.268
  -152.862	    94.528	     0.571
  -149.659	    91.539	    13.783
  -160.036	   120.496	     0.001
  -155.752	   120.691	    -2.714
  -153.703	    94.671	    -5.188
  -144.062	    95.096	   -21.125
  -137.996	   138.373	    -5.083
  -135.008	   119.051	     5.114
  -148.974	    99.683	     7.909
  -144.521	   112.893	     1.747
  -140.187	   121.358	    16.413
  -142.372	   133.882	     7.447
  -131.535	   114.751	    11.237
  -136.884	   115.205	    -0.981
  -150.087	   121.082	     2.435
  -114.094	    99.753	     6.097
  -136.058	   126.004	     1.258
  -143.908	   136.667	    11.145
  -111.953	   124.010	    -0.146
   -87.002	    95.453	     3.622
  -114.929	   104.636	    -5.086
  -141.838	   109.159	    -5.110
  -137.631	    76.343	    -4.199
  -136.336	    88.314	     3.734
  -143.159	   100.576	    -4.197
  -129.774	    93.285	     4.296
  -156.478	    97.990	     5.386
  -151.863	   119.348	    -8.059
  -160.237	   106.475	     0.923
  -140.902	   133.320	    -4.844
  -138.614	   126.813	    12.290
  -144.828	    93.647	     1.544
  -126.702	    80.359	     0.040
  -142.455	   107.088	    16.849
  -114.088	   119.288	     6.346
  -138.428	   136.383	     3.701
  -139.789	   102.096	    40.374
  -115.585	    83.139	    14.717
  -132.946	   123.304	    -1.069
  -143.081	   127.646	     8.808
  -123.377	   120.995	    12.149
  -137.164	   112.667	     0.115
  -128.703	    98.109	     1.484
  -145.388	   112.322	    -5.418
  -143.930	    98.053	     2.619
  -155.193	   113.679	    -4.714
  -160.692	   102.588	    -5.464
  -133.670	    81.068	     7.686
  -146.307	   115.854	    -2.312
  -142.202	   115.021	    14.596
  -142.546	   114.863	    -5.477
  -145.526	    72.702	    -2.654
  -123.968	   105.638	     1.989
  -140.016	   109.349	    13.594
  -137.222	   118.464	     6.698
  -140.627	   134.802	    -1.408
  -154.172	   125.989	     0.934
  -152.616	   130.124	    -0.216
  -143.499	   128.764	   -21.812
  -128.895	   101.244	   -10.135
  -145.053	    89.239	     8.450
  -142.938	   130.553	     0.460
  -155.013	    95.964	    -0.388
  -141.337	    80.051	     5.703
  -140.709	   104.465	   -12.645
  -141.680	   110.713	     4.586
  -126.224	    90.704	    17.081
  -143.782	   147.472	   -10.178
  -111.485	   135.610	     3.736
  -149.723	   111.595	    16.236
  -140.934	   117.311	    14.376
  -131.268	   108.834	     5.862
  -143.168	   119.933	    -3.874
  -132.350	   106.432	     0.791
  -133.343	   102.908	   -17.768
  -130.295	    84.834	    24.357
  -122.685	    98.781	    -3.291
  -106.138	   124.569	     6.913
  -122.255	   103.893	    36.960
  -141.306	   110.820	    16.339
  -107.426	   134.259	    -5.035
  -132.116	   137.419	     4.860
  -147.997	   124.561	    14.371
  -156.114	    82.018	    10.468
  -127.402	   108.626	   -12.479
  -145.826	   119.848	    -4.309
  -157.344	   104.387	    -3.434
  -130.167	   105.402	    -0.714
  -143.141	    78.213	    13.055
  -128.479	   141.056	    -9.296
  -141.500	   105.813	    -3.599
  -152.800	   107.588	     3.018
  -148.916	   122.823	   -15.313
  -135.372	   121.830	     4.681
  -149.260	   121.876	    12.068
  -148.371	   101.500	     5.557
  -132.288	   113.826	    -5.941
  -150.824	   114.370	    -2.693
  -152.210	   122.135	     6.632
  -135.417	   122.993	     5.507
  -128.748	   111.172	     8.164
  -142.475	   118.398	    11.311
  -148.297	   110.106	    -6.651
  -122.582	   125.477	    -6.619
  -140.108	   107.125	     4.570
  -124.020	   106.582	   -20.205
  -127.330	   132.212	    -4.126
  -131.258	   132.671	     0.652
  -147.435	   106.514	    25.025
  -117.638	   107.007	     1.946
  -135.798	   117.398	     4.337
  -130.387	   113.221	   -12.525
  -133.364	   134.758	     0.304
  -130.454	    98.463	    10.652
  -139.727	   117.071	    21.415
  -146.494	   100.789	    -2.641
  -144.042	   121.495	   -12.735
  -124.852	    88.687	    -0.500
  -129.824	    99.902	     3.451
  -135.811	   121.070	    -7.772
  -148.687	   109.145	    -5.881
  -124.329	   105.968	    -4.066
  -143.007	   134.348	     2.689
  -138.101	   124.414	    -3.121
  -133.260	   119.783	    -1.627
  -142.498	   137.160	    -4.519
  -120.000	   120.359	     4.527
  -126.269	   116.824	    15.772
  -135.367	   112.547	   -13.003
  -147.896	    91.190	     5.175
  -142.247	   101.045	   -10.594
  -150.879	    96.622	    -6.611
  -138.148	    90.368	   -10.790
  -143.139	   109.566	   -16.399
  -151.993	   111.853	   -15.182
  -132.495	   125.951	    -9.021
  -132.802	   117.765	   -15.109
  -138.757	   112.359	    -4.155
  -147.346	   116.060	   -14.545
  -119.417	   110.638	   -18.714
  -127.443	   116.618	    -6.985
  -152.694	    95.054	     7.993
  -136.905	   116.740	    -0.783
  -137.338	   101.433	     0.219
  -118.089	   108.169	     7.919
  -130.214	   119.413	    10.144
  -121.052	   114.299	   -12.113
  -151.898	   110.272	    -7.709
  -148.037	   119.780	     8.093
  -141.960	   125.469	    10.168
  -133.033	   135.171	    19.434
  -152.073	   126.855	    -7.597
  -133.196	   112.782	   -11.550
  -143.266	   104.519	   -16.830
  -147.334	    80.065	   -11.780
  -136.752	   115.000	    -2.952
  -128.352	   117.721	    10.126
  -141.007	   125.460	     5.800
  -138.307	    99.106	   -13.173
  -133.543	   106.326	   -18.119
  -161.410	   113.544	    -6.542
  -125.014	   102.947	    -2.853
  -138.193	    93.974	    16.089
  -140.952	    95.959	    10.837
  -140.097	   125.318	     2.423
  -134.183	   105.565	    -6.779
  -126.385	   129.942	    -2.083
  -154.382	   124.856	     0.377
  -145.417	   117.369	    -5.434
  -130.924	   110.775	     9.399
  -128.028	    96.939	     6.230
  -145.349	   117.877	     2.889
  -118.632	    93.679	     9.547
  -138.560	   102.961	    14.068
  -128.429	    86.933	    20.013
  -126.000	   104.601	     0.701
  -120.028	   113.221	     6.981
  -127.403	   117.069	   -26.061
  -151.956	   118.039	    26.632
  -135.780	    93.298	    -0.814
  -157.423	   116.633	     0.124
  -128.522	   107.987	    -7.519
  -154.650	   126.750	     6.230
  -134.011	   100.744	    -6.984
  -128.209	   115.326	   -29.133
  -137.849	   129.346	     1.575
  -146.717	   120.438	     9.743
  -138.065	   116.208	    -1.200
  -161.619	   128.739	     4.230
  -135.292	   120.138	     4.477
  -124.957	   100.145	     2.301
  -134.891	   126.109	     5.175
  -135.381	   108.631	     4.614
  -144.184	   111.216	     3.237
  -131.402	    77.657	    12.794
  -152.418	    90.169	     9.328
  -124.751	   117.183	     1.672
  -107.969	   115.782	    -0.473
  -152.846	   110.298	    26.578
  -134.936	   111.053	   -14.037
  -155.901	   113.062	    16.274
  -149.291	   107.376	     3.065
  -127.892	   113.056	    -8.751
  -131.457	    98.946	    -7.809
  -131.532	    96.854	    21.314
  -127.719	   103.226	    -1.640
  -132.888	   129.029	    -1.980
  -157.402	   119.643	    17.368
  -139.347	   101.426	   -18.800
  -154.741	    90.145	     4.139
  -121.919	   110.350	    14.905
  -154.303	    90.314	     8.002
  -139.968	   113.772	     5.223
  -134.090	   108.556	   -12.485
  -144.034	   132.859	    13.304
  -146.483	    99.045	    11.063
  -134.888	   109.568	    15.565
  -146.073	   136.141	     8.987
  -129.924	   107.547	    -8.437
  -125.095	    95.117	    -5.956
  -164.795	   120.329	    13.999
  -144.663	   108.860	    -4.390
  -154.510	   107.541	    -0.323
  -155.597	   115.034	    11.072
  -141.321	    97.856	     1.209
  -130.627	   126.788	   -14.992
  -137.888	   105.565	    16.626
  -118.912	    81.577	    14.551
  -111.473	   127.792	     2.806
  -158.605	   134.113	    11.900
  -140.566	   127.947	     7.429
  -136.536	   122.754	     9.038
  -123.346	    88.516	     7.480
  -149.572	   116.429	     0.293
  -152.833	    93.801	     3.523
  -136.934	   113.726	    11.873
  -142.603	    95.081	     0.780
  -142.564	    91.711	     8.382
  -154.896	   107.607	    -3.171
  -149.560	   118.545	    12.235
  -149.452	    96.309	    -0.989
  -135.713	   100.811	    -2.389
  -133.652	   117.627	     6.776
  -134.626	    96.615	     1.307
  -134.771	   109.017	    -2.834
  -141.113	   105.252	    10.077
  -133.517	   119.540	   -15.131
  -137.413	   101.088	    -1.037
  -138.977	    98.150	    -3.046
  -148.086	   106.917	   -16.248
  -161.206	    99.164	    -0.212
  -129.263	   111.218	   -13.206
  -146.799	    86.628	   -10.075
  -150.696	    91.049	    13.277
  -153.093	   131.429	     0.391
  -142.797	   121.495	    -9.719
  -128.467	   115.771	    15.126
  -140.743	   114.941	     2.221
  -132.317	   119.986	     3.969
  -130.946	   134.860	    -9.153
  -149.891	   120.598	    -5.727
  -126.196	   117.821	     0.283
  -144.229	   107.550	     7.317
  -125.263	    98.800	     5.938
  -137.708	   137.966	    -3.959
  -128.802	    98.521	    16.106
  -144.001	   124.628	     2.447
  -133.298	   124.627	   -12.818
  -128.347	   128.461	    -6.483
  -142.277	   128.858	     8.461
  -152.972	   112.190	     4.713
  -146.797	   101.599	    -5.091
  -160.856	   109.584	   -23.221
  -143.262	   125.750	     6.174
  -120.936	   121.782	   -15.097
  -108.755	   136.451	    -0.790
  -139.769	    85.303	     3.262
  -122.005	   121.692	    -3.690
  -120.992	   119.871	    -4.088
  -113.838	   121.107	     6.508
  -137.757	   101.678	    20.496
  -133.611	   115.374	     3.294
  -131.314	   125.377	     3.283
  -136.452	   107.802	    -1.822
  -154.275	   136.441	   -10.029
  -151.030	   118.118	     4.387
  -141.081	   110.607	     6.060
  -134.639	   136.991	   -28.073
  -143.854	   117.976	    -2.187
  -128.696	   125.338	     0.340
  -141.890	   115.517	   -13.426
  -158.757	   118.928	    11.478
  -151.139	   128.298	    12.602
  -148.292	    77.221	     7.756
  -139.047	    91.416	   -13.623
  -135.026	   102.575	     2.051
  -128.256	   105.906	    -3.065
  -154.596	   111.913	    11.738
  -151.049	   118.104	     5.529
  -135.821	   107.864	   -14.741
  -125.254	    88.623	    -0.861
  -148.981	   107.487	   -24.674
  -151.642	   106.981	    -0.864
  -124.771	   116.648	     5.551
  -127.526	   103.961	    -5.744
  -128.695	    81.136	     1.257
  -117.785	    94.602	     6.409
  -135.972	   121.280	     4.364
  -105.806	   110.002	     3.384
  -155.601	   106.770	    13.482
  -128.004	   103.669	    14.782
  -149.040	   138.115	    26.875
  -103.208	   130.325	    -5.648
  -136.608	   115.974	     1.484
  -143.953	   101.797	    10.377
  -120.552	   128.949	     0.081
  -130.337	   115.028	    -2.006
  -141.991	    89.883	    -2.390
  -155.104	   102.503	     4.150
  -143.259	   108.333	    -8.290
  -147.507	   116.006	    10.392
  -144.667	   128.150	    -8.659
  -132.189	   113.370	    16.203
  -130.630	   125.407	    -2.007
  -135.404	   107.451	   -16.055
  -124.565	   100.785	    -5.915
  -121.803	   100.956	     6.588
  -138.814	   121.159	   -12.260
  -138.457	   130.825	     6.149
  -156.527	   121.770	     5.642
  -123.433	   106.398	    -5.520
  -134.155	   100.069	    -0.246
  -140.534	    89.890	    10.461
  -142.874	   133.073	     3.553
  -127.531	   127.254	    18.515
  -119.700	   106.771	    -2.381
  -136.569	   116.485	     1.874
  -118.187	   126.466	   -11.255
  -132.430	   124.130	     1.746
  -148.725	    97.803	     6.037
  -127.996	   119.368	   -17.535
  -118.891	    93.044	    -9.443
  -133.575	   111.359	    14.934
  -127.447	   114.556	    10.614
  -103.212	    96.371	    -3.520
  -114.804	   100.256	     0.749
  -135.609	   101.265	    18.488
  -146.753	    92.046	     3.704
  -148.112	    96.216	   -12.364
  -135.106	   130.346	   -20.067
  -135.302	   128.580	    -5.491
  -136.724	   121.101	    15.746
  -151.153	   108.089	     2.271
  -148.087	    94.017	    24.523
  -154.228	   113.045	    -7.674
  -144.163	   119.620	    -0.995
  -133.386	   111.993	    -3.633
  -130.160	    89.175	     2.909
  -146.317	   103.412	   -11.937
  -140.908	    99.744	    -6.934
  -139.735	   114.789	   -10.172
  -147.879	   113.143	    -7.117
  -123.822	    86.556	    -8.653
  -135.494	   112.029	    13.739
  -129.901	   101.358	    14.966
  -140.370	   131.955	    22.472
  -148.627	   131.416	    -7.088
  -143.658	   120.848	     8.202
  -139.309	   123.043	     4.377
  -151.030	   106.728	    -4.855
  -148.607	   109.687	    10.336
  -168.460	    95.749	    16.401
  -136.116	   114.074	   -15.513
  -123.147	   116.401	   -10.540
  -147.789	   112.828	     2.606
  -127.357	   142.696	     3.138
  -156.099	   139.575	    -3.653
  -138.138	   121.296	   -12.597
  -137.085	   116.811	     3.604
  -143.489	   126.714	    -7.073
  -150.834	   119.865	    -9.116
  -121.762	   114.850	    10.060
  -138.475	   130.566	    11.020
  -130.975	   121.789	   -10.074
  -124.094	    90.354	   -18.587
  -140.699	    94.990	    18.018
  -138.199	    94.232	   -10.672
  -148.055	    93.318	    12.680
  -135.845	   128.661	    -9.418
  -126.174	   131.740	   -22.527
  -149.943	   130.134	   -19.038
  -135.709	    68.081	    16.215
  -132.324	    94.556	     7.364
  -128.174	   107.119	    -4.158
  -122.150	   123.986	    -9.973
  -159.348	   112.926	     9.495
  -152.371	   118.416	     0.581
  -128.542	   101.471	    -1.858
  -119.761	    99.332	     1.121
  -139.871	   125.142	    14.219
  -138.473	   113.104	     9.454
  -136.187	   131.643	     8.262
  -142.958	   117.354	    10.073
  -140.194	   117.559	    11.452
  -145.800	   127.311	     1.799
  -129.379	   121.899	     4.023
  -155.255	   154.184	     1.566
  -142.306	   135.973	    -7.110
  -128.936	   132.420	   -17.664
  -156.575	   130.531	     5.081
  -145.050	   150.159	    -8.463
  -143.719	   129.431	    -2.426
  -145.388	   102.114	   -20.487
  -143.847	    92.415	     4.590
  -150.537	    79.694	     9.246
  -145.651	   118.272	   -34.461
  -149.730	   125.059	   -15.835
  -159.289	   113.417	     6.110
  -135.967	   109.115	     0.366
  -139.632	   120.624	     4.548
  -115.791	   112.989	    -3.980
  -140.837	   114.225	    -8.778
  -127.112	   117.672	    -1.196
  -144.260	   121.753	     0.169
  -130.538	    84.388	     5.088
  -148.059	   101.655	    -5.978
  -148.969	   124.339	    11.472
  -143.118	   126.045	    -0.073
  -144.287	   127.045	    -6.720
  -135.964	   107.499	    19.920
  -146.076	   108.585	     2.043
  -124.738	    85.165	     7.218
  -130.811	   111.615	    -1.530
  -138.549	   121.948	    13.402
  -137.327	   116.705	     1.089
  -134.075	   106.522	    17.350
  -134.535	   127.481	   -11.774
  -141.644	   122.498	   -18.849
  -158.965	   128.598	    -0.613
  -147.122	   123.480	    -2.544
  -138.585	    94.631	    -6.164
  -131.326	    88.790	    -3.026
  -129.199	   104.579	    16.218
  -145.160	   138.378	     5.538
  -129.633	   129.086	     1.570
  -147.275	    88.436	    -2.249
  -133.587	   109.385	    -1.705
  -136.437	   112.036	     2.752
  -137.125	   110.749	     3.814
  -138.551	   103.517	     5.469
  -149.423	   126.486	     6.123
  -156.955	   130.278	    -5.419
  -137.006	   110.763	     3.205
  -141.431	    84.374	    14.677
  -132.890	   110.076	    -0.294
  -118.326	   114.727	    -5.484
  -135.879	   134.994	    18.124
