   -92.310	   122.143	    -3.179
    24.476	   -82.561	    -9.101
    37.420	  -106.206	    -2.937
    34.414	   -90.578	    -4.150
    45.085	   -81.310	    -7.705
    36.917	   -81.752	    -5.576
    45.804	   -68.986	    -2.226
    49.510	   -93.344	   -17.834
    50.118	   -76.093	   -10.189
    36.364	   -91.566	   -10.899
    45.496	   -80.451	     5.025
    60.601	   -99.605	    -8.826
    40.786	   -85.411	   -21.845
    41.434	   -84.725	   -18.845
    53.491	   -81.953	    -5.091
    35.691	  -104.880	     1.680
    44.261	  -107.095	     2.528
    40.913	   -93.988	     1.525
    54.185	   -84.041	     6.458
    53.626	  -101.994	     6.655
    60.534	   -64.505	    -7.454
    53.064	   -66.898	    12.684
    50.111	   -76.144	     4.518
    59.065	   -87.625	    -8.695
    59.420	   -45.909	    11.790
    45.563	   -95.377	     3.817
    48.336	  -103.608	    16.346
    44.131	   -86.905	   -18.089
    42.760	   -55.678	     8.578
    53.567	   -80.104	     7.209
    59.400	   -79.875	     5.781
    27.469	   -82.129	    12.870
    57.005	   -53.815	     7.557
    64.145	   -56.732	     1.786
    66.934	   -68.887	     1.790
    57.116	   -70.194	     6.534
    65.508	   -48.884	   -16.124
    57.877	   -72.760	    -4.654
    50.685	   -54.798	    10.931
    47.683	   -74.849	    15.017
    47.924	   -70.300	    23.249
    47.759	   -78.444	    21.053
    55.007	  -103.036	    12.989
    53.522	   -98.978	   -13.405
    37.605	   -97.366	    -3.103
    49.677	   -92.687	    11.028
    47.384	   -96.610	    11.289
    46.322	   -79.283	    10.529
    59.111	   -60.445	    23.437
    58.707	   -77.552	    -9.792
    30.741	   -71.984	    11.097
    48.590	   -82.940	     2.061
    47.586	   -91.574	     0.795
    49.178	   -74.117	     7.532
    54.962	   -72.477	    -2.788
    47.480	   -85.367	    18.035
    43.014	  -104.374	    -1.948
    25.376	   -91.947	    21.216
    57.331	   -80.986	     4.440
    43.456	   -92.670	    11.784
    56.730	   -92.625	    -5.606
    59.174	   -62.951	     6.566
    46.959	   -87.453	     6.741
    47.009	   -88.671	    -5.860
    48.280	   -85.158	    11.356
    47.717	   -77.591	    15.282
    47.386	   -77.779	     0.665
    48.974	   -94.180	   -31.534
    53.645	   -93.299	    -0.244
    45.230	   -78.101	     1.915
    57.070	   -71.488	     8.555
    63.095	   -79.508	     6.400
    38.470	   -91.044	    25.755
    40.406	   -74.582	    -3.046
    40.831	   -82.033	    15.918
    44.399	   -84.455	    -4.771
    55.399	   -74.511	     7.217
    60.678	   -87.384	     8.056
    56.321	   -92.334	     8.656
    64.314	   -83.530	    11.129
    30.634	   -90.334	     4.326
    43.058	   -76.907	    10.248
    54.587	   -72.292	    13.429
    37.749	   -81.928	    16.105
    50.074	   -52.314	    13.671
    60.662	  -102.624	    14.042
    51.592	   -92.490	    14.026
    36.984	   -95.045	     8.501
    38.035	   -73.806	     5.083
    44.403	   -46.212	    17.072
    44.136	   -90.894	    16.114
    45.104	  -103.069	     0.909
    54.584	   -90.088	    19.489
    48.105	   -92.042	     3.619
    44.179	   -72.980	    -1.848
    38.653	   -89.245	    13.616
    50.705	   -93.891	     4.784
    44.572	   -95.132	    14.836
    36.734	   -86.414	   -15.211
    24.562	   -81.135	   -15.585
    28.164	   -83.705	   -14.694
    36.717	  -101.284	   -11.167
    42.684	  -100.402	     3.598
    61.052	   -72.455	     3.224
    45.993	  -116.397	    11.382
    34.281	   -96.899	   -17.417
    55.177	   -89.823	    -3.691
    53.689	   -50.572	    13.430
    51.987	   -93.439	     8.630
    46.465	   -63.152	     2.130
    58.921	   -55.435	     4.387
    51.856	   -76.536	    12.946
    61.436	   -57.535	    -2.740
    67.789	   -48.482	     2.489
    59.300	   -79.401	     4.445
    48.748	   -72.897	     8.001
    49.216	  -115.634	    -3.655
    29.770	   -82.643	    -7.461
    40.750	   -87.701	    -0.118
    54.999	   -65.617	    -8.492
    55.129	  -104.679	     2.966
    34.885	   -90.751	    -9.232
    62.834	   -80.903	    -5.144
    55.092	   -70.098	    12.631
    51.224	   -86.306	    10.780
    46.129	   -88.796	    17.229
    54.088	   -76.266	     3.312
    56.011	   -79.567	    14.586
    47.224	   -81.931	    -4.157
    24.675	   -82.807	    -8.231
    40.591	   -98.432	    10.950
    54.366	   -82.892	    15.184
    55.997	   -84.269	    14.495
    45.407	  -101.776	    -8.378
    52.995	   -69.269	    18.005
    57.750	   -65.613	     9.052
    49.220	   -83.559	    35.446
    60.310	   -44.996	     1.703
    54.902	   -86.837	     1.084
    52.681	   -78.438	     6.446
    53.064	   -85.088	     5.599
    46.754	   -79.914	   -12.740
    44.137	  -101.177	     3.130
    40.649	   -87.696	    23.337
    56.805	   -87.224	     5.278
    61.350	   -59.615	     8.996
    60.543	   -92.400	     0.828
    45.493	   -84.671	    -6.412
    42.038	  -107.772	    -1.429
    38.896	   -81.733	    -7.465
    46.913	   -66.132	     9.034
    51.622	   -71.296	    28.412
    61.297	   -67.352	    11.765
    63.122	   -81.857	     5.615
    51.737	   -78.642	    12.019
    63.428	   -90.096	     2.007
    59.556	   -75.061	    -4.439
    46.050	   -76.316	     0.539
    52.730	   -75.565	    16.216
    53.666	   -92.074	    -2.767
    51.656	   -65.524	    17.148
    55.502	   -92.791	     7.729
    44.818	   -96.467	    17.543
    42.630	   -85.292	    20.715
    49.499	   -76.742	     3.677
    56.782	   -86.555	    21.881
    65.914	   -72.754	     8.467
    55.614	   -83.247	    -5.920
    47.747	   -56.463	    18.120
    50.505	   -85.421	    10.907
    59.066	   -78.678	    14.521
    58.372	   -71.420	     0.958
    52.786	   -78.441	     7.567
    58.356	   -72.579	     6.476
    54.685	   -77.787	     6.510
    34.014	   -88.260	    21.151
    56.219	   -88.433	   -12.824
    35.802	   -91.844	    -6.072
    36.911	   -88.204	     4.797
    29.613	   -90.931	    -2.779
    45.738	   -75.758	    -8.194
    57.816	   -81.538	   -10.030
    44.515	   -74.802	     4.213
    50.684	   -96.436	     8.262
    55.830	   -79.867	     0.701
    53.370	   -95.698	    10.858
    44.704	   -95.060	    -0.621
    45.196	  -103.021	    -7.232
    56.858	  -108.554	    -4.537
    48.418	   -71.717	    11.043
    47.286	  -101.820	    22.678
    50.207	   -68.795	    -6.370
    54.529	   -89.971	    15.039
    54.128	   -98.931	     3.369
    58.522	   -72.343	    -1.176
    47.994	  -100.356	    16.681
    40.239	   -84.567	     9.182
    60.456	   -67.675	     5.358
    47.133	  -102.572	    -6.553
    37.048	   -84.473	    21.873
    50.433	  -108.934	    -5.681
    42.647	  -104.352	    12.729
    52.958	   -90.046	    15.198
    39.886	   -97.803	     5.781
    44.486	  -106.672	    -3.881
    66.990	   -81.333	    -3.950
    60.005	   -45.975	     2.157
    60.794	   -62.158	    -1.308
    66.220	   -65.022	    -4.393
    63.425	   -64.490	    -4.422
    59.309	   -80.497	    11.069
    67.243	   -64.558	     9.849
    39.387	   -85.720	    35.439
    53.572	   -77.276	    18.248
    55.414	   -61.994	   -12.700
    48.638	   -64.009	    32.680
    46.319	   -79.539	    21.398
    48.611	   -74.818	    10.079
    48.299	   -86.408	     4.992
    38.600	   -80.049	    12.790
    41.316	  -104.152	     4.866
    46.367	   -52.503	     9.301
    54.867	   -69.619	    -6.347
    50.662	   -67.335	    21.667
    56.363	  -110.357	    13.087
    53.059	   -87.925	    10.826
    24.427	   -94.306	    -2.877
    41.664	   -66.556	     8.111
    46.501	   -85.644	    12.129
    61.767	   -80.893	    -0.270
    53.918	   -71.343	     8.853
    45.749	   -82.284	    13.054
    61.868	   -62.835	    -5.485
    62.269	   -73.064	    17.479
    58.066	   -91.963	    14.820
    58.038	   -80.026	    11.479
    56.013	   -65.754	     5.019
    62.549	   -89.618	     2.546
    36.261	   -68.801	    14.652
    55.484	   -90.799	    -5.634
    52.037	  -101.730	     0.208
    26.294	   -82.493	    13.645
    58.439	   -81.842	    -6.384
    49.363	  -105.263	    -9.735
    53.960	   -93.529	    -8.913
    47.430	   -99.094	   -19.986
    34.446	   -75.293	    18.804
    64.071	   -70.857	   -11.864
    31.284	   -68.629	     0.312
    51.043	   -89.081	     6.700
    56.232	   -79.677	    11.334
    54.559	   -92.419	    -0.191
    38.865	   -85.136	    13.611
    50.307	   -54.177	    15.314
    51.679	   -69.765	    -1.092
    69.575	   -64.851	    -0.494
    63.670	   -66.999	    -4.109
    56.291	   -67.017	    11.848
    51.284	   -54.882	     6.848
    63.565	   -72.920	    -7.148
    44.471	   -75.455	     7.462
    42.272	   -77.947	    24.677
    52.690	   -74.923	    18.371
    48.283	   -84.390	     2.119
    43.834	   -55.758	    10.605
    55.355	   -77.664	    12.312
    65.439	   -65.802	    -4.891
    48.683	   -80.064	    18.629
    51.627	   -82.211	     0.861
    43.201	   -96.501	    -0.610
    51.593	   -69.530	    -0.622
    49.774	   -70.986	    19.519
    56.964	   -70.711	    -4.169
    53.359	   -62.455	    28.260
    63.861	   -69.475	    17.047
    52.110	   -76.429	     1.412
    55.882	   -64.175	    13.211
    51.131	   -73.024	     4.756
    52.586	   -65.127	     9.255
    45.383	   -60.908	    -1.364
    44.306	   -78.169	    12.133
    65.109	   -74.501	    -2.795
    41.213	   -68.897	    24.356
    62.280	   -81.496	    -0.731
    56.781	   -53.338	     1.094
    49.790	   -72.714	     2.918
    60.079	   -57.405	   -15.531
    41.801	   -88.305	    16.122
    49.229	   -93.238	     9.386
    62.166	   -90.425	     5.194
    55.202	   -66.571	    11.606
    60.346	   -69.500	    -3.594
    62.130	   -74.956	     8.350
    52.889	   -72.303	    -3.245
    57.396	   -48.693	    13.651
    56.575	   -74.955	     4.601
    39.486	   -95.273	     1.100
    37.837	   -94.113	     6.000
    45.422	  -109.241	    22.130
    38.326	   -91.335	    13.087
    37.455	  -103.570	     9.942
    46.213	   -87.073	    -6.653
    43.395	   -85.480	    20.679
    60.475	   -99.454	    -1.591
    39.168	  -100.452	    18.150
    45.741	   -75.099	     6.536
    55.909	   -80.189	     6.863
    46.762	   -83.731	    16.649
    45.248	   -97.718	   -18.596
    41.475	   -99.810	    12.016
    46.248	   -96.967	   -10.518
    36.007	   -89.909	    16.366
    54.761	   -82.411	   -13.347
    64.362	   -66.387	     3.486
    60.555	   -73.296	     9.785
    51.636	   -69.881	    15.803
    46.941	   -62.647	    18.367
    47.852	   -51.447	    13.656
    46.901	   -64.846	     9.758
    63.655	   -73.951	     0.435
    45.444	  -104.922	    15.669
    57.825	   -68.156	    14.018
    56.233	   -96.186	   -11.054
    50.800	   -72.806	    18.445
    68.122	   -63.499	     6.792
    55.727	   -58.573	     6.444
    62.123	   -55.685	     5.185
    29.959	   -98.002	    17.267
    62.722	   -73.051	    -8.130
    57.819	   -67.245	    16.410
    69.794	   -78.195	     0.225
    42.773	   -56.976	   -12.297
    40.825	   -66.580	     1.533
    60.711	   -84.675	     3.217
    63.113	   -60.716	    -5.152
    58.190	   -87.191	    10.325
    60.128	   -81.835	     9.632
    61.309	   -69.619	    -1.392
    60.287	   -74.475	     4.420
    54.934	   -97.776	     3.554
    49.977	   -60.091	    18.691
    50.946	   -60.273	    13.823
    47.937	   -80.427	    10.026
    59.928	   -86.420	     6.480
    59.271	   -65.910	     8.608
    46.955	   -63.816	    22.918
    47.627	   -88.464	    17.564
    55.768	   -92.790	    -0.899
    52.828	   -87.216	     6.690
    53.276	   -78.270	    -1.295
    51.489	   -58.954	     3.712
    51.231	   -72.046	    20.776
    34.699	  -101.183	    18.971
    55.082	   -82.365	     1.744
    42.394	   -72.181	     8.095
    59.167	   -89.412	    16.381
    42.548	   -78.233	    16.717
    59.330	   -78.914	    -0.219
    36.333	   -95.879	    31.560
    54.148	   -82.606	   -20.552
    56.151	   -47.401	    -1.317
    46.988	  -102.582	    -5.335
    52.565	   -62.078	    -1.621
    48.764	   -74.830	     3.788
    36.176	   -52.177	    17.661
    50.250	   -90.445	    -0.733
    56.280	   -63.385	    11.668
    65.959	   -68.671	    14.004
    53.564	   -71.911	    19.734
    50.688	   -63.772	    18.005
    38.732	  -105.472	     2.978
    50.068	   -88.260	     6.547
    57.533	   -79.161	     9.358
    50.413	   -64.851	     3.062
    44.619	   -98.619	     1.333
    50.343	   -87.947	    15.926
    58.941	   -84.392	     0.863
    55.159	   -68.859	     7.230
    39.751	   -63.142	     3.985
    49.127	   -97.597	    -0.755
    44.643	   -79.359	    15.319
    54.991	   -73.292	     9.551
    50.956	   -60.603	    -5.184
    46.512	   -93.080	     1.565
    42.062	   -77.707	     3.106
    57.481	   -96.878	   -28.961
    63.025	   -60.610	    -9.980
    42.900	   -67.891	    15.858
    38.627	   -79.753	     5.415
    54.825	   -63.689	     5.974
    51.638	   -75.485	    18.235
    58.062	   -85.599	     3.735
    31.799	   -97.790	     2.860
    41.832	   -81.406	    19.420
    59.750	   -99.258	    10.561
    53.538	   -88.105	     9.764
    34.689	   -77.839	    45.057
    69.345	   -40.711	    -4.314
    47.526	   -74.781	    20.005
    48.199	   -69.969	    -0.361
    50.324	   -86.005	     4.345
    35.489	   -74.790	     7.467
    54.149	   -75.755	     0.419
    61.341	   -71.783	     2.603
    42.303	   -85.379	    -0.934
    53.591	   -71.840	    -5.849
    49.103	   -78.221	     1.834
    56.370	   -84.286	     6.531
    55.021	   -70.930	    25.674
    44.038	   -76.042	    -3.139
    57.694	   -86.232	    -3.930
    51.037	   -92.800	    23.974
    56.564	   -77.037	    20.140
    54.557	   -94.246	    -9.498
    33.857	  -100.853	    12.223
    54.640	  -105.256	     0.854
    47.367	   -78.454	     1.373
    46.077	   -50.598	    16.957
    60.016	   -78.840	     2.892
    34.189	   -89.488	    19.638
    43.888	   -94.682	    -3.255
    40.458	   -75.308	     5.467
    41.381	   -88.061	    15.804
    51.647	   -80.583	    -3.036
    55.502	   -84.721	     5.522
    60.286	   -80.293	    11.270
    37.426	  -110.875	    19.864
    63.309	   -68.896	     1.944
    57.831	   -69.863	    26.141
    52.575	   -74.250	    -3.806
    46.784	   -85.484	     6.546
    55.771	   -55.617	     0.111
    37.476	   -99.204	    18.470
    49.163	   -77.356	    19.592
    63.486	   -76.252	    -9.080
    49.554	   -94.314	    24.548
    51.894	   -77.446	     6.762
    60.175	   -81.090	     2.150
    50.134	   -68.873	     6.673
    61.399	   -69.696	     6.534
    59.899	   -62.802	     0.002
    48.466	   -82.226	     8.657
    43.444	   -81.588	     3.391
    38.017	   -89.178	   -11.302
    59.718	   -61.136	    -5.076
    59.825	   -47.862	    11.246
    53.297	   -80.750	     1.506
    52.279	   -84.140	    12.073
    45.243	   -94.632	     6.109
    52.143	   -79.447	     7.892
    54.037	   -84.726	    14.014
    41.686	   -94.191	     8.066
    54.065	   -92.726	    -4.603
    50.198	   -82.569	    -0.982
    52.587	   -92.777	    -0.370
    38.196	   -85.065	    -7.001
    58.134	   -97.348	     5.834
    40.570	  -107.639	   -23.617
    60.946	   -66.908	     4.019
    51.385	  -105.957	     1.981
    40.102	   -71.821	    -4.839
    42.480	   -95.579	     3.537
    54.415	   -73.693	     6.085
    42.786	   -67.074	    10.151
    51.754	   -78.580	    15.705
    60.619	   -75.780	    -2.123
    55.031	   -54.743	    11.359
    60.181	   -78.101	    13.615
    59.198	   -61.828	    16.167
    70.757	   -49.588	     2.107
    49.443	   -66.564	    12.890
    49.276	   -88.519	    18.614
    58.511	   -89.988	     4.667
    63.590	   -76.181	    -1.737
    50.080	   -74.050	    -1.059
    64.713	   -65.297	    -2.287
    52.720	   -58.926	    10.298
    52.157	   -77.493	     0.772
    38.638	   -90.633	     2.858
    52.014	   -88.635	   -13.022
    48.620	   -91.543	     8.111
    51.010	   -93.533	    10.005
    45.073	   -65.685	    20.684
    69.907	   -73.378	     6.442
    49.992	   -72.778	    23.866
    61.807	   -68.067	    -8.225
    43.476	   -83.286	     3.236
    53.839	   -76.390	    -6.118
    58.587	   -65.116	    15.665
    47.953	   -55.208	     3.553
    56.029	   -72.394	     1.653
    51.679	   -75.186	    15.893
    47.391	   -83.093	     5.916
    53.078	   -90.997	    -4.477
    40.210	   -82.088	     7.299
    62.614	   -74.955	    -3.943
    50.547	   -77.279	     9.406
    50.722	   -73.664	    -4.863
    59.451	   -67.373	    -7.199
    46.139	   -77.459	     2.971
    49.455	  -110.899	     6.364
    44.311	   -85.279	    12.079
    55.204	   -87.065	    13.497
    45.352	   -72.639	    11.217
    60.554	   -80.878	    10.004
    61.634	   -75.370	     9.874
    45.985	   -69.066	    19.226
    49.131	  -102.775	     1.988
    66.472	   -47.354	    13.299
    53.391	   -75.025	     0.079
    53.602	   -74.998	    17.668
    53.899	   -69.323	     6.133
    52.160	   -69.180	    16.039
    55.414	   -69.359	    12.746
    55.546	   -53.472	     6.815
    49.763	   -89.837	    27.173
    45.201	   -81.520	   -14.204
    58.606	   -78.760	     5.864
    39.629	   -68.618	    16.030
    48.240	   -75.045	    -4.159
    57.781	   -62.357	     0.468
    54.403	   -76.111	     4.648
    57.281	   -72.901	     5.618
    63.152	   -86.001	     0.444
    53.952	   -76.850	     3.981
    40.835	  -113.296	    12.808
    60.637	   -72.018	     0.090
    44.098	   -77.294	    27.266
    56.717	   -90.771	     4.992
    50.113	   -87.495	     6.114
    35.980	   -97.909	    19.030
    53.863	   -99.533	    21.619
    51.269	   -67.262	     9.669
    46.561	   -87.601	    -6.955
    33.417	  -103.253	     1.609
    54.620	   -82.678	     4.306
    42.490	   -71.258	     4.557
    52.617	   -90.342	    10.580
    64.125	   -56.378	   -12.925
    41.303	   -64.715	    -9.273
    51.419	   -76.470	     5.720
    52.639	   -82.191	    -4.916
    38.070	  -110.529	     6.142
    41.834	   -98.632	    -1.909
    40.726	   -74.488	     6.481
    29.747	   -86.183	   -18.617
    28.585	   -98.414	     5.309
    41.074	   -99.642	   -10.622
    44.261	  -114.728	    10.418
    39.126	   -75.732	     9.058
    41.140	   -54.430	    -1.722
    51.981	   -79.886	     8.469
    47.952	   -71.766	    12.419
    60.830	   -89.981	     4.727
    55.759	   -97.867	     7.841
    41.977	   -91.406	    11.003
    54.180	   -90.514	    -2.895
    30.712	  -111.448	     2.395
    42.793	  -101.569	    16.426
    58.390	   -78.186	    -0.919
    38.402	   -88.774	    -3.105
    38.658	  -100.511	    18.711
    54.139	   -83.651	    -8.510
    55.905	   -75.054	     4.942
    53.407	   -79.946	    -2.154
    44.739	   -83.949	    14.950
    55.798	   -82.574	    10.621
    60.748	   -70.093	    -3.229
    55.719	   -70.208	    10.796
    53.396	   -72.235	     0.086
    30.477	   -60.931	    22.584
    52.779	   -82.307	     9.403
    42.454	   -97.162	     3.169
    43.761	   -83.186	    -7.196
    56.521	   -53.068	     8.884
    54.682	   -58.362	     4.682
    56.672	   -67.525	    -2.778
    53.807	   -55.953	    19.781
    41.672	   -96.817	    24.953
    45.645	   -64.297	    15.752
    52.659	  -111.085	    -4.338
    21.348	  -102.958	    13.716
    57.333	  -105.019	   -13.688
    25.779	   -79.037	    11.338
    42.476	   -80.732	     4.347
    52.607	   -96.313	    13.365
    54.458	   -82.102	     3.977
    57.962	   -77.366	     0.808
    59.001	   -61.677	    13.443
    61.385	   -81.962	    26.219
    55.367	  -110.982	    12.146
    53.028	   -76.334	     7.583
    50.041	   -84.499	    16.634
    39.160	   -98.523	    -2.850
    36.735	   -90.263	    15.168
    53.672	   -99.414	    12.711
    55.864	   -74.654	     8.132
    48.234	   -94.846	    -4.246
    46.313	   -67.583	    14.576
    64.498	   -50.018	     6.751
    53.383	   -61.453	    14.187
    61.901	   -63.888	     3.638
    51.404	   -78.562	    -5.997
    58.337	   -62.412	    -2.960
    52.893	   -71.130	     6.427
    70.483	   -54.468	     0.582
    48.007	   -87.952	    21.134
    53.980	   -78.267	    -3.686
    46.479	   -75.433	     8.391
    37.648	   -97.086	     0.774
    61.446	   -89.232	     1.992
    42.408	  -102.749	     5.958
    48.379	   -95.071	    10.863
    36.221	   -86.779	    27.816
    46.378	   -99.630	    12.828
    51.452	   -71.144	    12.653
    49.590	   -62.794	     0.027
    69.458	   -64.755	    12.135
    62.286	   -40.951	     1.208
    47.300	   -78.418	    22.050
    63.079	   -69.248	     8.919
    55.852	   -63.770	     6.172
    72.004	   -63.678	     6.879
    44.268	   -99.107	    10.920
    34.671	   -99.237	    10.844
    60.667	   -91.885	    -1.009
    40.816	   -89.305	     7.174
    59.427	   -69.503	    -2.657
    38.653	   -99.319	    -5.544
    52.883	   -92.768	     1.504
    48.673	   -93.762	   -19.844
    58.527	   -89.124	    12.455
    49.336	   -65.728	     9.734
    60.389	   -74.728	     4.311
    58.861	   -69.995	    15.377
    58.461	   -71.156	     6.175
    58.279	   -72.289	   -15.146
    49.522	  -106.052	    27.436
    55.012	   -96.495	     8.845
    46.469	  -104.228	    -3.871
    34.875	   -92.179	    -9.158
    60.229	   -78.006	     5.339
    47.310	   -91.167	     6.852
    43.396	   -90.031	   -12.123
    34.387	   -61.733	    18.784
    41.687	   -88.434	   -20.698
    35.423	   -81.953	    30.179
    53.281	   -83.949	     3.789
    49.795	   -87.198	     7.325
    44.294	   -90.137	    15.316
    50.976	   -83.471	     9.313
    58.307	   -77.517	    -6.295
    36.653	   -93.030	     4.208
    40.472	   -90.647	     5.994
    57.608	   -78.353	    -3.580
    40.975	  -108.529	    -2.681
    59.044	   -84.154	    -6.798
    47.750	   -72.394	    12.189
    53.408	   -76.281	    14.526
    59.176	   -70.831	     4.915
    61.343	   -69.727	    -2.528
    52.790	  -114.936	     8.382
    32.812	   -96.921	   -19.165
    52.547	   -92.003	     4.258
    50.510	   -92.731	     7.620
    25.085	   -80.648	    -0.640
    49.492	   -87.709	     2.277
    49.809	   -82.614	     7.975
    54.548	   -99.100	     9.809
    45.892	   -79.057	    -2.500
    49.500	   -88.398	    18.832
    53.814	   -85.058	     3.331
    41.760	   -94.071	     8.310
    42.219	   -95.160	    10.125
    59.881	   -74.873	     0.867
    43.621	   -77.526	    11.326
    42.869	   -73.502	    16.757
    52.499	   -86.467	     0.856
    38.815	   -86.670	    20.822
    57.147	   -46.265	     1.110
    62.891	   -61.383	    -8.342
    52.476	   -48.949	     5.889
    57.764	   -81.731	     8.284
    48.331	   -82.910	    22.765
    37.447	   -87.572	    19.683
    54.239	   -72.405	    23.058
    69.441	   -47.096	     3.050
    60.470	   -97.605	     9.006
    47.276	   -60.233	     6.019
    53.080	   -74.011	    27.181
    58.100	   -70.197	     9.046
    39.541	   -66.189	     0.473
    55.314	  -113.901	     1.885
    50.534	  -119.562	    12.133
    52.358	   -72.527	    11.169
    49.346	   -79.809	   -10.022
    62.766	  -101.973	    -3.106
    53.827	   -67.881	     0.569
    58.042	   -61.889	    -2.008
    48.846	   -75.318	    11.612
    51.949	   -54.186	    11.698
    50.238	   -55.453	     5.277
    57.016	   -69.579	    20.394
    71.764	   -65.511	    16.367
    68.693	   -76.079	    -2.724
    53.309	   -72.366	    11.840
    48.816	   -77.412	     8.910
    56.400	   -78.496	    13.805
    50.452	   -47.799	     3.330
    48.977	   -59.015	    11.354
    58.148	   -82.896	    12.139
    56.963	   -69.525	     6.432
    45.668	   -90.807	     1.905
    43.759	   -81.382	     0.788
    49.715	   -76.639	    -0.824
    56.183	   -77.146	     0.766
    53.218	   -95.352	     9.025
    61.232	   -56.066	     8.716
    73.257	   -72.704	   -13.764
    57.980	   -43.231	     2.659
    71.755	   -65.749	    17.307
    67.177	   -67.657	     1.156
    37.636	   -58.359	    14.372
    48.825	   -71.244	    10.065
    46.351	   -94.188	    13.623
    54.246	   -93.536	     5.468
    55.834	   -61.999	    11.356
    48.638	   -51.960	    11.691
    46.198	   -38.434	    11.147
    42.499	   -81.415	    10.597
    47.118	   -98.626	    12.939
    16.987	   -90.514	     4.929
    48.516	   -81.800	     2.077
    50.478	   -57.120	     2.743
    54.862	   -79.534	     3.130
    42.867	   -80.734	     4.932
    45.279	   -79.338	    11.938
    49.119	   -85.636	     3.330
    35.375	   -97.185	     9.576
    32.520	  -120.345	    14.001
    48.234	   -90.666	   -14.293
    55.140	   -85.116	     1.984
    44.495	   -82.730	     1.811
    58.013	  -112.369	     5.110
    56.350	   -68.914	   -10.786
    56.240	   -55.365	    23.027
    50.534	   -71.799	    -2.399
    35.280	   -92.092	    27.308
    52.695	   -88.441	    -8.644
    42.435	   -83.881	    -7.566
    59.902	   -89.066	     8.716
    48.446	   -67.471	     4.416
    46.282	   -95.182	     6.485
    61.155	  -102.281	    -2.522
    48.275	  -107.300	    -6.151
    47.156	   -97.791	    12.245
    45.172	   -76.484	     8.198
    54.510	   -72.051	    -5.721
    39.504	   -82.477	     8.432
    55.403	   -74.444	    12.029
    47.240	   -64.946	    26.707
    61.598	   -62.976	    -0.924
    42.234	   -67.065	    18.289
    58.570	   -55.343	    13.107
    51.896	   -79.844	    -4.959
    50.300	   -61.246	    28.277
    33.796	   -60.998	    12.637
    45.077	   -70.667	     5.690
    56.631	   -92.612	    12.219
    50.458	   -83.741	    -4.226
    48.669	   -59.307	    -1.318
    56.252	   -94.510	    -4.947
    42.406	   -99.688	    -6.355
    42.502	   -92.199	   -10.758
    40.968	  -114.124	   -23.201
    42.270	   -93.559	   -10.500
    49.443	   -95.283	     8.310
    40.305	   -96.145	     5.920
    47.013	   -70.340	     1.741
    48.980	   -67.263	     7.010
    45.094	   -74.106	     3.475
    54.227	   -72.606	   -15.976
    38.237	   -85.446	    17.986
    60.221	   -70.934	    -4.822
    50.582	   -59.570	    21.336
    54.408	   -82.765	     1.805
    49.482	  -108.404	     6.248
    66.344	   -61.105	     6.046
    53.556	   -78.642	    10.514
    55.303	   -57.906	     9.250
    37.485	   -94.688	    -9.215
    55.444	   -61.146	    10.682
    70.290	   -73.839	    -4.060
    59.715	   -65.189	     7.923
    58.969	   -69.517	    10.164
    72.960	   -50.124	    -9.213
    55.031	   -58.520	     8.516
    49.161	   -86.211	    -3.807
    52.638	   -59.575	    13.989
    44.608	   -48.548	    21.246
    58.267	   -39.267	     8.286
    45.739	   -62.951	     7.230
    59.737	   -89.050	    16.666
    57.872	   -84.553	     3.501
    36.196	   -41.785	    23.885
    59.649	   -60.333	    -3.278
    60.695	   -55.306	     5.287
    48.164	   -77.947	     4.668
    61.061	   -85.347	     9.049
    48.917	   -67.540	     9.739
    41.456	   -98.951	    -1.608
    51.122	   -67.133	    22.091
    55.915	   -57.907	    -6.378
    51.088	   -88.145	     4.137
    55.613	   -85.361	    -8.480
    48.329	   -74.969	    -4.862
    48.445	   -72.720	    -5.812
    55.346	   -90.530	    10.964
    43.118	   -85.505	    -2.379
    61.630	   -64.062	     1.496
    57.285	   -85.606	    -6.301
    52.284	   -66.595	     8.102
    50.177	   -70.423	     1.494
    46.039	   -92.100	    14.481
    56.204	   -78.185	    11.005
    62.071	   -75.545	   -23.563
    48.994	   -82.746	    30.509
    44.199	   -97.815	     6.666
    46.547	   -80.741	    14.381
    47.906	   -65.855	     9.200
    47.986	   -67.334	    17.469
    58.052	   -69.585	     6.551
    53.848	   -37.083	     8.760
    61.528	  -100.386	     9.058
    45.021	   -76.120	    17.259
    54.931	   -79.915	    25.656
    45.446	  -128.881	     6.346
    38.414	   -88.682	     9.008
    48.793	   -89.026	    -6.074
    34.179	   -93.434	    -2.838
    35.528	   -96.790	    10.210
    42.274	   -90.924	     6.631
    42.854	  -100.340	     0.986
    43.631	   -95.290	    13.457
    41.436	   -68.663	    -6.580
    45.737	   -98.084	    12.867
    52.289	   -99.859	    -1.230
    49.109	   -91.555	    -2.453
    48.569	   -79.278	     3.781
    41.670	   -85.958	     8.011
    54.551	   -74.467	    13.517
    65.188	   -68.856	     5.856
    60.338	   -74.824	    24.142
    65.986	   -85.899	     8.796
    57.527	   -60.473	    14.326
    38.375	   -54.031	    10.172
    39.790	   -75.753	    19.712
    56.177	   -86.285	    -5.454
    42.995	  -105.904	    -9.446
    45.077	  -106.243	    -4.398
    52.308	  -105.463	     6.042
    45.604	  -117.025	    -1.272
    44.832	   -93.753	    26.215
    47.454	   -84.829	     1.974
    51.397	   -65.155	    11.885
    60.340	   -88.059	    -3.210
    63.823	   -50.939	     0.005
    39.069	   -71.441	   -10.103
    52.904	   -94.482	   -14.692
    50.583	   -55.688	     3.688
    62.732	   -58.061	     5.460
    48.716	   -97.596	     7.055
    46.033	   -94.971	    -5.762
    40.149	   -87.676	    24.567
    41.820	   -99.830	    -2.443
    44.958	   -68.817	    16.625
    32.962	   -81.947	    -7.153
    34.605	   -94.406	     4.685
    49.427	   -90.580	    -0.378
    42.978	  -101.856	    14.054
    58.040	   -73.020	    13.621
    57.065	  -103.640	    13.297
    52.975	   -62.665	    20.363
    58.868	   -69.803	    12.335
    63.858	   -74.013	    -5.361
    51.001	   -83.559	     0.119
    40.061	   -77.472	     4.127
    55.080	   -72.333	    -4.299
    47.431	   -66.307	     7.967
    45.278	   -79.310	   -13.816
    52.416	   -67.364	     5.322
    70.542	   -54.726	     3.311
    58.445	   -78.862	     4.323
    51.738	   -81.535	    21.450
    44.930	   -98.944	     2.986
    59.797	   -83.949	     3.302
    50.873	  -113.996	     3.099
    47.127	   -85.143	     2.058
    64.546	   -60.063	     2.242
    42.753	   -91.338	    23.595
    56.890	   -78.744	    -3.907
    41.610	   -93.285	     9.176
    41.280	   -70.660	    19.861
    47.033	   -88.321	     0.447
    45.383	   -87.190	    -9.561
    36.792	   -75.299	    -1.531
    52.373	   -77.959	    17.179
    48.263	   -95.414	     6.392
    54.138	   -86.006	   -25.839
    44.256	   -71.341	     0.206
    59.215	   -52.514	    10.291
    52.600	   -60.687	    -1.777
    37.887	   -78.853	     2.751
    56.448	   -99.495	     3.598
    55.903	  -100.985	    11.996
    56.244	   -62.576	     0.565
    53.094	   -53.334	    28.113
    53.968	   -76.609	     2.221
    50.494	   -58.151	    19.940
    71.930	   -60.988	    -7.706
    50.810	   -85.207	    15.912
    47.051	   -95.582	     2.811
    62.681	   -80.556	    16.598
    48.931	   -92.144	     9.397
    42.125	   -84.376	    14.967
    51.823	   -77.771	    17.396
    60.712	   -68.979	   -11.286
    53.914	   -80.242	    15.422
    56.659	   -85.216	    23.801
    30.199	   -80.023	    33.953
    55.413	   -68.399	    16.772
    46.881	   -95.599	     6.653
    42.428	   -80.944	    -4.061
    48.238	  -106.336	    -1.893
    62.668	   -75.855	    -1.866
    37.987	   -87.097	     3.641
    56.489	  -101.850	   -13.262
    43.156	   -87.328	    -5.326
    51.990	   -89.922	     4.132
    55.854	   -90.924	    -7.106
    37.755	   -90.999	    10.811
    61.588	   -80.133	    -9.485
    59.218	   -74.551	    15.936
    55.363	   -68.291	    14.378
    51.297	   -68.670	    12.973
    52.192	   -79.986	     4.171
    41.115	  -116.045	    15.609
    48.512	  -110.316	    -7.504
    46.065	   -89.444	     2.874
    71.267	   -83.342	     4.331
    59.645	   -73.371	     3.436
    60.259	   -60.536	     0.185
    53.234	   -73.502	    -3.868
    56.119	   -67.106	    10.191
    47.271	   -73.217	    -2.449
    54.132	   -55.532	     7.251
    47.557	   -72.373	    20.152
    63.316	   -78.316	    -2.035
    54.317	   -56.175	    12.888
    76.158	   -58.044	    -5.000
    58.049	   -76.490	    18.221
    45.863	   -82.471	     3.073
    40.720	   -86.662	     2.286
    52.394	   -65.757	    13.758
    55.199	   -82.610	    13.454
    48.950	   -70.742	    15.917
    50.423	   -63.260	    11.973
    52.526	   -79.694	     6.696
    32.353	   -80.117	     3.297
    52.664	   -71.093	     8.071
    59.855	   -52.032	    -2.364
    47.808	   -95.295	    -2.795
    48.266	   -90.358	     0.122
    26.308	   -82.937	     4.166
    55.781	   -81.048	     0.445
    58.139	   -99.982	    10.390
    36.404	   -68.611	    17.650
    46.200	   -97.339	   -13.457
    48.822	   -96.892	    11.733
    55.707	  -110.049	   -11.330
    53.604	   -70.236	     5.531
    45.567	   -73.408	    25.133
    62.641	   -68.322	    18.563
    47.224	   -65.333	     6.623
    50.420	   -57.261	    28.592
    46.715	   -75.522	     3.270
    52.715	   -68.461	   -16.656
    58.380	   -76.235	    10.523
    61.623	   -66.625	     7.485
    50.693	  -104.141	    30.131
    56.159	   -98.604	     2.081
    42.278	   -88.463	    19.193
    63.459	   -70.694	    -0.260
    51.150	   -77.802	    -9.566
    58.620	   -80.194	    26.152
    56.386	   -60.111	    14.909
    56.198	   -71.507	    -4.518
    52.656	   -77.646	     5.855
    49.750	   -63.838	     6.198
    50.983	   -82.705	    23.782
    46.396	   -72.490	    11.544
