   -92.310	   122.143	    -3.179
   -49.412	   -54.247	   -22.468
   -31.426	   -49.428	    -2.726
   -33.355	   -49.574	   -15.950
   -18.062	   -49.456	    -3.124
   -28.131	   -57.581	     3.523
   -44.698	   -44.689	    -5.752
   -28.430	   -40.690	   -12.714
   -32.997	   -42.461	   -17.369
   -31.850	   -46.882	   -15.669
   -18.305	   -41.317	     3.425
   -14.534	   -46.758	   -23.316
   -30.255	   -56.537	   -11.167
   -20.641	   -56.837	    -8.104
    17.430	   -64.099	   -17.150
   -30.172	   -51.186	    10.611
   -21.319	   -57.762	     5.821
    41.227	   -57.784	    10.136
    48.835	   -54.833	    12.694
    50.956	   -18.887	    10.244
    42.686	   -41.203	     0.618
    33.652	   -54.105	    26.297
    56.742	   -51.905	    -6.600
    46.738	   -49.623	     5.643
    26.941	   -47.755	     7.412
    35.446	   -43.665	   -13.180
    52.328	   -33.843	    16.829
    54.123	   -45.194	    15.677
    47.143	   -40.955	     9.774
    39.576	   -34.879	    14.665
    53.782	   -42.060	     6.078
    47.268	   -39.051	    25.090
    41.829	   -50.205	     9.426
    42.980	   -40.997	    12.014
    48.881	   -51.302	     3.510
    43.288	   -64.203	    15.084
    52.401	   -59.142	     3.413
    40.058	   -76.157	     6.423
    28.070	   -70.559	     0.172
    20.707	   -78.591	     4.273
   -43.169	   -45.453	   -10.073
   -20.325	   -49.611	    -8.018
   -35.801	   -37.746	     3.627
   -24.057	   -59.958	     2.589
   -37.382	   -36.909	     9.687
   -51.427	   -42.929	    -0.809
   -29.077	   -60.593	    -8.839
   -25.297	   -48.074	    -6.750
    -0.216	   -57.131	     3.496
   -19.281	   -46.510	    -3.714
   -30.828	   -58.532	    19.117
    12.433	   -63.490	   -14.902
   -26.530	   -40.263	    -0.505
    -6.651	   -50.277	    -2.688
    43.062	   -60.937	    11.875
    44.040	   -38.034	    11.644
    35.905	   -51.123	    22.644
    41.976	   -33.339	     4.552
    37.699	   -43.741	     8.874
    44.582	   -76.048	    12.789
    51.349	   -59.639	    -6.618
    33.812	   -73.375	    16.370
    43.782	   -43.805	     9.894
    45.379	   -77.752	     9.371
    44.749	   -49.946	     3.370
    37.140	   -39.617	    10.582
    59.340	   -34.475	     6.766
    57.486	   -44.257	     5.436
    26.369	   -44.940	     7.194
    49.447	   -42.951	    20.519
    51.715	   -50.280	    27.233
    64.688	   -55.372	     9.343
    37.173	   -50.937	    32.060
    46.229	   -49.050	    18.695
    53.398	   -53.497	     9.574
    52.440	   -32.592	    13.093
    36.619	   -43.488	    27.071
    47.845	   -45.299	    -3.489
    45.561	   -51.281	    17.566
    45.059	   -42.921	    13.297
    41.938	   -44.944	    14.509
    47.269	   -26.430	    10.074
    49.410	    -9.400	    21.356
    42.266	   -36.609	    18.347
    44.073	   -60.701	    -5.477
   -10.366	   -39.983	    -7.342
   -11.921	   -54.818	   -16.095
     1.924	   -76.013	   -15.194
   -16.158	   -43.139	   -11.579
   -22.080	   -53.368	     2.362
    34.006	   -71.204	     9.498
    34.051	   -74.023	     3.118
    29.064	   -67.451	     1.272
    33.687	   -77.832	    27.370
    30.116	   -53.988	     1.938
    29.763	   -54.610	    16.690
    34.356	   -70.929	     2.534
    54.044	   -64.739	     8.436
    14.649	   -56.528	     1.960
   -14.638	   -50.824	    -5.433
   -36.336	   -52.594	   -10.408
   -18.067	   -58.715	    -9.122
   -35.489	   -41.440	     1.918
   -31.986	   -30.095	   -19.356
   -27.288	   -51.359	    -5.443
   -34.194	   -31.821	   -20.236
   -14.355	   -64.747	    -5.268
     0.145	   -61.754	     4.176
   -17.814	   -47.656	    -2.545
   -16.182	   -47.828	    -4.118
   -15.370	   -69.988	     3.347
   -20.443	   -40.628	    -8.711
    13.297	   -66.484	    11.711
   -23.207	   -54.320	    -7.332
   -11.843	   -52.276	   -17.260
   -13.960	   -58.667	   -11.311
   -20.326	   -60.784	    -0.922
     0.506	   -64.461	     0.891
   -20.764	   -68.279	   -12.293
    -1.961	   -64.391	   -18.136
   -23.081	   -44.685	   -14.741
     6.819	   -76.761	    -5.973
   -13.245	   -54.118	    -9.569
   -14.803	   -58.468	   -11.120
    22.184	   -73.411	    14.258
    45.706	   -73.975	    19.839
    53.327	   -71.894	     5.434
    37.427	   -56.465	    19.534
    44.329	   -51.055	     3.464
    39.738	   -51.862	     0.264
    16.995	   -65.388	    11.793
    38.535	   -90.049	    10.185
    38.471	   -67.668	    23.720
    27.528	   -51.391	    22.632
    52.493	   -52.453	    -4.366
    15.496	   -63.050	    -0.664
   -10.960	   -53.618	    -6.006
   -36.765	   -40.067	   -16.052
   -11.170	   -42.886	   -12.631
   -41.396	   -43.637	    12.747
    -1.416	   -59.093	    -5.821
   -16.346	   -55.609	    11.299
   -16.927	   -44.874	    -8.962
    -0.656	   -54.794	    -1.377
   -32.289	   -59.575	    -2.386
    -6.757	   -63.926	   -16.000
   -49.172	   -59.513	   -10.808
   -16.389	   -60.313	    -7.350
     1.345	   -56.167	   -19.587
   -21.398	   -52.645	    -9.180
   -31.459	   -49.616	    -5.052
   -27.671	   -47.193	    -4.473
   -25.964	   -52.574	    -7.130
   -21.148	   -44.457	   -15.971
   -16.954	   -41.906	    -5.014
    46.745	   -66.770	   -19.546
    44.420	   -45.492	    21.333
    40.577	   -58.720	    20.978
    48.988	   -42.470	    -1.926
    48.672	   -59.799	    12.949
    55.635	   -40.909	     8.729
    46.459	   -28.047	    16.881
    49.923	   -26.768	    -0.073
    42.137	   -33.673	     5.785
    43.378	   -20.145	     7.157
    47.341	   -34.856	     4.185
    35.186	   -39.975	    14.112
    59.235	   -40.530	     4.965
    47.792	   -31.758	    17.942
    44.472	   -41.594	    26.369
    47.828	   -57.225	    16.402
    48.624	   -43.547	     3.167
    59.137	   -44.182	    11.107
    25.764	   -50.602	     2.078
    50.564	   -27.454	     0.516
    48.598	   -32.407	    14.984
    43.460	   -35.425	     8.607
    52.888	   -37.977	     1.493
    38.945	   -37.014	    26.287
    57.811	   -54.352	    -1.379
    37.740	   -32.877	    11.716
    52.924	   -62.071	    -0.375
    47.269	   -65.646	    12.240
    39.441	   -64.632	    21.197
    38.816	   -48.879	    13.756
    44.963	   -71.100	    14.946
    51.249	   -55.458	     4.899
    45.988	   -59.884	     7.643
    42.647	   -42.860	    22.204
    53.906	   -51.715	   -15.927
    46.206	   -35.672	    13.648
    37.922	   -27.976	    20.048
    55.297	   -48.195	    18.106
    35.211	   -61.103	     1.822
    50.208	   -60.857	    -8.231
   -38.320	   -49.622	    -7.914
   -40.397	   -33.651	     5.406
   -11.025	   -65.688	   -21.715
    -5.060	   -72.941	    -8.542
   -12.612	   -64.686	   -12.042
     3.555	   -61.706	   -10.631
   -16.681	   -61.259	    17.859
    -8.703	   -56.053	   -17.537
   -41.537	   -57.840	   -12.551
     0.779	   -54.727	   -13.381
   -15.548	   -49.265	   -16.515
   -31.028	   -50.942	   -15.413
    -0.198	   -57.741	    -5.425
    -1.135	   -60.630	   -14.107
   -19.998	   -52.857	     3.780
   -36.358	   -40.765	     0.861
   -30.415	   -71.224	     2.354
   -17.763	   -62.806	   -10.365
    -4.315	   -56.121	   -13.395
    -7.485	   -58.176	    -3.521
   -29.342	   -54.061	    -4.370
   -16.272	   -57.878	    -5.656
    -8.597	   -56.350	   -14.443
   -27.470	   -44.404	   -10.945
   -36.059	   -48.498	    -3.655
   -41.771	   -52.211	   -12.324
   -41.775	   -44.846	    -3.004
   -20.079	   -53.640	   -16.756
   -46.088	   -53.391	     5.464
   -30.975	   -53.505	   -12.101
   -24.994	   -62.527	    -4.352
   -49.410	   -34.027	    15.506
   -31.474	   -45.368	   -22.697
   -36.853	   -35.538	   -11.580
   -25.364	   -35.117	    -9.276
   -37.326	   -43.753	   -16.099
   -20.604	   -60.911	   -14.252
   -28.033	   -38.625	   -22.637
   -33.244	   -50.499	   -10.822
   -28.886	   -50.516	   -13.620
   -22.750	   -43.704	   -12.393
   -48.440	   -41.478	     4.682
   -41.352	   -35.761	     4.481
   -17.717	   -45.039	   -25.402
   -18.191	   -52.943	   -15.642
   -21.154	   -55.452	   -22.533
   -13.311	   -54.927	   -20.454
   -15.113	   -60.338	   -13.216
   -36.936	   -54.805	    -6.486
   -13.552	   -45.458	    -5.752
   -35.606	   -67.961	   -11.183
    -6.685	   -43.914	   -22.009
   -20.781	   -34.391	   -21.979
    -4.788	   -54.622	   -24.776
   -35.752	   -46.489	    -5.057
   -37.771	   -43.539	   -14.292
   -20.829	   -52.453	     1.193
   -21.842	   -56.465	    -2.178
   -20.281	   -63.090	    -3.961
   -33.058	   -41.108	    -2.499
   -26.418	   -56.608	   -22.868
   -41.545	   -46.807	     6.983
    -9.539	   -44.969	   -17.131
   -27.649	   -59.423	    -9.214
   -33.860	   -51.108	    -2.946
   -35.209	   -41.096	    -9.299
    -8.125	   -50.201	    -6.574
    -2.172	   -68.437	   -19.469
   -10.672	   -66.815	    -0.558
   -31.421	   -45.793	    -0.854
    -2.445	   -66.155	    -9.495
   -22.693	   -60.732	    -0.770
     2.866	   -47.333	   -28.392
    14.027	   -71.212	    -4.521
    -0.976	   -49.637	    -3.977
     2.803	   -58.550	   -20.029
   -18.192	   -65.968	     5.006
   -13.403	   -45.309	    -2.174
   -30.780	   -45.378	    -3.936
     1.250	   -66.268	   -19.226
   -12.863	   -48.302	   -12.076
   -22.856	   -48.117	   -16.773
   -39.668	   -55.699	    -9.211
   -27.938	   -40.726	    -3.789
   -22.403	   -62.334	   -22.352
   -18.715	   -46.747	   -10.821
   -47.680	   -57.666	    -4.511
     0.457	   -63.501	   -18.910
   -22.171	   -51.202	   -12.894
   -21.993	   -64.389	    -6.549
   -22.121	   -67.487	     5.818
   -26.058	   -35.132	    15.641
    32.903	   -92.066	     5.072
    37.895	   -59.615	    15.838
    41.383	   -60.123	     0.889
    32.253	   -82.539	     0.595
    26.817	   -49.720	   -18.786
     4.502	   -64.008	   -14.283
   -26.966	   -49.937	     6.851
    -4.165	   -60.144	    -8.777
   -17.933	   -61.593	    -0.711
   -26.576	   -55.616	    -2.542
   -21.504	   -44.438	    -2.020
   -14.782	   -47.980	   -16.493
    -7.586	   -56.366	    -5.338
   -35.961	   -39.881	    -2.491
   -28.699	   -53.690	     9.429
    -0.454	   -47.647	   -17.746
    -7.639	   -68.132	    -1.341
    31.209	   -71.761	    -9.197
   -19.246	   -69.635	     4.535
   -24.010	   -49.530	    -8.101
    39.281	   -72.797	    -2.130
    47.670	   -52.748	    11.980
    40.202	   -67.409	    12.250
    14.643	   -55.421	    27.909
    50.142	   -55.227	    -0.068
    48.021	   -53.871	    15.616
    49.448	   -38.348	    20.294
    43.649	   -22.955	    17.753
    48.312	   -20.029	     0.038
    54.715	   -37.430	    12.438
    68.369	   -30.880	    -7.415
    46.154	   -29.634	     3.336
    51.449	   -39.329	    13.245
    49.357	   -18.564	     2.477
    54.699	   -25.678	    -0.108
    57.425	   -22.354	    12.583
    46.919	   -13.549	     6.796
    46.348	   -19.371	    23.023
    56.729	   -42.301	    12.464
    44.095	   -30.968	     5.883
    47.840	   -19.548	     9.906
    42.743	   -22.496	     4.634
    47.754	   -24.055	    -2.495
    50.963	   -37.149	     0.878
    49.283	   -66.201	     3.575
    43.219	   -26.951	    13.981
    48.374	   -36.144	     5.485
    43.383	   -28.362	    16.414
    62.889	   -62.850	     2.527
    43.969	   -44.079	    11.585
    50.473	    -8.584	     8.255
    45.167	   -20.606	    13.217
    54.396	   -32.842	    22.349
    54.444	   -46.946	    15.356
    32.308	   -34.077	    12.680
    46.343	   -49.621	    -0.359
    41.551	   -39.623	    20.269
    50.577	   -47.886	    19.795
    52.295	   -58.773	    16.920
    48.957	   -25.243	     5.977
    48.391	   -33.188	    20.149
    46.502	   -29.543	    10.976
    40.815	   -58.430	    -3.655
    58.879	   -50.629	    14.578
    52.758	   -50.207	    11.384
    36.720	   -19.187	    38.177
    45.404	   -23.165	    17.314
    51.097	   -18.317	    20.056
    60.416	   -20.558	     3.400
    54.006	   -37.382	    15.942
    49.161	   -49.509	    20.233
    41.219	   -52.555	    17.827
    45.476	   -42.338	    12.926
    36.488	   -50.600	    19.001
    40.697	   -38.116	    25.534
    55.739	   -51.201	     3.661
    45.378	   -28.660	    17.854
    37.640	   -18.323	    10.504
    61.373	   -38.900	     6.014
     4.962	   -61.711	   -13.922
    52.930	   -61.594	   -15.475
    50.505	   -53.523	     8.934
    53.872	   -45.308	     3.008
    39.875	   -33.248	    18.469
    55.227	   -43.342	     3.321
    45.782	   -44.630	     7.961
    36.621	   -40.064	    12.518
    41.664	   -44.141	    10.678
    38.714	   -63.840	     6.458
    49.916	   -54.431	     1.053
    40.149	   -62.636	     9.085
    32.447	   -49.533	    11.827
    45.149	   -68.309	    -4.242
    38.949	   -58.006	     1.871
    51.536	   -45.604	    -8.404
    59.820	   -35.054	     3.920
    50.292	   -24.208	   -20.384
    48.750	   -52.925	    19.067
    38.356	   -35.434	    33.945
    44.807	   -32.338	    14.203
    64.188	   -32.196	   -26.565
    50.451	   -14.700	     4.166
    66.364	   -13.750	   -19.567
    46.555	   -34.849	    -7.843
    54.628	   -37.363	     5.427
    45.815	   -35.992	    17.886
    38.117	   -31.159	    25.962
    45.370	   -22.480	    13.081
    45.039	   -36.703	    14.465
    67.978	   -33.317	    -5.313
    50.438	   -36.609	    14.105
    46.394	   -18.667	    -6.969
    48.767	   -34.435	    -0.919
    43.983	   -48.482	    13.881
    32.204	   -36.428	    18.917
    31.016	   -57.990	    16.164
    39.702	   -46.683	    26.080
    47.757	   -34.758	    14.540
    26.165	   -53.386	    -1.487
    41.186	   -56.231	     3.134
    41.152	   -74.395	    20.488
    46.813	   -67.699	    10.513
    33.000	   -75.930	     0.748
    32.760	   -51.561	    10.974
    58.974	   -38.176	   -19.122
    41.808	   -16.794	     9.251
    39.638	   -49.423	    17.220
    51.133	   -55.155	    12.193
    40.839	   -28.673	    11.821
    39.342	   -50.824	     6.748
    55.565	   -37.535	     6.967
    41.392	   -35.855	     7.750
    57.901	   -20.582	     6.732
    53.015	   -53.217	     4.864
    42.737	   -50.572	    18.617
    40.774	   -48.967	     4.212
    52.958	   -16.808	     4.039
    50.238	   -25.883	     3.537
    54.228	   -32.098	    12.498
    52.934	   -49.607	    11.525
    58.160	   -23.508	    -8.689
    10.589	   -58.492	    -1.595
    12.568	   -65.119	   -10.569
     7.041	   -68.919	   -18.124
    10.306	   -65.380	   -14.328
   -18.834	   -48.925	    -5.315
     5.634	   -57.182	    12.402
    23.896	   -52.031	    -8.624
    -3.888	   -75.625	    12.437
   -14.707	   -56.137	     5.974
   -37.758	   -48.046	    10.585
   -11.947	   -51.847	    -4.763
    -8.860	   -69.322	   -12.524
   -15.135	   -62.890	   -16.744
    20.926	   -69.257	   -21.345
   -28.035	   -35.957	    -3.710
   -25.753	   -56.361	    -9.483
   -34.361	   -51.962	     1.819
    -2.343	   -63.984	   -15.775
   -29.571	   -48.588	    -7.681
   -44.152	   -37.250	    -5.335
   -18.922	   -54.063	     7.633
     8.682	   -69.958	    -5.710
   -28.652	   -61.054	   -10.953
   -48.579	   -26.555	     1.065
   -39.008	   -48.094	   -16.464
   -35.744	   -42.531	    -1.270
   -33.190	   -36.613	   -33.130
   -10.227	   -76.973	   -38.224
   -27.804	   -51.490	   -13.372
   -36.634	   -46.482	    -3.838
   -12.662	   -63.515	    -1.904
   -20.272	   -55.029	     4.389
   -23.356	   -55.125	    -3.095
   -16.838	   -66.576	    -6.989
   -24.521	   -48.413	   -10.785
   -22.870	   -59.298	    -8.545
   -23.080	   -54.148	    11.624
   -32.047	   -53.617	     1.029
   -18.692	   -60.347	     6.342
   -20.581	   -65.066	     6.689
    -8.937	   -41.715	   -11.700
   -10.898	   -61.323	   -33.145
    -0.476	   -57.702	   -35.599
   -34.111	   -47.820	    -6.685
   -34.430	   -52.548	    -8.746
   -43.042	   -45.022	    -1.504
   -25.096	   -46.845	   -17.350
    -4.962	   -60.345	    -1.175
    -4.799	   -82.393	     7.730
    -7.133	   -68.093	     4.729
   -19.660	   -51.386	    -8.610
   -36.247	   -47.898	     3.416
   -31.825	   -60.589	   -12.575
   -26.335	   -46.975	   -15.146
   -24.477	   -52.082	   -12.576
    44.887	   -48.797	    -2.485
    47.009	   -51.689	    27.270
    41.624	   -53.759	    -5.841
    36.055	   -52.688	    18.578
    49.832	   -33.833	     4.123
    46.426	   -51.171	   -10.874
    40.016	   -19.856	    17.634
    43.116	   -50.493	    28.472
    42.458	   -34.182	    25.181
    39.927	   -71.916	    -2.345
    40.999	   -35.964	    -2.575
    46.453	   -48.131	    25.992
    40.744	   -37.746	    12.942
    42.988	   -46.570	    10.384
    15.982	   -58.090	    -3.510
     5.167	   -67.004	    10.946
    -3.356	   -64.312	    -0.314
   -40.347	   -56.334	     8.325
    39.037	   -57.409	     6.973
    42.898	   -80.470	    -2.195
   -14.197	   -56.127	   -13.225
    -1.479	   -61.309	    -2.877
    60.438	   -53.504	     6.357
    38.966	   -27.958	     6.856
    39.269	   -61.296	    -0.850
    54.376	   -60.493	     8.628
    53.851	   -43.465	    25.747
    57.701	   -58.747	    23.307
    27.499	   -85.471	    25.797
    31.888	   -80.667	   -11.021
    19.389	   -62.438	    -6.485
    11.919	   -59.177	    19.710
     7.028	   -70.989	   -17.672
   -36.615	   -38.674	    -3.360
   -12.619	   -59.872	    -5.552
   -17.880	   -62.720	    -4.819
   -21.699	   -51.637	    -1.203
   -37.225	   -42.118	    -8.555
   -18.316	   -54.899	   -13.649
   -38.330	   -52.750	    -8.320
   -41.604	   -45.342	    -1.582
   -19.983	   -48.603	    -0.101
    -9.447	   -64.048	     0.447
    27.224	   -88.120	    -7.935
    29.067	   -64.177	     9.634
    49.076	   -25.671	     1.842
    37.694	   -35.239	    25.397
    21.213	   -34.842	    11.530
    51.622	   -36.653	     3.526
    62.660	   -41.381	    -2.097
    51.559	   -56.613	     8.210
    31.395	   -54.987	     7.045
    58.177	   -52.530	    -2.543
    23.944	   -78.115	    23.031
    17.002	   -68.458	    12.929
    38.178	   -63.215	    19.897
    47.409	   -56.634	    16.135
    39.270	   -79.205	     4.708
    41.284	   -74.792	     9.302
    46.664	   -57.045	     1.436
    30.469	   -50.484	     6.231
    38.636	   -67.289	    13.428
   -17.072	   -47.565	     2.511
   -14.522	   -42.595	   -14.821
   -30.183	   -43.901	    -2.585
   -11.227	   -49.595	   -21.870
   -14.586	   -49.722	   -10.747
   -14.164	   -53.537	    -3.367
     3.971	   -70.100	    13.156
    24.235	   -55.207	     0.350
    32.458	   -47.649	    -6.076
    -7.512	   -45.446	    10.146
     1.878	   -56.301	     1.889
    33.215	   -38.861	    15.571
    46.892	   -36.629	    12.617
    61.287	   -21.965	    -4.411
    44.169	   -40.897	    19.621
    36.570	   -61.986	    28.038
    44.962	   -30.682	    23.014
    57.951	   -48.953	    23.031
    65.233	   -61.378	    17.545
    36.225	   -31.376	    16.178
    45.377	   -52.099	    -1.938
    55.136	   -52.213	     8.495
    55.286	   -36.732	    14.484
    46.180	   -62.480	     4.106
    48.194	   -56.391	    10.171
    23.667	   -53.530	    22.208
    40.954	   -79.329	    17.175
    41.936	   -66.526	    29.651
    37.771	   -55.376	    12.342
    49.461	   -51.420	    11.613
    36.611	   -67.804	    10.712
    35.879	   -68.940	    13.758
    51.931	   -71.534	    26.723
    45.894	   -57.286	    27.096
    56.134	   -63.505	     9.009
    48.401	   -57.504	    15.751
    38.330	   -58.392	    23.607
    40.990	   -64.663	    22.149
    45.790	   -42.948	    13.219
    47.144	   -64.142	    17.648
    36.653	   -72.391	    10.525
    41.353	   -56.494	    25.439
    37.652	   -48.318	     9.068
    34.727	   -26.559	     6.885
    54.140	   -38.517	    10.242
    43.536	   -33.515	    17.158
    55.669	   -61.907	    19.316
    53.287	   -39.895	     7.684
    41.851	   -41.121	    12.139
    33.034	   -34.650	    14.870
    51.021	   -46.382	     5.946
    38.576	   -40.241	    37.206
    42.469	   -17.056	     4.107
    51.481	   -47.868	    17.068
    52.102	   -53.820	     5.262
    47.404	   -45.270	    11.421
    52.814	   -46.626	    15.187
    46.383	   -33.470	     9.582
    57.553	   -34.200	    -0.479
    49.466	   -61.118	     8.277
    47.578	   -38.996	     4.805
    40.264	   -40.017	    21.131
    48.179	   -40.437	     9.158
    47.714	   -15.948	    13.027
    50.456	   -36.123	    -5.266
    48.650	   -28.138	    -1.082
    52.481	   -30.819	    18.169
    49.499	   -37.588	    19.548
    49.879	   -59.129	    13.768
    60.633	   -33.816	    10.564
    49.363	   -46.893	    17.347
    42.725	   -66.297	    34.020
    34.354	   -63.345	    -4.564
    30.564	   -78.949	    21.899
    42.340	   -51.780	    -5.244
    50.917	   -49.215	    23.114
    45.906	   -50.129	    13.566
    38.590	   -62.650	     8.686
    30.082	   -32.928	    21.389
    47.681	   -41.184	     8.822
    53.193	   -49.232	    21.871
    52.659	   -27.539	    11.731
    52.576	   -42.832	     4.866
    57.648	   -47.412	    10.168
    53.132	   -61.645	     5.671
    42.003	   -61.801	    26.192
    49.226	   -72.715	     9.724
    52.342	   -48.045	    -9.179
    38.280	   -54.744	     2.613
    40.889	   -76.677	     1.267
    43.271	   -62.220	    11.757
    25.839	   -62.228	    17.157
    46.747	   -44.627	     3.098
    48.159	   -64.126	    11.512
    46.917	   -58.796	     3.857
    29.361	   -52.937	    31.197
    49.346	   -39.947	     1.491
    41.035	   -61.254	    26.795
    49.744	   -50.698	    34.627
    35.910	   -55.940	     9.504
    39.076	   -39.824	     7.487
    41.484	   -77.367	     7.039
    44.788	   -57.423	    29.384
    52.404	   -33.203	     3.495
    50.189	   -63.189	    13.222
    49.143	   -62.061	    15.250
    49.286	   -40.971	     6.554
    43.835	   -41.080	     8.320
    51.044	   -39.804	    14.102
    39.615	   -70.647	    13.792
    57.854	   -51.977	     1.154
    37.379	   -36.214	     0.861
    54.138	   -44.833	     9.217
    32.902	   -47.172	    34.736
    44.884	   -67.794	     7.430
    35.533	   -77.313	    19.529
    -3.143	   -61.506	     2.557
   -32.689	   -52.179	     5.656
   -36.926	   -63.987	     1.031
   -20.981	   -47.222	     3.167
     4.122	   -63.277	     0.695
    -6.595	   -48.017	    -6.578
   -23.987	   -48.848	    -0.115
   -29.376	   -25.763	    -3.076
   -59.864	   -38.073	   -17.191
    27.188	   -76.233	     5.632
    36.798	   -57.001	    22.644
    37.141	   -81.471	    17.954
    44.498	   -75.134	     7.548
    -3.017	   -64.856	    -9.999
   -27.809	   -49.291	    13.474
   -18.518	   -54.074	     2.018
    -9.923	   -46.401	   -23.491
    -4.524	   -64.954	    -4.407
   -32.598	   -48.282	    -5.316
     7.126	   -70.293	   -12.218
   -31.937	   -57.407	     2.312
   -14.154	   -61.178	   -10.840
   -31.123	   -42.503	     7.306
   -27.427	   -40.858	   -12.728
   -23.356	   -52.600	    -8.080
   -42.505	   -37.614	    -8.992
   -35.176	   -55.603	   -18.937
   -31.533	   -59.852	   -18.069
   -46.613	   -40.613	   -22.904
   -16.989	   -48.874	   -32.692
   -30.647	   -40.157	    -3.074
   -24.964	   -56.924	   -14.186
   -44.855	   -37.221	     2.733
   -28.637	   -45.616	   -15.620
   -24.864	   -38.727	     5.625
   -27.215	   -39.116	    -1.662
   -21.686	   -44.533	   -16.765
   -39.663	   -42.745	     0.437
   -37.023	   -44.251	    -9.481
   -39.233	   -57.849	   -13.138
   -38.001	   -27.760	    -6.830
   -31.505	   -43.349	   -10.305
   -46.214	   -49.700	   -12.544
   -27.232	   -50.717	   -10.394
   -15.484	   -42.692	    -8.648
   -17.601	   -47.480	     2.446
   -36.578	   -34.693	   -19.004
   -31.312	   -48.602	     0.836
   -23.547	   -52.568	    -7.256
   -16.713	   -48.460	   -13.818
   -24.061	   -50.193	    -8.139
    -3.525	   -60.375	   -14.326
    -1.841	   -56.625	    -7.916
   -26.204	   -50.901	   -18.798
   -36.649	   -30.152	    -1.824
   -26.652	   -55.795	   -19.097
   -29.944	   -43.897	   -12.553
   -19.906	   -47.270	    -1.734
   -18.929	   -61.407	     1.564
   -28.864	   -48.380	    -1.342
   -24.586	   -61.089	     5.944
   -30.758	   -59.635	   -15.356
   -36.107	   -43.359	     2.711
   -35.953	   -37.508	    -9.086
   -22.979	   -60.457	   -17.692
   -31.891	   -52.842	    -6.423
   -37.473	   -54.280	    -8.067
   -37.252	   -51.120	    -3.561
   -25.278	   -54.803	     1.195
   -25.636	   -41.146	    -8.213
   -31.315	   -41.058	     5.390
   -27.104	   -46.776	   -11.940
   -21.413	   -30.338	   -22.792
   -48.288	   -48.491	    -1.261
   -30.656	   -55.092	     6.870
   -49.803	   -49.909	     5.178
   -19.438	   -55.286	    -3.396
   -49.349	   -47.588	    10.349
   -26.960	   -52.698	    -5.207
   -38.926	   -34.174	    -5.896
   -21.953	   -49.304	   -17.013
   -36.924	   -36.633	   -12.332
   -18.629	   -56.594	    -0.750
   -19.977	   -44.708	    -2.234
   -27.003	   -49.235	     1.466
   -20.393	   -42.281	    -4.250
   -10.917	   -67.933	     0.463
   -38.174	   -34.107	    -8.458
   -23.127	   -47.419	   -14.652
   -10.586	   -63.417	   -10.067
   -14.723	   -52.035	   -14.151
   -13.591	   -51.741	    -9.613
   -29.662	   -56.841	    -3.777
   -32.218	   -41.558	    -4.258
   -28.669	   -38.194	   -18.280
   -15.102	   -53.486	   -26.289
   -24.388	   -43.094	   -20.024
   -12.217	   -57.693	    -7.581
   -30.439	   -36.186	     4.175
   -24.914	   -53.921	   -23.614
   -25.073	   -46.274	   -14.921
   -30.213	   -48.391	     2.079
   -32.669	   -56.812	     0.249
   -17.492	   -48.312	   -19.124
   -28.865	   -55.914	     0.447
   -29.903	   -58.482	    -5.686
    -9.223	   -54.155	   -12.991
    -2.522	   -47.345	   -11.716
   -24.836	   -49.654	    -9.884
   -39.438	   -54.819	    -5.328
   -14.762	   -61.859	    -7.267
   -25.005	   -56.345	   -16.962
   -28.357	   -51.563	    -8.432
   -26.625	   -54.912	    -0.197
   -20.053	   -49.617	    -3.296
   -32.882	   -45.694	    -4.945
   -23.958	   -49.534	   -16.302
   -21.786	   -51.618	     9.608
     6.283	   -53.613	    -6.682
   -43.521	   -49.448	   -10.649
   -37.723	   -45.598	   -12.940
     1.836	   -56.810	    12.564
   -13.631	   -53.891	    -2.335
   -11.954	   -46.780	   -13.708
   -19.993	   -60.743	    -4.343
    -2.124	   -67.810	   -11.587
   -28.026	   -44.392	     2.959
   -16.019	   -53.196	     3.280
    23.273	   -46.468	   -14.525
   -13.427	   -54.975	     0.184
   -15.527	   -45.451	     3.022
   -25.737	   -51.752	     0.925
   -16.253	   -65.593	   -10.963
     0.758	   -83.516	   -24.201
   -10.101	   -64.999	    -3.207
   -10.370	   -45.820	    -7.906
   -34.784	   -51.809	   -20.807
   -19.416	   -49.647	   -24.216
   -44.475	   -43.220	   -12.098
   -34.414	   -44.319	   -14.876
   -46.752	   -46.361	    -8.545
   -23.306	   -57.797	   -16.913
   -50.071	   -49.544	    -3.751
   -39.341	   -47.262	    -4.220
   -24.355	   -60.502	     3.817
   -40.081	   -52.473	   -15.636
   -43.995	   -51.390	    -5.558
   -30.010	   -62.339	   -16.892
   -40.627	   -64.143	   -13.241
   -22.498	   -48.677	   -21.165
   -28.153	   -47.066	   -19.288
   -40.129	   -42.496	   -21.016
   -43.801	   -32.419	     1.772
   -33.863	   -49.567	    -1.155
   -40.710	   -28.235	   -12.812
   -35.683	   -69.125	   -19.163
   -25.741	   -51.916	     1.818
   -40.637	   -50.567	   -10.793
   -32.399	   -47.793	   -14.631
   -34.058	   -53.855	   -14.448
   -34.124	   -52.466	     0.041
   -36.133	   -40.333	     9.399
   -19.342	   -50.215	    -0.906
    -7.167	   -75.676	    14.905
    26.688	   -72.645	    10.913
    24.903	   -86.308	    10.710
    33.056	   -90.688	    -1.722
    38.566	   -73.625	    22.664
    39.252	   -70.819	     9.508
    46.592	   -72.827	     5.053
    41.470	   -40.863	    24.078
    28.818	   -59.306	     9.999
    51.200	   -54.113	    17.417
    47.315	   -27.687	    15.366
    61.710	   -50.471	     5.887
    32.035	   -38.431	    22.083
    55.449	   -63.802	     7.988
    48.268	   -44.174	    17.081
    49.819	   -45.584	    14.131
    39.094	   -45.548	    32.809
    41.165	   -52.352	    23.484
    56.537	   -42.529	   -15.421
    49.296	   -26.557	    18.392
    48.031	   -24.979	    16.445
    53.445	   -37.881	    -8.539
    38.325	   -42.551	    -0.562
    60.536	   -63.983	    13.770
    33.034	   -35.700	     8.250
    30.780	   -77.317	     8.998
    -0.779	   -47.093	     0.366
    14.697	   -53.212	    11.440
     2.534	   -52.774	    -8.035
    13.726	   -54.639	   -15.610
    37.568	   -55.879	     6.882
    52.829	   -66.184	     3.993
    -8.206	   -36.873	    15.016
    39.058	   -71.122	    -9.464
   -20.248	   -52.789	    -4.478
   -18.301	   -63.777	   -12.732
   -24.805	   -56.983	    -8.845
   -31.342	   -57.829	    -7.999
   -24.227	   -54.833	    -3.944
    -3.721	   -60.034	    -5.122
   -31.736	   -52.387	    -5.033
   -27.017	   -53.557	    -7.538
   -35.501	   -48.057	     0.310
   -31.483	   -58.292	   -19.144
   -27.835	   -59.301	     2.459
   -25.028	   -53.403	    -0.292
   -34.075	   -41.102	   -14.026
   -30.957	   -46.202	     0.544
   -22.470	   -57.312	    -1.983
    -3.561	   -57.205	   -28.687
   -23.382	   -51.093	    12.930
    -6.395	   -36.482	   -20.318
   -13.216	   -61.107	    -7.000
    -0.359	   -71.127	    10.702
   -36.123	   -48.742	   -12.848
   -33.251	   -48.897	    -2.179
    -5.529	   -51.047	   -22.866
   -26.583	   -46.799	   -17.694
   -14.458	   -59.909	   -13.037
    -3.656	   -62.560	   -23.808
   -23.325	   -57.042	    -9.632
   -24.032	   -59.588	    -7.071
     8.057	   -72.921	   -28.267
   -52.076	   -47.752	     3.847
   -28.365	   -57.931	    -0.507
   -27.817	   -48.616	    -7.300
   -19.437	   -54.236	    -2.233
    -9.500	   -45.632	   -10.675
   -14.954	   -55.485	   -12.616
   -37.046	   -57.024	    10.631
   -23.533	   -47.453	    -6.713
   -31.340	   -34.856	    15.750
    32.935	   -48.462	     8.332
     4.109	   -75.152	    12.686
   -11.013	   -47.867	   -22.562
    -9.672	   -47.777	   -32.481
   -41.995	   -48.604	     6.646
   -34.213	   -42.693	     0.017
   -38.435	   -30.855	     0.973
    13.017	   -61.206	   -29.914
   -16.197	   -52.724	   -18.341
   -38.623	   -31.798	    -9.586
   -20.574	   -54.182	    -4.123
     0.610	   -50.712	    -8.679
   -35.098	   -67.603	     7.493
     5.225	   -74.039	    -7.653
    10.862	   -67.986	     0.766
   -22.476	   -63.469	    -7.497
   -10.610	   -49.955	    -7.417
   -33.063	   -48.495	    -0.914
   -43.247	   -49.637	     8.739
   -29.329	   -43.412	   -10.126
   -47.909	   -35.241	    10.931
   -18.961	   -50.550	     4.972
     3.639	   -66.335	     9.612
    17.161	   -83.915	     1.714
   -20.928	   -42.077	    -2.383
   -26.986	   -53.816	    -4.036
   -18.651	   -54.388	   -13.921
   -25.007	   -55.328	   -21.038
    -5.252	   -62.178	   -17.941
   -24.525	   -43.556	     9.665
    11.561	   -70.235	    -2.803
    22.078	   -75.492	     7.438
    40.021	   -66.460	    14.926
    53.842	   -29.636	     4.941
    52.455	   -31.773	     8.664
    52.014	   -20.593	     8.831
    43.192	   -52.042	   -19.860
    43.471	   -23.552	     0.635
    46.429	   -43.432	    15.056
    31.428	   -72.827	    -8.765
    10.353	   -67.367	    -1.212
   -17.637	   -53.257	    -7.735
    -4.152	   -70.419	     4.818
   -41.623	   -41.928	     2.292
   -37.912	   -47.409	    -0.436
    16.862	   -88.668	   -16.858
   -32.673	   -55.318	    -3.742
   -40.577	   -32.953	   -13.177
   -31.864	   -69.041	    11.580
   -38.439	   -46.669	     8.479
   -34.158	   -45.620	    -2.995
   -45.841	   -49.878	    -1.496
   -27.060	   -47.445	   -12.223
   -28.833	   -62.848	    -0.187
   -25.465	   -49.451	    -8.747
   -35.102	   -52.510	   -10.744
   -38.182	   -44.669	     5.909
   -34.563	   -44.093	    -0.445
   -20.648	   -57.652	   -14.667
   -43.814	   -37.657	    -2.407
   -33.025	   -58.380	    -5.740
   -24.365	   -42.768	    -6.888
   -24.592	   -48.748	   -16.928
   -31.431	   -52.687	     1.226
   -24.433	   -51.144	     4.024
   -19.988	   -60.448	     1.137
   -52.738	   -54.681	     8.645
   -48.886	   -32.218	     8.917
   -33.794	   -56.419	    -0.465
   -31.846	   -45.920	     1.563
    22.770	   -73.402	     1.267
    -7.716	   -55.069	   -16.700
   -37.470	   -43.635	     9.981
   -46.993	   -40.452	    -9.827
   -38.720	   -60.968	   -15.287
     0.191	   -61.348	   -16.943
   -19.507	   -52.111	   -27.072
   -46.891	   -53.754	    10.979
   -22.983	   -57.320	   -15.069
   -13.181	   -66.722	    -3.835
   -23.411	   -75.373	    26.066
    -9.931	   -66.315	    -5.541
   -18.175	   -58.402	    -2.759
   -28.740	   -42.765	    -0.619
   -36.437	   -45.529	     8.790
   -20.925	   -59.690	    17.690
   -18.755	   -64.155	    11.478
    14.419	   -66.015	     2.933
    -8.576	   -51.004	   -13.603
    -7.123	   -52.791	   -11.063
   -15.024	   -54.188	   -12.309
   -24.417	   -54.319	   -22.693
   -31.580	   -55.074	   -13.272
   -24.789	   -43.943	    -2.382
   -28.414	   -48.695	    -5.772
   -17.002	   -48.691	   -17.652
     7.430	   -53.751	    17.742
    37.714	   -68.218	     6.931
    42.696	   -65.397	    14.685
    38.708	   -23.872	    22.678
    59.954	   -32.517	    -1.498
    56.866	   -44.051	    10.717
    50.725	   -53.546	    24.765
    41.390	   -43.958	    17.748
    47.011	   -55.489	    19.404
