   -92.310	   122.143	    -3.179
   -59.539	   161.479	    -9.438
   -49.358	   139.230	     0.144
   -65.869	   153.551	    -1.324
   -54.377	   166.486	   -25.044
   -52.169	   159.485	    -2.813
   -57.667	   158.010	    -4.969
   -65.717	   127.811	   -12.532
   -45.573	   154.853	   -13.360
   -62.014	   152.204	    -9.098
   -54.768	   163.431	   -14.390
   -57.055	   163.959	   -20.637
   -48.362	   162.213	   -11.004
   -46.487	   167.556	    -0.867
   -60.289	   171.502	   -10.871
   -54.019	   172.067	   -11.738
   -60.189	   164.988	   -12.116
   -45.572	   143.912	   -20.790
   -45.033	   131.538	   -17.450
   -52.705	   165.586	    -5.416
   -35.671	   131.127	   -16.403
   -39.594	   168.525	   -15.651
   -31.307	   155.893	   -16.182
   -45.578	   146.821	    -4.773
   -44.892	   143.441	     0.285
   -46.609	   145.781	   -18.729
   -56.677	   162.125	   -12.051
   -49.075	   155.493	    -8.881
   -48.265	   169.693	   -18.201
   -62.782	   165.192	     2.193
   -29.633	   138.269	     6.340
   -47.501	   142.460	     7.263
   -43.371	   145.639	    -3.840
   -62.403	   133.142	    10.014
   -48.569	   136.440	    -8.872
   -49.704	   146.466	    -2.973
   -48.747	   156.955	   -15.566
   -48.935	   139.116	   -22.539
   -65.240	   151.879	    -9.750
   -42.230	   155.299	    -7.584
   -45.566	   156.419	   -13.226
   -45.782	   173.274	   -10.663
   -47.692	   159.667	   -15.773
   -43.182	   158.715	    -7.331
   -63.629	   140.774	    10.554
   -48.964	   148.428	     0.992
   -33.361	   133.488	    -0.343
   -54.358	   151.719	    -6.495
   -55.671	   162.015	     2.820
   -54.587	   136.711	    -6.456
   -34.103	   145.122	   -24.631
   -47.402	   158.806	   -11.998
   -46.999	   156.796	   -25.281
   -42.796	   158.908	   -16.074
   -39.506	   147.852	    -2.658
   -49.870	   146.107	     2.471
   -37.556	   150.778	    -0.568
   -30.245	   152.762	   -24.740
   -39.507	   151.794	   -10.974
   -41.580	   146.956	   -10.451
   -42.859	   139.584	    -1.799
   -46.182	   169.763	    -4.960
   -54.711	   136.879	    -1.887
   -28.422	   113.586	    10.497
   -42.824	   135.367	     0.463
   -27.304	   153.717	   -11.042
   -36.565	   143.891	    -6.171
   -56.124	   144.001	     1.838
   -46.370	   149.768	    -5.593
   -37.819	   149.363	     0.848
   -34.893	   152.242	    -7.434
   -60.036	   178.378	   -18.859
   -35.156	   142.339	   -18.931
   -49.362	   136.386	   -12.382
   -60.090	   159.665	     9.638
   -56.802	   140.999	    -2.440
   -52.207	   143.647	     9.136
   -51.963	   134.619	    -5.748
   -68.247	   162.137	    14.441
   -40.957	   139.266	     1.501
   -51.313	   151.278	     6.790
   -34.309	   147.853	     6.618
   -45.738	   158.175	   -21.341
   -33.984	   155.054	   -26.305
   -46.178	   139.995	     6.068
   -59.465	   154.240	    -1.141
   -50.330	   161.949	   -13.795
   -47.958	   147.721	   -10.714
   -63.757	   133.252	    -9.927
   -55.927	   147.632	     3.438
   -46.951	   149.134	     0.272
   -41.276	   144.248	   -11.450
   -33.028	   134.987	   -19.519
   -50.718	   158.593	     6.175
   -34.350	   134.581	     2.394
   -37.660	   156.753	   -15.062
   -65.032	   149.152	    -8.188
   -44.698	   145.999	    -6.357
   -57.537	   163.851	    -0.276
   -54.521	   141.120	   -20.255
   -50.350	   145.941	     2.427
   -67.716	   142.352	    -6.582
   -43.059	   139.979	     2.489
   -52.283	   147.733	     5.743
   -46.098	   153.017	     0.152
   -46.691	   147.006	    -3.430
   -59.010	   150.609	     8.241
   -45.564	   179.602	     3.856
   -48.031	   155.971	    -9.029
   -45.630	   160.942	    -8.210
   -45.979	   141.571	     4.470
   -40.717	   118.969	    -5.170
   -47.041	   139.864	     4.948
   -44.826	   142.378	   -34.144
   -45.721	   131.778	     1.032
   -57.515	   155.484	    -2.875
   -40.373	   158.651	    -8.799
   -54.580	   151.981	   -16.796
   -63.222	   142.879	    -8.689
   -60.314	   142.455	    -6.731
   -41.142	   150.635	   -17.131
   -68.340	   160.940	    -2.449
   -40.871	   153.713	    -0.364
   -38.926	   159.954	   -20.553
   -51.874	   162.812	    -9.913
   -56.291	   145.549	   -14.846
   -42.357	   140.825	    -8.703
   -37.943	   138.892	   -21.552
   -53.398	   155.297	   -15.157
   -52.287	   149.115	   -19.016
   -46.663	   158.421	   -10.526
   -45.811	   155.745	   -16.448
   -54.099	   158.495	   -12.840
   -54.615	   159.630	   -10.508
   -55.129	   171.073	    -6.295
   -62.926	   153.083	    -1.593
   -34.606	   156.870	   -11.171
   -43.443	   152.017	    -9.468
   -49.678	   144.315	    -7.618
   -51.904	   145.718	    -7.705
   -50.296	   148.619	    14.396
   -46.456	   142.363	    -9.126
   -40.279	   151.985	     5.293
   -62.004	   154.396	     1.561
   -52.070	   139.760	     4.956
   -44.930	   144.373	     4.404
   -41.105	   131.400	     9.229
   -48.827	   141.846	     3.140
   -61.419	   151.965	     8.389
   -48.524	   153.964	   -18.419
   -46.295	   152.176	    -4.276
   -55.342	   160.271	    -2.167
   -57.352	   155.880	   -12.266
   -39.268	   141.483	     5.214
   -46.747	   141.997	     5.596
   -43.705	   147.570	     0.883
   -52.080	   166.359	   -14.542
   -44.058	   153.125	    -9.242
   -60.630	   156.408	    -1.142
   -50.384	   154.663	   -29.117
   -36.782	   153.299	   -15.055
   -52.470	   153.604	   -10.689
   -45.742	   122.997	    -1.608
   -35.371	   159.638	   -11.213
   -48.245	   166.798	   -21.356
   -39.780	   135.380	   -14.271
   -46.584	   143.706	   -13.457
   -48.390	   132.974	    -4.761
   -39.957	   137.244	    -4.697
   -57.220	   151.225	    -3.697
   -55.552	   143.099	     4.068
   -59.062	   137.171	   -13.781
   -50.443	   148.518	    -6.694
   -45.489	   149.647	   -10.118
   -50.214	   152.233	   -15.788
   -55.639	   158.629	   -19.243
   -50.545	   166.045	     2.128
   -50.357	   155.155	   -21.422
   -35.697	   141.173	     4.502
   -40.385	   160.170	   -10.350
   -46.091	   144.361	   -14.709
   -62.964	   160.541	    -2.913
   -52.398	   161.192	   -17.132
   -46.176	   142.444	    -5.809
   -50.473	   158.782	    -3.590
   -50.709	   156.789	     2.565
   -48.990	   159.257	    10.652
   -44.914	   151.931	     8.234
   -58.467	   167.919	    11.710
   -79.731	   164.258	    11.012
   -45.156	   158.135	   -16.346
   -63.871	   133.423	     0.843
   -28.716	   143.480	    -1.104
   -53.409	   163.743	   -13.693
   -46.198	   161.489	     1.251
   -60.320	   169.254	   -18.673
   -47.255	   149.113	     2.760
   -69.528	   164.132	    14.545
   -52.642	   142.739	   -11.581
   -57.129	   150.903	    -7.971
   -42.963	   156.965	     1.151
   -53.653	   161.085	   -18.003
   -54.639	   156.907	    -0.477
   -48.086	   151.692	   -16.038
   -52.883	   156.978	   -16.467
   -45.568	   151.090	   -11.556
   -33.706	   146.496	   -19.435
   -50.261	   163.327	   -21.544
   -59.587	   134.425	    13.313
   -43.270	   150.866	    -8.685
   -54.900	   166.511	    -5.458
   -56.152	   146.972	   -18.484
   -41.405	   138.384	    -6.915
   -42.541	   159.997	     1.106
   -44.223	   156.980	    -9.057
   -47.743	   150.138	   -11.017
   -45.626	   152.681	    -1.626
   -57.319	   148.172	    -1.992
   -55.223	   158.922	   -11.474
   -60.351	   151.476	     4.306
   -47.688	   135.736	   -14.847
   -51.631	   144.636	     7.337
   -45.607	   139.097	    -8.127
   -48.221	   130.481	    -7.147
   -49.766	   152.304	     8.800
   -47.423	   156.751	    -4.861
   -63.383	   164.432	    -0.804
   -52.848	   149.007	   -17.625
   -40.010	   142.757	   -11.716
   -48.782	   150.754	   -13.169
   -55.394	   156.556	    -4.579
   -54.272	   151.276	    -1.994
   -39.076	   155.732	   -11.334
   -47.657	   156.198	    -1.590
   -54.855	   149.290	     6.853
   -61.508	   146.917	     2.451
   -65.663	   156.859	     1.299
    -9.925	   140.322	    -8.716
   -58.042	   137.721	   -24.705
   -53.122	   136.132	   -20.536
   -54.970	   153.769	    -7.320
   -43.448	   152.809	    -1.022
   -48.591	   148.962	    -4.050
   -52.785	   162.424	    -5.317
   -49.444	   149.071	   -16.081
   -49.330	   162.102	    -8.104
   -39.436	   146.341	   -21.484
   -47.550	   139.083	    -5.681
   -55.983	   144.908	     1.070
   -34.345	   140.957	   -19.222
   -47.263	   150.244	    -1.432
   -54.682	   160.611	   -13.197
   -61.791	   160.082	    12.268
   -37.472	   152.015	    -8.433
   -46.658	   168.217	   -15.135
   -57.368	   148.894	    -6.486
   -52.926	   149.098	    -7.125
   -51.007	   147.365	   -13.047
   -56.096	   149.413	    -9.584
   -44.092	   140.550	    -1.880
   -56.773	   148.906	    19.893
   -48.374	   161.960	    -7.214
   -59.325	   157.456	   -15.222
   -45.822	   138.983	     0.336
   -50.715	   147.665	    13.721
   -38.735	   133.307	    -9.473
   -64.597	   164.023	    11.227
   -43.885	   127.015	   -10.230
   -41.252	   162.716	   -16.834
   -33.594	   162.227	   -16.272
   -26.539	   134.221	   -16.077
   -53.293	   150.926	     5.332
   -23.481	   132.244	    -7.981
   -48.417	   137.169	    -0.797
   -58.700	   168.271	    -9.042
   -59.853	   174.651	   -14.856
   -44.801	   143.130	    10.908
   -41.758	   172.952	   -35.790
   -27.761	   147.711	   -16.024
   -46.274	   158.828	     1.773
   -53.057	   148.490	    -4.575
   -68.608	   140.537	    -6.437
   -59.226	   144.964	     3.773
   -47.683	   156.649	   -16.695
   -44.071	   146.935	    11.207
   -44.718	   143.685	   -22.594
   -56.183	   166.740	    -4.036
   -44.455	   156.710	   -15.151
   -50.261	   154.708	   -18.500
   -49.423	   151.466	     7.148
   -59.567	   141.622	    -3.612
   -57.354	   165.572	   -11.473
   -46.957	   161.062	    -7.246
   -52.277	   149.779	   -10.043
   -65.745	   144.479	     2.332
   -66.747	   158.708	     2.781
   -38.494	   156.362	    -0.307
   -43.643	   135.903	    -7.491
   -53.940	   141.057	    -9.700
   -52.144	   143.589	     1.241
   -75.403	   146.779	     1.770
   -39.966	   140.092	   -10.268
   -47.333	   148.174	     5.211
   -63.434	   160.586	    -6.101
   -45.707	   164.281	     3.585
   -41.953	   144.722	   -16.016
   -36.979	   154.477	    -1.094
   -55.134	   158.906	    -0.124
   -52.521	   146.212	   -11.141
   -42.248	   150.190	    -5.593
   -50.076	   158.306	   -11.870
   -47.938	   145.523	   -12.868
   -46.436	   155.582	   -17.609
   -67.571	   139.719	     5.328
   -62.312	   148.861	    17.758
   -57.179	   158.344	     4.498
   -61.478	   153.441	     3.493
   -44.405	   130.708	   -16.142
   -44.167	   150.569	   -12.849
   -45.373	   175.036	   -21.183
   -39.884	   146.319	   -15.619
   -57.032	   151.653	     2.143
   -53.788	   140.002	    -6.683
   -54.075	   147.039	    -8.022
   -39.383	   152.571	    -1.781
   -46.734	   143.532	    -8.624
   -53.829	   148.952	     6.264
   -51.251	   146.307	    -9.878
   -47.380	   164.828	    -8.765
   -60.903	   148.924	     6.278
   -52.676	   162.857	     6.253
   -49.314	   148.635	   -13.021
   -52.095	   152.116	   -21.908
   -59.643	   155.255	     2.304
   -57.355	   156.867	   -11.027
   -54.310	   130.766	     8.362
   -44.416	   146.021	    -3.221
   -54.074	   149.834	    17.881
   -38.835	   143.284	   -33.583
   -70.355	   161.522	    -4.043
   -43.789	   145.870	    10.652
   -48.716	   154.613	     0.634
   -59.081	   162.238	     1.245
   -56.864	   144.216	     5.579
   -44.270	   149.138	   -17.155
   -42.586	   148.017	    -4.385
   -48.522	   148.345	   -18.519
   -54.769	   147.880	   -19.181
   -45.383	   146.638	    -9.146
   -51.335	   146.141	    -8.365
   -51.456	   149.433	   -17.132
   -37.359	   155.100	   -16.244
   -53.283	   159.494	   -12.754
   -38.911	   151.156	   -14.718
   -59.714	   157.150	     9.970
   -47.560	   174.345	   -13.275
   -43.287	   139.168	   -13.219
   -51.916	   154.262	   -15.172
   -60.135	   143.996	    -6.113
   -47.517	   161.084	    -7.522
   -57.466	   146.451	   -12.694
   -40.740	   143.846	    15.085
   -45.134	   142.533	   -15.776
   -40.345	   134.259	    -7.140
   -63.320	   159.701	     9.113
   -55.196	   149.774	    -4.782
   -41.493	   160.109	    -1.716
   -53.115	   159.414	     1.768
   -54.955	   150.096	   -13.321
   -58.072	   163.638	   -17.826
   -47.426	   129.578	    -6.364
   -56.904	   131.881	    -2.386
   -48.495	   133.002	     9.346
   -40.229	   130.692	   -20.081
   -45.966	   144.593	    -2.350
   -58.127	   153.354	     4.426
   -50.330	   164.031	    -6.001
   -43.270	   147.779	   -14.476
   -35.817	   140.257	     2.376
   -66.084	   161.057	     8.866
   -45.531	   151.241	   -14.240
   -31.825	   149.462	   -19.095
   -47.432	   149.741	   -14.059
   -54.466	   150.473	    -9.589
   -45.754	   144.043	    -2.769
   -34.650	   140.294	     7.490
   -50.248	   146.541	    -3.806
   -56.496	   167.666	    -5.658
   -45.754	   167.641	    -2.652
   -38.655	   138.942	    -6.543
   -47.650	   136.297	    -3.210
   -59.958	   158.162	    -7.661
   -56.130	   141.324	   -19.359
   -55.330	   158.503	   -10.592
   -45.980	   164.239	   -29.753
   -45.523	   153.850	   -14.964
   -52.640	   141.664	     0.372
   -56.395	   147.767	     7.676
   -61.352	   157.801	   -11.327
   -40.328	   146.121	    19.810
   -40.516	   140.927	   -22.303
   -53.684	   153.550	    -0.169
   -48.462	   146.522	   -17.674
   -50.810	   145.519	    -4.467
   -37.505	   131.649	   -17.658
   -50.640	   146.487	    11.133
   -49.696	   144.018	   -11.280
   -41.407	   136.199	    -3.514
   -53.117	   133.309	     8.283
   -55.426	   136.476	    -5.136
   -56.895	   150.842	    -8.544
   -51.905	   141.292	    -6.480
   -74.896	   160.300	    -3.079
   -52.403	   142.809	     5.430
   -34.030	   157.978	   -16.098
   -37.045	   155.045	     3.364
   -49.495	   148.272	     3.215
   -42.175	   145.452	     3.344
   -50.026	   146.114	    -9.126
   -54.337	   158.085	    -1.784
   -25.649	   161.436	   -13.339
   -50.042	   151.917	    11.387
   -63.463	   155.280	     6.767
   -59.767	   143.013	     1.999
   -43.600	   143.135	    -6.445
   -51.832	   160.162	   -13.394
   -49.469	   148.146	     3.916
   -56.492	   163.140	    -6.214
   -53.616	   164.980	   -21.465
   -49.566	   151.609	    -0.254
   -52.792	   139.611	   -11.984
   -79.539	   153.513	   -16.063
   -56.231	   174.867	     6.329
   -41.457	   127.939	    -3.774
   -36.529	   126.066	    -3.337
   -44.269	   146.443	    -9.701
   -47.399	   149.687	   -10.058
   -57.641	   148.602	   -10.939
   -38.055	   139.227	    -9.342
   -47.799	   143.573	    -3.080
   -47.355	   162.945	    -9.628
   -42.247	   152.576	     0.694
   -53.853	   146.746	   -14.125
   -49.432	   148.786	    -3.789
   -51.433	   143.295	    -7.001
   -51.697	   155.701	    -6.991
   -56.612	   148.612	    -2.026
   -39.109	   151.718	    -1.044
   -62.413	   161.560	    -1.538
   -37.483	   131.040	    -9.587
   -59.014	   152.873	   -10.030
   -48.872	   144.572	    -4.023
   -55.806	   147.869	    -7.036
   -65.158	   159.975	     5.739
   -48.265	   151.583	   -25.928
   -44.217	   146.243	   -13.981
   -34.947	   150.939	    -8.248
   -44.295	   150.005	   -21.273
   -52.335	   154.255	    -0.510
   -62.952	   146.765	    -5.920
   -59.111	   152.383	    -8.440
   -33.113	   114.538	     1.513
   -49.177	   136.489	    -9.044
   -36.833	   145.979	    -1.370
   -48.201	   148.268	    -9.362
   -49.585	   144.948	   -26.154
   -48.273	   149.915	    -1.522
   -50.122	   149.091	   -20.598
   -46.842	   159.292	    -9.178
   -46.267	   141.633	     5.766
   -38.546	   156.966	   -19.329
   -43.217	   146.519	    -4.289
   -42.337	   142.220	    -9.030
   -50.188	   138.519	    -6.385
   -48.207	   147.148	    -1.724
   -39.071	   152.403	   -13.680
   -54.046	   158.271	     2.191
   -53.121	   139.061	     1.944
   -56.982	   174.083	     2.841
   -59.018	   146.826	     4.765
   -39.242	   142.518	   -13.900
   -42.100	   142.087	   -20.473
   -54.091	   150.360	    -3.502
   -46.071	   148.894	     7.539
   -52.200	   138.986	    -6.749
   -32.376	   158.634	   -10.562
   -51.655	   157.287	     1.833
   -43.229	   157.139	    -9.897
   -47.138	   149.240	   -17.513
   -57.803	   154.972	   -13.760
   -51.038	   137.162	    -4.630
   -48.441	   159.498	    -4.467
   -47.876	   169.673	   -11.854
   -48.382	   165.059	    -4.364
   -36.491	   164.282	   -22.232
   -51.043	   162.362	   -20.820
   -56.876	   160.885	   -10.352
   -66.992	   166.735	   -10.561
   -43.447	   161.778	    -7.856
   -68.231	   145.256	    -9.042
   -61.266	   165.075	   -14.706
   -57.299	   173.387	   -24.418
   -49.437	   142.433	    -3.201
   -59.725	   148.681	    -3.438
   -72.891	   156.350	     6.795
   -39.500	   155.737	   -18.043
   -49.566	   141.355	    -5.113
   -50.422	   142.981	     5.811
   -48.890	   165.691	    -8.530
   -40.719	   140.029	   -16.504
   -50.980	   140.675	     7.638
   -53.441	   142.502	    14.693
   -67.404	   158.360	   -12.683
   -50.928	   157.077	   -10.689
   -44.790	   154.397	    -6.537
   -52.468	   160.930	     3.018
   -39.394	   167.243	    -1.928
   -54.150	   141.852	   -17.456
   -46.250	   139.876	     9.069
   -52.370	   161.529	   -16.072
   -35.324	   158.294	   -23.586
   -51.612	   163.060	   -15.675
   -39.285	   152.674	   -10.785
   -55.312	   151.376	   -11.015
   -54.474	   159.068	   -17.439
   -43.397	   156.940	    -1.828
   -46.357	   147.971	    -8.573
   -56.218	   149.520	     0.217
   -45.100	   149.330	    -0.945
   -26.036	   138.361	   -16.897
   -53.764	   154.706	    10.266
   -44.012	   152.278	   -14.122
   -57.645	   164.030	    -3.483
   -52.780	   150.841	     5.530
   -37.892	   128.472	   -15.278
   -56.259	   145.144	     4.079
   -54.487	   161.363	    -4.953
   -54.429	   150.222	     7.184
   -53.271	   142.593	   -10.937
   -45.153	   141.147	     1.587
   -55.944	   140.692	     7.210
   -52.978	   162.941	    -8.965
   -46.359	   149.916	   -19.502
   -54.732	   146.134	    -0.989
   -51.108	   158.412	   -15.733
   -37.044	   152.455	   -20.398
   -60.966	   156.157	   -15.269
   -36.832	   141.169	    -8.847
   -49.409	   140.883	    -7.100
   -43.994	   148.089	   -11.883
   -52.161	   147.788	    -9.660
   -38.619	   139.159	    -9.054
   -60.831	   135.587	     6.984
   -68.202	   159.677	   -12.248
   -28.841	   134.545	     5.955
   -52.753	   147.149	     0.847
   -50.849	   143.942	    -8.731
   -50.254	   146.892	     0.444
   -46.236	   135.214	    -6.774
   -42.588	   139.773	     2.192
   -48.052	   130.386	    -7.368
   -63.740	   166.081	     2.115
   -46.600	   148.023	     7.048
   -57.319	   170.473	    10.351
   -53.731	   166.001	    -8.349
   -44.642	   157.833	   -13.399
   -38.835	   141.762	     5.437
   -55.454	   151.350	    -4.671
   -46.422	   146.939	     1.876
   -51.409	   149.370	   -15.058
   -36.944	   149.615	     0.046
   -49.195	   151.201	    -7.721
   -36.629	   154.994	   -15.852
   -44.803	   166.851	   -17.893
   -52.446	   174.734	   -17.567
   -47.471	   148.793	   -10.442
   -55.075	   171.703	    -8.219
   -49.533	   142.733	   -10.834
   -42.281	   155.376	   -19.010
   -52.927	   157.113	   -18.124
   -43.433	   153.283	   -12.090
   -44.937	   160.678	    -5.455
   -56.031	   156.988	   -15.879
   -57.449	   156.063	   -11.510
   -53.244	   156.157	   -11.164
   -55.076	   144.672	     1.212
   -53.157	   153.776	    -9.493
   -49.315	   167.498	    -9.471
   -50.864	   157.174	   -16.909
   -47.855	   163.872	   -13.673
   -44.498	   136.135	    -1.583
   -55.957	   157.174	    -0.400
   -51.018	   153.840	    -7.435
   -57.262	   159.478	    19.988
   -58.683	   151.025	    11.396
   -61.266	   162.837	    -6.179
   -38.639	   158.865	    -3.825
   -47.679	   149.878	    -5.979
   -55.355	   149.312	    -8.937
   -58.023	   147.246	    -3.105
   -56.295	   135.867	    -0.946
   -44.483	   142.687	     6.135
   -41.406	   141.993	    -9.272
   -35.291	   144.564	   -24.714
   -54.701	   139.942	   -19.218
   -47.279	   137.566	     0.334
   -54.741	   152.977	     8.459
   -15.948	   140.081	   -11.965
   -34.761	   136.509	   -14.007
   -52.868	   140.031	   -24.114
   -55.994	   144.941	     1.874
   -50.237	   137.207	   -23.750
   -51.786	   151.129	    -2.342
   -52.722	   166.348	   -10.642
   -41.963	   143.988	    -9.147
   -58.411	   160.535	   -14.851
   -55.603	   146.447	    -7.054
   -59.163	   159.153	    -8.152
   -54.249	   136.503	    -4.924
   -46.965	   149.530	   -10.479
   -46.229	   154.774	   -28.736
   -41.548	   154.626	   -17.882
   -42.982	   155.785	     0.888
   -68.623	   164.361	    -6.403
   -24.039	   136.630	    -8.192
   -75.443	   141.456	    -7.570
   -45.939	   155.966	    -5.020
   -40.774	   154.820	    -7.614
   -54.201	   160.927	    -3.497
   -40.676	   147.023	   -12.494
   -60.148	   152.602	     4.063
   -55.336	   120.661	    -9.859
   -55.322	   148.901	     1.217
   -50.971	   146.775	    -1.318
   -54.959	   167.667	    -5.139
   -52.548	   158.384	   -25.508
   -45.290	   152.026	   -15.448
   -43.398	   138.124	   -18.766
   -54.089	   144.178	     3.967
   -46.450	   139.413	   -17.173
   -50.825	   163.400	    -5.157
   -65.722	   158.416	    -1.382
   -34.467	   136.817	   -28.032
   -48.698	   147.553	     3.408
   -59.621	   148.249	    -0.397
   -53.326	   150.176	     7.858
   -56.538	   154.040	    11.335
   -29.902	   139.459	   -11.308
   -46.510	   143.809	   -23.016
   -52.698	   150.050	   -24.211
   -52.597	   150.637	    -4.453
   -48.676	   135.019	   -11.781
   -50.416	   137.033	     1.206
   -49.541	   155.141	    -2.579
   -25.545	   129.503	   -21.660
   -46.865	   172.848	   -16.243
   -57.189	   157.618	    14.269
   -57.104	   150.202	   -11.252
   -38.194	   145.749	   -14.230
   -54.861	   160.402	   -17.380
   -55.549	   140.964	     9.974
   -34.044	   146.948	   -10.584
   -52.206	   144.915	    -0.055
   -55.369	   141.736	   -13.761
   -44.495	   131.954	   -10.166
   -50.540	   150.029	    -6.136
   -57.246	   160.248	   -18.703
   -52.798	   157.139	   -10.086
   -58.110	   154.927	   -18.262
   -47.800	   156.060	   -16.356
   -47.240	   138.265	    -0.044
   -53.346	   151.602	     1.188
   -50.450	   139.914	     0.147
   -64.585	   170.328	    -3.523
   -47.518	   146.703	    15.800
   -50.153	   146.722	   -14.233
   -53.182	   148.742	   -11.685
   -51.256	   148.714	     3.775
   -51.989	   152.604	    -0.126
   -42.000	   164.132	   -10.390
   -51.964	   148.628	     0.440
   -59.780	   154.583	    -3.221
   -43.380	   144.580	    -7.663
   -53.789	   144.428	   -20.863
   -43.878	   146.391	    -8.689
   -53.471	   151.428	    13.537
   -53.640	   157.719	    11.711
   -42.212	   141.461	    -8.852
   -63.258	   147.601	     0.690
   -47.143	   146.497	   -35.735
   -52.782	   145.049	   -10.351
   -63.334	   174.863	    -9.384
   -65.129	   161.874	   -15.564
   -61.714	   157.195	     0.013
   -44.018	   163.261	   -11.343
   -59.844	   152.316	    -2.916
   -51.085	   156.778	   -20.152
   -38.295	   163.085	   -17.406
   -52.929	   157.331	    -6.396
   -53.553	   149.907	   -15.259
   -61.131	   151.165	   -10.896
   -51.271	   153.697	    -9.324
   -40.271	   159.409	   -18.130
   -56.105	   163.639	   -11.600
   -48.052	   155.741	   -10.259
   -48.068	   152.222	    -5.174
   -47.520	   147.138	    -5.839
   -65.215	   146.447	    -5.316
   -22.345	   134.813	    -2.067
   -55.113	   141.579	    -3.544
   -57.329	   169.292	   -20.160
   -31.882	   134.890	   -31.424
   -47.647	   151.144	    -0.631
   -45.561	   143.418	    -3.849
   -39.253	   151.479	   -17.109
   -47.864	   146.240	    -1.911
   -42.318	   155.700	    -0.796
   -56.682	   154.260	     0.286
   -55.310	   145.251	     1.067
   -51.065	   134.428	     0.093
   -58.169	   135.916	    -3.082
   -67.002	   158.247	    -2.027
   -49.106	   151.540	     0.030
   -63.704	   154.487	     5.187
   -49.056	   163.627	    -1.227
   -37.932	   150.038	    -5.199
   -51.368	   156.125	    -4.134
   -62.505	   133.452	    -4.211
   -52.322	   151.658	     3.766
   -47.727	   145.125	    -5.850
   -63.635	   159.246	    -0.261
   -31.320	   140.318	    -6.804
   -61.510	   170.886	    -4.346
   -49.964	   144.806	   -16.226
   -44.049	   135.285	     9.129
   -42.398	   147.532	     0.093
   -47.964	   127.885	   -21.919
   -55.817	   150.380	    -1.816
   -51.659	   156.281	   -12.358
   -59.564	   150.216	     1.891
   -48.903	   145.079	   -28.815
   -49.201	   158.479	   -21.671
   -57.401	   149.860	    19.732
   -50.068	   152.967	   -13.258
   -45.401	   168.472	    -2.025
   -54.557	   158.840	    -6.782
   -41.706	   154.530	   -11.191
   -58.938	   158.053	    -0.604
   -41.489	   130.793	   -11.735
   -58.579	   145.029	     1.612
   -48.178	   144.440	    -2.153
   -59.809	   152.278	     2.269
   -57.577	   155.288	    -2.246
   -43.587	   146.931	    -2.508
   -58.102	   161.136	    -0.027
   -24.258	   141.529	    -2.164
   -36.052	   140.215	    -0.704
   -48.673	   150.018	    -7.548
   -48.651	   148.976	   -21.387
   -51.216	   169.745	     0.220
   -59.128	   142.794	   -16.496
   -49.402	   151.838	    -1.013
   -54.970	   150.867	   -15.054
   -62.181	   147.957	     2.580
   -65.935	   147.273	    -6.903
   -71.041	   150.649	     7.834
   -55.194	   161.946	     7.273
   -50.768	   172.140	     6.293
   -44.272	   158.692	   -16.553
   -63.763	   141.611	    -3.219
   -46.859	   161.713	    -5.690
   -56.413	   168.182	    -1.579
   -58.528	   157.544	    -7.222
   -44.758	   134.623	   -13.039
   -28.941	   131.523	   -13.151
   -31.192	   149.032	   -27.063
   -42.454	   150.744	   -17.661
   -47.002	   161.455	    -3.368
   -51.078	   150.915	    17.158
   -47.355	   152.444	    -5.036
   -46.638	   159.950	     4.187
   -41.219	   160.811	   -16.915
   -45.612	   129.735	    -2.244
   -60.155	   161.584	    -2.691
   -51.088	   157.143	   -15.267
   -44.286	   159.938	    -8.030
   -53.210	   156.183	    -7.678
   -41.202	   149.289	     2.814
   -49.300	   159.257	   -10.066
   -45.318	   159.399	    -3.203
   -33.219	   147.678	     3.013
   -44.439	   147.661	     5.002
   -43.763	   145.499	   -21.157
   -35.754	   143.830	   -33.648
   -60.700	   147.168	   -10.762
   -46.924	   157.068	    -1.096
   -41.104	   153.446	    16.634
   -43.234	   151.024	   -21.202
   -49.751	   145.146	    -6.893
   -29.948	   122.073	   -15.877
   -40.010	   156.753	   -24.813
   -54.047	   158.446	   -18.683
   -60.198	   144.969	     4.323
   -56.406	   153.583	     0.217
   -43.877	   150.937	   -16.068
   -46.363	   145.246	   -11.486
   -54.956	   145.962	    11.660
   -40.486	   158.258	   -13.772
   -55.087	   162.742	    -6.532
   -57.478	   167.233	   -17.665
   -37.844	   150.837	    -5.886
   -54.057	   159.024	    -0.932
   -43.342	   149.081	   -19.590
   -43.502	   136.187	   -23.615
   -56.342	   145.932	   -16.917
   -27.576	   150.424	    -0.976
   -53.728	   162.579	     5.988
   -31.766	   140.658	     7.863
   -36.930	   146.403	     7.341
   -53.111	   159.218	   -23.730
   -59.271	   155.999	    -0.842
   -53.713	   144.540	    -8.052
   -54.239	   148.358	    -1.707
   -36.389	   132.897	   -11.852
   -49.191	   139.470	     5.834
   -54.223	   145.857	     1.065
   -43.710	   160.008	     0.569
   -57.692	   141.300	     0.998
   -49.433	   147.536	   -10.111
   -67.820	   158.924	   -16.741
   -64.054	   155.484	    10.841
   -66.969	   156.596	    -5.855
   -53.636	   144.390	    -3.799
   -45.498	   153.936	     8.509
   -51.697	   148.414	    -2.588
   -49.649	   143.856	     0.187
   -53.899	   165.040	     6.733
   -40.612	   149.395	   -20.229
   -37.897	   139.113	   -20.465
   -44.532	   144.986	   -20.475
   -45.114	   162.892	   -12.612
   -21.646	   139.262	   -13.472
   -37.573	   134.259	    -9.122
   -25.444	   139.796	    -1.196
   -48.575	   156.773	   -11.495
   -45.458	   158.831	   -20.235
   -55.271	   158.476	   -15.711
   -58.575	   146.923	    -9.520
   -56.404	   162.903	     1.844
   -49.786	   162.823	   -25.410
   -44.393	   155.337	   -16.150
   -46.044	   130.488	     0.518
   -54.403	   152.905	     7.651
   -47.291	   146.129	   -11.404
   -40.625	   150.366	   -10.016
   -37.963	   136.704	    -6.103
   -51.007	   147.513	    -8.822
   -43.273	   156.336	    -3.214
   -44.328	   142.796	     3.301
   -42.100	   154.869	   -14.498
   -43.137	   152.711	   -16.309
   -38.149	   147.120	     1.859
   -44.548	   161.564	    -6.435
   -35.939	   152.228	   -15.464
   -38.979	   147.277	    -5.734
   -58.068	   154.793	     3.184
   -50.798	   155.071	    -8.228
   -44.656	   149.348	     3.644
   -41.398	   141.523	    -9.897
   -40.554	   143.855	   -20.260
   -56.991	   147.389	   -12.890
   -59.323	   157.240	    -9.302
   -49.260	   154.363	    -9.542
   -47.103	   148.272	    -5.878
   -49.215	   159.360	     9.440
   -38.472	   146.099	    -0.412
   -29.304	   140.406	   -13.118
   -50.915	   154.900	    -4.995
   -46.103	   156.520	     3.268
   -42.410	   143.957	   -13.510
   -43.994	   147.523	   -12.130
   -41.359	   141.514	    -3.184
   -49.657	   144.019	    -8.949
   -61.924	   151.316	   -19.978
   -49.592	   152.055	    -5.688
   -57.300	   156.636	   -12.019
   -56.288	   156.378	    -5.878
   -48.828	   154.513	     4.676
   -57.094	   148.569	     1.537
   -57.576	   171.562	   -10.689
   -49.166	   156.780	    -6.535
   -67.765	   159.122	    -2.962
   -61.263	   166.514	    11.007
   -46.116	   152.638	     6.277
   -41.813	   152.577	    -8.866
   -51.431	   156.663	   -24.082
   -54.225	   146.260	    -5.455
   -46.086	   136.388	   -15.932
   -45.221	   157.758	   -28.111
   -49.856	   155.056	     5.532
   -31.217	   143.657	    -9.217
   -35.077	   154.237	   -17.818
   -51.058	   140.264	    -8.070
   -38.421	   140.919	   -12.984
   -59.899	   166.053	     1.867
   -47.718	   158.108	    -7.953
   -52.180	   165.960	   -16.406
   -41.411	   134.442	     5.908
   -57.359	   153.494	    23.226
   -49.319	   142.025	   -22.158
   -41.118	   144.234	     6.789
   -52.358	   146.479	    11.197
   -50.366	   153.124	     3.694
   -32.274	   142.334	   -13.417
   -61.097	   162.264	    -9.947
   -49.097	   159.256	    -1.226
   -47.800	   141.877	    -0.622
   -31.343	   140.196	   -17.288
   -56.264	   151.402	   -20.599
   -46.561	   143.864	     4.861
   -46.308	   148.824	    -8.725
   -50.928	   139.134	    -4.092
   -58.381	   151.421	   -17.624
   -49.558	   132.324	    -5.996
   -38.035	   146.740	     5.828
   -56.885	   162.619	    -6.738
   -52.046	   147.959	    -5.730
   -56.209	   159.911	   -13.888
   -43.560	   141.232	    -9.769
   -52.162	   151.074	    -4.132
   -30.362	   138.392	     4.250
   -36.401	   150.486	     2.091
   -36.262	   151.038	     0.886
   -47.335	   162.593	   -13.381
   -41.114	   163.148	   -33.305
   -49.666	   137.806	     5.130
   -53.892	   162.919	    10.620
   -53.015	   147.208	     2.291
   -64.021	  -177.106	   -11.557
   -46.788	   159.584	   -17.707
   -49.339	   154.145	   -11.618
   -38.124	   133.470	   -19.680
   -54.966	   156.657	     3.535
   -49.822	   136.166	     4.759
   -57.233	   165.523	   -12.945
   -53.731	   162.349	    -4.859
   -32.350	   132.765	   -15.222
   -47.689	   158.675	    -8.524
   -51.416	   149.893	    -9.002
   -48.359	   142.060	    -8.055
   -42.926	   147.886	     5.196
   -65.917	   147.932	    10.996
   -42.802	   156.491	    -9.899
   -43.797	   153.924	    -7.508
   -46.078	   166.193	    -6.453
   -43.188	   151.309	     0.248
   -53.444	   137.387	    -4.189
   -55.889	   145.891	     8.281
   -53.446	   142.787	    -0.730
   -45.837	   151.469	    -9.411
   -46.648	   166.086	   -19.520
   -46.202	   152.281	    -4.137
   -49.532	   137.139	     0.213
   -47.055	   137.386	     1.899
   -60.888	   152.809	     3.042
   -55.665	   159.212	    -7.221
   -52.598	   135.517	    -3.659
   -58.122	   158.372	   -14.910
   -54.991	   133.478	     3.192
   -46.788	   150.809	   -22.459
   -57.685	   150.939	     1.059
   -35.663	   151.528	   -26.532
   -42.769	   149.869	   -12.827
   -48.077	   171.298	   -25.184
   -45.214	   167.493	    -7.671
   -55.062	   152.925	    -0.043
   -51.266	   147.217	    -5.300
   -59.950	   179.037	   -19.199
   -54.509	   165.094	    -1.950
   -51.928	   144.482	    -9.965
   -52.039	   148.702	    13.957
   -43.044	   143.049	    10.627
   -50.588	   159.188	     0.504
   -63.970	   160.078	    -1.343
   -63.260	   148.379	    -2.313
   -55.631	   155.010	    -6.908
   -65.491	   150.151	     1.486
   -62.926	   155.130	   -16.041
   -53.527	   159.220	   -15.317
   -60.241	   150.442	    -7.332
   -40.913	   151.445	    -3.328
   -55.704	   160.103	     8.730
   -46.794	   145.462	   -22.106
   -73.258	   137.179	     6.452
   -42.385	   142.456	    -5.092
   -60.881	   162.765	     5.801
   -50.029	   143.200	   -12.338
   -38.883	   132.198	     2.268
   -45.399	   150.275	    10.694
   -48.374	   153.472	    -9.456
   -42.542	   152.304	   -12.703
