   -92.310	   122.143	    -3.179
   -46.642	   177.640	   -15.223
   -36.109	   160.098	     3.764
   -31.443	   156.317	   -14.172
   -44.201	   149.388	     0.232
   -32.607	   155.600	    -4.357
   -48.297	   154.205	     0.348
   -37.072	   157.783	    -4.714
   -20.341	   150.567	   -25.082
   -35.907	   153.952	   -19.401
   -32.337	   156.138	   -29.005
   -45.537	   175.133	   -27.085
   -43.119	   156.999	   -31.908
   -46.626	   155.943	   -24.554
   -10.555	   171.425	   -20.710
   -39.044	   159.543	    -3.726
   -35.086	   168.174	   -17.215
   -27.810	   172.281	   -12.453
   -34.069	   161.861	   -13.895
   -37.229	   155.522	   -17.431
   -24.275	   163.752	    -9.799
   -48.770	   164.295	    -5.907
   -36.829	   156.294	    -2.641
   -30.039	   155.042	   -24.567
   -43.961	   160.458	     1.712
   -44.116	   172.966	   -15.043
   -46.444	   158.637	   -16.795
   -30.630	   164.126	   -22.789
   -36.947	   161.683	   -26.055
   -17.772	   164.845	   -12.579
   -34.382	   152.356	   -11.770
   -41.887	   153.098	     2.695
   -27.767	   156.760	   -17.892
   -28.536	   155.173	     9.215
   -40.086	   158.562	    -9.671
   -41.552	   170.931	   -16.367
   -34.272	   164.162	     1.955
   -51.730	   167.124	   -19.636
   -35.865	   151.812	    -8.938
   -51.375	   173.837	    -6.203
   -50.104	   156.404	   -13.431
   -54.786	   166.944	    -8.742
   -33.517	   155.381	   -27.801
   -27.324	   162.324	   -28.135
   -54.161	   166.378	   -10.892
   -29.111	   162.393	    -6.242
   -23.475	   170.349	   -18.476
   -39.058	   157.689	   -11.432
   -42.786	   152.017	     0.995
   -41.386	   171.134	   -11.096
   -53.847	   170.455	     2.903
   -31.540	   160.308	   -19.523
   -27.545	   173.742	   -32.181
   -24.829	   174.303	   -19.364
   -33.205	   167.875	   -17.496
   -28.171	   169.804	   -16.458
   -40.587	   155.388	     1.517
   -29.028	   143.234	    -4.187
   -39.577	   151.486	    -6.518
   -35.795	   162.303	    -4.607
   -39.642	   163.127	    -1.686
   -45.947	   168.709	   -12.066
   -12.403	   157.757	   -23.093
   -35.967	   152.783	    -2.322
   -27.248	   158.333	   -11.705
   -32.862	   150.487	   -11.879
   -27.668	   145.062	     6.195
   -46.703	   167.150	   -10.536
   -59.229	   158.087	    -3.452
   -30.198	   153.494	   -20.551
   -43.157	   143.367	   -15.520
   -43.293	   163.981	   -24.455
   -46.418	   163.705	     4.506
   -10.755	   166.216	   -22.904
   -43.517	   156.998	    -3.301
   -54.243	   158.700	     0.229
   -23.637	   152.487	    -4.832
   -49.526	   151.335	     3.730
   -37.306	   168.021	   -20.882
   -33.704	   137.433	   -23.154
   -35.049	   158.956	   -16.937
   -33.160	   156.577	   -26.616
   -37.092	   161.613	   -24.144
   -33.623	   157.694	   -10.131
   -27.033	   163.028	    -9.224
   -30.738	   172.996	   -15.269
   -28.976	   149.882	    -3.473
   -32.097	   167.746	   -27.579
   -25.608	   151.133	   -27.773
   -42.279	   158.964	   -32.295
   -38.947	   156.853	    -4.099
   -34.897	   163.737	    -8.640
   -46.600	   158.612	    -6.098
   -35.675	   150.913	    -2.108
   -12.495	   144.432	   -13.559
   -24.327	   141.689	    -4.767
   -42.930	   152.821	    -6.731
   -32.544	   166.878	   -26.697
   -26.185	   147.701	   -14.815
   -37.115	   160.525	     5.136
   -42.813	   152.726	   -10.357
   -57.756	   171.461	   -29.486
   -37.708	   160.133	   -11.219
   -15.945	   148.638	   -10.087
   -34.331	   162.713	    -7.043
   -44.195	   176.925	     1.971
   -38.556	   169.426	   -15.424
   -40.842	   155.047	   -16.831
   -32.118	   146.966	   -10.085
   -39.662	   166.955	   -17.399
   -31.883	   167.703	   -18.934
   -34.920	   177.066	   -10.258
   -41.923	   154.461	   -13.597
   -48.246	   162.548	   -25.273
   -42.086	   162.175	   -19.449
   -35.974	   157.802	    -1.644
   -25.249	   148.475	    -2.113
   -56.051	   162.244	    -5.848
   -46.210	   162.092	    -1.682
   -38.577	   158.551	   -24.037
   -41.164	   167.787	   -19.799
   -47.139	  -175.026	   -10.882
   -59.183	  -179.628	    -3.274
   -39.882	   165.167	   -21.067
   -45.916	   167.185	   -16.368
   -50.184	   170.479	    -6.073
   -52.317	   160.084	    -0.056
   -44.125	   164.227	   -12.404
   -33.556	   164.622	   -20.480
   -46.826	   165.567	   -23.105
   -28.325	   163.444	    -4.687
   -25.838	   156.404	   -13.278
   -29.100	   155.782	   -10.664
   -38.994	   153.038	    -8.914
   -45.739	   159.655	    -7.859
   -58.539	   166.110	    -3.625
   -62.790	   175.325	   -18.141
   -42.321	   175.965	   -12.948
   -50.406	   166.513	   -16.664
   -45.596	   164.106	   -26.323
   -54.933	   160.263	    -2.120
   -35.406	   170.499	    -9.900
   -40.703	  -179.756	   -23.750
   -42.676	   158.560	   -10.455
   -49.166	   161.488	   -13.345
   -46.388	   163.288	    -9.549
   -25.613	   169.485	   -20.401
   -46.275	   162.447	   -10.348
   -37.955	   166.103	    -9.144
   -43.230	   148.715	     2.506
   -49.287	   165.081	    -5.372
    -2.993	  -175.824	   -29.403
   -23.399	   152.855	    -4.958
   -34.806	   158.264	   -33.907
   -56.377	   160.551	    -7.013
   -41.609	   163.166	   -12.470
   -20.292	   140.491	   -29.106
   -17.423	   148.039	    -3.522
   -45.009	   170.392	   -10.328
   -46.846	   163.938	   -11.740
   -53.437	   148.979	   -11.978
   -40.907	   171.406	   -11.207
   -41.425	   167.943	    -0.732
   -35.629	   149.443	    -6.310
   -36.141	   172.000	   -17.270
   -19.525	   165.833	    -6.813
   -59.056	   152.871	    -4.367
   -43.920	   152.454	   -23.793
   -41.373	   162.371	    -4.445
   -37.979	   157.421	   -13.046
   -41.584	   164.140	    -1.515
   -26.713	   165.531	   -18.309
   -51.440	   164.241	    -4.944
   -42.530	   162.703	    -2.425
   -51.090	   156.604	    -7.533
   -37.816	   161.896	    12.802
   -25.020	   145.678	   -17.316
   -22.244	   162.365	   -27.482
   -40.691	   162.155	   -13.664
   -47.863	   158.809	    -4.606
   -44.516	   170.315	    -8.587
   -46.177	   168.180	    -7.695
   -38.452	   165.448	    -2.944
   -42.446	   167.170	   -24.069
   -29.570	   161.550	   -29.267
   -25.402	   160.631	   -22.010
   -31.474	   169.096	   -12.078
   -49.327	   157.436	    -0.816
   -53.580	   161.067	    -2.312
   -43.624	   164.824	   -13.865
   -26.874	   145.518	   -35.870
   -35.540	   147.475	   -22.287
   -42.823	   167.327	   -13.464
   -50.868	   159.244	   -16.851
   -37.867	   161.011	   -26.048
   -43.673	   167.941	    -8.378
   -49.265	   161.206	   -22.835
   -41.397	   164.925	   -28.352
   -45.992	   168.083	   -27.414
   -43.303	   149.115	    -1.286
   -43.368	   164.446	    -8.811
   -47.639	   163.694	    -9.924
   -39.029	   161.232	   -24.572
   -46.585	   164.947	    -6.070
   -50.836	   176.519	   -22.839
   -34.528	   161.574	    -7.496
   -39.794	   176.792	   -26.519
   -42.344	   171.613	   -10.473
   -52.105	   177.475	    -7.699
   -58.735	  -177.842	   -15.501
   -61.096	   161.242	    -9.614
   -56.074	   175.371	    -1.152
   -51.341	   171.261	    15.498
   -48.278	   179.780	   -20.485
   -55.625	   179.934	     3.090
   -31.681	   156.794	   -14.615
   -18.731	   145.844	     7.678
   -35.844	   156.123	   -19.379
   -44.717	   167.038	   -11.712
   -48.730	   164.255	   -14.162
   -54.598	   171.131	   -10.424
   -43.188	   149.206	   -22.957
   -18.669	   147.773	   -30.003
   -49.296	   155.094	   -14.260
   -48.723	   170.132	    -3.345
   -54.259	   156.860	   -10.490
   -35.298	   146.197	   -13.285
   -47.002	   171.822	     1.492
   -45.097	   158.978	   -16.939
   -30.952	   149.800	   -25.865
   -40.166	   163.700	   -13.349
   -47.017	   153.730	    -0.618
   -18.982	   147.176	   -23.201
   -21.631	   155.571	   -15.034
   -35.542	   148.394	    -7.749
   -41.956	   159.990	    -7.985
   -15.417	   150.130	   -24.832
   -54.005	   146.668	    -5.472
   -44.816	   154.406	   -13.627
   -40.499	   161.810	    -5.496
   -21.467	   153.137	   -14.621
   -29.852	   155.337	   -22.860
   -43.890	   164.992	   -13.419
   -41.767	   160.185	    -5.890
   -62.116	  -174.519	    -3.299
   -50.947	   148.840	   -12.282
   -36.123	   157.291	   -12.171
   -47.277	   156.253	   -16.028
   -18.155	   160.077	   -29.400
   -37.565	   159.982	    -9.090
   -38.660	   139.875	     2.196
   -33.619	   158.819	     3.656
   -37.673	   149.822	    -4.177
   -41.312	   158.393	    -5.729
   -48.507	   160.433	   -19.063
   -50.313	   151.887	    -0.053
   -29.247	   150.949	    -8.793
   -25.744	   152.938	    -7.879
   -48.470	  -178.507	   -13.568
   -50.244	   160.431	   -18.752
   -45.808	   159.808	    -4.977
   -46.786	   163.747	   -12.748
   -31.499	   146.048	   -17.507
   -29.512	   152.841	     3.836
   -42.499	   160.026	   -14.791
   -37.238	   164.704	   -20.376
   -36.909	   160.453	   -11.191
   -37.556	   158.920	   -11.457
   -42.533	   174.020	   -29.742
   -30.414	   154.857	   -25.474
   -52.492	   155.347	    -2.713
    -5.928	   155.420	    -8.795
   -44.878	   169.113	   -12.323
   -42.290	   157.121	   -19.804
   -32.683	   159.898	   -13.217
     4.692	   154.458	    -6.979
   -51.504	   168.307	   -19.642
   -48.207	   148.845	    -2.036
   -43.281	   160.807	   -20.208
   -38.176	   168.249	   -19.779
   -31.417	   160.488	   -13.699
   -46.103	   170.401	   -18.507
   -34.639	   167.915	   -22.639
   -48.789	   173.037	   -24.735
   -12.677	   152.653	    -3.236
   -50.667	   170.366	    -4.810
   -14.523	   147.768	   -31.161
   -39.626	   153.566	    -8.194
   -37.534	   134.018	    -4.520
   -36.954	   155.906	     4.066
   -37.882	   160.375	    -1.716
   -45.707	   166.432	   -12.535
   -47.644	   154.056	   -12.542
   -47.138	   165.186	   -25.155
   -52.603	   161.781	   -18.589
   -33.742	   164.538	     2.624
   -46.831	  -177.349	   -21.177
   -32.042	   170.276	    -3.134
   -52.242	   168.863	    -6.076
   -28.642	   153.721	   -27.098
   -33.653	   165.876	   -19.400
   -38.201	   158.689	    -9.874
   -41.031	   155.634	   -23.924
   -46.007	   156.733	    -9.917
   -45.469	   165.861	   -26.482
   -43.745	   174.472	   -27.854
   -47.103	   167.923	   -21.489
   -36.749	   164.009	   -25.812
   -41.000	   165.502	   -11.451
   -24.178	   156.224	   -24.435
   -50.595	   164.460	    -2.852
   -46.212	   168.800	   -18.832
   -21.221	   151.493	   -11.701
   -34.439	   162.203	   -10.449
   -43.760	  -174.935	   -16.078
   -43.069	   161.209	   -21.138
   -30.961	   151.766	   -24.572
   -41.338	   160.515	    -0.156
   -48.803	   163.740	     1.279
   -22.119	   159.060	   -22.788
   -33.661	   157.055	   -20.846
   -37.001	   150.911	     3.427
   -46.272	   160.625	    -6.896
   -45.892	   173.417	   -14.647
   -48.099	   164.895	   -20.206
   -28.746	   150.080	   -29.334
   -28.067	   140.372	   -30.674
   -36.303	   153.343	    -5.836
   -45.904	   153.863	   -12.823
   -52.123	  -175.717	   -15.300
   -31.964	   156.431	   -25.382
   -42.137	   156.034	     0.251
   -46.946	   172.956	   -10.270
   -41.985	   165.625	   -20.081
   -22.764	   156.962	   -32.618
   -41.264	   149.485	   -12.509
   -55.521	   170.710	   -13.634
   -45.374	   162.919	    -1.040
   -35.492	   165.128	    -6.930
   -32.078	   167.524	   -31.914
   -36.920	   160.194	   -19.683
   -41.264	   162.316	   -17.360
   -40.954	   157.737	   -16.636
   -48.129	   173.800	   -18.309
   -41.324	   154.051	   -13.988
   -53.885	   163.132	     0.325
   -37.458	   155.978	    -5.962
   -36.367	   157.710	    -8.613
   -29.905	   159.675	   -27.070
   -20.239	   139.552	   -12.107
   -35.057	   176.401	   -24.267
   -42.783	   166.828	     3.792
   -58.006	   171.860	    -8.579
   -25.637	   147.725	   -29.092
   -52.858	  -176.279	     5.078
   -38.347	   165.254	   -40.004
   -25.256	   159.210	   -17.920
   -38.832	   164.902	   -29.950
   -25.438	   168.762	   -24.907
   -64.540	   160.749	    -0.951
   -43.775	   157.527	    -5.152
   -41.715	  -174.964	   -14.311
   -42.390	   152.386	    -3.892
   -36.962	   157.388	   -22.105
   -48.604	   174.696	     0.748
   -40.440	   161.570	    -8.251
   -35.657	   160.228	   -20.256
   -56.711	   159.678	    -7.846
   -26.154	   159.208	   -14.643
   -47.630	   168.699	   -20.912
   -48.799	  -173.497	    -5.086
   -36.308	   163.049	   -22.960
   -46.730	   171.313	   -22.702
   -43.130	   164.080	   -23.862
   -43.450	   175.883	   -19.308
   -49.478	   149.452	    -5.762
   -48.342	   168.554	    -8.458
   -49.116	   175.521	    -1.385
   -58.936	   171.995	     3.798
   -54.398	   162.190	   -15.826
   -11.065	   158.273	   -19.206
   -35.440	   160.389	     5.115
   -27.897	   174.733	   -37.691
   -23.071	   149.353	   -16.812
   -28.084	   143.797	   -12.841
   -41.882	   164.681	    -8.389
   -24.065	   159.000	    -6.826
   -41.859	   173.824	     0.329
   -34.354	   146.515	    -3.754
   -37.975	   160.193	   -17.565
   -43.452	   173.146	   -14.002
   -33.707	   167.286	   -17.149
   -38.988	   158.882	   -15.946
   -19.136	   160.237	   -17.056
   -26.992	   160.795	   -14.045
   -47.948	   149.654	    -4.436
   -28.048	   150.533	   -18.492
   -34.893	   175.633	   -15.837
   -18.681	   163.156	   -18.026
   -29.868	   165.758	   -22.342
   -32.764	   147.349	    -6.841
   -50.945	   160.457	     3.086
   -44.653	   157.114	    -2.548
   -45.953	   177.518	   -15.970
   -43.373	   165.088	    -8.146
   -36.870	   171.180	   -20.841
   -43.633	  -179.096	   -19.308
   -38.542	   168.079	    -8.703
   -34.689	   159.308	   -15.813
   -43.160	   169.476	   -19.104
   -37.172	   177.461	   -39.072
   -40.519	   167.779	    -9.357
   -52.213	   177.095	    -3.721
   -18.038	   147.071	   -19.882
   -43.539	   167.364	    -7.776
   -40.428	   160.706	   -12.073
   -43.733	   166.023	   -12.341
   -39.072	   169.758	   -19.990
   -53.225	   170.560	   -13.969
   -52.345	   167.877	   -15.453
   -32.244	   149.606	   -15.513
   -21.030	   164.220	    -9.717
   -12.265	   152.387	    -9.185
   -27.808	   166.309	    -8.958
   -42.621	   167.222	    -3.849
   -28.303	   154.361	   -14.564
   -42.796	   171.983	   -22.025
   -35.794	  -169.166	   -24.320
   -43.100	  -175.088	   -15.215
   -23.540	   166.415	   -13.453
   -44.894	   167.693	   -15.837
   -39.648	   155.626	    -6.977
   -34.943	   166.876	   -20.572
   -43.537	   155.742	    -1.315
   -30.402	   132.645	    -8.896
   -42.557	   160.146	     2.645
   -46.880	   164.073	   -11.633
   -43.868	   168.555	   -15.456
   -44.242	   164.258	    -5.951
   -33.399	   167.435	   -27.386
   -18.268	   161.373	   -25.201
   -36.144	   154.823	   -15.876
   -38.381	   152.004	    -8.547
   -54.965	   175.303	   -15.858
   -50.171	   158.788	   -15.139
   -31.075	   158.473	   -11.353
   -44.530	   173.692	   -15.109
   -26.615	   159.919	     3.268
   -27.333	   148.474	    -8.498
   -26.710	   138.147	   -26.349
   -52.790	   158.034	     0.024
   -30.195	   162.335	   -19.596
   -34.216	   155.478	    -9.518
   -39.745	   146.346	    -0.877
   -32.276	   179.157	   -13.042
   -40.680	   172.787	   -18.029
   -42.409	   166.476	    -9.565
   -54.879	   161.310	    11.372
   -34.387	   143.591	   -11.243
   -36.150	   172.408	   -36.316
   -38.581	   152.057	    -5.140
   -58.417	   170.000	   -14.983
   -36.659	   155.370	   -23.940
   -51.939	   152.965	    -4.063
   -47.282	   151.622	   -13.798
   -32.679	   142.090	   -20.196
   -46.744	   167.739	   -18.192
   -49.192	   170.771	   -15.372
   -47.594	   169.257	   -26.403
   -45.423	   165.485	     3.444
   -33.174	   153.292	   -16.132
   -37.662	   160.836	   -16.624
   -44.886	   152.373	    -7.735
   -42.448	   170.506	    -9.501
   -43.040	   147.514	    -8.365
   -50.059	   161.690	   -10.377
   -37.527	   163.331	   -12.700
   -21.014	   157.225	   -16.117
   -35.594	   166.401	    -0.673
   -44.267	   161.721	   -15.129
   -19.063	   153.960	   -23.127
   -28.152	   159.173	   -13.205
   -41.018	   159.906	   -10.127
   -44.058	   157.924	   -21.856
   -36.313	   163.278	   -10.562
   -40.120	   166.619	    -5.116
   -43.695	   165.875	    -0.835
   -20.772	   148.320	     6.799
   -27.697	   157.734	   -22.375
   -30.690	   157.062	    -7.513
   -41.920	   162.179	     5.503
   -30.553	   163.703	   -17.889
   -34.463	   146.680	    -0.847
   -28.304	   160.401	    -9.625
   -29.584	   150.098	   -18.056
   -39.793	   163.997	   -13.394
   -28.772	   154.368	     0.820
   -32.600	  -175.325	   -19.920
   -42.107	   159.844	    -8.407
   -42.746	   173.891	   -16.748
   -54.169	   171.191	   -15.099
   -55.595	   176.113	    -6.806
   -39.540	   170.049	   -18.638
   -38.761	   168.791	   -11.835
   -47.152	   164.245	    -6.436
   -22.760	   171.125	   -30.749
   -23.413	   143.184	    -2.337
   -47.611	   173.540	    -0.703
   -41.436	   161.393	     1.829
   -42.224	   163.051	   -14.873
   -56.047	   150.132	   -21.749
   -48.312	   161.815	   -17.161
   -43.040	  -177.532	   -13.464
   -34.706	   146.960	   -24.773
   -53.795	   176.917	   -14.899
   -30.127	   167.001	   -18.123
   -45.651	   154.555	    -8.235
   -39.689	   160.734	   -13.802
   -17.670	   150.114	    -0.978
   -39.222	   167.404	   -19.045
   -43.945	   160.684	    12.174
   -24.408	   162.589	    -9.690
   -48.436	   160.385	    -5.716
   -45.981	   156.343	    -7.404
   -42.429	   163.973	   -22.424
   -43.527	   152.788	   -12.303
   -22.598	   156.132	   -16.089
   -46.584	   157.310	    -8.393
   -37.580	   155.896	   -18.598
   -39.583	   155.765	   -18.031
   -43.179	   158.996	   -29.256
   -45.862	   150.584	   -28.593
   -34.785	   159.057	   -15.142
   -41.884	   175.120	    -9.508
   -38.152	   171.619	   -22.673
   -22.211	   159.021	   -22.277
   -35.120	   160.725	   -18.773
   -25.477	   147.588	   -21.438
   -38.648	   159.028	   -25.558
   -32.594	   154.409	    -8.977
   -41.171	   169.468	   -11.543
   -45.085	   152.928	    -5.166
   -37.189	   156.288	    -5.295
   -38.523	   165.185	   -19.303
   -40.165	   166.412	   -22.281
   -31.039	   164.910	   -19.620
   -51.928	   172.390	   -13.383
   -20.826	   154.867	    -8.783
   -41.026	  -179.421	   -10.657
   -35.495	   161.217	    -0.477
   -28.098	   164.512	   -20.645
   -33.577	   165.286	   -16.677
   -30.136	   155.329	   -17.164
   -37.445	   164.508	   -22.078
   -48.913	   161.248	   -22.406
   -41.342	   178.692	   -18.757
     2.806	   141.295	   -14.800
   -40.356	   148.200	    -4.204
   -35.704	   158.980	    -6.312
   -20.759	   145.235	   -19.728
   -56.489	   160.568	     5.212
   -37.105	   149.170	    -6.244
   -50.804	   167.182	   -13.491
   -56.205	  -176.442	    -8.173
   -42.464	   161.561	   -35.165
   -43.847	   163.297	   -20.288
   -41.650	   156.168	    -5.468
   -46.328	   168.018	     4.025
   -29.004	   153.952	   -10.078
   -39.890	   156.350	     3.415
   -30.475	   153.465	    -9.092
   -64.264	   171.934	   -21.033
   -41.221	   168.798	    -8.548
   -39.723	   151.334	    -9.574
   -26.240	   161.765	    -7.958
   -34.476	   171.688	   -20.259
   -48.291	   153.517	    -4.806
   -47.860	   165.774	   -18.391
   -42.317	   164.665	   -23.195
   -42.954	   170.155	   -14.151
    -6.300	   155.097	   -17.469
   -40.360	   164.931	    -9.550
   -22.231	   154.208	   -23.567
   -41.044	   158.208	   -17.567
   -65.480	   167.954	     1.471
   -26.826	   162.076	   -24.586
   -55.500	   170.951	    -8.225
   -36.486	   156.750	    -8.112
   -38.426	   161.459	   -19.419
   -50.967	   167.815	    -7.256
   -33.009	  -174.178	   -10.817
   -11.098	   161.830	   -46.971
   -27.505	   170.066	   -26.298
   -51.713	   167.335	    -0.764
   -57.904	   164.987	     0.499
   -44.721	   165.922	   -17.729
   -31.892	   162.882	     3.851
   -38.612	   152.608	   -23.425
   -41.243	   163.503	   -16.041
   -42.671	   162.606	    -6.756
   -30.389	   153.514	     5.920
   -29.470	   161.618	    -8.732
   -44.251	   165.254	    -2.563
   -39.085	   147.748	    -8.305
   -38.298	   160.462	   -19.951
   -44.072	   157.327	    -2.228
   -36.816	   154.918	   -17.523
   -28.872	   179.192	   -10.127
   -34.506	   173.649	   -18.994
   -44.971	   168.651	   -12.118
   -38.490	   161.704	    -6.882
   -34.609	   168.036	    -7.637
   -42.726	   161.772	   -28.499
   -47.635	   157.327	   -21.693
   -36.609	   162.668	   -12.272
   -44.476	   170.468	   -21.237
   -35.901	   168.250	   -25.056
   -39.922	   159.878	   -10.355
   -35.654	   163.931	   -12.649
   -25.720	   169.745	   -20.238
   -44.475	   172.796	   -21.224
   -43.610	   175.776	   -14.590
   -50.539	   171.267	   -29.754
   -27.695	   156.003	   -23.002
   -47.926	  -178.164	   -15.046
   -21.768	   165.513	   -13.138
   -46.412	   159.709	    -6.044
   -34.850	   160.726	     0.328
   -26.475	   154.773	   -18.480
   -47.761	   169.531	   -25.204
   -58.109	  -175.932	   -16.802
   -40.680	   168.323	   -27.450
   -43.325	   168.238	   -16.013
   -53.788	   161.607	   -15.662
   -38.798	  -177.849	    -9.822
   -44.803	   158.317	   -14.562
   -25.195	   160.509	   -35.287
   -33.575	   151.149	     4.531
   -27.598	   152.134	    -0.639
   -35.101	   160.038	    -6.221
   -45.867	   163.022	    -5.450
   -26.477	   160.697	   -26.906
   -28.788	   157.364	    -9.947
   -46.920	   162.660	     0.196
   -35.314	   155.953	   -22.278
   -47.100	   161.173	    -9.807
   -31.357	   157.234	   -21.046
   -51.361	   161.642	    -5.700
   -43.815	   170.828	    -9.563
   -56.288	   171.581	     7.047
   -38.222	   168.472	   -12.456
   -42.805	   154.964	     4.264
   -29.492	   158.436	   -12.368
   -40.802	   168.313	    -5.869
   -36.832	   156.299	   -29.540
   -14.882	   166.057	   -41.203
   -31.971	   172.072	   -17.696
   -35.122	   164.423	   -31.098
   -50.064	   162.045	   -11.988
   -49.454	   162.793	   -11.599
   -24.798	   149.546	    -7.288
   -17.448	   147.808	   -11.493
   -37.588	   165.527	   -13.017
   -27.669	   148.103	   -22.834
   -35.004	   147.614	     1.522
   -53.944	   151.138	     3.455
   -41.212	   167.085	   -17.360
   -45.485	   152.728	    -7.137
   -33.903	   158.748	   -26.191
   -33.534	   147.876	    -2.296
   -36.255	   168.227	     1.433
   -11.652	   151.669	   -20.142
   -54.421	   166.659	   -19.241
   -34.221	   157.674	   -22.138
   -38.467	   153.569	    -8.597
   -35.089	   149.896	   -20.172
   -50.291	   167.138	   -12.620
   -40.967	   152.484	   -13.027
   -49.070	   151.134	   -24.222
   -33.248	   143.765	    -8.812
   -20.460	   155.821	   -24.126
   -22.850	   154.762	   -25.917
   -48.692	   143.077	    -2.753
   -34.233	   139.819	    -5.559
   -33.092	   158.953	     1.839
   -21.505	   158.594	   -25.401
    -3.448	   132.502	   -13.558
   -33.729	   159.318	   -18.778
   -43.100	   165.418	     0.112
   -44.155	   160.533	     1.235
   -33.444	   154.240	   -15.446
   -36.388	   155.388	   -12.131
   -42.228	   162.579	     2.356
   -29.843	   146.509	   -19.908
   -47.988	   157.449	   -12.765
   -31.560	   150.754	    -4.956
   -38.278	   166.629	   -13.345
   -56.422	   171.887	    -3.727
   -50.775	   165.809	   -18.343
   -40.148	   166.922	   -10.477
   -31.158	   163.456	    -4.457
   -21.228	   157.192	   -10.913
   -18.027	   144.230	    -8.142
   -39.806	   163.474	   -12.582
   -49.854	   168.783	     0.779
   -26.436	   143.789	   -13.276
   -38.216	   154.730	   -16.964
   -20.546	   138.926	   -14.760
   -34.150	   152.050	    10.223
   -45.957	   144.340	    -3.508
   -39.361	   177.489	   -13.383
   -53.408	  -162.838	   -17.695
   -42.713	   156.641	    -0.857
   -45.392	   154.306	   -30.613
    -9.518	   132.570	   -32.625
   -37.510	   156.000	   -12.728
   -35.287	   160.971	    -5.574
   -35.472	   163.336	   -31.746
   -36.326	   151.589	    -2.412
   -10.339	   160.241	   -19.313
   -51.703	   162.253	    -9.454
   -45.479	   171.954	     3.057
   -37.300	   161.290	    -4.090
   -49.207	   169.046	   -14.571
   -25.324	   159.460	   -20.033
   -31.469	   141.214	   -23.548
   -43.795	   157.128	    -5.547
   -41.172	   169.452	    -6.503
   -34.080	   153.444	    -0.055
   -48.287	   158.205	     5.078
   -38.232	   175.303	     2.176
   -42.135	   157.332	   -10.970
   -34.479	   154.173	   -21.300
   -35.659	   179.099	   -34.453
   -44.967	   162.588	    -3.688
   -38.393	   168.382	   -21.059
   -42.939	   154.596	   -20.188
   -35.776	   153.679	    -5.046
   -42.206	   157.103	   -17.270
   -41.385	   153.556	   -16.060
   -41.343	   163.765	   -15.161
   -50.383	   154.643	     1.352
   -26.441	   154.673	    -8.696
   -11.080	   146.607	     0.484
   -28.949	   146.632	     7.629
   -14.827	   158.316	     5.579
   -42.260	   155.884	    -9.347
   -48.127	   164.561	    -7.143
   -46.008	   176.260	    -5.506
   -42.910	   164.542	    -4.879
   -37.435	   179.270	   -31.552
   -50.798	   169.531	   -21.540
   -47.418	   160.802	   -28.914
   -51.053	   167.549	     0.569
   -24.429	   154.768	    -7.992
   -42.054	   174.410	   -11.313
   -44.680	   166.087	   -25.085
   -45.285	   173.713	   -26.912
   -41.536	   157.935	   -17.505
   -50.359	   159.107	   -17.809
   -50.115	   162.282	    -4.214
   -39.388	   166.432	   -31.614
   -57.266	   179.189	    -4.467
   -39.455	   169.586	   -10.755
   -28.957	   154.547	    -9.703
   -25.330	   165.353	   -22.471
   -45.907	   156.645	     1.623
   -41.481	   163.270	    -0.392
   -28.290	   141.064	    -6.293
   -30.208	   153.682	    -9.689
   -44.761	   151.370	    -9.922
   -24.702	   169.059	   -24.336
   -40.783	   164.582	    -4.490
   -34.568	   160.095	   -15.971
   -40.800	   164.629	   -15.172
   -45.852	  -175.226	   -18.824
   -35.529	   166.308	   -14.508
   -39.503	   160.789	    -4.904
   -46.585	   163.363	     1.028
   -32.822	   160.023	   -25.489
   -30.073	   161.449	   -19.428
   -31.461	   135.885	    19.680
   -23.756	   166.925	   -15.910
   -32.029	   156.823	   -10.387
   -20.348	   143.626	   -26.586
   -42.342	   160.544	    -0.832
   -40.090	   166.165	   -10.988
   -29.841	  -172.525	   -31.150
   -49.286	   154.013	   -17.061
   -36.008	   165.315	   -27.306
   -19.466	   160.709	   -17.917
   -41.572	   149.751	    -6.948
   -42.506	   167.660	   -15.865
   -17.907	   148.626	   -11.659
   -32.632	   163.863	   -20.643
   -36.829	   155.549	   -14.647
   -46.834	   160.548	     3.623
   -39.312	   150.411	   -20.220
   -52.819	   168.701	   -17.010
   -27.723	   160.541	   -25.547
   -53.400	   169.552	     8.098
   -43.551	   170.373	   -27.075
   -54.297	   163.653	    -6.198
   -42.901	   163.736	   -10.440
   -38.819	   155.968	   -18.096
   -27.929	   155.632	   -21.799
   -32.250	   173.713	   -14.178
   -45.502	   174.385	   -17.185
   -39.788	   170.483	   -10.436
   -19.301	   168.990	   -13.851
   -43.308	   168.148	   -20.876
   -22.539	   152.003	   -16.871
   -52.058	   158.438	   -13.416
   -46.373	   170.419	    -1.221
   -45.845	   170.608	   -33.863
   -46.932	   169.959	   -18.209
   -49.578	   174.697	   -20.136
   -28.559	   153.067	   -28.047
   -42.004	   164.345	   -17.250
   -34.073	   165.986	   -25.415
   -46.551	   169.548	   -27.139
   -45.305	   170.526	    -3.175
   -41.616	   161.076	   -10.399
   -28.093	   163.201	    -9.341
   -26.457	   154.996	   -19.207
   -54.256	   151.226	    -9.467
   -55.372	   165.803	    -5.562
   -24.708	   159.126	   -31.674
   -48.060	   179.232	    -5.182
   -49.296	   164.202	   -10.648
   -38.885	   154.238	     0.599
   -29.205	   163.691	   -22.908
   -36.306	   167.894	   -19.077
   -40.668	   166.412	   -19.993
   -52.312	   157.402	   -16.481
   -39.897	   171.629	   -13.891
   -40.778	   161.242	     2.709
   -48.469	   164.012	    -9.396
   -38.907	   164.932	    -6.026
   -36.225	   146.314	   -13.160
   -48.418	   158.543	   -13.427
   -51.687	   171.859	    -0.164
   -31.560	   141.953	   -12.564
   -44.825	   171.495	   -22.892
   -30.689	   168.986	   -21.365
   -22.414	   160.803	   -13.609
   -41.652	   161.970	     4.572
   -36.166	   163.743	   -21.639
   -22.016	   159.723	   -14.687
   -39.707	   157.056	    -4.866
   -42.800	  -179.762	   -28.923
   -33.624	   161.266	   -22.421
   -44.759	   166.925	   -18.772
   -29.823	   158.438	   -24.128
   -42.754	   164.723	   -35.698
   -44.713	   156.706	   -15.589
   -35.418	   154.053	   -19.073
   -52.856	   175.437	   -21.112
   -62.278	   162.569	    -9.046
   -37.068	   172.539	   -14.711
   -50.515	   178.152	   -13.993
   -21.579	   164.732	   -35.174
   -40.664	   162.110	    -5.080
   -46.907	   156.209	   -12.253
   -35.562	   153.010	   -21.502
   -16.668	   149.328	     1.993
   -31.654	   141.521	   -17.170
   -46.581	   162.176	   -31.089
   -48.361	   159.882	   -23.981
   -38.856	   156.243	    -7.949
   -60.807	   169.282	    -2.487
   -31.905	   147.027	   -21.730
   -44.012	   155.651	     4.119
   -20.653	   151.678	    16.935
   -15.566	   155.402	     4.682
   -25.133	   163.471	   -30.787
   -40.007	  -177.334	    -8.484
   -36.025	   153.764	   -16.978
   -44.574	   178.931	   -15.628
   -38.722	   159.236	    -9.763
   -29.019	   141.180	   -16.345
   -35.665	   147.354	   -15.750
   -25.827	   163.842	   -23.678
   -37.120	   177.571	   -28.969
   -35.400	   168.170	   -18.355
   -43.106	   165.812	     5.806
   -37.807	   161.193	   -24.396
   -54.630	   165.287	   -13.879
   -39.935	  -176.206	   -10.926
   -37.236	   179.854	   -23.500
   -31.037	   155.462	     7.325
   -29.602	   158.088	     0.961
   -14.364	   151.429	   -14.214
   -22.935	   156.894	   -19.209
   -34.544	   160.926	   -11.358
   -25.404	   146.651	   -31.370
   -29.774	   160.656	   -17.332
   -59.978	   169.807	    -9.203
   -31.812	   172.497	   -26.071
   -45.239	   173.283	   -15.575
   -33.344	   155.518	   -25.940
   -27.548	   164.660	   -20.968
   -26.869	   171.338	   -22.484
   -47.660	   163.103	   -19.447
   -34.619	  -177.625	    -3.341
   -39.773	   164.798	    -0.569
   -30.173	   152.134	   -19.917
   -31.920	   166.065	   -11.426
   -30.364	   150.276	   -10.102
   -34.631	   147.716	    -7.936
    -7.798	   155.916	   -10.302
   -43.316	   166.028	     3.480
   -29.900	   160.427	    -3.343
   -44.377	   165.276	     2.147
   -65.555	   170.099	   -11.277
   -41.483	   177.677	   -11.340
   -27.783	   151.394	   -20.350
   -39.678	   163.455	   -29.018
   -30.603	   162.003	   -12.915
   -37.881	   144.769	   -19.709
   -49.460	   164.542	   -23.922
   -60.492	   171.130	     0.836
   -52.021	   168.094	    -6.577
   -45.463	   174.611	   -30.608
   -42.906	   161.429	   -17.948
   -47.109	   168.772	   -11.190
   -46.795	   145.888	   -10.503
   -31.837	   143.362	   -11.686
   -34.857	   149.009	    -7.352
   -23.537	   161.134	   -21.752
   -22.418	   147.673	   -16.304
   -31.132	   154.221	    -8.132
   -29.615	   161.837	   -22.976
   -49.205	   165.922	   -18.367
   -36.728	   157.394	    -2.845
   -30.557	   155.532	   -25.723
   -36.957	   153.439	    -4.198
    -2.567	   159.203	   -30.880
   -19.206	   169.080	   -17.296
   -37.567	   159.865	   -16.876
   -35.649	   150.463	   -14.385
   -43.663	   165.063	   -15.524
   -33.600	   156.356	   -12.029
   -29.349	   163.325	   -18.198
   -49.188	   168.002	     3.990
   -49.725	   166.022	    -3.034
   -43.386	   167.979	    -8.415
   -15.596	   153.807	    -8.835
   -29.987	   165.146	   -14.410
   -40.886	   164.866	    -1.183
   -25.882	   164.478	   -31.445
   -36.978	   146.023	    -6.857
   -43.719	   165.231	   -10.093
   -29.282	   159.643	   -10.172
   -43.947	   172.871	     1.001
   -45.363	   172.203	   -17.415
   -32.888	   169.081	   -30.499
   -45.889	   159.370	    -9.913
   -41.696	   159.942	   -17.394
   -45.759	   176.467	     3.462
   -44.095	   178.774	   -20.630
   -34.191	   165.574	    -6.879
   -33.751	   169.880	   -13.871
   -23.464	   163.235	   -15.473
   -46.952	   163.588	     0.078
   -37.385	   156.980	    -8.534
   -47.610	   168.914	    -7.833
   -40.481	   159.310	   -16.789
   -43.462	   162.642	   -18.106
   -41.465	   152.411	   -14.881
   -39.804	   150.249	    -3.451
   -23.314	   167.254	   -12.888
   -39.201	   171.703	   -12.710
   -19.261	   153.959	   -27.047
   -42.424	   158.898	   -12.253
   -42.042	   167.025	   -19.132
   -30.468	   150.607	   -18.565
   -38.532	   157.204	   -12.327
   -51.564	   162.483	    11.088
   -39.919	   159.709	   -22.945
   -33.234	   169.059	   -32.155
   -45.161	   163.425	   -14.329
   -50.130	   157.149	   -18.055
   -60.063	   164.570	   -18.252
   -24.193	   169.774	   -12.053
   -62.750	   168.856	     2.428
   -46.326	   169.756	     4.758
   -22.190	   152.321	   -12.919
   -15.522	   133.395	   -12.458
   -49.143	   161.834	    -5.439
   -36.519	   164.964	   -10.320
   -34.601	   161.122	     6.504
   -32.644	   157.124	    10.235
   -25.925	   161.021	    -1.403
   -23.005	   162.568	   -20.132
   -34.916	   150.860	    -0.011
   -36.392	   154.896	    -9.673
   -30.957	   148.781	   -13.945
   -33.164	   152.645	     2.195
   -19.003	   152.084	    -3.544
   -44.482	   157.326	    -4.988
