-20056.113	    15.334	   -92.310	   122.143
-20067.027	    15.376	  -154.354	   122.551
-19948.338	    15.413	  -155.201	   139.835
-20454.484	    15.376	  -150.655	   139.345
-20350.424	    15.298	  -142.984	   143.537
-19950.961	    15.292	  -154.827	   141.490
-20253.395	    15.277	  -167.136	   128.940
-20075.402	    15.361	  -154.234	   146.876
-20127.879	    15.405	  -157.749	   155.332
-20228.713	    15.459	  -159.548	   132.414
-20185.807	    15.396	  -159.621	   141.654
-20176.896	    15.278	  -169.826	   142.561
-20288.260	    15.155	  -147.515	   150.159
-20191.176	    15.147	  -163.576	   140.534
-19974.691	    15.352	  -150.966	   145.117
-19905.062	    15.526	  -158.073	   150.363
-19938.518	    15.620	  -149.843	   127.278
-20106.922	    15.559	  -149.194	   122.462
-20096.471	    15.569	  -168.605	   136.030
-20130.535	    15.526	  -152.729	   120.920
-20206.791	    15.444	  -149.688	   151.855
-20203.545	    15.348	  -137.881	   141.356
-20216.346	    15.232	  -153.153	   161.631
-20141.457	    15.245	  -167.967	   143.886
-20237.191	    15.278	  -156.001	   147.990
-20446.234	    15.292	  -159.885	   137.978
-20126.238	    15.369	  -160.989	   134.180
-20183.266	    15.513	  -154.396	   149.273
-20211.182	    15.550	  -153.446	   134.475
-20064.723	    15.650	  -155.615	   134.751
-20053.471	    15.703	  -157.748	   150.676
-20177.539	    15.549	  -144.872	   160.110
-20321.184	    15.404	  -145.147	   150.527
-20208.236	    15.280	  -154.718	   136.064
-20208.678	    15.269	  -146.424	   148.178
-20068.498	    15.361	  -146.427	   152.924
-20254.844	    15.628	  -162.618	   131.143
-19993.467	    15.770	  -158.868	   137.720
-20055.729	    15.649	  -156.126	   169.331
-20159.051	    15.560	  -162.218	   134.414
-20407.912	    15.459	  -147.832	   156.714
-20110.637	    15.496	  -144.843	   158.990
-20242.389	    15.499	  -155.895	   156.377
-20328.906	    15.439	  -164.217	   148.360
-20530.262	    15.375	  -145.797	   148.993
-20105.240	    15.307	  -165.416	   126.045
-20268.424	    15.318	  -128.425	   141.387
-20192.172	    15.399	  -151.951	   146.506
-19962.018	    15.523	  -163.751	   136.458
-20203.166	    15.556	  -155.642	   149.149
-20419.123	    15.451	  -127.250	   146.449
-20278.184	    15.437	  -154.624	   145.797
-20291.410	    15.461	  -151.939	   149.367
-20203.436	    15.466	  -171.059	   147.220
-20151.385	    15.380	  -149.822	   142.231
-20428.521	    15.330	  -158.701	   139.772
-20227.719	    15.409	  -151.649	   134.855
-20156.445	    15.535	  -166.865	   146.535
-20132.951	    15.668	  -148.760	   144.286
-19959.789	    15.704	  -150.617	   129.700
-20204.266	    15.610	  -165.771	   126.956
-20373.863	    15.533	  -155.496	   152.066
-20246.250	    15.428	  -164.001	   140.140
-20326.775	    15.344	  -159.150	   158.992
-19966.381	    15.612	  -151.149	   151.869
-20128.762	    15.835	  -166.775	   165.804
-20069.715	    15.773	  -158.338	   156.262
-20303.605	    15.515	  -159.387	   121.176
-19950.162	    15.360	  -137.050	   123.416
-20128.885	    15.317	  -150.506	   132.225
-20146.242	    15.355	  -158.923	   129.583
-20023.531	    15.407	  -154.247	   127.303
-20087.361	    15.384	  -165.680	   147.032
-20262.064	    15.374	  -158.126	   145.227
-20193.650	    15.288	  -157.419	   127.935
-20210.709	    15.306	  -140.426	   138.214
-20053.754	    15.363	  -152.475	   146.445
-20312.178	    15.428	  -144.867	   127.565
-20211.137	    15.546	  -167.543	   143.496
-20233.195	    15.605	  -164.275	   122.159
-20207.492	    15.548	  -155.737	   139.854
-20244.773	    15.378	  -143.746	   135.966
-20116.506	    15.307	  -156.519	   146.856
-20360.473	    15.320	  -138.711	   128.521
-20314.238	    15.416	  -150.305	   140.414
-20199.357	    15.553	  -149.193	   136.458
-19918.246	    15.733	  -159.514	   144.185
-19983.793	    15.663	  -146.643	   123.435
-20113.053	    15.407	  -163.640	   143.637
-20254.344	    15.144	  -157.257	   149.446
-20545.850	    14.972	  -167.756	   147.650
-20301.197	    15.026	  -158.828	   142.850
-20285.195	    15.276	  -163.079	   130.045
-19992.900	    15.588	  -146.353	   110.105
-19972.658	    15.852	  -166.607	   161.367
-20146.486	    15.873	  -149.308	   140.171
-20049.783	    15.646	  -156.908	   128.850
-20414.441	    15.393	  -157.621	   139.589
-20116.791	    15.255	  -149.574	   125.666
-20231.783	    15.108	  -164.168	   133.859
-20049.355	    15.148	  -167.711	   131.889
-20324.826	    15.318	  -165.008	   144.082
-20021.236	    15.518	  -160.709	   133.757
-19988.877	    15.574	  -157.938	   150.465
-20252.365	    15.427	  -151.792	   142.433
-20172.773	    15.231	  -155.401	   136.978
-20446.109	    15.156	  -170.107	   150.129
-20195.363	    15.198	  -144.385	   147.362
-20380.506	    15.285	  -164.517	   147.497
-20111.072	    15.557	  -150.123	   147.782
-20065.445	    15.701	  -161.186	   153.271
-20259.881	    15.599	  -150.575	   151.031
-20254.240	    15.433	  -164.449	   144.644
-20117.525	    15.297	  -151.230	   146.830
-20344.689	    15.178	  -162.770	   143.899
-20179.834	    15.258	  -151.161	   129.932
-20018.748	    15.391	  -151.051	   127.325
-20213.635	    15.404	  -152.592	   147.238
-20178.719	    15.349	  -156.081	   137.258
-19889.484	    15.289	  -162.421	   146.149
-20085.141	    15.239	  -163.375	   138.628
-20108.869	    15.203	  -169.411	   141.025
-20352.047	    15.210	  -149.884	   146.329
-20283.498	    15.243	  -163.987	   135.577
-20396.555	    15.366	  -159.269	   140.507
-20103.299	    15.464	  -163.985	   136.803
-20054.662	    15.539	  -150.829	   125.992
-20063.365	    15.532	  -165.610	   143.708
-20163.137	    15.509	  -142.254	   121.034
-20070.918	    15.495	  -154.883	   139.164
-20471.791	    15.466	  -160.263	   123.160
-20111.857	    15.393	  -148.729	   150.604
-19858.072	    15.419	  -154.991	   156.676
-19980.438	    15.490	  -155.347	   132.689
-20244.869	    15.386	  -169.797	   125.247
-20345.453	    15.329	  -156.834	   115.818
-20190.012	    15.360	  -167.838	   128.261
-20379.025	    15.419	  -159.092	   148.856
-20360.572	    15.439	  -163.532	   143.399
-20119.197	    15.483	  -162.554	   131.065
-20287.797	    15.484	  -157.269	   128.481
-20348.160	    15.451	  -153.962	   141.511
-20088.303	    15.294	  -165.601	   141.911
-20543.646	    15.284	  -161.847	   127.154
-20124.414	    15.432	  -157.548	   135.221
-20052.428	    15.515	  -147.188	   132.569
-20074.768	    15.421	  -147.739	   140.088
-20309.008	    15.198	  -164.808	   127.878
-20346.996	    15.198	  -140.412	   146.517
-20235.352	    15.370	  -147.489	   146.378
-20194.250	    15.538	  -154.729	   133.418
-20249.553	    15.567	  -151.856	   132.275
-20127.680	    15.542	  -164.195	   125.737
-20593.312	    15.471	  -154.839	   121.448
-20173.689	    15.468	  -153.020	   135.234
-20117.078	    15.496	  -157.851	   135.835
-20234.178	    15.420	  -166.937	   142.036
-20085.576	    15.353	  -158.657	   122.624
-20129.762	    15.341	  -148.493	   148.887
-20163.457	    15.389	  -166.798	   131.013
-20270.766	    15.495	  -156.921	   138.044
-20093.123	    15.600	  -166.223	   147.230
-19959.447	    15.574	  -159.145	   124.430
-20121.207	    15.548	  -151.566	   124.040
-20013.158	    15.508	  -154.092	   147.049
-20200.820	    15.435	  -154.092	   145.542
-20072.840	    15.403	  -159.478	   151.849
-20027.678	    15.390	  -150.233	   146.659
-20147.832	    15.318	  -149.999	   157.432
-20222.578	    15.169	  -147.039	   132.826
-20275.131	    14.978	  -164.011	   125.073
-20498.129	    14.901	  -168.188	   148.675
-19993.848	    14.997	  -155.281	   133.518
-20175.543	    15.227	  -152.325	   153.243
-20101.283	    15.534	  -162.427	   140.853
-20091.645	    15.667	  -154.976	   147.806
-20161.363	    15.678	  -156.577	   152.583
-20026.879	    15.589	  -149.847	   139.100
-20302.135	    15.420	  -144.605	   137.902
-20355.111	    15.353	  -150.771	   118.338
-20441.391	    15.421	  -153.637	   145.852
-20274.488	    15.543	  -143.398	   123.454
-20135.838	    15.558	  -157.535	   143.305
-20220.891	    15.513	  -168.831	   153.053
-20164.941	    15.406	  -163.991	   129.566
-20228.646	    15.272	  -147.937	   131.493
-20229.578	    15.266	  -159.530	   131.791
-19989.621	    15.383	  -143.932	   134.060
-20012.402	    15.518	  -148.461	   136.597
-19977.793	    15.518	  -160.723	   135.331
-20183.260	    15.448	  -139.806	   137.037
-20284.508	    15.347	  -150.066	   148.586
-20298.533	    15.286	  -155.428	   125.662
-20242.781	    15.308	  -148.453	   150.835
-20403.102	    15.335	  -168.389	   131.818
-20221.230	    15.378	  -144.989	   139.134
-20253.641	    15.411	  -161.394	   136.039
-20312.670	    15.456	  -160.012	   147.797
-20070.705	    15.584	  -168.905	   148.619
-20073.146	    15.581	  -155.166	   142.303
-19989.668	    15.573	  -168.727	   146.419
-19973.426	    15.556	  -154.427	   165.390
-20201.873	    15.425	  -157.442	   146.710
-20231.990	    15.361	  -160.455	   139.378
-20076.357	    15.297	  -159.534	   157.986
-20096.232	    15.334	  -151.798	   144.946
-20082.344	    15.557	  -153.168	   150.227
-20114.420	    15.784	  -152.785	   151.052
-20053.211	    15.847	  -161.747	   141.978
-20169.453	    15.800	  -161.123	   144.754
-20203.818	    15.796	  -160.661	   127.760
-20022.367	    15.692	  -148.684	   147.356
-20267.164	    15.536	  -159.393	   144.688
-20348.432	    15.486	  -145.643	   151.636
-20272.033	    15.510	  -151.580	   137.968
-20128.506	    15.418	  -165.721	   138.289
-20300.842	    15.294	  -151.715	   132.140
-20371.135	    15.225	  -159.214	   138.289
-20219.797	    15.292	  -136.301	   162.443
-20085.111	    15.328	  -137.410	   127.104
-20191.047	    15.441	  -160.694	   133.334
-20168.965	    15.493	  -157.341	   139.477
-20258.486	    15.474	  -140.902	   139.565
-20124.645	    15.434	  -150.696	   136.511
-20123.285	    15.350	  -166.439	   145.570
-20417.217	    15.261	  -154.259	   158.330
-20102.408	    15.244	  -155.964	   128.434
-20507.779	    15.356	  -163.664	   136.668
-20268.211	    15.492	  -144.345	   141.351
-20378.855	    15.505	  -166.027	   140.493
-20372.207	    15.421	  -150.984	   135.579
-20361.848	    15.346	  -153.581	   135.629
-20220.512	    15.337	  -153.331	   128.384
-20070.248	    15.380	  -154.515	   138.356
-20036.473	    15.268	  -159.300	   140.557
-20038.369	    15.126	  -153.077	   135.407
-20051.682	    15.058	  -147.345	   151.777
-20117.203	    15.265	  -160.091	   142.559
-20345.850	    15.545	  -147.101	   146.143
-20107.432	    15.781	  -143.608	   140.276
-20059.529	    15.832	  -156.081	   144.531
-20111.619	    15.648	  -143.834	   127.547
-20222.484	    15.454	  -142.134	   131.454
-20314.705	    15.331	  -155.934	   126.406
-20230.564	    15.341	  -148.917	   152.278
-20017.570	    15.390	  -150.352	   151.376
-20437.496	    15.380	  -152.560	   127.625
-20283.908	    15.482	  -155.800	   145.121
-20354.844	    15.551	  -166.537	   151.432
-20294.096	    15.521	  -157.491	   145.418
-20192.191	    15.322	  -154.633	   145.667
-20370.254	    15.177	  -145.926	   139.830
-20320.572	    15.269	  -158.420	   147.202
-20224.488	    15.432	  -153.910	   139.168
-20164.043	    15.535	  -157.367	   131.709
-19981.045	    15.514	  -158.951	   107.425
-19932.264	    15.374	  -146.513	   145.746
-20203.174	    15.289	  -166.120	   140.508
-20126.799	    15.261	  -140.172	   150.467
-20108.086	    15.290	  -163.947	   148.747
-20085.846	    15.299	  -156.016	   146.985
-20369.582	    15.250	  -153.307	   144.110
-20221.168	    15.338	  -154.358	   140.361
-20189.082	    15.607	  -146.317	   128.054
-19938.547	    15.875	  -157.784	   148.930
-20025.277	    15.963	  -165.055	   122.333
-20097.516	    15.713	  -162.420	   137.082
-20228.551	    15.287	  -165.076	   140.060
-20367.279	    15.062	  -161.507	   137.068
-20432.080	    14.938	  -158.613	   138.943
-20196.318	    15.062	  -149.933	   139.671
-20281.635	    15.265	  -146.557	   136.590
-20319.592	    15.440	  -153.992	   133.176
-19938.127	    15.605	  -144.879	   156.543
-20254.498	    15.683	  -137.877	   146.819
-20189.494	    15.628	  -158.773	   149.271
-20160.301	    15.530	  -154.023	   118.526
-20171.590	    15.519	  -155.465	   139.382
-20265.951	    15.476	  -151.956	   140.408
-20071.359	    15.335	  -159.101	   141.630
-20250.070	    15.311	  -159.983	   144.824
-20315.670	    15.396	  -147.979	   131.451
-20289.562	    15.605	  -162.304	   153.086
-19999.107	    15.733	  -158.442	   149.741
-20066.803	    15.690	  -167.368	   126.496
-20105.037	    15.552	  -144.908	   149.227
-20420.576	    15.382	  -159.232	   121.497
-20109.201	    15.351	  -162.750	   119.185
-20367.312	    15.404	  -161.918	   102.901
-20276.805	    15.470	  -155.438	   121.232
-20438.357	    15.479	  -163.717	   131.416
-20313.895	    15.541	  -170.322	   130.634
-20030.348	    15.643	  -154.685	   118.357
-20139.320	    15.738	  -156.864	   113.792
-20239.111	    15.712	  -152.975	   153.590
-20240.662	    15.498	  -157.462	   147.314
-20238.215	    15.381	  -162.021	   155.629
-20103.143	    15.377	  -147.711	   151.791
-20295.799	    15.319	  -141.098	   133.454
-20152.336	    15.329	  -155.263	   128.165
-20160.992	    15.470	  -150.157	   141.843
-20199.367	    15.612	  -158.632	   126.274
-20236.619	    15.708	  -145.256	   157.330
-20230.242	    15.582	  -162.490	   136.787
-20233.436	    15.315	  -154.359	   156.360
-20518.121	    15.151	  -152.658	   144.604
-20421.535	    15.196	  -170.094	   119.865
-20048.955	    15.344	  -158.345	   150.897
-20014.545	    15.408	  -164.425	   133.012
-20321.162	    15.415	  -152.191	   145.411
-20318.562	    15.307	  -158.235	   132.199
-20318.178	    15.252	  -165.118	   132.424
-20080.951	    15.278	  -154.786	   134.978
-20478.621	    15.350	  -152.627	   155.163
-20228.000	    15.528	  -154.106	   152.367
-20077.527	    15.725	  -170.633	   150.629
-20114.094	    15.826	  -163.485	   154.868
-19855.090	    15.699	  -158.994	   158.420
-20194.428	    15.460	  -157.695	   135.300
-20148.512	    15.264	  -157.241	   151.226
-20200.758	    15.210	  -153.307	   152.486
-20149.367	    15.288	  -167.337	   148.326
-20119.443	    15.421	  -138.905	   137.219
-20148.869	    15.405	  -160.144	   155.434
-20446.219	    15.394	  -137.223	   139.965
-20019.691	    15.449	  -166.154	   152.526
-20077.582	    15.385	  -164.765	   147.508
-20136.785	    15.242	  -166.294	   144.824
-20341.096	    15.108	  -167.153	   116.808
-20295.758	    15.203	  -168.550	   136.171
-20258.438	    15.454	  -165.392	   131.014
-20333.742	    15.680	  -149.821	   150.136
-19900.523	    15.754	  -162.989	   134.953
-20079.680	    15.562	  -163.392	   129.602
-20314.180	    15.432	  -165.967	   142.241
-20012.289	    15.354	  -166.294	   161.094
-20261.320	    15.427	  -157.990	   151.496
-20073.531	    15.504	  -162.563	   144.875
-20056.701	    15.414	  -161.759	   157.203
-20304.871	    15.250	  -155.953	   144.888
-20230.863	    15.112	  -165.015	   149.694
-20295.598	    15.207	  -162.538	   147.634
-20108.604	    15.454	  -165.209	   141.967
-19947.645	    15.680	  -152.145	   131.170
-20145.846	    15.846	  -151.139	   137.541
-20159.863	    15.838	  -159.282	   140.869
-20117.904	    15.764	  -156.154	   145.708
-20183.578	    15.559	  -148.536	   157.549
-20409.430	    15.346	  -140.132	   137.040
-20147.275	    15.281	  -155.002	   100.358
-20068.578	    15.390	  -155.208	   151.931
-20197.604	    15.481	  -154.184	   129.139
-20175.209	    15.447	  -142.225	   140.960
-20579.523	    15.304	  -155.856	   142.667
-20273.033	    15.217	  -140.768	   136.596
-20228.328	    15.352	  -140.736	   137.509
-20176.469	    15.600	  -141.178	   149.255
-20255.354	    15.765	  -139.875	   129.187
-19996.533	    15.888	  -166.210	   132.541
-20172.434	    15.732	  -171.234	   143.827
-20339.814	    15.422	  -165.164	   147.799
-20329.229	    15.311	  -161.564	   144.168
-20110.750	    15.399	  -165.399	   145.151
-20317.605	    15.441	  -160.478	   140.215
-20359.598	    15.417	  -149.518	   147.048
-20345.822	    15.471	  -163.070	   141.931
-20259.758	    15.540	  -141.011	   143.670
-20083.504	    15.560	  -170.879	   135.673
-20077.576	    15.601	  -147.151	   138.474
-20294.244	    15.560	  -162.328	   131.715
-20077.312	    15.493	  -153.780	   136.723
-20054.131	    15.444	  -169.644	   155.197
-20033.287	    15.522	  -162.657	   151.540
-20121.959	    15.688	  -155.104	   134.283
-19883.539	    15.708	  -146.393	   158.992
-20024.227	    15.695	  -157.171	   165.720
-20053.734	    15.609	  -162.802	   137.082
-20221.498	    15.507	  -169.924	   149.364
-20155.859	    15.391	  -161.876	   152.566
-20271.924	    15.338	  -176.008	   132.180
-20307.504	    15.371	  -160.985	   138.012
-20155.441	    15.436	  -162.722	   140.799
-20220.246	    15.464	  -156.290	   136.930
-20054.459	    15.449	  -157.467	   130.269
-20198.281	    15.481	  -153.640	   146.568
-20127.775	    15.478	  -155.468	   146.952
-20209.281	    15.513	  -153.928	   144.161
-20361.791	    15.568	  -156.588	   138.454
-20390.361	    15.422	  -160.809	   155.229
-20412.066	    15.185	  -165.300	   151.261
-20128.895	    15.209	  -163.557	   138.826
-19908.572	    15.426	  -152.833	   154.866
-20069.621	    15.658	  -163.208	   162.183
-19981.588	    15.772	  -150.206	   140.699
-19919.438	    15.737	  -155.301	   134.669
-20129.707	    15.584	  -157.882	   122.148
-19994.779	    15.529	  -146.782	   145.030
-20298.105	    15.551	  -144.542	   133.392
-20107.768	    15.597	  -159.369	   147.390
-20017.264	    15.539	  -158.422	   144.616
-20212.646	    15.389	  -148.849	   139.624
-20217.146	    15.263	  -153.180	   155.071
-20288.791	    15.187	  -171.166	   153.904
-20201.002	    15.255	  -169.570	   137.737
-20282.994	    15.408	  -160.370	   128.758
-20432.191	    15.536	  -161.096	   139.041
-20128.240	    15.598	  -157.018	   130.926
-20145.162	    15.592	  -147.984	   113.669
-20396.719	    15.519	  -148.743	   138.249
-20327.949	    15.441	  -153.431	   127.725
-20194.508	    15.420	  -153.124	   145.776
-20149.723	    15.384	  -157.614	   141.979
-20048.139	    15.371	  -161.296	   127.918
-20399.338	    15.368	  -171.450	   123.506
-20235.879	    15.482	  -158.010	   133.933
-20211.436	    15.521	  -132.140	   141.870
-20247.873	    15.585	  -164.550	   117.320
-19794.043	    15.658	  -154.544	   121.302
-20176.699	    15.669	  -156.997	   149.482
-19879.293	    15.740	  -164.310	   141.226
-19875.283	    15.865	  -150.002	   137.258
-20094.000	    15.763	  -147.123	   158.917
-19931.338	    15.590	  -154.097	   149.434
-19954.955	    15.425	  -163.024	   143.137
-20150.404	    15.215	  -157.567	   147.485
-20431.842	    15.127	  -144.208	   144.696
-19995.018	    15.237	  -152.418	   151.370
-20224.625	    15.420	  -134.389	   133.008
-20293.766	    15.474	  -144.451	   145.461
-20200.480	    15.530	  -164.514	   167.000
-20114.834	    15.660	  -149.138	   154.000
-20422.846	    15.657	  -160.362	   110.251
-19978.668	    15.565	  -153.824	   115.650
-20242.365	    15.395	  -165.239	   142.262
-20187.070	    15.320	  -157.360	   142.895
-20119.072	    15.345	  -163.673	   131.782
-20402.736	    15.365	  -155.438	   136.831
-20344.895	    15.512	  -162.671	   152.633
-20253.080	    15.594	  -159.987	   141.655
-20208.277	    15.494	  -153.524	   147.319
-20312.799	    15.359	  -151.091	   159.976
-20321.049	    15.364	  -147.232	   142.451
-20270.775	    15.548	  -161.427	   134.319
-19881.842	    15.745	  -179.645	   142.190
-20107.742	    15.799	  -173.054	   139.072
-20082.428	    15.646	  -154.394	   129.920
-20285.797	    15.478	  -155.237	   136.524
-20065.416	    15.436	  -167.780	   158.632
-20328.938	    15.377	  -158.405	   153.619
-20308.648	    15.364	  -145.324	   141.207
-20223.873	    15.436	  -164.267	   129.067
-20018.154	    15.560	  -161.543	   156.753
-20251.641	    15.741	  -151.907	   138.202
-20047.918	    15.810	  -163.356	   143.007
-20160.379	    15.712	  -124.965	   137.911
-20371.992	    15.431	  -159.347	   150.059
-20133.412	    15.284	  -154.286	   157.944
-20037.662	    15.329	  -147.240	   155.261
-20248.734	    15.344	  -148.368	   120.282
-20139.635	    15.237	  -152.269	   126.657
-20229.184	    15.214	  -151.645	   130.205
-20340.164	    15.170	  -135.735	   131.147
-20074.027	    15.289	  -144.562	   133.367
-20412.799	    15.482	  -153.714	   145.110
-20144.439	    15.587	  -141.923	   141.922
-20324.000	    15.403	  -163.825	   140.232
-20185.373	    15.305	  -158.464	   143.683
-20214.162	    15.361	  -149.884	   132.097
-20466.371	    15.478	  -169.215	   145.944
-19967.025	    15.547	  -148.232	   119.369
-20002.125	    15.596	  -176.492	   139.043
-20178.369	    15.522	  -152.914	   107.334
-20199.047	    15.387	  -138.857	   136.526
-20420.227	    15.281	  -145.197	   137.359
-20210.723	    15.253	  -159.300	   133.743
-20210.342	    15.328	  -147.045	   144.287
-20152.473	    15.420	  -140.509	   154.774
-20136.576	    15.652	  -150.853	   150.094
-20126.123	    15.752	  -162.495	   138.106
-20146.621	    15.620	  -159.826	   148.519
-20129.357	    15.565	  -142.958	   122.487
-20311.508	    15.575	  -169.363	   140.497
-20203.967	    15.566	  -151.933	   147.025
-20314.838	    15.663	  -154.633	   156.629
-20064.730	    15.747	  -136.391	   123.597
-20205.930	    15.709	  -162.363	   125.553
-19821.656	    15.519	  -151.079	   124.556
-19975.424	    15.337	  -165.338	   155.149
-20411.457	    15.431	  -155.543	   139.507
-20108.260	    15.729	  -159.527	   146.723
-20000.414	    15.923	  -175.169	   134.668
-20284.385	    15.902	  -149.394	   148.511
-20483.660	    15.716	  -160.156	   137.429
-20122.023	    15.474	  -148.802	   131.244
-20248.207	    15.504	  -152.023	   149.030
-20287.859	    15.491	  -154.582	   146.850
-20384.961	    15.383	  -161.214	   142.975
-20187.350	    15.417	  -173.018	   116.442
-20040.736	    15.430	  -146.501	   147.890
-20090.051	    15.416	  -154.235	   147.376
-20220.016	    15.408	  -142.838	   136.503
-20037.832	    15.459	  -141.033	   149.602
-19967.531	    15.444	  -154.513	   148.730
-19914.895	    15.421	  -152.040	   150.427
-20111.039	    15.525	  -154.084	   125.885
-19995.553	    15.612	  -158.680	   136.271
-20158.252	    15.428	  -142.498	   130.629
-20129.711	    15.237	  -167.962	   142.653
-20197.559	    15.150	  -158.708	   131.680
-20259.029	    15.242	  -160.685	   135.948
-20243.797	    15.292	  -157.614	   143.148
-20136.193	    15.352	  -154.908	   134.251
-20131.561	    15.536	  -156.940	   151.427
-20150.531	    15.777	  -156.309	   141.514
-20103.875	    15.951	  -151.996	   149.761
-20163.512	    16.074	  -166.795	   144.173
-19946.979	    15.961	  -142.344	   160.434
-20500.887	    15.679	  -142.480	   128.576
-20312.705	    15.468	  -162.777	   136.398
-20328.543	    15.409	  -157.585	   152.251
-20309.613	    15.488	  -171.806	   147.952
-19983.746	    15.532	  -154.034	   149.031
-20238.119	    15.425	  -143.174	   137.173
-20068.029	    15.307	  -156.761	   138.396
-20279.826	    15.287	  -156.338	   148.719
-20157.229	    15.329	  -155.374	   147.438
-19928.055	    15.400	  -161.112	   120.570
-20286.416	    15.425	  -155.010	   127.156
-20182.170	    15.404	  -157.236	   139.908
-20217.477	    15.468	  -166.583	   141.120
-20246.154	    15.527	  -144.374	   136.800
-20418.504	    15.586	  -152.847	   121.761
-20155.486	    15.472	  -151.156	   111.296
-20301.949	    15.352	  -136.624	   159.448
-20103.990	    15.246	  -161.572	   127.786
-20039.021	    15.146	  -146.885	   150.804
-20234.461	    15.130	  -160.276	   147.939
-20037.705	    15.255	  -142.972	   134.727
-20084.422	    15.341	  -159.724	   114.550
-20132.793	    15.428	  -136.303	   142.900
-20305.643	    15.618	  -134.255	   149.625
-20259.898	    15.747	  -170.652	   128.212
-20198.643	    15.759	  -153.550	   137.580
-20330.297	    15.694	  -152.776	   147.919
-20144.293	    15.627	  -151.990	   128.878
-20140.635	    15.499	  -150.406	   142.471
-20374.545	    15.265	  -151.817	   140.845
-20208.332	    15.199	  -167.760	   138.168
-20057.686	    15.265	  -161.723	   137.290
-20319.775	    15.442	  -152.469	   136.486
-20062.707	    15.544	  -148.947	   131.582
-20484.432	    15.477	  -162.376	   146.624
-20030.490	    15.444	  -170.356	   128.811
-20212.859	    15.303	  -153.868	   145.424
-20295.402	    15.170	  -175.548	   133.325
-20339.518	    15.236	  -151.407	   158.646
-20277.820	    15.335	  -156.451	   137.626
-20053.527	    15.345	  -145.620	   159.697
-20134.172	    15.442	  -145.501	   128.728
-20453.301	    15.592	  -151.407	   162.608
-20371.621	    15.587	  -160.565	   144.578
-20349.686	    15.444	  -169.102	   146.322
-20286.129	    15.281	  -154.096	   131.279
-20317.494	    15.123	  -150.658	   126.024
-20132.730	    14.970	  -172.426	   135.191
-20408.490	    14.944	  -147.546	   126.082
-20304.854	    15.009	  -149.323	   147.664
-20354.141	    15.093	  -160.800	   126.347
-20008.471	    15.225	  -158.080	   149.314
-20105.252	    15.467	  -174.445	   164.708
-20310.773	    15.781	  -153.186	   161.492
-20109.879	    15.754	  -157.064	   142.490
-20145.680	    15.545	  -158.510	   145.981
-20197.248	    15.241	  -164.702	   120.228
-20469.742	    14.983	  -150.684	   143.030
-20411.900	    14.983	  -147.683	   129.015
-20272.648	    15.094	  -153.345	   150.096
-20151.498	    15.254	  -152.327	   123.776
-20111.148	    15.381	  -167.378	   126.355
-20060.631	    15.409	  -160.317	   140.562
-20002.932	    15.413	  -163.114	   127.906
-20201.225	    15.413	  -154.229	   143.008
-20266.502	    15.498	  -163.896	   153.506
-20132.375	    15.563	  -151.350	   146.856
-20138.684	    15.649	  -150.961	   144.843
-19904.139	    15.597	  -151.454	   125.256
-20357.018	    15.397	  -160.703	   117.726
-20284.043	    15.222	  -168.328	   153.366
-20034.979	    15.188	  -157.077	   134.278
-20163.068	    15.383	  -159.193	   133.276
-20146.990	    15.570	  -167.502	   146.489
-20048.625	    15.544	  -156.188	   132.523
-20202.584	    15.499	  -141.425	   144.599
-19936.516	    15.518	  -149.522	   124.962
-20142.092	    15.454	  -146.949	   133.396
-20138.572	    15.333	  -159.525	   140.623
-20250.609	    15.308	  -150.923	   144.222
-20130.988	    15.376	  -154.237	   137.363
-20312.957	    15.483	  -154.559	   128.850
-19879.379	    15.657	  -160.360	   132.492
-20142.332	    15.833	  -155.915	   115.062
-20015.996	    15.887	  -130.505	   135.725
-20107.371	    15.726	  -155.790	   118.177
-20129.699	    15.461	  -146.825	   144.968
-20247.596	    15.310	  -157.935	   143.747
-20266.203	    15.300	  -153.663	   134.675
-20399.221	    15.369	  -155.418	   135.778
-20106.209	    15.518	  -159.053	   128.874
-20106.207	    15.612	  -147.521	   157.697
-20155.986	    15.549	  -155.148	   136.923
-20104.695	    15.373	  -150.900	   153.013
-20218.895	    15.372	  -158.035	   155.714
-20265.213	    15.420	  -151.813	   136.575
-20332.830	    15.315	  -167.327	   126.874
-20359.076	    15.121	  -156.425	   133.549
-20150.203	    15.008	  -141.559	   121.540
-20083.762	    15.112	  -163.564	   143.831
-20078.785	    15.336	  -143.439	   140.696
-20407.359	    15.494	  -161.989	   144.512
-20106.285	    15.597	  -155.655	   150.244
-20211.756	    15.610	  -170.462	   164.104
-20035.811	    15.489	  -163.415	   145.839
-20131.709	    15.202	  -160.365	   152.491
-20136.602	    15.051	  -161.162	   153.402
-20086.473	    15.142	  -161.511	   113.718
-20220.584	    15.245	  -146.970	   152.394
-20312.641	    15.329	  -167.946	   146.764
-20198.299	    15.397	  -156.341	   155.037
-20139.041	    15.479	  -153.013	   167.027
-20086.500	    15.386	  -159.031	   138.216
-20257.184	    15.324	  -150.047	   137.717
-20189.689	    15.306	  -166.420	   149.775
-20145.703	    15.272	  -142.056	   142.784
-20193.301	    15.207	  -168.764	   139.177
-20221.027	    15.143	  -154.124	   132.823
-20245.066	    15.190	  -137.320	   143.396
-20133.424	    15.282	  -150.600	   143.950
-20184.125	    15.390	  -162.669	   141.301
-20168.604	    15.565	  -158.423	   136.661
-20079.592	    15.758	  -143.279	   149.193
-20033.637	    15.708	  -143.723	   143.808
-20096.848	    15.502	  -151.822	   160.765
-20127.943	    15.402	  -156.958	   143.054
-20236.572	    15.245	  -152.372	   143.531
-20278.752	    15.156	  -150.609	   143.302
-20287.281	    15.289	  -149.967	   126.678
-20410.266	    15.505	  -160.274	   149.174
-20139.922	    15.684	  -150.285	   135.981
-20014.834	    15.677	  -144.976	   134.423
-20053.133	    15.470	  -150.789	   138.990
-20169.836	    15.261	  -152.202	   162.911
-20057.510	    15.265	  -158.323	   154.071
-20309.475	    15.289	  -142.253	   144.861
-20175.938	    15.439	  -168.063	   133.107
-20302.381	    15.678	  -152.343	   154.053
-20342.420	    15.748	  -151.918	   148.169
-20125.307	    15.606	  -153.421	   151.228
-20116.164	    15.391	  -152.379	   145.498
-20045.684	    15.265	  -162.705	   137.324
-20184.451	    15.252	  -160.527	   133.000
-19988.693	    15.245	  -155.516	   150.000
-20141.371	    15.298	  -145.670	   116.877
-20262.502	    15.392	  -161.082	   143.083
-20250.660	    15.515	  -156.058	   132.292
-20216.412	    15.574	  -148.781	   151.850
-20060.139	    15.637	  -165.261	   130.850
-20077.916	    15.621	  -160.862	   148.358
-20063.158	    15.484	  -156.035	   149.418
-20202.795	    15.487	  -154.866	   130.034
-20267.129	    15.346	  -160.929	   122.220
-20440.723	    15.201	  -164.608	   133.428
-20276.309	    15.191	  -164.022	   120.658
-20177.111	    15.175	  -145.959	   134.376
-20145.996	    15.277	  -151.842	   117.170
-20262.600	    15.445	  -157.929	   126.069
-20080.223	    15.633	  -154.949	   139.494
-20150.748	    15.726	  -141.219	   135.135
-20123.891	    15.746	  -151.401	   133.142
-20447.998	    15.628	  -164.298	   149.891
-20140.338	    15.455	  -151.949	   135.482
-20166.812	    15.268	  -144.162	   127.265
-20246.277	    15.161	  -155.891	   134.448
-20236.912	    15.179	  -160.948	   149.115
-20318.695	    15.319	  -153.241	   148.837
-20219.711	    15.509	  -144.615	   144.836
-20166.779	    15.642	  -135.447	   117.800
-20315.547	    15.709	  -172.441	   144.346
-20331.352	    15.762	  -147.241	   143.558
-20087.809	    15.602	  -173.578	   152.519
-20271.092	    15.348	  -150.885	   126.643
-20477.146	    15.146	  -151.709	   135.850
-20364.982	    15.010	  -161.920	   133.990
-20540.641	    14.970	  -164.051	   133.345
-20264.482	    15.128	  -144.802	   127.658
-20339.500	    15.365	  -152.841	   140.561
-20183.381	    15.569	  -148.273	   151.507
-20010.760	    15.582	  -146.643	   154.313
-20381.594	    15.501	  -160.431	   146.480
-20390.172	    15.370	  -169.572	   125.881
-20241.561	    15.215	  -166.786	   145.861
-20061.283	    15.263	  -154.757	   161.142
-20047.428	    15.366	  -169.895	   132.480
-20468.902	    15.352	  -167.371	   138.806
-20348.979	    15.319	  -162.561	   132.657
-20237.270	    15.336	  -170.755	   132.750
-19958.436	    15.507	  -147.167	   132.629
-20140.100	    15.561	  -166.574	   137.951
-20110.584	    15.478	  -163.343	   153.599
-20137.912	    15.350	  -148.301	   126.420
-20348.977	    15.182	  -164.206	   128.767
-20191.090	    15.190	  -151.360	   135.195
-20012.947	    15.346	  -146.482	   146.984
-20146.422	    15.470	  -143.687	   154.133
-20260.609	    15.572	  -157.932	   122.979
-20195.236	    15.657	  -152.559	   135.413
-20181.531	    15.714	  -150.072	   152.846
-20369.662	    15.662	  -149.828	   124.286
-20174.961	    15.465	  -156.422	   146.187
-20363.279	    15.315	  -144.446	   126.245
-20038.492	    15.336	  -150.115	   160.343
-20265.828	    15.379	  -151.642	   136.551
-20320.760	    15.539	  -151.474	   131.365
-20180.688	    15.641	  -143.682	   135.308
-20152.031	    15.704	  -148.020	   128.697
-20194.229	    15.730	  -162.134	   141.299
-20248.465	    15.542	  -141.259	   142.454
-20226.783	    15.364	  -167.540	   136.888
-20650.910	    15.320	  -155.968	   136.749
-20224.102	    15.323	  -155.351	   153.545
-20406.297	    15.395	  -156.607	   135.982
-20037.820	    15.545	  -153.760	   155.524
-20236.846	    15.520	  -169.363	   126.558
-20477.387	    15.436	  -158.544	   133.187
-20244.223	    15.297	  -150.418	   124.776
-20182.227	    15.183	  -149.815	   115.701
-20303.189	    15.280	  -141.590	   145.456
-20109.318	    15.487	  -142.789	   121.943
-20072.111	    15.529	  -156.116	   143.386
-20080.570	    15.549	  -160.200	   151.868
-20094.682	    15.437	  -138.427	   156.516
-20146.359	    15.398	  -164.910	   128.524
-20266.039	    15.484	  -146.609	   149.882
-20025.160	    15.577	  -163.814	   128.393
-20004.518	    15.586	  -138.191	   135.767
-20368.717	    15.450	  -154.290	   133.040
-20182.986	    15.339	  -166.182	   158.196
-20447.146	    15.238	  -147.827	   163.081
-20453.920	    15.267	  -146.500	   145.785
-20181.801	    15.418	  -152.350	   146.116
-20322.514	    15.480	  -155.137	   143.810
-20255.752	    15.607	  -163.455	   149.392
-20035.166	    15.831	  -146.829	   153.593
-20140.205	    15.766	  -168.123	   133.158
-20023.088	    15.550	  -154.506	   144.135
-20186.889	    15.358	  -147.157	   136.460
-20255.650	    15.289	  -147.624	   143.454
-20195.246	    15.462	  -163.548	   148.058
-20028.432	    15.677	  -150.043	   157.428
-20055.525	    15.772	  -159.678	   147.665
-20360.158	    15.729	  -150.154	   151.026
-20289.201	    15.534	  -150.551	   126.060
-20321.229	    15.236	  -157.773	   136.099
-20339.932	    15.029	  -139.828	   136.190
-20355.039	    14.942	  -144.507	   131.573
-20099.518	    15.150	  -139.651	   154.345
-19875.145	    15.511	  -150.259	   136.625
-20125.258	    15.887	  -153.368	   146.153
-20092.750	    16.103	  -156.199	   142.902
-19807.439	    16.019	  -147.743	   150.086
-20069.602	    15.648	  -151.257	   132.486
-20505.545	    15.189	  -150.685	   128.420
-20511.533	    14.876	  -158.819	   134.188
-20402.160	    15.034	  -154.647	   128.202
-20270.322	    15.454	  -165.139	   132.674
-20366.428	    15.726	  -153.620	   144.601
-20138.633	    15.788	  -158.465	   128.647
-20051.361	    15.733	  -148.410	   149.541
-20412.756	    15.587	  -151.585	   147.637
-20151.250	    15.335	  -153.090	   141.595
-20414.572	    15.131	  -147.286	   146.473
-20082.734	    15.062	  -148.404	   135.942
-20229.174	    15.088	  -146.398	   155.423
-20319.541	    15.231	  -150.624	   150.304
-20163.559	    15.507	  -145.111	   146.897
-19942.111	    15.812	  -146.931	   128.476
-20127.711	    15.887	  -151.050	   131.797
-20109.926	    15.824	  -160.098	   133.354
-20103.391	    15.606	  -153.188	   118.166
-20273.391	    15.453	  -158.080	   126.059
-20107.014	    15.456	  -159.162	   127.815
-20273.650	    15.454	  -142.793	   147.054
-20318.420	    15.371	  -165.860	   126.180
-20122.199	    15.407	  -164.766	   133.559
-20221.998	    15.600	  -151.236	   142.631
-20167.291	    15.663	  -156.666	   124.342
-20453.480	    15.585	  -157.446	   130.740
-20270.801	    15.413	  -170.363	   119.109
-20221.965	    15.267	  -166.489	   155.861
-20168.572	    15.330	  -171.864	   137.981
-20162.361	    15.514	  -156.132	   146.015
-20109.908	    15.665	  -157.326	   155.835
-20322.533	    15.678	  -147.434	   144.343
-20176.629	    15.656	  -142.065	   125.908
-19998.258	    15.470	  -147.081	   133.567
-20252.311	    15.364	  -147.145	   140.349
-20048.867	    15.306	  -140.081	   137.381
-20164.482	    15.347	  -156.228	   131.346
-20191.529	    15.383	  -144.497	   144.091
-20064.084	    15.498	  -154.364	   152.951
-20280.436	    15.574	  -159.698	   144.971
-19989.084	    15.439	  -162.215	   146.978
-20403.064	    15.231	  -165.617	   144.700
-20266.805	    15.144	  -162.818	   143.816
-20316.766	    15.251	  -152.283	   153.968
-20275.975	    15.473	  -164.907	   151.605
-20176.969	    15.703	  -155.646	   136.074
-20290.547	    15.996	  -147.924	   145.497
-19949.766	    16.039	  -153.632	   145.533
-20071.111	    15.853	  -156.115	   135.043
-20254.953	    15.528	  -138.412	   122.118
-20445.848	    15.192	  -162.958	   128.901
-20314.754	    15.048	  -149.201	   143.793
-20326.732	    15.218	  -148.432	   158.909
-19934.553	    15.493	  -148.018	   136.164
-19954.793	    15.780	  -145.050	   140.571
-20023.555	    15.902	  -144.689	   159.182
-20103.240	    15.872	  -160.689	   133.476
-20125.736	    15.654	  -151.010	   143.722
-20317.307	    15.304	  -139.577	   136.825
-20366.312	    15.026	  -155.687	   143.414
-20499.023	    15.014	  -136.782	   137.715
-19973.094	    15.365	  -138.765	   149.893
-19966.898	    15.762	  -161.904	   152.036
-19997.539	    15.801	  -140.415	   142.446
-20072.859	    15.537	  -156.137	   147.008
-20367.191	    15.283	  -168.324	   129.841
-20237.605	    15.161	  -151.687	   136.956
-20322.588	    15.266	  -144.433	   130.622
-20361.289	    15.449	  -159.622	   135.553
-20334.158	    15.521	  -159.082	   133.267
-20294.432	    15.542	  -152.395	   139.320
-20033.436	    15.563	  -138.166	   155.246
-20205.906	    15.649	  -158.758	   143.709
-20167.895	    15.666	  -156.140	   138.605
-20006.877	    15.655	  -148.992	   133.018
-20058.477	    15.503	  -152.011	   142.450
-20031.828	    15.286	  -158.731	   135.434
-20448.006	    15.110	  -152.211	   141.859
-20129.016	    15.145	  -149.595	   126.447
-20294.379	    15.239	  -163.110	   129.562
-20212.879	    15.362	  -158.745	   141.454
-19969.686	    15.415	  -138.178	   127.735
-20122.309	    15.361	  -145.931	   131.266
-20039.695	    15.295	  -147.918	   145.744
-20186.098	    15.385	  -146.095	   156.468
-20075.502	    15.430	  -136.702	   147.795
-20089.506	    15.449	  -157.495	   152.718
-20417.555	    15.329	  -155.695	   133.696
-20264.604	    15.205	  -155.529	   131.421
-20345.658	    15.347	  -155.265	   121.576
-20340.832	    15.467	  -159.877	   132.614
-20104.529	    15.448	  -140.905	   144.918
-20077.293	    15.430	  -155.675	   137.557
-19951.146	    15.479	  -165.795	   149.443
-20271.145	    15.361	  -145.802	   138.915
-20191.068	    15.216	  -170.842	   139.997
-20258.613	    15.072	  -156.362	   140.468
-20179.039	    15.046	  -140.073	   102.300
-20311.180	    15.127	  -145.931	   129.647
-20356.146	    15.114	  -151.124	   130.307
-20093.301	    15.166	  -150.536	   147.195
-20236.506	    15.280	  -151.232	   144.293
-20058.430	    15.314	  -153.751	   133.985
-19869.232	    15.370	  -155.769	   147.743
-20121.355	    15.457	  -161.937	   147.067
-20174.865	    15.510	  -164.996	   135.893
-20280.580	    15.457	  -144.033	   134.619
-20307.727	    15.449	  -158.798	   142.357
-20093.168	    15.381	  -146.658	   147.909
-20158.764	    15.325	  -172.097	   148.914
-20105.451	    15.303	  -157.586	   154.852
-20108.018	    15.374	  -151.138	   157.195
-20258.666	    15.474	  -146.767	   152.629
-20147.488	    15.594	  -153.168	   149.041
-20136.941	    15.459	  -151.758	   139.035
-20129.139	    15.283	  -153.561	   114.052
-20170.322	    15.323	  -169.226	   129.566
-20462.869	    15.366	  -160.117	   112.697
-20196.605	    15.314	  -154.045	   143.202
-20331.707	    15.264	  -127.435	   158.623
-20311.863	    15.185	  -135.523	   147.259
-20345.705	    15.104	  -151.251	   148.222
-20208.934	    15.115	  -161.185	   144.290
-20224.486	    15.295	  -142.544	   136.415
-20173.891	    15.485	  -151.828	   160.976
-20028.113	    15.672	  -150.812	   154.461
-20099.305	    15.715	  -160.253	   141.226
-20129.168	    15.636	  -155.784	   128.609
-20155.701	    15.432	  -148.678	   140.179
-19890.012	    15.287	  -170.350	   117.588
-20234.834	    15.114	  -143.295	   155.038
-20358.076	    15.008	  -154.657	   129.083
-20292.145	    14.999	  -153.271	   126.886
-20374.584	    15.136	  -168.124	   133.555
-20079.605	    15.407	  -144.473	   133.594
-20246.434	    15.607	  -147.512	   128.093
-19974.277	    15.649	  -157.337	   143.980
-20301.967	    15.558	  -161.529	   125.808
-20263.340	    15.425	  -146.707	   141.553
-20227.668	    15.293	  -161.489	   156.321
-20186.033	    15.280	  -153.764	   157.934
-20232.354	    15.306	  -162.743	   132.565
-20209.160	    15.316	  -158.410	   127.858
-20419.275	    15.304	  -171.597	   144.245
-20196.016	    15.361	  -162.406	   152.021
-20072.666	    15.439	  -154.044	   140.466
-20120.326	    15.485	  -157.813	   127.492
-20175.637	    15.626	  -149.382	   139.236
-20200.918	    15.714	  -151.771	   145.966
-20109.531	    15.557	  -150.558	   146.014
-20413.463	    15.318	  -160.955	   129.013
-20299.344	    15.190	  -143.716	   151.492
-20125.492	    15.264	  -143.422	   151.198
-20152.131	    15.400	  -146.700	   136.973
-20241.938	    15.458	  -157.283	   149.763
-20216.967	    15.474	  -153.132	   132.284
-20144.330	    15.531	  -161.737	   128.175
-20127.445	    15.642	  -144.025	   140.136
-20301.680	    15.560	  -166.562	   134.200
-20264.354	    15.373	  -131.917	   136.712
-20239.924	    15.331	  -153.483	   133.554
-20206.393	    15.430	  -157.282	   136.581
-19943.629	    15.496	  -166.763	   119.424
-20159.457	    15.465	  -143.570	   138.492
-20360.371	    15.318	  -165.851	   147.338
-20297.072	    15.238	  -160.438	   141.294
-20180.424	    15.326	  -154.328	   156.073
-20229.455	    15.418	  -142.942	   124.045
-20313.463	    15.485	  -149.698	   150.552
-19988.107	    15.392	  -151.075	   151.571
-20367.477	    15.227	  -149.963	   145.016
-19944.742	    15.204	  -167.662	   138.355
-19980.396	    15.242	  -156.812	   151.017
-20148.623	    15.369	  -155.291	   144.731
-20149.186	    15.522	  -153.883	   138.096
-20254.547	    15.586	  -146.682	   125.345
-20209.822	    15.555	  -162.041	   124.792
-20227.607	    15.474	  -147.376	   139.670
-20196.105	    15.399	  -167.826	   124.321
-20180.070	    15.423	  -151.500	   128.991
-20409.418	    15.439	  -153.771	   130.159
-20491.348	    15.391	  -160.140	   147.854
-20431.508	    15.337	  -158.948	   129.388
-20186.121	    15.392	  -158.497	   140.782
-20040.088	    15.483	  -159.870	   131.480
-20215.357	    15.544	  -162.072	   150.009
-20259.367	    15.449	  -149.567	   125.281
-20363.270	    15.264	  -161.067	   130.555
-20238.736	    15.058	  -162.169	   117.352
-20387.279	    14.996	  -158.524	   129.287
-20338.633	    15.093	  -150.210	   142.418
-20190.170	    15.257	  -157.155	   142.608
-20162.094	    15.435	  -146.758	   137.889
-20104.387	    15.521	  -167.592	   136.962
-20101.129	    15.523	  -154.367	   149.747
-20330.250	    15.422	  -159.802	   139.167
-20287.912	    15.347	  -147.885	   147.137
-20069.025	    15.332	  -149.517	   150.016
-20107.037	    15.391	  -152.443	   155.685
-20217.432	    15.468	  -151.078	   148.052
-20337.746	    15.537	  -149.985	   127.843
-20161.104	    15.465	  -141.832	   137.417
-20194.234	    15.435	  -161.734	   158.737
-20276.830	    15.468	  -155.668	   152.063
-20058.760	    15.419	  -157.343	   140.225
-20125.373	    15.269	  -146.416	   155.725
-20210.258	    15.197	  -142.940	   142.617
-20090.041	    15.186	  -167.020	   137.375
-20035.510	    15.333	  -144.175	   144.247
-20111.369	    15.622	  -169.087	   120.244
-20107.486	    15.862	  -157.361	   142.937
-20298.717	    15.888	  -156.764	   141.039
-20142.865	    15.789	  -160.414	   161.657
-20033.152	    15.679	  -162.162	   145.972
-20019.684	    15.635	  -160.656	   153.831
-20072.314	    15.534	  -166.482	   158.537
-20348.305	    15.414	  -148.628	   151.842
-20160.264	    15.420	  -155.346	   155.518
-20073.912	    15.372	  -156.661	   125.259
-20351.258	    15.318	  -161.650	   159.962
-20399.480	    15.240	  -153.199	   152.669
-20149.158	    15.326	  -148.890	   141.747
-20003.789	    15.389	  -147.060	   148.292
-20277.580	    15.467	  -145.732	   139.967
-20232.396	    15.499	  -149.017	   150.940
-20022.359	    15.371	  -163.087	   153.874
-20130.660	    15.325	  -166.032	   150.891
-20092.273	    15.319	  -160.764	   141.581
-20037.285	    15.305	  -168.501	   131.246
-20595.367	    15.310	  -163.661	   140.831
-20307.492	    15.391	  -151.127	   147.715
