-20035.777	    15.334	   -92.310	   122.143
-20163.570	    15.371	  -143.424	    73.621
-20203.047	    15.432	  -143.941	    67.812
-20332.586	    15.469	  -159.787	    54.585
-20289.059	    15.349	  -155.200	    46.652
-20398.469	    15.307	  -157.759	    53.738
-19991.412	    15.338	  -159.079	    51.889
-19878.299	    15.348	  -151.600	    51.496
-20197.141	    15.266	  -149.230	    40.197
-20051.543	    15.330	  -144.737	    81.319
-20122.225	    15.532	  -144.698	    69.548
-20019.207	    15.575	  -152.300	    49.791
-20145.885	    15.488	  -145.286	    72.870
-20313.168	    15.382	  -166.250	    59.770
-20193.602	    15.431	  -142.700	    65.623
-20096.852	    15.578	  -150.470	    83.391
-20053.643	    15.589	  -139.209	    70.338
-20191.906	    15.434	  -148.155	    80.197
-20180.475	    15.268	  -140.689	    71.422
-20385.289	    15.145	  -147.673	    76.005
-20335.961	    15.152	  -160.343	    70.246
-20194.189	    15.134	  -136.970	    42.159
-20093.002	    15.154	  -144.750	    38.973
-20250.600	    15.187	  -148.660	    36.878
-20401.010	    15.160	  -162.568	    70.308
-20265.500	    15.272	  -144.552	    43.257
-20306.852	    15.371	  -140.732	    76.771
-20062.242	    15.479	  -153.964	    72.164
-20013.643	    15.604	  -165.031	    69.013
-19955.334	    15.659	  -144.244	    98.644
-20306.125	    15.514	  -149.951	    52.674
-20175.201	    15.345	  -147.724	    62.372
-20373.482	    15.259	  -156.469	    54.636
-20295.590	    15.320	  -145.503	    50.925
-20149.484	    15.417	  -146.606	    38.975
-20159.969	    15.422	  -151.167	    60.902
-20295.053	    15.459	  -152.768	    56.272
-19993.695	    15.564	  -157.119	    74.530
-19930.373	    15.602	  -162.914	    57.843
-20023.814	    15.524	  -153.518	    63.900
-20260.078	    15.379	  -151.642	    62.236
-20413.314	    15.315	  -155.418	    47.216
-20356.447	    15.313	  -156.795	    90.918
-20299.262	    15.316	  -143.357	    83.459
-20406.859	    15.414	  -166.638	    60.325
-20352.137	    15.483	  -144.302	    49.367
-20449.137	    15.490	  -150.159	    69.121
-19877.893	    15.562	  -141.910	    71.501
-20137.232	    15.674	  -150.105	    83.483
-19822.309	    15.621	  -161.761	    90.791
-19979.398	    15.449	  -148.604	    70.601
-20221.715	    15.321	  -135.743	    33.852
-20266.207	    15.329	  -155.295	    62.558
-20356.201	    15.390	  -153.486	    51.178
-20212.559	    15.560	  -150.741	    56.889
-20144.604	    15.860	  -155.429	    70.969
-19774.084	    15.980	  -165.090	    95.702
-20086.727	    15.773	  -156.994	    34.799
-20083.580	    15.528	  -152.255	    58.557
-20125.645	    15.378	  -151.242	    51.222
-20062.627	    15.361	  -133.342	    67.422
-19973.713	    15.283	  -150.488	    66.847
-19968.270	    15.188	  -158.710	    88.593
-20253.988	    15.185	  -160.132	    70.787
-20040.359	    15.386	  -134.217	    71.682
-19683.654	    15.608	  -156.151	    55.765
-20063.508	    15.698	  -159.268	    63.403
-20052.371	    15.627	  -153.416	    61.281
-20156.814	    15.343	  -164.142	    66.523
-20385.508	    15.085	  -158.002	    54.076
-20426.633	    14.946	  -160.831	    48.573
-20472.162	    14.919	  -170.972	    48.388
-20333.381	    15.123	  -145.019	    66.317
-20269.473	    15.381	  -146.186	    77.575
-19943.904	    15.640	  -151.047	    74.094
-19889.809	    15.714	  -154.725	    74.953
-20047.709	    15.582	  -143.655	    64.617
-20199.482	    15.588	  -136.793	    73.599
-20296.348	    15.581	  -137.553	   114.702
-20327.611	    15.452	  -143.203	    87.043
-20331.793	    15.336	  -147.107	    58.781
-20270.537	    15.201	  -156.242	    67.049
-20293.391	    15.195	  -160.665	    59.660
-20381.652	    15.266	  -147.561	    49.961
-20087.609	    15.371	  -146.479	    39.539
-20366.695	    15.385	  -160.362	    53.983
-20186.441	    15.317	  -168.619	    69.192
-20153.102	    15.339	  -147.338	    46.557
-20026.490	    15.393	  -157.091	    72.637
-20208.471	    15.462	  -152.407	    80.239
-20208.934	    15.636	  -147.991	    74.526
-20129.959	    15.685	  -143.160	    56.834
-20125.859	    15.556	  -158.813	    51.318
-20199.621	    15.344	  -162.272	    71.360
-20151.195	    15.038	  -155.218	    66.499
-20331.875	    14.823	  -140.792	    61.867
-20313.752	    14.985	  -147.578	    56.437
-20337.914	    15.373	  -154.802	    46.788
-20263.410	    15.574	  -159.286	    80.706
-19949.830	    15.605	  -167.389	    57.502
-20001.512	    15.581	  -164.689	    98.660
-20078.512	    15.621	  -147.967	    72.765
-20188.371	    15.572	  -153.721	    68.391
-20384.377	    15.363	  -151.193	    92.718
-20195.412	    15.209	  -155.791	    59.377
-20177.035	    15.168	  -157.729	    78.531
-20351.635	    15.158	  -154.504	    81.704
-20190.447	    15.200	  -142.365	    83.376
-20092.213	    15.276	  -155.730	    54.382
-20417.695	    15.436	  -146.206	    65.981
-20212.828	    15.696	  -159.685	    63.782
-20363.262	    15.782	  -153.457	    34.461
-20105.838	    15.744	  -152.487	    71.214
-20067.754	    15.665	  -161.846	    58.593
-20165.701	    15.537	  -158.160	    60.493
-20192.291	    15.400	  -149.866	    89.910
-20093.438	    15.200	  -152.473	    39.365
-20225.408	    15.099	  -135.869	    41.231
-20375.279	    15.102	  -149.218	    61.851
-20369.490	    15.324	  -156.999	    29.623
-20317.229	    15.503	  -159.166	    53.388
-20018.268	    15.619	  -159.039	    56.242
-20027.223	    15.617	  -146.238	    43.365
-20201.619	    15.579	  -150.239	    39.958
-20055.713	    15.610	  -158.875	    62.629
-20324.441	    15.590	  -147.486	    39.511
-20331.352	    15.494	  -151.129	    66.047
-19989.078	    15.338	  -159.667	    56.063
-20073.527	    15.203	  -140.916	    74.285
-20361.355	    14.998	  -152.961	    67.919
-20265.023	    14.999	  -161.097	    69.103
-20133.252	    15.051	  -145.830	    58.341
-20115.285	    15.283	  -158.491	    60.924
-20112.127	    15.577	  -152.152	    63.753
-20187.811	    15.627	  -167.190	    81.169
-20268.506	    15.455	  -154.422	    53.242
-20145.521	    15.292	  -156.984	    80.781
-20404.814	    15.213	  -155.620	    74.641
-20279.705	    15.180	  -173.998	    79.265
-20323.242	    15.232	  -151.419	    29.507
-20374.896	    15.277	  -150.017	    56.143
-20430.848	    15.303	  -159.290	    61.134
-19994.279	    15.287	  -167.646	    63.996
-20003.594	    15.301	  -167.974	    75.228
-20027.301	    15.265	  -160.944	    67.882
-20251.670	    15.334	  -142.101	    61.339
-20335.393	    15.321	  -161.641	    80.669
-20364.252	    15.392	  -163.654	    66.411
-20449.332	    15.302	  -153.573	    76.613
-20112.344	    15.260	  -160.676	    87.042
-20188.074	    15.352	  -159.834	    60.978
-20196.324	    15.475	  -147.021	    50.185
-20051.031	    15.534	  -162.273	    52.189
-19953.242	    15.496	  -152.153	    52.017
-19983.686	    15.550	  -147.655	    60.359
-20264.748	    15.541	  -144.446	    80.336
-20006.582	    15.570	  -145.278	    88.023
-20033.490	    15.569	  -160.225	    66.469
-20123.725	    15.570	  -160.755	    64.460
-20072.504	    15.473	  -158.457	    49.784
-20310.912	    15.411	  -159.801	    68.146
-20216.002	    15.401	  -159.623	    71.879
-20407.158	    15.286	  -164.887	    54.781
-20332.900	    15.285	  -166.851	    47.980
-20154.137	    15.472	  -157.604	    79.822
-19928.025	    15.621	  -160.930	    81.683
-20169.488	    15.518	  -151.065	    65.326
-20292.615	    15.433	  -159.256	    59.956
-20182.068	    15.512	  -144.756	    75.214
-20058.314	    15.548	  -154.795	    43.053
-20053.898	    15.483	  -156.846	    53.323
-19877.963	    15.508	  -148.725	    57.384
-19909.131	    15.455	  -151.305	    64.687
-20204.943	    15.453	  -150.920	    74.965
-20062.973	    15.496	  -143.700	    94.814
-20441.229	    15.445	  -142.582	    49.404
-20265.424	    15.556	  -145.619	    47.799
-19861.684	    15.644	  -162.760	    69.450
-20156.863	    15.531	  -154.265	    56.744
-20243.426	    15.364	  -155.521	    75.667
-20359.154	    15.288	  -154.429	    62.191
-20255.568	    15.240	  -126.745	    62.101
-20382.283	    15.261	  -152.267	    71.760
-20351.611	    15.235	  -155.432	    70.249
-20397.045	    15.267	  -158.430	    67.135
-19909.459	    15.377	  -161.540	    73.400
-20288.670	    15.553	  -147.925	    57.642
-20015.092	    15.703	  -153.670	    67.755
-20178.539	    15.673	  -152.989	    69.482
-19929.551	    15.499	  -164.488	    90.096
-20345.871	    15.249	  -154.268	    75.030
-20467.141	    15.179	  -158.436	    84.452
-20254.109	    15.257	  -161.082	   104.180
-20081.418	    15.537	  -145.336	    72.233
-20088.070	    15.819	  -150.403	    34.007
-20210.098	    16.049	  -148.294	    66.434
-20098.777	    15.955	  -157.983	    54.710
-20054.990	    15.739	  -153.086	    51.359
-20064.068	    15.381	  -153.754	    65.980
-20221.783	    15.102	  -166.386	    57.998
-20306.246	    15.037	  -154.723	    36.823
-20174.146	    15.030	  -153.526	    46.369
-20197.830	    15.157	  -155.576	    50.941
-19903.953	    15.386	  -169.946	    71.536
-20042.801	    15.602	  -159.623	    97.859
-20019.273	    15.784	  -137.452	    66.306
-20152.693	    15.723	  -149.376	    73.092
-20139.006	    15.458	  -147.325	    56.423
-20254.414	    15.255	  -163.125	    78.031
-20373.383	    15.205	  -157.728	    65.916
-20062.471	    15.277	  -150.180	    70.662
-20141.615	    15.435	  -153.926	    45.513
-20050.303	    15.467	  -154.102	    55.842
-20172.078	    15.499	  -150.284	    71.701
-19912.885	    15.527	  -146.655	    52.807
-20082.402	    15.537	  -162.902	    55.733
-20167.973	    15.476	  -158.419	    64.256
-20606.613	    15.445	  -170.106	    78.256
-20088.861	    15.551	  -156.144	    69.072
-20104.357	    15.625	  -147.369	    66.736
-20332.426	    15.479	  -144.356	    47.826
-20264.975	    15.253	  -153.282	    56.501
-20375.572	    15.226	  -152.110	    83.648
-20229.566	    15.390	  -150.325	    75.433
-20355.877	    15.472	  -142.453	    86.256
-20660.746	    15.466	  -155.345	    57.820
-20141.865	    15.474	  -145.231	    81.235
-20046.863	    15.440	  -147.879	    57.112
-20132.723	    15.348	  -146.903	    73.072
-20366.750	    15.294	  -162.725	    77.866
-20156.828	    15.347	  -161.269	    85.178
-20138.715	    15.295	  -159.005	    59.736
-20203.373	    15.235	  -149.187	    66.542
-20119.184	    15.321	  -151.238	    78.879
-20337.488	    15.310	  -161.770	    45.362
-20138.998	    15.199	  -157.419	    80.920
-20224.920	    15.226	  -163.033	    62.317
-20259.963	    15.294	  -141.427	    66.814
-20181.514	    15.367	  -154.543	    47.108
-20308.045	    15.431	  -156.710	    55.625
-20357.666	    15.476	  -146.742	    88.965
-20202.338	    15.343	  -169.114	    75.109
-20216.111	    15.213	  -146.532	    89.446
-20409.633	    15.210	  -167.828	    65.519
-20103.186	    15.253	  -139.645	    57.762
-20233.664	    15.349	  -162.411	    58.351
-20311.684	    15.529	  -151.447	    64.748
-20051.836	    15.745	  -161.343	    54.356
-20187.879	    15.836	  -155.206	    72.765
-20085.328	    15.679	  -154.350	    80.813
-20249.494	    15.340	  -145.900	    60.655
-20426.689	    15.035	  -155.226	    58.722
-20096.805	    14.996	  -158.838	    63.155
-20291.670	    15.283	  -164.706	    60.111
-20216.027	    15.634	  -150.398	    76.281
-19856.402	    15.861	  -161.451	    81.607
-20044.678	    15.761	  -160.548	    81.780
-20035.008	    15.556	  -154.774	    65.456
-20118.969	    15.357	  -157.256	    61.165
-20399.965	    15.197	  -154.471	    57.866
-20205.117	    15.078	  -164.278	    69.146
-20434.875	    15.106	  -155.019	    69.000
-20409.609	    15.321	  -153.814	    55.506
-20438.852	    15.576	  -139.432	    51.247
-20018.947	    15.744	  -164.529	    65.893
-20137.457	    15.701	  -157.650	    68.558
-20123.809	    15.522	  -144.113	    69.068
-20220.180	    15.192	  -164.390	    78.966
-20218.895	    15.015	  -165.784	    92.158
-20209.906	    15.050	  -159.838	    70.730
-20489.062	    15.167	  -150.986	    73.600
-20147.188	    15.287	  -145.684	    62.586
-20105.779	    15.404	  -161.873	    52.178
-20133.107	    15.468	  -144.376	    65.268
-20172.098	    15.573	  -153.197	    66.799
-20408.697	    15.614	  -162.274	    51.183
-20221.713	    15.568	  -144.625	    57.932
-20328.037	    15.485	  -157.410	    55.845
-20294.533	    15.411	  -157.009	    53.563
-20371.260	    15.458	  -164.721	    62.223
-20241.197	    15.604	  -151.874	    64.077
-20043.008	    15.726	  -160.099	    58.162
-20282.312	    15.752	  -151.600	    71.439
-20332.715	    15.698	  -156.113	    99.738
-20019.207	    15.560	  -156.867	    77.022
-20092.412	    15.377	  -161.178	    98.589
-20133.770	    15.270	  -163.343	    86.853
-20268.939	    15.367	  -145.430	    60.503
-20136.584	    15.437	  -165.031	    78.130
-20305.760	    15.372	  -157.038	    40.817
-20308.854	    15.261	  -152.090	    54.654
-20276.549	    15.298	  -159.110	    66.523
-20440.889	    15.452	  -160.721	    61.155
-20484.500	    15.502	  -169.533	    68.637
-20217.484	    15.590	  -160.761	    64.059
-20054.525	    15.587	  -148.490	    46.873
-20288.543	    15.475	  -154.326	    46.675
-20069.508	    15.358	  -146.754	    71.622
-20026.562	    15.250	  -137.749	    86.239
-20042.281	    15.257	  -155.102	    56.402
-20146.984	    15.292	  -137.534	    54.805
-20160.090	    15.262	  -158.761	    77.589
-20152.059	    15.229	  -151.280	    50.199
-20288.283	    15.273	  -147.100	    64.845
-20308.094	    15.407	  -126.347	    90.794
-20371.326	    15.381	  -151.538	    75.571
-20504.730	    15.367	  -150.497	    73.520
-20241.557	    15.480	  -159.315	    35.816
-20285.984	    15.542	  -157.311	    53.410
-19807.668	    15.557	  -148.788	    33.514
-20390.314	    15.509	  -140.497	    92.496
-20207.773	    15.483	  -150.613	    64.005
-20073.100	    15.548	  -166.809	    50.988
-19918.273	    15.628	  -151.605	    81.721
-20154.367	    15.663	  -155.433	    57.760
-20074.779	    15.588	  -158.381	    62.967
-20343.691	    15.450	  -162.898	    58.954
-20297.035	    15.286	  -158.804	    68.928
-19996.410	    15.246	  -164.910	    88.798
-20158.531	    15.267	  -150.718	    52.009
-20128.900	    15.403	  -159.305	    74.564
-20163.869	    15.646	  -153.982	    55.999
-19867.223	    15.881	  -163.570	    65.052
-20082.762	    15.881	  -130.624	    69.915
-20290.660	    15.758	  -159.609	    69.324
-20189.414	    15.676	  -139.623	    38.158
-20306.471	    15.602	  -157.812	    59.846
-20387.881	    15.458	  -160.419	    89.113
-20498.537	    15.307	  -157.722	    73.533
-20265.129	    15.207	  -146.695	    50.189
-20511.502	    15.136	  -165.879	    47.018
-20258.959	    15.228	  -166.192	    76.072
-20228.934	    15.375	  -165.170	    60.906
-20137.811	    15.448	  -151.936	    77.539
-20038.334	    15.550	  -157.166	    58.090
-20112.248	    15.574	  -145.559	    66.338
-20392.512	    15.606	  -145.633	    65.126
-20193.355	    15.581	  -167.638	    63.508
-20162.398	    15.452	  -161.648	    53.773
-20254.305	    15.431	  -164.313	    57.435
-20279.939	    15.442	  -154.480	    64.272
-20238.098	    15.524	  -155.427	    70.811
-20310.648	    15.552	  -154.695	    65.048
-20184.084	    15.421	  -143.780	    76.753
-20382.385	    15.212	  -155.274	    37.348
-20250.477	    15.163	  -157.958	    64.372
-20116.412	    15.284	  -159.099	    60.027
-20214.221	    15.504	  -163.045	    39.937
-19917.066	    15.807	  -150.541	    61.192
-19778.453	    15.892	  -152.653	    56.394
-20170.496	    15.727	  -159.594	    99.253
-20324.969	    15.556	  -165.306	    62.857
-20107.615	    15.485	  -162.556	    61.781
-20054.613	    15.393	  -155.582	    68.269
-20136.602	    15.376	  -155.344	    91.813
-20158.305	    15.296	  -148.969	    55.004
-20333.490	    15.248	  -166.871	    68.432
-20033.768	    15.284	  -162.092	    48.547
-20092.021	    15.446	  -161.631	    73.349
-20157.541	    15.391	  -144.128	    69.069
-20429.189	    15.244	  -155.677	    81.398
-20222.904	    15.377	  -147.634	    68.326
-20276.115	    15.619	  -151.307	    68.725
-19899.701	    15.740	  -160.043	    82.210
-20272.023	    15.611	  -167.644	    64.467
-20265.100	    15.424	  -141.576	    68.719
-20046.287	    15.433	  -140.205	    89.859
-20054.271	    15.528	  -153.884	    63.344
-20212.693	    15.568	  -162.579	    62.463
-20309.410	    15.468	  -147.353	    81.591
-20266.781	    15.382	  -147.314	   106.459
-20258.033	    15.365	  -155.472	    66.248
-20451.506	    15.328	  -158.389	   101.787
-20349.770	    15.305	  -155.121	    73.196
-20247.145	    15.256	  -157.800	    56.161
-19971.688	    15.311	  -149.194	    55.472
-20046.072	    15.385	  -160.478	    50.231
-20119.688	    15.478	  -152.139	    48.223
-20215.881	    15.562	  -152.717	    48.480
-20412.508	    15.555	  -145.783	    47.439
-20152.074	    15.607	  -161.891	    83.089
-20205.625	    15.535	  -156.110	    47.326
-20296.219	    15.316	  -163.531	    84.874
-20348.500	    15.214	  -158.824	    98.966
-20278.711	    15.238	  -144.757	    82.004
-20000.234	    15.322	  -155.867	    95.349
-20311.133	    15.301	  -160.885	    66.516
-20413.770	    15.366	  -159.561	    59.589
-20040.602	    15.373	  -153.091	    46.161
-20134.012	    15.311	  -162.672	    67.910
-20201.400	    15.372	  -157.551	    77.902
-20107.809	    15.570	  -160.397	    63.246
-20105.914	    15.735	  -147.052	    60.277
-20082.537	    15.681	  -150.847	    61.310
-20320.404	    15.501	  -136.282	    59.645
-20247.209	    15.348	  -160.048	    84.220
-20229.906	    15.316	  -135.309	    74.821
-20290.996	    15.325	  -154.378	    71.527
-20129.680	    15.419	  -149.263	    84.019
-20252.748	    15.472	  -152.657	    83.245
-20265.369	    15.441	  -147.177	    80.614
-20060.787	    15.421	  -143.093	    85.403
-20274.307	    15.346	  -129.322	    92.363
-20250.057	    15.367	  -147.759	    70.897
-20274.209	    15.363	  -149.901	    70.483
-20237.322	    15.438	  -147.577	    55.972
-20249.002	    15.512	  -167.871	    74.248
-20142.184	    15.574	  -150.541	    51.835
-20213.975	    15.636	  -168.128	    69.832
-20118.047	    15.645	  -156.531	    55.062
-19894.912	    15.585	  -157.804	    49.383
-20057.312	    15.457	  -160.029	    99.484
-20218.752	    15.270	  -147.840	    87.467
-20285.623	    15.086	  -158.806	    58.197
-20221.887	    15.143	  -159.756	    86.822
-20140.486	    15.278	  -146.933	    60.851
-20334.100	    15.413	  -151.928	    49.069
-20209.920	    15.449	  -155.560	    62.538
-20269.330	    15.434	  -161.655	    86.508
-20247.383	    15.484	  -148.239	    59.164
-20300.029	    15.546	  -160.393	    46.297
-19978.434	    15.551	  -151.097	    72.100
-20304.984	    15.491	  -162.980	    74.805
-20217.664	    15.409	  -160.170	    67.398
-20267.396	    15.284	  -169.480	    39.630
-20010.902	    15.117	  -158.186	    53.847
-20150.328	    15.075	  -149.050	    62.393
-20074.848	    15.222	  -148.979	    54.398
-20170.168	    15.427	  -154.332	    72.410
-19963.240	    15.549	  -154.288	    80.091
-20140.912	    15.511	  -150.421	    55.221
-20346.980	    15.428	  -143.092	    65.189
-20152.865	    15.362	  -157.658	    50.485
-20291.760	    15.236	  -166.310	    53.332
-20086.082	    15.214	  -160.350	    51.669
-20437.113	    15.277	  -159.619	    78.901
-19970.318	    15.454	  -160.119	    77.281
-20116.377	    15.613	  -146.885	    74.654
-20242.791	    15.662	  -157.533	    84.959
-20051.980	    15.729	  -143.923	    97.939
-20139.824	    15.668	  -151.440	    74.897
-20054.887	    15.603	  -152.280	    55.637
-20003.199	    15.513	  -143.695	    53.476
-20254.848	    15.303	  -160.413	    60.856
-20436.035	    15.256	  -156.936	    49.970
-20375.252	    15.305	  -141.815	    36.545
-19790.617	    15.354	  -174.094	    89.825
-20297.859	    15.263	  -163.542	    64.768
-20272.203	    15.229	  -142.328	    54.657
-20293.922	    15.310	  -167.147	    60.281
-20161.258	    15.359	  -150.681	    49.698
-20281.270	    15.429	  -158.043	    74.408
-20408.379	    15.377	  -148.766	    61.892
-20265.029	    15.159	  -156.457	    65.596
-20180.961	    15.107	  -146.744	    79.573
-20215.467	    15.168	  -149.379	    54.437
-20006.295	    15.362	  -155.346	    56.795
-20162.027	    15.646	  -160.643	    75.783
-20022.873	    15.812	  -161.775	    63.866
-19889.807	    15.800	  -141.779	    91.235
-20198.164	    15.501	  -149.841	    95.534
-20286.412	    15.265	  -138.161	   102.047
-20310.219	    15.169	  -160.313	    54.513
-20195.297	    15.257	  -171.888	    75.920
-20321.193	    15.330	  -137.680	    54.976
-20289.561	    15.405	  -158.050	    62.608
-20504.939	    15.433	  -158.771	   102.048
-19890.287	    15.445	  -149.936	    71.946
-20064.479	    15.452	  -163.026	    65.969
-20156.174	    15.487	  -152.611	    41.476
-20077.172	    15.438	  -146.211	    61.873
-20231.795	    15.395	  -160.431	    83.288
-20235.408	    15.356	  -169.489	    52.710
-20090.227	    15.320	  -157.890	    65.948
-20099.576	    15.334	  -157.915	    62.911
-20445.080	    15.290	  -158.436	    81.781
-20174.533	    15.360	  -162.303	    63.897
-20173.713	    15.463	  -155.594	    81.442
-20104.361	    15.486	  -158.884	    57.697
-20154.008	    15.497	  -153.136	    56.595
-20267.404	    15.440	  -161.413	    90.019
-20135.934	    15.360	  -164.238	    84.360
-20232.732	    15.329	  -164.062	    70.431
-20166.764	    15.274	  -150.778	    53.106
-20306.447	    15.319	  -159.932	    50.855
-20140.355	    15.449	  -164.832	    60.017
-20329.195	    15.566	  -149.054	    63.533
-20070.553	    15.548	  -143.304	    56.029
-20120.234	    15.497	  -155.485	    65.352
-20209.887	    15.386	  -134.840	    66.748
-20344.291	    15.233	  -151.306	    60.588
-20000.318	    15.058	  -150.473	    63.042
-20299.430	    14.997	  -165.894	    56.708
-20414.273	    15.093	  -151.196	    38.872
-20121.385	    15.216	  -135.638	    64.479
-20112.580	    15.397	  -145.557	    54.633
-20175.996	    15.513	  -166.866	    80.329
-20136.137	    15.602	  -152.832	    79.249
-20476.309	    15.541	  -161.207	    85.211
-20206.496	    15.504	  -164.602	    72.585
-20116.043	    15.559	  -168.603	    89.529
-19979.834	    15.521	  -146.601	    43.773
-20334.311	    15.504	  -124.425	    51.759
-20135.938	    15.463	  -153.815	    47.576
-20155.420	    15.526	  -154.408	    66.410
-19946.738	    15.636	  -139.325	    85.713
-19847.061	    15.645	  -150.675	    66.576
-19814.791	    15.741	  -165.575	    74.029
-20245.369	    15.765	  -151.395	    63.916
-19945.992	    15.616	  -155.530	    76.596
-20066.379	    15.325	  -159.796	    83.358
-20244.746	    15.132	  -154.669	    60.048
-20285.484	    15.188	  -151.819	    57.139
-20189.967	    15.382	  -140.289	    97.640
-19718.309	    15.544	  -150.632	    71.017
-20169.922	    15.377	  -156.029	    74.529
-20113.008	    15.165	  -160.975	    74.519
-20146.980	    15.136	  -156.856	    60.284
-20134.135	    15.202	  -146.984	    92.076
-20219.535	    15.421	  -161.547	    81.422
-20261.240	    15.644	  -136.638	    70.371
-20189.379	    15.737	  -161.559	    72.193
-20105.980	    15.705	  -152.151	    68.511
-19903.672	    15.661	  -145.307	    89.999
-20008.338	    15.561	  -146.970	    60.952
-20525.184	    15.391	  -159.699	    81.926
-20383.375	    15.382	  -150.389	    75.033
-20228.139	    15.406	  -150.735	    75.629
-20026.129	    15.424	  -146.476	    57.726
-20361.479	    15.300	  -166.540	    54.060
-20269.998	    15.388	  -172.352	    56.152
-20168.590	    15.488	  -154.411	    65.086
-20356.199	    15.568	  -161.539	    58.314
-20161.438	    15.583	  -157.612	    58.570
-20463.865	    15.532	  -166.219	    75.912
-20151.895	    15.407	  -157.420	    96.377
-20332.969	    15.352	  -156.146	   103.169
-20128.545	    15.378	  -149.559	   104.755
-19865.123	    15.372	  -159.413	    88.197
-20001.277	    15.276	  -150.471	    89.672
-20282.719	    15.173	  -150.089	    81.145
-20190.387	    15.136	  -155.881	    86.758
-20154.158	    15.211	  -144.259	    74.215
-20259.576	    15.261	  -157.997	    81.256
-20386.873	    15.298	  -160.486	    45.288
-20131.732	    15.339	  -152.231	    59.696
-20302.387	    15.408	  -163.111	    57.318
-20196.082	    15.525	  -147.543	    54.640
-20188.420	    15.660	  -151.178	    78.573
-20245.100	    15.535	  -152.502	    38.664
-20191.494	    15.233	  -160.870	    60.859
-20367.029	    15.089	  -153.494	    61.547
-20186.680	    15.260	  -156.861	    58.510
-20059.299	    15.487	  -146.795	    96.845
-20125.773	    15.592	  -150.616	    81.596
-20004.941	    15.594	  -154.237	    97.550
-20193.729	    15.598	  -161.856	    73.660
-20128.469	    15.655	  -166.408	    82.472
-20091.064	    15.725	  -167.497	    60.480
-20107.922	    15.702	  -154.498	    76.884
-20083.889	    15.618	  -147.146	    86.312
-20057.756	    15.518	  -173.548	    72.177
-19947.783	    15.512	  -146.112	    98.875
-20226.789	    15.550	  -149.781	    94.264
-19966.465	    15.460	  -161.572	    69.275
-20370.549	    15.464	  -148.838	    75.082
-20063.113	    15.415	  -150.031	    69.900
-20110.201	    15.353	  -163.093	    63.802
-20193.809	    15.408	  -149.315	    52.678
-20073.359	    15.472	  -156.010	    64.488
-20217.236	    15.505	  -175.090	    52.871
-20047.121	    15.503	  -158.815	    33.671
-20158.230	    15.486	  -157.311	    44.310
-20142.273	    15.548	  -144.522	    78.803
-20297.496	    15.653	  -151.281	    66.371
-20060.219	    15.686	  -155.340	    61.757
-20020.986	    15.676	  -143.555	    55.278
-20226.316	    15.576	  -156.313	    54.450
-20277.807	    15.483	  -160.332	    80.658
-20284.799	    15.336	  -151.647	    59.404
-20153.023	    15.282	  -160.883	    79.327
-20345.451	    15.346	  -163.198	    67.033
-20129.939	    15.293	  -139.112	    61.164
-20426.555	    15.111	  -154.493	    52.234
-20276.211	    15.018	  -163.215	    85.778
-20188.973	    15.111	  -162.383	    78.562
-20247.422	    15.221	  -158.975	    52.892
-20091.977	    15.325	  -159.528	    57.988
-19906.580	    15.344	  -150.403	    75.097
-20285.633	    15.227	  -149.460	    75.625
-20242.129	    15.274	  -152.900	    68.035
-20518.094	    15.401	  -152.005	    60.047
-20147.955	    15.602	  -156.271	    74.902
-20059.316	    15.762	  -167.873	    45.024
-20067.518	    15.849	  -135.094	    66.906
-20213.779	    15.764	  -146.576	    79.189
-20097.395	    15.606	  -163.892	    81.047
-20250.465	    15.330	  -146.439	    73.903
-20400.275	    15.043	  -154.111	    89.002
-20311.180	    14.921	  -156.588	    59.751
-20214.230	    15.060	  -157.745	    54.081
-20132.131	    15.333	  -150.604	    70.296
-19983.420	    15.555	  -156.016	    60.263
-20024.162	    15.620	  -148.667	    48.804
-20025.357	    15.496	  -159.727	    55.125
-20019.711	    15.437	  -162.519	    81.241
-19932.742	    15.433	  -159.042	    69.272
-20118.564	    15.441	  -152.826	    93.897
-20063.838	    15.486	  -159.473	    99.819
-20465.217	    15.502	  -144.575	    87.215
-20170.643	    15.465	  -152.371	   101.148
-20180.689	    15.361	  -158.796	    85.206
-20192.523	    15.395	  -149.147	    81.230
-20045.480	    15.382	  -162.339	    52.887
-20135.336	    15.281	  -146.957	    57.974
-20223.588	    15.168	  -156.101	    58.125
-20146.100	    15.206	  -147.589	    64.318
-20289.633	    15.275	  -141.711	    49.335
-19946.924	    15.461	  -160.235	    40.894
-20117.332	    15.588	  -146.805	    84.399
-20164.232	    15.572	  -137.271	    85.902
-20005.674	    15.447	  -159.821	    50.570
-20467.812	    15.360	  -153.527	    58.002
-20224.557	    15.287	  -155.249	    50.303
-20071.062	    15.305	  -153.295	    77.481
-20256.807	    15.445	  -159.311	    76.196
-20019.482	    15.648	  -151.695	    46.272
-20205.160	    15.652	  -152.273	    71.612
-20258.367	    15.516	  -155.199	    83.029
-20190.299	    15.349	  -155.945	    80.152
-20342.807	    15.208	  -136.662	    60.860
-20156.723	    15.276	  -166.218	    55.488
-20129.863	    15.440	  -154.025	    58.287
-20276.691	    15.589	  -143.802	    70.433
-19912.195	    15.615	  -144.806	    56.276
-19941.963	    15.541	  -159.341	    73.523
-19980.340	    15.469	  -154.424	    76.182
-20296.225	    15.382	  -148.394	    87.371
-20108.074	    15.391	  -163.485	    60.826
-20153.611	    15.297	  -145.707	    54.299
-20405.355	    15.072	  -153.643	    72.295
-20610.129	    14.932	  -135.248	    63.973
-20356.500	    15.063	  -169.638	    63.401
-20362.969	    15.330	  -163.105	    80.937
-19989.133	    15.587	  -151.017	    45.539
-19981.209	    15.664	  -152.327	    37.589
-20181.770	    15.591	  -154.665	   102.191
-20217.795	    15.456	  -159.283	    85.094
-20240.547	    15.325	  -162.504	    78.686
-20073.703	    15.211	  -160.094	    80.092
-20253.387	    15.170	  -161.068	    56.682
-20012.221	    15.261	  -160.766	    56.789
-20334.795	    15.412	  -150.891	    54.929
-20122.518	    15.396	  -159.792	    50.667
-20174.510	    15.424	  -143.548	    30.191
-20153.762	    15.381	  -151.463	    59.301
-20239.102	    15.356	  -141.101	    51.367
-19914.061	    15.491	  -140.501	    59.282
-20102.658	    15.554	  -155.578	    63.242
-20227.361	    15.476	  -143.902	    40.131
-20300.613	    15.422	  -154.358	    61.493
-20297.400	    15.461	  -152.011	    51.196
-20053.855	    15.554	  -155.401	    58.482
-20021.732	    15.623	  -162.219	    70.474
-20164.449	    15.755	  -150.646	    40.057
-19774.002	    15.806	  -161.041	    66.848
-20010.205	    15.620	  -140.262	    44.451
-19948.955	    15.519	  -157.122	    73.742
-20137.939	    15.502	  -145.210	    68.878
-20171.328	    15.474	  -159.146	    41.288
-20186.771	    15.406	  -160.986	    71.903
-20253.314	    15.341	  -145.174	    74.484
-20513.646	    15.349	  -161.889	    60.980
-20214.234	    15.478	  -154.315	    76.864
-20105.633	    15.552	  -163.136	    97.761
-19960.941	    15.564	  -153.619	    80.273
-20077.043	    15.481	  -144.879	    74.241
-20165.627	    15.435	  -161.948	    93.359
-20353.463	    15.384	  -155.792	    63.350
-19872.461	    15.384	  -147.566	    89.058
-19831.346	    15.451	  -149.737	    64.338
-19844.520	    15.508	  -150.771	    65.826
-20076.775	    15.578	  -145.922	    61.769
-20269.072	    15.594	  -158.465	    52.236
-20128.646	    15.574	  -147.291	    81.470
-20224.496	    15.496	  -159.956	    86.297
-20414.479	    15.261	  -146.963	    75.686
-20225.092	    15.121	  -145.292	    75.717
-20327.523	    15.135	  -158.761	    51.563
-20089.098	    15.279	  -154.582	    58.964
-20152.574	    15.440	  -161.277	    57.697
-20325.584	    15.465	  -146.177	    52.316
-20256.898	    15.575	  -156.859	    96.300
-20171.424	    15.704	  -141.709	    40.441
-20166.982	    15.782	  -174.546	    43.259
-20106.156	    15.805	  -145.863	    40.532
-20305.748	    15.762	  -155.979	    74.118
-20289.051	    15.617	  -127.095	    56.585
-20107.895	    15.373	  -157.331	    46.946
-19951.080	    15.205	  -162.721	    62.437
-20034.510	    15.406	  -159.540	    60.691
-20194.977	    15.677	  -155.864	    62.909
-20060.766	    15.747	  -150.580	    44.856
-20286.625	    15.621	  -166.180	    63.579
-19818.980	    15.453	  -161.757	    71.999
-20123.695	    15.277	  -152.312	    41.079
-20255.471	    15.171	  -162.746	    38.425
-20371.346	    15.002	  -153.106	    64.126
-20264.635	    14.924	  -165.941	    69.577
-20483.900	    14.984	  -155.595	    49.904
-20307.557	    15.217	  -156.548	    80.453
-20110.658	    15.382	  -141.195	    64.004
-20365.414	    15.342	  -142.008	    59.283
-20449.162	    15.190	  -152.119	    52.153
-20022.432	    15.165	  -151.172	    52.102
-20044.533	    15.295	  -160.540	    69.186
-20106.141	    15.354	  -163.925	    71.039
-20083.227	    15.429	  -158.379	    70.295
-20173.631	    15.445	  -160.926	    69.062
-20175.225	    15.446	  -170.158	    87.720
-20333.691	    15.425	  -169.324	    60.453
-20327.000	    15.389	  -150.880	    88.921
-19990.666	    15.404	  -148.207	    97.942
-20468.803	    15.444	  -143.949	    79.156
-20238.598	    15.544	  -140.255	    97.536
-20051.436	    15.605	  -138.574	    58.539
-20200.430	    15.641	  -155.211	    57.691
-20095.836	    15.710	  -151.613	    49.348
-20051.646	    15.666	  -133.304	    74.777
-20129.711	    15.587	  -149.380	    60.650
-20120.676	    15.382	  -136.948	    66.349
-20157.535	    15.254	  -169.935	    61.336
-20408.445	    15.196	  -169.626	    74.128
-20062.553	    15.273	  -140.293	    89.098
-20336.447	    15.236	  -145.281	    67.699
-20127.262	    15.264	  -141.020	    59.132
-20343.717	    15.440	  -174.499	    84.523
-20207.270	    15.559	  -149.638	    65.612
-20412.029	    15.546	  -145.885	    50.095
-20285.580	    15.441	  -163.863	    63.304
-20094.752	    15.313	  -153.880	    79.577
-20278.467	    15.247	  -155.196	    60.796
-20170.920	    15.207	  -154.212	    67.232
-20289.516	    15.267	  -154.344	    93.880
-20167.320	    15.348	  -148.577	    84.265
-20129.242	    15.507	  -157.664	    59.911
-20006.275	    15.846	  -153.178	    89.012
-20096.334	    16.094	  -152.155	    52.219
-19968.922	    16.096	  -156.999	    75.109
-20128.910	    15.934	  -156.103	    41.490
-19982.650	    15.736	  -156.056	    71.325
-19856.152	    15.525	  -152.673	    73.477
-20101.477	    15.311	  -148.295	    43.207
-20404.359	    15.099	  -153.810	    42.055
-20165.350	    15.054	  -171.783	    60.060
-20224.473	    15.190	  -149.737	    50.376
-20062.863	    15.366	  -144.208	    42.641
-20160.443	    15.506	  -151.622	    49.744
-20196.574	    15.547	  -150.666	    65.378
-20039.004	    15.717	  -166.106	    81.093
-19841.936	    15.732	  -151.623	    81.568
-19841.406	    15.588	  -151.465	    79.731
-20068.908	    15.387	  -162.881	    58.918
-20062.223	    15.320	  -154.672	    78.417
-20358.156	    15.242	  -150.006	    89.446
-20059.275	    15.260	  -152.920	    91.843
-20299.756	    15.278	  -150.869	    65.348
-20465.113	    15.227	  -152.295	    81.336
-20116.076	    15.205	  -147.266	    65.560
-20369.104	    15.207	  -148.804	    59.775
-20154.201	    15.352	  -149.507	    73.518
-20200.209	    15.578	  -156.501	    65.521
-19797.883	    15.797	  -135.250	    66.679
-19939.307	    15.923	  -149.219	    84.207
-20020.143	    15.898	  -158.470	    51.552
-20314.223	    15.651	  -161.815	    79.608
-20022.879	    15.389	  -148.686	    64.817
-20192.031	    15.211	  -150.721	    42.709
-19919.236	    15.261	  -163.929	    48.434
-19933.412	    15.445	  -141.647	    61.242
-20233.992	    15.600	  -151.772	    96.483
-19947.967	    15.754	  -152.614	    57.500
-19983.295	    15.823	  -151.978	    49.085
-20184.422	    15.725	  -163.810	    88.781
-19999.105	    15.524	  -155.962	    58.725
-20085.734	    15.443	  -160.341	    66.082
-20246.117	    15.492	  -159.943	    68.310
-20277.107	    15.578	  -151.667	    52.182
-20069.895	    15.569	  -158.436	    75.127
-20101.344	    15.486	  -147.339	    61.799
-20392.941	    15.312	  -155.558	   104.383
-20090.559	    15.230	  -143.986	    69.153
-19971.246	    15.315	  -144.397	    89.022
-20191.783	    15.431	  -147.717	    51.615
-20233.275	    15.493	  -149.769	    70.853
-20087.846	    15.444	  -156.984	    58.858
-20070.268	    15.249	  -147.698	    61.739
-20390.395	    15.037	  -145.449	    47.014
-20368.842	    15.058	  -155.682	    73.173
-20290.229	    15.295	  -150.054	    53.178
-20145.514	    15.587	  -152.983	    79.263
-19820.232	    15.741	  -156.860	    82.686
-19969.494	    15.741	  -163.098	    80.735
-19900.490	    15.613	  -155.785	    78.255
-20049.641	    15.403	  -148.730	    92.269
-20249.875	    15.270	  -143.744	    94.891
-20194.275	    15.299	  -162.416	    78.697
-20336.572	    15.355	  -147.390	    59.393
-20126.471	    15.341	  -148.094	    55.699
-20161.684	    15.348	  -148.444	    51.779
-20111.539	    15.383	  -160.057	    83.533
-20205.488	    15.419	  -159.294	    64.473
-20315.777	    15.420	  -149.916	    52.593
-20207.469	    15.423	  -166.968	    46.732
-20378.576	    15.418	  -156.700	    47.483
-20146.029	    15.394	  -158.925	    47.774
-20317.359	    15.405	  -147.742	    68.749
-19974.885	    15.509	  -161.776	    52.560
-19994.957	    15.567	  -142.299	    60.502
-20173.322	    15.493	  -157.864	    67.205
-20027.357	    15.380	  -159.830	    98.249
-20206.418	    15.375	  -154.513	    71.377
-20301.098	    15.366	  -147.237	    44.313
-20129.150	    15.261	  -153.085	    55.184
-20241.713	    15.272	  -157.157	    67.771
-20076.801	    15.305	  -145.618	    53.897
-20244.094	    15.328	  -148.325	    48.170
-20204.625	    15.316	  -156.554	    61.308
-20237.814	    15.314	  -148.395	    56.338
-20087.373	    15.377	  -147.221	    53.043
-20134.873	    15.566	  -156.541	    42.967
-20237.855	    15.607	  -148.205	    51.484
-20294.824	    15.454	  -146.876	    78.129
-20284.984	    15.327	  -153.260	    66.248
-20141.275	    15.329	  -158.110	    58.294
-20233.418	    15.403	  -159.736	    70.858
-20078.893	    15.493	  -157.332	    43.350
-20078.355	    15.499	  -158.321	    51.769
-20174.139	    15.353	  -133.144	    66.479
-20422.166	    15.245	  -158.413	    76.397
-20374.076	    15.329	  -164.709	    90.632
-20431.324	    15.503	  -160.708	    74.063
-20011.432	    15.694	  -169.099	    85.847
-19907.992	    15.826	  -144.719	    67.524
-19732.924	    15.926	  -152.772	    74.747
-20039.838	    15.875	  -138.584	    59.751
-20198.234	    15.692	  -150.711	    66.141
-20388.832	    15.364	  -154.306	    85.666
-20422.885	    15.060	  -156.307	    77.963
-20130.428	    14.973	  -150.085	    62.070
-20046.201	    15.123	  -161.468	    86.773
-20368.225	    15.348	  -151.736	    92.141
-20072.229	    15.499	  -153.734	    79.180
-19910.295	    15.518	  -142.411	    66.772
-20302.338	    15.456	  -162.126	    46.133
-20280.906	    15.345	  -156.383	    79.149
-20208.963	    15.247	  -148.196	    71.451
-20352.295	    15.210	  -151.517	    85.994
-20370.836	    15.258	  -130.522	    80.401
-20403.789	    15.347	  -146.074	    93.590
-20064.545	    15.575	  -155.053	    58.761
-20085.262	    15.715	  -154.310	    85.919
-20327.141	    15.699	  -151.242	    66.492
-19998.316	    15.511	  -158.599	    86.909
-20362.996	    15.325	  -145.939	    90.019
-20109.182	    15.247	  -159.782	    77.057
-20115.734	    15.433	  -154.806	    90.219
-20062.514	    15.551	  -148.754	    86.044
-20235.438	    15.567	  -154.440	   106.936
-20051.082	    15.515	  -146.988	    73.231
-20410.641	    15.517	  -145.544	    84.101
-20103.104	    15.352	  -155.008	    67.900
-20337.283	    15.062	  -166.715	    72.441
-20326.910	    14.898	  -162.793	    68.753
-19941.488	    15.014	  -160.787	    86.278
-20146.713	    15.177	  -168.237	    95.507
-20208.312	    15.312	  -154.544	    48.243
-20078.604	    15.379	  -147.874	    30.275
-20128.119	    15.353	  -152.591	    52.782
-20176.072	    15.268	  -164.423	    57.204
-20126.387	    15.311	  -147.664	    77.786
-20000.674	    15.374	  -148.405	    61.834
-20081.516	    15.415	  -168.269	    61.805
-20376.150	    15.391	  -161.769	    54.098
-20161.777	    15.310	  -159.451	    69.591
-20098.021	    15.360	  -165.822	    63.800
-20026.229	    15.620	  -147.318	    66.080
-20233.906	    15.784	  -152.808	    58.429
-19943.875	    15.844	  -144.525	    54.509
-20180.805	    15.829	  -155.731	    81.823
-20106.600	    15.736	  -148.349	    65.142
-20265.361	    15.605	  -154.200	    88.098
-20301.307	    15.583	  -143.813	    74.206
-20427.553	    15.601	  -161.389	    66.292
-20090.453	    15.548	  -142.872	    97.958
-20010.426	    15.449	  -146.593	    76.168
-20093.166	    15.301	  -157.041	    53.734
-19672.234	    15.253	  -164.258	   102.569
-20271.154	    15.186	  -152.570	    67.577
-20274.779	    15.284	  -151.003	    53.493
-20133.480	    15.379	  -162.286	    69.924
-20338.287	    15.400	  -157.174	    89.490
-20300.438	    15.314	  -144.518	    63.851
-20136.344	    15.234	  -155.879	    53.068
-20225.232	    15.225	  -163.279	    64.752
-20341.939	    15.208	  -155.063	    63.498
-20187.418	    15.246	  -168.817	    77.607
-20318.783	    15.295	  -163.900	    85.759
-20032.281	    15.320	  -154.901	    72.381
-20062.664	    15.405	  -161.539	    70.994
-20026.377	    15.554	  -160.915	    82.053
-20197.217	    15.517	  -154.754	    79.849
-20112.414	    15.445	  -162.474	    72.468
-20124.371	    15.283	  -146.486	    50.395
-20162.561	    15.127	  -164.040	    36.645
-20147.059	    15.056	  -154.043	    49.304
-19981.914	    15.181	  -169.702	    55.148
-20209.232	    15.425	  -151.474	    71.723
-20074.412	    15.533	  -158.651	    63.727
-19892.186	    15.604	  -146.476	    84.279
-19895.469	    15.669	  -158.864	    77.859
-20086.041	    15.754	  -148.682	    82.969
-19784.412	    15.720	  -144.088	    61.901
-20206.250	    15.567	  -154.157	    77.504
-20238.383	    15.465	  -139.501	    57.755
-20215.551	    15.372	  -151.798	    70.871
-20298.148	    15.258	  -155.212	    42.890
-20313.406	    15.178	  -156.120	    48.793
-20466.311	    15.295	  -160.352	    54.450
-20087.475	    15.443	  -154.815	    60.672
-20034.430	    15.659	  -149.155	    68.811
-20127.180	    15.661	  -145.624	    84.716
-20007.385	    15.598	  -147.256	    66.884
-20359.600	    15.411	  -160.530	    47.035
-20286.842	    15.292	  -158.024	    67.241
-20054.168	    15.281	  -171.408	    73.763
-20009.533	    15.253	  -149.665	    88.653
-19787.834	    15.250	  -152.293	    63.477
-20377.615	    15.276	  -150.368	    62.666
-20406.869	    15.515	  -162.846	    63.595
-20220.039	    15.719	  -157.923	    67.527
-20233.373	    15.771	  -157.924	    77.740
-20165.166	    15.678	  -164.104	    56.399
-20287.252	    15.473	  -152.594	    73.495
-20316.439	    15.375	  -160.843	    68.062
-20106.307	    15.333	  -168.528	    54.556
-20288.982	    15.371	  -150.001	    63.210
-20155.180	    15.415	  -154.737	    76.539
-20311.471	    15.364	  -166.789	    56.914
-20424.707	    15.355	  -153.032	    78.103
-20342.615	    15.356	  -146.935	    46.397
-20087.549	    15.290	  -143.642	    65.687
-20331.633	    15.319	  -162.841	    76.759
-20151.266	    15.487	  -158.310	    57.322
-20155.441	    15.632	  -147.918	    81.672
-20110.059	    15.665	  -173.396	    91.382
-20235.352	    15.509	  -148.846	    74.969
-20254.119	    15.367	  -150.318	    87.175
-20171.529	    15.383	  -161.001	    85.613
-20271.367	    15.462	  -135.124	    57.553
-20380.246	    15.518	  -130.853	    84.535
-20270.168	    15.461	  -162.153	    60.041
-20028.178	    15.563	  -153.716	    58.645
-20177.420	    15.577	  -161.327	    48.318
-20297.824	    15.594	  -148.019	    55.000
-19986.123	    15.628	  -155.058	    55.397
-20255.664	    15.604	  -165.415	    97.668
-20230.400	    15.512	  -164.494	    72.181
-20066.148	    15.388	  -144.477	    79.673
-20335.875	    15.376	  -149.636	    55.997
-20113.059	    15.439	  -154.049	    50.322
-20142.033	    15.478	  -152.698	    55.428
-20331.854	    15.538	  -165.528	    66.026
-20073.766	    15.598	  -165.439	    65.348
-20191.738	    15.690	  -152.601	    72.809
-19903.553	    15.670	  -156.544	    70.695
-20273.539	    15.595	  -148.603	    94.684
-20358.363	    15.479	  -150.567	    87.283
-20356.080	    15.395	  -142.395	    64.176
-20323.709	    15.376	  -159.998	    38.658
-20262.787	    15.391	  -138.692	    44.822
-19991.590	    15.524	  -153.101	    65.039
-19894.598	    15.651	  -149.082	    45.265
-19907.463	    15.689	  -159.385	    60.489
-20178.928	    15.570	  -151.800	    60.812
-20434.746	    15.445	  -163.697	    57.792
-20149.318	    15.465	  -139.388	    59.745
-20273.549	    15.505	  -152.061	    62.712
-20194.975	    15.367	  -144.590	    65.084
-20112.016	    15.231	  -153.159	    46.052
-20303.488	    15.179	  -148.095	    64.273
-20168.414	    15.200	  -159.873	    93.832
-20124.289	    15.251	  -164.725	    75.217
-19942.676	    15.222	  -152.533	    80.251
-20017.080	    15.188	  -153.325	    45.837
-20261.240	    15.169	  -152.787	    38.982
-20259.656	    15.204	  -146.982	    49.829
-20136.248	    15.292	  -153.343	    46.857
-20230.709	    15.378	  -154.835	    39.152
-20359.611	    15.340	  -167.754	    46.444
-20371.289	    15.389	  -147.561	    58.787
