-19777.299	    15.334	   -92.310	   122.143
-20016.125	    15.366	    47.619	  -172.372
-20200.523	    15.326	    55.899	  -146.105
-20240.051	    15.305	    55.606	  -145.313
-20042.727	    15.268	    57.096	   -95.050
-19973.033	    15.394	    50.367	  -116.556
-20081.727	    15.601	    57.715	  -108.291
-19945.527	    15.785	    55.067	  -116.510
-20080.799	    15.885	    62.834	  -109.015
-19976.266	    15.762	    68.403	  -105.392
-20166.398	    15.482	    56.791	  -125.535
-20217.182	    15.166	    47.661	  -113.440
-20509.346	    15.117	    50.820	  -113.179
-19786.311	    15.455	    54.622	  -115.418
-20261.527	    15.781	    72.769	  -104.953
-20132.885	    15.895	    71.724	  -115.724
-19978.471	    15.692	    63.742	  -109.157
-20294.170	    15.323	    48.853	  -113.774
-20314.328	    15.172	    53.861	  -110.617
-20334.967	    15.302	    61.183	  -110.225
-20088.938	    15.453	    72.457	  -119.851
-20040.305	    15.514	    37.949	  -120.438
-20035.549	    15.575	    70.160	  -113.269
-20297.104	    15.630	    65.256	  -137.853
-20093.652	    15.545	    59.931	  -100.515
-20059.453	    15.396	    61.029	  -119.222
-20262.156	    15.193	    60.186	  -124.842
-20407.676	    14.976	    59.459	  -125.221
-20106.783	    14.914	    67.024	  -124.197
-20204.602	    15.093	    57.653	  -143.196
-20090.146	    15.411	    67.420	  -131.727
-20096.930	    15.660	    61.808	  -138.401
-19964.475	    15.745	    59.943	  -105.855
-20141.080	    15.642	    54.797	  -121.839
-20185.551	    15.481	    62.732	  -137.154
-20460.178	    15.258	    56.383	  -133.402
-20392.488	    15.112	    46.495	  -129.194
-20155.617	    15.125	    63.624	   -86.947
-20089.865	    15.227	    61.643	  -102.354
-20056.193	    15.419	    67.066	  -119.553
-19926.189	    15.638	    50.489	  -127.260
-19980.248	    15.645	    44.517	  -119.539
-20081.895	    15.497	    64.021	  -129.049
-20178.613	    15.338	    52.576	  -118.567
-20321.859	    15.307	    57.114	  -110.215
-20197.025	    15.376	    53.545	   -92.364
-20118.516	    15.487	    52.563	  -110.033
-19919.346	    15.650	    50.026	  -125.659
-20076.592	    15.795	    57.803	  -111.941
-20140.400	    15.923	    53.012	  -114.336
-19772.572	    15.870	    50.982	  -125.025
-20053.166	    15.601	    70.550	  -133.241
-20240.869	    15.401	    51.811	  -100.157
-20131.455	    15.307	    62.091	  -100.017
-20410.742	    15.257	    55.991	  -102.598
-20154.904	    15.171	    59.107	   -73.312
-20356.025	    15.226	    61.943	   -98.004
-20074.838	    15.453	    59.686	   -88.794
-20021.283	    15.375	    59.632	  -111.963
-20231.381	    15.219	    56.555	  -134.515
-20239.430	    15.157	    41.563	  -121.469
-20131.451	    15.185	    62.756	  -116.712
-20141.691	    15.339	    61.655	   -95.960
-20260.082	    15.542	    40.961	  -114.752
-20227.139	    15.682	    63.225	  -128.535
-20146.428	    15.668	    49.660	  -115.295
-20001.586	    15.502	    63.656	   -92.846
-20213.732	    15.327	    47.786	  -112.704
-20218.785	    15.182	    50.363	  -117.115
-20243.602	    15.310	    64.951	  -124.621
-19868.395	    15.500	    50.524	  -118.762
-19993.223	    15.600	    45.475	  -126.091
-20094.115	    15.627	    58.036	   -99.870
-20264.396	    15.489	    58.452	  -119.227
-20265.023	    15.278	    49.100	  -103.031
-20283.555	    15.058	    49.328	  -119.943
-20352.477	    15.048	    54.869	  -103.985
-20364.822	    15.266	    60.465	  -101.838
-20289.992	    15.483	    54.375	  -133.412
-20105.514	    15.666	    62.278	   -92.232
-20107.918	    15.671	    58.421	  -118.688
-19914.109	    15.649	    63.698	  -118.291
-20267.213	    15.637	    62.390	  -110.805
-20184.141	    15.675	    51.847	  -114.697
-20177.289	    15.692	    65.526	  -117.763
-20112.396	    15.532	    58.913	  -120.218
-20420.174	    15.467	    38.237	  -111.534
-20112.914	    15.396	    47.821	  -117.619
-20305.277	    15.375	    45.500	  -112.684
-20197.369	    15.500	    63.145	  -113.064
-19971.924	    15.599	    59.079	  -111.838
-19907.762	    15.628	    48.256	  -126.643
-19991.211	    15.573	    52.022	   -92.518
-20074.439	    15.529	    53.816	   -86.593
-19883.438	    15.472	    44.388	  -127.068
-19879.330	    15.484	    52.900	  -126.240
-20136.855	    15.417	    34.980	  -108.186
-19973.189	    15.351	    35.924	  -118.438
-19925.189	    15.254	    51.131	  -144.961
-20263.387	    15.231	    55.641	  -112.439
-20034.084	    15.357	    57.278	  -122.420
-20142.717	    15.529	    51.844	  -120.232
-20091.299	    15.761	    53.304	   -93.860
-19977.561	    15.749	    64.883	  -112.896
-20001.533	    15.587	    57.888	   -83.165
-20151.391	    15.465	    57.666	  -103.695
-20266.594	    15.334	    52.881	  -120.474
-19992.857	    15.199	    61.310	  -141.191
-20256.127	    15.225	    53.797	  -113.575
-20134.922	    15.405	    47.745	  -136.590
-20167.613	    15.465	    48.534	  -117.275
-20293.180	    15.574	    50.149	  -101.705
-20301.770	    15.656	    52.170	  -125.514
-20215.924	    15.558	    53.914	  -115.378
-20009.010	    15.427	    51.892	  -124.817
-20086.320	    15.315	    53.355	  -131.278
-20216.010	    15.218	    41.756	  -104.071
-20306.674	    15.194	    52.748	  -109.912
-20269.016	    15.434	    61.950	  -129.643
-20153.564	    15.717	    62.408	  -121.645
-19944.123	    15.918	    47.297	  -142.675
-19690.846	    15.996	    57.100	  -152.252
-20192.186	    15.817	    57.095	  -122.799
-20370.295	    15.550	    48.780	  -118.031
-19882.031	    15.230	    62.374	  -132.680
-20581.496	    15.024	    65.656	  -112.563
-20138.033	    14.972	    61.770	   -87.631
-20161.576	    15.163	    65.655	   -76.075
-20192.779	    15.473	    61.724	   -80.465
-20208.732	    15.401	    65.407	   -76.664
-20329.641	    15.142	    52.820	  -108.619
-20351.432	    15.033	    46.780	  -121.775
-20229.090	    15.182	    50.567	  -121.106
-20257.547	    15.366	    60.961	  -125.246
-19986.922	    15.481	    59.849	  -117.416
-20028.412	    15.420	    57.906	  -136.882
-20233.543	    15.358	    58.711	  -138.603
-20353.668	    15.327	    58.189	  -137.956
-20151.637	    15.435	    49.792	  -138.955
-19843.703	    15.603	    43.965	  -115.642
-19978.475	    15.732	    54.611	  -116.843
-19872.082	    15.709	    48.761	  -107.983
-20327.562	    15.451	    55.731	  -114.516
-20297.096	    15.229	    48.483	  -104.417
-20186.314	    15.223	    62.247	  -110.335
-20307.670	    15.282	    58.261	  -105.195
-20221.816	    15.343	    51.898	  -119.568
-19943.447	    15.436	    67.019	  -117.674
-20083.293	    15.478	    55.594	  -121.036
-20077.723	    15.421	    60.892	   -89.906
-20350.211	    15.436	    49.632	  -111.635
-20118.658	    15.513	    47.465	  -115.387
-20280.881	    15.489	    56.732	  -126.385
-19999.506	    15.371	    60.150	  -137.142
-20365.629	    15.300	    43.132	  -115.591
-20091.000	    15.286	    52.420	  -121.025
-20334.512	    15.322	    63.140	  -126.467
-20026.707	    15.388	    58.676	  -126.558
-20091.902	    15.417	    56.496	  -114.482
-20413.164	    15.516	    45.484	  -121.210
-20229.738	    15.609	    65.411	  -108.408
-20043.678	    15.665	    70.494	  -116.241
-20194.820	    15.664	    63.752	   -83.096
-20053.129	    15.732	    69.423	  -103.406
-20260.676	    15.678	    52.666	  -139.530
-20449.180	    15.549	    54.523	  -102.983
-20293.234	    15.436	    61.821	  -113.140
-20457.428	    15.465	    57.331	  -141.359
-20120.047	    15.534	    59.039	  -133.237
-20136.639	    15.459	    62.357	  -107.190
-20262.848	    15.506	    67.759	  -118.986
-20194.447	    15.670	    59.898	   -88.032
-20382.367	    15.653	    56.573	  -111.803
-20080.918	    15.587	    43.317	  -108.517
-20304.654	    15.518	    52.755	   -95.768
-20260.309	    15.300	    57.206	  -118.475
-20127.635	    15.121	    47.293	  -104.253
-20284.172	    15.112	    62.923	  -104.348
-19912.594	    15.208	    67.181	   -90.165
-20156.494	    15.333	    52.775	   -95.942
-20008.465	    15.556	    72.394	  -115.992
-19964.963	    15.828	    46.284	  -105.530
-20093.662	    15.840	    65.946	  -118.239
-20196.617	    15.476	    67.294	  -111.563
-20257.639	    15.156	    54.980	  -103.486
-20282.322	    15.172	    51.174	  -107.378
-20273.453	    15.348	    64.731	  -110.032
-20285.938	    15.533	    51.202	  -126.550
-19970.295	    15.762	    62.749	  -125.620
-20122.336	    15.680	    58.146	   -92.878
-19981.062	    15.516	    63.037	   -66.739
-20133.557	    15.427	    56.143	   -80.179
-20196.133	    15.518	    68.139	  -133.080
-20038.301	    15.534	    60.181	  -110.793
-20246.650	    15.479	    60.408	   -90.196
-20006.846	    15.418	    67.738	  -130.100
-20167.863	    15.299	    74.589	  -111.015
-20531.508	    15.299	    63.623	  -106.220
-20239.869	    15.464	    55.997	  -125.962
-20172.172	    15.511	    59.103	  -127.383
-20289.043	    15.572	    43.423	  -112.338
-20103.045	    15.623	    71.104	  -110.451
-19999.094	    15.678	    55.010	  -120.024
-20058.904	    15.652	    40.189	  -125.950
-20238.277	    15.585	    63.035	  -111.372
-20214.496	    15.514	    47.474	  -137.863
-20202.479	    15.385	    57.264	   -92.173
-20330.080	    15.240	    46.601	  -116.854
-20387.670	    15.300	    65.933	  -128.713
-20132.975	    15.316	    51.595	  -134.036
-20445.383	    15.303	    70.218	  -119.373
-20201.336	    15.417	    53.988	   -96.025
-19841.988	    15.551	    60.352	  -101.302
-20051.635	    15.471	    59.614	  -102.077
-20051.014	    15.293	    65.506	  -118.796
-20335.754	    15.194	    61.508	   -98.013
-20172.432	    15.258	    56.326	  -107.921
-19997.764	    15.318	    65.871	  -109.335
-20255.137	    15.366	    50.817	  -124.022
-19954.611	    15.454	    54.801	  -114.289
-19858.598	    15.539	    54.511	   -96.712
-20396.682	    15.522	    62.873	  -104.757
-20154.727	    15.452	    54.471	  -121.871
-20198.543	    15.407	    54.278	  -115.100
-20090.631	    15.375	    57.976	  -112.769
-20112.707	    15.334	    62.949	   -80.130
-20021.084	    15.252	    63.227	  -105.620
-20188.076	    15.232	    70.840	  -102.457
-20419.977	    15.442	    61.416	  -103.233
-20001.668	    15.649	    63.363	  -131.418
-19998.457	    15.664	    63.498	   -97.969
-20169.770	    15.577	    68.213	  -115.595
-20031.031	    15.426	    54.635	  -137.835
-20211.047	    15.383	    57.519	  -107.491
-20254.523	    15.450	    60.831	  -126.097
-20209.959	    15.454	    45.985	  -107.876
-20294.109	    15.389	    60.020	  -113.623
-20232.035	    15.313	    67.084	  -121.385
-20185.014	    15.263	    53.566	  -117.575
-20259.758	    15.333	    51.961	  -108.843
-19923.881	    15.366	    51.831	  -120.263
-20021.305	    15.361	    45.930	  -137.792
-20182.104	    15.303	    51.501	  -107.084
-20466.498	    15.291	    59.808	  -122.667
-20218.117	    15.305	    58.057	  -106.425
-20067.781	    15.362	    50.005	  -114.008
-20160.500	    15.427	    60.076	  -130.020
-20204.021	    15.355	    58.396	   -73.121
-20201.164	    15.286	    65.190	  -125.830
-20181.826	    15.306	    38.829	  -123.300
-20149.174	    15.241	    45.186	  -131.967
-20027.158	    15.390	    48.043	  -113.597
-20334.908	    15.559	    56.270	  -138.997
-19876.088	    15.638	    48.733	  -118.026
-19921.305	    15.623	    60.289	  -110.946
-20260.414	    15.575	    57.187	  -100.724
-20096.037	    15.574	    53.840	  -120.404
-19968.688	    15.564	    58.199	  -105.849
-19860.088	    15.545	    54.234	   -99.271
-20210.395	    15.529	    50.264	  -127.229
-20044.740	    15.506	    45.969	  -117.134
-20022.879	    15.498	    60.548	  -131.988
-20316.400	    15.429	    60.527	  -103.767
-20390.570	    15.296	    54.923	  -116.648
-20176.209	    15.154	    57.885	  -110.950
-20068.871	    15.026	    44.679	  -109.656
-20281.209	    15.020	    54.877	   -98.454
-19963.043	    15.200	    61.223	  -113.656
-20042.377	    15.447	    47.473	  -121.142
-20106.629	    15.677	    62.274	   -95.798
-20172.656	    15.745	    59.891	   -91.351
-20100.107	    15.734	    61.799	   -87.650
-20217.379	    15.676	    53.334	  -124.273
-20166.816	    15.514	    58.359	  -113.581
-20293.227	    15.362	    55.186	   -93.181
-20169.230	    15.293	    62.287	  -111.186
-20213.400	    15.281	    65.207	  -114.184
-19997.789	    15.330	    49.330	  -107.218
-20146.881	    15.339	    61.929	   -98.522
-20150.256	    15.349	    59.075	   -97.328
-20163.299	    15.282	    41.848	  -126.342
-20180.545	    15.119	    60.770	  -122.861
-20027.627	    15.148	    73.790	  -133.565
-20176.902	    15.221	    55.417	   -86.376
-20191.852	    15.325	    54.533	   -94.696
-20054.492	    15.448	    68.458	   -87.476
-19940.564	    15.620	    60.640	   -98.194
-19850.852	    15.696	    68.355	  -127.811
-20188.768	    15.646	    67.259	  -117.215
-19950.113	    15.462	    46.946	  -127.795
-20150.410	    15.348	    55.564	  -132.437
-20225.379	    15.465	    54.472	  -125.144
-20187.145	    15.644	    59.629	  -121.172
-20016.715	    15.739	    58.610	  -117.969
-20198.643	    15.551	    47.107	  -101.817
-19957.029	    15.253	    56.444	  -102.484
-19964.387	    15.044	    68.943	  -114.906
-20087.834	    15.050	    48.923	  -107.532
-20387.672	    15.216	    73.081	  -128.788
-20288.955	    15.354	    44.488	  -121.002
-20451.912	    15.551	    47.503	  -115.569
-20203.529	    15.709	    68.205	  -113.192
-20241.912	    15.722	    54.248	  -114.186
-20405.611	    15.642	    61.262	   -97.776
-20241.963	    15.525	    58.808	  -107.739
-20381.510	    15.472	    51.279	  -105.182
-20181.340	    15.429	    47.942	  -121.321
-20070.871	    15.351	    74.470	   -88.215
-20262.480	    15.299	    46.245	  -108.393
-20233.178	    15.282	    57.370	  -136.880
-20077.330	    15.267	    58.673	  -127.454
-20086.438	    15.373	    44.766	  -118.040
-19916.002	    15.541	    57.427	  -142.662
-20209.699	    15.650	    59.190	  -100.841
-20234.340	    15.619	    52.821	  -113.409
-20097.141	    15.538	    63.902	  -103.467
-19996.521	    15.539	    60.750	  -117.947
-19808.562	    15.535	    62.296	  -124.450
-19843.543	    15.642	    49.851	  -103.487
-19959.307	    15.591	    63.119	   -98.933
-20306.461	    15.525	    50.783	   -81.768
-19875.623	    15.405	    60.935	  -103.596
-20232.336	    15.312	    63.026	  -120.252
-20465.596	    15.211	    53.097	  -132.306
-20306.816	    15.309	    71.829	  -116.592
-20263.096	    15.509	    58.396	  -112.378
-20112.383	    15.620	    60.296	  -128.463
-20133.494	    15.582	    57.799	  -112.831
-20149.965	    15.482	    54.725	  -125.424
-20310.004	    15.441	    47.169	  -100.846
-20104.398	    15.508	    63.903	   -99.587
-20106.707	    15.589	    47.770	  -120.437
-19918.635	    15.690	    49.318	  -107.956
-20067.467	    15.785	    50.599	  -106.373
-20227.748	    15.679	    58.376	  -111.270
-20012.053	    15.571	    65.867	  -100.652
-20267.299	    15.415	    50.611	  -124.687
-20116.283	    15.261	    56.443	  -115.860
-20385.322	    15.223	    59.218	  -131.698
-20263.707	    15.398	    64.574	  -109.390
-20207.959	    15.619	    52.763	  -129.439
-20324.559	    15.662	    50.722	  -134.160
-20206.895	    15.533	    67.547	   -97.905
-20152.430	    15.441	    46.278	  -102.804
-19985.697	    15.324	    56.123	  -100.886
-19933.070	    15.278	    57.382	  -100.399
-20046.666	    15.343	    72.163	   -89.818
-20006.414	    15.509	    54.732	  -107.351
-19993.193	    15.529	    58.618	  -108.769
-20201.215	    15.493	    49.954	  -113.041
-19980.660	    15.558	    57.843	  -124.530
-19988.332	    15.656	    68.317	   -97.496
-19989.771	    15.709	    58.399	  -114.532
-20183.504	    15.738	    55.885	  -109.761
-20120.703	    15.607	    63.071	  -114.202
-20061.211	    15.389	    73.300	  -106.705
-20243.188	    15.184	    62.396	  -112.318
-20322.795	    15.052	    52.659	  -119.845
-20104.299	    15.115	    56.232	  -122.509
-20188.160	    15.244	    50.235	  -124.677
-20320.223	    15.369	    70.660	  -124.062
-20031.002	    15.554	    58.541	   -87.529
-20148.328	    15.674	    61.511	   -94.136
-20107.244	    15.685	    61.825	  -116.903
-19857.359	    15.775	    70.081	  -121.791
-19903.027	    15.803	    54.230	  -100.764
-20307.287	    15.640	    40.004	  -109.726
-20270.152	    15.442	    63.263	  -124.441
-20345.182	    15.316	    53.532	  -112.934
-20093.637	    15.320	    54.416	  -113.952
-20247.482	    15.364	    42.835	  -113.806
-20048.393	    15.447	    63.849	  -127.260
-20157.992	    15.391	    60.641	  -108.024
-20230.631	    15.386	    51.344	  -105.951
-20142.041	    15.529	    48.613	  -114.555
-19983.225	    15.623	    53.087	   -98.391
-20012.887	    15.660	    54.829	  -114.924
-20310.270	    15.606	    61.760	  -120.775
-20035.541	    15.534	    58.221	  -117.371
-19865.992	    15.354	    60.437	  -104.900
-20254.432	    15.270	    51.868	  -105.195
-20184.365	    15.354	    65.271	  -118.707
-20198.990	    15.477	    60.130	  -105.185
-20134.371	    15.680	    47.619	  -128.093
-20129.883	    15.901	    62.731	   -80.943
-19937.121	    15.886	    65.024	  -117.596
-19992.084	    15.713	    51.349	  -103.445
-20098.512	    15.610	    70.232	  -113.979
-20101.420	    15.455	    56.656	  -101.545
-20231.963	    15.207	    47.977	  -106.993
-20530.387	    15.105	    65.020	   -89.882
-20307.092	    15.188	    63.127	  -111.274
-20157.309	    15.390	    46.137	  -130.441
-20135.500	    15.559	    60.919	  -120.755
-20082.381	    15.600	    62.807	  -138.079
-20077.088	    15.474	    58.944	  -110.141
-20365.098	    15.282	    44.784	   -99.377
-20349.143	    15.060	    53.261	   -97.119
-20271.455	    15.143	    57.593	   -81.838
-20144.164	    15.106	    57.482	   -99.405
-20421.512	    15.191	    43.525	  -123.688
-20440.619	    15.360	    55.930	  -124.810
-19933.988	    15.441	    53.439	   -90.079
-19908.525	    15.471	    43.169	   -86.941
-20124.244	    15.537	    54.485	   -80.441
-20204.203	    15.607	    51.179	   -96.052
-20182.223	    15.571	    69.856	   -99.605
-20134.881	    15.496	    53.597	   -96.094
-20151.053	    15.363	    60.497	  -110.102
-20279.404	    15.210	    57.570	  -107.568
-20374.109	    15.165	    47.833	  -120.039
-20288.697	    15.221	    50.695	  -144.194
-20038.852	    15.296	    46.668	  -110.847
-20225.600	    15.326	    60.912	  -105.993
-20236.859	    15.358	    64.504	  -115.510
-20167.414	    15.438	    63.380	   -85.908
-19918.578	    15.528	    68.226	  -106.043
-20073.648	    15.610	    54.593	  -114.653
-19891.748	    15.653	    64.168	  -123.758
-20234.928	    15.562	    53.213	   -81.831
-20111.816	    15.519	    67.362	  -105.854
-20223.023	    15.431	    56.730	  -109.484
-20279.787	    15.270	    62.402	  -106.857
-20213.141	    15.296	    53.912	  -109.431
-20244.443	    15.452	    47.206	  -125.649
-20299.836	    15.425	    56.310	  -119.400
-20473.840	    15.328	    59.229	  -112.563
-20142.582	    15.369	    49.320	  -133.338
-20115.035	    15.345	    65.049	  -125.917
-19898.852	    15.288	    65.612	   -88.839
-20528.150	    15.095	    57.055	  -106.661
-19995.053	    15.060	    60.119	  -108.383
-20176.348	    15.233	    51.457	   -89.154
-19981.271	    15.428	    56.378	  -114.460
-20201.707	    15.550	    59.942	  -117.490
-19981.912	    15.566	    56.438	  -140.668
-20174.221	    15.404	    48.635	  -118.429
-20151.318	    15.216	    63.713	  -140.764
-20144.812	    15.192	    52.466	  -129.504
-20257.936	    15.210	    54.943	  -103.129
-20160.902	    15.196	    54.980	  -126.763
-20111.623	    15.278	    55.705	  -112.238
-20203.932	    15.507	    64.232	   -98.516
-19982.672	    15.619	    64.795	   -95.293
-20048.520	    15.577	    49.269	  -109.813
-20243.172	    15.388	    56.439	  -123.218
-20273.152	    15.213	    53.144	  -110.212
-20089.467	    15.337	    54.969	  -105.009
-20153.881	    15.546	    50.055	  -114.893
-20050.582	    15.695	    48.831	  -122.952
-19870.189	    15.649	    67.778	  -130.886
-20369.229	    15.455	    51.041	  -108.433
-20381.678	    15.289	    51.063	  -110.313
-20122.666	    15.282	    60.065	   -91.084
-20194.047	    15.304	    61.723	  -114.489
-20240.508	    15.320	    51.500	  -123.382
-20044.490	    15.270	    59.329	  -109.452
-20434.576	    15.217	    48.545	  -123.669
-20118.953	    15.325	    52.441	  -112.535
-20125.078	    15.550	    60.756	  -106.777
-20280.641	    15.647	    58.253	  -114.833
-20104.186	    15.650	    52.698	  -107.143
-20198.922	    15.443	    55.121	  -132.970
-20346.234	    15.233	    50.387	  -126.251
-20184.562	    15.117	    61.620	  -114.180
-20283.674	    15.175	    72.183	  -107.654
-20291.482	    15.318	    72.946	   -76.147
-20003.152	    15.459	    52.480	   -77.471
-20013.004	    15.464	    67.635	   -97.818
-20179.662	    15.325	    63.387	  -112.620
-20361.285	    15.227	    60.205	  -133.690
-20297.033	    15.338	    69.685	  -150.422
-19997.070	    15.586	    61.369	  -135.739
-19943.262	    15.596	    60.457	  -120.749
-19998.699	    15.286	    51.242	  -119.822
-20279.014	    15.083	    58.935	  -109.566
-20410.658	    15.144	    61.542	  -117.025
-20313.961	    15.224	    70.225	   -99.172
-20014.289	    15.234	    42.974	  -111.691
-20426.453	    15.274	    50.143	  -116.117
-20040.049	    15.314	    54.267	  -100.141
-20234.678	    15.466	    54.476	   -98.626
-20216.648	    15.444	    56.517	  -112.751
-20276.357	    15.323	    53.337	  -102.529
-19931.904	    15.284	    50.824	  -116.862
-20150.289	    15.263	    52.642	  -114.095
-20112.830	    15.220	    57.477	  -121.309
-20170.594	    15.139	    48.486	  -133.587
-20221.641	    15.239	    62.024	  -121.580
-20369.379	    15.352	    67.421	  -110.488
-20165.275	    15.509	    61.028	  -117.984
-20166.719	    15.526	    60.593	  -107.904
-19828.883	    15.494	    72.204	  -108.886
-20285.074	    15.492	    60.414	   -98.934
-20277.791	    15.457	    49.766	  -107.411
-20114.873	    15.416	    51.676	  -107.817
-20116.979	    15.360	    61.019	  -101.986
-20224.012	    15.373	    62.562	  -108.398
-20121.945	    15.494	    59.172	  -103.688
-20165.285	    15.610	    52.330	  -127.226
-20273.281	    15.600	    53.149	  -106.712
-20001.742	    15.376	    69.853	  -115.704
-20253.471	    15.215	    54.749	  -109.558
-20274.797	    15.181	    49.221	  -121.694
-20398.068	    15.313	    58.682	   -98.847
-20286.467	    15.511	    54.371	   -99.137
-20166.627	    15.666	    62.163	  -111.599
-20173.406	    15.703	    50.744	   -87.076
-20150.404	    15.563	    61.169	  -118.911
-20225.223	    15.510	    50.162	   -91.781
-20170.482	    15.482	    66.356	   -96.774
-20295.998	    15.497	    48.915	  -126.607
-20021.541	    15.441	    52.940	   -97.787
-19892.232	    15.356	    57.906	  -106.709
-20376.297	    15.261	    51.463	  -104.486
-20235.635	    15.240	    64.588	   -99.127
-20190.012	    15.225	    48.458	   -93.153
-20009.006	    15.259	    50.990	  -104.758
-20105.023	    15.481	    57.225	  -127.074
-20337.242	    15.590	    58.238	  -116.863
-20154.232	    15.547	    59.513	  -122.151
-20132.752	    15.552	    53.168	   -99.985
-20253.199	    15.360	    68.092	  -104.514
-20109.221	    15.267	    55.879	  -116.755
-20064.219	    15.291	    55.565	  -104.338
-20071.162	    15.430	    45.704	   -99.619
-19848.516	    15.489	    48.691	  -104.840
-20189.963	    15.410	    50.910	   -99.984
-20390.334	    15.329	    63.626	  -120.358
-20189.080	    15.354	    58.983	  -101.551
-20077.365	    15.588	    44.493	  -112.875
-20095.193	    15.752	    62.145	   -97.471
-20093.756	    15.782	    54.636	  -132.343
-20183.965	    15.628	    56.750	  -116.203
-20311.506	    15.488	    61.989	  -104.452
-20002.471	    15.482	    55.319	  -100.720
-20276.943	    15.510	    61.734	   -78.325
-20229.953	    15.454	    52.318	  -117.416
-20284.900	    15.543	    63.375	  -120.266
-20102.299	    15.509	    54.374	  -106.070
-20151.924	    15.251	    49.910	  -115.250
-20250.420	    15.046	    55.099	   -98.581
-20284.314	    15.172	    59.768	  -125.949
-20200.682	    15.391	    67.497	  -122.472
-20282.482	    15.473	    56.993	  -122.367
-20153.254	    15.658	    58.675	  -122.692
-20243.496	    15.828	    59.968	   -99.589
-20045.750	    15.916	    64.387	  -106.857
-20102.143	    15.798	    53.564	  -120.864
-20442.283	    15.601	    52.209	  -109.966
-20242.514	    15.450	    62.776	  -111.078
-20249.883	    15.390	    54.621	  -126.338
-20137.842	    15.562	    47.050	  -118.597
-20013.746	    15.796	    66.759	  -101.648
-20157.822	    15.843	    50.844	  -114.165
-20242.895	    15.717	    63.990	  -112.319
-20183.502	    15.425	    64.351	  -105.523
-20373.908	    15.238	    49.186	  -121.156
-20370.346	    15.422	    45.156	  -121.956
-20019.504	    15.618	    51.803	  -115.390
-20212.229	    15.575	    44.203	  -103.803
-20009.938	    15.558	    59.240	  -112.046
-20266.090	    15.512	    39.606	  -106.311
-20035.973	    15.408	    67.652	  -100.483
-20312.531	    15.341	    58.633	  -122.360
-20095.664	    15.443	    59.122	  -137.576
-20026.418	    15.607	    69.550	  -131.518
-20105.891	    15.593	    56.230	  -125.557
-20021.096	    15.627	    58.886	  -106.876
-19958.367	    15.625	    52.458	  -121.448
-20120.600	    15.527	    51.586	  -119.290
-19801.504	    15.424	    62.573	  -101.274
-20408.469	    15.254	    52.349	  -112.541
-20297.107	    15.078	    69.697	  -153.580
-20113.162	    15.121	    47.703	  -118.132
-20062.754	    15.346	    56.080	  -126.179
-19986.793	    15.575	    52.496	  -127.833
-19814.998	    15.690	    54.212	  -117.008
-20147.850	    15.535	    64.394	  -116.913
-19927.537	    15.151	    57.072	  -124.299
-20169.836	    14.902	    50.971	  -124.526
-20143.861	    15.004	    50.606	  -112.789
-20070.816	    15.436	    53.609	  -110.788
-20383.705	    15.713	    42.383	  -121.828
-19939.752	    15.736	    51.894	  -136.303
-20260.811	    15.497	    67.715	   -94.980
-20081.889	    15.270	    61.416	  -102.446
-20212.051	    15.200	    61.249	  -107.446
-20176.912	    15.253	    61.872	  -105.915
-20025.873	    15.289	    54.284	  -109.419
-20115.477	    15.318	    55.717	   -91.658
-20262.436	    15.424	    54.132	  -126.783
-20049.971	    15.596	    65.234	  -105.234
-20379.822	    15.625	    50.680	  -100.158
-20083.324	    15.602	    52.958	  -114.643
-20227.051	    15.458	    43.050	  -131.674
-20428.518	    15.310	    44.464	  -125.298
-20343.346	    15.234	    49.580	  -135.427
-20235.764	    15.272	    51.611	  -139.764
-20231.666	    15.371	    39.395	  -118.017
-20195.268	    15.532	    53.631	  -111.748
-20185.963	    15.630	    47.075	  -100.503
-20193.574	    15.609	    65.819	  -103.997
-20084.434	    15.458	    53.185	  -119.203
-20468.453	    15.364	    53.707	  -110.513
-20181.316	    15.386	    47.559	  -118.779
-20241.873	    15.267	    65.597	  -110.741
-20215.543	    15.145	    58.001	  -117.104
-20257.104	    15.213	    59.472	  -127.412
-20271.086	    15.486	    52.567	  -124.860
-20002.119	    15.775	    59.141	  -110.815
-20146.445	    15.758	    45.180	  -115.874
-20269.408	    15.398	    55.456	  -133.590
-20398.441	    15.061	    68.625	  -126.140
-20061.893	    15.005	    51.735	  -101.891
-20119.533	    15.164	    56.576	  -122.965
-20178.355	    15.460	    50.483	  -112.622
-19823.852	    15.564	    55.271	  -116.640
-20311.256	    15.598	    62.965	  -119.514
-20327.807	    15.615	    49.503	  -108.737
-19865.279	    15.516	    64.146	  -103.139
-20353.850	    15.340	    54.424	  -112.013
-20098.477	    15.273	    42.626	  -103.333
-20142.031	    15.226	    50.378	  -103.912
-20002.965	    15.255	    60.743	  -118.052
-20184.953	    15.322	    68.394	  -142.258
-20143.795	    15.480	    60.290	  -116.550
-20181.588	    15.648	    61.973	  -137.157
-20359.215	    15.742	    49.801	  -131.710
-20281.891	    15.736	    61.670	  -132.432
-20022.729	    15.648	    70.502	  -116.381
-20005.990	    15.601	    61.319	   -96.978
-20262.223	    15.461	    55.760	  -112.255
-20310.250	    15.332	    53.066	  -104.296
-20093.277	    15.283	    56.537	  -147.976
-20047.426	    15.359	    45.421	  -122.671
-20209.674	    15.408	    62.281	  -120.575
-20320.146	    15.432	    69.760	  -122.642
-19894.650	    15.468	    60.899	  -108.178
-20212.516	    15.504	    56.515	  -109.828
-20298.994	    15.429	    55.283	   -98.935
-20105.840	    15.506	    58.077	  -114.224
-20287.082	    15.615	    55.703	  -113.248
-20241.289	    15.642	    52.597	  -117.398
-20449.768	    15.578	    64.675	   -93.666
-20292.467	    15.510	    50.357	  -126.623
-20172.180	    15.413	    54.174	  -134.095
-20115.607	    15.224	    61.096	  -110.448
-20303.215	    15.235	    50.485	  -121.347
-20227.002	    15.341	    40.018	  -122.283
-20419.369	    15.323	    51.286	  -136.322
-20142.162	    15.376	    47.388	  -118.546
-20153.982	    15.510	    51.176	  -115.042
-19889.230	    15.605	    68.644	  -117.069
-20232.635	    15.507	    66.026	  -115.154
-20351.531	    15.398	    57.275	  -111.645
-20186.307	    15.339	    46.289	  -113.338
-20126.525	    15.311	    61.228	  -124.918
-19970.297	    15.240	    47.181	  -126.170
-20166.699	    15.309	    55.383	   -98.453
-20038.119	    15.389	    53.140	  -122.171
-20093.779	    15.388	    65.830	  -128.584
-20184.898	    15.336	    57.416	  -129.727
-20334.783	    15.257	    57.626	   -94.628
-20370.051	    15.266	    51.046	  -100.138
-20185.262	    15.352	    62.050	  -101.447
-20094.736	    15.493	    59.040	   -97.376
-20169.111	    15.565	    41.294	  -105.910
-20172.906	    15.511	    52.241	  -122.641
-19966.275	    15.431	    42.723	   -94.443
-19935.410	    15.374	    58.877	  -123.985
-20257.699	    15.326	    37.734	  -110.998
-20392.898	    15.390	    56.395	   -98.512
-20416.691	    15.477	    54.260	  -104.311
-19935.594	    15.562	    56.039	  -102.340
-20058.596	    15.626	    55.348	   -68.781
-19973.656	    15.595	    54.624	   -99.110
-20154.609	    15.405	    58.123	  -113.582
-20250.336	    15.337	    51.732	  -108.151
-20291.633	    15.309	    61.523	  -124.012
-20071.873	    15.281	    47.218	  -107.860
-20120.314	    15.273	    55.240	  -102.564
-20195.201	    15.308	    59.204	  -114.519
-20176.299	    15.377	    53.263	  -118.320
-19987.955	    15.376	    63.237	   -89.591
-20343.596	    15.350	    74.004	   -97.307
-20057.451	    15.308	    58.918	  -134.647
-20097.732	    15.122	    42.993	  -137.046
-20258.361	    15.086	    63.950	  -114.771
-19841.174	    15.168	    51.695	  -124.858
-20297.643	    15.391	    53.448	  -107.990
-20005.883	    15.583	    56.729	  -102.630
-20086.303	    15.704	    49.606	   -92.273
-20087.312	    15.565	    53.287	  -104.369
-20159.395	    15.370	    64.700	   -94.669
-20200.617	    15.270	    59.925	   -97.940
-20268.822	    15.285	    66.857	   -79.071
-20380.225	    15.273	    62.944	  -110.183
-20400.027	    15.281	    65.262	  -108.295
-20210.773	    15.383	    50.760	  -107.484
-20086.154	    15.497	    51.865	  -120.325
-20200.578	    15.565	    59.571	  -108.074
-20144.162	    15.580	    61.092	  -119.606
-20113.963	    15.517	    49.776	  -130.551
-20179.783	    15.325	    50.235	  -151.046
-20257.438	    15.298	    46.916	  -124.467
-20297.848	    15.300	    54.943	  -130.906
-20396.193	    15.191	    34.953	  -109.420
-20451.430	    15.140	    59.800	  -115.927
-20252.049	    15.195	    59.338	  -108.362
-20108.170	    15.306	    55.969	  -125.240
-20265.354	    15.407	    50.309	  -130.832
-20330.307	    15.435	    48.601	  -100.513
-20168.672	    15.462	    56.024	  -104.821
-20007.857	    15.495	    56.058	  -114.133
-20226.156	    15.600	    60.971	  -111.267
-20090.035	    15.574	    52.607	  -109.832
-20441.037	    15.381	    69.403	  -120.636
-20283.406	    15.293	    51.976	  -107.549
-20377.939	    15.318	    54.680	  -121.065
-20057.873	    15.350	    61.158	  -113.163
-20068.793	    15.282	    42.805	  -103.479
-20228.012	    15.254	    59.271	  -122.732
-20284.703	    15.270	    49.709	  -113.043
-20288.205	    15.281	    51.341	  -133.801
-20266.346	    15.362	    56.496	  -119.048
-20260.529	    15.457	    60.252	  -121.754
-20253.264	    15.451	    62.678	  -115.779
-20103.441	    15.317	    56.260	   -95.300
-20584.055	    15.235	    61.369	  -121.274
-20233.129	    15.274	    55.570	  -107.828
-20373.861	    15.324	    54.786	  -143.405
-20304.830	    15.322	    59.152	   -98.182
-20128.143	    15.262	    63.728	   -85.000
-20210.207	    15.276	    63.945	   -76.081
-20412.355	    15.258	    60.542	   -96.478
-20300.521	    15.229	    68.038	  -100.139
-20204.205	    15.253	    61.363	  -133.758
-20386.740	    15.223	    59.932	  -112.511
-20081.633	    15.244	    69.129	  -118.223
-20032.178	    15.312	    58.230	   -91.638
-20074.545	    15.281	    51.026	  -132.363
-20097.705	    15.122	    68.282	   -86.631
-20131.137	    15.097	    37.149	  -104.739
-20064.986	    15.233	    52.314	  -103.604
-20057.127	    15.359	    60.471	  -108.025
-20017.586	    15.413	    61.336	  -119.479
-20028.303	    15.527	    63.649	  -120.850
-19891.506	    15.636	    51.601	  -102.345
-20114.295	    15.689	    55.034	  -113.572
-19944.631	    15.709	    48.864	  -110.110
-20215.771	    15.513	    65.198	  -113.434
-20088.580	    15.316	    49.655	  -123.940
-20204.672	    15.204	    68.693	  -115.877
-19743.193	    15.221	    64.412	   -98.291
-20189.646	    15.251	    60.889	   -93.383
-20162.916	    15.284	    65.150	  -117.512
-20135.883	    15.418	    54.480	  -106.057
-19972.750	    15.572	    58.783	  -134.749
-19906.867	    15.674	    60.541	  -136.904
-20010.473	    15.602	    44.763	  -129.715
-20034.555	    15.516	    55.950	  -129.925
-20089.709	    15.443	    57.437	  -118.188
-20092.791	    15.470	    54.053	   -89.353
-19959.949	    15.352	    50.328	  -115.500
-20017.719	    15.319	    65.998	   -95.245
-20046.412	    15.390	    56.349	  -118.462
-20058.844	    15.458	    51.187	  -138.488
-20034.725	    15.542	    62.399	  -114.876
-20094.518	    15.687	    56.193	  -109.478
-20089.930	    15.744	    54.805	  -113.267
-20226.039	    15.720	    48.391	  -117.268
-20149.102	    15.664	    47.133	  -103.132
-20000.996	    15.521	    49.352	  -113.334
-20187.936	    15.328	    61.937	   -99.406
-20298.453	    15.234	    54.061	   -94.183
-20003.223	    15.320	    48.652	   -90.574
-20075.543	    15.513	    60.214	  -103.436
-20001.730	    15.760	    49.092	  -119.703
-19944.650	    15.868	    55.504	  -126.279
-20023.930	    15.663	    55.197	  -128.215
-20014.986	    15.358	    51.698	  -143.163
-20168.916	    15.008	    49.707	  -113.315
-20248.324	    14.825	    60.650	  -113.338
-20313.209	    14.947	    66.474	   -88.039
-20273.740	    15.189	    67.445	  -121.075
-19855.764	    15.408	    46.700	  -117.260
-20207.635	    15.543	    67.920	  -119.278
-20166.215	    15.650	    49.960	  -127.673
-20009.400	    15.711	    57.649	  -123.161
-20129.627	    15.598	    73.609	  -118.220
-20189.842	    15.307	    52.365	  -114.568
-20266.158	    15.228	    58.590	   -95.797
-20167.094	    15.247	    63.466	   -74.909
-20237.135	    15.234	    63.697	   -75.555
-20165.443	    15.292	    62.864	  -125.349
-20441.291	    15.431	    62.806	   -87.346
-20231.986	    15.557	    53.772	   -98.511
-20033.887	    15.675	    53.376	  -116.751
-20036.258	    15.614	    64.834	   -98.974
-20106.443	    15.332	    45.902	   -90.205
-20345.719	    15.088	    52.427	   -93.214
-20140.891	    15.002	    69.183	  -115.170
-19969.521	    15.214	    61.298	  -115.184
-20185.482	    15.425	    59.513	  -106.001
-19993.680	    15.608	    66.418	  -116.192
-20034.301	    15.739	    56.148	  -140.794
-19998.826	    15.596	    46.922	   -97.168
-20347.969	    15.357	    49.677	  -103.001
-20307.354	    15.225	    58.103	  -158.762
-20228.498	    15.290	    46.857	  -138.939
-20261.818	    15.375	    58.946	  -131.534
-20279.043	    15.364	    44.449	  -127.535
-20220.502	    15.387	    42.666	  -103.302
-20213.016	    15.457	    50.644	  -134.327
-20269.834	    15.516	    54.864	   -97.805
-20252.512	    15.491	    64.889	  -108.599
-20229.604	    15.423	    49.505	  -100.996
-20244.281	    15.439	    70.205	  -122.694
-20162.469	    15.382	    43.699	  -123.574
-20343.906	    15.451	    59.059	  -129.644
-19863.986	    15.537	    50.195	  -119.349
-20210.191	    15.616	    58.280	  -112.108
-20006.971	    15.630	    55.334	  -125.329
-20421.359	    15.489	    47.909	  -116.874
-20056.469	    15.378	    66.643	  -110.342
-20204.396	    15.342	    58.736	  -110.592
-20249.227	    15.514	    65.964	  -105.898
-20236.428	    15.778	    55.732	  -104.161
-20051.355	    15.978	    62.763	   -91.111
-19943.279	    16.040	    56.262	  -112.207
-20160.734	    15.910	    59.897	  -112.565
-20165.061	    15.625	    61.422	  -104.404
-20232.844	    15.444	    64.897	   -87.691
-19966.025	    15.366	    62.755	   -94.405
-20043.982	    15.301	    59.996	  -136.616
-20366.293	    15.283	    53.537	  -114.651
-19939.803	    15.337	    73.495	   -92.680
-20098.545	    15.392	    44.811	   -99.985
-20116.701	    15.371	    61.417	   -96.902
-20235.102	    15.454	    63.595	   -95.334
-20119.854	    15.554	    56.442	   -97.869
-20143.441	    15.508	    59.070	   -77.560
-19876.041	    15.409	    56.907	  -114.614
-20213.889	    15.260	    66.871	  -109.668
-20281.484	    15.070	    46.431	  -109.986
-20301.711	    14.978	    65.203	  -127.411
-20377.596	    15.030	    52.910	  -129.360
-20057.076	    15.209	    54.788	  -134.499
-19983.760	    15.408	    51.841	  -119.460
-20125.707	    15.482	    50.312	  -127.217
-20127.109	    15.398	    48.711	  -111.499
-20416.996	    15.257	    65.468	  -105.079
-20323.834	    15.287	    56.814	   -88.908
-20125.588	    15.465	    49.852	  -119.906
-20111.711	    15.785	    59.760	  -120.397
-20068.572	    15.966	    60.829	  -103.995
-20058.428	    15.924	    50.119	  -117.484
-20063.680	    15.770	    53.568	   -95.451
-20095.572	    15.418	    58.956	  -120.043
-20141.389	    15.148	    60.338	  -113.139
-20171.221	    15.108	    62.396	  -125.999
-20447.430	    15.200	    48.565	  -118.309
-20370.934	    15.425	    66.253	  -115.712
-20145.924	    15.746	    45.088	  -120.610
-20197.771	    16.046	    56.769	  -108.268
-19854.262	    16.128	    55.903	  -109.962
-20070.988	    15.943	    39.888	  -138.528
-20293.553	    15.739	    61.507	  -129.110
-20072.639	    15.534	    38.463	  -136.012
-20355.014	    15.249	    62.335	  -125.328
-20421.994	    15.132	    63.773	  -101.257
-20328.758	    15.211	    62.092	  -106.341
-19738.729	    15.361	    59.928	  -109.868
-20208.318	    15.415	    70.512	  -101.581
-20011.953	    15.464	    61.304	  -107.411
-20550.410	    15.393	    50.661	  -122.270
-20168.451	    15.339	    50.569	  -120.922
-20332.154	    15.306	    68.783	  -131.541
-20076.537	    15.201	    43.447	  -105.337
-20469.738	    15.294	    53.121	  -104.605
-19976.062	    15.572	    57.194	  -105.203
-20172.506	    15.856	    58.972	  -117.330
-20358.318	    15.917	    56.444	  -104.798
-20235.197	    15.750	    57.146	  -106.847
-20171.572	    15.320	    59.091	  -109.805
-20085.266	    14.995	    56.299	  -113.047
-20211.861	    14.938	    59.900	  -123.478
-20067.281	    15.125	    64.138	  -102.695
-20380.408	    15.391	    53.028	  -139.762
-20013.023	    15.751	    62.870	  -113.850
-20133.857	    15.946	    69.013	  -136.384
-20244.945	    15.853	    52.003	  -118.877
-20014.781	    15.622	    48.566	   -97.596
-20254.729	    15.280	    64.725	  -108.221
-20296.744	    15.023	    55.602	  -139.841
-20288.080	    15.053	    64.992	  -124.767
-20001.164	    15.365	    58.688	  -100.976
-20210.518	    15.547	    57.297	  -128.176
-20185.867	    15.651	    50.620	  -132.065
-20013.322	    15.592	    47.862	  -104.273
-20258.277	    15.283	    65.870	  -116.522
-20192.998	    14.934	    52.680	  -133.974
-20260.281	    14.795	    51.544	  -109.288
-20370.580	    14.906	    47.856	  -102.854
-20064.199	    15.216	    48.451	  -120.810
-20027.201	    15.374	    68.267	   -98.522
-19944.006	    15.379	    55.912	  -120.949
-20307.975	    15.369	    55.067	   -89.095
-20175.178	    15.439	    60.960	  -102.483
-20173.021	    15.405	    47.598	  -117.718
-20157.701	    15.351	    45.639	  -128.216
-20041.426	    15.320	    56.986	  -140.866
-20113.287	    15.381	    67.058	  -120.829
-20211.842	    15.535	    61.100	  -116.291
-20060.877	    15.596	    55.484	   -89.621
-19892.127	    15.621	    57.258	  -114.015
-20369.568	    15.572	    51.420	   -98.180
-20102.104	    15.468	    52.476	   -98.861
-20331.777	    15.392	    57.618	  -124.896
-20328.199	    15.274	    55.406	  -113.782
-20197.262	    15.156	    65.920	   -86.166
-20388.250	    15.086	    62.769	   -88.337
-20209.662	    15.180	    53.716	  -101.247
-19918.725	    15.359	    52.102	  -113.331
-20092.779	    15.535	    66.930	  -131.927
-20018.914	    15.535	    38.854	  -100.921
-20171.068	    15.441	    60.750	  -113.163
-20244.957	    15.351	    64.503	   -97.128
-20340.756	    15.272	    41.367	  -114.765
-20438.535	    15.249	    43.734	  -141.046
-20118.625	    15.231	    40.194	  -119.659
-20167.000	    15.169	    39.148	  -109.106
-20255.969	    15.268	    48.467	  -110.873
-20120.246	    15.337	    64.218	  -112.270
-20309.967	    15.291	    57.428	   -96.656
-20100.037	    15.364	    49.393	  -118.165
-20173.564	    15.498	    50.724	   -98.809
-19944.562	    15.563	    50.482	  -115.568
-19817.928	    15.445	    50.713	  -129.411
-20444.373	    15.224	    55.139	  -117.701
-20371.535	    15.099	    58.985	  -121.275
-20095.422	    15.179	    47.345	  -114.895
-20073.920	    15.406	    56.056	  -103.623
-19901.000	    15.481	    47.892	  -129.890
-20238.834	    15.498	    47.694	  -113.196
-20371.592	    15.371	    55.098	  -122.113
-20354.621	    15.253	    63.203	  -144.433
-20158.943	    15.168	    56.562	  -116.902
-20128.215	    15.168	    66.415	   -98.477
-20284.920	    15.276	    59.565	  -133.846
-20343.125	    15.494	    60.181	  -114.241
-20092.158	    15.687	    49.051	   -99.939
-20209.314	    15.632	    50.164	  -109.934
-20206.744	    15.455	    70.198	  -120.760
-20224.348	    15.274	    65.929	  -106.727
-20413.111	    15.075	    71.392	  -122.707
-20396.518	    14.995	    57.259	  -130.976
-19935.201	    15.181	    56.933	  -111.690
-20152.457	    15.489	    49.485	  -111.474
-19993.076	    15.770	    57.838	  -105.176
-20241.230	    15.814	    45.218	  -123.240
-20024.020	    15.664	    58.260	  -124.858
-19979.377	    15.419	    57.685	  -131.676
-20248.117	    15.193	    65.743	  -108.185
-20208.064	    15.159	    66.866	  -100.512
-20391.051	    15.324	    52.026	  -116.539
-20087.650	    15.492	    67.873	  -120.407
-20258.482	    15.419	    46.798	  -143.462
-20194.529	    15.342	    68.467	  -119.740
-20305.926	    15.345	    55.160	  -105.035
-20417.217	    15.361	    54.628	  -102.322
-20300.035	    15.412	    58.769	  -119.677
-20103.859	    15.537	    53.936	  -103.059
-19982.721	    15.617	    59.141	  -108.179
-20236.637	    15.542	    45.561	  -130.429
-20306.848	    15.520	    63.564	   -92.673
-20444.373	    15.478	    41.958	  -121.765
-20196.385	    15.491	    60.787	  -122.484
-19976.334	    15.525	    49.357	  -107.056
-20031.510	    15.457	    61.742	  -115.890
-20246.947	    15.398	    41.927	   -89.261
-20192.186	    15.372	    57.060	   -95.769
-20036.570	    15.383	    70.698	   -96.463
-20310.277	    15.359	    67.304	   -89.752
-20110.395	    15.495	    68.079	   -71.689
-20019.637	    15.606	    43.838	  -102.973
-20035.359	    15.680	    61.749	  -106.900
-20003.178	    15.744	    57.046	  -127.060
-20035.600	    15.664	    54.500	  -116.380
-20024.557	    15.503	    56.917	  -114.656
-20364.533	    15.310	    55.392	  -114.959
-20067.799	    15.199	    57.713	  -136.918
-20155.816	    15.146	    33.176	  -118.653
-20112.428	    15.229	    45.835	  -127.244
-20080.848	    15.345	    46.183	  -113.982
-20112.930	    15.374	    48.227	  -118.519
-20237.602	    15.421	    75.699	  -132.988
-20164.732	    15.471	    48.320	  -127.252
-19984.633	    15.424	    44.351	  -121.024
-20212.402	    15.367	    60.858	  -130.127
