   -2.08000e+04   -2.06000e+04   -2.04000e+04   -2.02000e+04   -2.00000e+04   -1.98000e+04   -1.96000e+04   -1.94000e+04   -1.92000e+04   -1.90000e+04
    1.47500e+01    1.52500e+01    1.57500e+01    1.62500e+01    1.67500e+01
   -1.70000e+02   -1.50000e+02   -1.30000e+02   -1.10000e+02   -9.00000e+01   -7.00000e+01   -5.00000e+01   -3.00000e+01   -1.00000e+01    1.00000e+01    3.00000e+01    5.00000e+01    7.00000e+01    9.00000e+01    1.10000e+02    1.30000e+02    1.50000e+02    1.70000e+02
   -1.70000e+02   -1.50000e+02   -1.30000e+02   -1.10000e+02   -9.00000e+01   -7.00000e+01   -5.00000e+01   -3.00000e+01   -1.00000e+01    1.00000e+01    3.00000e+01    5.00000e+01    7.00000e+01    9.00000e+01    1.10000e+02    1.30000e+02    1.50000e+02    1.70000e+02
