    9.88493e+06
    9.88491e+06
    9.88489e+06
    9.88486e+06
    9.88484e+06
    9.88482e+06
    9.88481e+06
    9.88480e+06
    9.88478e+06
    9.88477e+06
    9.88475e+06
    9.88473e+06
    9.88473e+06
    9.88472e+06
    9.88470e+06
    9.88469e+06
    9.88468e+06
    9.88466e+06
    9.88466e+06
    9.88465e+06
    9.88464e+06
    9.88463e+06
    9.88462e+06
    9.88461e+06
    9.88461e+06
    9.88459e+06
    9.88458e+06
    9.88458e+06
    9.88458e+06
    9.88458e+06
    9.88458e+06
    9.88458e+06
    9.88457e+06
    9.88457e+06
    9.88456e+06
    9.88456e+06
    9.88455e+06
    9.88456e+06
    9.88454e+06
    9.88454e+06
    9.88453e+06
    9.88454e+06
    9.88453e+06
    9.88452e+06
    9.88452e+06
    9.88452e+06
    9.88452e+06
    9.88450e+06
    9.88451e+06
    9.88448e+06
    9.88447e+06
    9.88448e+06
    9.88449e+06
    9.88449e+06
    9.88449e+06
    9.88448e+06
    9.88447e+06
    9.88447e+06
    9.88446e+06
    9.88446e+06
    9.88446e+06
    9.88445e+06
    9.88445e+06
    9.88445e+06
    9.88444e+06
    9.88444e+06
    9.88445e+06
    9.88444e+06
    9.88444e+06
    9.88443e+06
    9.88442e+06
    9.88443e+06
    9.88442e+06
    9.88441e+06
    9.88440e+06
    9.88440e+06
    9.88441e+06
    9.88440e+06
    9.88440e+06
    9.88439e+06
    9.88440e+06
    9.88440e+06
    9.88440e+06
    9.88441e+06
    9.88442e+06
    9.88441e+06
    9.88440e+06
    9.88440e+06
    9.88439e+06
    9.88438e+06
    9.88438e+06
    9.88438e+06
    9.88437e+06
    9.88437e+06
    9.88437e+06
    9.88438e+06
    9.88439e+06
    9.88438e+06
    9.88437e+06
    9.88437e+06
    9.88436e+06
    9.88436e+06
    9.88436e+06
    9.88436e+06
    9.88436e+06
    9.88435e+06
    9.88436e+06
    9.88435e+06
    9.88434e+06
    9.88433e+06
    9.88434e+06
    9.88434e+06
    9.88434e+06
    9.88433e+06
    9.88434e+06
    9.88435e+06
    9.88434e+06
    9.88433e+06
    9.88435e+06
    9.88434e+06
    9.88435e+06
    9.88434e+06
    9.88434e+06
    9.88434e+06
    9.88435e+06
    9.88435e+06
    9.88435e+06
    9.88436e+06
    9.88434e+06
    9.88434e+06
    9.88434e+06
    9.88434e+06
    9.88435e+06
    9.88435e+06
    9.88435e+06
    9.88433e+06
    9.88433e+06
    9.88434e+06
    9.88434e+06
    9.88434e+06
    9.88434e+06
    9.88433e+06
    9.88434e+06
    9.88434e+06
    9.88434e+06
    9.88432e+06
    9.88431e+06
    9.88433e+06
    9.88433e+06
    9.88433e+06
    9.88434e+06
    9.88434e+06
    9.88433e+06
    9.88432e+06
    9.88431e+06
    9.88430e+06
    9.88429e+06
    9.88429e+06
    9.88428e+06
    9.88427e+06
    9.88427e+06
    9.88427e+06
    9.88427e+06
    9.88427e+06
    9.88426e+06
    9.88427e+06
    9.88427e+06
    9.88426e+06
    9.88427e+06
    9.88429e+06
    9.88429e+06
    9.88429e+06
    9.88430e+06
    9.88429e+06
    9.88429e+06
    9.88430e+06
    9.88430e+06
    9.88430e+06
    9.88430e+06
    9.88428e+06
    9.88429e+06
    9.88428e+06
    9.88428e+06
    9.88428e+06
    9.88428e+06
    9.88427e+06
    9.88427e+06
    9.88426e+06
    9.88427e+06
    9.88426e+06
    9.88425e+06
    9.88424e+06
    9.88422e+06
    9.88421e+06
    9.88420e+06
    9.88421e+06
    9.88421e+06
    9.88420e+06
    9.88420e+06
    9.88420e+06
