    2.00000e+02    2.00000e+02    2.00000e+02    2.00000e+02    2.00000e+02    2.00000e+02    2.00000e+02    2.00000e+02    2.00000e+02    2.00000e+02
    5.00000e-01    5.00000e-01    5.00000e-01    5.00000e-01    5.00000e-01
    2.00000e+01    2.00000e+01    2.00000e+01    2.00000e+01    2.00000e+01    2.00000e+01    2.00000e+01    2.00000e+01    2.00000e+01    2.00000e+01    2.00000e+01    2.00000e+01    2.00000e+01    2.00000e+01    2.00000e+01    2.00000e+01    2.00000e+01    2.00000e+01
    2.00000e+01    2.00000e+01    2.00000e+01    2.00000e+01    2.00000e+01    2.00000e+01    2.00000e+01    2.00000e+01    2.00000e+01    2.00000e+01    2.00000e+01    2.00000e+01    2.00000e+01    2.00000e+01    2.00000e+01    2.00000e+01    2.00000e+01    2.00000e+01
