    1	   300.00000        1.00000
    2	   300.00000        1.00000
    3	   300.00000        1.00000
    4	   300.00000        1.00000
    5	   300.00000        1.00000
    6	   300.00000        1.00000
    7	   300.00000        1.00000
    8	   300.00000        1.00000
    9	   300.00000        1.00000
   10	   300.00000        1.00000
   11	   300.00000        1.00000
   12	   300.00000        1.00000
   13	   300.00000        1.00000
   14	   300.00000        1.00000
   15	   300.00000        1.00000
   16	   300.00000        1.00000
   17	   300.00000        1.00000
   18	   300.00000        1.00000
   19	   300.00000        1.00000
   20	   300.00000        1.00000
   21	   300.00000        1.00000
   22	   300.00000        1.00000
   23	   300.00000        1.00000
   24	   300.00000        1.00000
   25	   300.00000        1.00000
   26	   300.00000        1.00000
   27	   300.00000        1.00000
   28	   300.00000        1.00000
   29	   300.00000        1.00000
   30	   300.00000        1.00000
   31	   300.00000        1.00000
   32	   300.00000        1.00000
   33	   300.00000        1.00000
   34	   300.00000        1.00000
   35	   300.00000        1.00000
   36	   300.00000        1.00000
