-19873.006	    15.334	   -92.310	   122.143
-19837.943	    15.405	   -81.535	   -77.885
-19985.818	    15.454	   -33.723	   -55.014
-20039.379	    15.332	   -42.116	   -63.991
-20151.842	    15.323	   -53.246	   -68.969
-19898.199	    15.418	   -43.073	   -66.923
-19967.809	    15.550	   -51.783	   -58.324
-19855.682	    15.621	   -42.215	   -40.856
-19614.871	    15.709	   -46.568	   -61.372
-19812.041	    15.720	   -33.955	   -62.634
-20073.883	    15.521	   -44.366	   -47.200
-19818.709	    15.310	   -22.597	   -66.929
-20113.516	    15.237	   -34.063	   -90.128
-19960.844	    15.226	   -37.898	   -55.767
-19845.586	    15.263	   -44.401	   -50.630
-19925.109	    15.357	   -37.364	   -66.597
-19815.043	    15.575	   -50.949	   -58.948
-20000.184	    15.628	   -40.705	   -65.540
-19628.439	    15.638	   -37.892	   -64.872
-19927.420	    15.522	   -37.986	   -81.627
-19903.654	    15.363	   -65.996	   -69.999
-20177.736	    15.152	   -49.687	   -61.084
-20056.875	    15.181	    -6.981	   -76.793
-20018.164	    15.407	   -30.458	   -50.381
-19740.441	    15.634	   -22.370	   -56.787
-19894.242	    15.676	   -44.721	   -73.449
-19792.141	    15.498	   -34.970	   -55.171
-20105.660	    15.283	   -48.243	   -57.704
-19925.711	    15.318	   -45.188	   -60.148
-19921.143	    15.541	   -48.179	   -67.634
-20044.588	    15.764	   -54.597	   -64.708
-19979.789	    15.948	   -44.838	   -72.306
-19784.896	    16.068	   -24.949	   -60.659
-19609.684	    15.966	   -39.548	   -70.847
-20049.633	    15.694	   -53.945	   -58.126
-20005.701	    15.523	   -41.853	   -68.010
-19651.104	    15.440	   -28.162	   -92.636
-19767.932	    15.384	   -47.495	   -60.550
-19863.213	    15.384	   -34.950	   -54.359
-19836.414	    15.406	   -47.148	   -64.595
-19933.205	    15.364	   -46.727	   -55.130
-19935.145	    15.331	   -32.489	   -68.250
-20048.908	    15.334	   -51.880	   -52.733
-20042.494	    15.407	   -60.483	   -51.929
-20039.256	    15.520	   -52.675	   -59.491
-20123.799	    15.623	   -32.663	   -56.345
-19852.631	    15.751	   -34.211	   -52.792
-19886.990	    15.818	   -34.626	   -61.802
-19938.932	    15.828	   -42.105	   -52.834
-19868.176	    15.741	   -44.573	   -58.629
-19742.807	    15.586	   -58.456	   -62.518
-19594.059	    15.510	   -29.955	   -65.175
-19960.293	    15.423	   -34.373	   -43.665
-20088.006	    15.390	   -33.904	   -72.357
-20088.273	    15.466	   -35.910	   -44.699
-19913.551	    15.438	   -31.342	   -50.825
-19951.627	    15.365	   -32.938	   -59.902
-19972.688	    15.366	   -23.798	   -68.878
-20044.170	    15.371	   -35.592	   -55.536
-19871.219	    15.455	   -48.990	   -91.110
-20018.047	    15.579	   -32.316	   -84.194
-19838.773	    15.592	   -39.427	   -60.800
-20056.891	    15.439	   -39.078	   -69.490
-19916.271	    15.270	   -43.670	   -68.052
-20016.830	    15.198	   -45.103	   -66.669
-20159.090	    15.112	   -41.647	   -53.826
-19863.955	    15.187	   -32.773	   -67.898
-19850.430	    15.289	   -22.873	   -51.904
-20136.867	    15.324	   -30.580	   -92.304
-19805.164	    15.492	   -60.363	   -71.138
-19846.688	    15.676	   -56.025	   -50.675
-19872.957	    15.787	   -26.441	   -66.394
-19881.713	    15.736	   -34.996	   -40.101
-19795.605	    15.653	   -50.377	   -47.821
-19748.727	    15.681	   -34.999	   -66.067
-19843.383	    15.713	   -51.025	   -67.574
-19936.186	    15.636	   -27.056	   -63.165
-20193.146	    15.511	   -29.921	   -56.082
-19963.146	    15.492	   -41.054	   -47.775
-19800.180	    15.618	   -41.955	   -67.031
-19544.924	    15.841	   -34.112	   -55.479
-19708.316	    16.048	   -38.336	   -61.509
-19643.369	    15.985	   -54.546	   -39.029
-19691.986	    15.836	   -37.584	   -49.867
-20229.033	    15.602	   -43.217	   -64.538
-20079.412	    15.442	   -28.278	   -63.913
-20106.941	    15.440	   -52.270	   -54.654
-19640.961	    15.514	   -38.086	   -51.758
-19961.109	    15.611	   -28.474	   -52.662
-19934.715	    15.707	   -38.654	   -65.709
-19754.352	    15.813	   -36.611	   -47.175
-19733.594	    15.799	   -27.378	   -60.237
-19902.219	    15.592	   -24.385	   -57.408
-19876.939	    15.373	   -51.698	   -57.326
-19892.082	    15.173	   -52.937	   -63.007
-20065.125	    15.155	   -36.289	   -81.951
-19922.318	    15.279	   -38.365	   -64.805
-19900.562	    15.465	   -33.313	   -56.356
-19544.766	    15.669	   -46.544	   -60.683
-19938.320	    15.673	   -25.876	   -56.845
-20185.646	    15.502	   -36.653	   -56.534
-19973.252	    15.486	   -53.148	   -62.536
-19707.678	    15.573	   -43.149	   -51.555
-19944.664	    15.527	   -43.281	   -56.770
-19759.111	    15.442	   -44.343	   -49.472
-19953.965	    15.407	   -52.362	   -66.299
-19918.289	    15.557	   -57.177	   -60.473
-19760.740	    15.756	   -45.631	   -59.959
-19732.383	    15.794	   -50.710	   -51.968
-19999.750	    15.695	   -56.449	   -49.866
-19918.531	    15.502	   -48.158	   -67.554
-19858.928	    15.363	   -31.984	   -71.255
-19984.223	    15.237	   -31.362	   -53.493
-20103.666	    15.167	   -33.420	   -66.707
-19861.451	    15.188	   -48.374	   -65.759
-19950.707	    15.364	   -36.587	   -58.789
-19906.240	    15.674	   -49.178	   -60.422
-19791.445	    15.898	   -59.805	   -59.033
-19807.914	    15.847	   -51.607	   -69.141
-19909.990	    15.730	   -29.698	   -76.414
-19885.963	    15.698	   -41.975	   -52.286
-19945.078	    15.567	   -50.607	   -60.627
-20003.600	    15.450	   -43.409	   -47.912
-19875.658	    15.300	   -20.132	   -70.685
-19748.691	    15.204	   -48.613	   -61.760
-19847.301	    15.226	   -42.813	   -47.735
-20035.865	    15.343	   -46.768	   -54.148
-20019.215	    15.413	   -25.666	   -66.564
-19862.688	    15.384	   -49.153	   -44.706
-19917.896	    15.456	   -55.502	   -54.112
-19807.889	    15.429	   -20.307	   -67.233
-19970.143	    15.464	   -24.342	   -56.780
-19908.693	    15.489	   -42.802	   -54.880
-19803.762	    15.479	   -37.340	   -61.198
-19982.344	    15.430	   -54.018	   -68.665
-19754.061	    15.383	   -54.062	   -79.984
-20073.799	    15.402	   -39.575	   -58.840
-20034.797	    15.524	   -36.653	   -58.841
-19774.545	    15.723	   -57.492	   -55.777
-19855.250	    15.732	   -41.421	   -51.576
-19952.350	    15.664	   -46.730	   -69.558
-19707.176	    15.594	   -40.274	   -66.604
-20002.725	    15.474	   -43.291	   -82.452
-19925.213	    15.497	   -37.444	   -58.230
-19653.344	    15.594	   -51.137	   -43.213
-19806.494	    15.546	   -37.934	   -69.235
-20006.705	    15.363	   -35.133	   -62.215
-20044.645	    15.177	   -37.367	   -69.389
-20158.791	    15.075	   -41.218	   -47.538
-19965.465	    15.199	   -20.538	   -61.531
-19691.320	    15.553	   -48.253	   -57.176
-19761.549	    15.767	   -42.769	   -74.972
-19863.906	    15.750	   -47.386	   -52.191
-19815.709	    15.609	   -61.642	   -50.962
-19772.791	    15.472	   -29.706	   -72.261
-19991.625	    15.351	   -35.680	   -46.677
-20027.201	    15.217	   -47.346	   -52.130
-20210.805	    15.111	   -44.111	   -55.131
-20114.434	    15.094	   -24.961	   -60.880
-19885.252	    15.199	   -36.325	   -72.482
-19880.746	    15.337	   -48.552	   -53.339
-20086.006	    15.486	   -55.581	   -54.044
-19729.012	    15.648	   -35.717	   -58.133
-19704.051	    15.858	     7.926	   -81.469
-19728.084	    15.874	     7.224	   -81.428
-19603.916	    15.692	   -26.795	   -53.348
-19786.727	    15.409	   -52.567	   -43.439
-20011.650	    15.295	   -38.612	   -50.234
-20058.133	    15.388	   -21.905	   -72.594
-19935.217	    15.611	   -29.468	   -65.082
-19604.539	    15.804	   -39.736	   -50.992
-19637.910	    15.885	   -48.139	   -56.375
-20001.639	    15.740	   -41.804	   -71.349
-20062.727	    15.575	   -37.783	   -64.159
-19985.633	    15.423	   -35.525	   -57.899
-19778.139	    15.266	   -38.196	   -51.849
-19884.688	    15.195	   -37.265	   -57.423
-20060.537	    15.311	   -34.762	   -49.603
-19991.252	    15.379	   -40.939	   -65.734
-19907.109	    15.417	   -35.692	   -66.219
-19929.648	    15.406	   -50.648	   -73.722
-20153.889	    15.498	   -40.289	   -56.801
-19812.748	    15.657	   -40.915	   -79.523
-19874.150	    15.820	   -40.297	   -64.155
-19832.912	    15.817	   -43.987	   -81.718
-19787.240	    15.707	   -42.823	   -62.572
-19795.037	    15.587	   -66.959	   -36.989
-19859.740	    15.462	   -35.335	   -88.107
-19832.082	    15.303	   -39.961	   -75.861
-20035.195	    15.271	   -39.951	   -59.582
-19781.723	    15.481	   -49.997	   -60.174
-19908.123	    15.649	   -48.213	   -45.726
-20031.217	    15.841	   -32.122	   -71.525
-19860.008	    16.010	   -48.126	   -69.374
-19847.180	    15.954	   -30.229	   -60.673
-19695.184	    15.729	   -21.732	   -71.084
-19865.051	    15.486	   -46.256	   -48.495
-20127.047	    15.400	   -53.614	   -76.372
-19906.430	    15.448	   -46.997	   -64.466
-19891.412	    15.520	   -33.491	   -58.104
-19763.512	    15.549	   -47.531	   -45.466
-20130.705	    15.390	   -44.270	   -65.110
-19864.201	    15.328	   -37.540	   -51.958
-20041.492	    15.454	   -53.287	   -46.950
-20204.916	    15.466	   -44.173	   -73.421
-20054.465	    15.531	   -47.253	   -53.293
-20003.979	    15.551	   -33.048	   -63.914
-19942.771	    15.639	   -39.971	   -65.786
-19821.020	    15.818	   -48.005	   -55.550
-19658.350	    15.912	   -42.696	   -62.651
-19752.943	    15.732	   -44.678	   -59.800
-19926.344	    15.631	   -40.573	   -62.428
-20098.975	    15.676	   -24.025	   -74.892
-19784.807	    15.698	   -37.126	   -51.499
-19952.066	    15.620	   -14.435	   -66.550
-19881.064	    15.680	   -43.439	   -50.588
-19764.385	    15.770	   -49.861	   -79.739
-19796.988	    15.805	   -40.372	   -61.162
-19634.402	    15.852	   -49.535	   -67.745
-19906.594	    15.954	   -32.677	   -71.620
-19981.148	    15.885	   -42.223	   -64.198
-19651.203	    15.707	   -41.198	   -40.356
-19899.354	    15.514	   -39.464	   -58.327
-19853.760	    15.388	   -46.727	   -45.270
-20079.943	    15.335	   -23.097	   -62.611
-19931.027	    15.451	   -60.137	   -63.591
-19981.488	    15.554	   -36.152	   -47.625
-19786.664	    15.604	   -46.439	   -55.566
-19858.367	    15.643	   -40.762	   -57.668
-20152.107	    15.694	   -28.626	   -53.696
-20014.086	    15.597	   -39.609	   -54.169
-20123.703	    15.500	    17.971	   -84.441
-20007.162	    15.442	    22.518	   -85.247
-19961.828	    15.383	   -44.104	   -57.259
-20020.297	    15.389	   -62.505	   -43.011
-20079.197	    15.421	   -51.804	   -38.577
-19845.605	    15.556	   -24.712	   -62.872
-19811.938	    15.675	   -58.445	   -45.029
-20058.838	    15.696	   -60.476	   -40.203
-19970.205	    15.606	   -42.407	   -56.299
-19829.725	    15.609	   -36.299	   -56.879
-19883.947	    15.594	   -43.670	   -41.561
-19751.977	    15.671	   -65.152	   -62.606
-19869.072	    15.605	   -42.261	   -44.783
-20110.275	    15.465	   -57.171	   -53.392
-20072.750	    15.330	   -42.417	   -56.400
-20165.689	    15.232	   -37.425	   -66.599
-19767.045	    15.255	   -39.979	   -65.559
-19805.934	    15.465	   -32.825	   -65.282
-19835.982	    15.766	   -41.326	   -73.485
-19813.570	    15.958	   -46.204	   -67.755
-19725.449	    15.940	   -48.554	   -61.061
-19812.832	    15.737	   -56.518	   -46.606
-19833.193	    15.432	   -37.106	   -47.165
-19939.922	    15.193	   -34.151	   -55.407
-19858.068	    15.284	   -52.951	   -49.089
-19936.672	    15.519	   -62.267	   -55.969
-19906.658	    15.706	   -43.087	   -51.615
-19902.742	    15.836	   -40.860	   -51.004
-20091.887	    16.011	   -53.429	   -36.363
-19684.199	    15.976	   -46.060	   -49.605
-19665.455	    15.734	   -47.692	   -52.489
-20024.348	    15.518	   -53.730	   -52.894
-19767.424	    15.384	   -53.814	   -69.629
-19952.656	    15.432	   -41.990	   -51.453
-19772.611	    15.618	   -41.683	   -47.518
-19873.693	    15.720	   -29.595	   -20.371
-19713.803	    15.719	   -20.948	   -61.521
-19748.537	    15.701	   -42.984	   -50.716
-19845.938	    15.678	   -34.969	   -48.497
-19764.545	    15.612	   -26.545	   -82.620
-20126.541	    15.618	   -43.235	   -56.637
-19644.598	    15.685	   -37.565	   -65.745
-19838.961	    15.770	   -38.445	   -46.120
-19928.688	    15.614	   -26.427	   -62.907
-19992.787	    15.461	   -33.168	   -84.468
-20044.623	    15.422	   -26.012	   -83.179
-19856.900	    15.502	   -37.927	   -65.123
-19893.012	    15.538	   -52.420	   -59.341
-19757.873	    15.593	   -35.951	   -61.353
-19838.555	    15.569	   -54.402	   -54.189
-19868.520	    15.533	   -42.593	   -50.862
-19884.336	    15.483	   -46.729	   -50.000
-19570.863	    15.483	    -8.092	   -56.247
-19660.219	    15.453	   -21.134	   -77.498
-19829.326	    15.325	   -34.660	   -59.620
-20019.320	    15.308	   -18.221	   -72.416
-19835.660	    15.329	   -13.547	   -67.236
-19937.926	    15.417	   -32.347	   -58.379
-19831.639	    15.528	   -44.591	   -63.557
-19912.285	    15.722	   -34.064	   -47.630
-19953.828	    15.873	   -56.753	   -58.882
-19962.348	    15.858	   -53.111	   -65.182
-19998.908	    15.765	   -46.850	   -66.474
-20024.410	    15.591	   -42.257	   -47.092
-20011.258	    15.390	   -43.486	   -54.877
-19949.023	    15.204	   -35.592	   -76.282
-20138.664	    15.078	   -54.488	   -55.750
-19853.951	    15.214	   -56.406	   -67.208
-19920.396	    15.411	   -50.445	   -75.247
-19969.309	    15.500	   -44.851	   -62.002
-20437.270	    15.429	   -59.907	   -57.726
-19996.820	    15.383	   -39.544	   -36.087
-20108.336	    15.572	   -44.920	   -55.431
-19924.178	    15.782	   -45.328	   -52.399
-19689.824	    15.808	   -55.365	   -67.300
-19844.402	    15.661	   -41.381	   -60.412
-19952.963	    15.375	   -49.263	   -66.265
-19881.799	    15.326	   -35.210	   -49.587
-19868.861	    15.399	   -54.417	   -67.500
-20116.361	    15.395	   -32.895	   -65.926
-19832.818	    15.484	   -56.474	   -59.366
-20057.271	    15.610	   -57.401	   -75.935
-19841.055	    15.545	   -49.171	   -62.373
-19995.379	    15.476	   -49.610	   -71.313
-19860.082	    15.434	   -49.888	   -69.075
-20120.834	    15.373	   -43.719	   -59.810
-20094.520	    15.366	   -35.577	   -76.781
-20120.334	    15.419	   -36.490	   -43.644
-19939.979	    15.430	   -34.311	   -80.806
-19763.225	    15.546	   -50.569	   -49.206
-19798.111	    15.697	   -43.032	   -60.511
-19915.188	    15.737	   -34.774	   -50.437
-19755.721	    15.760	   -45.128	   -47.701
-19977.812	    15.707	   -44.855	   -62.385
-19919.545	    15.474	   -47.314	   -53.272
-19985.895	    15.341	   -50.131	   -66.438
-20077.209	    15.292	   -53.117	   -55.789
-19979.615	    15.254	   -31.251	   -49.119
-19939.248	    15.245	   -40.967	   -51.979
-19899.643	    15.396	   -18.363	   -53.454
-19726.229	    15.550	   -47.546	   -51.563
-19796.309	    15.562	   -42.258	   -64.384
-19964.971	    15.515	   -17.463	   -84.612
-20077.871	    15.388	   -29.197	   -45.446
-20046.254	    15.244	   -36.717	   -69.933
-20173.080	    15.180	   -39.112	   -55.879
-20120.621	    15.330	   -56.241	   -53.349
-19825.910	    15.590	   -38.769	   -73.968
-19727.947	    15.858	   -41.169	   -63.735
-19639.104	    15.970	   -61.345	   -64.417
-19769.633	    15.931	   -18.477	   -78.183
-19590.205	    15.780	   -49.585	   -68.502
-19718.973	    15.504	   -48.465	   -64.552
-20118.486	    15.297	   -36.013	   -65.833
-19912.574	    15.275	   -38.323	   -50.560
-19890.549	    15.256	   -37.160	   -60.119
-19990.215	    15.410	   -29.938	   -51.086
-19930.793	    15.470	   -57.872	   -47.055
-19717.322	    15.496	   -73.100	   -59.765
-20013.289	    15.476	   -43.880	   -57.616
-19965.057	    15.452	   -33.225	   -56.267
-20023.824	    15.480	   -46.762	   -43.644
-20161.424	    15.488	   -46.701	   -71.789
-20059.033	    15.386	   -42.288	   -37.547
-19971.881	    15.317	   -29.323	   -42.003
-19825.039	    15.393	   -31.646	   -67.936
-20162.414	    15.438	   -40.517	   -49.417
-20002.838	    15.525	   -39.164	   -40.072
-19713.613	    15.609	   -32.877	   -57.537
-19667.564	    15.693	   -42.630	   -49.003
-19954.092	    15.607	   -28.700	   -70.692
-19926.342	    15.418	   -43.975	   -63.730
-19855.404	    15.374	   -42.271	   -39.128
-19909.303	    15.460	   -32.162	   -55.471
-19956.016	    15.551	   -30.431	   -55.861
-20035.322	    15.685	   -31.176	   -64.982
-19973.893	    15.683	   -47.348	   -64.010
-19668.889	    15.531	   -37.804	   -66.638
-19699.791	    15.340	   -35.433	   -67.440
-19972.479	    15.315	   -62.824	   -54.533
-19679.512	    15.451	   -67.656	   -55.855
-19777.619	    15.678	   -33.481	   -73.067
-19729.479	    15.768	   -47.144	   -72.741
-19839.441	    15.736	   -39.398	   -53.834
-19917.914	    15.682	   -49.245	   -65.788
-19752.318	    15.545	   -25.891	   -76.350
-19840.803	    15.500	   -17.046	   -71.531
-19912.805	    15.584	   -62.440	   -74.094
-20034.939	    15.531	   -61.226	   -50.869
-19890.240	    15.469	   -57.059	   -48.946
-19832.641	    15.284	   -50.601	   -58.480
-19834.254	    15.170	   -49.279	   -59.833
-20055.082	    15.288	   -33.799	   -48.710
-20000.875	    15.464	   -50.314	   -46.029
-19602.219	    15.515	   -42.450	   -56.123
-19800.576	    15.419	   -48.761	   -49.095
-19908.576	    15.395	   -59.354	   -68.302
-20173.857	    15.334	   -51.880	   -62.693
-19946.256	    15.317	   -40.394	   -70.733
-19975.387	    15.328	   -18.092	   -79.205
-19860.217	    15.238	   -39.385	   -56.668
-19867.396	    15.250	   -31.309	   -72.010
-19976.588	    15.381	   -44.358	   -58.208
-20249.559	    15.474	   -35.331	   -49.831
-19920.371	    15.541	   -45.330	   -50.545
-19852.734	    15.527	   -49.349	   -54.331
-19959.924	    15.451	   -53.593	   -67.437
-20120.873	    15.393	   -31.105	   -75.011
-20008.930	    15.319	   -47.628	   -44.389
-19853.777	    15.353	   -54.948	   -53.334
-20018.781	    15.439	   -35.778	   -82.376
-19782.158	    15.417	   -32.641	   -51.671
-19898.348	    15.577	   -20.932	   -51.864
-19870.984	    15.796	   -28.351	   -61.284
-19613.420	    15.860	   -55.451	   -67.427
-19936.049	    15.680	   -55.916	   -48.720
-19989.850	    15.419	   -60.624	   -66.346
-20104.830	    15.277	   -44.540	   -41.839
-19926.775	    15.329	   -58.743	   -62.854
-19970.914	    15.461	   -19.839	   -90.313
-19870.369	    15.556	   -53.550	   -65.454
-20032.990	    15.549	   -45.952	   -48.996
-19967.027	    15.483	   -52.069	   -53.790
-20178.791	    15.508	   -56.356	   -33.525
-19856.807	    15.587	   -56.550	   -46.422
-19851.795	    15.554	   -49.334	   -56.457
-20118.160	    15.455	   -36.175	   -52.812
-19617.463	    15.424	   -48.838	   -39.023
-19921.125	    15.517	   -41.075	   -55.833
-20074.764	    15.515	   -39.368	   -42.913
-19772.186	    15.499	   -45.901	   -61.921
-19931.244	    15.540	   -56.325	   -52.844
-19827.512	    15.601	   -16.750	   -60.765
-19853.031	    15.653	   -43.246	   -61.374
-19847.477	    15.691	   -32.016	   -72.316
-19990.035	    15.614	   -38.603	   -57.280
-19701.000	    15.544	   -30.284	   -58.368
-19846.783	    15.461	   -38.046	   -58.194
-19746.980	    15.448	   -40.291	   -62.247
-19862.547	    15.454	   -36.935	   -50.333
-20032.123	    15.539	   -19.154	   -68.702
-19921.627	    15.579	   -56.951	   -56.529
-19804.824	    15.588	   -38.775	   -63.752
-20212.855	    15.497	   -49.234	   -68.611
-20091.145	    15.428	   -56.349	   -49.607
-20126.299	    15.388	   -21.410	   -55.801
-19866.828	    15.411	   -46.117	   -66.685
-20006.688	    15.528	   -37.469	   -64.451
-19801.822	    15.648	   -38.394	   -80.664
-19863.029	    15.699	   -41.987	   -50.232
-19810.092	    15.604	   -44.278	   -60.201
-19938.934	    15.542	   -46.499	   -58.142
-19907.980	    15.499	   -48.361	   -54.320
-19948.809	    15.494	   -50.689	   -76.652
-20002.283	    15.513	   -39.769	   -61.626
-20071.770	    15.523	   -41.307	   -57.012
-20084.258	    15.590	   -61.040	   -38.355
-19913.080	    15.658	   -46.844	   -59.206
-19708.096	    15.734	   -53.529	   -57.041
-19665.242	    15.685	   -41.310	   -64.237
-19945.486	    15.486	   -62.652	   -61.658
-19796.277	    15.363	   -37.582	   -51.208
-19917.262	    15.369	   -59.414	   -54.218
-19859.000	    15.484	   -56.876	   -60.622
-20032.168	    15.607	   -29.274	   -65.785
-20106.697	    15.697	   -41.614	   -60.680
-20127.520	    15.879	   -35.398	   -65.043
-19834.260	    15.884	   -57.583	   -58.979
-19823.127	    15.805	   -54.171	   -65.715
-19796.010	    15.747	   -55.645	   -68.239
-19830.990	    15.626	   -41.671	   -46.014
-19896.211	    15.506	   -40.696	   -56.172
-19911.125	    15.447	   -58.980	   -70.143
-19788.227	    15.474	   -48.176	   -56.345
-19834.334	    15.456	   -28.948	   -68.619
-19841.494	    15.453	   -41.350	   -69.726
-19863.830	    15.536	   -20.810	   -58.018
-19943.348	    15.710	   -49.422	   -48.960
-19805.479	    15.794	   -43.199	   -65.339
-20057.682	    15.671	   -29.940	   -58.385
-20009.381	    15.561	   -49.326	   -43.555
-19965.436	    15.520	   -38.997	   -49.866
-20127.393	    15.488	   -39.905	   -57.053
-20095.432	    15.544	   -37.581	   -55.555
-20117.852	    15.552	   -50.289	   -50.502
-20065.115	    15.538	   -44.338	   -67.250
-20039.580	    15.575	   -33.292	   -71.038
-19850.004	    15.573	   -55.270	   -42.959
-19788.949	    15.415	   -43.196	   -44.899
-20116.719	    15.203	   -61.338	   -49.986
-20157.232	    15.305	   -45.448	   -53.380
-19920.473	    15.537	   -55.224	   -35.634
-19754.672	    15.670	   -32.247	   -54.845
-19768.422	    15.649	   -21.414	   -64.635
-19981.957	    15.669	   -24.937	   -56.048
-19731.361	    15.692	   -37.680	   -58.061
-19843.275	    15.496	   -41.705	   -53.704
-20165.361	    15.377	   -39.397	   -59.064
-20096.061	    15.421	   -35.940	   -73.413
-19905.141	    15.453	   -32.396	   -75.970
-19914.973	    15.447	   -62.693	   -72.581
-19873.402	    15.507	   -50.433	   -75.944
-19861.521	    15.602	   -40.462	   -64.830
-20043.779	    15.552	   -47.198	   -57.202
-19889.861	    15.388	   -54.631	   -45.204
-20102.652	    15.285	   -33.088	   -53.183
-19930.949	    15.332	   -52.651	   -77.131
-20125.025	    15.635	   -49.778	   -61.996
-19812.273	    15.816	   -22.513	   -66.374
-19845.164	    15.677	   -44.607	   -60.177
-19811.873	    15.485	   -37.033	   -73.749
-19813.449	    15.425	   -39.047	   -67.707
-20140.416	    15.395	   -27.812	   -58.671
-19868.396	    15.520	   -46.923	   -48.555
-19847.465	    15.655	   -30.403	   -62.033
-19886.945	    15.639	   -36.310	   -72.663
-19826.781	    15.548	   -50.331	   -56.181
-20059.832	    15.454	   -14.751	   -58.694
-19872.092	    15.406	   -28.660	   -47.647
-19450.023	    15.541	   -25.396	   -58.239
-19733.797	    15.570	   -28.805	   -44.622
-19803.561	    15.512	   -51.145	   -59.004
-19700.775	    15.470	   -44.558	   -52.598
-19862.488	    15.479	   -66.712	   -47.323
-20015.729	    15.455	   -31.774	   -54.077
-20020.482	    15.398	   -22.593	   -62.675
-20211.578	    15.413	   -36.827	   -49.966
-19858.373	    15.470	   -58.453	   -54.650
-19801.910	    15.531	   -45.667	   -56.922
-19927.008	    15.597	   -34.361	   -74.758
-19889.871	    15.623	   -42.107	   -58.382
-19966.709	    15.592	   -27.252	   -56.090
-19924.834	    15.535	   -37.963	   -51.964
-20089.363	    15.511	   -63.187	   -59.172
-20195.555	    15.542	   -30.419	   -75.857
-20094.502	    15.503	   -42.082	   -71.672
-20150.732	    15.346	   -30.879	   -43.370
-20068.707	    15.242	   -33.956	   -61.529
-19976.066	    15.466	   -35.310	   -48.991
-19839.352	    15.682	   -26.376	   -64.632
-19808.371	    15.800	   -34.247	   -53.940
-19790.559	    15.709	   -35.671	   -65.477
-19824.162	    15.658	   -22.479	   -57.132
-19994.803	    15.575	   -25.279	   -73.974
-19973.016	    15.462	   -51.832	   -46.546
-19706.637	    15.409	   -36.586	   -62.586
-19737.158	    15.436	   -50.147	   -56.570
-20081.135	    15.436	   -40.188	   -74.950
-19648.924	    15.427	   -50.963	   -46.593
-19978.535	    15.481	   -49.202	   -56.847
-19861.127	    15.551	   -47.242	   -49.800
-19740.359	    15.624	   -21.194	   -74.633
-19564.801	    15.617	   -31.915	   -64.821
-19861.020	    15.445	   -41.738	   -54.701
-20024.291	    15.382	   -56.193	   -53.327
-19974.752	    15.377	   -48.037	   -77.908
-20033.850	    15.413	   -50.774	   -62.261
-20162.713	    15.487	   -40.844	   -49.542
-19905.762	    15.507	   -46.174	   -64.435
-20109.379	    15.409	   -47.365	   -64.126
-20083.117	    15.327	   -59.272	   -50.764
-20110.729	    15.376	   -54.920	   -58.407
-19731.875	    15.434	   -45.692	   -77.510
-20085.586	    15.576	   -24.993	   -75.204
-19729.527	    15.702	   -54.352	   -47.381
-19665.793	    15.633	   -39.435	   -65.296
-19729.896	    15.418	   -30.618	   -43.410
-19789.631	    15.271	   -27.464	   -47.173
-20061.947	    15.209	   -61.513	   -50.265
-20093.664	    15.247	   -35.533	   -38.095
-19953.693	    15.382	   -44.949	   -60.358
-19962.717	    15.700	   -38.003	   -52.768
-19631.762	    16.005	   -33.316	   -55.325
-19767.787	    16.040	   -40.912	   -72.688
-19558.416	    15.933	   -30.286	   -57.942
-19678.223	    15.803	   -32.619	   -52.875
-19503.691	    15.548	   -56.790	   -60.153
-19789.520	    15.265	   -32.870	   -58.075
-20202.723	    15.012	   -36.181	   -48.467
-20128.873	    14.968	   -50.551	   -51.326
-19867.221	    15.166	   -37.606	   -62.154
-19792.410	    15.419	   -55.633	   -63.615
-19819.883	    15.606	   -36.914	   -48.886
-20085.373	    15.751	   -49.106	   -43.439
-19777.420	    15.836	   -29.442	   -50.631
-19826.441	    15.738	   -40.994	   -43.067
-19819.594	    15.490	   -41.370	   -47.310
-20073.604	    15.298	   -48.132	   -66.113
-19884.918	    15.248	   -33.297	   -58.873
-19835.977	    15.388	   -57.361	   -67.282
-19914.615	    15.656	   -21.450	   -61.301
-19658.328	    15.824	   -46.864	   -54.179
-19559.922	    15.758	   -39.773	   -58.063
-19718.209	    15.550	   -36.430	   -50.462
-20115.070	    15.353	   -45.802	   -50.047
-19929.209	    15.286	   -51.549	   -55.729
-19745.934	    15.399	   -63.830	   -60.613
-19887.072	    15.530	   -38.714	   -63.912
-19820.385	    15.564	   -37.431	   -60.001
-20032.012	    15.500	   -52.180	   -45.852
-19880.164	    15.445	   -56.099	   -47.922
-19974.332	    15.432	   -43.105	   -54.213
-20057.787	    15.523	   -25.296	   -86.470
-19868.400	    15.672	   -36.732	   -60.969
-19757.258	    15.738	   -18.361	   -64.096
-20030.396	    15.688	   -41.411	   -55.645
-19915.766	    15.551	   -36.648	   -58.206
-20154.010	    15.394	   -40.154	   -62.752
-20180.279	    15.268	   -53.972	   -61.283
-19907.107	    15.242	   -63.225	   -64.973
-19949.797	    15.288	   -44.549	   -81.006
-19951.678	    15.487	   -51.048	   -59.491
-19864.664	    15.691	   -51.809	   -74.653
-19749.168	    15.807	   -41.629	   -74.150
-20152.967	    15.882	   -62.142	   -49.674
-19714.299	    15.889	   -35.947	   -57.682
-19757.859	    15.900	   -41.923	   -55.752
-19742.465	    15.889	   -33.325	   -69.756
-19924.766	    15.714	   -59.664	   -33.099
-20071.508	    15.683	   -52.797	   -53.027
-19715.611	    15.615	   -39.760	   -44.365
-20099.898	    15.430	   -26.524	   -68.567
-20005.418	    15.307	   -61.956	   -49.733
-19930.686	    15.356	   -19.788	   -58.356
-19810.328	    15.525	   -31.710	   -54.141
-19914.654	    15.645	   -21.582	   -60.400
-19749.254	    15.871	   -46.555	   -60.671
-20005.059	    15.906	   -53.498	   -71.665
-19793.824	    15.769	   -30.976	   -61.569
-19845.611	    15.554	   -27.424	   -62.219
-19941.920	    15.377	   -51.455	   -79.671
-19839.787	    15.264	   -51.830	   -59.572
-20068.768	    15.267	   -41.764	   -46.077
-20079.434	    15.307	   -63.111	   -39.642
-19879.408	    15.384	   -40.689	   -61.025
-19888.953	    15.451	   -35.948	   -50.046
-19781.252	    15.538	   -37.990	   -70.523
-19883.137	    15.584	   -29.309	   -60.216
-20062.459	    15.689	   -33.455	   -58.972
-19822.082	    15.652	   -28.034	   -65.379
-19998.303	    15.585	   -57.721	   -84.502
-20079.662	    15.446	   -50.178	   -84.642
-19957.875	    15.339	   -44.030	   -42.572
-19986.500	    15.290	   -54.132	   -43.948
-19898.719	    15.380	   -31.444	   -63.480
-19960.918	    15.450	   -69.366	   -44.795
-19858.680	    15.492	   -44.845	   -47.160
-19859.355	    15.576	   -37.215	   -56.256
-19709.539	    15.590	   -43.095	   -63.164
-19973.217	    15.474	   -46.503	   -35.791
-19935.141	    15.378	   -20.346	   -63.318
-19744.203	    15.383	   -44.620	   -33.746
-19832.365	    15.372	   -41.592	   -57.913
-19821.428	    15.412	   -44.912	   -56.270
-19986.168	    15.482	   -36.986	   -66.702
-19922.477	    15.483	   -45.194	   -54.535
-19767.766	    15.565	   -68.043	   -51.386
-19884.137	    15.531	   -54.115	   -50.821
-19824.197	    15.523	   -48.611	   -55.344
-19882.156	    15.521	   -53.558	   -45.469
-20061.408	    15.507	   -58.513	   -61.522
-19836.635	    15.550	   -48.796	   -52.259
-19947.459	    15.692	   -49.094	   -58.200
-19906.494	    15.795	   -52.551	   -73.772
-19836.631	    15.950	   -57.373	   -64.816
-19745.381	    16.011	   -50.730	   -75.012
-19666.371	    15.987	   -27.671	   -67.441
-19973.670	    15.872	   -31.700	   -64.584
-19648.074	    15.605	   -45.875	   -44.758
-20049.182	    15.313	   -34.947	   -51.743
-20136.580	    15.078	   -41.128	   -54.780
-20165.508	    14.932	   -41.101	   -57.157
-19745.455	    14.996	   -38.303	   -55.586
-20028.377	    15.335	   -39.651	   -62.743
-19745.375	    15.583	   -28.519	   -62.286
-19587.043	    15.717	   -66.750	   -60.608
-19910.229	    15.613	   -63.465	   -61.982
-19715.041	    15.434	   -48.326	   -60.983
-20081.203	    15.330	   -49.142	   -49.249
-20035.018	    15.284	   -40.030	   -62.953
-19883.178	    15.277	   -35.957	   -65.520
-19670.318	    15.323	    -8.398	   -67.904
-19825.945	    15.329	   -17.360	   -84.899
-19615.818	    15.351	   -32.465	   -68.533
-20108.883	    15.436	   -41.773	   -49.850
-19885.621	    15.606	   -52.878	   -53.323
-19614.037	    15.690	   -25.338	   -46.265
-20329.904	    15.536	   -39.857	   -43.472
-20182.275	    15.406	   -49.422	   -76.490
-19851.711	    15.347	   -53.990	   -63.270
-20211.758	    15.388	   -45.713	   -56.326
-19915.018	    15.391	   -45.957	   -56.447
-19963.182	    15.399	   -28.971	   -66.868
-19967.463	    15.396	   -50.699	   -58.865
-19815.123	    15.399	   -37.043	   -71.522
-19799.170	    15.514	   -62.443	   -65.981
-19680.688	    15.796	   -38.788	   -49.167
-19780.984	    15.808	   -43.574	   -48.215
-19869.518	    15.588	   -39.031	   -55.855
-19869.574	    15.367	   -52.423	   -54.313
-19997.541	    15.142	   -51.858	   -90.900
-20172.062	    15.170	   -43.274	   -54.808
-20082.252	    15.343	   -43.090	   -49.041
-19994.592	    15.516	   -38.575	   -60.523
-19965.707	    15.545	   -35.714	   -64.484
-19952.512	    15.534	   -60.445	   -65.398
-20077.566	    15.529	   -32.667	   -71.999
-19805.648	    15.563	   -27.679	   -58.879
-20024.020	    15.594	   -15.824	   -80.987
-19921.918	    15.577	   -30.760	   -64.796
-19692.318	    15.540	   -66.845	   -72.287
-19895.547	    15.493	   -37.264	   -75.112
-19931.170	    15.559	   -32.493	   -56.034
-19909.879	    15.668	   -46.005	   -51.794
-19893.541	    15.760	   -41.448	   -63.369
-19485.301	    15.802	   -30.160	   -74.493
-20076.002	    15.771	   -42.275	   -64.233
-19996.572	    15.643	   -28.247	   -56.846
-19967.799	    15.464	   -36.098	   -56.930
-19938.240	    15.299	   -48.839	   -59.815
-20153.113	    15.337	   -26.561	   -71.180
-19838.035	    15.502	   -33.297	   -59.056
-19901.301	    15.659	   -41.538	   -58.021
-19584.828	    15.863	   -39.053	   -58.735
-19733.777	    16.018	   -47.939	   -45.583
-19793.561	    16.008	   -49.182	   -67.918
-19937.645	    15.805	   -37.169	   -48.599
-19795.283	    15.471	   -22.773	   -49.034
-20117.076	    15.234	   -36.430	   -57.183
-19852.195	    15.375	   -54.081	   -52.401
-19873.670	    15.523	   -26.518	   -83.404
-19896.629	    15.580	   -41.200	   -67.227
-19665.246	    15.554	   -28.519	   -54.795
-19881.816	    15.446	   -59.759	   -57.174
-20053.129	    15.216	   -29.897	   -53.622
-20146.879	    15.010	   -41.761	   -53.329
-19954.635	    15.222	   -41.755	   -57.363
-19886.799	    15.459	   -64.340	   -62.767
-19932.990	    15.475	   -44.345	   -58.275
-19604.598	    15.378	   -38.144	   -56.704
-19696.672	    15.317	   -60.188	   -67.870
-20027.873	    15.141	   -41.213	   -58.278
-20204.180	    15.048	   -42.660	   -71.342
-19910.301	    15.203	   -43.368	   -58.559
-19750.104	    15.465	   -31.498	   -54.678
-19953.258	    15.660	   -37.441	   -70.598
-19805.150	    15.713	   -60.526	   -71.073
-19796.963	    15.708	   -38.193	   -73.490
-19988.322	    15.587	   -45.002	   -64.490
-19851.924	    15.594	   -48.937	   -60.504
-19954.105	    15.597	   -29.252	   -67.473
-20052.451	    15.551	   -41.465	   -74.922
-20266.268	    15.577	   -20.517	   -72.771
-20018.576	    15.722	   -45.137	   -59.736
-19899.273	    15.821	   -32.766	   -65.100
-19732.834	    15.688	   -53.815	   -48.543
-19956.756	    15.564	   -48.208	   -56.036
-19725.043	    15.479	   -41.855	   -49.729
-19971.959	    15.245	   -45.080	   -58.722
-19958.096	    15.098	   -40.040	   -51.130
-20066.398	    15.122	   -48.043	   -51.353
-19830.459	    15.354	   -41.303	   -55.888
-19766.006	    15.609	   -37.236	   -58.895
-19761.268	    15.764	   -50.141	   -66.835
-19732.555	    15.841	   -35.025	   -48.529
-19776.688	    15.742	   -34.845	   -50.394
-19927.988	    15.552	   -36.812	   -55.277
-19851.971	    15.554	   -41.362	   -55.057
-19659.021	    15.601	   -35.429	   -46.586
-19793.012	    15.634	   -53.965	   -51.909
-19665.406	    15.618	   -38.923	   -61.009
-19949.520	    15.676	   -26.762	   -63.516
-19975.418	    15.602	   -31.230	   -74.419
-19802.830	    15.523	   -59.138	   -37.535
-19917.721	    15.407	   -29.101	   -59.645
-20134.289	    15.377	   -35.166	   -68.833
-20024.424	    15.466	   -34.433	   -60.088
-19853.463	    15.474	   -30.234	   -63.207
-20083.135	    15.422	   -43.729	   -60.750
-19859.199	    15.387	   -41.681	   -61.065
-19828.818	    15.491	   -28.917	   -56.180
-19669.172	    15.574	   -53.164	   -58.116
-19734.934	    15.613	   -51.907	   -58.306
-19865.355	    15.511	   -29.833	   -77.514
-20152.445	    15.444	   -28.055	   -63.097
-19616.498	    15.555	   -46.097	   -45.415
-20109.227	    15.501	   -46.621	   -49.463
-19906.891	    15.458	   -45.417	   -70.396
-19902.037	    15.444	   -24.097	   -71.153
-20059.445	    15.313	   -31.518	   -56.911
-20127.598	    15.441	   -43.321	   -69.078
-20182.246	    15.605	   -39.356	   -69.860
-19641.939	    15.725	   -30.609	   -64.580
-19737.441	    15.817	   -32.442	   -91.958
-19933.332	    15.935	   -38.696	   -72.475
-19583.561	    15.943	   -61.378	   -56.755
-19945.037	    15.782	   -37.903	   -61.966
-19837.164	    15.518	   -38.712	   -62.309
-19913.977	    15.231	   -49.864	   -48.785
-19952.719	    15.206	   -56.660	   -70.018
-20012.936	    15.324	   -16.669	   -65.529
-19879.480	    15.607	   -48.424	   -60.752
-19746.910	    15.861	   -53.160	   -53.419
-19576.090	    16.042	   -30.706	   -52.510
-19607.785	    16.115	   -38.300	   -57.317
-19817.197	    15.870	   -56.349	   -65.241
-19786.922	    15.557	   -43.022	   -60.673
-19766.615	    15.437	   -46.464	   -58.541
-19618.520	    15.372	   -50.082	   -42.302
-20070.328	    15.396	   -44.031	   -66.055
-19857.559	    15.595	   -45.109	   -49.090
-19773.857	    15.751	   -38.550	   -54.242
-19712.209	    15.737	   -40.557	   -44.904
-19909.113	    15.486	   -28.001	   -58.626
-20010.631	    15.227	   -12.220	   -59.101
-19832.143	    15.249	   -34.604	   -65.731
-19914.889	    15.478	   -25.860	   -67.342
-19683.178	    15.663	   -15.731	   -87.511
-19793.303	    15.704	   -42.229	   -67.126
-19764.484	    15.723	   -45.877	   -59.762
-19889.637	    15.647	   -62.463	   -63.003
-20022.961	    15.446	   -54.206	   -51.991
-20115.064	    15.281	   -34.806	   -76.129
-20071.461	    15.248	   -29.373	   -69.004
-19875.516	    15.198	   -33.567	   -71.432
-20132.520	    15.295	   -28.233	   -60.487
-20054.150	    15.427	   -32.999	   -72.010
-20018.566	    15.420	   -32.336	   -63.961
-20043.055	    15.427	   -53.924	   -52.672
-19846.322	    15.440	   -52.658	   -55.618
-19891.795	    15.508	   -41.209	   -52.949
-20003.980	    15.567	   -14.132	   -89.766
-19760.068	    15.772	   -37.658	   -49.340
-19914.039	    15.954	   -52.145	   -77.001
-19849.414	    15.998	   -44.153	   -57.751
-19765.232	    15.802	   -32.840	   -48.954
-19894.184	    15.538	   -31.404	   -67.942
-19939.289	    15.394	   -40.811	   -52.984
-20051.467	    15.428	   -54.604	   -47.696
-19721.346	    15.473	   -47.685	   -43.648
-19745.170	    15.509	   -41.328	   -67.690
-20069.762	    15.559	   -64.367	   -64.359
-19857.701	    15.616	   -35.280	   -73.232
-19696.900	    15.692	   -44.302	   -72.414
-19887.389	    15.650	   -46.573	   -70.742
-19828.805	    15.411	   -46.172	   -65.589
-20139.379	    15.164	   -47.052	   -64.881
-19984.123	    15.171	   -35.058	   -63.333
-20045.979	    15.320	   -58.374	   -48.419
-19841.219	    15.534	   -51.487	   -63.800
-19783.324	    15.580	   -33.586	   -50.526
-19795.422	    15.779	   -39.869	   -58.407
-19779.070	    16.055	   -53.813	   -33.600
-19710.914	    16.168	   -56.074	   -35.897
-19728.430	    16.063	   -13.050	   -75.052
-19928.914	    15.841	   -50.614	   -66.638
-19803.959	    15.674	   -38.094	   -64.854
-19997.086	    15.451	   -38.133	   -59.256
-19837.076	    15.289	   -49.181	   -56.931
-19936.275	    15.322	   -47.270	   -68.104
-19862.412	    15.479	   -37.881	   -57.562
-19719.480	    15.589	   -44.750	   -46.871
-19858.057	    15.633	   -13.854	   -92.861
-19980.086	    15.725	   -50.070	   -65.292
-19969.305	    15.869	   -30.108	   -71.020
-19809.967	    16.011	   -44.320	   -72.700
-19652.859	    15.932	   -30.851	   -50.810
-20030.416	    15.641	   -49.281	   -53.377
-20161.520	    15.260	   -45.392	   -51.331
-20081.660	    15.032	   -42.643	   -50.032
-20258.562	    14.942	   -19.322	   -78.698
-20296.742	    15.071	   -56.720	   -55.809
-19863.949	    15.427	   -57.067	   -53.004
-19781.658	    15.712	   -52.080	   -48.957
-19913.508	    15.793	   -42.346	   -59.344
-20045.123	    15.694	   -58.775	   -59.810
-19916.076	    15.624	   -39.744	   -59.474
-19919.275	    15.494	   -52.085	   -45.970
-19755.178	    15.414	   -18.053	   -76.570
-19935.805	    15.344	   -45.196	   -71.775
-20104.725	    15.342	   -53.207	   -71.417
-20012.996	    15.455	   -42.292	   -59.305
-20180.723	    15.523	   -41.478	   -43.004
-19857.652	    15.606	   -50.014	   -47.503
-19759.484	    15.692	   -37.222	   -60.930
-19845.727	    15.693	   -45.716	   -57.535
-19713.080	    15.548	   -46.202	   -62.416
-19760.512	    15.418	   -31.323	   -68.663
-19755.605	    15.408	   -49.310	   -57.346
-19748.496	    15.379	   -47.590	   -50.070
-19755.529	    15.411	   -39.389	   -68.765
-20105.953	    15.418	   -60.583	   -44.317
-19925.262	    15.499	   -47.376	   -58.808
-19586.342	    15.494	   -38.769	   -56.451
-19820.338	    15.577	   -35.161	   -70.657
-19821.145	    15.578	   -36.803	   -64.314
-19832.600	    15.446	   -57.172	   -66.563
-19819.197	    15.383	   -42.469	   -46.601
-20041.881	    15.324	   -43.883	   -37.894
-19852.674	    15.342	   -49.909	   -56.019
-20059.248	    15.494	   -40.577	   -51.542
-20008.719	    15.595	   -17.146	   -65.963
-19835.289	    15.606	   -54.488	   -62.839
-20168.961	    15.520	   -23.755	   -53.686
-20000.961	    15.538	   -35.024	   -67.570
-19727.557	    15.605	   -47.790	   -52.173
-19836.998	    15.605	   -33.844	   -58.547
-19513.654	    15.569	   -40.864	   -46.669
-19886.602	    15.497	   -62.917	   -62.384
-19940.000	    15.324	   -47.647	   -55.833
-19875.955	    15.355	   -30.134	   -57.828
-19967.389	    15.644	   -40.586	   -57.608
-19896.299	    15.916	   -46.576	   -59.936
-19914.162	    15.912	   -38.261	   -50.003
-19939.604	    15.611	   -26.128	   -50.257
-19840.896	    15.349	   -40.180	   -69.530
-20199.512	    15.252	   -51.554	   -50.370
-19875.600	    15.370	   -34.354	   -62.969
-19915.328	    15.568	   -21.516	   -57.013
-19897.516	    15.789	     2.915	   -63.400
-19664.590	    15.816	   -32.960	   -71.773
-19847.375	    15.793	   -48.187	   -52.722
-19713.859	    15.762	   -47.796	   -55.206
-19937.834	    15.599	   -34.871	   -60.288
-20034.934	    15.474	   -51.262	   -35.095
-19936.520	    15.451	   -47.930	   -64.496
-19939.713	    15.519	   -45.249	   -45.774
-19756.580	    15.742	   -42.511	   -68.790
-19749.439	    15.980	   -43.413	   -53.957
-19752.307	    16.116	   -35.949	   -50.967
-19721.270	    16.107	   -50.268	   -52.736
-19526.088	    16.006	   -43.515	   -62.400
-19984.203	    15.729	   -46.833	   -53.333
-19811.221	    15.472	   -37.904	   -58.794
-19800.650	    15.264	   -63.476	   -52.215
-20110.686	    15.171	   -46.881	   -64.069
-19884.064	    15.251	   -39.852	   -64.374
-19776.918	    15.466	   -48.974	   -55.095
-19551.457	    15.700	   -54.457	   -58.712
-19540.059	    15.851	   -51.115	   -54.525
-19873.525	    15.777	   -52.530	   -51.939
-19894.020	    15.473	   -30.548	   -72.789
-19983.805	    15.299	   -49.079	   -57.900
-20013.314	    15.288	   -41.414	   -42.466
-20131.488	    15.415	   -46.986	   -58.611
-20038.521	    15.580	   -21.250	   -71.595
-20134.133	    15.603	   -37.761	   -46.720
-19963.057	    15.537	   -36.566	   -58.290
-19922.318	    15.534	   -48.872	   -67.863
-20081.760	    15.481	   -43.682	   -54.093
-19927.250	    15.509	   -38.588	   -74.756
-20021.506	    15.478	   -32.271	   -70.717
-20271.078	    15.285	   -54.249	   -59.836
-19978.752	    15.231	   -40.676	   -46.171
-20118.215	    15.259	   -41.282	   -61.218
-20141.090	    15.334	   -32.527	   -73.662
-20063.146	    15.538	   -29.487	   -55.526
-19963.746	    15.733	   -26.507	   -59.977
-19778.814	    15.675	   -24.562	   -50.917
-20052.852	    15.514	   -53.150	   -65.005
-20144.311	    15.468	   -54.476	   -37.149
-20086.156	    15.622	   -46.427	   -64.229
-19777.523	    15.675	   -30.134	   -60.340
-19898.639	    15.586	   -41.337	   -57.845
-20007.293	    15.447	   -46.351	   -64.544
-19958.061	    15.431	   -37.842	   -33.293
-19685.037	    15.582	   -52.586	   -43.153
-19781.352	    15.691	   -38.237	   -56.522
-19903.025	    15.737	   -38.154	   -55.549
-19937.561	    15.691	   -47.789	   -70.753
-19826.641	    15.592	   -31.353	   -62.176
-19761.098	    15.580	   -38.046	   -60.278
-20194.553	    15.605	   -53.833	   -53.415
-19781.754	    15.704	   -20.294	   -70.199
-19806.201	    15.729	   -57.748	   -40.434
-20016.693	    15.559	   -50.030	   -75.779
-20011.396	    15.382	   -28.110	   -83.812
-20129.186	    15.265	   -38.193	   -60.150
-20068.027	    15.273	   -18.634	   -71.309
-19882.609	    15.443	   -53.336	   -72.067
-19908.537	    15.662	   -22.149	   -41.687
-19903.402	    15.715	   -39.198	   -52.894
-19925.561	    15.559	   -29.186	   -44.479
-20041.615	    15.374	   -48.204	   -54.312
-19942.344	    15.359	   -19.462	   -63.170
-19727.467	    15.555	   -20.078	   -53.567
-19804.715	    15.673	   -31.076	   -68.904
-19681.324	    15.664	   -62.899	   -66.379
-19820.398	    15.614	   -50.909	   -58.260
-19678.879	    15.688	   -55.307	   -61.135
-19914.834	    15.717	   -35.503	   -58.818
-19760.484	    15.602	   -45.925	   -57.531
-19902.783	    15.514	   -34.104	   -64.984
-19902.756	    15.496	   -30.677	   -74.616
-19928.934	    15.584	   -46.117	   -54.825
-19976.082	    15.567	   -14.988	   -81.104
-20044.422	    15.496	   -39.860	   -65.418
-19933.967	    15.413	   -35.488	   -68.660
-20214.287	    15.362	   -44.204	   -67.395
-19925.750	    15.405	     2.992	   -75.699
-19802.119	    15.555	   -28.257	   -69.699
-19997.076	    15.742	   -27.262	   -49.614
-19911.727	    15.807	   -39.912	   -53.017
-20030.656	    15.773	   -47.028	   -58.604
-19700.109	    15.675	   -43.628	   -70.183
-20000.230	    15.576	   -43.252	   -56.656
-19982.604	    15.609	   -52.967	   -74.476
-19809.455	    15.665	   -40.401	   -58.939
-19912.145	    15.604	   -47.579	   -70.849
-19844.521	    15.615	   -56.212	   -60.450
