-19954.471	    15.334	   -92.310	   122.143
-19681.938	    15.436	  -151.960	    88.894
-19663.777	    15.568	  -179.365	    72.551
-19718.268	    15.699	  -169.689	   122.229
-19819.117	    15.706	   179.208	   104.143
-19817.814	    15.693	   171.318	   129.422
-19471.867	    15.657	   179.585	   122.344
-19545.670	    15.661	   175.395	   111.065
-19640.908	    15.679	  -178.660	   107.147
-19507.920	    15.613	  -170.896	    99.890
-19633.518	    15.502	   175.429	    81.132
-19879.557	    15.472	  -175.917	   101.644
-19642.930	    15.658	   175.016	   113.171
-19688.648	    15.885	   179.670	    88.580
-19615.348	    15.951	   169.311	   109.733
-19608.020	    15.979	  -179.549	   121.449
-19638.791	    15.957	  -174.929	   117.606
-19421.682	    15.799	   179.367	   102.610
-19864.336	    15.529	   173.884	   108.746
-19685.924	    15.349	   166.659	   113.473
-19631.287	    15.260	  -178.396	   105.010
-19448.883	    15.325	  -171.902	    99.134
-19586.828	    15.444	   174.506	   122.703
-19640.826	    15.605	   179.743	   114.189
-19694.258	    15.768	  -165.411	    84.334
-19470.121	    15.944	  -176.756	    94.521
-19733.904	    16.026	  -176.502	    99.929
-19688.848	    15.984	  -176.471	   130.828
-19424.061	    16.044	  -161.774	    96.194
-19603.389	    15.927	  -173.630	   102.949
-19599.557	    15.784	   177.588	   127.807
-19535.154	    15.703	   168.719	   115.494
-19501.674	    15.634	   169.526	   125.517
-19837.016	    15.545	   154.857	   125.916
-19582.633	    15.423	  -167.983	   120.126
-19684.785	    15.336	   175.505	   127.591
-19667.625	    15.409	  -170.890	   129.364
-19523.521	    15.638	  -164.306	   116.194
-19649.473	    15.871	   179.637	   132.521
-19361.797	    15.877	  -174.164	   128.235
-19751.537	    15.654	  -179.140	   116.960
-19550.168	    15.507	  -173.177	   114.443
-19614.508	    15.380	  -166.464	   107.583
-19741.240	    15.380	   164.880	   120.383
-19542.938	    15.534	  -178.216	   116.677
-19463.449	    15.658	  -171.945	   116.121
-19657.604	    15.697	   166.870	    91.796
-19679.154	    15.546	   153.816	   112.010
-19711.180	    15.354	  -173.968	   102.262
-19735.203	    15.347	  -177.572	   120.532
-19621.189	    15.433	   172.708	   101.618
-19728.473	    15.532	   179.869	   122.810
-19444.910	    15.646	   163.526	   123.998
-19562.094	    15.819	  -172.632	   126.813
-19254.436	    15.950	  -163.651	   134.206
-19470.604	    15.880	  -173.569	   124.255
-19878.191	    15.817	   171.628	   131.023
-19555.795	    15.837	  -172.839	    92.920
-19383.689	    15.822	   175.120	   116.007
-19715.348	    15.713	   177.258	   104.455
-19730.463	    15.549	  -168.456	   105.579
-19549.812	    15.349	  -168.251	   125.898
-19750.715	    15.316	   159.061	   130.419
-19664.363	    15.374	  -179.065	   100.089
-19800.500	    15.401	   172.374	   102.031
-19705.191	    15.532	   177.802	   114.602
-19846.338	    15.646	   169.383	   114.650
-19823.861	    15.722	   176.271	   105.462
-19492.943	    15.781	  -174.620	   100.717
-19623.309	    15.768	   170.682	   115.239
-19688.209	    15.634	  -175.531	   127.969
-19441.711	    15.499	   177.906	   118.905
-19480.777	    15.373	  -178.819	   118.995
-19793.623	    15.386	   166.550	   132.127
-19597.883	    15.511	   165.210	   126.799
-19462.498	    15.688	   179.332	   130.460
-19290.258	    15.721	  -179.379	   121.458
-19392.111	    15.567	   175.037	   103.579
-19744.742	    15.361	   170.198	   109.660
-19633.230	    15.371	   170.532	   126.869
-19548.697	    15.455	   168.188	   124.704
-19531.799	    15.535	  -171.291	   113.770
-19329.639	    15.736	   168.492	   109.043
-19522.539	    15.925	   178.836	    74.976
-19417.098	    15.979	  -176.325	   126.224
-19470.424	    15.857	  -174.508	   128.824
-19500.209	    15.731	   177.226	   100.531
-19912.477	    15.591	   177.143	   109.749
-19947.619	    15.502	  -169.438	   126.047
-19547.424	    15.518	   174.057	   105.406
-19676.266	    15.576	   173.270	   115.429
-19531.381	    15.585	   178.275	   106.292
-19783.803	    15.526	   178.461	    80.661
-19394.750	    15.540	  -177.542	    87.654
-19687.725	    15.494	   178.579	   123.859
-19956.385	    15.475	   143.877	   124.337
-19640.492	    15.634	   170.447	   119.278
-19482.260	    15.845	  -178.950	   129.558
-19571.531	    16.098	  -174.984	   118.261
-19343.412	    16.204	   169.513	   104.883
-19571.805	    16.000	  -165.318	   128.773
-19645.350	    15.713	  -176.964	   129.191
-19689.576	    15.521	   178.144	   122.433
-19853.766	    15.556	   173.325	   128.600
-19711.836	    15.659	  -176.345	   133.028
-19688.867	    15.627	  -171.461	   106.763
-19543.447	    15.628	   172.442	   119.348
-19523.797	    15.681	  -172.803	   104.883
-19570.123	    15.654	  -168.661	   102.670
-19870.516	    15.617	  -172.062	    88.690
-19679.996	    15.648	  -159.159	   128.583
-19694.338	    15.654	   171.336	   116.514
-19760.152	    15.722	  -175.081	   124.899
-19651.754	    15.821	   178.555	   119.243
-19713.010	    15.817	  -171.257	   126.194
-19587.932	    15.778	  -163.722	   118.298
-19810.445	    15.690	   173.127	   126.163
-19437.055	    15.608	   179.936	   120.302
-19792.197	    15.455	   168.427	   112.846
-19889.562	    15.363	   179.263	   115.495
-19676.379	    15.488	   174.919	   108.008
-19774.291	    15.601	   177.658	   126.670
-19504.674	    15.588	   167.193	   131.190
-19863.568	    15.568	  -175.948	   100.177
-19751.523	    15.554	  -171.626	   111.343
-19553.748	    15.477	   179.063	   120.131
-19879.695	    15.394	  -166.865	   107.181
-19754.027	    15.379	  -173.160	   103.720
-19785.703	    15.444	  -179.702	   118.900
-19577.574	    15.593	   177.489	   101.139
-19469.891	    15.779	  -173.572	   101.730
-19386.594	    15.953	   155.566	   111.364
-19472.988	    16.045	   169.119	    98.365
-19566.412	    15.979	  -156.543	   121.402
-19747.607	    15.814	   171.820	   119.111
-19533.424	    15.645	  -177.461	   111.277
-19541.855	    15.447	   169.573	   117.726
-19997.828	    15.236	   172.742	   104.943
-19951.215	    15.196	   172.392	   128.269
-19848.330	    15.273	  -173.922	   118.136
-19696.809	    15.464	   158.809	   139.566
-19328.896	    15.759	  -172.770	   113.500
-19388.072	    15.940	  -179.664	   128.315
-19469.104	    15.999	   178.661	   134.415
-19638.217	    15.866	  -170.376	   134.697
-19625.039	    15.657	   173.553	   114.759
-19518.588	    15.618	  -166.211	    99.272
-19457.014	    15.698	   177.457	    96.886
-19257.639	    15.802	   178.168	   106.234
-19239.039	    15.887	  -172.668	   137.503
-19554.309	    15.839	   168.582	   113.173
-19894.154	    15.617	  -174.699	    94.588
-19472.123	    15.530	  -176.809	   134.626
-19597.318	    15.604	   164.614	   122.230
-19605.680	    15.620	   172.445	   124.145
-19603.404	    15.541	  -171.523	   112.212
-19715.314	    15.448	  -169.987	   122.362
-19779.725	    15.421	  -179.630	   135.103
-19598.611	    15.341	  -172.937	    95.482
-19750.418	    15.302	   178.221	   118.259
-19881.209	    15.376	   175.005	   118.227
-19807.412	    15.533	  -172.243	   124.194
-19582.840	    15.706	   174.771	   113.851
-19407.088	    15.740	   170.469	   139.363
-19713.662	    15.687	  -173.840	   138.866
-19739.643	    15.555	   174.654	   120.788
-19687.299	    15.639	  -165.510	   110.738
-19687.967	    15.589	   149.985	   119.677
-19980.727	    15.558	   173.490	    72.467
-20005.508	    15.613	  -176.607	    94.819
-19597.201	    15.668	   166.205	   124.078
-19571.182	    15.598	   178.687	   128.487
-19797.453	    15.558	   139.776	   118.138
-19716.670	    15.434	    89.495	   131.146
-19672.447	    15.349	   165.067	   100.922
-19536.281	    15.465	  -178.741	   125.172
-19736.715	    15.621	  -172.203	    86.519
-19647.594	    15.822	  -171.843	    80.135
-19548.385	    15.910	  -178.161	   102.516
-19629.504	    15.751	   175.428	   113.303
-19703.914	    15.498	   175.040	   111.850
-19685.186	    15.329	  -173.236	   117.619
-19676.570	    15.362	   176.013	   105.762
-19620.785	    15.587	  -176.210	    97.952
-19614.869	    15.844	  -176.033	   115.509
-19320.188	    15.983	   172.821	   134.672
-19405.193	    15.931	  -170.471	   123.941
-19506.482	    15.627	  -175.281	   129.832
-19695.566	    15.379	   179.929	    99.225
-19705.029	    15.460	   172.859	   131.740
-19619.086	    15.705	   177.196	   127.869
-19567.625	    15.785	   173.248	   106.052
-19674.381	    15.793	   178.337	   108.471
-19840.623	    15.648	  -175.955	    96.790
-19946.336	    15.505	  -169.960	    83.426
-19756.752	    15.539	   170.640	    93.701
-19698.695	    15.618	  -176.441	    89.019
-19409.336	    15.789	  -152.385	   106.264
-19575.105	    15.923	  -177.247	   128.570
-19464.084	    15.980	  -167.314	   106.403
-19580.725	    15.852	   174.900	   113.859
-19627.074	    15.578	  -172.418	   129.147
-19662.533	    15.443	  -172.568	   114.934
-19717.203	    15.329	   176.729	   144.655
-19745.234	    15.408	  -175.106	   132.768
-19637.547	    15.593	   177.410	   124.903
-19419.145	    15.810	  -176.101	   115.881
-19812.299	    15.816	   177.941	   132.824
-19557.219	    15.715	   173.958	    85.125
-19747.170	    15.617	  -172.956	   116.799
-19339.379	    15.582	  -175.479	   112.637
-19691.549	    15.553	  -179.621	   126.387
-19598.514	    15.550	   179.322	   132.934
-19427.434	    15.590	   178.637	   101.356
-19554.389	    15.537	   147.619	   123.413
-19689.773	    15.431	   178.378	   120.403
-19614.260	    15.383	  -173.378	   108.090
-19687.848	    15.398	  -170.742	   108.935
-19660.359	    15.383	  -178.668	   101.665
-19438.996	    15.480	   171.536	    95.869
-19635.893	    15.598	   174.970	   103.710
-19618.643	    15.637	  -172.930	   104.727
-19564.498	    15.590	   178.548	   107.038
-19616.027	    15.644	   173.748	   110.104
-19217.299	    15.720	  -177.195	   119.901
-19521.914	    15.698	  -168.670	   101.688
-19658.705	    15.665	   173.670	   101.825
-19856.613	    15.682	  -178.296	   103.791
-19424.430	    15.783	  -175.040	    86.366
-19688.504	    15.735	   177.456	    88.842
-19439.277	    15.767	  -179.069	    93.390
-19682.400	    15.942	  -161.045	   114.645
-19427.105	    16.014	  -170.131	   112.617
-19451.096	    15.923	  -176.120	   150.703
-19564.010	    15.696	  -169.382	   110.249
-19499.363	    15.370	  -175.266	   100.134
-19883.744	    15.219	   175.232	    88.369
-19492.113	    15.324	   165.680	   129.233
-19608.014	    15.542	  -179.114	   110.631
-19557.283	    15.696	   178.023	   110.356
-19643.977	    15.824	  -173.221	   120.630
-19771.301	    15.951	   147.093	   138.959
-19472.051	    15.995	  -176.182	    99.642
-19546.213	    15.897	  -164.514	    93.609
-20019.504	    15.683	  -171.583	   103.002
-19762.723	    15.663	  -172.787	   133.208
-19686.518	    15.818	   167.174	   111.770
-19567.826	    15.926	   178.752	   124.231
-19486.432	    15.843	  -175.640	   109.211
-19674.352	    15.627	  -174.405	    84.588
-19842.727	    15.523	  -178.994	    99.586
-19388.744	    15.596	   178.078	   101.644
-19736.309	    15.714	   179.370	   135.291
-19743.717	    15.693	   175.791	   138.936
-19873.920	    15.634	  -171.004	   109.226
-19612.385	    15.529	   177.404	   130.099
-19652.359	    15.509	  -178.002	   133.414
-19363.346	    15.543	   171.029	   104.055
-19649.385	    15.480	  -170.327	   100.715
-19783.824	    15.325	   170.412	   123.198
-19671.506	    15.310	   178.751	   115.439
-19706.537	    15.367	   177.599	   126.676
-19541.480	    15.522	  -179.181	    97.752
-19517.408	    15.749	   166.030	    97.075
-19728.871	    15.848	  -167.635	   107.040
-19690.627	    15.799	   177.965	    98.810
-19616.328	    15.747	   172.382	   113.620
-19491.312	    15.615	  -177.631	   115.192
-19717.178	    15.471	  -171.427	   115.795
-19482.258	    15.409	   174.361	    92.413
-19608.859	    15.402	  -162.572	   110.570
-20029.051	    15.491	  -163.246	    84.065
-19633.383	    15.725	  -173.510	   111.240
-19576.734	    15.850	  -175.046	   112.342
-19719.004	    15.813	  -167.962	   108.991
-19542.059	    15.734	   169.920	    88.146
-19711.518	    15.581	   166.471	   105.733
-19616.594	    15.542	  -177.330	   119.741
-19391.641	    15.599	   176.366	   122.546
-19841.578	    15.614	  -172.222	   120.179
-19746.033	    15.805	  -168.349	   110.862
-19392.051	    16.011	   177.954	   135.780
-19479.775	    16.103	  -177.621	   108.223
-19527.332	    15.926	   173.369	   125.284
-19525.887	    15.580	   173.271	   127.027
-19696.277	    15.425	   175.935	    98.962
-19620.107	    15.359	  -179.189	   131.360
-19904.293	    15.436	   178.555	   127.316
-19644.021	    15.648	  -178.357	   116.805
-19674.076	    15.698	  -176.294	   117.166
-19768.605	    15.656	  -174.065	   108.635
-19887.553	    15.669	  -172.862	   100.911
-19546.246	    15.719	  -170.287	   108.617
-19788.479	    15.670	  -167.337	    94.410
-19635.973	    15.654	  -179.035	    88.781
-19408.451	    15.754	  -170.392	   114.059
-19427.604	    15.789	  -172.909	   113.873
-19237.902	    15.698	   160.807	   132.562
-19670.895	    15.603	  -163.918	   127.690
-19631.621	    15.662	   170.445	   119.452
-19348.164	    15.625	  -178.872	   112.651
-19469.105	    15.529	  -166.493	    89.866
-19799.377	    15.324	  -173.828	   102.870
-19695.453	    15.240	  -176.489	    96.819
-19538.598	    15.431	   159.591	   101.977
-19673.234	    15.589	  -167.095	   119.012
-19599.809	    15.669	  -175.801	   138.005
-19667.080	    15.776	  -171.426	   119.780
-19938.943	    15.692	  -170.706	   122.289
-19871.234	    15.505	   172.834	   119.722
-19858.617	    15.286	  -178.937	   121.183
-19920.789	    15.288	  -178.461	   107.114
-19611.812	    15.244	   175.966	   116.236
-19361.863	    15.220	  -172.185	   140.632
-19527.922	    15.303	  -172.155	   102.208
-19532.762	    15.519	   176.119	   101.402
-19471.322	    15.799	  -175.855	   109.657
-19596.328	    15.999	  -162.364	    93.573
-19589.504	    16.094	   175.897	   116.350
-19672.982	    16.020	   175.425	   116.350
-19626.783	    15.879	   178.127	   106.654
-19647.141	    15.749	  -174.668	   108.119
-19703.535	    15.625	  -178.637	   106.981
-19722.949	    15.434	  -174.195	   119.243
-19661.713	    15.366	  -165.535	   115.351
-19721.389	    15.272	   167.148	   105.393
-19566.727	    15.313	   179.960	    89.930
-19736.432	    15.467	  -173.343	   119.622
-19242.609	    15.587	   165.691	   126.430
-19629.979	    15.625	   175.813	   117.859
-19597.943	    15.607	   178.941	   112.055
-19650.408	    15.607	   173.963	   157.964
-19564.730	    15.669	  -178.512	   108.863
-19517.189	    15.693	   145.540	   121.300
-19465.977	    15.647	   172.147	    84.103
-19712.223	    15.590	  -175.203	    85.595
-19550.545	    15.663	  -173.280	   124.002
-19670.697	    15.682	  -173.648	   107.801
-19592.184	    15.755	   178.381	   118.745
-19621.432	    15.804	   172.292	   122.163
-19662.330	    15.760	   179.098	   110.505
-19609.699	    15.646	  -172.192	   122.348
-19623.102	    15.605	   177.539	   115.785
-19453.365	    15.606	  -167.789	   122.998
-19832.055	    15.533	   171.294	   131.525
-19702.746	    15.455	   155.617	   125.838
-19513.223	    15.574	   159.352	   116.429
-19675.521	    15.664	  -179.918	   109.883
-19684.623	    15.710	  -168.260	   126.310
-19355.012	    15.731	   160.835	   123.603
-19482.688	    15.663	   176.783	   130.132
-19884.631	    15.580	  -174.310	   144.004
-19574.713	    15.469	  -173.052	    90.100
-19856.385	    15.369	  -170.447	   111.250
-19697.504	    15.543	  -179.223	   102.106
-19780.328	    15.610	  -179.211	   107.553
-19337.568	    15.630	  -167.389	    80.837
-19599.176	    15.648	  -174.812	   135.620
-19878.379	    15.623	  -177.324	   114.812
-19531.615	    15.546	   169.788	   133.007
-20036.760	    15.421	  -177.553	   109.731
-19908.223	    15.458	  -164.667	   109.345
-19488.156	    15.640	   170.717	   109.709
-19671.412	    15.699	   175.233	   130.716
-19489.725	    15.642	  -173.092	   116.711
-19468.727	    15.548	  -174.158	   102.965
-19613.318	    15.486	  -166.364	   111.633
-19426.734	    15.424	   175.385	   104.687
-19595.898	    15.494	  -177.854	    99.336
-19583.174	    15.513	  -168.105	   106.111
-19632.572	    15.616	  -177.383	   106.762
-19649.439	    15.646	  -179.705	   118.572
-19432.672	    15.681	   175.004	   121.193
-19556.531	    15.695	  -164.090	   111.343
-19675.428	    15.704	  -165.188	   104.141
-19603.055	    15.727	  -161.993	   114.992
-19714.561	    15.790	  -169.099	   105.666
-19516.531	    15.780	  -170.911	   136.734
-19533.617	    15.689	   179.856	   110.428
-19686.607	    15.462	  -166.611	    84.303
-19735.963	    15.315	  -178.430	   108.435
-19673.051	    15.382	   172.428	   116.356
-19721.816	    15.572	  -166.360	    91.205
-19462.615	    15.889	  -172.310	    93.205
-19658.234	    16.199	  -174.586	    93.068
-19454.148	    16.277	  -165.236	    75.796
-19494.457	    16.131	  -178.747	    98.342
-19767.584	    15.932	  -164.689	   117.451
-19682.045	    15.652	  -162.898	   119.462
-19845.109	    15.405	  -172.350	   107.166
-19698.430	    15.216	  -175.245	   132.370
-19795.371	    15.272	  -167.157	   112.332
-19784.457	    15.523	  -164.714	   118.705
-19550.984	    15.710	  -158.994	   114.313
-19213.678	    15.762	  -172.674	   128.438
-19420.844	    15.738	  -174.275	    89.448
-19792.033	    15.612	  -163.689	   114.434
-19892.367	    15.423	  -173.378	   125.646
-19955.016	    15.397	   159.785	   127.333
-19423.621	    15.474	   162.771	   128.770
-19456.621	    15.644	  -176.199	   112.122
-19508.725	    15.738	   167.621	   113.773
-19342.205	    15.749	  -169.157	   110.512
-19239.520	    15.682	   165.895	    91.957
-19783.100	    15.478	   169.904	   110.845
-19548.295	    15.444	   178.617	   102.866
-19634.018	    15.427	  -174.824	   104.615
-19696.258	    15.486	  -171.677	   120.121
-19485.922	    15.553	   179.989	   106.865
-19813.090	    15.501	  -176.985	    86.043
-19642.727	    15.425	  -176.987	   111.527
-19535.404	    15.464	   152.387	    89.857
-19626.721	    15.597	   158.605	    96.023
-19387.193	    15.731	   168.921	    95.305
-19525.318	    15.840	  -168.319	   110.054
-19672.387	    15.845	   164.221	   121.750
-19763.852	    15.811	  -169.104	   102.661
-19767.609	    15.757	   175.825	   109.043
-19603.311	    15.751	   174.870	   126.611
-19709.158	    15.781	  -173.941	   126.966
-19374.934	    15.568	  -166.907	   125.118
-19500.271	    15.448	  -160.836	   104.698
-19257.729	    15.412	  -175.776	   121.891
-19657.766	    15.485	  -177.102	   126.563
-19655.641	    15.580	  -166.541	   128.732
-19602.367	    15.608	  -159.184	   105.191
-19873.395	    15.644	  -179.296	    95.135
-19533.373	    15.697	  -178.994	    83.703
-19808.109	    15.560	  -173.404	   127.948
-19689.424	    15.443	   174.460	   122.881
-19855.559	    15.464	  -178.738	   126.536
-19664.381	    15.593	  -175.270	   126.618
-19395.635	    15.735	   163.157	   107.732
-19614.074	    15.794	   153.416	   106.317
-19475.650	    15.929	   151.287	   131.243
-19305.748	    15.959	   172.480	   134.449
-19771.803	    15.929	   164.513	   142.946
-19721.852	    15.850	  -175.501	   134.334
-19664.227	    15.776	  -176.945	   123.684
-19625.213	    15.636	  -169.642	   137.878
-19763.775	    15.526	   168.046	   107.977
-19713.986	    15.512	   168.650	   129.077
-19830.631	    15.507	  -177.562	   101.343
-19902.281	    15.516	  -177.526	   131.470
-19876.307	    15.559	   171.277	   123.883
-19677.951	    15.593	  -171.429	   107.936
-19734.158	    15.701	  -178.555	   118.215
-19611.463	    15.821	  -167.468	   104.734
-19578.754	    15.859	  -173.969	   125.460
-19328.822	    15.829	  -172.223	   121.839
-19609.229	    15.628	   174.954	    94.179
-19560.248	    15.474	   179.987	   108.352
-19752.436	    15.608	  -172.781	   115.015
-19967.924	    15.899	  -175.812	   116.130
-19470.148	    16.035	   178.033	   119.011
-19511.377	    15.885	  -178.636	   113.018
-19656.568	    15.659	  -170.660	    85.101
-19623.145	    15.460	  -165.772	   123.123
-19853.609	    15.387	  -165.957	   119.327
-19810.219	    15.551	   176.838	   124.969
-19407.219	    15.801	   169.044	   110.059
-19565.660	    15.923	  -176.633	   132.679
-19442.930	    15.807	   171.892	   121.074
-19419.025	    15.661	  -173.311	   101.662
-19633.520	    15.466	   169.959	   108.121
-19596.824	    15.389	   169.589	    95.784
-19609.789	    15.414	  -177.768	   108.245
-19786.143	    15.420	   179.676	   104.514
-19776.381	    15.512	  -174.214	    95.053
-19728.215	    15.529	  -170.405	   123.827
-19694.771	    15.517	   163.051	   121.027
-19745.412	    15.492	   179.381	   100.919
-19663.590	    15.501	  -179.335	   122.385
-19558.590	    15.534	   168.018	   130.051
-19587.756	    15.548	  -177.834	   113.291
-19492.053	    15.521	   179.727	   107.063
-19786.359	    15.586	  -179.061	   124.626
-19692.229	    15.652	   159.696	   119.601
-19487.539	    15.636	   173.258	   107.361
-19765.891	    15.663	   170.681	   125.737
-19515.049	    15.703	   176.331	    98.330
-19481.887	    15.775	   177.243	   104.770
-19610.227	    15.765	  -173.718	   143.730
-19817.957	    15.725	  -178.713	   138.889
-19752.885	    15.600	  -170.777	   116.389
-19800.439	    15.489	   165.276	   126.436
-20077.693	    15.476	  -164.340	   107.248
-19910.613	    15.531	  -160.426	    98.216
-19950.484	    15.574	   169.680	    98.205
-19632.037	    15.660	   179.338	   120.861
-19569.736	    15.838	  -169.149	   104.716
-19395.523	    15.856	  -161.644	    95.368
-19334.807	    15.804	  -175.268	   109.509
-19562.021	    15.753	  -179.738	    94.948
-19702.578	    15.715	   174.241	   128.600
-19937.592	    15.535	   167.529	    94.199
-19663.189	    15.524	   178.988	   115.891
-19698.070	    15.503	  -179.834	   131.150
-19342.682	    15.584	  -167.721	    96.880
-19613.680	    15.569	   171.027	    91.790
-19718.729	    15.513	  -176.094	   100.192
-19521.641	    15.462	   177.234	   101.407
-19560.189	    15.396	   179.694	   141.082
-19962.768	    15.484	   173.055	   126.775
-19605.160	    15.622	   173.719	    93.614
-19658.943	    15.651	  -178.512	    99.596
-19459.957	    15.621	  -172.522	    91.497
-19465.785	    15.563	  -176.193	   105.395
-19714.434	    15.558	   178.803	   103.610
-19490.539	    15.531	  -178.418	    80.602
-19622.662	    15.567	   174.137	   107.199
-19487.332	    15.676	   172.095	    92.416
-19514.826	    15.765	  -173.029	    82.447
-19578.180	    15.671	  -161.877	   115.057
-19729.344	    15.518	   172.490	   121.136
-19701.090	    15.422	  -166.031	   129.126
-19648.061	    15.529	   175.154	   126.127
-19496.375	    15.710	   176.195	   116.620
-19532.420	    15.855	  -167.096	   134.716
-19476.512	    15.790	   179.209	    94.442
-19663.693	    15.631	  -174.483	   124.724
-19742.689	    15.571	  -178.494	   127.964
-19710.438	    15.522	   174.077	   119.541
-19714.318	    15.471	  -175.990	   102.815
-19629.676	    15.518	   167.846	    80.812
-19650.895	    15.610	   174.262	   115.068
-19462.369	    15.645	  -176.783	   139.467
-19782.908	    15.731	   174.222	   113.186
-19423.293	    15.783	  -172.753	   126.594
-19701.279	    15.684	  -172.933	   136.458
-19502.635	    15.651	  -167.926	   118.281
-19842.158	    15.607	  -177.112	   105.081
-19645.174	    15.551	  -158.566	   117.865
-19569.750	    15.630	   175.042	   127.724
-19522.336	    15.722	   177.550	   111.426
-19485.338	    15.718	  -176.435	   129.820
-19690.818	    15.644	   173.586	   127.056
-19693.436	    15.579	  -157.709	   134.024
-19712.992	    15.612	  -170.766	   110.914
-19669.975	    15.662	  -174.423	   108.812
-19495.561	    15.675	   177.294	   120.447
-19475.408	    15.708	   176.908	   114.294
-19502.021	    15.663	  -178.385	   114.774
-19416.473	    15.623	   172.749	   120.092
-19459.439	    15.595	   175.882	   144.630
-19557.420	    15.622	   171.483	   110.560
-19657.014	    15.652	  -171.722	    99.711
-19347.615	    15.654	   178.360	   100.554
-19900.807	    15.622	   175.185	   105.806
-19521.209	    15.528	  -179.496	   131.442
-19986.293	    15.399	  -177.825	   139.577
-19806.234	    15.227	  -178.009	   130.597
-19797.211	    15.268	  -177.544	   141.946
-19359.080	    15.599	  -171.956	   118.237
-19363.635	    16.074	  -169.100	    99.514
-19439.537	    16.286	   171.482	   114.204
-19630.086	    16.050	   164.486	   115.527
-19597.002	    15.673	   170.106	   103.880
-19593.570	    15.349	   174.489	   105.880
-19721.557	    15.189	   156.124	   115.432
-19613.426	    15.362	   175.096	   123.035
-19476.490	    15.684	   179.778	    90.099
-19462.988	    15.953	   174.586	   106.520
-19215.922	    16.138	  -173.828	   121.768
-19821.295	    16.141	  -165.189	   109.656
-19576.029	    16.084	  -175.199	   119.056
-19576.801	    15.956	  -176.445	   127.995
-19428.906	    15.779	  -165.997	    95.694
-19588.910	    15.651	  -177.117	   122.643
-19811.750	    15.602	  -174.656	    99.011
-19651.209	    15.718	  -177.240	    99.343
-19782.934	    15.788	  -167.244	   101.266
-19837.672	    15.805	   171.003	    86.419
-19326.975	    15.832	   130.234	    69.964
-19431.219	    15.839	    91.708	    90.529
-19298.689	    15.833	    89.959	    99.855
-19198.086	    15.697	    88.818	   117.561
-19433.902	    15.529	    81.766	   125.582
-19674.109	    15.531	    90.260	   116.883
-19489.855	    15.486	    79.523	   128.391
-19720.258	    15.520	    69.131	   132.905
-19610.977	    15.526	    86.267	   110.710
-19837.555	    15.649	    74.593	   101.170
-19717.740	    15.803	    80.205	   101.143
-19608.949	    15.838	    82.572	   130.732
-19732.938	    15.728	    84.677	   150.424
-19633.727	    15.569	    74.286	   125.935
-19709.375	    15.446	    85.124	   131.239
-19769.641	    15.341	    80.910	   101.768
-19611.129	    15.364	    89.278	    94.898
-19603.041	    15.376	    80.659	   110.571
-19470.764	    15.492	    78.831	   135.679
-19419.381	    15.560	    88.238	   101.341
-19499.262	    15.650	    82.756	   113.012
-19496.789	    15.778	    80.473	   138.817
-19699.637	    15.790	    78.269	   103.453
-19668.834	    15.624	    78.318	   132.243
-19545.006	    15.419	   100.028	   112.429
-19679.320	    15.401	   101.648	   109.824
-19812.598	    15.586	    83.362	   115.352
-19384.998	    15.810	    65.163	   124.905
-19730.863	    15.901	    87.144	   118.036
-19755.809	    15.800	    83.965	    90.095
-19424.934	    15.595	    82.081	   110.347
-19819.859	    15.376	    80.494	    93.877
-19623.936	    15.400	    92.355	    93.579
-19689.164	    15.475	    79.053	   108.274
-19778.717	    15.493	    83.131	    95.586
-19695.801	    15.630	    85.525	   106.144
-19541.037	    15.705	    81.926	   105.373
-19632.621	    15.681	    83.961	   109.031
-19424.721	    15.565	    81.723	    94.958
-19517.580	    15.507	    85.631	    84.437
-19711.783	    15.400	    63.829	    90.523
-19968.074	    15.194	    67.883	    92.946
-19931.646	    15.070	    70.992	   130.812
-19738.084	    15.276	    87.650	    97.884
-19797.441	    15.634	    75.251	   119.233
-19549.965	    15.947	    85.951	   128.070
-19547.947	    16.181	    75.951	   109.582
-19420.281	    15.963	    76.034	   108.786
-19611.479	    15.727	    73.909	   100.969
-19740.730	    15.532	    81.572	   125.204
-19570.486	    15.370	    73.445	   109.984
-19736.266	    15.245	    75.486	   106.435
-19864.557	    15.268	    58.767	    87.679
-19974.895	    15.391	    94.918	   131.020
-19479.363	    15.542	    75.185	   107.582
-19607.018	    15.651	    62.048	    88.261
-19715.439	    15.744	    72.645	    98.439
-19654.828	    15.676	    86.418	    97.458
-19514.443	    15.545	    77.031	    71.852
-19732.895	    15.398	   111.823	   125.015
-19816.621	    15.542	    78.913	   118.706
-19371.465	    15.738	    88.622	   108.827
-19604.375	    15.883	    85.256	    82.325
-19575.348	    15.945	    78.801	   100.692
-19714.375	    15.918	    91.628	   113.049
-19356.248	    15.773	    73.207	   119.627
-19822.141	    15.625	    96.947	   115.676
-19640.918	    15.598	    77.405	   122.009
-19814.541	    15.601	    85.568	   112.783
-19492.738	    15.689	    61.325	    97.765
-19444.094	    15.684	    85.442	   119.510
-19462.729	    15.674	    87.816	   124.668
-19735.521	    15.691	    84.880	   121.008
-19582.574	    15.793	    85.451	   125.111
-19638.404	    15.961	    85.582	   105.198
-19612.389	    15.932	    73.800	   105.677
-19704.727	    15.838	    88.843	   106.986
-19493.189	    15.647	    95.778	   108.851
-19598.432	    15.419	   103.550	   113.989
-19621.014	    15.272	    92.032	    92.035
-19852.143	    15.246	    79.254	    96.672
-19853.133	    15.367	    74.784	    78.804
-19510.406	    15.712	    87.014	    89.785
-19595.840	    16.062	    79.236	    96.058
-19390.703	    16.204	    85.906	    47.683
-19554.584	    16.120	    73.042	   102.213
-19773.621	    15.874	    87.649	    97.552
-19832.693	    15.577	    77.646	   113.548
-19859.697	    15.262	    68.469	    92.969
-19723.623	    15.165	    72.952	   126.317
-20060.104	    15.289	    85.835	    97.792
-19703.809	    15.609	    86.669	    92.126
-19559.838	    15.894	    70.516	    96.917
-19418.982	    15.981	    76.386	   104.241
-19671.283	    15.888	    81.059	   112.417
-19727.484	    15.657	    79.373	    80.391
-19966.291	    15.483	    84.539	   113.162
-19821.000	    15.444	    76.569	   101.251
-19755.020	    15.514	   101.036	   107.543
-19721.232	    15.559	    95.333	   110.375
-19665.070	    15.649	    85.458	   110.831
-19653.098	    15.805	    75.436	   116.977
-19553.264	    15.802	    65.948	    91.322
-19700.707	    15.720	    88.727	   111.357
-19446.605	    15.640	    81.093	   126.173
-19655.117	    15.592	    95.034	   121.103
-19771.234	    15.586	    78.497	   109.938
-19681.020	    15.523	    82.683	   130.081
-19881.393	    15.526	    67.733	   100.091
-19905.326	    15.426	    85.668	   109.552
-19520.348	    15.420	    82.141	   122.256
-19457.088	    15.532	    98.330	   112.527
-19772.658	    15.682	   108.964	   113.337
-19714.748	    15.869	    79.071	   122.144
-19481.754	    16.040	    72.654	    95.142
-19569.910	    15.993	    81.688	   128.555
-19816.996	    15.797	    89.397	   113.275
-19498.018	    15.720	    70.461	   112.331
-19465.773	    15.802	    83.713	   109.028
-19673.477	    15.852	    98.549	    94.009
-19512.162	    15.879	    77.550	    68.384
-19652.898	    15.832	    85.949	   105.030
-19638.562	    15.687	    84.989	   116.895
-19901.756	    15.536	    94.804	   127.859
-19646.379	    15.516	    82.073	   111.277
-19952.016	    15.596	    91.001	    98.060
-19812.133	    15.587	    76.475	    51.397
-19820.113	    15.559	    87.095	   138.063
-19542.793	    15.660	    72.275	   117.317
-19581.158	    15.720	    75.088	    92.230
-19426.395	    15.651	    98.578	   109.080
-19659.023	    15.557	    77.520	    87.740
-19666.424	    15.535	    84.196	    96.132
-19565.482	    15.619	    76.060	   113.244
-19784.619	    15.786	    94.632	   123.948
-19485.141	    15.901	    73.801	   107.030
-19599.727	    15.992	    79.843	   101.029
-19723.424	    15.982	    83.574	   107.685
-19624.334	    15.852	    85.620	   140.757
-19714.764	    15.738	    91.660	   122.482
-19554.574	    15.680	    86.361	    97.031
-19594.781	    15.540	   100.876	   116.064
-19684.051	    15.552	    88.191	    89.839
-19598.867	    15.609	    85.783	    98.509
-19557.176	    15.613	    73.958	   103.066
-19754.961	    15.560	    75.137	   119.238
-19521.244	    15.498	    73.829	   104.124
-19555.984	    15.604	    84.350	   102.175
-19479.307	    15.774	    87.756	    88.337
-19508.994	    15.857	    85.563	   102.837
-19355.781	    15.903	    84.541	   106.227
-19395.545	    15.861	    79.618	   110.334
-19680.287	    15.717	    93.296	    85.162
-19592.629	    15.643	    70.752	    82.271
-19521.119	    15.766	    86.589	    73.275
-19327.967	    15.940	    72.611	   115.277
-19551.113	    15.950	    90.499	    87.001
-19525.854	    15.913	    65.306	   101.849
-19646.793	    15.680	    92.950	   113.643
-19519.807	    15.485	    90.488	   125.888
-19782.809	    15.396	    76.691	   122.276
-19719.367	    15.430	    94.497	   124.148
-19635.760	    15.554	    81.296	   114.643
-19812.010	    15.682	    79.120	   126.590
-19880.295	    15.752	    99.360	   122.807
-19426.461	    15.819	    86.504	   128.780
-19561.932	    15.846	    71.792	   105.976
-19469.627	    15.714	    71.500	    90.490
-19767.367	    15.584	    82.784	   106.631
-20008.186	    15.494	   105.154	   126.580
-19621.223	    15.356	    94.339	    94.775
-20026.096	    15.258	    80.672	   110.374
-19813.949	    15.262	    81.727	   122.140
-19627.684	    15.389	    78.744	    95.057
-19727.840	    15.639	    67.670	    79.814
-19609.711	    15.850	    75.391	   115.168
-19408.869	    15.905	    74.980	   107.249
-19606.475	    15.774	    81.873	   115.191
-19535.863	    15.451	    75.603	   109.582
-19876.271	    15.285	    84.255	   118.062
-19825.463	    15.274	    77.260	   124.540
-19352.756	    15.328	    83.029	   133.049
-19515.869	    15.578	    68.318	   110.234
-19670.215	    15.830	   103.523	   117.324
-19526.037	    15.872	    83.020	   115.905
-19418.461	    15.727	    75.588	    82.963
-19306.785	    15.610	    81.474	   114.534
-19562.562	    15.518	    81.481	   130.962
-19768.877	    15.441	    86.625	   125.570
-19663.939	    15.522	   101.134	   122.832
-19667.061	    15.634	    89.375	   105.583
-19501.012	    15.697	    71.356	    92.837
-19570.504	    15.751	    65.189	    76.500
-19793.725	    15.616	    70.082	    71.235
-19658.135	    15.390	    98.217	    85.506
-19653.781	    15.103	    80.904	   110.406
-19724.016	    15.055	    78.520	    95.272
-19729.248	    15.312	    76.420	    91.084
-19562.990	    15.747	    76.952	   109.542
-19672.666	    16.031	    89.009	   101.883
-19515.115	    16.026	    87.567	   104.964
-19556.605	    15.814	    71.793	   127.810
-19742.045	    15.520	    66.196	    69.797
-19596.135	    15.434	    72.945	   109.974
-19519.652	    15.550	    83.878	    96.625
-19758.479	    15.790	    91.801	    97.459
-19366.633	    15.928	    75.480	    99.189
-19568.350	    15.927	    78.472	    88.012
-19472.008	    15.848	    76.509	    78.007
-19498.895	    15.715	    94.560	    98.270
-19575.975	    15.601	    78.804	   114.681
-19591.025	    15.467	    82.400	   116.090
-19770.742	    15.296	    94.713	   103.910
-19612.949	    15.305	    72.319	    98.977
-19922.998	    15.480	    66.281	    96.785
-19753.023	    15.619	    77.446	   109.675
-19496.574	    15.715	    72.973	    94.644
-19856.445	    15.733	    82.337	    94.079
-19713.400	    15.702	    97.642	   117.006
-19846.201	    15.560	    77.622	   118.645
-19810.076	    15.535	    72.500	   107.317
-19746.986	    15.597	    82.425	   126.348
-19673.967	    15.674	    86.897	   111.318
-19632.828	    15.647	    65.859	   105.865
-19831.850	    15.560	    93.889	    85.046
-19480.582	    15.724	    79.592	   103.786
-19609.883	    15.797	    72.872	   108.544
-19764.105	    15.771	    82.392	   106.969
-19799.055	    15.683	    83.590	   102.552
-19635.574	    15.569	    86.550	    89.769
-19560.045	    15.488	    85.473	   126.918
-19613.230	    15.411	    86.139	   104.370
-19741.852	    15.414	    79.023	   135.947
-19757.043	    15.485	    67.231	    88.511
-19886.441	    15.552	    85.298	    93.004
-19649.961	    15.533	    77.988	   106.189
-19781.615	    15.429	    78.165	   121.820
-19541.959	    15.394	   100.231	   111.437
-19646.461	    15.435	    76.352	   105.491
-19603.930	    15.565	    95.193	    82.065
-19579.328	    15.742	    87.581	    87.904
-19540.756	    15.878	    80.157	    78.088
-19225.352	    15.934	    65.468	    69.274
-19555.396	    15.877	    86.830	   107.261
-19583.457	    15.740	    79.282	    90.581
-19740.998	    15.545	    84.074	   117.978
-19824.139	    15.493	    85.377	   116.813
-19874.545	    15.527	    68.447	    68.129
-19862.580	    15.605	    86.643	    92.914
-19570.938	    15.795	    77.838	   125.731
-19685.082	    15.891	    90.207	   127.334
-19527.928	    15.930	    92.819	   135.383
-19459.520	    15.850	    79.016	   103.355
-19613.684	    15.763	    83.233	   138.712
-19780.170	    15.603	    92.829	   112.095
-19852.102	    15.461	    74.981	   128.787
-19465.117	    15.323	    71.217	   142.714
-19832.574	    15.265	    81.998	   101.514
-19582.574	    15.339	    89.137	   140.423
-19900.611	    15.453	    68.029	   106.156
-19582.828	    15.487	    72.162	    98.592
-19798.812	    15.488	    76.798	    73.328
-19797.484	    15.590	    90.044	   105.134
-19487.334	    15.754	    80.243	   109.060
-19568.193	    15.856	    90.268	   127.728
-19661.188	    15.888	    84.652	   136.963
-19345.422	    15.782	    79.056	   117.464
-19671.291	    15.615	    87.397	   135.716
-19751.564	    15.484	    91.703	   117.642
-19518.885	    15.492	    95.074	   135.155
-19561.852	    15.514	    79.289	   135.277
-19366.764	    15.577	    79.215	   106.777
-19572.016	    15.673	    76.895	    79.832
-19535.508	    15.762	    78.108	   116.853
-19480.383	    15.915	    94.110	   104.385
-19364.014	    15.944	    80.291	   121.987
-19811.953	    15.753	    78.980	   102.876
-19592.244	    15.590	    75.951	   123.397
-19659.777	    15.672	    92.731	   121.886
-19648.299	    15.824	    96.490	   116.534
-19420.123	    15.810	    75.039	   114.187
-19601.834	    15.809	    85.168	    93.373
-19548.105	    15.825	    81.932	   109.704
-19417.016	    15.780	    69.319	    88.834
-19782.076	    15.665	    87.001	   132.756
-19592.406	    15.589	    85.449	   111.657
-19662.076	    15.403	    74.706	   110.783
-19895.277	    15.240	    76.069	   117.467
-19697.416	    15.212	    93.749	   102.335
-19758.275	    15.434	    67.201	   112.052
-19620.059	    15.691	    89.414	   125.354
-19592.766	    15.820	    74.163	    71.860
-19736.037	    15.776	    77.816	    75.406
-19557.705	    15.645	    70.877	    90.060
-19905.328	    15.501	    92.734	   108.923
-19760.971	    15.431	    86.025	    95.990
-19867.592	    15.576	    89.015	   106.404
-19699.727	    15.695	    87.455	    91.794
-19552.086	    15.712	    74.475	   100.803
-19528.523	    15.683	    78.215	   132.839
-19849.611	    15.664	    85.491	    91.541
-19742.408	    15.632	    73.366	    97.914
-19740.361	    15.602	    90.168	    92.804
-19781.012	    15.575	    82.303	    89.361
-19949.115	    15.542	    76.514	    66.350
-19730.451	    15.504	    69.543	    71.528
-19687.975	    15.539	    77.132	   115.856
-19633.533	    15.690	    84.960	   113.439
-19644.871	    15.862	    74.308	   108.291
-19702.031	    15.923	    82.230	    82.312
-19633.779	    15.887	    69.361	    74.175
-19623.957	    15.663	    73.995	    95.095
-19595.949	    15.460	    90.125	   124.213
-19687.830	    15.385	    86.668	   126.598
-19780.617	    15.333	    95.276	   108.499
-19532.215	    15.228	    82.973	    71.304
-19688.057	    15.184	    77.786	   135.788
-19587.230	    15.290	    84.891	   114.840
-19476.805	    15.479	    84.436	    87.563
-19722.229	    15.700	    68.942	    70.343
-19370.412	    15.928	    79.110	    96.127
-19585.715	    15.951	    99.392	   111.640
-19506.576	    15.802	    68.269	   108.260
-19501.811	    15.617	    88.969	   109.435
-19681.758	    15.546	    85.937	    86.755
-19745.521	    15.584	    82.463	   102.994
-19832.152	    15.579	    82.404	    81.853
-19674.391	    15.449	    73.390	    98.292
-19568.906	    15.442	    87.434	   102.457
-19585.314	    15.526	    91.059	   139.397
-19561.246	    15.821	    84.845	   111.388
-19759.258	    15.940	    82.245	   101.005
-19402.871	    16.086	    79.877	   117.125
-19409.266	    16.110	    77.472	   121.479
-19436.041	    15.870	    78.935	   113.915
-19591.984	    15.605	    84.793	   133.453
-19606.340	    15.460	    81.776	   107.354
-19943.008	    15.396	    81.560	   103.807
-19803.580	    15.439	    80.661	   101.779
-19537.457	    15.603	    93.121	   131.373
-19420.131	    15.879	    76.371	   102.500
-19452.211	    16.011	    78.408	   113.755
-19588.496	    16.010	    80.234	    90.983
-19297.432	    16.000	    80.466	    73.788
-19482.049	    15.865	    77.763	   108.958
-19628.539	    15.689	    83.553	   122.075
-19534.252	    15.540	    84.806	   103.191
-19530.240	    15.411	    86.021	   125.928
-19723.682	    15.337	    75.811	   125.517
-19794.193	    15.321	    70.967	    95.535
-19799.645	    15.411	    84.819	   110.563
-19656.225	    15.534	    80.756	   115.923
-19584.625	    15.671	    79.415	   123.088
-19468.576	    15.645	   104.501	   107.407
-20017.137	    15.526	    77.943	   103.930
-19618.010	    15.494	    63.406	   120.210
-19617.170	    15.521	    70.931	   110.065
-19549.033	    15.643	    73.700	   119.285
-19708.615	    15.817	    88.278	   102.544
-19447.607	    15.851	    96.721	   104.899
-19589.900	    15.692	    87.889	   114.772
-19882.963	    15.575	    80.300	    59.527
-19730.240	    15.452	    77.681	    72.547
-19821.910	    15.388	    79.365	    95.454
-19719.590	    15.433	    75.171	    83.919
-19997.070	    15.429	    79.863	   116.121
-19834.832	    15.413	    79.278	    86.978
-19742.361	    15.473	    85.559	   100.515
-19715.637	    15.539	    89.705	    98.304
-19675.238	    15.532	    82.720	   113.823
-19846.732	    15.578	    86.071	   110.708
-19636.885	    15.685	    91.727	   129.640
-19236.088	    15.747	    80.593	   109.849
-19406.463	    15.718	    93.660	   119.301
-19655.408	    15.646	    74.839	    78.855
-19798.396	    15.540	    85.755	    82.797
-19784.564	    15.503	    91.180	    70.204
-19522.768	    15.495	    78.213	    91.012
-19398.984	    15.549	    78.072	    92.094
-19415.691	    15.586	    87.182	    84.892
-19584.312	    15.545	    81.792	   105.130
-19595.912	    15.499	    79.981	   107.493
-19864.891	    15.484	    85.724	   114.592
-19515.783	    15.489	    66.672	    76.081
-19753.633	    15.535	    80.055	    97.932
-19795.531	    15.591	    71.267	    83.102
-19638.523	    15.705	    81.317	    92.680
-19561.549	    15.737	    89.305	   121.241
-19662.324	    15.664	    98.408	   125.690
-19765.717	    15.605	    80.779	   114.296
-19764.121	    15.505	    85.455	   120.081
-19763.346	    15.390	    85.143	   122.244
-19683.734	    15.412	    85.812	    83.704
-19622.922	    15.509	    75.508	    95.395
-19758.535	    15.523	    74.701	   111.283
-19458.547	    15.627	    78.247	   104.430
-19691.129	    15.730	    92.104	    98.620
-19393.020	    15.717	    69.419	   105.569
-19503.064	    15.643	    80.118	   120.950
-19588.799	    15.482	    83.233	   112.471
-19728.941	    15.300	    90.227	    85.452
-19832.883	    15.252	    75.606	   116.440
-19612.061	    15.280	    97.524	    92.439
-19838.053	    15.462	    85.169	    55.044
-19656.734	    15.806	    72.967	   108.719
-19665.162	    15.925	    80.053	    83.602
-19786.670	    15.683	    65.195	    89.487
-19591.297	    15.346	    94.410	   117.039
-19832.912	    15.268	    79.684	   124.837
-19651.072	    15.426	    74.256	    84.778
-19548.709	    15.656	   100.505	   115.922
-19420.379	    15.826	    83.332	   104.295
-19289.654	    16.004	    79.517	   113.277
-19380.820	    16.001	    94.160	   110.661
-19504.900	    15.757	    77.483	   110.590
-19609.096	    15.435	    84.931	   105.887
-19814.646	    15.222	    99.056	   116.503
-19856.176	    15.209	    77.688	   118.760
-19336.447	    15.473	    89.533	    98.751
-19595.020	    15.692	    88.964	    95.004
-19493.889	    15.828	    95.837	   106.684
-19549.004	    15.738	    87.065	   131.107
-19596.533	    15.653	    79.182	   144.546
-19597.719	    15.660	    79.944	   145.516
-19714.758	    15.679	   100.349	   107.143
-19360.338	    15.717	    82.188	    90.859
-19687.971	    15.688	    72.831	    76.257
-19364.502	    15.679	    84.699	    91.523
