-19884.744	    15.334	   -92.310	   122.143
-19683.408	    15.408	  -175.266	   104.929
-19908.453	    15.483	   176.876	   103.729
-19785.385	    15.486	   170.852	   128.738
-19968.746	    15.498	   123.527	   132.493
-20036.627	    15.455	   170.386	   130.449
-19747.725	    15.371	   166.875	   130.760
-19989.361	    15.378	   155.561	   130.255
-19816.041	    15.455	   160.786	   135.344
-20169.088	    15.458	   161.396	   111.670
-19996.465	    15.414	   156.564	   113.086
-19774.389	    15.475	   164.796	   106.451
-19912.066	    15.616	   173.294	   106.145
-19976.336	    15.744	   175.232	    92.076
-19632.531	    15.753	   134.285	   111.129
-19753.619	    15.618	   149.428	    91.567
-19832.629	    15.405	    86.229	    93.135
-20038.195	    15.265	    61.888	    89.899
-19809.754	    15.395	    69.866	   103.539
-19888.234	    15.532	    84.209	    86.815
-19923.740	    15.621	    69.219	   134.049
-19845.383	    15.760	    79.335	   111.210
-19858.141	    15.733	    64.281	   117.290
-19989.299	    15.606	    65.093	    98.261
-19682.783	    15.534	    51.929	    80.712
-19867.166	    15.368	    66.237	    83.940
-19988.559	    15.251	    64.421	    95.047
-19878.297	    15.399	    70.907	    76.519
-19799.941	    15.627	    65.650	    73.691
-19723.100	    15.718	    67.407	    99.468
-19592.156	    15.680	    68.846	   108.403
-19978.564	    15.621	    59.549	   104.609
-20029.969	    15.517	    69.782	   120.501
-19967.803	    15.449	    71.672	   111.823
-19984.662	    15.456	    78.649	   122.341
-19948.930	    15.492	    69.335	    95.410
-19899.834	    15.480	    63.770	    61.165
-19973.244	    15.537	    60.374	    84.004
-19876.688	    15.631	    63.137	    67.033
-20012.928	    15.743	    67.984	    58.552
-19778.906	    15.848	    78.205	   118.463
-19764.020	    15.904	    92.693	   104.906
-19734.805	    15.864	    76.584	    87.661
-19881.998	    15.699	    70.641	   129.129
-19669.203	    15.562	    83.572	    94.203
-19914.322	    15.515	    90.628	   102.556
-19699.377	    15.387	    81.494	   113.197
-19813.299	    15.359	    73.282	   124.216
-19916.145	    15.393	    49.808	    60.744
-19812.406	    15.441	    76.343	    67.007
-20096.449	    15.542	    63.559	   116.945
-19871.666	    15.668	    64.719	   138.650
-19726.596	    15.777	    66.667	    70.485
-20038.926	    15.779	    64.531	    95.909
-20135.150	    15.583	    73.260	    79.994
-19883.947	    15.484	    65.638	    92.588
-20099.127	    15.466	    67.941	    80.542
-19994.537	    15.552	    66.607	    95.793
-19822.572	    15.625	    75.777	   107.982
-19847.809	    15.529	    66.026	    71.928
-19652.914	    15.396	    66.426	   106.872
-19871.559	    15.311	    69.280	   105.794
-20047.852	    15.403	    68.315	   115.544
-19892.898	    15.485	    74.781	   109.902
-19747.236	    15.551	    57.152	    78.120
-19831.260	    15.542	    64.491	    55.794
-19910.639	    15.409	    71.327	    68.273
-19684.424	    15.310	    63.168	    73.989
-20086.232	    15.240	    64.741	   110.098
-20088.541	    15.339	    80.005	   117.434
-19923.961	    15.498	    63.012	    90.879
-20044.174	    15.515	    64.821	    99.297
-19734.086	    15.459	    66.550	    72.630
-20102.232	    15.417	    63.762	   102.410
-19803.230	    15.453	    74.658	    98.527
-19939.271	    15.461	    77.227	   103.405
-19739.955	    15.378	    72.066	    98.306
-19822.666	    15.222	    77.887	   104.524
-19844.016	    15.180	    56.978	    75.506
-19928.898	    15.244	    64.571	    60.045
-19902.498	    15.501	    70.887	    95.744
-19692.021	    15.817	    99.063	    96.057
-19714.279	    15.927	    58.580	    97.609
-19482.914	    15.983	    68.428	    88.223
-19743.152	    15.915	    82.779	   120.207
-19736.777	    15.616	    77.493	   102.227
-19948.273	    15.251	    62.590	    90.293
-19964.627	    15.145	    64.638	    80.430
-19963.164	    15.244	    76.208	    89.424
-19936.605	    15.500	    72.274	   118.235
-19906.238	    15.678	    82.330	   138.707
-19720.725	    15.735	    67.364	    96.687
-19883.564	    15.641	    59.299	    94.605
-19891.258	    15.561	    73.808	   101.580
-19923.090	    15.526	    80.557	   121.498
-19797.852	    15.491	    71.917	   133.709
-19889.312	    15.504	    86.546	   116.600
-19881.236	    15.670	    58.921	   119.175
-19528.334	    15.862	    64.107	    78.243
-19915.965	    15.828	    53.489	    85.867
-20057.725	    15.735	    67.625	    94.846
-19667.902	    15.681	    71.454	    83.456
-19874.055	    15.599	    60.682	    74.578
-19821.477	    15.562	    62.914	    73.684
-19821.361	    15.478	    56.945	    80.394
-20057.291	    15.342	    55.978	    51.974
-19949.904	    15.301	    63.199	    90.161
-19788.893	    15.394	    74.234	   114.206
-19894.447	    15.471	    79.123	    92.653
-19914.410	    15.459	    58.001	    73.348
-19943.881	    15.466	    50.625	    50.943
-20020.408	    15.549	    72.134	    86.698
-20069.697	    15.610	    67.286	    86.636
-19948.254	    15.704	    74.152	    93.787
-19870.961	    15.805	    77.057	   102.634
-19641.967	    15.879	    73.014	    99.046
-19853.770	    15.763	    70.103	    98.461
-19973.705	    15.710	    82.380	   104.826
-19688.725	    15.697	    67.606	    89.715
-19767.463	    15.626	    67.779	    87.855
-19783.744	    15.393	    85.643	    84.358
-19939.117	    15.250	    70.549	    77.630
-19963.232	    15.253	    74.301	    99.629
-20056.713	    15.241	    64.898	   115.649
-20016.172	    15.340	    65.774	   115.106
-20107.125	    15.429	    60.763	    99.394
-19824.109	    15.434	    61.874	   105.465
-20007.859	    15.352	    64.450	    91.421
-19954.396	    15.255	    69.046	    96.301
-20069.037	    15.304	    71.220	   103.017
-19850.555	    15.453	    69.821	   121.343
-19887.412	    15.536	    81.513	   108.100
-20023.363	    15.440	    79.138	   122.474
-20139.592	    15.324	    75.990	   133.186
-19898.672	    15.250	    68.342	   147.883
-20122.471	    15.269	    66.215	    78.071
-19992.443	    15.434	    80.972	    94.640
-19931.217	    15.522	    66.364	    86.910
-19955.350	    15.680	    51.160	    77.820
-19986.170	    15.659	    63.154	    82.196
-19951.867	    15.439	    70.084	   126.616
-20036.318	    15.210	    74.497	   103.578
-20256.549	    15.112	    62.036	    84.965
-20069.328	    15.253	    79.207	   123.439
-20004.762	    15.468	    82.176	   104.568
-19924.408	    15.727	    70.444	   128.213
-19678.961	    15.822	    76.782	    86.522
-19896.076	    15.728	    60.815	    67.499
-19766.451	    15.646	    80.735	    67.880
-19801.635	    15.420	    57.705	   102.349
-20041.730	    15.348	    70.529	    96.576
-19797.881	    15.573	    74.811	    64.301
-19812.291	    15.877	    62.275	    85.381
-19777.506	    16.004	    68.138	    76.520
-19673.859	    15.917	    55.799	    87.553
-19944.564	    15.583	    69.442	    80.901
-19874.213	    15.377	    69.013	   105.586
-19959.631	    15.299	    58.437	    92.208
-19953.111	    15.409	    70.370	    68.748
-19849.410	    15.650	    68.847	   109.469
-19993.484	    15.868	    66.205	   133.225
-19792.260	    15.925	    74.321	    85.950
-20065.453	    15.870	    79.761	    98.847
-19838.986	    15.708	    82.284	    94.550
-20075.311	    15.482	    66.885	   113.891
-19892.516	    15.296	    67.918	    79.151
-20231.814	    15.335	    81.910	    93.776
-19748.150	    15.482	    85.644	   112.789
-19899.732	    15.523	    74.618	   119.055
-19789.867	    15.536	    94.224	   136.753
-19974.348	    15.570	    65.336	   133.090
-19712.785	    15.687	    78.450	   130.137
-19851.209	    15.683	    78.374	   119.707
-19719.791	    15.645	    60.215	    99.309
-19749.455	    15.655	    78.620	   108.694
-19946.471	    15.552	    73.063	   111.736
-19952.195	    15.467	    70.448	   120.968
-20152.385	    15.434	    53.413	   111.068
-19976.299	    15.488	    69.815	   100.133
-19806.836	    15.497	    64.349	   113.988
-19851.350	    15.367	    53.867	    80.570
-19861.012	    15.381	    66.222	    76.447
-20112.701	    15.406	    65.873	    99.475
-19832.510	    15.421	    56.329	    72.446
-19816.482	    15.557	    58.286	    90.458
-19931.721	    15.521	    69.832	    98.190
-19946.775	    15.376	    71.040	    84.556
-19964.502	    15.251	    77.131	    91.882
-20010.568	    15.369	    49.025	    96.685
-19971.986	    15.464	    61.831	    88.009
-19945.578	    15.438	    61.113	   117.553
-19820.752	    15.496	    66.823	   126.205
-19831.135	    15.563	    65.868	   114.061
-20096.180	    15.551	    60.376	   110.198
-20069.033	    15.522	    62.271	    95.203
-20190.582	    15.507	    76.197	   135.193
-19692.771	    15.593	    68.272	   118.974
-19905.623	    15.593	    84.691	   124.599
-19942.775	    15.542	    78.050	    96.663
-20016.666	    15.403	    67.824	    68.593
-20036.338	    15.241	    62.131	    96.276
-20023.607	    15.194	    80.944	    93.916
-19951.873	    15.361	    73.151	    97.790
-19647.596	    15.603	    76.326	   100.313
-19881.643	    15.769	    73.510	    78.435
-19725.461	    15.756	    60.872	   102.964
-19869.471	    15.591	    92.621	   144.685
-19931.645	    15.500	    76.027	   119.060
-19629.191	    15.505	    77.117	   100.753
-20199.188	    15.492	    66.782	   109.850
-19922.453	    15.571	    75.378	    93.788
-19753.121	    15.600	    64.753	    90.514
-20180.729	    15.608	    52.840	    77.698
-19952.537	    15.553	    77.051	   100.263
-19684.131	    15.500	    64.310	    86.999
-19942.982	    15.365	    64.355	    64.189
-20109.904	    15.284	    59.975	    72.594
-20168.914	    15.343	    76.030	    88.233
-19757.881	    15.483	    53.525	    60.792
-19687.988	    15.680	    55.893	   118.309
-19889.867	    15.776	    58.317	    97.118
-19643.322	    15.717	    67.404	   123.060
-19877.158	    15.689	    62.873	    80.619
-19983.422	    15.708	    63.294	    94.552
-19679.760	    15.683	    74.591	   138.251
-19557.150	    15.755	    71.615	   113.929
-19838.248	    15.878	    72.323	    84.485
-19739.512	    16.033	    81.031	    87.635
-19549.793	    16.129	    73.932	   102.283
-19673.850	    15.949	    69.462	   120.316
-19685.201	    15.656	    63.453	   105.133
-19716.303	    15.425	    76.718	   122.888
-20148.629	    15.248	    60.973	    82.638
-20001.266	    15.247	    64.171	    97.730
-19881.844	    15.359	    72.784	    71.583
-19891.072	    15.570	    81.164	    86.434
-19771.641	    15.688	    66.913	   117.259
-19731.414	    15.665	    71.439	   114.965
-19918.221	    15.508	    76.822	   107.997
-19950.766	    15.326	    67.826	    94.374
-20076.779	    15.234	    65.833	   108.889
-19875.381	    15.245	    77.506	    94.828
-19832.318	    15.281	    78.190	    68.007
-20143.807	    15.420	    66.592	    87.424
-20020.865	    15.531	    68.421	   107.713
-20007.158	    15.501	    56.166	    80.519
-19541.867	    15.508	    79.212	   118.102
-20152.113	    15.363	    67.582	    78.317
-20008.576	    15.356	    60.731	    60.303
-20071.938	    15.569	    78.933	    83.474
-19860.324	    15.905	    71.448	   110.928
-19678.215	    16.046	    74.242	    87.806
-19794.715	    15.950	    68.766	    92.916
-20069.453	    15.623	    62.422	    99.363
-19969.725	    15.332	    79.070	   114.980
-20088.527	    15.149	    60.375	   136.115
-19960.818	    15.101	    66.331	   102.739
-19919.754	    15.300	    77.156	   106.898
-19875.861	    15.547	    64.167	   121.163
-19612.799	    15.704	    77.556	    98.038
-19879.680	    15.766	    76.824	   101.917
-19750.457	    15.917	    70.506	    89.739
-20032.539	    15.853	    61.762	   122.167
-19862.092	    15.640	    73.623	   102.741
-19924.982	    15.330	    69.940	    91.447
-19922.328	    15.206	    66.536	    89.968
-20054.359	    15.241	    68.788	   104.572
-20177.863	    15.388	    83.915	   112.710
-20072.809	    15.506	    75.257	   112.987
-19870.230	    15.601	    76.168	    90.029
-20162.113	    15.664	    49.724	   129.177
-19915.191	    15.689	    59.342	   101.693
-19795.613	    15.634	    80.008	    81.574
-20100.859	    15.527	    70.824	    72.987
-20061.650	    15.437	    61.017	    74.510
-20104.852	    15.345	    58.975	    89.079
-19969.086	    15.197	    65.388	    71.949
-20400.709	    15.186	    81.474	    90.154
-19961.635	    15.349	    64.588	   102.424
-19856.305	    15.640	    91.355	   103.327
-19693.363	    15.878	    70.743	   100.659
-19676.916	    15.882	    95.276	   114.379
-19694.326	    15.668	    64.945	    81.521
-19915.246	    15.392	    89.504	   122.621
-19837.109	    15.323	    84.992	   120.500
-19899.035	    15.452	    64.283	   111.931
-20130.945	    15.705	    79.077	    95.349
-20059.740	    15.881	    76.952	    90.890
-19860.250	    15.948	    72.654	    98.765
-20054.531	    15.779	    66.657	   107.861
-19897.414	    15.527	    65.352	   121.933
-20160.256	    15.487	    72.186	    92.284
-19925.119	    15.564	    64.748	    84.007
-19821.895	    15.675	    69.194	    72.832
-20038.207	    15.705	    67.694	    73.618
-19757.107	    15.773	    61.762	   107.763
-19871.004	    15.804	    79.026	    96.364
-19715.270	    15.879	    54.457	   120.928
-19866.627	    15.872	    75.893	    99.793
-19877.475	    15.693	    72.156	    88.731
-19824.711	    15.353	    69.022	   104.560
-20042.725	    15.222	    59.646	    90.933
-19992.854	    15.403	    71.088	   110.864
-19934.340	    15.612	    66.262	    97.332
-19860.027	    15.794	    69.399	   116.939
-19926.055	    15.828	    76.855	   118.261
-19959.311	    15.800	    76.374	   119.345
-20018.748	    15.767	    69.963	   121.565
-19525.201	    15.741	    62.231	   121.207
-19793.084	    15.614	    63.353	    60.308
-20072.953	    15.534	    66.519	    67.910
-20021.654	    15.475	    63.041	    69.282
-19981.779	    15.486	    85.036	   124.676
-19958.154	    15.433	    74.503	    88.454
-19920.258	    15.451	    63.468	    94.362
-19916.781	    15.508	    77.565	   108.231
-19675.412	    15.507	    78.162	    93.089
-19927.270	    15.447	    50.737	    93.038
-20092.279	    15.575	    72.744	    86.101
-19763.389	    15.776	    59.603	   102.899
-19787.029	    15.717	    71.978	   105.836
-19891.840	    15.594	    60.398	    90.698
-19817.656	    15.519	    63.384	    97.983
-19841.219	    15.482	    77.284	    91.789
-20113.037	    15.671	    47.393	   130.007
-19909.953	    15.858	    65.212	   120.766
-20013.016	    15.850	    82.144	   129.177
-19955.812	    15.624	    55.857	    81.220
-19993.279	    15.324	    65.916	    57.857
-20070.326	    15.145	    67.714	    89.125
-19973.098	    15.174	    78.116	    89.457
-20066.203	    15.230	    64.688	    94.001
-20039.932	    15.344	    65.437	   107.554
-19944.098	    15.552	    65.970	   114.220
-19804.264	    15.701	    73.077	    96.719
-19769.492	    15.695	    89.786	   118.754
-19975.309	    15.584	    73.324	   129.639
-19816.346	    15.489	    73.978	    99.507
-19989.326	    15.469	    66.090	   100.771
-19988.746	    15.455	    66.663	   111.573
-20010.879	    15.386	    57.795	    85.246
-20003.418	    15.277	    76.038	    76.903
-19820.799	    15.258	    53.739	    67.430
-20038.479	    15.359	    69.957	    54.930
-20081.139	    15.462	    64.060	    97.297
-20011.912	    15.613	    76.742	    96.582
-19749.934	    15.804	    77.463	   126.118
-19817.555	    15.838	    77.923	    91.490
-19714.334	    15.737	    67.424	   103.081
-19737.477	    15.663	    65.003	    69.460
-20060.621	    15.465	    70.100	    76.542
-20007.375	    15.246	    68.348	   100.134
-20076.658	    15.240	    61.162	   106.354
-19793.246	    15.355	    59.930	    91.596
-19769.303	    15.407	    71.966	   109.697
-20096.535	    15.450	    75.616	   132.835
-19961.020	    15.479	    53.581	    99.827
-19831.785	    15.504	    66.242	    77.677
-19551.492	    15.573	    60.907	    98.205
-19956.850	    15.619	    72.945	    98.508
-19915.912	    15.565	    71.147	   105.002
-19921.334	    15.503	    67.625	    95.298
-19845.230	    15.361	    55.898	    96.197
-19684.723	    15.185	    67.885	   105.311
-19688.504	    15.173	    65.765	    77.137
-19854.848	    15.275	    71.723	   109.429
-19958.877	    15.405	    67.985	   115.036
-19959.770	    15.493	    70.924	    88.558
-19718.934	    15.543	    70.969	   132.272
-19856.643	    15.529	    69.891	    89.600
-19995.232	    15.456	    69.474	    82.351
-19754.932	    15.389	    62.595	    79.843
-19799.055	    15.346	    52.984	    82.557
-19824.197	    15.443	    50.591	    71.196
-19842.641	    15.624	    58.327	    86.135
-19857.840	    15.868	    58.892	    96.524
-19567.105	    15.973	    69.711	   114.217
-19846.215	    15.861	    65.432	    99.612
-19928.432	    15.703	    64.157	    97.276
-20055.443	    15.485	    72.124	   116.777
-20181.684	    15.304	    67.719	   110.888
-20118.434	    15.157	    75.986	   106.213
-20080.770	    15.178	    64.124	    85.028
-19755.736	    15.357	    52.359	    96.771
-19716.490	    15.517	    68.918	   110.769
-19721.330	    15.565	    63.692	   108.839
-19783.504	    15.640	    65.217	    99.377
-20068.977	    15.707	    79.417	   102.894
-19826.176	    15.680	    80.516	    91.048
-19989.518	    15.608	    72.397	   105.492
-19882.535	    15.445	    81.200	   120.544
-20027.918	    15.297	    86.593	   109.856
-20056.445	    15.233	    80.856	   108.698
-19967.619	    15.279	    57.940	   123.642
-19719.924	    15.245	    84.945	    93.316
-19823.498	    15.311	    66.744	   117.664
-19905.277	    15.527	    72.293	    89.785
-19844.900	    15.672	    66.700	    95.615
-19807.988	    15.678	    75.347	    77.320
-19920.373	    15.634	    70.875	    95.242
-19973.859	    15.580	    80.442	   107.501
-19898.488	    15.462	    62.340	   132.164
-19999.311	    15.378	    60.527	    83.659
-20230.838	    15.357	    77.426	   145.232
-20068.246	    15.393	    69.610	   134.638
-19964.785	    15.433	    74.577	   132.004
-20027.871	    15.550	    76.024	   104.801
-20037.881	    15.680	    80.040	   127.414
-20003.561	    15.738	    70.931	   149.848
-20181.637	    15.772	    64.461	   112.570
-20061.273	    15.769	    72.132	   129.038
-19602.768	    15.822	    72.629	   107.730
-19674.094	    15.826	    67.311	    85.291
-19731.961	    15.781	    76.759	   110.446
-19798.119	    15.806	    70.230	    81.089
-19848.068	    15.759	    69.267	   106.069
-19828.857	    15.605	    75.746	    98.551
-19962.914	    15.396	    62.429	   126.767
-19776.234	    15.313	    68.624	   121.207
-19927.531	    15.422	    78.414	    98.707
-19779.635	    15.523	    70.073	   120.646
-19963.977	    15.639	    84.253	   113.876
-19925.516	    15.645	    77.379	    92.181
-20023.021	    15.592	    66.015	   109.542
-19717.844	    15.459	    65.836	   122.688
-20048.617	    15.350	    61.709	    93.185
-20106.553	    15.452	    71.387	    93.173
-19906.805	    15.712	    69.289	   100.934
-19857.381	    15.847	    72.380	   110.459
-19750.768	    15.844	    73.833	    79.589
-19841.039	    15.688	    68.587	    73.299
-19975.713	    15.482	    57.949	    69.396
-20123.301	    15.312	    62.738	    66.326
-20104.107	    15.325	    71.713	    87.731
-19950.854	    15.423	    62.807	    85.444
-19761.955	    15.515	    61.703	    65.836
-19922.887	    15.518	    79.987	   114.502
-19921.801	    15.434	    76.608	    86.807
-19789.982	    15.376	    67.476	    87.703
-19750.686	    15.449	    68.150	   106.974
-19809.484	    15.510	    64.201	    86.883
-19715.863	    15.719	    64.345	    88.009
-19746.035	    15.823	    70.661	   107.643
-19947.354	    15.640	    77.218	   114.595
-19898.861	    15.457	    61.918	    95.980
-19931.391	    15.353	    59.967	    75.995
-19731.385	    15.391	    63.418	    81.586
-19960.014	    15.561	    82.748	    55.404
-19742.113	    15.722	    69.010	    78.042
-20006.793	    15.711	    70.650	    92.104
-20000.086	    15.657	    89.474	    88.730
-19786.525	    15.569	    72.713	    97.084
-20235.316	    15.519	    65.401	   113.788
-19831.975	    15.563	    66.692	    76.560
-19705.650	    15.578	    82.648	    93.746
-20097.684	    15.566	    77.028	    87.242
-19789.082	    15.549	    61.799	    75.968
-19815.957	    15.446	    73.060	    88.684
-20234.863	    15.328	    63.979	    85.911
-19912.592	    15.320	    65.710	    62.962
-19936.723	    15.417	    68.651	    84.114
-19794.744	    15.574	    64.732	    67.636
-19525.062	    15.707	    65.925	    91.074
-19440.221	    15.804	    60.368	    76.216
-19862.746	    15.789	    63.031	    88.264
-19885.225	    15.656	    81.417	   119.430
-19863.043	    15.424	    54.378	    73.158
-19908.156	    15.265	    67.176	    66.847
-19768.332	    15.172	    72.865	    80.457
-19964.893	    15.196	    75.536	    77.217
-19845.031	    15.406	    74.176	   116.048
-19657.049	    15.718	    53.166	   103.342
-19709.596	    15.847	    68.075	   127.872
-19644.096	    15.799	    56.608	    92.939
-19970.291	    15.658	    71.087	    92.058
-20018.143	    15.495	    76.199	   122.080
-19839.742	    15.485	    71.199	    93.505
-19626.002	    15.497	    70.166	   123.281
-19923.197	    15.465	    63.046	    93.725
-19948.611	    15.518	    80.254	   112.339
-20031.359	    15.505	    74.581	   133.559
-19872.596	    15.457	    85.561	   111.416
-20061.395	    15.418	    75.579	   130.073
-19994.945	    15.437	    75.369	   132.994
-19788.182	    15.533	    52.099	   104.408
-19858.828	    15.611	    79.651	   116.787
-19926.865	    15.652	    82.894	    84.443
-19569.744	    15.569	    48.619	    82.474
-19626.949	    15.365	    62.555	    77.942
-19754.775	    15.274	    64.890	    85.172
-19838.346	    15.333	    68.558	    77.199
-19816.717	    15.368	    79.682	   111.980
-19891.426	    15.435	    62.697	   101.701
-19906.766	    15.393	    51.196	    90.615
-19808.041	    15.484	    58.218	    69.886
-20094.512	    15.556	    70.600	    81.837
-19834.348	    15.625	    82.763	   124.082
-19564.863	    15.662	    67.955	   114.841
-19907.268	    15.630	    73.583	   127.596
-19826.012	    15.664	    94.053	   118.771
-19832.697	    15.650	    81.859	   121.798
-19687.506	    15.555	    73.819	   123.597
-19720.881	    15.497	    76.186	   146.797
-19830.461	    15.465	    80.735	   121.827
-19838.348	    15.455	    66.403	   107.089
-19638.014	    15.497	    73.421	    85.195
-19859.693	    15.628	    62.331	   104.869
-19762.771	    15.713	    63.975	    94.541
-19773.398	    15.758	    58.226	   100.392
-19573.590	    15.606	    66.364	   100.035
-19851.227	    15.564	    66.545	    80.019
-19724.006	    15.640	    63.037	    87.243
-19613.988	    15.781	    73.222	   128.884
-19593.305	    15.947	    80.391	   129.719
-19925.520	    15.945	    80.459	   131.150
-19814.330	    15.813	    74.229	   109.365
-20018.148	    15.495	    65.101	    90.337
-19903.928	    15.256	    67.817	    87.781
-19876.154	    15.149	    60.847	   106.075
-19717.617	    15.321	    73.715	    84.617
-19908.479	    15.547	    70.721	   103.389
-19812.398	    15.679	    67.475	   126.591
-19989.742	    15.616	    69.119	   108.723
-19834.117	    15.516	    86.542	   129.577
-19915.229	    15.527	    65.369	   108.231
-19868.635	    15.665	    68.727	   138.412
-19664.592	    15.669	    64.807	   104.455
-19855.109	    15.612	    63.361	   123.098
-19989.234	    15.411	    76.502	   145.660
-20068.037	    15.226	    76.235	   111.837
-19946.945	    15.203	    73.777	    94.013
-19960.816	    15.273	    68.626	   100.847
-19952.213	    15.278	    73.836	    96.102
-20027.301	    15.268	    66.399	   110.216
-19755.234	    15.346	    67.070	   109.558
-19926.143	    15.499	    82.526	    81.720
-20228.252	    15.588	    76.047	    89.928
-20000.344	    15.594	    71.743	    79.396
-19870.291	    15.608	    78.300	    68.314
-19844.197	    15.580	    57.690	    72.071
-19829.754	    15.488	    79.081	    90.008
-19671.275	    15.436	    73.539	    82.150
-19959.529	    15.499	    65.784	    68.820
-20226.766	    15.582	    69.284	    74.403
-19671.127	    15.565	    72.029	    86.199
-20043.658	    15.472	    74.385	    74.705
-19980.619	    15.526	    71.871	    73.272
-19881.406	    15.690	    84.020	   102.731
-19784.766	    15.745	    69.072	   128.144
-19510.102	    15.806	    54.496	    90.827
-20206.500	    15.670	    80.497	    98.297
-19927.498	    15.454	    60.604	   112.306
-19979.729	    15.336	    65.460	   113.473
-20065.854	    15.380	    67.300	   100.492
-19987.164	    15.438	    98.840	    96.937
-19846.531	    15.480	    81.119	   131.603
-19675.705	    15.619	    81.723	    83.607
-19703.678	    15.694	    70.513	    88.971
-19826.082	    15.522	    69.359	   132.039
-20090.520	    15.341	    61.156	   103.814
-20337.176	    15.294	    81.048	    93.733
-19716.916	    15.343	    62.973	   113.025
-19880.174	    15.342	    66.664	    92.454
-20035.596	    15.371	    57.880	    94.349
-19616.043	    15.536	    71.104	    84.780
-19795.828	    15.822	    89.196	    96.032
-19867.938	    15.829	    85.481	   112.472
-20022.893	    15.661	    66.195	   110.612
-19969.350	    15.599	    78.849	   133.869
-20156.488	    15.547	    75.181	   136.807
-19836.297	    15.658	    79.288	   136.223
-19894.531	    15.766	    72.139	   127.016
-19702.809	    15.771	    74.188	   124.114
-19843.920	    15.661	    66.953	   120.924
-20172.740	    15.422	    69.353	   117.685
-20380.500	    15.290	    66.160	    91.916
-20118.209	    15.286	    70.540	   106.213
-20072.445	    15.299	    69.876	   117.595
-19934.506	    15.228	    67.836	   101.197
-20042.523	    15.294	    76.654	    97.983
-19841.244	    15.403	    74.458	   114.430
-20011.168	    15.585	    70.442	    72.027
-19686.822	    15.632	    64.462	    97.214
-19943.234	    15.501	    72.681	   116.510
-20224.076	    15.454	    60.936	    97.046
-20075.621	    15.434	    75.804	   123.477
-19967.855	    15.493	    67.014	   124.259
-20018.855	    15.425	    71.836	    67.672
-20339.262	    15.291	    73.044	    97.600
-20182.090	    15.208	    69.051	   103.698
-19998.488	    15.350	    70.491	   101.816
-19862.295	    15.469	    59.381	   103.835
-19920.994	    15.516	    74.539	    97.436
-20116.086	    15.510	    86.994	    84.601
-20114.820	    15.462	    70.954	   108.187
-19876.145	    15.501	    74.406	    87.071
-19807.691	    15.688	    83.721	   123.249
-19673.676	    15.849	    81.220	    90.065
-19677.688	    15.823	    74.733	    87.751
-19658.408	    15.656	    77.099	   132.086
-19712.678	    15.448	    76.738	   119.074
-20276.904	    15.155	    70.913	   117.420
-20054.533	    15.085	    68.049	   105.566
-19987.787	    15.276	    66.968	    96.506
-19848.189	    15.481	    83.612	   115.553
-19729.637	    15.596	    62.516	   109.431
-20023.117	    15.590	    61.770	   103.468
-19970.018	    15.563	    72.050	   135.623
-19895.027	    15.455	    89.051	   103.669
-20006.211	    15.373	    54.640	   104.111
-19700.748	    15.334	    58.653	    97.485
-20045.234	    15.505	    78.139	    91.656
-19708.936	    15.787	    70.433	    99.376
-19684.695	    15.925	    65.179	    82.009
-19894.855	    15.829	    75.903	    86.478
-20064.127	    15.615	    58.826	    70.620
-20055.137	    15.299	    81.977	    92.587
-20180.809	    15.232	    67.597	    65.305
-19887.088	    15.395	    73.137	    87.017
-19991.295	    15.647	    64.878	    50.195
-20005.945	    15.837	    89.002	    71.395
-19598.188	    15.820	    66.466	   113.815
-19515.230	    15.680	    65.323	   135.048
-19893.555	    15.533	    67.523	   116.142
-19843.930	    15.296	    78.135	   134.313
-20035.289	    15.066	    67.234	   142.703
-19933.879	    15.170	    77.609	   134.809
-19908.428	    15.494	    63.373	   117.331
-19996.613	    15.804	    64.995	   111.520
-19803.943	    15.928	    55.949	    93.653
-19805.809	    15.948	    59.313	   111.536
-19730.316	    15.902	    58.997	    68.164
-19700.012	    15.661	    75.166	    99.860
-20031.996	    15.342	    53.625	   111.568
-20222.699	    15.234	    60.753	   109.624
-19998.188	    15.217	    63.149	   107.337
-20174.332	    15.256	    69.916	   103.817
-20100.953	    15.462	    75.644	   106.881
-19899.365	    15.803	    73.438	    94.094
-19939.268	    15.994	    73.928	    97.969
-19823.713	    15.958	    71.005	   106.125
-19808.602	    15.833	    50.692	    91.303
-19922.814	    15.581	    62.574	    91.863
-20038.332	    15.338	    69.170	   100.265
-20010.770	    15.132	    70.778	   118.183
-19846.791	    15.141	    68.362	   117.535
-19886.041	    15.178	    57.961	    70.186
-20055.219	    15.297	    56.582	    60.939
-19808.133	    15.501	    68.044	    67.707
-19892.939	    15.599	    56.306	    86.983
-19783.873	    15.550	    76.889	    78.380
-19988.613	    15.596	    81.413	    70.827
-19906.904	    15.772	    65.525	    66.217
-19974.262	    15.846	    62.881	    79.407
-19652.453	    15.769	    59.333	    83.067
-20086.523	    15.678	    66.574	   108.485
-19968.230	    15.623	    61.213	   104.950
-20029.572	    15.569	    78.327	   105.616
-19854.293	    15.576	    76.585	   100.823
-19746.932	    15.611	    68.455	   109.652
-20146.576	    15.675	    77.085	   113.435
-19713.863	    15.788	    74.430	   116.619
-19982.061	    15.743	    65.381	   107.983
-19924.973	    15.620	    75.402	   109.170
-19845.697	    15.420	    67.163	    67.630
-19773.438	    15.300	    64.158	    52.993
-19869.615	    15.252	    61.102	    60.477
-19699.395	    15.373	    66.268	    69.868
-20084.299	    15.589	    65.705	   116.543
-19925.088	    15.829	    84.571	   133.466
-19711.850	    15.836	    79.589	   110.572
-19887.564	    15.586	    65.718	   128.344
-19841.551	    15.397	    73.395	   116.741
-19975.260	    15.276	    63.275	   101.302
-19953.809	    15.214	    80.261	    95.843
-19817.965	    15.272	    68.434	    83.720
-19816.199	    15.167	    81.843	   102.279
-19856.424	    15.229	    65.595	    67.962
-20054.621	    15.320	    65.154	    82.252
-19869.803	    15.521	    64.767	    96.681
-19901.496	    15.720	    55.547	    85.085
-19816.219	    15.660	    67.802	    91.111
-20126.963	    15.478	    72.726	    99.029
-20157.365	    15.336	    76.532	   129.857
-19881.586	    15.323	    74.600	   131.203
-20034.891	    15.408	    73.213	   127.187
-20007.408	    15.596	    58.308	    97.298
-19832.070	    15.843	    73.076	    69.679
-19719.680	    15.895	    67.101	    61.378
-19910.885	    15.648	    68.607	    91.743
-20108.209	    15.430	    61.746	    85.379
-19921.648	    15.382	    65.906	    84.944
-20127.584	    15.452	    65.630	    69.361
-19821.479	    15.678	    55.702	    38.120
-19742.191	    15.847	    84.925	    95.668
-19783.676	    15.884	    82.548	   121.304
-19936.357	    15.769	    66.663	   122.797
-19834.992	    15.589	    74.650	   118.733
-19772.906	    15.419	    60.766	   124.620
-19924.650	    15.315	    64.163	    91.732
-20092.459	    15.296	    57.842	   102.796
-20173.770	    15.345	    84.523	   121.978
-19705.811	    15.512	    70.895	    89.109
-19853.514	    15.533	    83.863	    79.777
-19906.475	    15.529	    77.416	   118.417
-19883.854	    15.473	    69.297	   111.715
-19851.789	    15.393	    74.069	   114.822
-20067.865	    15.414	    77.593	    97.841
-20202.471	    15.445	    63.376	    94.120
-19756.127	    15.537	    81.637	   116.117
-20108.152	    15.607	    65.167	   126.564
-19758.562	    15.541	    81.372	    97.849
-19763.639	    15.333	    61.080	    95.847
-20036.926	    15.135	    69.762	    86.802
-19936.320	    15.157	    53.728	    83.929
-19903.230	    15.385	    55.055	    77.721
-19727.879	    15.510	    72.068	   108.679
-19796.723	    15.495	    67.355	   112.167
-19738.252	    15.482	    67.608	   103.489
-20016.961	    15.486	    66.613	   128.927
-19909.361	    15.698	    53.954	   101.792
-19731.336	    15.887	    64.752	    76.289
-19683.828	    15.911	    64.671	    91.449
-20073.574	    15.764	    67.790	    85.874
-19750.539	    15.542	    79.850	    79.305
-20165.488	    15.305	    75.589	   102.726
-19743.668	    15.196	    61.190	    69.352
-19972.383	    15.252	    76.392	   112.692
-19758.826	    15.471	    83.764	   111.293
-19802.490	    15.718	    72.142	    98.696
-19912.588	    15.872	    72.812	   131.842
-19903.254	    15.837	    70.584	   114.716
-19880.203	    15.686	    79.999	   140.589
-20008.752	    15.547	    72.801	   109.867
-19952.287	    15.388	    81.803	   107.808
-19792.352	    15.336	    73.971	   134.793
-19835.764	    15.440	    71.956	   124.999
-20033.324	    15.618	    75.181	   127.475
-19891.346	    15.693	    79.719	   131.843
-19758.283	    15.695	    78.385	   117.946
-19947.836	    15.545	    73.719	   113.765
-20069.539	    15.377	    67.434	   118.311
-20081.443	    15.239	    85.736	   123.193
-19932.162	    15.108	    72.915	   110.779
-19989.490	    15.198	    74.564	   112.477
-19651.760	    15.239	    74.070	   105.061
-19932.580	    15.329	    62.337	    70.783
-19634.387	    15.612	    72.670	    89.340
-19810.656	    15.874	    60.681	   113.055
-19772.182	    16.005	    66.348	    97.404
-19691.430	    15.982	    69.864	    98.832
-20007.195	    15.769	    74.098	    97.408
-20040.803	    15.443	    78.718	   127.191
-20263.752	    15.171	    81.165	   135.139
-20230.578	    15.142	    74.347	   131.311
-20034.016	    15.306	    74.829	   119.071
-20099.887	    15.449	    71.450	   109.256
-19842.049	    15.583	    71.342	   126.825
-20169.008	    15.691	    97.938	   107.597
-19723.289	    15.742	    82.582	   141.040
-19816.238	    15.632	    82.368	    99.949
-19946.646	    15.452	    72.944	    99.776
-20086.459	    15.370	    66.798	    95.737
-19882.799	    15.422	    55.766	    88.212
-19808.854	    15.545	    72.340	    82.475
-19977.172	    15.537	    69.762	    97.222
-19872.467	    15.525	    52.313	    81.816
-19979.414	    15.523	    72.972	    75.525
-20175.418	    15.584	    65.884	    80.144
-19947.391	    15.738	    66.950	    85.225
-20061.543	    15.773	    64.268	   109.509
-19641.498	    15.719	    70.169	   105.715
-19599.463	    15.663	    72.990	    73.847
-19496.330	    15.580	    64.644	    77.312
-19851.402	    15.508	    80.309	    98.541
-20012.846	    15.352	    54.412	   108.702
-19888.906	    15.154	    85.097	   125.524
-19990.684	    15.085	    63.523	   102.864
-19761.238	    15.259	    72.555	    90.763
-19851.732	    15.340	    57.623	    97.375
-19776.316	    15.461	    78.285	   130.865
-19515.113	    15.723	    64.785	   126.265
-20041.773	    15.824	    72.687	    93.188
-19873.584	    15.784	    57.354	    58.162
-19838.879	    15.583	    65.225	    80.730
-19948.947	    15.355	    69.901	    97.279
-19925.496	    15.299	    68.242	   105.679
-19793.895	    15.550	    63.999	    82.225
-19719.660	    15.874	    62.163	   106.754
-19892.561	    15.962	    59.301	    51.780
-20083.584	    15.963	    77.321	   102.789
-19866.469	    15.856	    54.528	    78.166
-19747.848	    15.697	    69.180	   109.261
-19760.969	    15.532	    76.310	    93.896
-19708.621	    15.329	    64.207	   113.225
-19970.979	    15.194	    73.853	   130.520
-19925.234	    15.268	    71.516	    87.966
-20097.619	    15.525	    63.436	   103.165
-19970.307	    15.856	    52.046	    69.029
-19778.689	    15.940	    71.203	   115.599
-19693.900	    15.881	    65.360	    65.894
-19987.736	    15.771	    60.168	    67.905
-19736.418	    15.575	    76.903	    96.210
-19936.551	    15.390	    60.199	    86.778
-20075.363	    15.322	    54.152	    77.130
-19949.396	    15.357	    61.593	    76.645
-19690.133	    15.495	    68.008	   101.688
-19741.461	    15.631	    77.528	    95.355
-19811.504	    15.681	    62.829	    90.821
-19896.098	    15.625	    70.042	   111.003
-19948.299	    15.581	    64.828	    93.821
-19944.375	    15.548	    83.380	   107.251
-19966.709	    15.522	    79.493	    95.439
-19877.402	    15.506	    84.343	    89.748
-19766.848	    15.665	    65.773	    88.308
-19613.062	    15.865	    53.059	    71.124
-19813.631	    15.738	    69.169	    88.862
-19871.416	    15.466	    66.757	   100.488
-19899.619	    15.233	    80.383	    94.361
-19917.023	    15.260	    69.248	   110.550
-19751.949	    15.409	    75.562	   109.017
-19561.432	    15.525	    63.161	    89.894
-19726.551	    15.625	    77.845	    83.389
-19987.801	    15.610	    65.826	    89.622
-19970.930	    15.457	    72.083	    81.234
-19928.102	    15.311	    62.006	    89.111
-19621.459	    15.315	    74.583	    88.642
-20001.799	    15.457	    82.217	    82.940
-19927.029	    15.725	    69.854	   106.196
-19954.934	    15.916	    71.847	   107.926
-19773.445	    16.029	    76.277	   125.718
-19837.801	    15.939	    58.982	    97.949
-19648.172	    15.782	    54.117	   123.643
-19969.738	    15.614	    62.451	    81.268
-19938.420	    15.564	    63.776	    73.522
-19871.035	    15.575	    49.859	    87.327
-19950.396	    15.484	    69.459	   118.777
-19934.416	    15.466	    51.147	    87.575
-19937.246	    15.465	    69.267	    95.209
-19842.902	    15.481	    64.951	    72.670
-19917.303	    15.491	    70.830	   103.628
-20041.242	    15.519	    69.544	    94.835
-19866.508	    15.476	    69.367	    92.510
-20078.412	    15.389	    68.442	    72.823
-20007.197	    15.349	    58.267	    71.545
-20045.789	    15.292	    56.335	    74.793
-20118.176	    15.259	    67.321	    92.508
-20084.414	    15.436	    64.483	    89.424
-19853.029	    15.663	    65.627	    80.005
-19957.506	    15.740	    80.305	   101.439
-20256.650	    15.760	    61.931	    83.892
-19928.586	    15.776	    76.760	   124.564
-19716.785	    15.693	    76.324	    87.393
-20185.352	    15.596	    54.306	    91.022
-19874.559	    15.513	    65.693	    90.581
-20054.932	    15.450	    58.520	    71.615
-19885.080	    15.366	    64.901	   106.577
-20175.166	    15.231	    53.551	    95.177
-20017.006	    15.230	    69.957	   137.160
-20049.506	    15.355	    56.733	   116.989
-19982.035	    15.505	    74.180	   138.591
-20035.807	    15.588	    69.759	   122.517
-20016.828	    15.519	    68.402	    84.397
-19908.072	    15.253	    61.251	    96.435
-19981.369	    15.053	    65.082	   106.843
-20019.512	    15.131	    60.174	    77.908
-19676.510	    15.424	    68.421	    76.924
-19838.566	    15.670	    68.155	    73.698
-20046.727	    15.806	    64.828	    49.138
-19815.016	    15.795	    64.236	    68.810
-20082.119	    15.557	    70.097	   117.518
-20158.186	    15.369	    63.517	    91.599
-20152.883	    15.371	    79.312	    80.916
-19967.934	    15.380	    67.568	    95.729
-20018.371	    15.496	    67.960	   115.720
-19922.164	    15.588	    70.798	   115.729
-20085.664	    15.693	    63.997	   115.602
-19685.342	    15.838	    75.229	   106.945
-19940.016	    15.858	    66.044	    90.394
-19872.135	    15.822	    74.854	    91.477
-19828.037	    15.711	    59.246	    90.851
-19723.814	    15.642	    57.987	   105.565
-19764.773	    15.595	    74.374	   113.707
-19970.645	    15.578	    73.088	   115.525
-19996.158	    15.565	    60.984	   111.234
-19901.443	    15.643	    62.101	    76.079
-19786.137	    15.654	    72.982	   104.073
-19918.037	    15.621	    78.089	   122.674
-19768.553	    15.544	    84.954	   116.708
-19751.098	    15.352	    74.907	   104.418
-20123.043	    15.136	    83.275	   126.956
-19936.432	    15.102	    72.740	   139.949
-19678.123	    15.271	    75.484	   130.048
-19686.068	    15.393	    83.066	   110.903
-20030.818	    15.330	    74.999	   112.588
-20033.262	    15.374	    71.794	   131.515
-19780.328	    15.578	    61.505	    94.375
-19876.711	    15.727	    70.071	   102.884
-19900.934	    15.693	    66.800	    97.093
-20206.053	    15.637	    67.951	    93.149
-19626.359	    15.547	    69.227	    68.782
-20030.393	    15.514	    58.595	    82.652
-19988.457	    15.529	    79.320	    82.792
-19958.055	    15.465	    62.073	   103.700
-19809.256	    15.427	    64.255	    63.250
-20028.029	    15.487	    63.907	    90.661
-19776.959	    15.545	    76.807	   127.976
-19824.471	    15.468	    88.503	   110.504
-19948.484	    15.457	    80.482	   134.346
-19940.656	    15.601	    71.028	   102.220
-19528.521	    15.750	    71.046	    99.163
-19916.016	    15.808	    67.922	    83.052
-19835.039	    15.695	    71.361	    94.343
-19966.762	    15.489	    82.578	    93.184
-20107.551	    15.368	    72.013	    78.770
-19938.742	    15.419	    81.658	   104.194
-19870.465	    15.554	    77.590	   124.476
-19748.012	    15.614	    70.120	   117.763
-19961.703	    15.616	    80.229	   115.592
-19969.285	    15.471	    70.669	   101.692
-19953.061	    15.435	    85.544	   104.201
-20185.396	    15.476	    72.000	   123.257
-19882.918	    15.588	    65.764	   118.338
-19611.475	    15.506	    84.615	   111.015
-19950.072	    15.318	    67.911	   100.738
-20008.652	    15.319	    66.080	   101.909
-20059.715	    15.563	    85.395	    86.127
-20038.256	    15.791	    63.082	   111.367
-19910.920	    15.743	    64.100	    95.357
-20118.580	    15.470	    68.738	   102.868
-19910.613	    15.303	    64.446	   127.527
-20000.887	    15.272	    70.654	   112.597
-20018.961	    15.341	    64.538	   113.497
-20013.953	    15.510	    61.031	    98.119
-19992.867	    15.605	    60.819	    90.475
-19972.816	    15.553	    69.127	    79.616
-19872.064	    15.610	    72.624	   101.654
-19745.385	    15.709	    75.186	    87.629
-19706.084	    15.778	    84.881	   124.235
-19877.734	    15.641	    71.874	    92.037
-19779.307	    15.463	    72.934	   106.383
-19985.391	    15.409	    65.680	   114.697
-19944.654	    15.465	    62.255	    97.578
-20035.102	    15.537	    67.165	    96.831
-19808.211	    15.679	    67.645	    76.019
-19774.766	    15.894	    58.749	    92.835
-19696.730	    16.015	    57.883	    79.241
-19815.328	    15.949	    68.533	    93.795
-19817.049	    15.715	    67.583	   115.088
-20081.896	    15.408	    60.866	   110.491
-20038.592	    15.268	    69.110	    90.652
-19825.904	    15.397	    73.038	   110.597
-19930.303	    15.618	    77.517	   112.707
-19850.830	    15.764	    55.453	    80.435
-19820.348	    15.680	    72.264	    94.605
-19839.893	    15.400	    71.604	   108.699
-20098.275	    15.134	    73.789	   118.098
-20134.883	    15.047	    60.248	   102.970
-19890.758	    15.275	    80.121	   113.026
-19541.297	    15.659	    70.544	    58.904
-19793.447	    15.981	    62.237	    93.016
-19569.670	    16.158	    67.506	   108.807
-19709.350	    16.034	    69.191	   104.196
-19952.709	    15.655	    56.590	    71.002
-20119.039	    15.318	    77.872	    98.988
-19793.990	    15.124	    80.724	   106.842
-20215.240	    15.203	    71.508	   122.135
-19931.467	    15.458	    71.807	    97.112
-19880.451	    15.636	    57.313	    83.768
-19736.199	    15.754	    72.950	   103.721
-19842.037	    15.783	    71.627	    99.789
-19713.549	    15.809	    73.385	   100.448
-19907.920	    15.735	    71.483	    85.549
-19930.031	    15.573	    53.595	    70.163
-20197.344	    15.554	    59.801	    77.341
-19986.311	    15.505	    69.189	   110.461
-19819.232	    15.445	    67.124	   116.069
-19905.906	    15.371	    77.117	   116.289
-19862.549	    15.255	    77.319	    95.230
-19958.881	    15.212	    65.854	   103.810
-20077.092	    15.351	    63.843	    59.059
-19884.277	    15.540	    62.218	   107.363
-19890.828	    15.704	    74.972	    94.101
-19672.145	    15.723	    66.503	    78.974
-19645.742	    15.629	    67.887	   120.254
-19932.590	    15.423	    66.804	    95.728
-19875.359	    15.237	    44.980	    95.777
-19976.490	    15.224	    70.360	    98.078
-19700.174	    15.328	    67.394	   103.199
-19815.979	    15.456	    46.135	    52.032
-19930.324	    15.530	    70.273	    94.415
-19639.104	    15.598	    73.901	   110.247
-19923.518	    15.753	    68.355	    94.672
-19591.209	    15.871	    76.514	   113.383
-19569.539	    15.946	    65.081	   120.797
-19823.895	    15.775	    65.606	    98.173
-19742.760	    15.586	    72.238	   106.809
-19908.539	    15.589	    57.361	    82.425
-19723.199	    15.661	    73.002	   101.606
-19727.461	    15.695	    76.878	    86.670
-20045.904	    15.743	    68.921	    98.644
