-20099.611	    15.334	   -92.310	   122.143
-20107.496	    15.381	  -111.356	   154.151
-20192.277	    15.427	  -102.138	   133.554
-20164.818	    15.493	  -101.712	   147.658
-20173.256	    15.490	  -106.614	   136.913
-20177.061	    15.380	   -98.636	   135.665
-20309.488	    15.248	  -113.573	   137.245
-20387.066	    15.315	  -113.550	   165.065
-20160.602	    15.482	  -112.125	   150.622
-20097.820	    15.550	   -83.323	   123.308
-20222.707	    15.558	  -105.567	   144.911
-20156.152	    15.485	   -93.359	   138.008
-20485.879	    15.325	   -86.608	   153.008
-20311.107	    15.278	  -118.711	   141.500
-20077.930	    15.505	   -74.400	   141.199
-19951.404	    15.728	  -103.936	   135.155
-20174.236	    15.592	   -93.757	   135.738
-20413.455	    15.304	  -102.942	   139.086
-20299.539	    15.190	  -102.564	   150.350
-20162.279	    15.192	  -120.646	   145.876
-20092.887	    15.176	  -111.645	   145.460
-20126.848	    15.288	  -108.670	   146.700
-20206.076	    15.495	   -95.512	   155.364
-20108.617	    15.680	  -101.493	   137.979
-19952.496	    15.720	  -111.430	   159.737
-20076.736	    15.578	  -112.131	   145.172
-20219.459	    15.471	  -104.553	   158.862
-20212.879	    15.341	  -104.539	   133.457
-20174.992	    15.258	  -114.021	   143.086
-20349.207	    15.304	   -96.490	   142.991
-20454.348	    15.346	   -89.642	   130.826
-20146.154	    15.505	  -120.385	   139.708
-19944.428	    15.688	  -111.906	   136.539
-19964.582	    15.736	  -120.630	   157.298
-20146.652	    15.660	  -112.157	   160.081
-20013.018	    15.542	   -94.968	   143.589
-20115.682	    15.483	   -92.708	   127.100
-20160.396	    15.473	   -86.840	   138.252
-20091.701	    15.461	  -104.573	   135.605
-20092.932	    15.372	  -117.300	   145.514
-19955.906	    15.399	   -79.224	   144.385
-20273.164	    15.568	  -110.385	   159.658
-19977.287	    15.638	  -123.002	   126.593
-20089.842	    15.616	   -95.885	   139.026
-20108.213	    15.500	  -118.495	   139.617
-20152.945	    15.288	  -118.396	   135.507
-20277.568	    15.135	  -129.548	   124.886
-20405.061	    15.095	  -126.901	   136.337
-20240.867	    15.323	  -122.720	   140.492
-19971.219	    15.535	  -104.665	   128.044
-20382.164	    15.723	  -100.960	   139.546
-19918.490	    15.814	  -107.629	   133.983
-19921.426	    15.629	   -81.902	   137.784
-20459.016	    15.271	  -104.526	   123.305
-20271.469	    15.041	  -122.861	   126.633
-20058.918	    15.083	  -107.329	   149.288
-20238.451	    15.313	  -126.677	   144.990
-19931.145	    15.580	  -143.636	   154.290
-20062.934	    15.679	  -108.529	   131.789
-20222.807	    15.705	  -117.902	   137.846
-19987.260	    15.617	  -109.339	   141.549
-20127.059	    15.453	   -96.110	   131.915
-20451.154	    15.232	  -102.573	   141.387
-20438.545	    15.103	  -119.033	   155.660
-20089.527	    15.057	  -104.703	   137.090
-20185.986	    15.073	  -116.612	   148.939
-20257.672	    15.236	  -122.041	   133.132
-20177.352	    15.419	   -85.645	   148.111
-20068.682	    15.483	  -110.683	   133.649
-20126.002	    15.545	   -76.215	   124.474
-19924.094	    15.533	   -94.382	   124.695
-20181.717	    15.523	  -104.951	   129.046
-20000.029	    15.516	  -114.772	   131.188
-20330.219	    15.414	   -87.494	   141.596
-20302.305	    15.433	   -80.172	   140.605
-20289.566	    15.423	   -88.705	   134.682
-20056.926	    15.347	   -70.054	   133.699
-20350.348	    15.328	  -121.503	   124.789
-20314.387	    15.324	  -115.171	   138.585
-20082.543	    15.472	  -139.736	   131.786
-20040.168	    15.625	  -109.531	   156.215
-19994.645	    15.702	   -92.884	   139.939
-20149.365	    15.791	  -113.350	   148.280
-19893.756	    15.610	   -90.249	   153.575
-20023.482	    15.453	  -137.848	   129.654
-20225.676	    15.461	  -105.323	   139.141
-20297.549	    15.434	  -133.569	   147.215
-20362.479	    15.323	  -131.084	   151.618
-20232.213	    15.135	   -87.321	   142.213
-20085.129	    15.161	  -121.591	   147.810
-20112.977	    15.249	   -95.146	   145.768
-20289.975	    15.427	   -92.562	   120.405
-20072.262	    15.516	  -110.202	   138.429
-20399.926	    15.533	  -124.204	   139.822
-20108.977	    15.606	  -124.286	   149.525
-20173.658	    15.637	  -111.258	   147.976
-20395.578	    15.710	  -111.728	   123.530
-20095.332	    15.674	   -98.890	   143.167
-20444.953	    15.515	  -113.693	   130.771
-20287.658	    15.373	  -106.803	   131.786
-20500.777	    15.288	  -106.171	   135.570
-20257.629	    15.256	  -102.950	   124.047
-20264.338	    15.357	  -104.405	   140.158
-20400.193	    15.445	  -107.320	   154.712
-20232.547	    15.568	  -138.438	   152.001
-20120.605	    15.532	  -132.614	   146.500
-20256.279	    15.353	  -140.568	   130.978
-20111.648	    15.242	  -121.936	   136.241
-20120.553	    15.165	  -135.439	   138.388
-20388.494	    15.114	  -118.013	   134.612
-20410.467	    15.054	  -129.483	   134.934
-20676.572	    15.204	  -106.365	   154.609
-20024.764	    15.556	  -105.228	   134.053
-20273.305	    15.774	   -80.615	   133.738
-20094.223	    15.864	  -112.915	   134.561
-20154.721	    15.818	  -100.721	   132.852
-20266.219	    15.565	  -105.381	   122.028
-20043.803	    15.384	  -115.403	   158.656
-20390.676	    15.237	  -113.870	   145.950
-20118.803	    15.165	   -93.330	   136.665
-20261.734	    15.217	   -79.377	   141.748
-20335.717	    15.364	   -91.987	   137.998
-20133.070	    15.528	   -95.627	   142.729
-20131.363	    15.642	   -90.819	   145.342
-19968.248	    15.681	   -98.789	   127.656
-20307.209	    15.594	   -88.172	   121.274
-20034.684	    15.448	   -86.550	   124.805
-20376.924	    15.294	   -91.102	   141.275
-20415.131	    15.248	  -108.017	   147.655
-20321.504	    15.230	   -83.593	   121.284
-20215.488	    15.426	  -115.797	   135.918
-20095.316	    15.686	  -103.056	   132.888
-19863.676	    15.721	  -106.074	   125.466
-20018.631	    15.602	   -78.000	   139.371
-19856.938	    15.658	  -101.752	   142.141
-19848.324	    15.649	   -98.259	   141.897
-19989.330	    15.564	   -98.571	   144.548
-20067.219	    15.497	  -106.485	   138.409
-20317.123	    15.335	   -94.551	   146.749
-20328.396	    15.226	   -94.885	   158.740
-20091.691	    15.253	   -94.833	   144.992
-19996.504	    15.429	   -83.609	   141.235
-20015.631	    15.548	   -89.140	   150.232
-19904.518	    15.582	  -109.221	   147.823
-20380.625	    15.487	   -85.248	   140.968
-20100.121	    15.438	   -96.127	   124.243
-20007.977	    15.399	   -99.149	   130.022
-20234.119	    15.299	  -106.241	   158.015
-20307.156	    15.324	   -78.280	   132.711
-20206.150	    15.482	   -90.757	   147.675
-20350.625	    15.434	   -92.213	   150.271
-20272.176	    15.368	   -89.005	   143.763
-20159.697	    15.447	  -142.685	   140.124
-20412.121	    15.467	  -114.005	   119.978
-20122.232	    15.434	  -104.106	   117.724
-20107.748	    15.372	  -110.041	   130.504
-20027.756	    15.297	  -102.954	   145.417
-20177.869	    15.268	   -92.717	   131.661
-20308.033	    15.357	   -92.423	   152.680
-19933.723	    15.558	   -90.285	   123.267
-20019.523	    15.736	  -102.657	   123.219
-20171.617	    15.693	   -94.328	   141.893
-19995.764	    15.601	   -98.657	   141.122
-20281.197	    15.440	  -101.654	   132.754
-20346.480	    15.206	  -103.203	   130.027
-20468.277	    15.003	   -94.590	   150.701
-20090.871	    14.935	  -129.221	   103.887
-20288.230	    15.153	  -100.937	   153.985
-20237.596	    15.391	   -93.077	   123.032
-20024.424	    15.508	  -127.930	   135.576
-20391.041	    15.521	  -129.882	   133.639
-20151.307	    15.487	  -102.941	   157.984
-20223.766	    15.485	  -143.084	   155.844
-20135.025	    15.449	   -96.206	   146.547
-20204.426	    15.376	   -94.818	   122.085
-20205.529	    15.343	   -74.199	   141.533
-20016.469	    15.329	   -84.119	   155.681
-20250.447	    15.461	  -101.822	   137.440
-19942.689	    15.571	   -99.782	   112.386
-20113.881	    15.537	  -121.866	   151.889
-20051.096	    15.461	  -126.502	   136.559
-20348.125	    15.405	   -79.300	   131.060
-20120.244	    15.432	   -92.685	   150.483
-19941.518	    15.599	  -108.556	   155.002
-20105.709	    15.654	   -94.183	   154.836
-20168.752	    15.532	  -105.657	   145.418
-20080.588	    15.370	   -86.956	   132.153
-20259.240	    15.248	   -88.591	   135.444
-20194.850	    15.216	  -123.917	   135.695
-20330.350	    15.246	  -109.227	   141.780
-19946.369	    15.453	  -100.601	   109.521
-20095.514	    15.588	  -108.688	   124.447
-20164.332	    15.522	  -108.640	   143.466
-20105.760	    15.368	  -121.486	   139.389
-19974.041	    15.207	   -96.190	   136.915
-20148.328	    15.072	  -111.565	   125.293
-20176.824	    15.197	  -113.129	   155.853
-20418.012	    15.514	   -99.923	   144.560
-20036.428	    15.836	   -78.511	   137.248
-19912.643	    16.029	  -116.809	   137.009
-19912.568	    15.898	   -96.741	   130.567
-20020.039	    15.660	  -121.294	   151.817
-20165.043	    15.292	  -120.215	   139.883
-20353.883	    14.996	  -106.850	   133.335
-20220.328	    14.997	   -94.871	   138.425
-20112.373	    15.312	   -76.844	   135.584
-19890.707	    15.636	  -101.460	   148.701
-19920.980	    15.804	  -105.731	   139.063
-20110.133	    15.783	   -99.614	   142.496
-19965.037	    15.699	  -115.342	   135.595
-20139.811	    15.521	   -97.102	   143.489
-20301.342	    15.304	  -124.132	   130.222
-20036.400	    15.165	  -126.339	   134.029
-20337.168	    15.095	   -96.864	   143.013
-20200.770	    15.311	   -99.746	   161.254
-20193.002	    15.577	   -94.202	   146.700
-19958.578	    15.571	  -106.107	   142.243
-20162.504	    15.404	  -115.107	   123.532
-20253.109	    15.325	  -122.152	   123.959
-20272.807	    15.328	  -113.999	   147.784
-20237.904	    15.452	  -112.687	   123.123
-20273.957	    15.534	  -115.580	   145.202
-20110.229	    15.551	  -120.676	   141.767
-20431.621	    15.526	  -127.391	   132.619
-20208.217	    15.434	   -89.786	   118.276
-20259.576	    15.481	  -108.424	   135.645
-20008.107	    15.572	   -87.790	   123.610
-19807.508	    15.550	   -93.970	   135.916
-20206.793	    15.508	   -78.519	   119.483
-20010.994	    15.396	  -114.508	   124.914
-20251.379	    15.319	   -98.493	   120.914
-20291.705	    15.400	  -109.359	   158.203
-20242.389	    15.640	  -116.984	   147.530
-20120.758	    15.717	   -97.512	   143.559
-20119.375	    15.714	  -101.583	   152.296
-20332.004	    15.625	   -87.113	   143.742
-20372.971	    15.497	  -100.877	   151.351
-20139.486	    15.317	   -93.996	   130.448
-20122.906	    15.303	   -86.620	   118.528
-20119.922	    15.314	   -82.653	   145.275
-20193.479	    15.388	  -108.655	   138.320
-20222.021	    15.403	  -109.670	   152.087
-20111.611	    15.415	   -79.232	   145.815
-20280.779	    15.450	   -92.918	   161.582
-20304.992	    15.373	   -79.566	   151.391
-19980.877	    15.321	   -96.973	   153.448
-20088.090	    15.298	  -122.315	   144.665
-20085.416	    15.297	  -112.258	   144.612
-20152.031	    15.301	   -89.234	   143.046
-20241.594	    15.366	   -98.800	   125.334
-20227.496	    15.304	  -111.470	   141.774
-20359.486	    15.278	  -116.742	   158.656
-20196.098	    15.377	   -95.740	   130.858
-19981.846	    15.515	   -91.232	   129.378
-20275.111	    15.512	  -116.574	   162.583
-20170.295	    15.381	   -99.717	   135.335
-20034.066	    15.332	  -100.641	   122.395
-20237.936	    15.400	  -119.545	   136.406
-20413.592	    15.445	   -93.486	   138.485
-20165.309	    15.474	  -110.180	   133.034
-20162.156	    15.428	   -92.966	   120.941
-20352.779	    15.368	  -116.401	   152.729
-20155.871	    15.406	  -108.747	   123.523
-20010.676	    15.495	   -94.251	   144.972
-20507.908	    15.519	  -121.498	   148.177
-20125.523	    15.570	  -110.078	   132.435
-20185.494	    15.555	   -81.685	   142.323
-20181.887	    15.377	   -96.711	   136.959
-20299.947	    15.161	   -92.474	   134.721
-20375.932	    15.030	   -98.731	   132.605
-20639.500	    15.039	  -121.282	   121.531
-20253.941	    15.260	  -124.464	   143.674
-20024.805	    15.556	  -116.784	   132.631
-20269.580	    15.687	  -108.897	   141.259
-20096.102	    15.732	  -103.349	   135.024
-20046.953	    15.796	  -105.351	   129.642
-20031.822	    15.854	  -117.075	   135.411
-20056.607	    15.824	  -126.406	   130.521
-20080.764	    15.723	   -93.520	   128.688
-20339.951	    15.529	   -98.642	   158.642
-19987.775	    15.400	   -93.291	   157.515
-20054.693	    15.249	   -89.953	   160.773
-20360.762	    15.192	   -88.338	   139.805
-20221.088	    15.237	   -84.490	   149.263
-20432.691	    15.316	  -108.250	   149.734
-20016.252	    15.286	  -104.156	   158.300
-20378.770	    15.227	   -84.297	   128.099
-20176.807	    15.195	  -112.212	   137.882
-20204.482	    15.155	   -94.052	   147.836
-20516.602	    15.150	  -109.452	   133.892
-20070.268	    15.283	  -108.845	   144.619
-20083.502	    15.420	  -113.974	   159.265
-20072.916	    15.503	   -95.451	   150.650
-20023.225	    15.549	   -79.897	   116.728
-20391.697	    15.586	   -84.712	   135.406
-20162.012	    15.606	  -102.497	   156.220
-20034.504	    15.489	   -87.489	   144.063
-20176.328	    15.357	  -106.270	   155.153
-20242.193	    15.354	  -126.967	   132.186
-20071.652	    15.315	  -126.132	   137.592
-20289.709	    15.308	   -92.465	   143.785
-20560.844	    15.297	   -90.965	   137.287
-20309.588	    15.279	   -95.586	   136.438
-20316.580	    15.238	  -101.418	   128.864
-20364.998	    15.241	   -83.486	   130.068
-20307.461	    15.279	   -90.046	   156.306
-20388.627	    15.429	  -101.656	   144.700
-20019.275	    15.572	  -115.393	   115.633
-20110.992	    15.599	  -120.005	   155.476
-20267.543	    15.517	  -125.524	   142.461
-20169.318	    15.391	  -117.651	   129.345
-20288.092	    15.389	  -114.802	   134.136
-20053.463	    15.442	  -108.106	   105.998
-20263.742	    15.427	  -117.447	   124.890
-20061.428	    15.455	  -130.456	   140.944
-20299.332	    15.443	  -132.745	   148.136
-20031.094	    15.492	  -128.149	   147.957
-20126.240	    15.431	   -96.525	   143.588
-20163.012	    15.406	   -95.693	   131.476
-19994.115	    15.361	   -77.700	   141.195
-20230.768	    15.362	  -100.314	   142.357
-20244.043	    15.310	  -111.745	   142.796
-20384.143	    15.220	  -109.266	   133.472
-20280.197	    15.092	  -113.189	   147.893
-20249.389	    15.129	   -91.635	   142.569
-20111.744	    15.400	   -84.184	   130.894
-19896.105	    15.695	  -114.619	   119.599
-19919.959	    15.716	   -98.678	   132.586
-19938.945	    15.490	   -99.139	   142.873
-20025.373	    15.128	  -108.709	   164.372
-20136.406	    14.943	  -103.852	   138.892
-20104.521	    14.865	  -130.603	   149.821
-20284.332	    15.013	  -142.671	   131.998
-20295.432	    15.213	   -89.621	   146.316
-20357.029	    15.358	  -116.811	   137.020
-20335.268	    15.387	  -122.559	   136.275
-20179.441	    15.310	  -116.640	   142.796
-20022.887	    15.259	  -116.689	   146.765
-20323.484	    15.287	  -123.088	   124.244
-19986.402	    15.424	  -116.772	   121.092
-20274.891	    15.676	  -103.518	   143.047
-20180.443	    15.764	  -110.675	   133.014
-20296.188	    15.689	  -128.404	   133.866
-20108.627	    15.546	  -111.402	   144.401
-20237.420	    15.432	  -125.384	   121.982
-20436.492	    15.288	  -124.679	   127.176
-20492.668	    15.279	   -99.592	   127.631
-20268.486	    15.343	  -110.415	   139.508
-20096.479	    15.363	   -87.657	   131.480
-20439.891	    15.352	  -112.614	   143.805
-20240.396	    15.253	  -122.279	   138.723
-20534.674	    15.252	  -103.889	   131.016
-20173.033	    15.411	  -115.592	   138.214
-20220.996	    15.666	  -129.575	   127.469
-20028.037	    15.880	   -86.920	   149.500
-20114.127	    15.859	  -122.477	   153.515
-20232.434	    15.659	  -120.605	   143.437
-20221.842	    15.428	  -110.178	   120.439
-20092.424	    15.250	   -88.656	   137.724
-20207.598	    15.151	  -110.540	   142.524
-20311.648	    15.196	   -94.438	   143.519
-20367.355	    15.343	   -72.865	   132.341
-20036.684	    15.633	   -79.885	   136.713
-20069.016	    15.812	   -96.169	   146.366
-20027.842	    15.772	  -106.445	   152.756
-20213.414	    15.591	   -95.165	   140.397
-20275.582	    15.291	   -90.978	   141.180
-20119.889	    15.043	  -116.455	   154.325
-20471.787	    14.967	   -75.859	   147.545
-20204.709	    15.229	  -100.695	   138.205
-20146.584	    15.584	   -90.793	   142.962
-20018.758	    15.804	  -121.990	   138.750
-19854.211	    15.835	   -76.442	   119.516
-20057.883	    15.494	   -90.194	   116.648
-20357.457	    15.123	   -95.486	   147.301
-20431.867	    14.948	   -90.403	   144.203
-20266.041	    15.080	  -127.700	   144.696
-20317.988	    15.237	  -125.837	   155.315
-20230.396	    15.332	  -127.457	   125.771
-20310.998	    15.390	  -109.890	   134.904
-20217.598	    15.517	  -110.996	   137.770
-19938.578	    15.528	  -127.722	   140.023
-20124.336	    15.380	  -130.775	   143.435
-20032.846	    15.341	   -89.078	   125.296
-20122.201	    15.321	  -111.516	   153.434
-20261.826	    15.291	   -99.050	   135.847
-20223.100	    15.285	   -99.295	   147.056
-20169.715	    15.386	  -134.800	   131.609
-20202.910	    15.559	  -124.451	   150.200
-20124.525	    15.710	  -112.190	   125.834
-19811.865	    15.822	  -114.373	   130.700
-19894.697	    15.764	   -99.476	   149.237
-19987.494	    15.637	  -123.241	   139.330
-20054.025	    15.515	  -118.989	   161.399
-20387.402	    15.418	  -126.412	   121.411
-20276.178	    15.425	  -108.675	   132.968
-20209.184	    15.457	   -93.718	   139.151
-20342.691	    15.590	  -111.742	   134.764
-20132.756	    15.581	   -91.572	   131.179
-20200.766	    15.351	  -107.758	   146.344
-20291.473	    15.072	   -99.146	   133.593
-20089.195	    14.946	   -93.522	   131.859
-20164.035	    15.003	   -94.147	   140.580
-20479.623	    15.266	   -97.826	   135.820
-20242.771	    15.549	  -115.541	   133.560
-20037.307	    15.747	  -114.486	   150.575
-20098.098	    15.650	  -117.782	   137.358
-20071.398	    15.422	   -98.830	   126.659
-20193.895	    15.359	  -126.625	   154.503
-20074.549	    15.493	  -112.644	   126.313
-20107.721	    15.605	  -119.974	   121.422
-20027.902	    15.554	  -119.664	   148.136
-20067.316	    15.428	  -106.694	   150.796
-20201.387	    15.262	  -112.156	   126.728
-20315.443	    15.194	  -121.439	   148.685
-20424.219	    15.225	  -128.018	   137.766
-20318.295	    15.469	   -94.291	   146.038
-20056.967	    15.566	  -112.066	   128.778
-20276.516	    15.412	  -103.236	   136.390
-20444.436	    15.218	  -103.376	   140.542
-20339.041	    15.159	   -98.658	   130.271
-20061.361	    15.229	  -108.536	   112.696
-20353.580	    15.220	  -117.992	   161.546
-20210.338	    15.248	  -114.900	   146.306
-20163.262	    15.300	  -118.053	   137.787
-20097.291	    15.358	  -126.013	   141.596
-20364.215	    15.283	  -110.468	   138.293
-20099.430	    15.231	  -137.579	   160.633
-20198.904	    15.282	  -132.847	   122.663
-20130.982	    15.416	  -119.946	   126.496
-20333.131	    15.495	  -129.282	   140.288
-20059.232	    15.502	  -116.444	   143.950
-20375.039	    15.421	  -137.031	   155.453
-20207.232	    15.322	   -99.934	   123.223
-20163.555	    15.356	  -115.520	   136.775
-20056.781	    15.352	  -118.165	   166.080
-20270.893	    15.310	  -113.133	   137.115
-20124.178	    15.358	  -108.532	   131.438
-20292.898	    15.336	  -117.342	   141.188
-20268.188	    15.257	   -92.349	   134.070
-20000.137	    15.385	  -112.286	   142.226
-20297.928	    15.556	  -120.401	   140.892
-19826.338	    15.627	  -102.853	   125.750
-20021.734	    15.636	  -124.963	   139.885
-19998.166	    15.591	  -119.237	   133.508
-20210.467	    15.555	  -109.420	   117.428
-20477.736	    15.609	  -112.809	   138.144
-20164.400	    15.648	  -109.416	   139.104
-20399.900	    15.552	  -106.054	   131.559
-20173.014	    15.293	  -104.350	   128.946
-20245.842	    15.119	   -90.194	   126.900
-20399.139	    15.008	  -109.226	   127.406
-20339.270	    15.064	  -120.994	   131.773
-20148.594	    15.279	  -128.151	   130.928
-20103.205	    15.443	  -118.015	   129.214
-20148.947	    15.526	  -102.941	   117.325
-20105.408	    15.479	  -115.947	   130.622
-20330.068	    15.317	  -109.421	   136.752
-20398.807	    15.288	   -84.415	   141.581
-20046.176	    15.280	  -102.522	   149.543
-20284.832	    15.261	  -124.470	   134.821
-20334.656	    15.206	   -80.803	   135.222
-20230.404	    15.279	   -93.431	   131.096
-20280.887	    15.403	   -93.684	   119.024
-20017.223	    15.632	   -94.253	   141.741
-20145.445	    15.922	  -115.532	   149.617
-20175.461	    15.982	  -123.775	   134.668
-20222.092	    15.844	  -100.737	   136.494
-19850.281	    15.586	  -117.378	   125.226
-20614.512	    15.309	  -100.680	   131.888
-20442.660	    15.190	  -124.896	   143.360
-20269.121	    15.411	   -94.155	   138.682
-20105.732	    15.649	  -110.246	   133.072
-20166.443	    15.679	  -117.078	   143.602
-20159.988	    15.487	  -135.994	   147.158
-20350.629	    15.280	  -129.595	   124.799
-20428.359	    15.141	  -115.797	   117.895
-20277.250	    15.043	  -112.894	   107.563
-20464.863	    15.027	  -133.432	   143.681
-20022.338	    15.157	   -95.719	   133.685
-20034.438	    15.302	   -96.740	   148.409
-20076.338	    15.379	  -103.057	   142.533
-20110.576	    15.448	   -86.228	   120.429
-20162.441	    15.475	   -95.218	   132.423
-20259.127	    15.389	  -119.585	   141.159
-20406.125	    15.261	   -87.999	   134.126
-20310.852	    15.288	   -98.866	   128.000
-20295.045	    15.434	  -123.781	   142.219
-19864.268	    15.589	  -128.673	   150.128
-20180.180	    15.480	  -155.305	   124.195
-20232.584	    15.395	  -114.523	   128.942
-20250.059	    15.265	  -112.489	   152.512
-20482.795	    15.210	  -107.729	   136.594
-20429.801	    15.319	  -128.368	   128.951
-20322.057	    15.547	  -137.273	   147.275
-19950.941	    15.736	  -116.788	   139.126
-19898.521	    15.800	  -116.586	   117.057
-20033.324	    15.674	  -100.990	   138.595
-20145.096	    15.566	  -110.220	   142.344
-20141.836	    15.444	  -121.261	   144.474
-20105.910	    15.325	   -97.025	   151.573
-20418.240	    15.278	  -138.963	   139.803
-20043.285	    15.466	  -134.880	   115.438
-20126.768	    15.602	  -147.749	   138.108
-20288.676	    15.734	  -115.615	   128.346
-20057.207	    15.771	  -110.951	   139.111
-20155.107	    15.577	  -146.364	   141.564
-20195.953	    15.360	  -145.861	   158.264
-20103.631	    15.341	   -86.048	   144.647
-20248.371	    15.373	  -125.657	   143.514
-19998.639	    15.472	   -91.348	   145.474
-20295.615	    15.545	  -126.999	   130.824
-19899.896	    15.493	  -104.867	   143.887
-20075.344	    15.374	   -83.028	   142.795
-20229.436	    15.244	   -92.176	   120.175
-20100.164	    15.278	  -100.288	   108.136
-19996.691	    15.469	   -83.666	   115.977
-20095.018	    15.492	   -82.350	   143.374
-20298.125	    15.437	  -101.886	   137.410
-19992.764	    15.418	   -92.203	   140.419
-20123.494	    15.422	   -93.391	   132.822
-20153.512	    15.415	   -94.999	   119.892
-20165.490	    15.398	   -87.325	   128.949
-20497.682	    15.205	   -97.866	   144.068
-20369.758	    15.155	  -115.906	   157.521
-20201.725	    15.149	  -117.445	   154.208
-20126.039	    15.239	  -122.517	   143.977
-20147.234	    15.409	  -117.851	   131.776
-20238.982	    15.457	  -133.013	   143.330
-20045.631	    15.536	  -110.646	   139.963
-20255.963	    15.534	  -114.838	   148.687
-20137.428	    15.429	  -124.181	   141.104
-20203.428	    15.391	  -110.278	   141.296
-20186.771	    15.298	  -122.073	   131.056
-20185.678	    15.217	   -89.306	   117.380
-20237.691	    15.295	   -87.335	   166.546
-20056.369	    15.377	  -105.017	   159.328
-20098.559	    15.284	  -129.306	   137.772
-20109.459	    15.271	  -112.376	   141.609
-20127.986	    15.331	  -111.528	   138.181
-20066.256	    15.402	  -127.861	   131.988
-20107.770	    15.419	  -107.156	   145.262
-20039.096	    15.422	   -69.266	   155.842
-20212.951	    15.321	   -94.345	   130.204
-20094.883	    15.219	   -88.670	   144.283
-20242.658	    15.090	   -67.211	   132.557
-20433.369	    15.077	   -80.932	   159.128
-20391.951	    15.173	   -99.168	   141.479
-20241.025	    15.252	   -81.162	   127.458
-20331.803	    15.319	   -85.490	   165.067
-20098.521	    15.508	  -111.654	   150.803
-20014.920	    15.689	   -91.132	   148.338
-20057.299	    15.632	  -116.416	   146.540
-20062.229	    15.458	   -91.839	   159.736
-20099.596	    15.187	  -106.290	   132.957
-20309.201	    14.953	  -119.187	   129.086
-20322.633	    14.867	  -105.205	   134.314
-20402.650	    15.062	   -87.406	   137.338
-20123.424	    15.321	   -89.138	   144.706
-20107.246	    15.571	  -114.131	   133.411
-20114.727	    15.711	   -98.226	   130.807
-20029.408	    15.550	   -90.898	   139.057
-20247.344	    15.363	  -125.751	   141.652
-20125.801	    15.273	  -114.893	   145.911
-20140.127	    15.279	  -114.513	   142.092
-20078.805	    15.351	  -115.600	   141.156
-20104.041	    15.476	   -86.188	   135.929
-20433.410	    15.517	   -97.971	   141.491
-20528.064	    15.456	   -94.515	   158.129
-20441.395	    15.365	   -97.131	   148.360
-20149.256	    15.309	   -90.155	   141.177
-20167.482	    15.324	  -109.353	   149.553
-20453.043	    15.334	  -121.609	   144.244
-20114.885	    15.356	  -121.655	   165.855
-20175.674	    15.446	  -108.515	   150.880
-20237.084	    15.522	  -120.911	   153.651
-20253.000	    15.463	   -97.852	   125.837
-20182.836	    15.385	  -101.672	   136.239
-20298.756	    15.380	  -116.828	   142.540
-20028.633	    15.435	  -100.714	   144.535
-20026.033	    15.381	  -128.458	   130.248
-20155.793	    15.287	  -124.696	   123.982
-20111.018	    15.400	  -117.799	   112.432
-20141.398	    15.456	  -122.306	   143.268
-20118.273	    15.460	  -105.248	   153.172
-20314.406	    15.409	  -110.648	   119.019
-19961.596	    15.378	  -122.354	   146.576
-20260.816	    15.323	  -111.740	   128.446
-20016.176	    15.280	  -104.135	   136.076
-20015.791	    15.316	  -105.094	   137.438
-20415.402	    15.438	  -126.809	   149.407
-20300.344	    15.517	   -85.401	   150.445
-20085.744	    15.701	   -86.370	   144.916
-20012.785	    15.737	  -118.141	   141.636
-20118.158	    15.578	  -106.252	   148.620
-20176.697	    15.298	  -100.905	   135.614
-20495.328	    15.181	  -106.220	   158.894
-20276.291	    15.218	  -117.877	   140.932
-20190.180	    15.352	  -127.808	   126.146
-19939.312	    15.514	  -131.432	   133.537
-20037.711	    15.448	  -124.340	   152.000
-19971.732	    15.306	  -114.828	   115.732
-20074.578	    15.277	  -102.939	   123.608
-20070.445	    15.292	  -101.484	   130.410
-19980.449	    15.306	   -99.008	   120.896
-20056.852	    15.334	   -91.876	   136.353
-20101.055	    15.371	   -92.967	   133.085
-20169.486	    15.450	   -86.363	   144.649
-20062.248	    15.514	   -73.770	   155.642
-20042.090	    15.440	   -76.763	   136.557
-20279.715	    15.300	   -95.215	   144.142
-20340.268	    15.202	  -100.420	   140.912
-20398.570	    15.202	  -142.488	   172.046
-20309.656	    15.363	  -116.057	   136.092
-20182.291	    15.386	  -118.329	   165.835
-20727.318	    15.296	  -104.540	   126.490
-20302.750	    15.350	  -127.672	   149.785
-20188.357	    15.434	  -104.761	   133.884
-19909.373	    15.524	  -107.862	   130.210
-20269.748	    15.451	  -105.153	   152.902
-20381.180	    15.406	  -121.953	   147.211
-20009.699	    15.405	   -92.871	   145.746
-20014.730	    15.383	   -92.322	   121.174
-20155.818	    15.348	   -99.491	   126.821
-20403.621	    15.319	   -99.343	   135.017
-20405.650	    15.351	   -91.873	   126.750
-20349.859	    15.400	  -140.512	   158.872
-20121.852	    15.447	  -104.601	   148.354
-20230.531	    15.527	  -121.792	   149.737
-20315.447	    15.549	  -132.830	   147.052
-20196.262	    15.515	   -96.951	   150.333
-20138.396	    15.537	  -103.266	   132.093
-20147.703	    15.631	  -106.460	   153.127
-20389.854	    15.617	  -128.044	   141.085
-20299.969	    15.620	  -114.314	   130.287
-20207.742	    15.579	  -122.479	   133.128
-20176.746	    15.436	  -123.314	   140.416
-20442.525	    15.275	  -124.758	   143.027
-20466.936	    15.185	  -120.665	   131.910
-20179.930	    15.148	  -126.060	   116.755
-20346.266	    15.185	  -130.410	   132.309
-20347.559	    15.250	  -139.117	   122.463
-20195.572	    15.391	  -133.479	   142.521
-20158.926	    15.505	   -85.455	   127.342
-20306.787	    15.604	   -92.768	   126.702
-20122.764	    15.736	  -103.261	   131.399
-20097.588	    15.824	  -117.228	   146.460
-20224.572	    15.735	   -98.292	   153.299
-20365.148	    15.576	  -100.455	   118.545
-19905.525	    15.536	  -116.723	   118.273
-20244.850	    15.454	   -97.422	   152.218
-20295.078	    15.314	  -102.545	   130.981
-20117.547	    15.307	  -107.279	   140.874
-20091.971	    15.260	  -117.297	   149.410
-20286.721	    15.288	  -121.437	   141.190
-20103.340	    15.337	  -110.985	   138.212
-20105.830	    15.386	   -85.616	   125.342
-20184.746	    15.432	   -84.412	   147.260
-20232.545	    15.448	   -96.645	   134.652
-20191.264	    15.395	   -93.958	   135.227
-20460.115	    15.320	  -111.157	   142.701
-20339.693	    15.325	  -119.379	   137.049
-19841.676	    15.403	  -102.011	   154.223
-20011.395	    15.490	   -89.993	   149.465
-20150.340	    15.629	   -77.281	   125.898
-20133.307	    15.776	  -102.568	   129.595
-20127.176	    15.823	   -96.447	   145.855
-20001.578	    15.731	  -114.416	   130.332
-20203.365	    15.532	  -127.307	   165.962
-20214.736	    15.394	  -119.281	   147.407
-20141.754	    15.397	   -87.888	   140.340
-20405.275	    15.479	  -134.139	   139.945
-20295.668	    15.524	   -99.089	   143.672
-20318.320	    15.486	  -107.039	   143.813
-20389.031	    15.434	  -117.912	   127.246
-20051.076	    15.436	  -111.577	   129.590
-20179.924	    15.439	   -84.220	   139.970
-20326.695	    15.387	   -93.571	   130.635
-20335.957	    15.330	   -76.406	   135.989
-20025.453	    15.249	  -105.390	   141.792
-20380.135	    15.305	   -92.319	   144.829
-20088.207	    15.535	   -99.886	   139.367
-20314.734	    15.687	   -98.148	   137.041
-20187.332	    15.705	  -116.054	   126.032
-20171.689	    15.593	  -123.344	   136.499
-20320.570	    15.412	  -112.468	   127.908
-20221.611	    15.213	   -96.424	   138.020
-20387.918	    15.088	   -75.936	   146.168
-20231.420	    15.193	   -79.538	   137.759
-20047.250	    15.467	  -111.968	   149.623
-20003.680	    15.600	   -90.190	   158.102
-19992.393	    15.554	  -110.351	   134.564
-20360.160	    15.391	  -111.449	   134.090
-20243.598	    15.245	  -121.248	   148.715
-20343.010	    15.240	  -132.635	   145.570
-20282.131	    15.330	  -113.791	   134.325
-20351.207	    15.437	  -124.528	   141.801
-20122.367	    15.503	  -129.528	   147.935
-20351.221	    15.455	  -128.175	   143.009
-20365.080	    15.395	  -109.286	   139.544
-20377.662	    15.466	   -99.771	   137.705
-20244.361	    15.482	  -112.014	   138.755
-20058.350	    15.435	  -129.803	   146.220
-20140.662	    15.350	  -106.439	   135.796
-20269.688	    15.312	  -107.906	   145.858
-20354.791	    15.332	   -84.230	   149.039
-20215.775	    15.338	   -80.841	   134.524
-20215.941	    15.406	   -83.881	   127.328
-20138.271	    15.424	  -111.702	   124.301
-20388.877	    15.392	  -117.868	   118.537
-20522.625	    15.322	  -122.954	   139.583
-20283.043	    15.324	   -90.093	   144.287
-20309.031	    15.362	   -82.196	   141.742
-20197.900	    15.361	  -105.940	   135.273
-20291.080	    15.441	  -102.183	   134.884
-20280.703	    15.552	  -119.451	   142.802
-20094.730	    15.547	  -106.378	   132.214
-20301.643	    15.469	   -94.944	   129.037
-20386.648	    15.506	  -120.879	   162.165
-20006.600	    15.527	  -118.528	   145.280
-20364.025	    15.424	  -107.164	   144.926
-20460.174	    15.224	   -87.123	   163.392
-20079.930	    15.225	   -83.787	   125.744
-20238.006	    15.313	   -75.406	   122.180
-20206.562	    15.536	   -88.969	   139.548
-20061.322	    15.818	  -143.303	   146.764
-20089.586	    15.821	  -112.241	   125.704
-19885.053	    15.635	  -121.506	   138.581
-20124.602	    15.594	   -95.572	   170.549
-20095.523	    15.527	  -108.508	   143.217
-20255.521	    15.488	   -89.334	   134.678
-20349.133	    15.536	   -97.326	   153.305
-20093.982	    15.504	  -116.778	   131.116
-20084.656	    15.416	  -108.834	   125.087
-20220.596	    15.323	  -122.558	   134.194
-20362.396	    15.424	  -117.195	   144.793
-20081.963	    15.567	  -131.817	   124.808
-20248.727	    15.596	  -132.201	   136.374
-20093.463	    15.634	   -94.542	   124.168
-20217.482	    15.587	  -112.114	   126.269
-20055.449	    15.461	  -110.909	   131.313
-20182.576	    15.378	  -120.553	   125.270
-20067.092	    15.337	   -88.981	   107.982
-20122.592	    15.324	  -107.040	   127.410
-20414.307	    15.310	   -95.181	   128.003
-19914.873	    15.377	  -106.853	   147.218
-20168.871	    15.494	   -97.065	   135.374
-20093.564	    15.678	  -150.740	   152.677
-20295.793	    15.771	  -138.225	   124.975
-20161.918	    15.747	  -115.896	   150.936
-20130.271	    15.557	  -126.760	   127.359
-20298.145	    15.462	  -120.713	   130.839
-20223.842	    15.391	  -118.455	   150.433
-20338.213	    15.367	  -122.800	   120.489
-20298.527	    15.354	  -127.793	   146.538
-20346.418	    15.402	  -126.323	   129.901
-20234.410	    15.540	  -122.695	   116.143
-20056.684	    15.552	   -97.647	   128.066
-20355.863	    15.400	  -100.968	   130.005
-20274.309	    15.284	  -105.258	   113.039
-20101.414	    15.196	  -133.111	   125.433
-20144.613	    15.340	  -120.264	   135.122
-20117.574	    15.566	  -111.123	   142.508
-20266.715	    15.658	  -105.892	   138.826
-20052.570	    15.655	  -104.437	   130.708
-20298.867	    15.695	  -115.640	   148.516
-19927.535	    15.674	  -100.643	   142.639
-19946.018	    15.518	   -91.512	   121.347
-20104.482	    15.323	   -87.210	   144.590
-20534.703	    15.176	  -100.530	   134.891
-20310.910	    15.041	  -124.576	   139.214
-20177.812	    15.082	  -104.863	   130.347
-20152.223	    15.357	   -98.595	   145.590
-19959.734	    15.617	   -92.218	   125.261
-19925.705	    15.709	   -88.235	   138.240
-20352.754	    15.575	   -94.374	   134.773
-20190.502	    15.332	  -120.315	   131.656
-20618.496	    15.191	   -92.537	   139.377
-20520.342	    15.157	  -116.046	   128.052
-20248.023	    15.395	  -100.832	   140.204
-20238.240	    15.484	   -99.738	   145.373
-20090.842	    15.514	  -105.611	   153.111
-20221.500	    15.400	  -125.719	   158.470
-20149.012	    15.318	  -118.551	   151.145
-20061.941	    15.320	  -136.011	   139.338
-20032.449	    15.452	  -131.036	   135.249
-19826.236	    15.549	  -128.582	   141.220
-20170.102	    15.487	  -135.006	   160.662
-20450.199	    15.383	  -102.356	   147.620
-20258.521	    15.336	   -81.619	   127.791
-20426.590	    15.492	  -105.175	   136.600
-20376.713	    15.616	  -110.130	   128.924
-20268.135	    15.737	   -96.289	   162.538
-20198.863	    15.727	   -83.978	   147.787
-20085.217	    15.503	  -118.794	   137.441
-20248.035	    15.261	  -110.779	   127.749
-20304.865	    15.215	  -139.694	   150.338
-20257.008	    15.379	  -131.687	   146.721
-20229.125	    15.580	  -119.764	   147.844
-19974.730	    15.746	  -111.380	   149.996
-20155.502	    15.732	  -113.608	   152.295
-19842.131	    15.585	   -97.629	   139.032
-20197.242	    15.325	  -106.068	   115.901
-20061.053	    15.206	  -100.669	   130.166
-20261.535	    15.250	  -116.733	   137.035
-20146.691	    15.407	   -94.129	   124.946
-19917.656	    15.664	  -115.819	   143.157
-20217.207	    15.845	  -131.072	   134.371
-20005.434	    15.747	  -107.629	   117.047
-20086.443	    15.438	   -85.375	   149.438
-20174.219	    15.215	   -94.156	   157.518
-20086.332	    15.290	  -102.160	   143.469
-20369.133	    15.383	   -90.915	   133.267
-20263.777	    15.521	   -86.799	   142.469
-20275.791	    15.655	  -118.553	   137.015
-20166.664	    15.749	  -120.913	   147.300
-20234.781	    15.592	  -127.436	   136.380
-20209.270	    15.349	  -113.845	   148.451
-20067.807	    15.084	   -97.971	   135.720
-20386.172	    14.962	  -101.682	   134.397
-20002.457	    15.118	  -114.206	   150.826
-20263.852	    15.372	  -106.061	   125.239
-19957.814	    15.626	  -103.621	   145.539
-20056.195	    15.908	  -110.384	   160.442
-19756.346	    16.025	  -110.149	   138.327
-19740.604	    15.943	  -121.453	   162.474
-20023.088	    15.669	  -144.044	   125.758
-20362.697	    15.284	  -108.758	   144.246
-20340.330	    15.041	  -102.749	   125.241
-19973.121	    15.145	  -113.191	   144.294
-20105.607	    15.300	   -99.018	   132.998
-20110.133	    15.350	  -114.953	   148.412
-20154.430	    15.408	  -100.651	   131.468
-20098.484	    15.478	  -107.419	   141.824
-20242.793	    15.436	   -96.257	   157.336
-20412.242	    15.306	   -94.979	   133.756
-20159.045	    15.322	   -91.270	   110.893
-20038.832	    15.514	  -114.817	   157.833
-20022.852	    15.682	   -80.748	   153.684
-19789.768	    15.810	  -102.948	   149.888
-19840.051	    15.679	  -117.230	   130.917
-20172.670	    15.444	   -86.505	   137.429
-19819.371	    15.372	   -78.826	   132.587
-20379.725	    15.372	   -91.191	   160.001
-20175.994	    15.413	  -108.297	   137.801
-20164.279	    15.416	   -91.516	   140.586
-20134.883	    15.433	   -68.188	   122.458
-20100.883	    15.400	  -117.344	   135.759
-20024.859	    15.269	  -130.182	   150.675
-20118.736	    15.175	   -93.093	   139.228
-20482.576	    15.231	  -112.875	   131.541
-20156.410	    15.321	  -101.918	   134.975
-19812.348	    15.473	   -97.083	   131.228
-20038.166	    15.551	   -83.728	   139.974
-20031.379	    15.453	  -101.130	   139.316
-19947.525	    15.333	   -99.593	   133.956
-20131.906	    15.292	   -82.155	   145.330
-20160.771	    15.377	  -111.225	   139.239
-20214.109	    15.443	   -85.607	   126.893
-20208.471	    15.616	  -124.246	   134.858
-20406.623	    15.733	  -104.875	   149.729
-20080.381	    15.658	  -100.610	   122.084
-20349.068	    15.462	   -93.315	   149.288
-20344.887	    15.327	   -89.996	   129.225
-20251.738	    15.328	  -102.620	   129.177
-20036.111	    15.362	  -110.142	   133.523
-20132.691	    15.359	  -108.355	   142.104
-20215.998	    15.403	  -130.582	   129.506
-20232.143	    15.355	  -120.410	   150.035
-20474.164	    15.159	  -105.260	   150.973
-20426.861	    15.002	  -136.046	   141.829
-20326.480	    15.022	  -130.849	   145.007
-20017.518	    15.279	  -109.397	   143.438
-20215.023	    15.451	  -131.511	   139.490
-20086.383	    15.579	  -145.030	   139.047
-19956.410	    15.704	  -116.065	   125.310
-20006.113	    15.736	  -125.549	   133.347
-20262.369	    15.689	  -121.281	   154.951
-20205.768	    15.601	  -102.717	   151.847
-19877.959	    15.480	  -105.520	   153.757
-20258.223	    15.378	  -101.298	   151.352
-20230.037	    15.405	  -118.660	   153.143
-19992.467	    15.482	  -135.808	   133.244
-20199.504	    15.479	  -131.717	   140.021
-20155.365	    15.390	  -126.247	   161.903
-20347.188	    15.308	  -123.344	   156.666
-20301.559	    15.363	   -91.410	   139.738
-20341.508	    15.384	  -104.606	   136.215
-19984.141	    15.439	   -98.239	   144.222
-20252.865	    15.575	   -94.278	   141.684
-20224.148	    15.636	  -117.242	   127.486
-20265.498	    15.687	  -118.221	   138.957
-20214.213	    15.675	  -105.574	   133.206
-20383.926	    15.566	  -118.914	   107.795
-20355.488	    15.502	  -111.470	   126.560
-20145.963	    15.404	  -128.457	   145.259
-20288.789	    15.288	  -115.411	   137.961
-20321.703	    15.173	  -111.631	   148.335
-20213.113	    15.039	  -115.322	   145.626
-20119.914	    15.017	  -112.305	   143.187
-20407.586	    15.189	  -111.405	   157.105
-20176.707	    15.504	   -87.126	   161.382
-20194.211	    15.765	   -86.495	   145.210
-20005.279	    15.868	  -101.139	   137.466
-20030.232	    15.807	   -80.271	   122.798
-20018.602	    15.632	  -103.493	   137.033
-20196.879	    15.476	  -121.845	   141.848
-20426.197	    15.348	  -102.690	   140.985
-20249.807	    15.283	  -115.997	   134.865
-20241.756	    15.295	  -120.691	   136.342
-19923.828	    15.477	  -131.418	   144.229
-19850.375	    15.658	  -121.007	   106.232
-20039.074	    15.772	  -103.042	   127.452
-19986.645	    15.909	  -116.482	   150.562
-20087.182	    15.788	  -106.282	   141.707
-20061.689	    15.665	  -109.824	   146.233
-20152.094	    15.623	  -103.490	   151.608
-20032.162	    15.640	   -92.622	   131.236
-19917.086	    15.562	  -110.268	   149.874
-20110.260	    15.394	  -121.055	   143.892
-20357.619	    15.196	  -140.573	   150.717
-20343.748	    15.158	  -114.450	   142.127
-20106.096	    15.197	  -117.346	   146.121
-20175.301	    15.340	  -104.789	   139.532
-20295.123	    15.443	  -139.295	   167.697
-19996.762	    15.507	   -93.195	   125.099
-20339.570	    15.627	   -82.273	   127.194
-20207.344	    15.687	   -93.279	   139.554
-20129.732	    15.529	  -106.046	   135.764
-20038.420	    15.334	  -116.191	   131.851
-20238.768	    15.144	  -110.633	   132.952
-20028.152	    15.158	  -146.260	   146.213
-20304.725	    15.243	  -119.992	   156.763
-20367.441	    15.385	  -113.059	   158.812
-19969.922	    15.689	  -119.901	   130.377
-20012.646	    15.737	   -77.659	   126.888
-20061.484	    15.508	   -93.702	   131.475
-20091.154	    15.273	  -106.540	   133.812
-20414.418	    15.055	  -107.673	   143.667
-20497.438	    15.083	  -104.265	   145.361
-20067.951	    15.226	   -87.615	   130.057
-20268.570	    15.292	  -102.060	   162.940
-20240.754	    15.240	  -102.854	   139.224
-20183.018	    15.273	  -102.562	   170.136
-20056.445	    15.333	   -81.193	   129.249
-20345.912	    15.299	  -108.150	   135.209
-20078.461	    15.342	   -81.830	   133.376
-19840.287	    15.424	   -95.492	   132.496
-20256.895	    15.498	  -107.301	   145.334
-19878.223	    15.563	  -105.283	   133.380
-20196.828	    15.505	   -75.822	   141.034
-20366.414	    15.639	  -108.993	   137.130
-19737.551	    15.838	  -114.739	   126.252
-20011.328	    15.887	   -94.338	   131.937
-19885.301	    15.807	   -82.696	   123.477
-19960.066	    15.628	   -98.691	   152.356
-20044.033	    15.397	  -109.759	   154.830
-20275.652	    15.327	  -131.284	   130.035
-20194.602	    15.389	   -99.013	   124.547
-19959.076	    15.475	  -129.510	   149.121
-20512.943	    15.428	  -107.451	   121.414
-20203.656	    15.359	  -111.772	   126.724
-20258.076	    15.178	   -98.981	   143.601
-20241.105	    15.044	  -105.073	   132.535
-20181.545	    15.205	  -102.515	   143.322
-20216.156	    15.446	  -111.381	   129.846
-20148.621	    15.614	  -101.084	   112.927
-20074.312	    15.699	  -115.658	   142.831
-20053.301	    15.600	  -110.779	   152.049
-20032.982	    15.539	  -112.218	   161.013
-19915.357	    15.504	  -110.165	   126.088
-20006.857	    15.556	  -100.549	   119.803
-19956.715	    15.659	   -87.019	   118.257
-19914.307	    15.639	   -60.125	   123.447
-19996.518	    15.384	   -63.487	   131.241
-20211.977	    15.119	   -80.688	   140.037
-20303.145	    14.989	   -71.913	   129.911
-20393.836	    15.065	  -119.250	   137.453
-20197.150	    15.224	  -110.816	   142.003
-20399.332	    15.411	  -119.345	   145.213
-20001.064	    15.542	  -129.965	   135.273
-19869.869	    15.563	  -107.595	   125.239
-20168.119	    15.597	  -100.353	   129.289
-20235.316	    15.550	   -91.296	   129.384
-19989.299	    15.531	  -101.158	   136.653
-20284.434	    15.526	  -110.663	   118.471
-20096.014	    15.522	  -115.933	   145.413
-20142.145	    15.636	  -126.080	   133.810
-20188.555	    15.695	  -108.561	   136.613
-19900.098	    15.679	  -116.261	   153.986
-20155.385	    15.398	   -90.592	   123.893
-20359.447	    15.182	  -106.226	   145.897
-20259.416	    15.192	   -89.287	   144.548
-20091.910	    15.404	  -111.750	   149.310
-20107.416	    15.601	  -134.936	   140.206
-20167.033	    15.612	  -113.313	   143.606
-20032.354	    15.488	   -97.929	   134.347
-20180.873	    15.357	  -124.723	   146.066
-20148.871	    15.261	   -94.694	   133.908
-20117.299	    15.292	   -72.376	   132.400
-20294.543	    15.413	   -97.396	   141.600
