-19895.672	    15.334	   -92.310	   122.143
-19847.311	    15.421	  -119.248	  -136.362
-20086.879	    15.533	  -142.532	  -112.523
-20005.734	    15.560	  -140.466	   -61.335
-19737.691	    15.573	  -146.098	   -85.071
-19849.383	    15.524	  -137.107	   -68.826
-20024.123	    15.508	  -155.212	   -75.724
-19869.076	    15.645	  -133.455	   -83.071
-19827.346	    15.812	  -134.282	   -72.297
-19992.107	    15.888	  -145.310	   -83.692
-19931.934	    15.747	  -142.076	   -70.093
-20130.570	    15.521	  -136.516	   -37.945
-19891.910	    15.358	  -144.711	   -64.707
-19902.139	    15.291	  -133.087	   -48.291
-20054.607	    15.291	  -132.158	   -42.273
-19809.695	    15.314	  -146.350	   -42.216
-19800.672	    15.420	  -129.864	   -55.336
-19787.799	    15.509	  -139.844	   -66.009
-19791.062	    15.608	  -130.333	   -62.506
-19937.889	    15.680	  -132.262	   -62.330
-19987.176	    15.662	  -132.442	   -63.782
-20119.922	    15.557	  -131.434	   -67.311
-19843.582	    15.510	  -123.383	   -57.498
-19966.707	    15.546	  -117.473	   -68.417
-19862.488	    15.537	  -148.870	   -60.392
-19908.547	    15.478	  -143.223	   -54.885
-20156.963	    15.474	  -147.443	   -76.946
-19668.395	    15.490	  -130.414	   -60.849
-19838.836	    15.578	  -142.289	   -57.648
-19927.768	    15.620	  -152.928	   -73.224
-19729.240	    15.776	  -140.779	   -71.041
-19899.150	    15.856	  -147.127	   -71.127
-19715.537	    15.690	  -132.220	   -56.569
-19860.963	    15.427	  -140.270	   -90.458
-20151.309	    15.199	   -89.259	   -74.578
-20109.902	    15.164	  -149.075	   -52.135
-20098.748	    15.361	  -150.231	   -45.846
-19863.754	    15.526	  -121.461	   -62.081
-19803.074	    15.681	  -151.987	   -58.120
-19936.182	    15.730	  -140.247	   -64.442
-19821.418	    15.645	  -131.969	   -91.600
-19844.885	    15.533	  -153.925	   -71.396
-19633.672	    15.408	  -142.283	   -62.349
-19809.562	    15.425	  -156.962	   -48.656
-19877.811	    15.471	  -128.217	   -65.110
-19952.498	    15.427	  -122.256	   -42.936
-19913.299	    15.397	  -139.788	   -69.667
-19898.818	    15.513	  -145.821	   -55.364
-20017.668	    15.666	  -125.027	   -87.154
-19818.863	    15.752	  -134.327	   -60.518
-19895.207	    15.802	  -132.891	   -63.595
-19864.117	    15.722	  -147.962	   -65.450
-20121.957	    15.610	  -138.998	   -36.260
-20027.891	    15.291	  -122.949	   -50.387
-19986.105	    15.072	  -133.521	   -52.094
-19969.502	    15.077	  -145.376	   -71.866
-19937.178	    15.243	  -147.048	   -45.360
-19864.221	    15.341	  -148.998	   -62.683
-20046.057	    15.321	  -151.606	   -57.418
-19793.498	    15.351	  -131.573	   -78.634
-19917.002	    15.447	  -143.270	   -71.119
-20050.197	    15.569	  -149.890	   -68.158
-19870.893	    15.674	  -159.712	   -53.710
-19800.854	    15.707	  -158.570	   -51.863
-19855.617	    15.711	  -139.180	   -72.989
-19831.248	    15.772	  -144.845	   -63.187
-19925.916	    15.796	  -137.473	   -41.521
-19769.775	    15.788	  -133.362	   -54.920
-19853.281	    15.730	  -118.751	   -58.612
-19883.203	    15.587	  -137.607	   -51.940
-19956.148	    15.449	  -138.949	   -41.253
-19971.916	    15.383	  -122.766	   -71.251
-19999.254	    15.455	  -131.403	   -53.252
-19770.854	    15.488	  -138.701	   -53.060
-20278.717	    15.425	  -143.816	   -66.911
-19977.447	    15.469	  -140.507	   -61.136
-19874.984	    15.675	  -136.654	   -47.491
-19750.732	    15.807	  -137.646	   -56.552
-19771.387	    15.725	  -122.145	   -58.361
-19779.742	    15.654	  -140.612	   -43.891
-19630.174	    15.665	  -135.351	   -57.359
-19882.852	    15.575	  -128.430	   -57.864
-20030.984	    15.426	  -120.427	   -84.916
-19767.049	    15.288	  -141.994	  -102.405
-19799.928	    15.117	  -139.361	   -65.033
-20106.066	    15.069	  -149.966	   -42.601
-20151.789	    15.078	  -138.307	   -48.043
-20101.648	    15.252	  -133.179	   -66.164
-19835.615	    15.569	  -138.275	   -48.207
-19801.230	    15.909	  -115.834	   -53.925
-19936.037	    16.050	  -141.195	   -53.951
-19669.762	    15.932	  -137.629	   -50.769
-19864.748	    15.777	  -133.413	   -47.569
-19996.846	    15.636	  -124.997	   -60.466
-19753.604	    15.585	  -145.497	   -65.481
-19918.504	    15.583	  -150.272	   -52.563
-20030.516	    15.568	  -134.059	   -65.725
-19934.502	    15.587	  -134.352	   -74.172
-20045.654	    15.538	  -151.740	   -56.002
-20065.373	    15.432	  -147.995	   -47.502
-19895.494	    15.462	  -139.742	   -63.442
-19961.982	    15.463	  -143.339	   -52.083
-19992.227	    15.547	  -134.154	   -61.276
-19948.396	    15.725	  -133.902	   -60.398
-19671.666	    15.889	  -168.702	   -54.809
-19896.480	    16.017	  -139.657	   -63.615
-19873.629	    15.952	  -153.450	   -58.618
-19952.416	    15.692	  -144.518	   -61.950
-19881.986	    15.497	  -140.760	   -60.736
-19783.262	    15.374	  -134.701	   -56.533
-19947.445	    15.236	  -136.527	   -49.954
-20058.061	    15.220	  -142.428	   -39.715
-19967.123	    15.379	  -137.659	   -37.752
-19984.166	    15.513	  -137.553	   -28.912
-20134.730	    15.649	  -124.593	   -56.641
-19762.648	    15.782	  -133.780	   -49.951
-19713.141	    15.872	  -136.849	   -68.914
-19585.049	    15.855	  -133.517	   -44.553
-19867.051	    15.759	  -126.507	   -57.428
-19801.527	    15.587	  -133.942	   -45.140
-20135.615	    15.330	  -151.046	   -42.098
-20060.508	    15.103	  -142.081	   -34.044
-20174.248	    15.009	  -143.969	   -43.530
-20131.785	    15.104	  -155.759	   -64.537
-20020.922	    15.406	  -147.470	   -62.962
-19727.641	    15.740	  -145.879	   -63.276
-19600.326	    15.897	  -136.883	   -49.869
-19856.111	    15.887	  -135.180	   -75.760
-20081.990	    15.663	  -145.976	   -71.376
-19888.715	    15.507	  -132.724	   -68.309
-19969.789	    15.360	  -130.410	   -72.508
-20100.787	    15.297	  -122.911	   -71.499
-19983.072	    15.144	  -152.434	   -74.315
-20052.541	    15.022	  -140.678	   -64.985
-19910.885	    15.163	  -143.805	   -63.784
-19774.244	    15.517	  -138.396	   -94.588
-19758.393	    15.767	  -135.171	   -71.785
-20040.316	    15.739	  -150.533	   -40.264
-19856.943	    15.712	  -155.804	   -73.951
-19402.113	    15.590	  -151.177	   -57.033
-19957.873	    15.338	  -136.138	   -55.379
-20006.252	    15.189	  -156.363	   -67.588
-20029.410	    15.222	  -143.029	   -50.539
-20018.445	    15.379	  -121.383	   -67.257
-19814.303	    15.537	  -123.011	   -73.348
-19957.586	    15.576	  -154.766	   -47.377
-20179.354	    15.578	  -144.894	   -72.108
-19826.975	    15.639	  -140.752	   -43.420
-19749.566	    15.697	  -128.809	   -69.999
-19760.250	    15.759	  -135.956	   -45.528
-19699.797	    15.778	  -136.731	   -60.501
-19695.346	    15.658	  -148.677	   -41.803
-20046.289	    15.496	  -142.567	   -85.716
-20140.654	    15.334	  -136.091	   -59.419
-20035.229	    15.392	  -156.073	   -80.238
-19825.826	    15.571	  -140.163	   -48.487
-19712.670	    15.541	  -146.276	   -45.590
-20031.596	    15.399	  -136.388	   -66.131
-19951.174	    15.297	  -140.504	   -43.748
-20119.645	    15.291	  -135.486	   -52.819
-20078.920	    15.508	  -151.605	   -81.130
-19648.877	    15.736	  -152.481	   -54.722
-19822.988	    15.811	  -128.037	   -47.937
-19908.324	    15.687	  -134.734	   -78.152
-19722.035	    15.472	  -140.570	   -35.172
-19816.219	    15.225	  -153.810	   -57.400
-20102.158	    15.273	  -146.427	   -91.488
-19953.758	    15.440	  -141.288	   -74.070
-20060.260	    15.613	  -153.828	   -42.713
-19872.307	    15.642	  -146.771	   -50.523
-20291.287	    15.454	  -145.205	   -83.935
-20070.645	    15.285	  -132.289	   -66.284
-20008.305	    15.286	  -157.910	   -90.998
-19974.428	    15.353	  -147.573	   -63.545
-19970.801	    15.512	  -151.809	   -49.157
-19767.881	    15.549	  -145.762	   -62.431
-19766.676	    15.549	  -140.365	   -45.150
-19699.027	    15.474	  -127.277	   -30.513
-19803.193	    15.410	  -146.390	   -82.367
-20000.053	    15.375	  -121.308	   -62.558
-19750.025	    15.369	  -111.979	   -56.673
-19838.068	    15.385	  -130.947	   -62.056
-19831.322	    15.452	  -122.285	   -68.859
-19811.305	    15.520	  -146.643	   -77.456
-19958.451	    15.616	  -138.036	   -65.033
-19628.326	    15.643	  -122.448	   -57.954
-20199.801	    15.604	  -127.309	   -54.184
-19848.490	    15.576	  -147.811	   -54.320
-20055.527	    15.575	  -131.177	   -52.624
-19902.639	    15.556	  -136.884	   -65.268
-19942.482	    15.495	  -120.799	   -53.539
-20304.521	    15.279	  -137.995	   -57.519
-20114.303	    15.174	  -137.958	   -79.295
-20295.795	    15.243	  -135.321	   -74.471
-19758.066	    15.498	  -143.869	   -67.380
-19937.816	    15.613	  -135.618	   -92.769
-19767.918	    15.640	  -123.034	   -79.241
-19899.719	    15.606	  -127.813	   -77.888
-20250.818	    15.627	  -144.917	   -62.144
-19795.402	    15.705	  -128.544	   -75.359
-19862.383	    15.735	  -142.843	   -53.473
-20037.699	    15.699	  -136.646	   -68.904
-19710.643	    15.565	  -153.077	   -76.880
-19803.559	    15.343	  -157.430	   -62.240
-19727.676	    15.173	  -136.831	   -66.700
-20167.889	    15.067	  -132.599	   -59.104
-20248.395	    15.164	  -148.177	   -77.686
-19966.592	    15.559	  -133.009	   -37.696
-19537.283	    15.936	  -156.620	   -75.707
-19668.324	    16.031	  -133.714	   -80.217
-19845.090	    15.901	  -156.721	   -67.859
-19888.736	    15.708	  -122.698	   -61.802
-19925.006	    15.535	  -128.146	   -69.186
-20231.625	    15.378	  -134.241	   -56.413
-20060.990	    15.385	  -143.092	   -74.929
-19689.131	    15.484	  -135.980	   -81.120
-19833.312	    15.505	  -149.648	   -64.340
-19887.570	    15.490	  -125.580	   -55.087
-19763.311	    15.422	  -134.838	   -57.471
-20048.637	    15.363	  -125.941	   -72.481
-20070.691	    15.425	  -148.321	   -50.275
-20011.252	    15.627	  -141.733	   -40.033
-19796.908	    15.759	  -143.127	   -40.137
-19633.428	    15.737	  -116.259	   -74.073
-19778.562	    15.544	  -130.044	   -64.955
-19944.127	    15.342	  -118.676	   -64.198
-19803.072	    15.181	  -117.991	   -67.154
-20091.699	    15.057	  -137.250	   -71.690
-20102.664	    15.136	  -141.229	  -101.483
-19849.459	    15.359	  -138.851	   -84.037
-19560.129	    15.563	  -137.472	   -66.283
-19873.514	    15.699	  -135.610	   -59.417
-19875.504	    15.612	  -163.654	   -61.636
-20150.969	    15.472	  -112.698	   -71.037
-19879.188	    15.374	  -139.577	   -54.324
-20017.141	    15.396	  -135.221	   -54.679
-20149.936	    15.532	  -132.564	   -68.439
-19882.064	    15.670	  -153.820	  -101.206
-20000.932	    15.709	  -149.612	   -57.531
-19832.729	    15.560	  -143.684	   -60.177
-20077.723	    15.446	  -155.139	   -48.857
-19788.920	    15.464	  -142.121	   -52.055
-19775.861	    15.677	  -128.364	   -66.070
-19733.795	    15.857	  -129.428	   -63.743
-19979.283	    15.897	  -144.086	   -54.960
-19890.043	    15.721	  -112.343	   -68.490
-20010.227	    15.380	  -127.108	   -77.110
-20273.035	    15.191	  -139.537	   -60.645
-19948.873	    15.203	  -135.178	   -47.876
-19909.018	    15.416	  -132.078	   -77.948
-19852.793	    15.645	  -120.832	   -64.572
-19879.229	    15.817	  -148.275	   -55.500
-19664.670	    15.860	  -140.395	   -66.836
-19918.240	    15.818	  -134.513	   -58.571
-20188.246	    15.668	  -132.474	   -56.703
-20091.805	    15.439	  -124.140	   -62.080
-19890.881	    15.318	  -139.273	   -61.302
-19913.727	    15.227	  -139.874	   -72.945
-20104.125	    15.177	  -139.313	   -84.729
-20066.279	    15.242	  -144.044	   -82.515
-19911.877	    15.379	  -136.012	   -84.882
-19811.242	    15.458	  -131.559	   -79.155
-19825.541	    15.349	  -137.150	   -96.078
-19708.451	    15.240	  -143.117	   -75.243
-19813.465	    15.241	  -144.987	   -71.530
-19962.340	    15.401	  -124.519	   -89.548
-19735.859	    15.584	  -141.077	   -61.122
-19823.836	    15.674	  -132.115	   -72.631
-19815.189	    15.676	  -120.525	   -83.348
-19919.662	    15.692	  -137.703	   -71.003
-19901.129	    15.584	  -136.715	   -75.726
-19746.250	    15.480	  -135.321	   -82.360
-19875.877	    15.329	  -144.334	   -54.736
-20296.074	    15.290	  -145.550	   -78.418
-19957.717	    15.362	  -135.186	   -56.064
-19756.650	    15.553	  -139.424	   -44.200
-19704.754	    15.710	  -137.625	   -58.809
-19787.916	    15.765	  -146.576	   -43.033
-19821.383	    15.734	  -133.999	   -80.229
-20102.037	    15.610	  -140.400	   -35.906
-20039.285	    15.459	  -132.875	   -68.685
-19868.219	    15.404	  -140.436	   -39.550
-19961.609	    15.469	  -144.254	   -70.670
-19914.436	    15.530	  -140.076	   -73.498
-19912.715	    15.428	  -146.813	   -64.298
-20122.729	    15.322	  -149.840	   -67.982
-19920.572	    15.345	  -123.483	   -69.446
-20014.379	    15.458	  -132.321	   -63.661
-20037.758	    15.593	  -132.163	   -66.237
-19751.619	    15.698	  -128.754	   -73.571
-19829.916	    15.681	  -145.351	   -42.150
-19877.297	    15.632	  -139.320	   -48.749
-19988.135	    15.580	  -141.065	   -48.689
-19822.398	    15.627	  -138.657	   -58.680
-19942.590	    15.627	  -144.248	   -37.013
-19981.607	    15.526	  -151.413	   -52.646
-19885.545	    15.430	  -125.287	   -44.876
-19901.404	    15.260	  -144.525	   -66.163
-19897.299	    15.004	  -134.346	   -55.400
-20235.301	    15.017	  -128.565	   -37.479
-20070.795	    15.286	  -128.937	   -64.804
-20033.033	    15.650	  -132.603	   -56.013
-19685.625	    15.869	  -134.963	   -75.464
-19742.463	    15.902	  -135.363	   -68.252
-20027.158	    15.748	  -141.357	  -104.647
-19813.264	    15.543	  -129.059	   -49.859
-19991.398	    15.281	  -139.227	   -67.467
-19922.334	    15.209	  -158.909	   -42.920
-20047.498	    15.307	  -141.733	   -58.212
-19924.492	    15.576	  -142.715	   -42.638
-19720.338	    15.741	  -135.912	   -68.783
-19684.789	    15.679	  -132.865	   -87.963
-20059.467	    15.543	  -133.086	   -60.848
-19861.211	    15.540	  -136.555	   -37.951
-20023.320	    15.504	  -142.678	   -58.234
-19892.393	    15.419	  -149.224	   -61.144
-20057.754	    15.399	  -132.042	   -48.980
-20077.578	    15.398	  -135.350	   -61.143
-19941.674	    15.439	  -140.120	   -65.931
-19754.852	    15.596	  -142.686	   -54.416
-19542.398	    15.733	  -134.130	   -81.687
-19887.848	    15.676	  -140.534	   -68.545
-20077.371	    15.586	  -115.018	   -95.347
-19933.197	    15.421	  -129.451	   -79.138
-20015.930	    15.305	  -151.205	   -50.314
-20075.584	    15.450	  -126.984	   -40.838
-19901.756	    15.560	  -136.300	   -85.600
-19943.730	    15.509	  -133.102	   -80.043
-19816.426	    15.504	  -143.446	   -89.145
-19878.789	    15.633	  -124.977	   -78.114
-19902.426	    15.618	  -143.773	   -59.809
-19770.766	    15.663	  -106.889	   -61.057
-19782.859	    15.756	  -136.329	   -49.519
-19687.797	    15.724	  -143.395	   -50.530
-19976.092	    15.587	  -132.011	   -58.878
-19831.033	    15.363	  -138.872	   -46.396
-19947.318	    15.256	  -146.119	   -56.990
-19988.020	    15.267	  -151.695	   -56.029
-19964.051	    15.369	  -118.134	   -68.380
-19751.234	    15.552	  -150.275	   -94.310
-19787.271	    15.717	  -146.997	   -63.425
-19895.564	    15.760	  -147.098	   -75.286
-19677.369	    15.806	  -146.391	   -51.223
-19931.744	    15.759	  -140.838	   -70.902
-19812.137	    15.661	  -140.283	   -71.490
-19624.131	    15.534	  -118.298	   -63.962
-19930.777	    15.411	  -136.017	   -75.583
-19753.971	    15.302	  -138.804	   -79.262
-19753.506	    15.294	  -132.952	   -76.171
-19987.217	    15.309	  -138.301	   -68.089
-19991.877	    15.454	  -121.167	   -51.766
-20008.963	    15.698	  -143.152	   -55.598
-19765.037	    15.862	  -122.886	   -86.202
-20045.596	    15.765	  -131.987	   -70.340
-19871.279	    15.609	  -130.053	   -60.411
-19763.074	    15.500	  -118.530	   -88.673
-20022.998	    15.415	  -132.283	   -65.249
-20072.201	    15.263	  -146.641	   -55.863
-20031.053	    15.191	  -140.970	   -81.553
-19909.006	    15.298	  -138.739	   -88.656
-19923.736	    15.429	  -140.272	   -73.459
-19980.377	    15.601	  -125.155	   -82.954
-19802.037	    15.693	  -125.589	   -73.008
-19624.615	    15.717	  -127.719	   -80.113
-19927.480	    15.500	  -151.868	   -46.775
-19747.490	    15.157	  -141.112	   -66.778
-20251.650	    15.025	  -136.048	   -52.654
-20202.043	    15.080	  -163.598	   -66.569
-20042.594	    15.233	  -168.003	   -70.051
-20039.330	    15.415	  -143.868	   -57.620
-19873.840	    15.569	  -112.663	   -82.993
-19824.438	    15.581	  -137.281	   -58.612
-19401.434	    15.571	  -136.240	   -74.222
-19723.250	    15.588	  -115.043	   -61.794
-19899.568	    15.533	  -140.696	   -40.200
-20157.082	    15.463	  -132.311	   -40.336
-20089.025	    15.441	  -136.013	   -71.703
-20083.631	    15.514	  -144.062	   -57.787
-20029.273	    15.571	  -132.658	   -56.268
-20044.354	    15.549	  -147.091	   -81.548
-20113.629	    15.558	  -145.811	   -50.802
-19599.559	    15.581	  -139.962	   -57.885
-20190.787	    15.623	  -140.149	   -65.221
-19892.947	    15.667	  -138.004	   -72.937
-20032.645	    15.700	  -115.789	   -66.442
-19939.453	    15.794	  -145.726	   -54.906
-19918.281	    15.666	  -128.938	   -74.294
-19790.730	    15.437	  -132.159	   -61.144
-19856.727	    15.302	  -141.259	   -55.327
-19933.613	    15.430	  -154.029	   -56.976
-19969.959	    15.678	  -127.937	   -61.148
-20081.336	    15.890	  -152.836	   -41.357
-19953.201	    16.048	  -161.659	   -57.011
-19971.973	    16.048	  -140.111	   -65.656
-19677.873	    15.834	  -130.435	   -55.199
-19846.930	    15.615	  -140.129	   -59.012
-20161.088	    15.479	  -134.580	   -54.373
-20111.053	    15.566	  -143.849	   -72.203
-19942.850	    15.797	  -128.020	   -53.854
-19857.041	    15.996	  -133.501	   -52.411
-19703.076	    15.911	  -126.135	   -73.291
-19792.812	    15.666	  -144.796	   -66.878
-20020.307	    15.526	  -154.824	   -58.975
-19816.930	    15.573	  -146.701	   -69.718
-20109.055	    15.613	  -148.087	   -73.090
-19769.625	    15.780	  -141.646	   -57.220
-19958.262	    15.950	  -147.277	   -52.941
-19792.652	    16.014	  -130.794	   -74.184
-19787.311	    15.913	  -126.735	   -71.749
-19913.342	    15.587	  -126.257	   -61.622
-19866.553	    15.181	  -131.980	   -65.977
-19792.699	    15.003	  -141.328	   -77.065
-19895.143	    15.106	  -135.023	   -58.439
-19714.428	    15.355	  -134.150	   -56.773
-19960.926	    15.652	  -149.450	   -50.109
-19728.721	    15.802	  -136.460	   -54.301
-19767.004	    15.792	  -125.843	   -68.410
-19549.170	    15.699	  -141.360	   -61.454
-19990.301	    15.401	  -130.384	   -55.714
-20276.162	    15.256	  -139.878	   -64.670
-20041.695	    15.306	  -130.773	   -65.466
-19906.568	    15.481	  -136.076	   -73.198
-20087.904	    15.597	  -138.864	   -51.022
-19834.018	    15.696	  -129.470	   -60.206
-20000.777	    15.674	  -119.382	   -44.666
-19738.467	    15.603	  -153.683	   -54.916
-19954.188	    15.535	  -146.778	   -55.393
-19897.496	    15.377	  -144.596	   -41.811
-20025.340	    15.318	  -152.628	   -51.243
-19985.086	    15.332	  -154.036	   -51.297
-19991.131	    15.451	  -139.835	   -68.394
-19623.004	    15.526	  -124.276	   -53.209
-19936.291	    15.573	  -124.640	   -88.100
-19997.471	    15.508	  -144.525	  -117.156
-20115.211	    15.383	  -131.649	   -57.370
-20134.449	    15.372	  -135.265	   -50.154
-19640.979	    15.535	  -143.802	   -60.581
-19681.277	    15.792	  -127.789	   -58.326
-19369.182	    16.008	  -114.449	   -72.095
-19625.842	    15.923	  -118.355	   -79.191
-19842.637	    15.674	  -123.572	   -78.956
-20155.744	    15.467	  -139.837	   -60.586
-19972.102	    15.341	  -129.197	   -61.402
-19966.230	    15.361	  -139.323	   -65.216
-19907.234	    15.444	  -126.997	   -62.870
-19732.469	    15.575	  -128.027	   -71.330
-19847.291	    15.758	  -124.931	   -60.164
-19969.992	    15.820	  -138.827	   -66.544
-19620.773	    15.848	  -128.967	   -36.206
-19945.857	    15.685	  -142.051	   -51.872
-20064.057	    15.485	  -142.186	   -44.814
-19900.773	    15.365	  -117.698	   -45.354
-19929.621	    15.331	  -114.342	   -61.687
-19934.463	    15.332	  -123.694	   -51.397
-19873.590	    15.406	  -129.933	   -74.403
-19689.574	    15.536	  -134.764	   -81.200
-19894.697	    15.658	  -143.196	   -55.358
-19792.193	    15.721	  -141.934	   -57.395
-19773.488	    15.669	  -133.880	   -61.379
-20088.070	    15.573	  -149.558	   -83.731
-19864.822	    15.550	  -149.841	   -58.891
-19955.967	    15.573	  -126.302	   -76.370
-20063.145	    15.638	  -131.641	   -70.050
-19838.971	    15.624	  -131.232	   -62.351
-19966.348	    15.505	  -138.021	   -70.067
-20015.869	    15.490	  -135.685	   -91.873
-19836.324	    15.579	  -141.041	   -69.790
-19882.617	    15.547	  -154.802	   -66.713
-19916.104	    15.341	  -135.289	   -62.539
-20183.770	    15.240	  -153.730	   -65.100
-20081.389	    15.279	  -149.161	   -47.765
-19854.352	    15.333	  -149.909	   -33.628
-20136.963	    15.343	  -136.698	   -53.369
-19846.922	    15.344	  -108.577	   -51.830
-19956.408	    15.442	  -109.940	   -69.571
-19836.916	    15.584	  -129.306	   -68.292
-19998.508	    15.729	  -139.964	   -59.972
-19774.510	    15.726	  -135.228	   -81.748
-19916.244	    15.534	  -127.776	   -68.085
-20020.998	    15.280	  -133.438	   -53.685
-20085.396	    15.280	  -141.236	   -46.705
-19680.760	    15.436	  -145.363	   -55.511
-19718.148	    15.631	  -155.588	   -44.659
-19917.012	    15.653	  -141.028	   -54.694
-19941.848	    15.730	  -136.745	   -49.807
-20046.146	    15.786	   -99.118	   -64.592
-20006.936	    15.815	  -140.088	   -78.787
-19940.961	    15.639	  -131.142	   -61.250
-20162.133	    15.555	  -132.415	   -43.247
-19714.463	    15.539	  -127.249	   -59.311
-19714.043	    15.599	  -142.366	   -61.174
-19762.611	    15.658	  -145.170	   -55.727
-19934.992	    15.718	  -116.239	   -52.641
-19894.264	    15.699	  -121.375	   -39.165
-19658.980	    15.621	  -125.597	   -26.210
-19904.479	    15.466	  -122.207	   -48.922
-19922.867	    15.343	  -143.187	   -71.835
-20019.238	    15.320	  -150.563	   -66.434
-19901.867	    15.389	  -153.225	   -65.561
-19822.225	    15.431	  -130.829	   -73.189
-19666.613	    15.390	  -144.812	   -69.661
-19988.277	    15.413	  -138.066	   -77.358
-19960.488	    15.439	  -136.878	   -55.963
-19893.141	    15.539	  -136.578	   -53.278
-19774.848	    15.579	  -147.589	   -48.974
-19789.863	    15.538	  -132.934	   -45.418
-20006.344	    15.662	  -127.369	   -82.714
-19933.422	    15.871	  -121.506	   -66.528
-19727.961	    15.967	  -149.485	   -69.136
-19825.625	    15.928	  -133.716	   -44.477
-19732.287	    15.720	  -135.046	   -35.268
-19917.451	    15.609	  -139.467	   -45.711
-20018.633	    15.612	  -146.959	   -60.227
-19772.965	    15.623	  -142.910	   -47.454
-19973.367	    15.576	  -141.827	   -68.432
-20024.270	    15.470	  -115.654	   -58.716
-20162.277	    15.450	  -119.792	   -70.729
-20016.861	    15.474	  -146.464	   -74.980
-20086.104	    15.526	  -139.712	   -74.758
-20104.938	    15.655	  -145.529	   -86.725
-19804.637	    15.865	  -119.420	   -65.190
-19498.598	    16.085	  -126.639	   -84.288
-19735.480	    16.076	  -149.059	   -76.111
-19863.021	    15.724	  -139.267	   -60.200
-19885.555	    15.311	  -134.437	   -51.805
-20170.572	    15.210	  -123.876	   -64.921
-19943.385	    15.251	  -142.782	   -54.611
-19837.699	    15.343	  -107.162	   -80.395
-19998.322	    15.529	  -146.478	   -54.446
-19727.188	    15.624	  -132.331	   -66.998
-19512.096	    15.610	  -141.469	   -74.324
-19914.012	    15.636	  -141.212	   -95.786
-19777.688	    15.589	  -137.082	   -59.354
-19742.303	    15.701	  -140.970	   -85.398
-19621.750	    15.844	  -134.541	   -79.940
-19783.455	    15.891	  -163.077	   -58.331
-19866.646	    15.720	  -139.262	   -58.391
-19778.506	    15.497	  -150.659	   -61.448
-20072.957	    15.273	  -107.892	   -72.712
-19964.947	    15.267	  -149.736	   -72.444
-20071.359	    15.547	  -128.346	   -42.612
-19979.883	    15.833	  -129.219	   -43.820
-20027.965	    15.909	  -131.746	   -57.952
-19913.332	    15.771	  -142.587	   -60.068
-19710.906	    15.570	  -127.623	   -76.634
-19966.922	    15.234	  -114.211	   -89.541
-20015.686	    14.960	  -127.981	   -78.426
-20009.914	    15.054	  -133.769	   -63.896
-20048.365	    15.291	  -129.681	   -64.907
-19846.299	    15.553	  -126.323	   -54.209
-19530.488	    15.667	  -110.093	   -46.789
-19782.760	    15.747	  -148.092	   -79.671
-19955.715	    15.672	  -141.171	   -61.608
-19803.918	    15.544	  -143.316	   -69.383
-19867.369	    15.432	  -137.775	   -67.771
-19720.760	    15.495	  -104.216	   -58.726
-19792.414	    15.639	  -134.889	   -55.252
-19770.057	    15.745	  -131.266	   -78.172
-19842.164	    15.693	  -142.306	   -78.924
-19940.865	    15.558	  -133.632	   -73.299
-20000.965	    15.539	  -154.395	   -57.127
-20209.449	    15.436	  -147.244	   -70.765
-19978.857	    15.272	  -134.165	   -46.258
-20189.363	    15.235	  -140.486	   -61.935
-20166.951	    15.338	  -129.055	   -81.316
-19885.344	    15.543	  -129.554	   -61.664
-20003.693	    15.697	  -137.076	   -60.876
-19926.404	    15.765	  -116.181	   -52.736
-20132.293	    15.686	  -144.175	   -71.452
-19978.168	    15.627	  -133.284	   -64.998
-19807.883	    15.673	  -144.477	   -43.099
-19935.799	    15.594	  -135.377	   -60.020
-19843.725	    15.533	  -139.596	   -62.856
-20011.373	    15.487	  -122.447	   -64.485
-19810.559	    15.592	  -156.315	   -44.071
-19969.996	    15.718	  -125.450	   -49.059
-19644.816	    15.710	  -152.272	   -62.217
-19824.295	    15.544	  -131.412	   -50.963
-19663.879	    15.509	  -120.282	   -75.374
-19932.562	    15.537	  -138.766	   -51.382
-20025.115	    15.527	  -130.212	   -52.562
-20087.242	    15.515	  -112.658	   -71.506
-20007.629	    15.406	  -130.738	   -67.903
-19964.533	    15.281	  -139.267	   -61.821
-20045.260	    15.320	  -151.322	   -63.293
-19971.400	    15.417	  -152.676	   -68.691
-19934.248	    15.667	  -139.244	   -55.040
-19915.809	    15.971	  -131.821	   -69.263
-19876.514	    16.108	  -140.240	   -62.029
-19790.207	    16.031	  -141.516	   -58.416
-19842.121	    15.831	  -138.479	   -45.669
-19960.883	    15.575	  -125.429	   -80.711
-20107.385	    15.283	  -125.127	   -61.202
-19888.842	    15.204	  -143.377	   -89.920
-20132.312	    15.376	  -111.820	   -63.360
-19990.502	    15.549	  -130.813	   -74.317
-19886.406	    15.544	  -138.510	   -50.706
-20183.895	    15.490	  -146.683	   -68.196
-20015.150	    15.546	  -129.928	   -61.242
-19643.525	    15.608	  -125.596	   -66.891
-19882.199	    15.633	  -144.078	   -76.026
-19789.252	    15.553	  -131.277	   -68.084
-19992.100	    15.470	  -134.887	   -80.050
-19891.221	    15.387	  -111.275	   -98.093
-19902.410	    15.448	  -143.713	   -78.642
-20133.791	    15.492	  -146.285	   -71.753
-19836.783	    15.428	  -142.334	   -85.550
-20206.311	    15.300	  -154.907	   -67.344
-20163.566	    15.317	  -146.694	   -63.166
-20133.369	    15.451	  -152.474	   -53.320
-19846.938	    15.621	  -144.092	   -60.091
-19845.084	    15.854	  -137.295	   -57.362
-19885.135	    15.966	  -140.686	   -33.335
-19693.084	    15.865	  -142.640	   -74.999
-19992.082	    15.649	  -121.797	   -72.919
-20164.443	    15.486	  -150.611	   -75.240
-20122.717	    15.384	  -123.857	   -83.597
-20058.352	    15.308	  -133.497	   -45.990
-19944.076	    15.349	  -125.840	   -72.407
-20147.266	    15.455	  -159.529	   -61.179
-19705.965	    15.518	  -129.096	   -57.709
-19980.209	    15.642	  -146.641	   -80.910
-19846.256	    15.773	  -135.658	   -30.549
-19905.523	    15.774	  -136.270	   -55.637
-19900.549	    15.708	  -123.865	   -59.261
-19859.877	    15.568	  -131.263	   -80.053
-19781.436	    15.482	  -132.036	   -64.694
-19891.951	    15.432	  -127.446	   -75.918
-19775.697	    15.286	  -141.592	   -74.680
-19740.016	    15.186	  -146.218	   -68.239
-20002.945	    15.331	  -141.468	   -44.744
-19910.156	    15.446	  -153.984	   -71.948
-20038.926	    15.489	  -138.415	   -64.367
-19748.004	    15.621	  -125.743	   -80.444
-19736.975	    15.648	  -148.137	   -80.694
-19771.498	    15.620	  -137.569	   -76.733
-20018.088	    15.504	  -140.098	   -77.563
-19921.797	    15.498	  -125.460	   -85.237
-19997.541	    15.397	  -110.885	   -98.201
-19779.016	    15.327	  -147.391	   -82.741
-19992.535	    15.369	  -147.195	   -67.635
-20109.014	    15.524	  -130.604	   -66.524
-19672.393	    15.769	  -129.740	   -63.151
-19981.469	    15.932	  -154.895	   -64.707
-19764.996	    15.894	  -161.862	   -67.047
-19681.010	    15.643	  -138.810	   -53.994
-19673.711	    15.412	  -155.487	   -54.407
-20296.666	    15.217	  -151.272	   -70.390
-20028.326	    15.223	  -147.906	   -51.441
-20044.449	    15.261	  -129.552	   -68.076
-19935.041	    15.360	  -136.289	   -83.076
-19900.551	    15.536	  -146.027	   -78.962
-19916.084	    15.605	  -136.542	   -48.731
-19904.965	    15.494	  -146.320	   -38.739
-19978.809	    15.432	  -126.503	   -37.389
-19915.178	    15.433	  -138.268	   -47.158
-20124.561	    15.456	  -147.024	   -61.201
-19803.084	    15.562	  -140.320	   -68.268
-20016.676	    15.684	  -126.015	   -44.471
-19592.455	    15.718	  -146.738	   -55.493
-19667.926	    15.653	  -132.252	   -53.597
-20005.420	    15.556	  -136.712	   -40.379
-20012.611	    15.531	  -142.580	   -57.219
-20004.262	    15.526	  -141.008	   -72.929
-19846.133	    15.525	  -141.150	   -74.110
-20065.641	    15.484	  -138.153	   -83.161
-20017.799	    15.465	  -132.085	   -64.743
-19758.695	    15.508	  -160.551	   -74.524
-20026.955	    15.469	   -99.405	   -57.222
-19691.430	    15.514	  -135.793	   -91.403
-19934.781	    15.559	  -146.266	   -72.144
-19746.709	    15.538	  -141.190	   -53.908
-19774.338	    15.561	  -146.143	   -66.358
-19848.061	    15.560	  -148.187	   -50.707
-19973.365	    15.483	  -147.741	   -57.007
-19788.504	    15.393	  -146.458	   -75.431
-19898.975	    15.408	  -146.597	   -52.091
-19595.078	    15.353	  -153.767	   -57.764
-19803.760	    15.271	  -139.815	   -55.007
-19787.705	    15.236	  -149.970	   -80.058
-19958.992	    15.326	  -130.659	   -64.361
-19781.885	    15.498	  -132.857	   -54.182
-19983.549	    15.726	  -145.650	   -70.413
-19819.023	    15.843	  -123.285	   -67.124
-19856.953	    15.834	  -134.048	   -70.573
-19846.674	    15.776	  -136.560	   -64.994
-20073.713	    15.718	  -131.236	   -67.074
-20018.027	    15.609	  -132.331	   -86.429
-19915.814	    15.420	  -127.770	   -72.571
-20191.955	    15.350	  -152.519	   -98.969
-20359.160	    15.326	  -150.153	   -79.558
-19904.057	    15.424	  -129.346	   -79.521
-19657.861	    15.512	  -129.649	   -40.299
-19901.883	    15.638	  -125.137	   -73.021
-19893.424	    15.695	  -139.454	   -46.893
-19760.412	    15.686	  -126.279	   -59.432
-20019.680	    15.597	  -105.720	   -59.907
-19889.039	    15.534	  -154.592	   -58.777
-19792.213	    15.455	  -145.115	   -48.200
-19947.203	    15.407	  -150.770	   -85.126
-19979.656	    15.422	  -142.172	   -69.801
-19783.850	    15.474	  -134.174	   -81.204
-20041.521	    15.531	  -139.132	   -50.014
-19981.307	    15.485	  -116.638	   -46.086
-19741.389	    15.417	  -153.438	   -54.844
-19922.689	    15.435	  -151.192	   -57.823
-19969.445	    15.546	  -155.436	   -69.001
-19941.477	    15.548	  -142.662	   -57.579
-19927.082	    15.554	  -141.838	   -77.696
-20003.014	    15.577	  -144.612	   -61.703
-19900.471	    15.687	  -140.291	   -66.468
-19943.062	    15.650	  -143.844	   -76.647
-19771.602	    15.610	  -140.811	   -49.120
-19797.492	    15.549	  -135.649	   -58.011
-19934.961	    15.473	  -146.785	   -70.380
-20018.633	    15.539	  -145.590	   -83.780
-20037.549	    15.607	  -145.927	   -68.317
-19927.525	    15.725	  -131.446	   -81.661
-19931.820	    15.803	  -117.825	   -88.614
-19930.498	    15.785	  -140.893	   -48.918
-19776.338	    15.595	  -153.695	   -62.734
-19814.639	    15.406	  -146.170	   -73.556
-20045.291	    15.192	  -140.067	   -66.236
-20020.699	    15.101	  -141.885	   -69.136
-19801.459	    15.255	  -141.491	   -51.974
-19896.646	    15.527	  -134.836	   -80.233
-19964.580	    15.683	  -128.749	   -84.595
-19583.027	    15.882	  -127.208	   -47.187
-19678.969	    16.002	  -122.678	   -52.823
-19711.951	    16.044	  -135.357	   -84.026
-19962.584	    15.881	  -141.512	   -68.171
-20072.260	    15.725	  -150.732	   -58.704
-19851.730	    15.633	  -150.958	   -70.276
-19796.338	    15.629	  -145.370	   -66.206
-19855.781	    15.760	  -137.790	   -69.717
-19902.695	    15.818	  -137.950	   -58.054
-19784.904	    15.860	  -142.297	   -86.256
-20006.082	    15.916	  -133.384	   -48.495
-19712.490	    15.856	  -136.220	   -68.343
-20065.068	    15.723	  -143.679	   -72.959
-19708.824	    15.580	  -128.183	   -66.728
-19900.873	    15.550	  -150.141	   -66.041
-19903.252	    15.641	  -150.617	   -67.604
-20193.668	    15.648	  -148.002	   -61.559
-19924.377	    15.541	  -138.942	   -76.108
-19885.412	    15.376	  -118.553	   -71.490
-19804.861	    15.250	  -138.390	   -42.700
-19935.904	    15.302	  -134.577	   -61.050
-19903.938	    15.382	  -148.418	   -42.569
-19940.936	    15.509	  -140.389	   -74.143
-20104.611	    15.549	  -142.597	   -61.792
-19915.816	    15.524	  -137.794	   -84.550
-19895.119	    15.407	  -143.934	   -81.419
-19977.848	    15.387	  -143.431	   -57.232
-20192.383	    15.420	  -134.265	   -60.492
-19992.832	    15.455	  -110.855	   -52.595
-19831.547	    15.543	  -131.833	   -92.186
-19766.166	    15.665	  -138.897	   -61.987
-19709.064	    15.681	  -141.046	   -74.461
-19834.256	    15.686	  -145.687	   -67.065
-19931.266	    15.719	  -141.937	   -67.140
-20001.746	    15.836	  -154.486	   -45.410
-19611.166	    15.898	  -149.768	   -52.441
-19868.873	    15.771	  -125.023	   -64.631
-19977.447	    15.653	  -154.352	   -73.837
-20040.906	    15.586	  -142.991	   -67.728
-19757.340	    15.618	  -137.523	   -71.393
-19814.467	    15.599	  -129.467	   -70.533
-20035.535	    15.459	  -124.903	   -88.132
-19990.107	    15.260	  -120.849	   -60.386
-19943.764	    15.239	  -135.307	   -58.555
-19950.934	    15.417	  -142.078	   -54.691
-19824.643	    15.666	  -153.718	   -65.163
-19861.924	    15.709	  -136.080	   -69.290
-19731.068	    15.708	  -144.579	   -56.156
-19809.990	    15.760	  -145.247	   -43.094
-19888.998	    15.612	  -142.536	   -53.682
-20000.680	    15.465	  -130.535	   -50.178
-19796.012	    15.362	  -144.435	   -53.382
-19834.621	    15.176	  -150.069	   -56.124
-20110.754	    15.027	  -142.436	   -61.518
-19978.932	    15.074	  -143.674	   -86.648
-20111.697	    15.311	  -133.761	   -85.721
-19958.980	    15.550	  -130.532	   -62.086
-20041.871	    15.725	  -134.552	   -38.225
-19903.020	    15.870	  -140.004	   -63.397
-19685.957	    15.830	  -166.023	   -71.201
-19661.924	    15.686	  -154.797	   -63.327
-20181.676	    15.513	  -127.867	   -67.018
-20191.217	    15.386	  -158.998	   -60.293
-20181.447	    15.349	  -141.548	   -47.378
-19700.912	    15.370	  -153.928	   -71.111
-19583.066	    15.454	  -127.299	   -50.910
-19839.850	    15.550	  -140.892	   -60.475
-19828.420	    15.544	  -131.302	  -103.401
-20023.572	    15.586	  -132.053	   -64.631
-19738.832	    15.617	  -130.107	   -63.371
-19841.219	    15.596	  -146.478	   -63.252
-19711.061	    15.585	  -124.785	   -70.038
-19716.000	    15.590	  -143.537	   -46.959
-19760.320	    15.617	  -122.845	   -60.343
-19980.121	    15.658	  -138.918	   -48.705
-19869.494	    15.781	  -150.042	   -73.125
-19909.469	    15.836	  -141.032	   -65.046
-19834.543	    15.748	  -130.853	   -44.759
-19946.785	    15.670	  -132.658	   -35.083
-19768.701	    15.691	  -119.748	   -54.550
-19738.416	    15.714	  -128.443	   -53.535
-19625.369	    15.778	  -127.662	   -61.991
-19657.215	    15.713	  -144.894	   -45.273
-19872.908	    15.537	  -133.425	   -56.223
-20087.338	    15.325	  -136.490	   -59.000
-20057.975	    15.223	  -121.855	   -71.922
-19900.895	    15.357	  -131.301	   -79.330
-19750.994	    15.631	  -146.435	   -54.201
-19924.381	    15.893	  -128.688	   -61.331
-19865.607	    16.006	  -133.285	   -62.255
-19711.260	    15.876	  -125.808	   -48.881
-19871.650	    15.672	  -136.586	   -46.340
-20022.531	    15.582	  -142.716	   -85.644
-19812.023	    15.498	  -135.033	   -51.943
-19855.367	    15.517	  -111.334	   -54.916
-20099.730	    15.483	  -136.161	   -51.895
-20086.074	    15.371	  -120.911	   -69.406
-19928.834	    15.332	  -145.022	   -63.390
-19712.889	    15.431	  -141.562	   -54.621
-19639.082	    15.443	  -143.598	   -56.899
-19943.078	    15.368	  -141.254	   -56.751
-19826.623	    15.295	  -153.898	   -60.702
-19953.803	    15.294	  -124.382	   -46.875
-20031.527	    15.361	  -140.164	   -63.947
-19925.783	    15.528	  -148.738	   -53.023
-19987.123	    15.761	  -141.626	   -54.479
-19994.398	    15.814	  -121.974	   -68.006
-19806.494	    15.666	  -138.020	   -67.153
-19937.924	    15.442	  -143.224	   -69.370
-20067.197	    15.473	  -129.290	   -50.227
-20112.020	    15.470	  -154.772	   -68.687
-19925.406	    15.539	  -147.748	   -48.022
-20016.303	    15.608	  -150.587	   -65.102
-19669.527	    15.596	  -141.441	   -77.322
-20129.043	    15.414	  -138.330	   -54.775
-20027.250	    15.326	  -132.828	   -45.943
-20056.365	    15.365	  -130.396	   -63.950
-20111.906	    15.370	  -107.666	   -68.199
-20036.037	    15.506	  -132.507	   -55.273
-19812.986	    15.573	  -138.276	   -53.867
-20008.057	    15.551	  -139.211	   -59.222
-20171.113	    15.456	  -141.785	   -90.858
-19644.895	    15.357	  -145.218	   -72.072
-19951.232	    15.316	  -138.388	   -54.938
-20070.068	    15.269	  -136.516	   -55.764
-19884.775	    15.266	  -125.393	   -64.169
-19890.338	    15.391	  -133.312	   -45.376
-19709.732	    15.563	  -143.470	   -62.293
-19932.477	    15.769	  -149.296	   -53.501
-19732.707	    15.938	  -156.742	   -66.701
-19839.777	    15.934	  -146.561	   -56.841
-19891.908	    15.883	  -141.459	   -58.463
-19935.473	    15.694	  -149.326	   -66.667
-19847.674	    15.537	  -133.360	   -67.298
-19702.818	    15.428	  -151.559	   -66.913
-20076.078	    15.341	  -132.922	   -74.524
-20159.480	    15.221	  -116.294	   -67.901
-20064.078	    15.209	  -137.524	   -53.697
-20078.590	    15.276	  -146.787	   -68.239
-19792.701	    15.403	  -141.803	   -70.969
-20196.053	    15.447	  -142.608	   -52.563
-20082.506	    15.511	  -127.147	   -71.432
-19911.711	    15.455	  -148.418	   -85.723
-19880.350	    15.328	  -158.466	   -72.330
-20159.227	    15.183	  -137.910	   -73.531
-20018.986	    15.173	  -139.275	   -85.381
-19982.016	    15.316	  -138.567	   -48.105
-20121.148	    15.521	  -129.872	   -53.189
-19984.846	    15.754	  -125.232	   -61.180
-19784.900	    15.798	  -142.140	   -47.877
-19586.799	    15.649	  -137.209	   -58.864
-19715.992	    15.625	  -127.476	   -49.550
-19954.396	    15.544	  -121.526	   -61.995
-19965.809	    15.361	  -144.049	   -64.075
-19811.465	    15.313	  -148.242	   -72.176
-20107.703	    15.344	  -127.377	   -66.485
-20099.137	    15.412	  -135.222	   -77.777
-19814.049	    15.612	  -142.180	   -79.334
-19808.848	    15.769	  -123.189	   -81.905
-19715.270	    15.845	  -130.074	   -69.598
-19865.422	    15.799	  -139.271	   -62.458
-19729.340	    15.702	  -125.356	   -61.028
-19812.510	    15.607	  -144.954	   -69.091
-20142.824	    15.467	  -141.324	   -59.246
-19871.154	    15.372	  -127.107	   -65.714
-19785.076	    15.430	  -139.667	   -62.228
-19807.248	    15.433	  -133.540	   -70.113
-19948.490	    15.331	  -132.384	   -63.056
-19978.084	    15.344	  -136.431	   -52.055
-19980.145	    15.362	  -120.465	   -63.918
-19774.494	    15.457	  -149.349	   -48.370
-20054.148	    15.615	  -156.488	   -58.769
-19900.299	    15.738	  -118.842	   -56.744
-20100.764	    15.628	  -144.946	   -78.768
-20025.207	    15.506	  -143.065	   -50.128
-20179.934	    15.451	  -149.777	   -81.157
-19933.693	    15.604	  -144.147	   -53.023
-19883.514	    15.873	  -131.277	   -60.142
-19879.652	    16.027	  -119.710	   -54.785
-19666.271	    15.871	  -141.484	   -59.488
-19630.297	    15.526	  -150.045	   -65.836
-20117.439	    15.269	  -150.852	   -48.672
-20167.520	    15.231	  -140.091	   -49.127
-20040.580	    15.456	  -142.498	   -68.707
-19722.934	    15.625	  -120.725	   -51.893
-19863.682	    15.595	  -146.523	   -45.469
-19819.680	    15.564	  -148.249	   -59.104
-19998.920	    15.438	  -151.630	   -54.533
-19713.395	    15.405	  -130.847	   -63.142
-20023.379	    15.431	  -128.944	   -64.696
-19853.424	    15.491	  -143.980	   -71.692
-19963.178	    15.547	  -144.243	   -59.906
-19884.566	    15.633	  -149.955	   -70.126
-20150.352	    15.611	  -149.573	   -54.523
-20031.910	    15.629	  -135.938	   -54.221
-19867.320	    15.693	  -123.652	   -44.100
-19944.309	    15.680	  -116.662	   -50.692
-19798.979	    15.662	  -141.538	   -81.166
-19878.729	    15.604	  -120.805	   -52.577
-19997.363	    15.548	  -149.068	   -72.894
-19858.801	    15.596	  -158.744	   -70.461
-19801.232	    15.537	  -159.434	   -48.108
-19897.295	    15.401	  -135.961	   -47.612
-20060.539	    15.277	  -143.788	   -74.817
-19969.707	    15.153	  -140.552	   -60.960
-19809.641	    15.157	  -135.725	   -58.350
-19858.697	    15.287	  -143.553	   -73.054
-19806.459	    15.460	  -133.399	   -72.059
-19892.420	    15.571	  -142.820	   -82.309
-19956.393	    15.732	  -119.625	   -64.843
-19735.393	    15.836	  -116.590	   -68.743
-19941.381	    15.712	  -133.986	   -51.918
-19866.205	    15.500	  -149.528	   -65.139
-20253.865	    15.360	  -147.611	   -79.584
-19813.475	    15.391	  -137.449	   -49.956
-19889.643	    15.562	  -130.095	   -54.714
-19838.713	    15.713	  -147.442	   -44.045
-19822.656	    15.776	  -130.732	   -47.224
-19658.488	    15.799	  -145.751	   -50.723
-19950.340	    15.667	  -145.767	   -61.605
-19975.217	    15.469	  -132.515	   -67.447
-19969.420	    15.479	  -112.250	   -64.343
-19896.051	    15.546	  -122.090	   -84.199
-20095.254	    15.569	  -146.729	   -56.643
-20112.459	    15.486	  -135.841	   -71.296
-19985.994	    15.328	  -140.025	   -56.404
-20029.236	    15.269	  -133.026	   -52.842
-19755.951	    15.429	  -131.563	   -67.898
-19960.824	    15.491	  -137.155	   -55.811
-19729.369	    15.447	  -128.362	   -65.097
-19967.576	    15.373	  -132.902	   -46.412
-19979.561	    15.373	  -120.607	   -53.375
-19877.270	    15.478	  -141.602	   -59.151
-19957.842	    15.587	  -153.634	   -71.355
-19986.287	    15.676	  -123.513	   -59.353
-19988.229	    15.813	  -116.674	   -54.983
-19932.900	    15.822	  -155.147	   -61.267
-19828.707	    15.781	  -137.148	   -77.652
-20060.268	    15.630	  -118.995	   -58.854
-20007.207	    15.414	  -139.559	   -43.558
-20072.488	    15.347	  -147.162	   -71.346
-19918.857	    15.417	  -114.806	   -65.833
-19813.033	    15.501	  -142.306	   -53.633
-19966.002	    15.481	  -161.148	   -64.052
-19949.234	    15.369	  -148.672	   -62.727
-19668.057	    15.304	  -135.763	   -58.860
-20202.555	    15.344	  -137.878	   -56.161
-20007.770	    15.525	  -135.141	   -80.056
-19869.465	    15.740	  -146.235	   -77.559
-19665.004	    15.794	  -134.193	   -57.481
-19934.916	    15.697	  -129.412	   -53.459
-19891.129	    15.519	  -146.013	   -61.063
-19693.811	    15.359	  -129.544	   -68.759
-19834.406	    15.094	  -151.523	   -65.933
-20111.805	    15.015	  -134.839	   -49.560
-19580.061	    15.228	  -129.579	   -65.635
-19568.234	    15.496	  -132.113	   -48.635
-19787.658	    15.662	  -131.164	   -57.886
-19676.973	    15.678	  -129.658	   -64.613
-19834.768	    15.553	  -134.142	   -82.518
-19982.926	    15.505	  -147.965	   -83.919
-19885.895	    15.582	  -138.228	   -58.881
-20092.975	    15.642	  -126.367	   -35.598
-19727.328	    15.635	  -122.179	   -66.775
-19878.850	    15.664	  -143.282	   -59.124
-19879.180	    15.795	  -135.145	   -78.639
-19847.676	    15.806	  -136.903	   -55.526
-19651.404	    15.678	  -142.805	   -54.727
-19711.422	    15.526	  -134.984	   -64.895
-19935.293	    15.412	  -142.759	   -70.008
-19827.625	    15.362	  -126.572	   -65.830
-20086.162	    15.291	  -134.051	   -69.635
-20060.834	    15.331	  -140.088	   -78.860
-20193.340	    15.310	  -144.397	  -100.051
