-19747.471	    15.334	   -92.310	   122.143
-19761.871	    15.440	    60.592	   -10.528
-19792.762	    15.576	    50.546	   -33.116
-19650.836	    15.592	    76.844	    -4.233
-19721.287	    15.520	    61.138	   -18.335
-19630.439	    15.556	    61.309	   -17.831
-19731.697	    15.720	    61.289	   -36.766
-19354.150	    15.945	    63.704	   -21.151
-19834.979	    16.087	    71.572	   -17.460
-19483.670	    16.175	    68.553	   -30.741
-19341.900	    16.158	    67.540	   -28.886
-19442.232	    16.039	    72.572	   -36.993
-19651.629	    15.889	    68.051	   -20.771
-19578.105	    15.693	    71.800	    -8.893
-19812.330	    15.515	    63.344	   -36.475
-19891.523	    15.365	    66.671	   -28.698
-19764.969	    15.351	    65.229	    -9.923
-19676.301	    15.351	    52.943	     1.173
-19509.072	    15.390	    58.802	   -25.940
-19555.707	    15.460	    64.146	   -21.931
-19824.994	    15.567	    66.900	    -7.100
-19661.193	    15.749	    75.484	   -13.383
-19426.635	    15.838	    59.355	   -22.666
-19589.812	    15.778	    57.886	   -18.244
-19796.170	    15.629	    63.694	   -23.081
-19842.814	    15.628	    63.354	   -11.467
-19379.506	    15.620	    62.212	   -12.789
-19843.789	    15.554	    56.556	   -21.128
-19668.428	    15.418	    62.719	   -20.763
-19606.588	    15.378	    61.760	   -16.551
-19774.623	    15.349	    65.151	     4.965
-19752.713	    15.409	    58.337	    16.907
-19721.062	    15.504	    67.193	   -19.917
-19938.006	    15.610	    65.594	   -31.281
-19661.350	    15.712	    64.342	    -9.134
-19755.777	    15.757	    46.946	   -10.191
-19701.379	    15.794	    55.141	     0.084
-19541.367	    15.889	    73.649	    -3.540
-19296.486	    16.035	    55.516	     1.106
-19544.209	    15.981	    68.557	     4.220
-19567.414	    15.683	    69.866	    -1.145
-19658.377	    15.366	    68.246	     4.985
-19787.842	    15.216	    70.512	   -13.360
-19691.205	    15.194	    70.354	    -3.270
-19842.725	    15.310	    63.371	   -16.904
-19457.330	    15.576	    70.414	     1.369
-19498.283	    15.789	    64.576	     8.841
-19602.377	    15.985	    57.542	   -25.667
-19590.795	    16.061	    65.403	     7.517
-19378.559	    15.986	    65.381	    -8.940
-19562.189	    15.866	    82.515	    -1.784
-19680.393	    15.805	    68.029	   -11.617
-19727.762	    15.682	    57.490	    -3.971
-20062.426	    15.473	    59.704	     6.150
-19626.256	    15.307	    60.018	    -8.959
-19735.932	    15.256	    60.814	    -1.917
-19958.193	    15.242	    71.406	    -4.727
-19961.838	    15.297	    70.012	   -17.155
-19805.285	    15.472	    68.194	   -11.005
-19815.385	    15.610	    62.251	   -22.448
-19745.924	    15.707	    61.649	   -28.028
-19767.516	    15.758	    57.238	    -5.044
-19722.303	    15.819	    60.930	    -5.468
-19719.969	    15.835	    64.350	    14.422
-19534.531	    15.907	    55.025	    -9.159
-19774.123	    15.854	    62.465	    15.487
-19654.881	    15.813	    55.600	    12.239
-19683.617	    15.858	    73.945	    -2.011
-19584.648	    15.845	    71.082	     7.016
-19653.859	    15.832	    69.140	   -16.423
-19488.500	    15.763	    70.524	   -31.675
-19690.721	    15.609	    57.332	    -2.922
-19725.820	    15.477	    51.591	   -24.022
-19880.029	    15.436	    65.346	   -13.720
-19291.742	    15.611	    60.862	   -33.353
-19483.402	    15.743	    64.564	   -29.903
-19698.219	    15.736	    67.429	   -22.130
-19797.887	    15.638	    65.786	     2.482
-19740.262	    15.569	    65.793	     6.356
-19703.971	    15.557	    69.549	    17.128
-19881.395	    15.568	    61.099	    14.780
-19886.746	    15.574	    57.218	   -12.441
-19764.158	    15.496	    77.012	   -25.783
-19699.920	    15.491	    52.054	   -35.787
-19598.939	    15.626	    50.182	     1.698
-19743.697	    15.894	    66.877	    -7.503
-19488.359	    15.980	    59.489	     1.373
-19496.174	    15.887	    75.810	   -27.227
-19531.916	    15.749	    63.723	    -7.328
-19459.973	    15.631	    62.706	   -22.364
-19727.047	    15.484	    59.994	     3.256
-19694.740	    15.454	    57.849	   -21.106
-19709.488	    15.417	    79.126	   -15.487
-19908.428	    15.381	    54.203	   -17.093
-19785.215	    15.426	    67.892	    -7.771
-19774.521	    15.578	    64.838	   -23.226
-19624.078	    15.593	    58.886	   -16.443
-19747.354	    15.627	    49.866	   -17.186
-19580.742	    15.746	    59.286	   -24.232
-19625.531	    15.773	    72.315	   -47.044
-19635.863	    15.619	    60.462	   -24.146
-19780.852	    15.417	    57.861	   -36.620
-19814.477	    15.293	    65.995	   -11.109
-19553.066	    15.376	    57.453	    31.638
-19662.381	    15.645	    63.327	    15.012
-19508.354	    15.886	    65.684	    -6.711
-19568.521	    15.780	    62.527	     3.862
-19625.541	    15.458	    73.820	   -18.729
-19774.135	    15.190	    57.933	   -15.009
-19870.545	    15.121	    63.270	   -21.242
-19724.510	    15.291	    69.403	   -31.376
-19795.775	    15.531	    60.752	    -4.100
-19656.738	    15.771	    53.277	    -2.002
-19588.160	    15.886	    64.087	   -15.566
-19594.850	    15.910	    63.425	    -9.093
-19661.674	    15.779	    68.218	    -5.053
-19605.586	    15.595	    62.465	   -25.904
-19557.598	    15.425	    57.918	   -38.754
-19558.424	    15.297	    63.879	     4.568
-19772.135	    15.417	    58.413	   -17.547
-19595.133	    15.575	    58.083	    -8.181
-19830.100	    15.656	    66.830	   -28.188
-20003.352	    15.631	    62.843	     0.880
-19688.445	    15.530	    70.948	   -26.526
-19508.518	    15.508	    67.096	   -34.267
-19553.859	    15.597	    69.410	   -18.394
-19824.223	    15.510	    47.614	    -9.556
-19873.344	    15.382	    56.508	    -4.845
-19808.844	    15.323	    61.689	   -16.748
-19856.252	    15.383	    56.894	   -21.631
-19582.078	    15.482	    62.445	   -36.247
-19862.939	    15.547	    57.995	    -1.992
-19551.016	    15.584	    65.964	   -14.614
-19618.844	    15.640	    72.541	   -34.013
-19681.008	    15.727	    61.741	   -18.416
-19595.666	    15.760	    60.662	    -6.925
-19729.867	    15.799	    62.203	     3.827
-19548.221	    15.822	    65.801	    -8.345
-19665.242	    15.719	    70.083	     2.437
-19577.527	    15.523	    58.186	   -15.782
-19845.854	    15.500	    65.887	    -1.234
-19732.283	    15.696	    59.537	     0.993
-19654.383	    15.902	    69.883	   -32.112
-19443.369	    15.985	    68.298	   -22.658
-19566.686	    15.881	    65.323	   -28.049
-19504.521	    15.714	    58.853	     3.635
-19747.668	    15.478	    60.669	   -13.330
-19618.621	    15.346	    78.158	   -20.135
-19688.988	    15.340	    56.883	    -8.983
-19574.334	    15.481	    68.148	    -3.172
-19451.898	    15.609	    68.262	     8.732
-19769.225	    15.568	    63.969	     1.887
-20061.908	    15.393	    62.325	   -23.431
-19877.670	    15.442	    69.826	   -22.775
-19664.594	    15.694	    67.495	   -25.191
-19631.707	    15.891	    69.089	   -20.181
-19654.971	    15.913	    58.532	     5.941
-19547.531	    15.797	    71.050	     7.548
-19847.828	    15.616	    70.591	    10.110
-19594.012	    15.552	    66.772	   -21.887
-19774.625	    15.474	    60.153	   -30.104
-19750.135	    15.472	    64.909	    -3.045
-19679.957	    15.629	    64.396	    -6.118
-19868.611	    15.692	    59.818	   -34.246
-19529.078	    15.714	    69.292	   -56.354
-19694.908	    15.815	    70.090	   -37.467
-19528.422	    15.856	    58.884	   -10.523
-19620.559	    15.673	    54.394	   -19.632
-19717.336	    15.485	    61.191	   -31.346
-19867.637	    15.528	    61.010	   -15.029
-19649.781	    15.620	    62.892	   -16.841
-19589.729	    15.722	    54.386	   -18.319
-19367.180	    15.757	    68.156	    21.062
-19720.992	    15.684	    59.293	   -15.837
-19463.758	    15.604	    68.516	   -21.686
-19753.225	    15.570	    64.211	   -14.266
-19707.176	    15.501	    72.019	   -38.096
-19622.826	    15.437	    55.361	   -27.498
-19767.559	    15.391	    64.283	    -3.997
-19785.576	    15.360	    68.142	    -0.599
-19855.307	    15.356	    61.478	     9.030
-19808.014	    15.312	    55.770	   -15.628
-19554.154	    15.275	    71.463	   -12.446
-19705.973	    15.306	    63.641	   -34.579
-19647.416	    15.362	    66.287	     1.703
-19797.693	    15.609	    69.125	     8.846
-19264.486	    15.888	    70.528	    -2.288
-19634.150	    15.949	    64.348	    26.387
-19559.953	    15.720	    63.148	    12.537
-19914.619	    15.542	    64.351	   -10.233
-19777.936	    15.568	    68.491	    -2.928
-19699.502	    15.588	    54.380	    -2.718
-19689.227	    15.639	    71.377	    -4.902
-19737.564	    15.654	    71.846	    -6.812
-19634.779	    15.587	    62.482	   -18.409
-19808.525	    15.546	    54.699	   -23.442
-19580.182	    15.479	    60.531	    -7.358
-19651.678	    15.405	    60.764	   -12.556
-19829.898	    15.439	    64.392	     6.749
-19501.980	    15.602	    62.616	   -21.631
-19534.582	    15.690	    50.702	   -21.985
-19676.447	    15.667	    65.562	   -22.736
-19839.883	    15.628	    64.698	   -16.445
-19532.996	    15.594	    63.718	   -31.955
-19624.301	    15.507	    74.302	   -26.779
-19603.684	    15.500	    60.527	   -31.417
-19419.561	    15.524	    69.348	    -1.382
-19366.203	    15.519	    61.475	    -5.897
-19520.287	    15.459	    58.786	    22.219
-19622.910	    15.345	    62.765	   -11.479
-19789.363	    15.334	    71.126	   -18.169
-19731.414	    15.544	    64.948	   -17.405
-19486.273	    15.852	    68.329	   -14.790
-19469.459	    15.938	    61.170	    -4.048
-19666.262	    15.821	    46.873	   -12.902
-19494.836	    15.637	    68.463	   -49.465
-19442.445	    15.552	    64.459	     3.703
-19907.461	    15.613	    60.069	   -16.803
-19607.033	    15.834	    53.897	    -3.236
-19413.111	    16.024	    56.016	    -7.917
-19398.762	    16.002	    58.237	   -18.825
-19633.674	    15.915	    69.314	     9.402
-19321.439	    15.802	    60.458	    17.422
-19721.318	    15.524	    60.728	    11.331
-19849.607	    15.242	    57.787	    -4.257
-19768.014	    15.282	    67.361	     4.003
-19781.582	    15.383	    62.459	    -4.435
-19780.176	    15.559	    59.733	     4.163
-19596.322	    15.680	    61.070	    12.305
-19495.645	    15.705	    60.103	     0.326
-19757.037	    15.671	    68.155	   -15.224
-19655.617	    15.683	    77.032	    -4.155
-19612.516	    15.646	    54.306	    -7.223
-19601.402	    15.567	    66.958	    -8.219
-19736.342	    15.355	    65.424	    -2.297
-19696.117	    15.127	    72.338	    -0.382
-19824.018	    15.162	    63.145	    -1.499
-19791.000	    15.286	    70.199	    -8.978
-19467.076	    15.465	    71.128	     9.367
-19781.521	    15.526	    59.760	     8.705
-19770.246	    15.618	    69.754	    14.694
-19607.592	    15.626	    77.545	   -10.362
-19789.514	    15.684	    52.535	   -15.218
-19407.680	    15.794	    59.786	    -8.915
-19710.359	    15.854	    58.920	   -21.163
-19389.631	    15.831	    62.829	   -25.337
-19732.422	    15.625	    61.134	    13.454
-19843.436	    15.431	    54.383	    14.824
-19864.910	    15.391	    72.339	   -11.965
-19579.557	    15.445	    58.367	   -23.412
-19600.768	    15.529	    60.869	   -15.450
-19490.643	    15.754	    49.613	   -23.596
-19481.502	    15.823	    62.063	   -15.710
-19805.973	    15.764	    52.783	   -12.630
-19699.107	    15.871	    69.938	   -44.198
-19824.291	    15.851	    50.080	    -5.244
-19656.818	    15.682	    63.944	   -34.019
-19749.424	    15.515	    63.719	   -32.430
-19665.004	    15.459	    59.898	   -22.056
-19629.377	    15.535	    66.416	    -6.260
-19714.828	    15.470	    62.971	     1.897
-20036.123	    15.393	    57.922	   -15.906
-19653.369	    15.387	    55.346	   -16.774
-20059.291	    15.465	    58.167	    -9.993
-20022.217	    15.614	    57.454	   -35.670
-19699.672	    15.791	    63.594	     1.346
-19840.350	    15.873	    58.107	   -11.620
-19713.557	    15.885	    53.360	   -23.642
-19622.338	    15.896	    70.207	   -19.656
-19674.299	    15.798	    67.829	   -25.648
-19587.549	    15.627	    48.208	   -17.349
-19749.783	    15.558	    51.974	   -28.399
-19829.865	    15.638	    70.606	     1.880
-19676.418	    15.691	    67.578	   -35.991
-19644.797	    15.771	    61.594	   -32.781
-19493.982	    15.862	    59.224	   -10.247
-19632.254	    15.760	    70.696	   -22.824
-19493.447	    15.664	    49.161	     8.506
-19706.752	    15.603	    76.194	   -24.713
-19716.180	    15.397	    67.542	   -25.781
-19855.311	    15.250	    63.059	   -20.541
-19770.182	    15.183	    60.000	    -7.581
-19804.098	    15.266	    64.571	    -7.440
-19826.957	    15.406	    68.427	   -27.748
-19822.240	    15.607	    64.441	   -12.940
-19553.596	    15.782	    56.023	   -23.722
-19572.355	    15.900	    69.298	   -16.795
-19457.150	    15.854	    58.630	     4.320
-19564.217	    15.726	    54.064	    -9.575
-19458.877	    15.558	    67.313	   -11.205
-20053.580	    15.419	    68.653	   -44.964
-19845.520	    15.443	    63.143	   -24.574
-19559.039	    15.609	    65.789	   -18.279
-19500.590	    15.730	    69.623	   -16.577
-19584.863	    15.908	    57.242	   -14.479
-19352.057	    16.080	    57.302	    -3.073
-19618.406	    16.154	    80.672	   -16.606
-19514.574	    16.102	    72.158	     8.429
-19629.037	    15.944	    63.339	   -22.775
-19938.402	    15.675	    64.967	   -11.587
-19844.631	    15.496	    55.987	   -16.026
-19755.682	    15.425	    67.077	   -12.416
-19698.605	    15.516	    64.153	   -14.264
-19473.785	    15.806	    58.931	   -17.364
-19579.900	    16.060	    80.692	    -5.145
-19556.568	    16.067	    69.717	    10.184
-19431.713	    15.806	    65.153	    -8.737
-19729.682	    15.473	    73.424	   -14.126
-20052.457	    15.249	    61.212	    -4.654
-19806.916	    15.215	    66.952	     1.950
-20029.947	    15.397	    63.372	    -0.792
-19780.875	    15.688	    66.493	    -0.992
-19264.209	    15.845	    56.019	   -12.736
-19650.484	    15.823	    68.790	   -28.306
-19545.594	    15.750	    62.651	   -16.305
-19681.861	    15.650	    69.633	   -21.990
-19634.018	    15.569	    65.904	    -6.452
-19585.193	    15.578	    48.518	   -30.430
-19552.045	    15.681	    62.209	   -11.065
-19695.566	    15.689	    54.506	   -37.885
-19614.947	    15.715	    56.673	    11.168
-19598.197	    15.712	    65.196	    -5.561
-19766.930	    15.672	    59.147	     7.310
-19641.785	    15.528	    62.838	   -10.145
-20044.857	    15.461	    63.783	   -12.169
-19767.570	    15.614	    60.735	   -17.385
-19655.383	    15.861	    57.470	     5.523
-19482.037	    15.867	    71.554	   -11.953
-19779.822	    15.792	    71.147	    -8.130
-19754.725	    15.724	    47.139	    13.258
-19663.262	    15.730	    70.307	    -8.122
-19495.512	    15.707	    59.499	   -15.761
-19602.102	    15.672	    69.950	   -20.139
-19443.477	    15.652	    53.668	    -1.165
-19770.797	    15.469	    51.069	    11.570
-19884.889	    15.355	    67.708	    -2.719
-19763.867	    15.452	    66.243	     8.801
-19538.645	    15.618	    65.406	   -11.610
-19608.980	    15.720	    61.750	    -4.268
-19702.936	    15.858	    66.979	   -23.658
-19590.812	    15.907	    65.140	    10.421
-19559.398	    15.894	    63.488	   -25.674
-19626.562	    15.761	    80.145	   -31.804
-19607.182	    15.472	    72.724	     3.661
-19754.475	    15.226	    52.790	   -14.185
-19705.156	    15.211	    80.533	    -0.922
-19885.449	    15.381	    61.960	   -12.205
-19721.723	    15.628	    67.138	     6.737
-19521.188	    15.688	    71.005	     0.128
-19572.178	    15.734	    66.095	   -15.127
-19355.523	    15.778	    68.777	    -1.753
-19736.979	    15.767	    56.834	   -17.243
-19623.270	    15.555	    74.379	    -5.016
-19769.062	    15.335	    52.984	     2.659
-19971.066	    15.229	    70.221	     0.691
-19663.623	    15.256	    66.372	   -13.917
-19635.492	    15.474	    71.280	    -8.411
-19548.004	    15.750	    58.388	   -25.958
-19576.455	    15.949	    60.347	   -14.895
-19617.844	    16.037	    55.643	     8.748
-19607.646	    16.025	    63.130	   -16.512
-19545.348	    15.858	    62.500	    -3.381
-19628.518	    15.707	    56.323	     0.260
-19681.637	    15.542	    61.192	   -10.107
-19693.299	    15.419	    73.004	   -28.756
-19741.582	    15.292	    66.392	   -18.556
-19715.027	    15.324	    58.838	    -1.439
-19671.811	    15.398	    61.089	     0.606
-19689.307	    15.449	    65.641	    -6.819
-19687.182	    15.532	    65.333	     7.790
-19639.131	    15.618	    60.837	    -0.830
-19661.725	    15.526	    67.985	     5.714
-19445.990	    15.461	    72.459	   -16.724
-19537.775	    15.525	    75.969	   -21.209
-19596.863	    15.604	    64.176	    -9.197
-19513.842	    15.697	    57.099	   -13.402
-19648.787	    15.762	    75.961	     1.461
-19506.277	    15.812	    68.688	    -4.991
-19882.441	    15.780	    56.552	   -18.520
-19554.607	    15.775	    57.402	     4.241
-19535.928	    15.760	    67.950	   -23.589
-19641.996	    15.714	    57.239	     2.019
-19673.158	    15.641	    64.236	   -13.960
-19840.832	    15.588	    56.818	    -8.076
-19492.363	    15.677	    58.541	     0.006
-19586.510	    15.944	    69.422	     1.255
-19372.293	    16.046	    70.680	    12.647
-19573.215	    16.076	    64.769	    -6.920
-19427.158	    16.024	    59.563	   -38.941
-19622.512	    15.744	    70.086	    -6.920
-19576.004	    15.561	    62.907	     4.485
-19855.273	    15.469	    66.655	   -17.472
-19752.277	    15.447	    64.399	   -39.354
-19651.252	    15.555	    71.511	   -28.660
-19592.787	    15.681	    63.591	   -22.541
-19391.246	    15.774	    53.696	   -29.336
-19563.598	    15.824	    64.828	   -29.314
-19378.617	    15.737	    64.217	     0.132
-19366.621	    15.735	    67.991	    -1.638
-19420.777	    15.674	    71.401	   -22.748
-19484.283	    15.605	    70.400	    -5.261
-19905.486	    15.546	    67.909	    -4.314
-19821.350	    15.506	    61.331	   -17.816
-19452.920	    15.508	    63.207	   -26.804
-19444.801	    15.646	    57.372	   -21.942
-19456.568	    15.861	    58.810	   -17.197
-19455.797	    15.909	    75.641	    -3.001
-19468.766	    15.808	    59.475	    -5.764
-19714.754	    15.668	    60.163	     9.513
-19832.371	    15.578	    70.463	    -2.912
-19741.736	    15.614	    74.888	     9.795
-19319.689	    15.780	    60.023	    -8.561
-19308.988	    15.932	    75.095	   -28.445
-19468.812	    15.956	    58.735	   -19.580
-19434.918	    15.841	    57.673	   -21.547
-19699.133	    15.646	    58.360	     5.436
-19758.609	    15.420	    67.825	     0.784
-19660.639	    15.370	    62.109	   -14.803
-19836.783	    15.407	    61.533	    -5.056
-19671.717	    15.369	    60.449	   -12.139
-20072.568	    15.422	    70.504	     0.705
-19751.592	    15.657	    63.278	    12.285
-19575.982	    15.868	    60.209	   -19.598
-19676.863	    15.835	    68.390	   -20.164
-19986.662	    15.685	    55.768	    -9.055
-19857.982	    15.614	    61.460	   -15.359
-19414.990	    15.557	    64.598	    -9.840
-19683.512	    15.490	    61.464	   -12.320
-19613.879	    15.524	    64.201	   -11.235
-19501.416	    15.681	    60.960	   -11.284
-19980.127	    15.767	    61.342	    -8.201
-19574.828	    15.759	    52.688	    -4.703
-19505.691	    15.529	    68.651	   -11.900
-19919.773	    15.299	    64.561	     1.471
-19821.736	    15.200	    63.837	   -17.686
-19788.309	    15.271	    57.433	   -18.487
-19467.219	    15.373	    61.011	     0.710
-19472.574	    15.520	    64.618	    -2.598
-19694.518	    15.559	    63.269	   -11.411
-19761.729	    15.485	    68.209	   -20.611
-19588.244	    15.433	    55.699	   -21.353
-20004.973	    15.398	    68.249	    -8.123
-19823.301	    15.548	    54.493	     1.630
-19499.482	    15.774	    62.188	     8.825
-19337.092	    15.892	    70.663	   -14.999
-19424.465	    15.855	    59.061	   -26.661
-19862.879	    15.642	    55.387	   -36.092
-19817.271	    15.364	    76.120	   -22.744
-19945.270	    15.293	    63.997	   -26.367
-19529.473	    15.357	    63.635	   -28.725
-19679.615	    15.546	    68.784	   -27.096
-19597.590	    15.753	    69.207	   -23.367
-19494.395	    15.866	    63.167	   -27.952
-19588.619	    15.876	    56.556	    -7.366
-19550.332	    15.813	    64.858	    -8.349
-19770.906	    15.764	    57.945	    13.985
-19677.328	    15.727	    72.357	    -5.739
-19419.094	    15.699	    63.464	     2.326
-19474.547	    15.637	    68.511	   -27.345
-19698.053	    15.629	    64.864	    -2.680
-19788.689	    15.670	    60.038	    10.697
-19620.230	    15.608	    65.711	   -13.352
-19808.963	    15.487	    66.107	   -27.259
-19512.477	    15.503	    65.080	    11.283
-19706.854	    15.595	    55.925	   -15.637
-19705.367	    15.668	    69.817	   -34.888
-19491.262	    15.830	    58.865	   -21.019
-19593.617	    15.956	    56.189	   -18.316
-19555.531	    15.941	    54.898	    -8.474
-19532.051	    15.869	    66.067	    -7.405
-19612.848	    15.730	    54.955	    11.662
-19646.705	    15.414	    53.906	    -6.605
-19813.949	    15.138	    58.509	    -2.348
-19604.318	    15.133	    58.071	   -12.234
-19666.869	    15.318	    64.522	   -25.433
-19815.697	    15.544	    62.239	   -18.526
-19679.475	    15.502	    63.213	    -1.828
-19744.891	    15.518	    83.538	    -5.007
-19908.375	    15.570	    65.968	   -15.740
-19815.090	    15.592	    54.166	    -8.593
-19946.014	    15.498	    47.218	   -15.799
-19501.967	    15.486	    55.306	   -22.167
-19687.473	    15.501	    69.426	   -15.965
-19910.629	    15.542	    80.571	   -31.871
-19694.588	    15.565	    64.286	   -24.224
-19745.018	    15.554	    68.971	    -8.683
-19603.945	    15.464	    50.016	   -27.109
-19880.500	    15.589	    60.297	   -34.051
-19484.203	    15.842	    70.033	   -17.420
-19553.057	    15.935	    68.483	   -22.160
-19835.549	    15.855	    63.760	   -20.998
-19645.850	    15.776	    57.034	     0.863
-19640.941	    15.745	    59.191	     3.463
-19600.824	    15.728	    58.740	   -16.521
-19527.906	    15.672	    61.464	   -28.914
-19796.709	    15.485	    63.161	   -22.770
-19787.969	    15.429	    60.091	   -15.696
-19770.193	    15.418	    65.394	   -10.530
-20030.068	    15.388	    68.577	    -7.232
-19675.057	    15.436	    66.794	   -12.371
-19626.695	    15.475	    69.586	    -1.798
-19517.018	    15.572	    55.988	    -2.531
-19315.770	    15.698	    68.505	   -22.573
-19731.686	    15.708	    65.742	     7.312
-19767.520	    15.683	    63.266	    -8.365
-19882.027	    15.594	    57.412	    13.586
-19726.197	    15.411	    63.501	   -13.995
-19672.346	    15.385	    63.746	   -40.459
-19864.480	    15.525	    73.877	    -0.952
-19602.568	    15.536	    50.532	    -6.256
-19652.887	    15.596	    65.137	    -4.357
-19751.277	    15.707	    68.696	   -32.050
-19594.502	    15.668	    59.488	   -12.153
-19534.139	    15.521	    67.502	    -4.288
-19681.152	    15.454	    56.685	    -1.624
-19595.650	    15.483	    68.079	    -5.332
-19837.705	    15.533	    62.748	    16.532
-19682.113	    15.730	    63.504	     4.564
-19896.674	    15.910	    72.837	   -10.524
-19793.510	    15.904	    61.372	    17.478
-19629.930	    15.752	    65.421	    -1.749
-19458.861	    15.603	    63.796	    10.457
-19749.461	    15.588	    71.007	    -3.573
-19696.131	    15.681	    61.304	    -0.357
-19397.693	    15.790	    64.682	    -5.386
-19709.072	    15.755	    62.048	    -9.742
-19608.838	    15.704	    76.224	    -3.223
-19580.588	    15.553	    60.274	   -25.038
-19879.990	    15.371	    65.569	     0.592
-20053.215	    15.270	    64.421	     2.358
-19599.973	    15.271	    53.593	   -13.389
-19589.127	    15.413	    66.821	   -10.524
-19774.354	    15.715	    67.305	    -4.473
-19542.297	    15.956	    44.071	     8.368
-19516.857	    16.050	    70.999	   -15.581
-19551.785	    15.810	    65.956	   -21.570
-19847.225	    15.568	    57.647	     7.191
-19476.385	    15.493	    51.835	     7.960
-19641.984	    15.465	    73.300	   -19.777
-19296.004	    15.464	    70.325	   -18.135
-19625.264	    15.392	    62.426	   -19.305
-19707.855	    15.349	    62.390	   -12.864
-19708.994	    15.396	    71.731	   -22.614
-19539.623	    15.503	    64.101	   -37.993
-19740.299	    15.566	    59.763	     1.868
-19767.381	    15.668	    67.240	   -11.983
-19696.572	    15.664	    69.046	    -0.406
-19682.113	    15.577	    62.276	    13.554
-19313.205	    15.632	    57.647	     0.781
-19493.172	    15.709	    71.682	   -23.754
-19592.656	    15.713	    69.201	    -5.412
-19474.998	    15.767	    71.621	   -18.279
-19693.781	    15.801	    61.347	     8.757
-19862.592	    15.658	    69.892	    11.785
-19619.475	    15.497	    60.343	    -3.194
-19722.014	    15.313	    66.370	    11.912
-20051.891	    15.392	    61.823	   -11.934
-19670.527	    15.601	    58.386	   -12.723
-19713.076	    15.823	    74.203	   -16.970
-19641.510	    15.923	    68.155	   -22.739
-19872.371	    15.829	    56.995	    -7.195
-19811.158	    15.812	    65.709	   -15.198
-19662.186	    15.913	    59.899	   -27.765
-19797.182	    15.889	    69.932	   -45.840
-19653.775	    15.846	    69.419	   -33.568
-19466.906	    15.708	    52.126	    -0.902
-19439.574	    15.679	    57.549	   -36.258
-19696.865	    15.550	    63.283	    -3.126
-19832.699	    15.317	    64.891	   -42.040
-19522.439	    15.188	    65.772	    -8.952
-19994.959	    15.188	    63.843	    -1.407
-19773.219	    15.378	    57.544	    -4.988
-19754.920	    15.571	    67.737	    12.753
-19596.055	    15.706	    64.526	     8.966
-19886.361	    15.745	    58.413	    10.033
-19583.537	    15.764	    61.448	    29.463
-19510.637	    15.610	    65.260	   -12.135
-19896.605	    15.522	    63.615	    -3.233
-19774.113	    15.458	    63.281	    16.423
-19623.453	    15.296	    67.885	     9.490
-19759.439	    15.192	    66.716	    -5.104
-19772.803	    15.282	    65.718	   -20.718
-19512.443	    15.534	    67.398	   -16.198
-19619.455	    15.751	    67.351	   -12.452
-19693.137	    15.811	    75.014	   -11.877
-19719.896	    15.734	    62.134	   -28.075
-19783.748	    15.722	    56.355	     7.042
-19935.777	    15.668	    78.791	     2.725
-19672.721	    15.509	    67.826	   -24.496
-19923.117	    15.400	    68.053	   -45.508
-19601.830	    15.436	    69.180	   -19.026
-19694.662	    15.525	    51.933	   -25.839
-19535.354	    15.650	    58.039	    -9.190
-19672.633	    15.781	    67.864	     4.850
-19478.168	    16.029	    71.907	    -7.740
-19473.264	    16.119	    57.617	   -14.773
-19489.543	    16.039	    59.230	    -7.634
-19442.473	    15.799	    65.402	   -23.087
-19610.826	    15.612	    59.026	     5.263
-19478.973	    15.463	    60.846	     0.033
-19575.631	    15.448	    62.401	    17.600
-19493.918	    15.591	    80.247	    -2.870
-19652.744	    15.607	    59.292	    -5.569
-19656.693	    15.713	    65.706	    17.907
-19363.732	    15.854	    57.077	    13.789
-19561.326	    15.864	    65.973	   -14.349
-19728.156	    15.782	    60.647	   -11.799
-19774.875	    15.630	    58.155	   -12.893
-19572.139	    15.466	    62.590	    -6.676
-19562.922	    15.319	    69.862	    -9.221
-19819.770	    15.392	    65.504	   -22.234
-19703.318	    15.660	    69.142	     4.124
-19554.805	    15.907	    61.316	     4.562
-19545.549	    15.941	    75.017	   -25.208
-20007.148	    15.788	    63.012	   -19.174
-19813.326	    15.597	    52.286	   -17.829
-19574.580	    15.473	    53.178	    -2.030
-19659.359	    15.394	    63.084	    19.294
-19489.766	    15.463	    70.791	    14.604
-19981.549	    15.578	    69.994	    -5.405
-19706.699	    15.617	    77.548	    -8.234
-19743.039	    15.694	    55.866	    -9.117
-19420.184	    15.728	    63.419	   -19.647
-19755.357	    15.774	    61.595	     3.265
-19503.908	    15.897	    67.328	   -15.269
-19536.287	    15.943	    75.500	   -16.833
-19498.008	    15.909	    53.868	    -8.293
-19629.977	    15.752	    66.145	   -31.497
-19675.658	    15.606	    52.230	   -14.447
-19870.205	    15.412	    69.157	   -17.057
-19596.719	    15.341	    70.142	     2.048
-19742.586	    15.312	    52.122	   -22.226
-19589.824	    15.518	    59.020	   -38.759
-19578.771	    15.730	    64.314	   -28.558
-20052.232	    15.644	    65.928	     9.546
-19856.920	    15.527	    62.822	    -5.858
-19657.143	    15.374	    54.180	    -3.996
-19601.484	    15.227	    78.794	   -22.054
-19665.391	    15.251	    55.106	   -22.159
-19750.402	    15.317	    66.050	   -27.410
-19817.561	    15.507	    69.958	   -19.911
-19397.557	    15.709	    68.692	    -7.663
-19586.508	    15.791	    65.055	   -31.826
-19668.145	    15.761	    74.003	   -22.269
-19836.168	    15.681	    67.095	    -9.748
-19640.658	    15.614	    61.468	   -25.347
-19868.662	    15.542	    68.026	    -2.623
-19721.504	    15.497	    56.639	    -5.454
-19776.047	    15.497	    59.950	   -20.897
-19640.799	    15.560	    65.356	   -23.835
-19540.816	    15.754	    64.929	    -8.638
-19555.258	    16.019	    60.796	    12.811
-19814.928	    16.104	    62.637	   -14.047
-19684.121	    16.005	    62.389	   -24.886
-19633.047	    15.930	    48.563	    -7.654
-19270.111	    15.951	    73.324	   -34.012
-19585.377	    15.875	    68.600	   -24.203
-19742.969	    15.582	    70.428	    -8.375
-19627.908	    15.278	    56.850	    15.268
-19799.662	    15.185	    59.529	    20.305
-19788.832	    15.253	    59.520	    -0.514
-19766.559	    15.407	    58.240	   -38.933
-19622.668	    15.620	    63.605	   -36.308
-19630.162	    15.719	    60.645	    -8.029
-19583.914	    15.776	    51.122	   -38.751
-19520.674	    15.753	    61.385	   -24.280
-19471.781	    15.684	    52.218	   -11.151
-19708.146	    15.515	    61.462	     4.489
-19507.678	    15.633	    51.474	     5.011
-19812.047	    15.697	    70.365	   -18.990
-19645.428	    15.708	    52.947	    -4.129
-19649.816	    15.630	    59.291	   -24.945
-19510.012	    15.517	    74.206	   -17.659
-19805.422	    15.370	    67.211	   -28.392
-19679.824	    15.291	    57.535	   -19.871
-19645.689	    15.271	    62.127	    -4.174
-19755.953	    15.363	    67.595	    -9.205
-19710.592	    15.564	    66.411	   -17.327
-19294.047	    15.758	    58.249	    -2.494
-19696.109	    15.907	    55.027	     3.407
-19599.068	    15.908	    61.599	   -16.393
-19516.879	    15.885	    62.617	   -23.621
-19547.986	    15.785	    66.749	   -12.784
-19639.150	    15.591	    58.799	    -2.286
-19727.049	    15.339	    51.053	   -15.108
-19670.803	    15.276	    64.032	   -10.931
-19508.693	    15.411	    57.785	   -25.401
-19600.934	    15.637	    64.843	     6.312
-19495.010	    15.769	    63.799	   -33.291
-19695.520	    15.869	    67.939	   -36.578
-19734.869	    15.812	    61.886	    -7.368
-19506.947	    15.785	    69.822	   -13.532
-19601.893	    15.767	    69.331	   -16.751
-19484.748	    15.743	    74.725	    -7.135
-19452.068	    15.676	    71.862	    -7.764
-19422.916	    15.562	    78.533	   -20.967
-19761.445	    15.410	    71.419	   -13.020
-19724.527	    15.291	    65.039	     5.128
-19815.518	    15.400	    61.300	    -0.546
-19353.357	    15.699	    70.485	     1.914
-19393.229	    15.981	    52.987	   -11.378
-19309.465	    16.073	    63.156	    -6.881
-19556.541	    15.893	    70.872	   -42.000
-19679.006	    15.662	    66.320	   -22.737
-19705.576	    15.340	    62.715	    -1.218
-19672.518	    15.267	    63.497	   -13.065
-19833.969	    15.418	    65.192	    -5.284
-19558.199	    15.702	    67.650	     3.138
-19568.879	    15.923	    69.831	   -21.709
-19405.676	    15.991	    64.927	    -8.494
-19717.564	    15.844	    66.108	     4.738
-19601.514	    15.582	    60.547	   -29.654
-19803.025	    15.340	    71.562	   -23.254
-19609.734	    15.147	    51.404	    -2.464
-19711.688	    15.199	    65.799	   -18.197
-19632.107	    15.349	    59.393	   -17.985
-19631.990	    15.500	    57.169	    -8.219
-19878.582	    15.693	    69.062	    -7.207
-19625.832	    15.902	    56.671	   -14.726
-19731.289	    15.902	    59.682	   -43.365
-19788.961	    15.773	    58.347	   -24.152
-19589.143	    15.540	    55.586	     9.242
-19601.875	    15.308	    66.273	     1.610
-19946.826	    15.257	    60.338	    -1.004
-19755.643	    15.606	    56.539	    -7.094
-19543.773	    15.936	    63.524	   -22.272
-19566.902	    16.121	    73.500	   -37.380
-19252.471	    16.010	    61.578	     1.233
-19306.061	    15.823	    60.578	   -25.356
-19672.561	    15.685	    70.712	   -21.953
-19619.002	    15.623	    61.360	     1.185
-19556.949	    15.615	    57.703	   -23.551
-19840.633	    15.701	    56.033	   -22.302
-19770.305	    15.778	    53.659	   -20.658
-19441.947	    15.677	    64.552	    -9.622
-19636.959	    15.530	    71.062	    -9.213
-19678.500	    15.422	    60.332	   -13.505
-19862.201	    15.436	    56.792	   -17.948
-19280.699	    15.599	    60.094	    -1.854
-19560.828	    15.855	    68.454	     1.960
-19403.455	    16.043	    63.350	   -41.571
-19720.803	    15.999	    56.944	   -28.090
-19227.652	    15.848	    67.906	   -11.995
-19493.525	    15.704	    64.084	   -22.357
-19505.523	    15.598	    59.452	   -29.742
-19595.781	    15.599	    55.486	    -3.033
-19757.996	    15.601	    77.616	   -33.273
-19494.434	    15.675	    55.535	   -26.929
-19686.127	    15.751	    54.970	   -28.216
-19777.594	    15.711	    62.313	   -15.612
-19505.918	    15.618	    64.074	    -9.340
-19548.340	    15.569	    74.296	     2.839
-19910.574	    15.521	    59.807	     3.371
-19830.754	    15.468	    60.183	   -10.158
-19737.385	    15.500	    55.450	    -1.203
-19708.092	    15.630	    67.458	    -4.528
-19476.012	    15.823	    59.910	   -10.955
-19446.898	    16.011	    57.113	   -33.328
-19644.045	    16.006	    61.096	    -6.015
-19347.447	    15.886	    59.656	     2.979
-19721.250	    15.716	    54.608	     6.287
-19838.445	    15.475	    50.561	     2.712
-19797.666	    15.367	    63.565	    -6.598
-19732.279	    15.319	    60.482	   -12.566
-19616.818	    15.369	    54.672	   -19.343
-19688.301	    15.587	    50.126	    -7.489
-19710.207	    15.853	    61.833	   -16.762
-19530.475	    16.029	    72.780	   -52.015
-19646.051	    15.845	    74.425	   -20.420
-19736.365	    15.573	    59.168	    12.481
-19946.385	    15.303	    63.109	    -9.687
-19743.326	    15.286	    74.917	   -15.602
-19544.090	    15.508	    61.365	   -10.631
-19574.049	    15.702	    42.448	   -14.012
-19758.018	    15.799	    69.459	    17.623
-19415.143	    15.788	    60.561	     6.363
-19610.002	    15.680	    62.294	    -6.561
-19637.193	    15.520	    51.052	   -10.932
-19665.900	    15.439	    66.023	   -36.902
-19942.459	    15.566	    69.945	    -2.914
-19704.293	    15.660	    59.343	     4.444
-19686.746	    15.681	    56.922	   -21.484
-19983.723	    15.551	    58.396	    15.772
-19767.545	    15.525	    73.583	   -15.597
-19766.715	    15.496	    58.865	    -9.698
-19644.854	    15.528	    64.176	    21.723
-19515.518	    15.567	    62.400	    10.593
-19598.641	    15.672	    66.032	   -18.428
-19412.760	    15.671	    59.179	   -20.832
-19479.527	    15.603	    62.813	   -36.102
-19801.195	    15.660	    73.829	    -6.916
-19672.707	    15.697	    45.486	    -5.455
-19803.219	    15.684	    58.523	   -20.557
-19772.012	    15.608	    53.277	   -13.346
-19813.262	    15.521	    53.654	    -9.272
-19611.686	    15.456	    69.453	    -7.326
-19842.002	    15.488	    58.182	    18.581
-19404.068	    15.691	    66.332	    12.532
-19579.598	    15.882	    54.273	    12.768
-19392.193	    15.812	    61.141	     6.582
-19679.812	    15.613	    74.298	   -25.390
-19718.377	    15.494	    53.816	   -23.247
-19440.254	    15.516	    62.273	    -0.838
-19678.939	    15.558	    72.517	   -19.390
-19584.838	    15.592	    65.862	   -24.651
-19580.371	    15.566	    53.083	   -16.680
-19620.809	    15.605	    73.609	   -19.113
-19600.490	    15.730	    50.269	    -6.415
-19627.521	    15.797	    48.604	   -15.756
-19372.068	    15.825	    57.542	     0.431
-19510.906	    15.717	    63.027	   -20.287
-19498.445	    15.633	    62.072	   -23.725
-19601.732	    15.609	    68.190	   -28.451
-19325.812	    15.660	    58.174	   -38.099
-19491.721	    15.650	    70.196	   -32.922
-19304.670	    15.652	    65.952	   -14.576
-19406.672	    15.649	    62.805	    15.512
-19361.500	    15.649	    62.865	   -22.137
-19814.613	    15.665	    51.014	   -11.084
-19779.988	    15.619	    44.030	    19.399
-19630.691	    15.644	    63.821	   -13.735
-19574.426	    15.672	    76.207	    -9.628
-19437.457	    15.756	    54.199	   -14.477
-19602.902	    15.861	    71.164	   -33.695
-19808.562	    15.867	    63.198	     3.091
-19831.557	    15.744	    62.309	   -15.049
-19755.455	    15.622	    48.259	    -9.669
-19610.480	    15.599	    58.409	   -17.870
-19734.475	    15.620	    68.190	   -20.057
-19688.246	    15.541	    57.373	   -20.349
-19431.764	    15.444	    67.556	   -29.925
-19997.596	    15.424	    54.490	   -23.894
-19889.373	    15.571	    47.678	    -9.273
-19686.832	    15.618	    66.072	   -20.735
-19655.068	    15.576	    67.072	   -23.198
-19629.152	    15.496	    50.794	   -15.580
-19561.449	    15.463	    47.358	     5.397
-19719.932	    15.489	    74.454	   -31.489
-19726.621	    15.470	    64.471	     2.183
-19600.445	    15.593	    59.124	   -19.702
-19584.459	    15.691	    65.211	   -22.917
-19390.172	    15.766	    61.142	   -18.368
-19489.799	    15.680	    76.029	   -35.481
-19354.361	    15.649	    51.228	   -14.676
-19613.336	    15.706	    55.940	    -2.963
-19395.162	    15.747	    64.706	   -28.336
-19634.473	    15.504	    62.402	   -13.858
-19719.918	    15.298	    63.903	   -42.649
-19532.371	    15.353	    72.443	   -36.960
-19712.361	    15.517	    63.031	   -14.665
-19549.732	    15.602	    70.673	   -22.556
-19520.994	    15.709	    65.763	   -13.972
-19601.113	    15.722	    65.233	   -45.356
-19494.494	    15.759	    51.964	    10.818
-19710.418	    15.765	    66.720	   -19.869
-19662.754	    15.759	    69.417	   -20.035
-19777.451	    15.781	    67.458	   -24.143
-19940.240	    15.707	    48.936	     0.211
-19576.900	    15.674	    69.151	    -9.365
-19670.633	    15.706	    65.942	   -29.338
-19279.334	    15.767	    49.928	     3.079
-19871.535	    15.700	    60.661	     5.687
-19867.514	    15.536	    69.594	    -0.112
-19701.133	    15.455	    61.526	    -5.015
-19649.162	    15.581	    52.688	    -5.125
-19696.332	    15.621	    75.963	   -12.686
-19538.150	    15.677	    53.440	     4.879
-19676.830	    15.750	    58.615	     7.863
-19686.410	    15.794	    61.370	    -1.440
-19536.596	    15.659	    73.416	    -8.979
-19545.572	    15.571	    59.111	   -26.503
-19708.721	    15.540	    60.541	    -0.544
-19519.766	    15.515	    71.320	   -18.318
-19535.295	    15.409	    59.983	    14.864
-19647.730	    15.317	    72.844	   -44.748
-19603.084	    15.382	    47.561	     0.143
-19858.318	    15.457	    75.176	   -11.863
-19659.529	    15.621	    64.207	   -24.198
-19540.861	    15.741	    63.978	   -27.942
-19645.658	    15.802	    61.354	   -19.805
-19721.408	    15.746	    63.488	    -9.661
-19827.912	    15.629	    63.925	   -24.323
-19724.031	    15.578	    61.846	    -0.759
-19762.182	    15.543	    67.183	    -4.255
-19468.281	    15.646	    71.758	     6.769
-19569.246	    15.671	    70.504	   -13.433
-19853.777	    15.675	    60.429	    -7.758
-19679.785	    15.667	    65.304	   -13.967
-19438.398	    15.703	    71.355	     6.828
-19651.678	    15.831	    56.269	    -1.680
-19679.924	    15.925	    50.694	   -16.092
-19331.670	    15.964	    61.837	   -17.140
-19473.047	    15.912	    58.101	    -3.060
-19682.211	    15.702	    63.727	    -0.139
-19900.324	    15.574	    67.093	    14.124
-19634.520	    15.687	    67.937	    19.227
-19564.586	    15.785	    63.620	    -3.727
-19533.922	    15.880	    57.846	     7.412
-19629.043	    15.852	    55.976	   -13.654
-19444.936	    15.697	    55.698	    -9.667
-19901.820	    15.544	    63.004	     2.631
-19799.904	    15.445	    67.248	     3.905
-19518.820	    15.527	    65.560	    10.904
-19739.826	    15.652	    60.776	    -0.253
-19603.715	    15.694	    60.214	     0.222
-19547.639	    15.813	    55.762	   -12.817
-19517.359	    15.853	    72.779	   -19.828
-19616.891	    15.792	    61.461	   -13.724
-19719.543	    15.684	    54.521	    -0.241
-19662.658	    15.562	    65.719	   -30.152
-19662.152	    15.505	    61.561	    -3.628
-19757.436	    15.433	    58.936	     1.792
-19877.146	    15.392	    63.605	   -20.789
-19646.570	    15.499	    70.551	   -12.728
-19682.592	    15.614	    62.662	   -12.739
-19639.586	    15.687	    58.979	   -36.802
-19532.209	    15.701	    70.483	   -31.365
-19618.072	    15.620	    63.612	   -13.263
-19628.031	    15.554	    62.229	   -34.856
-19936.521	    15.525	    66.698	   -14.297
-19690.645	    15.611	    72.162	   -23.833
-19690.646	    15.682	    57.458	   -10.737
-19837.443	    15.613	    55.917	   -20.878
-19926.643	    15.493	    62.869	    -7.355
-19818.307	    15.256	    65.647	    -2.944
-20010.262	    15.139	    68.113	   -14.233
-19831.762	    15.159	    71.105	   -12.789
-19835.678	    15.382	    67.202	     0.817
-19700.746	    15.698	    67.802	    -5.406
-19412.984	    15.841	    61.627	   -10.413
-19525.264	    15.773	    59.920	    16.229
-19668.379	    15.635	    63.910	    -3.216
-19821.025	    15.555	    63.848	   -17.062
-19972.516	    15.598	    71.628	    -7.859
-19695.932	    15.646	    67.276	     8.789
-19845.076	    15.566	    70.566	     5.942
-19664.455	    15.563	    66.800	   -15.919
-19839.619	    15.561	    65.042	   -13.559
-19753.357	    15.583	    62.799	    -8.093
-19681.787	    15.626	    62.089	     0.855
-19647.146	    15.691	    57.718	    -3.342
-19766.088	    15.853	    66.122	   -27.637
-19412.906	    15.958	    59.519	   -11.141
-19504.865	    15.809	    65.769	   -21.108
-19685.203	    15.612	    59.585	     3.729
-19586.271	    15.427	    53.754	    -2.871
-19672.510	    15.297	    52.962	    14.831
-19846.363	    15.187	    75.820	     4.848
-19914.059	    15.254	    65.698	    -5.594
-19366.877	    15.459	    68.205	     8.989
-19717.840	    15.618	    63.703	     5.118
-19450.664	    15.714	    64.408	    -3.675
-19598.086	    15.655	    63.588	    15.140
-19634.623	    15.544	    62.475	   -12.827
-19727.434	    15.597	    63.817	   -47.056
-19631.414	    15.665	    73.161	   -31.725
-19633.752	    15.832	    74.589	   -19.719
-19572.803	    15.759	    61.978	   -23.760
-19585.410	    15.601	    66.429	   -17.237
-19804.967	    15.504	    59.177	    15.466
-19797.426	    15.621	    63.770	    -8.519
-19621.740	    15.639	    65.901	   -17.641
-19669.744	    15.599	    73.156	   -19.016
-19460.576	    15.644	    66.678	    10.990
-19677.607	    15.761	    57.032	    -4.001
-19391.826	    15.904	    67.694	    -5.769
-19455.465	    15.930	    64.706	   -18.801
-19772.539	    15.748	    65.131	   -16.114
-19574.459	    15.450	    72.454	   -29.284
-19887.838	    15.281	    55.173	   -24.132
-19579.986	    15.388	    64.651	   -18.788
-19911.055	    15.610	    50.677	    -0.912
-19689.729	    15.784	    65.169	     6.306
-19675.955	    15.924	    64.514	   -12.578
-19611.434	    15.924	    57.687	   -21.954
-19442.479	    15.861	    53.981	     0.000
-19526.180	    15.840	    67.822	    -3.969
-19750.422	    15.812	    62.385	   -17.199
-19833.781	    15.649	    70.908	   -13.297
-19677.285	    15.414	    67.238	   -11.255
-19994.844	    15.350	    64.482	     1.851
-19826.008	    15.469	    60.667	    -7.193
-19471.885	    15.688	    72.166	   -29.974
-19480.793	    15.765	    65.005	    -0.726
-19273.969	    15.747	    67.174	    -5.466
-19626.492	    15.713	    68.954	     4.531
-19598.379	    15.765	    56.414	    -8.049
-19745.064	    15.758	    59.741	    -2.870
-19738.688	    15.771	    68.549	   -34.852
-19616.172	    15.703	    60.540	    -8.489
-19916.275	    15.463	    57.179	    12.394
-19938.865	    15.212	    69.241	   -24.306
-19910.900	    15.083	    56.420	     8.468
-19617.666	    15.205	    67.027	   -10.981
-19651.006	    15.510	    68.033	    -9.376
-19559.371	    15.703	    71.849	   -13.951
-19433.535	    15.783	    73.002	    16.180
-19496.629	    15.757	    63.761	    -2.356
-19713.418	    15.788	    71.693	    11.609
-19619.652	    15.847	    59.393	    10.561
-19644.367	    15.862	    67.123	    -8.932
