-19828.814	    15.334	   -92.310	   122.143
-19499.234	    15.446	    68.140	   174.265
-19531.975	    15.691	    45.969	  -150.999
-19582.303	    15.841	    43.085	  -165.546
-19781.076	    15.854	    50.729	  -121.010
-19631.775	    15.748	    49.401	  -151.008
-19808.025	    15.654	    44.196	  -150.549
-19682.783	    15.528	    64.664	  -147.363
-19694.000	    15.419	    46.509	  -134.903
-19779.400	    15.428	    55.437	  -136.062
-19813.021	    15.465	    57.189	  -144.863
-19638.357	    15.565	    52.870	  -158.116
-19776.539	    15.753	    57.173	  -145.431
-19727.215	    15.713	    71.643	  -150.256
-19993.832	    15.591	    62.972	  -163.469
-19791.996	    15.510	    47.858	  -128.397
-19818.482	    15.445	    68.739	  -137.000
-19513.555	    15.461	    59.152	  -137.956
-19538.773	    15.533	    46.810	  -152.414
-19835.371	    15.551	    58.577	  -164.073
-19691.770	    15.497	    51.723	  -144.414
-19750.891	    15.572	    55.430	  -140.906
-19631.311	    15.745	    59.950	  -136.509
-19524.711	    15.829	    52.626	  -138.327
-19613.398	    15.793	    61.067	  -147.548
-19762.445	    15.649	    57.724	  -158.471
-19635.430	    15.585	    58.316	  -147.545
-19656.543	    15.579	    53.709	  -148.319
-19776.771	    15.413	    39.377	  -116.568
-19635.018	    15.384	    65.368	  -162.230
-19984.305	    15.464	    47.609	  -130.959
-19639.949	    15.591	    66.104	  -157.684
-19546.520	    15.732	    47.235	  -151.160
-19424.357	    15.779	    60.545	  -174.391
-19723.143	    15.860	    66.309	  -130.802
-19754.924	    15.937	    53.195	  -152.587
-19778.090	    15.772	    58.384	  -149.801
-19400.260	    15.593	    66.112	  -134.940
-19727.033	    15.532	    54.666	  -129.798
-19644.453	    15.474	    48.737	  -149.199
-19625.447	    15.385	    52.336	  -126.972
-19715.354	    15.355	    57.510	  -139.416
-19740.861	    15.492	    56.200	  -136.367
-19679.924	    15.740	    67.060	  -125.760
-19382.062	    15.924	    65.805	  -145.001
-19620.783	    15.993	    62.289	  -159.635
-19579.262	    15.967	    60.502	  -147.793
-19765.553	    15.815	    53.909	  -134.125
-19825.674	    15.657	    63.369	  -129.597
-19627.584	    15.592	    52.498	  -132.765
-19601.455	    15.583	    56.612	  -147.201
-19575.664	    15.575	    52.210	  -140.883
-19816.334	    15.560	    52.232	  -127.046
-19489.779	    15.660	    54.593	  -135.010
-19934.928	    15.695	    68.332	  -142.562
-19592.727	    15.600	    59.550	  -118.403
-19870.006	    15.359	    66.154	  -137.659
-19864.479	    15.389	    66.157	  -144.439
-19565.295	    15.593	    45.071	  -134.196
-19396.293	    15.739	    69.974	  -140.649
-19671.074	    15.801	    64.389	  -137.106
-19395.082	    15.857	    65.386	  -141.591
-19351.141	    15.863	    46.923	  -144.378
-19424.959	    15.755	    64.582	  -151.393
-19640.367	    15.674	    49.574	  -177.745
-19631.406	    15.542	    46.620	  -151.558
-19553.787	    15.485	    51.106	  -126.180
-19810.170	    15.612	    39.974	  -126.318
-19674.305	    15.759	    53.102	  -151.115
-19591.555	    15.834	    54.461	  -147.336
-19747.738	    15.768	    57.103	  -137.975
-19784.510	    15.576	    61.731	  -154.683
-19794.521	    15.363	    55.366	  -149.712
-19902.572	    15.209	    68.627	  -135.985
-20072.336	    15.238	    71.127	  -158.977
-19509.881	    15.455	    41.463	  -138.400
-19619.182	    15.684	    67.801	  -168.219
-19381.508	    15.829	    61.245	  -166.367
-19613.369	    15.720	    58.591	  -155.404
-19596.881	    15.655	    69.081	  -179.413
-19743.215	    15.714	    54.598	  -126.334
-19822.080	    15.810	    54.600	  -121.782
-19760.227	    15.914	    54.710	  -159.574
-19798.070	    15.794	    72.585	  -172.686
-19885.357	    15.509	    55.252	  -148.751
-19767.473	    15.279	    59.520	  -146.503
-19815.262	    15.259	    57.704	  -163.802
-19990.781	    15.458	    77.911	  -158.567
-19737.186	    15.808	    50.860	  -153.145
-19579.803	    16.065	    56.968	  -145.499
-19500.324	    16.154	    60.869	  -137.718
-19465.207	    16.020	    63.771	  -152.467
-19593.936	    15.719	    63.204	  -156.474
-19662.025	    15.453	    76.597	  -147.738
-20018.887	    15.259	    54.052	  -152.587
-19984.812	    15.239	    63.818	  -156.763
-19689.574	    15.422	    58.686	  -141.191
-19645.463	    15.626	    54.408	  -120.271
-19600.410	    15.641	    63.506	  -160.637
-19659.648	    15.492	    60.114	  -164.605
-19687.164	    15.327	    58.889	  -139.174
-19389.377	    15.379	    60.175	  -166.049
-19600.230	    15.536	    65.626	  -149.195
-19656.920	    15.718	    54.257	  -151.690
-19631.689	    15.834	    50.532	  -128.981
-19567.871	    15.867	    61.365	  -115.853
-19615.982	    15.941	    68.074	  -156.582
-19489.184	    15.973	    52.759	  -126.750
-19511.006	    15.925	    48.212	  -147.042
-19354.785	    15.772	    52.179	  -156.214
-19672.775	    15.614	    54.874	  -143.609
-19827.836	    15.444	    61.841	  -154.434
-19794.154	    15.395	    53.454	  -164.378
-19514.342	    15.415	    67.969	  -147.827
-19522.115	    15.464	    49.632	  -123.512
-19558.033	    15.528	    63.432	  -134.887
-19800.605	    15.527	    58.898	  -138.615
-19799.855	    15.530	    66.089	  -142.445
-19603.293	    15.625	    61.023	  -128.063
-19575.047	    15.789	    62.442	  -140.007
-19477.215	    15.953	    60.146	  -141.403
-19340.840	    15.993	    53.352	  -126.149
-19587.701	    15.841	    53.139	  -164.902
-19454.680	    15.714	    57.667	  -127.084
-20038.863	    15.510	    46.687	  -129.764
-19917.344	    15.367	    70.685	  -160.867
-19862.605	    15.308	    56.061	  -170.002
-19763.371	    15.312	    51.715	  -159.455
-19784.285	    15.407	    54.291	  -140.241
-19734.814	    15.530	    60.619	  -143.194
-19813.506	    15.612	    56.022	  -144.874
-19624.010	    15.603	    61.260	  -154.020
-19794.162	    15.527	    50.194	  -160.884
-19708.215	    15.545	    69.019	  -148.309
-19662.539	    15.563	    55.347	  -167.789
-19801.051	    15.632	    54.105	  -141.392
-19727.482	    15.633	    50.021	  -108.363
-19676.260	    15.619	    60.173	  -122.933
-19613.096	    15.626	    57.330	  -139.294
-19783.908	    15.785	    58.143	  -130.010
-19624.113	    15.885	    62.208	  -145.898
-19630.002	    15.799	    50.375	  -135.871
-19577.131	    15.702	    54.798	  -122.182
-19665.279	    15.679	    59.908	  -160.787
-19797.293	    15.680	    53.043	  -160.952
-19583.574	    15.723	    76.548	  -135.749
-19476.002	    15.834	    55.029	  -143.424
-19810.971	    15.860	    64.961	  -137.569
-19660.918	    15.798	    59.145	  -136.743
-19487.451	    15.721	    57.805	  -133.322
-19655.594	    15.526	    63.491	  -133.656
-19970.398	    15.377	    50.206	  -133.307
-19577.344	    15.472	    55.780	  -136.316
-19827.121	    15.670	    59.744	  -144.870
-19525.209	    15.891	    46.221	  -146.329
-19410.625	    15.944	    53.749	  -154.603
-19376.713	    15.913	    53.860	  -171.267
-19497.012	    15.734	    57.940	  -140.380
-19471.117	    15.531	    72.436	  -131.157
-19388.195	    15.439	    65.775	  -160.900
-19717.188	    15.496	    71.182	  -169.409
-19588.705	    15.688	    59.430	  -154.865
-19432.215	    15.910	    63.347	  -154.268
-19467.539	    15.881	    65.641	  -169.366
-19628.066	    15.610	    50.422	  -160.840
-19811.584	    15.375	    59.998	  -165.536
-19891.871	    15.430	    62.320	  -155.134
-19380.488	    15.621	    60.356	  -169.241
-19413.209	    15.663	    67.917	  -128.195
-19548.836	    15.718	    52.306	  -136.814
-19767.494	    15.755	    69.685	  -136.725
-19548.266	    15.720	    55.819	  -122.316
-19665.885	    15.725	    61.096	  -133.971
-19693.502	    15.641	    50.711	  -140.789
-19814.725	    15.640	    57.472	  -110.875
-19667.156	    15.615	    66.486	  -121.548
-19813.025	    15.692	    54.353	  -131.891
-19808.010	    15.747	    57.187	  -140.096
-19653.768	    15.733	    59.117	  -143.668
-19688.234	    15.728	    47.791	  -139.347
-19788.266	    15.762	    49.327	  -151.755
-19775.133	    15.792	    53.115	  -145.166
-19608.596	    15.845	    56.223	  -139.689
-19511.855	    15.894	    54.202	  -159.134
-19528.551	    15.794	    61.704	  -135.757
-19486.895	    15.495	    54.579	  -139.261
-19752.635	    15.221	    53.451	  -140.279
-19893.947	    15.208	    64.390	  -144.314
-19678.010	    15.484	    75.538	  -150.940
-19667.348	    15.800	    53.114	  -138.831
-19350.113	    15.896	    53.337	  -140.755
-19487.262	    15.917	    52.502	  -143.738
-19854.375	    15.824	    68.874	  -167.997
-19933.010	    15.715	    57.009	  -164.357
-19502.562	    15.721	    52.365	  -166.753
-19804.129	    15.735	    69.103	  -155.353
-19886.537	    15.657	    53.740	  -150.209
-19454.658	    15.519	    61.463	  -137.889
-19578.688	    15.464	    58.159	  -161.410
-19704.428	    15.393	    60.553	  -165.207
-19705.779	    15.503	    62.030	  -159.011
-19600.750	    15.728	    55.083	  -149.017
-19403.615	    15.968	    60.518	  -157.576
-19525.832	    16.101	    45.338	  -140.730
-19587.627	    15.984	    52.398	  -165.875
-19583.365	    15.778	    53.014	  -145.984
-19869.742	    15.714	    51.172	  -143.022
-19615.197	    15.742	    67.145	  -160.651
-19629.959	    15.752	    57.954	  -131.004
-19718.262	    15.957	    61.181	  -126.256
-19713.322	    16.053	    47.964	  -139.695
-19319.275	    16.028	    54.228	  -142.169
-19373.422	    15.918	    62.807	  -146.554
-19296.391	    15.863	    54.147	  -155.855
-19705.783	    15.676	    43.214	  -134.590
-19821.014	    15.387	    63.359	  -145.204
-19785.104	    15.220	    45.203	  -144.809
-19793.932	    15.330	    69.444	  -160.982
-19798.613	    15.584	    56.403	  -141.596
-19585.521	    15.828	    61.808	  -141.975
-19325.707	    16.085	    64.448	  -156.576
-19434.271	    16.056	    47.033	  -139.302
-19574.607	    15.789	    58.952	  -145.650
-19640.723	    15.566	    59.961	  -145.619
-19795.496	    15.478	    59.880	  -130.197
-19859.256	    15.363	    56.541	  -137.100
-19645.195	    15.371	    51.441	  -132.267
-19791.674	    15.504	    58.083	  -144.373
-19589.420	    15.780	    64.572	  -151.764
-19652.787	    15.930	    65.988	  -134.124
-19638.486	    15.931	    48.931	  -160.349
-19570.703	    15.715	    59.879	  -138.780
-19680.699	    15.496	    59.278	  -137.066
-19907.686	    15.439	    61.015	  -160.272
-19755.629	    15.495	    59.576	  -158.355
-19895.229	    15.586	    50.036	  -150.661
-19797.336	    15.686	    66.541	  -174.256
-19856.824	    15.664	    57.505	  -136.821
-19530.678	    15.694	    62.051	  -139.659
-19717.068	    15.723	    39.670	  -128.210
-19639.924	    15.735	    56.134	  -147.002
-19554.557	    15.716	    51.169	  -140.581
-19539.639	    15.697	    59.077	  -145.539
-19642.949	    15.639	    54.508	  -150.097
-19377.789	    15.477	    58.357	  -147.882
-19646.580	    15.381	    67.419	  -156.779
-19590.562	    15.509	    66.154	  -154.257
-19749.049	    15.796	    44.295	  -139.948
-19319.793	    16.051	    66.492	  -151.145
-19472.852	    16.078	    59.522	  -155.358
-19668.279	    15.959	    56.390	  -142.353
-19689.031	    15.744	    49.413	  -128.114
-19726.357	    15.544	    60.432	  -116.358
-20023.857	    15.551	    60.815	  -148.663
-19818.938	    15.722	    61.931	  -147.510
-19627.492	    15.788	    54.298	  -139.465
-19600.211	    15.822	    58.844	  -148.263
-19703.000	    15.904	    56.190	  -157.796
-19785.025	    15.901	    61.575	  -134.102
-19747.584	    15.921	    66.115	  -152.994
-19461.326	    16.124	    64.509	  -148.399
-19366.420	    16.156	    52.822	  -156.079
-19469.549	    16.125	    54.451	  -158.025
-19390.252	    15.964	    56.614	  -159.085
-19593.828	    15.520	    55.127	  -151.557
-19855.268	    15.149	    69.998	  -146.353
-19963.053	    15.142	    50.814	  -150.374
-19782.023	    15.353	    72.822	  -153.821
-19591.191	    15.556	    64.335	  -147.652
-19367.840	    15.758	    47.978	  -134.147
-19470.412	    15.934	    61.433	  -154.498
-19529.537	    15.957	    51.153	  -127.313
-19665.277	    15.770	    57.041	  -153.207
-19559.066	    15.543	    34.814	  -137.984
-19801.441	    15.357	    59.630	  -136.253
-19541.801	    15.492	    53.617	  -142.053
-19798.502	    15.739	    60.988	  -156.280
-19676.137	    15.906	    61.511	  -149.763
-19535.244	    15.889	    48.721	  -143.228
-19713.797	    15.720	    56.685	  -164.524
-19925.867	    15.635	    54.351	  -138.380
-19864.488	    15.580	    43.132	  -150.059
-19817.145	    15.559	    59.361	  -132.337
-19682.152	    15.564	    59.849	  -165.452
-19467.131	    15.690	    59.658	  -142.022
-19826.514	    15.754	    59.395	  -134.415
-19662.711	    15.743	    50.920	  -127.316
-19501.902	    15.598	    45.668	  -143.975
-19774.768	    15.402	    66.378	  -170.066
-19852.789	    15.265	    45.298	  -142.126
-19659.787	    15.322	    66.021	  -170.988
-19787.055	    15.502	    66.321	  -160.287
-19672.879	    15.770	    55.221	  -157.975
-19734.164	    15.922	    52.359	  -153.280
-19640.973	    15.908	    54.139	  -153.778
-19753.428	    15.798	    54.615	  -140.160
-19747.807	    15.691	    56.751	  -161.979
-19440.453	    15.629	    59.656	  -171.248
-19768.992	    15.623	    50.017	  -159.736
-19746.795	    15.691	    57.823	  -135.421
-19502.748	    15.791	    57.977	  -168.466
-19635.199	    15.810	    37.244	  -129.442
-19648.148	    15.745	    59.871	  -136.381
-19545.791	    15.787	    66.300	  -139.728
-19798.691	    15.777	    65.348	  -155.281
-19733.600	    15.754	    62.941	  -149.810
-19514.883	    15.811	    51.697	  -138.776
-19646.148	    15.839	    54.444	  -153.105
-19630.441	    15.883	    63.381	  -152.338
-19588.049	    15.923	    41.668	  -131.460
-19510.627	    15.907	    66.971	  -154.850
-19619.176	    15.816	    61.492	  -165.543
-19815.168	    15.621	    57.484	  -156.866
-19831.426	    15.354	    42.357	  -143.921
-19739.004	    15.298	    62.730	  -157.603
-19847.053	    15.390	    65.625	  -112.139
-19734.434	    15.548	    52.421	  -164.019
-19874.480	    15.605	    48.125	  -143.827
-19760.539	    15.599	    51.756	  -129.445
-19517.051	    15.591	    57.058	  -140.698
-19578.643	    15.530	    49.077	  -155.247
-19749.500	    15.494	    52.000	  -151.417
-19790.443	    15.518	    52.256	  -129.129
-20028.057	    15.648	    64.919	  -132.737
-19950.717	    15.824	    65.498	  -146.144
-19485.557	    15.941	    63.840	  -150.710
-19731.180	    15.946	    61.984	  -148.297
-19846.047	    15.718	    57.980	  -140.875
-19779.992	    15.412	    50.482	  -134.661
-20144.580	    15.176	    64.262	  -142.948
-19761.734	    15.291	    55.455	  -138.342
-19920.031	    15.487	    58.964	  -131.547
-19621.963	    15.716	    50.994	  -137.600
-19554.477	    15.933	    73.248	  -133.061
-19562.148	    15.940	    63.775	  -140.114
-19493.201	    15.751	    62.752	  -165.989
-19778.199	    15.551	    69.800	  -163.979
-19678.463	    15.477	    64.489	  -130.810
-19620.236	    15.580	    56.009	  -151.435
-19375.598	    15.701	    57.060	  -170.181
-19373.186	    15.868	    64.746	  -172.814
-19660.307	    15.877	    53.920	  -151.325
-19589.809	    15.804	    59.714	  -137.625
-19776.705	    15.661	    52.479	  -154.764
-19503.656	    15.538	    44.269	  -153.345
-19581.961	    15.449	    65.193	  -140.222
-19353.559	    15.448	    57.275	  -131.829
-19707.160	    15.426	    48.300	  -128.328
-19803.943	    15.544	    49.287	  -148.689
-19605.123	    15.745	    60.459	  -128.373
-19807.611	    15.903	    47.397	  -160.515
-19286.508	    15.975	    62.057	  -170.706
-19506.943	    15.791	    46.297	  -142.847
-19507.594	    15.510	    43.315	  -141.214
-19763.488	    15.217	    59.506	  -165.608
-19976.998	    15.132	    55.587	  -142.148
-19668.645	    15.409	    58.111	  -138.571
-19822.568	    15.802	    64.306	  -135.378
-19602.455	    16.086	    59.917	  -156.888
-19379.312	    16.163	    55.107	  -161.441
-19448.572	    16.140	    57.752	  -127.444
-19566.930	    15.946	    68.558	  -160.408
-19397.475	    15.748	    54.046	  -134.679
-19720.629	    15.610	    51.365	  -149.364
-19766.449	    15.481	    56.487	  -154.364
-19646.225	    15.461	    54.281	  -160.446
-19963.086	    15.540	    55.685	  -163.127
-19809.693	    15.645	    56.305	  -165.977
-19572.129	    15.795	    58.153	  -149.078
-19487.504	    15.825	    62.249	  -167.149
-19616.582	    15.709	    66.026	  -156.863
-19490.715	    15.750	    49.026	  -144.514
-19626.600	    15.747	    49.259	  -149.376
-19898.133	    15.572	    49.319	  -129.549
-19673.170	    15.408	    61.650	  -157.821
-19967.070	    15.333	    54.562	  -160.368
-19549.309	    15.469	    57.421	  -151.906
-19609.914	    15.695	    56.393	  -148.116
-19543.738	    15.842	    72.498	  -148.241
-19773.871	    15.881	    61.613	  -135.436
-19407.395	    15.890	    60.069	  -133.689
-19477.064	    15.730	    55.936	  -156.841
-19452.166	    15.565	    57.439	  -155.954
-19713.611	    15.462	    60.082	  -142.170
-19559.344	    15.397	    61.438	  -171.749
-19819.297	    15.400	    58.249	  -132.552
-19617.734	    15.605	    68.765	  -171.777
-19359.566	    15.778	    61.255	  -136.954
-19599.119	    15.756	    61.346	  -145.762
-19891.271	    15.666	    60.824	  -142.075
-19437.783	    15.500	    65.888	  -177.020
-19673.531	    15.459	    66.700	  -161.475
-19811.648	    15.436	    71.743	  -174.150
-19539.535	    15.554	    67.133	  -141.007
-19752.580	    15.694	    45.811	  -147.068
-19700.619	    15.648	    55.276	  -130.051
-19543.291	    15.580	    46.613	  -145.995
-19745.041	    15.492	    39.860	  -125.832
-19764.566	    15.503	    53.713	  -135.196
-19558.045	    15.597	    49.383	  -134.048
-19396.508	    15.621	    58.036	  -124.296
-19570.992	    15.568	    63.838	  -147.218
-19720.545	    15.477	    52.794	  -151.753
-19873.916	    15.376	    47.061	  -142.252
-19874.623	    15.368	    56.126	  -157.484
-19620.951	    15.394	    51.418	  -112.752
-19792.818	    15.420	    58.526	  -133.474
-19599.410	    15.617	    59.769	  -127.817
-19699.777	    15.777	    56.586	  -143.928
-19649.715	    15.843	    45.042	  -157.433
-19556.295	    15.737	    46.914	  -156.771
-19664.639	    15.679	    48.439	  -157.638
-19638.719	    15.673	    67.803	  -141.392
-19823.605	    15.667	    63.689	  -140.003
-19642.334	    15.703	    55.967	  -127.819
-19730.912	    15.590	    41.484	  -137.482
-19545.691	    15.442	    56.051	  -152.310
-19705.713	    15.468	    67.201	  -144.968
-19766.396	    15.507	    56.959	  -138.673
-19521.492	    15.550	    54.078	  -157.851
-19899.373	    15.597	    54.534	  -145.829
-19566.256	    15.718	    58.265	  -128.156
-19624.754	    15.869	    50.489	  -138.137
-19594.635	    15.882	    65.484	  -158.456
-19798.541	    15.680	    58.930	  -141.457
-19645.514	    15.510	    55.565	  -162.896
-19562.334	    15.623	    56.202	  -151.109
-19573.484	    15.734	    32.733	  -153.128
-19609.100	    15.754	    52.499	  -157.277
-19368.205	    15.721	    57.450	  -168.404
-19452.496	    15.681	    67.367	  -148.945
-19566.945	    15.565	    61.489	  -162.526
-19733.160	    15.593	    61.859	  -137.540
-19635.707	    15.823	    58.483	  -142.002
-19337.674	    15.949	    53.818	  -144.490
-19459.607	    15.954	    67.775	  -149.078
-19478.805	    15.792	    60.368	  -158.975
-19854.785	    15.534	    53.461	  -149.104
-19869.102	    15.409	    61.040	  -147.899
-19811.955	    15.464	    54.063	  -126.938
-19618.600	    15.533	    60.366	  -131.045
-19802.104	    15.501	    54.600	  -118.162
-19694.818	    15.394	    51.987	  -104.875
-19766.293	    15.391	    54.732	  -154.905
-19644.223	    15.534	    62.504	  -131.851
-19539.402	    15.694	    66.140	  -132.437
-19596.475	    15.732	    63.222	  -145.968
-19425.326	    15.574	    57.117	  -163.312
-19674.701	    15.482	    53.135	  -147.068
-19645.359	    15.542	    54.998	  -146.708
-19428.381	    15.694	    58.926	  -142.307
-19528.750	    15.843	    43.197	  -148.290
-19653.744	    15.797	    59.972	  -169.636
-19501.881	    15.612	    72.616	  -162.834
-19830.568	    15.499	    52.257	  -148.695
-19741.986	    15.464	    54.076	  -163.153
-19570.420	    15.468	    63.423	  -167.479
-19673.172	    15.513	    54.744	  -136.642
-19811.252	    15.544	    63.089	  -122.689
-19541.531	    15.515	    62.036	  -140.842
-19767.365	    15.500	    59.821	  -146.016
-19552.477	    15.526	    55.362	  -114.094
-19753.068	    15.567	    64.907	  -147.715
-19648.393	    15.624	    49.022	  -141.363
-19873.271	    15.584	    71.498	  -154.259
-19699.445	    15.553	    56.602	  -157.872
-19612.523	    15.694	    59.595	  -157.148
-19772.062	    15.692	    58.367	  -161.235
-19526.414	    15.759	    65.889	  -144.885
-19447.291	    15.860	    51.877	  -144.239
-19667.104	    15.992	    58.679	  -175.444
-19575.666	    15.943	    46.376	  -151.720
-19693.820	    15.718	    58.458	  -145.068
-19858.439	    15.531	    60.373	  -158.546
-19703.438	    15.371	    54.745	  -143.489
-19733.535	    15.389	    60.577	  -140.377
-19691.137	    15.520	    65.596	  -161.723
-19821.744	    15.671	    53.478	  -156.739
-19671.533	    15.620	    56.569	  -157.212
-19649.918	    15.569	    57.432	  -127.062
-19607.674	    15.593	    48.920	  -146.979
-19427.094	    15.680	    43.646	  -154.730
-19476.664	    15.642	    59.676	  -119.658
-19667.686	    15.641	    59.603	  -146.808
-19466.600	    15.654	    75.663	  -161.144
-19558.869	    15.619	    62.354	  -172.446
-19527.264	    15.630	    54.120	  -143.554
-19767.379	    15.774	    57.588	  -153.244
-19561.953	    15.897	    65.355	  -160.682
-19643.486	    15.915	    56.332	  -153.279
-19635.510	    15.898	    51.460	  -153.246
-19422.104	    15.810	    52.527	  -140.326
-19553.566	    15.625	    51.214	  -129.943
-19884.188	    15.460	    57.639	  -136.258
-19798.857	    15.315	    50.604	  -143.107
-19459.717	    15.282	    49.938	  -137.247
-19637.928	    15.431	    65.233	  -116.289
-19454.445	    15.613	    64.585	  -129.599
-19458.664	    15.578	    58.673	  -141.189
-19545.484	    15.544	    44.314	  -120.319
-19454.941	    15.540	    55.617	  -151.296
-19851.334	    15.512	    55.205	  -148.119
-19682.939	    15.564	    56.604	  -149.934
-19711.713	    15.780	    59.815	   178.650
-19484.145	    15.911	    68.685	  -176.642
-19474.656	    15.908	    56.882	  -137.016
-19512.547	    15.915	    54.529	  -157.955
-19525.738	    15.788	    51.954	  -167.622
-19786.232	    15.567	    70.656	  -151.602
-19714.666	    15.392	    52.305	  -157.332
-19463.529	    15.342	    53.614	  -131.631
-19790.969	    15.445	    63.659	  -157.931
-19813.748	    15.574	    65.230	  -157.585
-19672.572	    15.668	    51.914	  -141.410
-19676.982	    15.788	    52.987	  -149.384
-19704.541	    15.828	    56.569	  -136.298
-19635.992	    15.725	    62.022	  -134.252
-19656.760	    15.494	    64.610	  -120.822
-19793.039	    15.489	    55.152	  -161.592
-19513.889	    15.576	    52.769	  -137.590
-19458.738	    15.675	    58.215	  -153.905
-19572.895	    15.748	    55.097	  -145.287
-19371.844	    15.900	    65.144	  -134.416
-19420.404	    15.999	    46.766	  -127.719
-19399.480	    16.070	    65.100	  -155.017
-19270.447	    15.959	    51.712	  -144.121
-19665.609	    15.779	    54.691	  -133.352
-19604.584	    15.554	    56.898	  -153.878
-19394.484	    15.370	    57.418	  -162.769
-19687.961	    15.287	    64.067	  -170.981
-19780.332	    15.322	    61.120	  -137.275
-19744.828	    15.404	    53.684	  -170.999
-19636.025	    15.617	    69.443	  -156.505
-19155.111	    15.869	    52.127	  -143.801
-19648.113	    15.964	    54.077	  -149.375
-19350.217	    15.885	    60.584	  -137.016
-19652.801	    15.708	    60.572	  -149.168
-19500.996	    15.536	    60.917	  -153.325
-19731.887	    15.336	    40.172	  -127.950
-19716.984	    15.254	    51.796	  -144.550
-19617.008	    15.313	    61.395	  -145.316
-19796.824	    15.437	    55.208	  -133.430
-19733.590	    15.615	    63.885	  -143.499
-19732.504	    15.802	    54.294	  -145.446
-19548.133	    15.860	    62.556	  -153.079
-19340.980	    15.947	    61.202	  -139.129
-19558.982	    15.777	    59.063	  -153.693
-19658.832	    15.577	    59.222	  -166.948
-19631.449	    15.487	    58.032	  -148.965
-19743.031	    15.370	    48.045	  -140.266
-19604.281	    15.326	    59.121	  -120.712
-19761.139	    15.472	    53.663	  -139.466
-19549.180	    15.787	    54.941	  -157.211
-19615.482	    16.149	    61.975	  -160.286
-19334.416	    16.216	    48.069	  -139.277
-19669.035	    16.100	    65.890	  -167.525
-19192.584	    15.929	    66.320	  -164.494
-19838.084	    15.663	    61.971	  -166.932
-19526.322	    15.353	    66.530	  -158.046
-19846.604	    15.228	    61.568	  -155.011
-19817.689	    15.442	    59.298	  -139.732
-19498.705	    15.662	    57.858	  -144.217
-19647.326	    15.736	    60.330	  -130.321
-19513.068	    15.780	    43.680	  -142.557
-19897.008	    15.869	    78.146	  -159.201
-19666.629	    15.991	    50.945	  -142.914
-19568.014	    15.864	    61.801	  -161.213
-19831.564	    15.655	    57.683	  -154.481
-19612.846	    15.485	    52.419	  -135.149
-19661.994	    15.400	    69.977	  -144.602
-19778.312	    15.333	    53.040	  -152.307
-19900.631	    15.236	    52.911	  -154.238
-19699.305	    15.327	    56.435	  -149.557
-19631.488	    15.478	    60.409	  -150.484
-19660.805	    15.666	    43.943	  -164.929
-19400.670	    15.783	    55.895	  -148.470
-19561.020	    15.780	    45.030	  -137.425
-19707.650	    15.713	    64.595	  -150.299
-19494.729	    15.581	    59.121	  -155.242
-19659.582	    15.533	    53.037	  -153.975
-19876.043	    15.582	    51.067	  -144.842
-19735.973	    15.718	    49.677	  -131.317
-19710.227	    15.831	    54.001	  -153.152
-19861.152	    15.819	    65.764	  -121.882
-19638.459	    15.782	    76.038	  -129.151
-19559.754	    15.839	    51.937	  -161.000
-19474.818	    15.935	    56.151	  -143.635
-19630.143	    15.989	    50.717	  -165.604
-19627.531	    16.062	    40.889	  -139.849
-19571.783	    16.017	    52.396	  -160.854
-19685.854	    15.816	    52.834	  -167.867
-19601.061	    15.518	    46.848	  -142.572
-19854.738	    15.232	    62.536	  -150.806
-19951.062	    15.102	    56.300	  -146.650
-19799.250	    15.286	    63.267	  -121.756
-19768.352	    15.679	    64.886	  -149.702
-19379.486	    16.091	    59.061	  -153.137
-19787.193	    16.106	    44.814	  -119.002
-19498.096	    15.764	    58.133	  -132.254
-19519.131	    15.322	    63.013	  -137.519
-19628.779	    15.166	    59.828	  -158.869
-19557.643	    15.208	    56.993	  -137.904
-19652.832	    15.437	    65.143	  -155.148
-19673.477	    15.700	    51.247	  -152.766
-19620.379	    15.971	    59.584	  -166.277
-19442.148	    16.039	    51.128	  -154.684
-19784.074	    15.856	    64.297	  -159.035
-19666.986	    15.635	    63.211	  -159.636
-19838.588	    15.463	    55.543	  -132.873
-19559.336	    15.430	    59.836	  -138.814
-19707.447	    15.479	    67.041	  -126.092
-19723.018	    15.487	    68.680	  -121.859
-19509.934	    15.593	    49.895	  -136.584
-19495.867	    15.644	    68.533	  -119.277
-19823.340	    15.645	    51.194	  -116.288
-19825.305	    15.656	    62.516	  -177.784
-19745.795	    15.668	    53.877	  -159.907
-19605.275	    15.723	    47.247	  -130.170
-19612.838	    15.662	    58.114	  -132.078
-19417.225	    15.541	    55.167	  -142.504
-19449.477	    15.360	    55.031	  -134.212
-19454.486	    15.257	    50.920	  -119.692
-19574.279	    15.282	    44.649	  -150.346
-19607.715	    15.351	    50.543	  -160.192
-19563.896	    15.425	    41.366	  -146.680
-19628.037	    15.576	    58.186	  -173.922
-19614.633	    15.666	    52.060	  -140.214
-19123.600	    15.682	    53.195	  -120.714
-19608.826	    15.518	    64.596	  -120.036
-19495.879	    15.467	    55.515	  -131.580
-19577.693	    15.660	    55.483	  -148.840
-19201.355	    15.818	    58.886	  -119.494
-19456.967	    15.810	    73.907	  -143.787
-19648.207	    15.742	    62.925	  -158.021
-19485.207	    15.669	    59.554	  -135.809
-19396.207	    15.738	    65.548	  -143.560
-19663.010	    15.820	    51.763	  -157.332
-19824.303	    15.885	    69.900	  -144.503
-19463.145	    15.844	    57.651	  -148.962
-19535.305	    15.634	    50.427	  -115.102
-19487.820	    15.473	    52.287	  -130.781
-19625.105	    15.403	    51.579	  -127.710
-19613.271	    15.376	    51.260	  -128.521
-19724.830	    15.347	    62.569	  -134.457
-19697.193	    15.465	    53.648	  -155.994
-19570.420	    15.543	    51.989	  -159.748
-19851.240	    15.535	    49.222	  -123.245
-19571.684	    15.537	    48.711	  -151.517
-19778.385	    15.560	    46.261	  -160.410
-19682.188	    15.607	    53.500	  -127.083
-19570.029	    15.639	    54.997	  -128.443
-19668.906	    15.583	    61.677	  -162.828
-19590.982	    15.453	    57.817	  -137.927
-19762.080	    15.455	    53.289	  -152.471
-19613.014	    15.656	    64.118	  -175.905
-19681.068	    15.800	    55.846	  -161.328
-19591.703	    15.760	    57.756	  -160.030
-19401.658	    15.720	    60.278	  -126.016
-19694.066	    15.637	    47.183	  -140.301
-19754.770	    15.612	    52.814	  -132.012
-19540.812	    15.680	    42.881	  -134.069
-19585.883	    15.696	    50.891	  -144.618
-19534.363	    15.630	    61.882	  -157.288
-19484.564	    15.634	    48.750	  -157.115
-19673.939	    15.681	    64.278	  -158.012
-19303.295	    15.751	    64.778	  -163.782
-19464.385	    15.634	    62.855	  -140.617
-19786.582	    15.451	    60.252	  -155.126
-19714.463	    15.358	    63.589	  -152.579
-19760.092	    15.284	    61.840	   179.575
-19904.891	    15.477	    57.538	  -179.832
-19619.793	    15.785	    52.446	  -151.740
-19700.947	    16.022	    51.202	  -160.428
-19890.361	    16.156	    57.902	  -155.389
-19596.482	    16.110	    56.931	  -155.782
-19512.873	    15.889	    53.840	  -160.591
-19825.693	    15.622	    60.451	  -145.187
-19893.760	    15.503	    53.185	  -149.174
-19628.531	    15.571	    66.843	  -172.842
-19627.688	    15.742	    58.775	  -145.184
-19515.465	    15.890	    66.332	  -147.761
-19744.861	    15.967	    54.071	  -141.040
-19564.576	    15.998	    56.554	  -150.488
-19793.990	    15.881	    64.713	  -144.832
-19694.914	    15.621	    58.845	  -122.623
-19850.199	    15.316	    54.975	  -146.470
-19776.566	    15.297	    57.189	  -159.320
-19670.594	    15.463	    59.556	  -170.900
-19685.238	    15.746	    59.546	  -164.835
-19650.598	    15.991	    57.974	  -165.350
-19417.680	    16.100	    59.468	  -159.717
-19534.807	    16.054	    45.074	  -171.923
-19535.629	    15.866	    66.060	  -147.813
-19785.596	    15.692	    54.806	  -151.393
-19848.959	    15.605	    48.294	  -156.599
-19714.258	    15.625	    61.413	  -154.145
-19607.252	    15.781	    59.595	  -159.451
-19664.881	    15.893	    63.290	  -147.834
-19466.801	    15.882	    64.077	  -143.000
-19799.541	    15.732	    60.423	  -159.451
-19748.305	    15.591	    61.946	  -138.937
-19804.570	    15.504	    46.933	  -132.724
-19725.320	    15.477	    50.398	  -148.280
-19672.818	    15.488	    55.749	  -154.953
-19724.639	    15.598	    63.716	  -176.705
-19556.842	    15.737	    60.931	  -137.992
-19453.352	    15.805	    66.600	  -139.738
-19503.670	    15.781	    53.927	  -150.715
-19494.725	    15.742	    48.266	  -153.851
-19638.959	    15.690	    53.998	  -136.410
-19561.357	    15.597	    59.495	  -169.692
-19690.516	    15.392	    65.356	  -138.991
-20050.785	    15.379	    52.609	  -140.761
-19671.193	    15.577	    55.571	  -148.031
-19652.994	    15.954	    51.885	  -115.197
-19452.119	    16.162	    65.605	  -133.886
-19516.479	    16.136	    60.797	  -141.157
-19876.262	    15.889	    64.355	  -159.376
-19788.742	    15.586	    51.904	  -161.007
-19678.074	    15.530	    58.272	  -153.267
-19619.291	    15.634	    50.061	  -125.424
-19801.975	    15.682	    65.927	  -157.855
-19574.164	    15.746	    60.500	  -166.057
-19625.844	    15.703	    64.320	  -132.226
-19602.264	    15.549	    54.742	  -148.390
-19687.467	    15.510	    61.936	  -151.111
-19647.078	    15.511	    52.821	  -153.420
-19607.004	    15.439	    64.935	  -152.518
-19668.303	    15.392	    53.522	  -141.881
-19993.613	    15.389	    63.930	  -144.788
-19842.186	    15.545	    49.171	  -135.695
-19890.615	    15.662	    60.063	  -146.025
-19723.043	    15.704	    66.014	  -106.633
-19600.289	    15.667	    55.103	  -146.998
-19632.391	    15.552	    70.465	  -141.045
-19756.385	    15.471	    65.617	  -149.142
-19873.686	    15.537	    65.590	  -142.030
-19966.582	    15.665	    53.349	  -144.628
-19549.414	    15.913	    67.831	  -166.311
-19452.004	    15.971	    51.346	  -172.053
-19548.633	    15.769	    68.890	   170.369
-19692.414	    15.607	    54.616	  -176.946
-19644.732	    15.426	    65.753	  -138.011
-19930.539	    15.357	    63.627	  -176.088
-19677.604	    15.454	    44.031	  -151.895
-19433.410	    15.567	    49.184	  -158.985
-19795.611	    15.561	    64.393	  -167.942
-19536.326	    15.410	    66.917	  -160.091
-19740.160	    15.333	    64.935	  -158.791
-19616.369	    15.411	    62.831	  -179.510
-19613.557	    15.595	    55.061	  -155.132
-19755.340	    15.683	    74.226	  -156.466
-19700.369	    15.762	    56.868	  -152.752
-19760.668	    15.763	    66.698	  -162.167
-19705.242	    15.741	    64.774	  -149.172
-19756.828	    15.753	    53.378	  -137.278
-19781.236	    15.788	    49.763	  -160.850
-19861.543	    15.821	    68.130	  -150.311
-19533.309	    15.801	    61.870	  -173.186
-19581.123	    15.721	    51.167	  -104.569
-19539.705	    15.556	    42.679	  -139.912
-19744.371	    15.421	    54.903	  -133.425
-19848.533	    15.273	    53.261	  -141.326
-19878.916	    15.249	    62.904	  -133.650
-19855.541	    15.330	    54.895	  -143.614
-19797.074	    15.349	    61.235	  -156.178
-19743.943	    15.491	    53.979	  -156.099
-19712.768	    15.634	    52.427	  -154.853
-19652.166	    15.745	    55.237	  -154.615
-19504.307	    15.864	    45.202	  -123.462
-19626.637	    15.897	    62.282	  -139.247
-19545.900	    15.675	    63.387	  -152.656
-19436.303	    15.226	    50.324	  -158.396
-19821.115	    14.922	    59.334	  -155.701
-20008.773	    15.039	    53.131	  -166.891
-19497.895	    15.426	    60.242	  -124.114
-19454.010	    15.856	    49.051	  -139.945
-19426.709	    16.083	    54.653	  -155.376
-19441.074	    16.081	    58.201	  -177.428
-19733.654	    15.983	    57.764	  -157.093
-19593.955	    15.775	    58.325	  -149.654
-19596.080	    15.609	    51.839	  -147.999
-19625.574	    15.470	    65.912	  -153.167
-19713.328	    15.381	    53.862	  -175.530
-19635.104	    15.415	    62.946	  -171.975
-19713.080	    15.570	    55.863	  -124.049
-19719.602	    15.669	    62.875	  -147.377
-19539.861	    15.693	    61.302	  -156.102
-19797.555	    15.654	    68.283	  -155.715
-19845.057	    15.599	    61.321	  -159.769
-19627.266	    15.628	    54.675	  -148.009
-19586.086	    15.635	    50.204	  -141.602
-19362.639	    15.620	    56.643	  -153.392
-19602.125	    15.618	    53.024	  -152.635
-19617.271	    15.700	    60.607	  -168.322
-19564.830	    15.850	    55.109	  -138.222
-19506.410	    15.833	    64.777	  -173.715
-19719.660	    15.674	    51.259	  -150.960
-19573.453	    15.455	    68.018	  -137.736
-19698.955	    15.419	    53.382	  -162.625
-19701.844	    15.510	    53.916	  -137.612
-19546.564	    15.640	    54.204	  -137.239
-19561.135	    15.691	    74.596	  -133.593
-19665.293	    15.789	    62.595	  -150.386
-19674.098	    15.821	    62.716	  -151.943
-19744.791	    15.801	    46.032	  -113.346
-19840.312	    15.855	    56.367	  -139.995
-19443.250	    15.951	    64.515	  -148.300
-19492.701	    15.977	    68.654	  -162.213
-19442.639	    15.926	    66.582	  -133.276
-19693.715	    15.719	    51.062	  -143.869
-19679.639	    15.476	    62.292	  -156.043
-19708.094	    15.292	    56.915	  -164.563
-19570.779	    15.244	    53.467	  -167.811
-19816.902	    15.354	    52.635	  -126.558
-19708.361	    15.653	    68.554	   171.996
-19491.963	    15.899	    46.948	  -173.022
-19636.338	    15.943	    52.062	  -168.045
-19867.350	    15.854	    72.057	  -172.399
-19613.957	    15.698	    53.447	  -174.815
-19739.592	    15.523	    60.440	   170.731
-19716.938	    15.505	    65.182	  -163.914
-19605.277	    15.585	    55.014	  -150.062
-19389.475	    15.746	    49.981	  -133.137
-19341.207	    15.959	    66.052	   179.246
-19356.070	    16.090	    65.755	  -151.276
-19482.312	    16.058	    59.537	  -152.734
-19642.977	    15.839	    64.811	  -172.917
-19723.971	    15.655	    52.709	  -142.959
-19670.924	    15.580	    63.387	  -166.896
-19812.285	    15.545	    60.909	  -166.878
-19926.273	    15.396	    64.127	  -158.101
-19627.588	    15.273	    49.268	  -129.294
-19776.180	    15.396	    62.813	  -127.258
-19241.070	    15.659	    47.431	  -154.356
-19615.789	    15.797	    63.417	  -142.725
-19450.104	    15.893	    74.387	  -134.929
-19133.725	    15.960	    68.705	  -136.755
-19730.867	    15.926	    67.226	  -167.518
-19666.199	    15.764	    67.767	  -146.057
-19734.180	    15.653	    66.110	  -171.724
-19383.814	    15.748	    54.827	  -151.754
-19477.219	    15.940	    55.012	  -175.586
-19527.299	    15.950	    64.955	   171.718
-19649.230	    15.840	    72.363	  -133.877
-19446.830	    15.717	    50.820	  -150.987
-19572.836	    15.617	    51.753	  -137.941
-19741.107	    15.502	    43.589	  -146.261
-19628.074	    15.483	    46.357	  -137.560
-19524.570	    15.673	    57.716	  -151.176
-19497.672	    15.642	    65.354	  -145.330
-19819.174	    15.518	    52.237	  -152.850
-19548.869	    15.433	    46.200	  -176.910
-19869.910	    15.412	    63.422	  -133.544
-19551.268	    15.580	    59.119	  -127.134
-19632.568	    15.784	    44.746	  -152.721
-19568.445	    16.015	    57.494	  -154.532
-19593.395	    16.125	    57.228	  -146.757
-19513.182	    16.100	    58.399	  -138.653
-19526.926	    15.847	    59.034	  -145.150
-19745.773	    15.664	    63.076	  -138.519
-19705.225	    15.592	    65.891	  -149.527
-19746.646	    15.471	    50.822	  -137.446
-19777.914	    15.320	    53.870	  -133.345
-19599.932	    15.327	    67.532	  -139.783
-19660.744	    15.463	    43.793	  -128.453
-19910.570	    15.667	    48.384	  -141.402
-19695.264	    15.815	    62.626	  -155.691
-19565.064	    15.869	    53.626	  -131.263
-19761.262	    15.815	    60.010	  -145.737
-19615.727	    15.718	    52.788	  -130.123
-19707.287	    15.724	    50.170	  -151.761
-19543.344	    15.745	    63.019	  -136.793
-19513.555	    15.709	    53.522	  -160.806
-19617.822	    15.590	    66.453	  -157.438
-19512.041	    15.643	    58.957	  -136.124
-19411.381	    15.764	    58.104	   174.160
-19535.234	    15.807	    75.026	  -157.768
-19648.758	    15.809	    58.451	  -168.070
-19562.850	    15.756	    57.114	  -152.815
-19703.152	    15.727	    51.140	  -121.130
-19943.654	    15.742	    67.003	  -154.098
-19821.562	    15.860	    53.588	  -168.302
-19333.379	    15.886	    51.505	  -154.621
-19547.623	    15.796	    58.046	  -144.204
-19740.221	    15.714	    54.872	  -132.929
-19643.678	    15.712	    55.499	  -140.233
-19864.436	    15.754	    56.457	  -155.440
-19606.895	    15.817	    58.607	  -160.653
-19611.738	    15.817	    46.291	  -157.344
-19548.324	    15.701	    62.300	  -157.093
-19446.430	    15.473	    65.000	  -154.491
-19711.945	    15.275	    54.619	  -162.555
-19773.711	    15.276	    39.917	  -141.466
-19679.299	    15.464	    47.940	  -120.794
-19457.623	    15.668	    58.405	  -123.327
-19498.891	    15.760	    55.195	  -127.778
-19550.686	    15.767	    54.128	  -140.863
-19751.395	    15.641	    68.315	  -130.625
-19823.307	    15.531	    66.169	  -164.909
-19622.059	    15.620	    57.204	  -172.283
-19552.135	    15.849	    53.949	  -151.503
-19563.990	    15.968	    60.266	  -149.097
-19581.219	    15.831	    62.500	  -142.487
-19912.098	    15.638	    52.084	  -127.752
-19484.584	    15.559	    54.518	  -153.463
-19478.381	    15.583	    66.650	  -135.264
-19627.242	    15.641	    53.499	  -137.690
-19649.211	    15.761	    64.059	  -163.787
-19521.645	    15.806	    50.006	  -144.369
-19414.691	    15.762	    58.960	  -145.857
-19600.049	    15.815	    55.442	  -160.706
-19344.230	    15.816	    57.358	  -154.392
-20055.227	    15.664	    59.281	  -152.496
-19689.342	    15.474	    53.585	  -146.975
-19641.393	    15.284	    54.628	  -145.348
-19702.912	    15.242	    66.570	  -159.393
-19530.088	    15.283	    43.415	  -129.189
-19610.467	    15.399	    55.751	  -123.221
-19728.723	    15.461	    48.423	  -125.467
-19712.158	    15.582	    57.060	  -138.076
-19382.459	    15.696	    65.253	  -160.213
-19445.527	    15.614	    55.835	  -120.228
-19654.588	    15.518	    54.386	  -128.999
-19495.314	    15.537	    51.263	  -155.409
-19643.965	    15.695	    47.600	  -143.831
-19592.127	    15.807	    48.666	  -132.071
-19294.119	    15.784	    62.603	  -122.867
-19806.523	    15.670	    56.629	  -163.301
-19685.803	    15.567	    59.513	  -144.518
-19861.107	    15.657	    53.316	  -136.571
-19523.525	    15.771	    54.467	  -153.064
-19503.137	    15.841	    64.861	  -139.045
-19483.119	    15.947	    67.267	  -128.487
-19516.816	    15.980	    57.583	  -149.662
-19590.244	    15.954	    53.884	  -149.028
-19687.037	    15.831	    58.777	  -140.889
-19676.104	    15.664	    59.595	  -138.488
-19681.705	    15.597	    51.555	  -130.147
-19589.525	    15.653	    58.686	  -158.066
-19685.295	    15.692	    65.970	  -130.181
-19592.781	    15.716	    59.283	  -132.411
-19561.814	    15.730	    56.259	  -142.922
-19826.312	    15.708	    63.761	  -165.053
-19387.521	    15.762	    61.393	  -159.384
-19458.367	    15.726	    54.724	  -143.462
-19788.895	    15.586	    67.792	  -156.368
-19821.930	    15.470	    59.337	  -164.427
-19348.471	    15.512	    54.007	  -153.468
-20000.707	    15.597	    62.485	  -131.091
-19565.002	    15.712	    62.834	  -162.950
-19753.609	    15.868	    50.581	  -137.121
-19684.797	    15.965	    53.075	  -138.520
-19553.529	    15.946	    49.520	  -129.997
-19463.381	    15.721	    52.833	  -151.316
-19816.301	    15.490	    62.645	  -147.086
-19323.320	    15.342	    54.538	  -142.984
-19830.865	    15.403	    50.232	  -149.114
-19358.574	    15.628	    59.266	  -169.549
-19565.070	    15.859	    52.637	  -143.699
-19716.109	    15.947	    55.433	  -137.525
-19487.068	    15.856	    60.150	  -115.892
-19815.168	    15.669	    61.261	  -153.538
-19589.621	    15.453	    61.781	  -134.003
-19564.053	    15.301	    69.325	  -151.007
-19616.123	    15.215	    46.458	  -141.424
-19552.684	    15.241	    63.428	  -144.408
-19702.582	    15.420	    49.646	  -118.777
-19646.117	    15.647	    63.029	  -142.141
-19668.660	    15.745	    62.557	  -147.400
-19606.943	    15.686	    60.855	  -137.382
-19648.766	    15.504	    58.038	  -144.500
-19666.768	    15.364	    34.907	  -140.442
-19831.416	    15.400	    56.566	  -139.549
-19949.787	    15.491	    43.575	  -144.543
-20045.896	    15.571	    71.505	  -176.477
-19638.137	    15.629	    48.745	  -151.108
-19636.236	    15.616	    51.568	  -125.597
-19774.996	    15.655	    58.334	  -166.270
-19540.221	    15.708	    56.115	  -134.929
-19919.578	    15.709	    70.078	  -136.127
-19743.688	    15.629	    54.535	  -161.141
-19941.496	    15.509	    47.077	  -155.637
-19865.613	    15.349	    70.155	  -138.289
-20019.354	    15.372	    48.706	  -148.960
-19612.947	    15.494	    60.593	  -132.507
-19438.928	    15.546	    63.479	  -138.058
-19497.268	    15.587	    51.388	  -132.942
-19675.312	    15.698	    64.627	  -124.522
-19594.459	    15.731	    61.397	  -128.880
-19622.742	    15.746	    71.208	  -137.192
-19775.662	    15.632	    55.479	  -137.010
-19738.463	    15.474	    54.130	  -155.174
-19659.115	    15.347	    51.504	  -150.453
-19686.361	    15.376	    59.279	  -141.802
-19501.010	    15.544	    60.898	  -131.286
-19691.570	    15.623	    58.655	  -131.891
-19754.803	    15.709	    51.355	  -142.484
-19615.082	    15.732	    45.801	  -143.644
-19626.568	    15.591	    53.812	  -160.022
-19523.129	    15.501	    57.362	  -149.865
