-20005.049	    15.334	   -92.310	   122.143
-19710.123	    15.430	  -147.426	    42.530
-19369.143	    15.524	  -159.552	    29.605
-19619.146	    15.534	  -138.677	    37.129
-19698.621	    15.574	  -152.959	    16.488
-19629.320	    15.559	  -139.219	    34.279
-19610.980	    15.594	  -147.577	    42.208
-19690.055	    15.714	  -146.091	     7.279
-19650.131	    15.790	  -155.099	    32.683
-20035.789	    15.798	  -161.463	    41.357
-19499.385	    15.688	  -146.117	    21.633
-19857.242	    15.576	  -152.253	    39.573
-19900.785	    15.558	  -149.482	    31.853
-19622.762	    15.682	  -140.094	    27.345
-19622.885	    15.756	  -154.786	    29.636
-19746.256	    15.920	  -144.377	    19.050
-19505.430	    15.950	  -151.531	    35.354
-19683.301	    15.734	  -154.217	    45.312
-19720.988	    15.426	  -144.721	    41.743
-19777.896	    15.233	  -153.750	    44.692
-19761.600	    15.283	  -160.057	    17.002
-19728.684	    15.501	  -151.622	    39.352
-19899.738	    15.609	  -137.297	    25.317
-19868.773	    15.627	  -157.092	    60.191
-19645.355	    15.632	  -157.257	    27.746
-19811.014	    15.542	  -154.603	    27.881
-19722.172	    15.642	  -156.144	    31.960
-19495.600	    15.739	  -138.558	    33.172
-19738.139	    15.773	  -148.438	    29.042
-19884.633	    15.703	  -131.566	    37.813
-19351.451	    15.567	  -151.428	    21.446
-19580.600	    15.503	  -160.446	    49.432
-19754.527	    15.459	  -154.944	    18.873
-19630.629	    15.396	  -164.482	    46.333
-19593.641	    15.464	  -153.127	    33.952
-19600.564	    15.544	  -146.646	    41.408
-19653.049	    15.598	  -160.521	    35.207
-19537.074	    15.639	  -154.753	    57.467
-19649.902	    15.749	  -162.679	    43.515
-19700.465	    15.804	  -132.792	    29.177
-19640.186	    15.784	  -155.436	    20.545
-19630.053	    15.657	  -148.981	    50.619
-19623.215	    15.452	  -146.488	    25.934
-19912.900	    15.430	  -150.532	    54.765
-19867.324	    15.463	  -168.810	    41.002
-19901.879	    15.454	  -144.772	    41.472
-19721.480	    15.493	  -150.563	    18.985
-19801.217	    15.599	  -138.306	    20.193
-19672.855	    15.621	  -143.764	    21.181
-19288.057	    15.646	  -136.743	    25.454
-19706.135	    15.648	  -144.279	    14.580
-19468.762	    15.660	  -154.587	    38.425
-19664.543	    15.590	  -152.065	    37.996
-19665.164	    15.562	  -156.411	    34.460
-19619.619	    15.696	  -148.255	    31.929
-19347.154	    15.872	  -150.702	    40.126
-19752.410	    15.877	  -152.253	    37.085
-19735.084	    15.919	  -146.185	    23.370
-19554.133	    15.900	  -129.455	    19.815
-19787.250	    15.828	  -149.502	    35.232
-19737.330	    15.688	  -161.316	    39.337
-19408.027	    15.628	  -143.501	    59.057
-19382.807	    15.637	  -138.847	    25.806
-19529.771	    15.618	  -134.372	    60.473
-19770.365	    15.586	  -167.169	    44.144
-19628.006	    15.565	  -153.084	    49.956
-19468.602	    15.669	  -144.985	    37.739
-19697.984	    15.704	  -154.614	    16.575
-19635.959	    15.595	  -139.534	    46.738
-19818.537	    15.491	  -146.647	    42.088
-19828.951	    15.500	  -150.331	    30.734
-19967.408	    15.474	  -164.628	    46.188
-19822.779	    15.490	  -148.259	    42.981
-19710.396	    15.534	  -147.801	    31.290
-19733.475	    15.750	  -152.730	    47.878
-19621.092	    15.932	  -153.179	    32.519
-19773.113	    15.870	  -150.531	    17.146
-19780.773	    15.736	  -151.302	    38.057
-19856.293	    15.553	  -143.430	    40.014
-19998.943	    15.389	  -164.081	    52.649
-19957.711	    15.315	  -163.011	    56.406
-19924.432	    15.419	  -150.679	    36.123
-19485.848	    15.635	  -146.325	    45.528
-19709.555	    15.875	  -147.483	    52.544
-19464.547	    15.927	  -146.951	    30.887
-19700.502	    15.868	  -153.137	    32.596
-19622.275	    15.761	  -166.881	    20.388
-19611.676	    15.600	  -150.028	    40.880
-19744.627	    15.550	  -157.417	    32.387
-19695.697	    15.749	  -148.634	    27.926
-19398.688	    15.873	  -142.435	    30.428
-19613.098	    15.785	  -164.115	    47.718
-19698.406	    15.644	  -162.653	    66.205
-19728.936	    15.460	  -178.306	    46.474
-19660.641	    15.358	  -134.375	    50.491
-19431.742	    15.372	  -156.293	    26.218
-19833.627	    15.434	  -165.454	    54.054
-19644.746	    15.663	  -153.956	    19.252
-19489.479	    15.937	  -147.094	    43.752
-19394.391	    15.967	  -157.861	    27.785
-19790.432	    15.809	  -146.124	    58.616
-19589.932	    15.634	  -153.928	    30.090
-19485.363	    15.625	  -159.495	    26.314
-19633.213	    15.525	  -152.971	    31.058
-19850.502	    15.484	  -160.800	    70.284
-19770.793	    15.537	  -155.759	    42.852
-19801.840	    15.650	  -153.116	    37.295
-20047.387	    15.708	  -149.288	    34.382
-19836.451	    15.606	  -144.377	    23.528
-19770.332	    15.450	  -140.394	    31.979
-19731.475	    15.432	  -155.578	    18.929
-19529.709	    15.661	  -154.672	    26.360
-19340.008	    15.946	  -159.507	    29.698
-19637.893	    16.137	  -135.722	    40.581
-19816.180	    16.200	  -137.028	    28.903
-19718.020	    16.121	  -146.410	    39.968
-19505.705	    15.896	  -129.397	    24.610
-19768.406	    15.581	  -146.660	    46.276
-20039.062	    15.351	  -154.174	    46.046
-20047.420	    15.285	  -155.817	    38.150
-19672.346	    15.444	  -168.544	    41.902
-19668.877	    15.644	  -164.700	    50.901
-19687.354	    15.801	  -158.455	    39.043
-19704.299	    15.757	  -160.838	    31.185
-19377.498	    15.697	  -145.323	    59.224
-19533.615	    15.694	  -160.114	    41.924
-19493.453	    15.649	  -140.316	    17.644
-19376.480	    15.624	  -142.805	    20.215
-19666.129	    15.625	  -128.072	    41.498
-19634.471	    15.706	  -163.395	    60.190
-19821.758	    15.714	  -153.525	    48.056
-19576.926	    15.680	  -143.973	    32.988
-19859.928	    15.500	  -147.264	    19.959
-19834.902	    15.358	  -145.702	    21.361
-19747.846	    15.331	  -150.712	    42.248
-19350.289	    15.596	  -136.601	    43.893
-19611.871	    15.906	  -141.597	    64.130
-19556.012	    16.043	  -145.033	    30.278
-19296.562	    16.038	  -160.725	    17.764
-19383.523	    15.987	  -149.628	    50.338
-19797.119	    15.865	  -155.757	    24.786
-19539.549	    15.781	  -137.190	    10.235
-19747.084	    15.671	  -148.357	    32.975
-19751.025	    15.565	  -160.289	    31.833
-19557.207	    15.514	  -145.267	    10.325
-19600.082	    15.503	  -151.530	    40.953
-19742.121	    15.590	  -153.910	    30.564
-19566.348	    15.654	  -157.433	    41.800
-19709.693	    15.711	  -139.863	    26.820
-19560.928	    15.730	  -148.403	    23.773
-19545.045	    15.678	  -141.678	    21.673
-19696.801	    15.532	  -142.956	    28.102
-19777.291	    15.498	  -145.272	    34.667
-19667.584	    15.461	  -152.247	    47.137
-19310.488	    15.481	  -139.033	    32.448
-19817.283	    15.589	  -162.553	    42.705
-19665.064	    15.707	  -154.878	    45.913
-19784.908	    15.576	  -157.227	    40.211
-19923.705	    15.462	  -157.518	    38.572
-19708.092	    15.476	  -148.500	    25.918
-19688.832	    15.548	  -160.396	    19.569
-19207.729	    15.641	  -148.635	    21.467
-19478.350	    15.806	  -155.678	    32.324
-19510.830	    15.900	  -165.030	    37.814
-19506.107	    15.735	  -154.276	    35.109
-19759.395	    15.588	  -146.679	    29.825
-19639.834	    15.539	  -160.847	    50.853
-19714.047	    15.501	  -150.055	    41.378
-19661.156	    15.427	  -156.259	    35.618
-19746.363	    15.310	  -153.459	    27.875
-19725.123	    15.388	  -160.832	    35.608
-19559.705	    15.581	  -154.706	    52.085
-19521.252	    15.815	  -164.887	    53.557
-19619.016	    15.926	  -157.906	    54.638
-19661.398	    15.892	  -138.934	    30.650
-19510.990	    15.672	  -155.357	    20.448
-19655.332	    15.470	  -151.110	    23.905
-19839.811	    15.342	  -155.216	    12.763
-19946.887	    15.407	  -157.316	    45.398
-19617.605	    15.701	  -135.723	    25.298
-19255.189	    15.933	  -143.510	    37.471
-19599.316	    15.956	  -161.119	    21.394
-19697.334	    15.798	  -135.142	    42.779
-19688.592	    15.541	  -146.760	    57.127
-19827.234	    15.310	  -155.557	    36.447
-19808.828	    15.198	  -151.518	    26.136
-19869.105	    15.282	  -160.411	    36.399
-19716.986	    15.423	  -151.574	    40.254
-19624.652	    15.656	  -153.279	    46.403
-19610.072	    15.859	  -149.453	    63.970
-19487.654	    15.986	  -168.065	    49.124
-19689.416	    15.977	  -157.356	    25.142
-19581.545	    15.948	  -153.360	    38.756
-19701.113	    15.826	  -150.901	    14.023
-19733.707	    15.679	  -155.514	    37.314
-19654.244	    15.587	  -145.951	    30.977
-19612.057	    15.529	  -153.819	    37.964
-19821.131	    15.595	  -146.928	    41.836
-19700.609	    15.727	  -156.207	    31.049
-19398.637	    15.772	  -158.521	    39.690
-19390.455	    15.745	  -156.020	    24.436
-19821.305	    15.682	  -158.219	    31.510
-19888.420	    15.449	  -162.312	    16.538
-19904.207	    15.391	  -146.769	    42.233
-19765.975	    15.564	  -144.356	    23.630
-19249.797	    15.732	  -154.292	    24.184
-19755.146	    15.781	  -160.533	    47.203
-19521.887	    15.850	  -159.764	    37.030
-19491.480	    15.942	  -151.616	    46.859
-19607.801	    15.931	  -147.800	    38.390
-19527.672	    15.923	  -146.202	    38.560
-19440.408	    15.689	  -136.328	    36.447
-19628.408	    15.428	  -153.497	    42.304
-19719.133	    15.206	  -130.724	    58.912
-19666.955	    15.094	  -150.172	    38.051
-19935.012	    15.180	  -157.220	    38.948
-19801.672	    15.298	  -144.695	    30.843
-19872.682	    15.576	  -167.629	    30.447
-19644.074	    15.770	  -142.865	    29.029
-19891.861	    15.677	  -145.643	    30.202
-19825.793	    15.602	  -155.641	    18.528
-19943.340	    15.528	  -156.219	    48.394
-19585.250	    15.564	  -150.318	    26.676
-19852.865	    15.657	  -155.421	    48.706
-19571.832	    15.757	  -170.764	    32.033
-19480.471	    15.780	  -155.996	    18.688
-19789.137	    15.703	  -152.439	    19.283
-19711.838	    15.625	  -154.421	    39.694
-19728.691	    15.593	  -166.157	    18.089
-19733.367	    15.671	  -147.273	    47.848
-19465.725	    15.661	  -141.742	    53.284
-19669.744	    15.476	  -153.668	    37.313
-19792.641	    15.319	  -143.484	    11.321
-19651.131	    15.265	  -147.945	    61.365
-19666.900	    15.380	  -158.424	    66.036
-19608.494	    15.611	  -151.942	    28.547
-19418.947	    15.795	  -154.466	     2.200
-19575.406	    15.844	  -164.312	    37.034
-19811.746	    15.742	  -138.464	    19.050
-19758.393	    15.659	  -152.550	    15.955
-19785.479	    15.664	  -156.293	    42.963
-19618.779	    15.687	  -146.131	    33.354
-19379.156	    15.675	  -128.903	    46.268
-19639.338	    15.746	  -155.790	    25.830
-19613.471	    15.773	  -145.552	    51.940
-19661.760	    15.731	  -147.453	    18.058
-19614.193	    15.660	  -169.184	    23.189
-19537.607	    15.589	  -153.761	    16.088
-19831.021	    15.579	  -154.158	    36.230
-19589.502	    15.602	  -165.604	    38.583
-19584.320	    15.649	  -152.946	    32.668
-19681.633	    15.706	  -154.654	    58.151
-19540.770	    15.777	  -141.044	    45.445
-19719.254	    15.766	  -141.290	    19.777
-19369.174	    15.698	  -146.749	    46.605
-19650.311	    15.617	  -162.106	    39.797
-19553.439	    15.624	  -146.211	     8.107
-19682.873	    15.681	  -141.878	    55.549
-19902.131	    15.632	  -155.456	    31.612
-19818.689	    15.526	  -155.996	    40.730
-19782.283	    15.628	  -157.305	    31.819
-19532.668	    15.847	  -152.293	    51.838
-19474.311	    15.999	  -145.098	    44.211
-19594.510	    15.967	  -132.046	    50.176
-19710.566	    15.851	  -162.329	    62.481
-19777.312	    15.675	  -147.874	    53.432
-19607.719	    15.547	  -160.710	    19.547
-19772.422	    15.505	  -147.938	    26.021
-19743.434	    15.557	  -156.069	    20.957
-19676.627	    15.723	  -154.635	    19.240
-19694.520	    15.747	  -147.393	    27.623
-19690.422	    15.772	  -146.589	    49.806
-19696.676	    15.792	  -153.847	    42.093
-19660.225	    15.772	  -147.068	    31.401
-19872.566	    15.712	  -160.105	    29.286
-19469.334	    15.562	  -153.513	    18.772
-19741.314	    15.468	  -154.722	    46.230
-19686.133	    15.552	  -140.375	    44.752
-19833.961	    15.618	  -152.245	    47.944
-19721.199	    15.658	  -140.161	    19.530
-19615.646	    15.662	  -164.466	    58.509
-19987.740	    15.696	  -142.285	    50.931
-19655.107	    15.769	  -154.393	    47.292
-19854.266	    15.623	  -148.032	    52.279
-19526.305	    15.525	  -137.356	    36.082
-19992.242	    15.439	  -176.046	    19.847
-19791.701	    15.445	  -173.046	    42.091
-19723.590	    15.646	  -150.515	    19.559
-19707.932	    15.825	  -157.154	    40.371
-19792.000	    15.867	  -159.199	    46.267
-19585.375	    15.752	  -142.560	    35.203
-19683.453	    15.512	  -157.054	    19.073
-19642.264	    15.388	  -142.489	    25.806
-19513.705	    15.400	  -151.387	    27.288
-19782.994	    15.511	  -148.844	    38.079
-19598.688	    15.587	  -152.792	    41.768
-19638.143	    15.630	  -153.265	    64.335
-19861.271	    15.628	  -147.004	    26.055
-19811.416	    15.465	  -158.901	    28.480
-19976.551	    15.381	  -159.440	    42.731
-19662.857	    15.426	  -138.311	    47.314
-19632.219	    15.553	  -141.835	    38.477
-19412.424	    15.820	  -162.461	    36.353
-19537.674	    15.977	  -150.214	    24.976
-19419.244	    15.963	  -144.468	    31.482
-19507.084	    15.830	  -149.856	    33.081
-19508.564	    15.613	  -164.091	    16.160
-19831.412	    15.367	  -160.357	    27.734
-19981.248	    15.299	  -161.545	    19.555
-19865.998	    15.446	  -168.130	    35.395
-19659.137	    15.665	  -164.037	    44.508
-19761.404	    15.931	  -163.108	    40.729
-19680.201	    16.159	  -149.845	    38.610
-19558.068	    16.190	  -164.127	    30.814
-19760.578	    16.067	  -148.934	    31.049
-19645.752	    15.876	  -161.867	    36.545
-19735.076	    15.785	  -146.530	    36.416
-19388.488	    15.852	  -153.577	    63.088
-19596.131	    15.916	  -161.983	    36.238
-19633.021	    15.735	  -157.138	    26.226
-19858.090	    15.512	  -153.196	    43.061
-19766.473	    15.569	  -150.205	    43.693
-19582.936	    15.743	  -148.602	    40.271
-19695.268	    15.811	  -163.749	    21.640
-19640.715	    15.861	  -155.452	    48.362
-19777.168	    15.827	  -165.209	    39.358
-19581.283	    15.652	  -167.660	    27.201
-19605.346	    15.546	  -145.148	    30.914
-19532.859	    15.494	  -137.283	    20.140
-19548.082	    15.502	  -143.258	    26.188
-19367.170	    15.519	  -156.669	    34.570
-19334.562	    15.691	  -159.777	    52.944
-19515.098	    15.928	  -145.207	    24.072
-19764.797	    15.940	  -147.175	    41.881
-19604.740	    15.730	  -137.620	    35.008
-19723.844	    15.562	  -161.202	    35.818
-19733.150	    15.599	  -156.806	    14.041
-19659.623	    15.619	  -153.355	    23.043
-19602.996	    15.630	  -158.350	    34.338
-19893.848	    15.593	  -152.692	    51.211
-19622.426	    15.489	  -144.084	    24.551
-19648.014	    15.442	  -163.096	    14.132
-19441.000	    15.470	  -133.459	    23.813
-19533.855	    15.583	  -128.555	    21.823
-19564.521	    15.694	  -157.397	    23.655
-19824.326	    15.706	  -142.047	    22.238
-19721.438	    15.715	  -140.029	    29.227
-19703.498	    15.584	  -168.860	    43.540
-19736.316	    15.543	  -150.227	    31.591
-19735.721	    15.601	  -150.658	    45.314
-19576.162	    15.633	  -141.798	    49.562
-19774.814	    15.643	  -163.346	    48.912
-19522.143	    15.668	  -159.726	    45.565
-19512.758	    15.763	  -128.622	    59.738
-19537.629	    15.870	  -141.880	    38.125
-19481.840	    15.929	  -166.254	    49.286
-19588.850	    15.841	  -164.867	    46.639
-19544.230	    15.676	  -142.061	    29.549
-19529.742	    15.515	  -140.864	    12.851
-19559.553	    15.453	  -156.575	    44.516
-19627.146	    15.443	  -152.962	    14.919
-19832.781	    15.441	  -155.942	    19.193
-19613.266	    15.481	  -156.871	    33.535
-19652.041	    15.432	  -149.932	    34.536
-19682.461	    15.467	  -130.260	    22.203
-19683.799	    15.445	  -162.619	     1.512
-19634.795	    15.382	  -162.007	    24.815
-19578.820	    15.285	  -152.393	    32.643
-19708.434	    15.284	  -144.906	    22.163
-19767.023	    15.367	  -123.178	     5.372
-19923.432	    15.583	  -154.577	    38.511
-19356.912	    15.743	  -150.784	    27.626
-19477.789	    15.814	  -157.634	    23.465
-19767.688	    15.703	  -142.851	    32.471
-19705.932	    15.479	  -135.318	    22.222
-19618.424	    15.174	  -155.919	    42.799
-19801.590	    15.139	  -141.467	    46.746
-19630.613	    15.265	  -156.538	    44.323
-19696.264	    15.561	  -161.071	    32.881
-19773.627	    15.839	  -159.965	    48.952
-19543.160	    15.837	  -129.865	    21.112
-19651.324	    15.805	  -146.693	    12.474
-19682.992	    15.788	  -164.790	    34.591
-19507.250	    15.753	  -152.916	    22.523
-19581.078	    15.793	  -155.507	    33.770
-19712.918	    15.843	  -159.618	    24.043
-19488.109	    15.883	  -163.062	    43.105
-19666.285	    15.893	  -160.105	    47.981
-19756.010	    15.836	  -151.157	    15.989
-19351.094	    15.746	  -157.746	    46.301
-19667.635	    15.581	  -152.869	    38.009
-19298.221	    15.557	  -155.177	    47.138
-19890.855	    15.699	  -153.241	    47.425
-19429.182	    15.816	  -148.477	    15.843
-19302.725	    15.959	  -161.210	    43.023
-19716.773	    16.018	  -160.066	    45.496
-19671.539	    15.926	  -163.793	    48.720
-19704.998	    15.684	  -144.014	    41.490
-19665.348	    15.615	  -142.788	    28.098
-19636.145	    15.668	  -150.622	    60.284
-19844.332	    15.769	  -152.204	    34.006
-19767.541	    15.812	  -137.786	    39.176
-19604.000	    15.785	  -145.633	    34.820
-19448.902	    15.675	  -146.986	    28.042
-19743.170	    15.534	  -149.770	    36.598
-19610.562	    15.474	  -136.693	    52.070
-19766.812	    15.489	  -153.719	    45.709
-19697.861	    15.467	  -163.249	    44.979
-19865.234	    15.520	  -146.902	    22.855
-19593.035	    15.547	  -150.927	    15.750
-19554.795	    15.532	  -160.011	    28.697
-19808.744	    15.551	  -165.350	    23.932
-19498.654	    15.626	  -165.896	    31.702
-19647.090	    15.658	  -134.999	    29.127
-19643.775	    15.626	  -152.602	    61.890
-19435.148	    15.506	  -154.632	    32.823
-19433.211	    15.479	  -143.081	    38.352
-19525.834	    15.457	  -165.023	    42.372
-19499.463	    15.524	  -156.237	    41.392
-19675.887	    15.684	  -156.477	    46.968
-19538.014	    15.799	  -147.026	    46.570
-19447.191	    15.759	  -152.984	    29.315
-19561.527	    15.620	  -151.924	    52.395
-19729.949	    15.525	  -158.588	    48.274
-19570.041	    15.445	  -143.621	    37.577
-19719.041	    15.374	  -148.300	    31.781
-19928.191	    15.369	  -145.502	    32.460
-19511.842	    15.597	  -152.298	    34.089
-19478.221	    15.885	  -165.607	    60.965
-19664.188	    16.031	  -156.136	    41.597
-19637.748	    15.973	  -141.570	    45.429
-19633.109	    15.760	  -167.247	    52.271
-19820.857	    15.686	  -142.262	    34.323
-19609.592	    15.639	  -162.685	    50.505
-19771.473	    15.615	  -145.881	    42.615
-19695.074	    15.559	  -154.563	    33.270
-19530.094	    15.461	  -143.400	    32.114
-19708.789	    15.445	  -145.303	    48.649
-19669.539	    15.574	  -159.539	    43.790
-19717.836	    15.682	  -157.414	    31.035
-19345.648	    15.738	  -153.182	    30.240
-19739.125	    15.754	  -153.743	    45.512
-19459.250	    15.703	  -149.686	    46.553
-19808.137	    15.582	  -150.282	    22.340
-19640.490	    15.547	  -146.899	    37.403
-19845.799	    15.639	  -152.961	    30.814
-19518.340	    15.839	  -150.737	    28.920
-19609.164	    15.938	  -150.320	    31.453
-19444.029	    15.765	  -158.361	    48.646
-19656.938	    15.552	  -154.343	    21.779
-19852.816	    15.405	  -148.875	    30.519
-19742.801	    15.416	  -139.505	    22.255
-19691.930	    15.568	  -152.452	    34.710
-19671.016	    15.778	  -146.032	    28.129
-19543.307	    15.883	  -162.292	    45.398
-19802.691	    15.813	  -137.705	    40.334
-19655.307	    15.712	  -146.519	    50.593
-19618.820	    15.667	  -157.544	    45.173
-19700.133	    15.613	  -156.123	    24.078
-19508.639	    15.573	  -152.528	    17.276
-19598.625	    15.650	  -164.268	    32.381
-19629.963	    15.729	  -156.568	    21.851
-19495.641	    15.766	  -158.671	    48.092
-19749.684	    15.770	  -157.067	    37.349
-19711.611	    15.712	  -146.718	    14.648
-19738.334	    15.730	  -162.868	    47.168
-19629.965	    15.588	  -152.124	    23.185
-19947.938	    15.364	  -162.747	    42.072
-19575.236	    15.337	  -144.240	    28.661
-19967.102	    15.473	  -156.642	    20.086
-19694.256	    15.628	  -146.697	    41.329
-19566.693	    15.767	  -158.302	    52.219
-19597.016	    15.805	  -150.407	    29.510
-19672.100	    15.699	  -155.657	    34.798
-19446.543	    15.546	  -168.713	    24.701
-19797.859	    15.438	  -150.554	    26.959
-19453.613	    15.488	  -140.515	    17.964
-19568.865	    15.602	  -133.859	    26.656
-19568.355	    15.771	  -152.380	    25.572
-19553.842	    15.769	  -166.488	    24.249
-19562.533	    15.650	  -163.693	    38.323
-19531.191	    15.459	  -153.902	    32.100
-19547.172	    15.367	  -123.684	    38.681
-19586.611	    15.618	  -143.655	    37.153
-19323.969	    15.871	  -163.724	    35.615
-19675.771	    15.985	  -152.443	    34.862
-19519.088	    16.024	  -149.337	    -1.713
-19253.150	    16.057	  -157.324	    18.361
-19459.025	    15.928	  -146.549	    64.115
-19611.355	    15.719	  -150.203	    33.471
-19569.781	    15.678	  -154.033	    19.876
-19580.795	    15.813	  -168.681	    11.914
-19641.846	    15.950	  -172.293	    48.040
-19277.383	    15.979	  -173.948	     9.290
-19542.262	    15.784	  -155.733	    31.326
-19489.844	    15.579	  -150.973	    33.249
-19945.754	    15.397	  -150.381	     4.603
-19973.717	    15.235	  -153.197	    19.802
-19824.908	    15.266	  -153.820	    19.636
-19513.812	    15.406	  -143.207	     7.974
-19859.396	    15.646	  -160.739	    16.497
-19605.027	    15.968	  -156.135	    26.509
-19401.789	    16.142	  -150.231	     1.110
-19490.477	    16.088	  -146.159	    36.126
-19635.516	    15.960	  -165.671	    15.797
-19565.377	    15.787	  -170.510	    24.329
-19776.676	    15.574	  -136.501	    31.098
-19866.188	    15.380	  -167.403	    38.964
-19677.975	    15.288	  -153.632	    28.585
-19785.223	    15.189	  -157.746	    39.413
-19530.574	    15.318	  -162.026	    36.793
-19433.609	    15.578	  -157.786	    18.262
-19769.938	    15.749	  -154.612	    28.004
-19700.721	    15.742	  -150.625	    43.467
-19698.627	    15.616	  -170.573	    32.471
-19751.512	    15.628	  -155.972	    37.785
-19876.668	    15.693	  -133.755	    29.891
-19756.611	    15.715	  -137.763	    31.747
-19779.338	    15.621	  -146.502	    21.895
-19696.668	    15.466	  -154.688	    29.181
-19758.953	    15.386	  -138.321	    25.089
-19656.607	    15.435	  -157.704	    21.788
-19792.371	    15.462	  -165.506	    54.559
-19726.662	    15.587	  -140.887	    29.306
-19684.459	    15.841	  -143.773	    45.714
-19428.797	    16.022	  -147.893	    11.231
-19607.037	    15.997	  -151.527	    31.287
-19799.732	    15.837	  -158.794	    34.419
-19988.887	    15.640	  -141.087	    35.880
-19663.727	    15.487	  -132.944	    44.703
-19783.160	    15.482	  -153.699	    55.520
-19737.607	    15.594	  -148.357	    35.448
-19659.301	    15.884	  -159.940	    32.099
-19424.406	    16.271	  -153.394	    30.104
-19554.615	    16.457	  -156.691	    25.123
-19770.318	    16.318	  -154.547	    29.325
-19795.277	    15.942	  -149.279	    55.057
-19774.689	    15.556	  -160.126	    33.511
-19535.387	    15.319	  -147.090	    30.917
-19534.375	    15.439	  -157.899	    24.685
-19660.361	    15.719	  -169.744	    46.883
-19430.414	    15.932	  -160.696	    31.443
-19523.205	    15.962	  -147.769	    44.600
-19583.225	    15.773	  -146.161	    56.962
-19445.836	    15.632	  -166.729	    15.592
-19819.512	    15.533	  -160.556	    34.962
-20075.387	    15.458	  -145.116	    25.453
-19820.625	    15.465	  -151.609	    16.123
-19346.238	    15.567	  -160.132	    49.197
-19855.229	    15.703	  -139.146	    65.444
-19592.715	    15.872	  -159.731	    24.027
-19497.918	    15.874	  -172.099	    31.089
-19674.758	    15.782	  -149.408	    22.141
-19504.986	    15.595	  -147.550	    32.336
-19653.625	    15.476	  -141.275	    39.712
-19615.650	    15.449	  -154.986	    58.140
-19668.713	    15.469	  -163.734	    34.608
-19679.410	    15.578	  -135.193	    33.792
-19330.422	    15.680	  -143.095	    28.458
-19709.816	    15.623	  -157.744	    29.341
-19637.312	    15.642	  -147.595	    40.952
-19750.021	    15.833	  -150.931	    36.451
-19435.285	    15.902	  -165.728	    19.835
-19579.566	    15.883	  -146.366	    48.053
-19761.660	    15.889	  -164.989	    56.792
-19693.656	    15.849	  -144.499	    28.696
-19365.688	    15.737	  -145.747	    43.845
-19740.555	    15.623	  -152.437	    26.733
-19502.553	    15.549	  -155.593	    58.346
-19816.756	    15.437	  -148.602	    23.170
-19695.271	    15.432	  -148.544	    29.785
-19803.016	    15.478	  -153.165	    31.924
-19583.383	    15.628	  -156.409	    32.914
-19680.406	    15.837	  -155.848	    26.700
-19713.289	    16.027	  -147.961	    35.137
-19678.834	    16.064	  -160.813	    10.208
-19690.057	    15.904	  -150.410	    20.780
-19587.516	    15.692	  -163.543	    41.017
-19557.611	    15.559	  -146.845	    44.333
-19706.424	    15.546	  -158.256	    27.052
-19509.951	    15.587	  -158.561	    42.270
-19492.396	    15.687	  -151.092	    28.818
-19676.172	    15.762	  -153.266	    43.329
-19369.160	    15.707	  -145.961	    41.580
-19518.598	    15.631	  -157.833	    32.773
-19658.750	    15.586	  -150.324	    27.431
-19831.432	    15.500	  -150.042	    18.180
-19557.475	    15.487	  -151.427	    29.078
-19872.285	    15.509	  -159.157	    43.663
-19599.145	    15.701	  -163.215	    26.832
-19314.086	    15.862	  -149.210	    41.368
-19441.781	    15.715	  -164.020	    24.757
-19610.949	    15.533	  -145.806	    12.830
-19642.336	    15.522	  -164.993	    48.551
-19642.963	    15.574	  -151.987	    50.050
-19687.551	    15.709	  -158.831	    30.212
-19462.211	    15.903	  -163.713	    43.811
-19627.602	    16.010	  -151.668	    25.743
-19652.689	    15.837	  -146.116	    41.144
-19971.059	    15.585	  -148.223	    37.713
-19677.729	    15.533	  -153.179	    47.562
-19442.172	    15.570	  -146.302	    33.111
-19610.502	    15.645	  -161.711	    63.403
-19440.770	    15.701	  -161.773	    37.924
-19327.113	    15.778	  -154.305	    29.355
-19434.924	    15.864	  -163.214	    20.110
-19378.494	    15.923	  -142.953	    41.779
-19520.459	    15.930	  -156.727	    34.677
-19772.773	    15.759	  -156.195	    26.722
-19603.688	    15.677	  -151.072	    30.090
-19713.979	    15.740	  -154.325	    39.908
-19625.646	    15.882	  -156.985	    35.540
-19753.123	    15.982	  -151.984	    15.384
-19414.170	    16.078	  -148.844	    56.604
-19614.814	    16.138	  -148.006	    64.699
-19699.418	    16.045	  -147.723	    35.915
-19827.104	    15.876	  -155.346	    29.898
-19803.809	    15.703	  -148.310	    30.783
-19749.588	    15.624	  -151.833	    37.836
-19993.561	    15.543	  -153.074	    42.344
-19736.545	    15.504	  -160.019	    55.811
-19547.912	    15.527	  -146.474	    20.951
-19639.365	    15.648	  -153.831	    71.041
-19629.979	    15.675	  -161.371	    36.943
-19675.285	    15.693	  -160.577	    31.692
-19789.576	    15.657	  -143.030	    36.451
-19568.193	    15.644	  -147.618	    29.058
-19667.777	    15.496	  -151.273	    35.077
-19814.107	    15.345	  -136.984	    28.573
-19896.844	    15.351	  -146.024	    25.911
-19670.295	    15.405	  -158.492	    15.108
-19722.664	    15.522	  -147.684	    49.306
-19665.363	    15.674	  -150.186	    13.348
-19578.078	    15.663	  -152.594	    45.515
-19521.904	    15.656	  -167.520	    48.922
-19691.559	    15.565	  -155.519	    22.675
-19641.709	    15.386	  -142.968	    35.286
-19761.414	    15.326	  -151.203	    39.551
-19717.730	    15.431	  -153.951	    35.242
-19986.260	    15.621	  -147.724	    22.083
-19974.758	    15.778	  -161.734	    32.063
-19977.215	    15.869	  -150.686	    27.673
-19691.195	    15.872	  -155.025	    29.371
-19581.822	    15.747	  -152.809	    43.477
-19906.277	    15.587	  -161.166	    35.172
-19653.994	    15.491	  -163.858	    31.047
-19933.945	    15.377	  -157.855	    48.160
-19903.648	    15.317	  -153.068	    31.325
-19634.355	    15.392	  -143.151	    23.672
-19692.643	    15.446	  -155.596	    21.057
-19715.252	    15.565	  -148.185	    37.092
-19637.588	    15.686	  -149.795	    44.750
-19775.766	    15.776	  -155.748	    18.897
-19732.457	    15.728	  -151.223	    16.619
-19603.783	    15.614	  -154.638	    33.520
-19978.010	    15.443	  -153.810	    46.582
-19701.871	    15.343	  -163.830	    51.716
-19631.195	    15.360	  -137.294	    24.286
-19594.729	    15.435	  -159.448	    22.663
-19784.039	    15.443	  -151.650	    32.383
-19998.080	    15.427	  -166.307	    43.262
-19539.111	    15.534	  -141.344	    42.359
-19863.291	    15.822	  -151.235	    28.007
-19336.359	    16.137	  -151.564	    38.020
-19391.596	    16.349	  -142.889	    20.214
-19666.461	    16.279	  -159.627	    36.734
-19310.695	    16.009	  -139.459	     8.238
-19858.652	    15.566	  -157.641	    39.030
-19938.770	    15.187	  -147.306	    36.234
-19968.799	    14.988	  -147.522	    51.022
-19940.535	    15.156	  -150.470	    42.738
-19677.953	    15.492	  -152.571	    27.039
-19976.285	    15.714	  -146.592	    36.752
-19559.652	    15.927	  -145.615	    27.598
-19686.568	    15.974	  -149.307	    35.793
-19767.420	    15.830	  -155.025	    49.100
-19645.275	    15.554	  -138.074	    39.744
-19772.732	    15.324	  -136.605	    45.819
-19507.504	    15.215	  -147.320	    48.538
-19587.574	    15.236	  -150.918	    53.176
-19823.154	    15.379	  -151.218	    36.762
-19494.279	    15.589	  -153.966	    47.676
-19424.291	    15.780	  -159.398	    37.758
-19479.221	    15.905	  -159.746	    47.760
-19369.879	    15.843	  -147.035	    37.837
-19625.326	    15.716	  -159.118	    39.052
-19540.809	    15.598	  -142.022	    23.152
-19547.742	    15.571	  -150.686	    31.490
-19774.832	    15.575	  -158.608	    19.578
-19562.682	    15.788	  -143.904	    19.945
-19511.213	    15.852	  -156.015	    33.323
-19506.303	    15.797	  -153.024	    21.013
-19785.750	    15.606	  -158.178	    40.837
-19586.248	    15.431	  -154.745	    25.184
-19701.621	    15.319	  -152.785	    53.424
-19866.469	    15.307	  -142.717	    32.360
-20011.969	    15.308	  -159.248	    32.830
-19794.162	    15.333	  -142.146	    41.734
-19690.863	    15.496	  -144.157	    19.068
-19736.621	    15.778	  -145.348	    36.904
-19665.900	    15.903	  -150.527	    43.900
-19774.186	    15.862	  -144.914	    41.609
-19561.111	    15.842	  -150.407	    36.990
-19782.014	    15.836	  -155.451	    59.584
-19836.506	    15.757	  -144.617	    39.745
-19594.428	    15.617	  -140.853	    32.480
-19483.475	    15.494	  -149.146	    56.812
-19610.043	    15.307	  -134.414	    33.355
-19837.221	    15.193	  -158.896	    43.562
-19785.172	    15.349	  -147.708	    32.159
-19511.432	    15.611	  -152.570	    53.362
-19800.092	    15.704	  -152.343	    36.018
-19635.436	    15.749	  -148.498	    55.473
-19656.424	    15.696	  -153.581	    21.287
-19474.334	    15.658	  -161.249	    40.801
-19534.887	    15.700	  -138.452	    29.302
-19721.045	    15.663	  -155.644	    23.898
-19321.762	    15.668	  -151.941	    35.641
-19530.258	    15.727	  -154.012	    40.049
-19654.025	    15.785	  -161.101	    29.486
-19817.285	    15.715	  -158.268	    48.229
-19838.467	    15.584	  -160.368	    43.987
-19648.615	    15.574	  -159.803	    34.986
-19570.617	    15.714	  -147.193	    54.400
-19656.600	    15.863	  -157.907	    56.739
-19376.363	    15.974	  -149.320	    50.902
-19643.025	    15.858	  -148.657	    41.604
-19549.924	    15.554	  -145.296	    27.890
-19712.031	    15.367	  -169.133	    33.445
-19538.035	    15.418	  -144.805	    43.375
-19877.566	    15.517	  -144.105	    22.298
-19984.668	    15.605	  -142.196	    55.038
-19898.523	    15.706	  -145.895	    19.134
-19687.209	    15.945	  -147.602	    23.583
-19567.852	    16.125	  -152.221	    46.849
-19317.941	    16.295	  -158.768	    44.792
-19440.242	    16.309	  -153.768	    50.211
-19318.697	    16.148	  -155.728	    26.317
-19702.418	    15.902	  -148.050	    46.747
-19685.066	    15.644	  -157.914	    30.360
-19718.664	    15.532	  -157.517	    16.298
-19767.506	    15.350	  -161.023	    46.343
-19708.775	    15.392	  -151.019	    66.734
-19572.434	    15.637	  -147.838	    34.009
-19535.162	    15.843	  -150.780	    43.860
-19747.094	    15.984	  -162.800	    41.167
-19446.639	    16.031	  -159.664	    47.687
-19709.113	    15.850	  -141.808	    65.843
-19749.305	    15.667	  -162.373	    40.984
-19739.713	    15.603	  -144.321	    47.387
-19813.520	    15.479	  -135.886	    43.700
-19865.104	    15.367	  -153.539	    56.064
-19918.025	    15.309	  -162.816	    41.674
-19598.945	    15.460	  -152.941	    21.128
-19735.062	    15.689	  -147.631	    42.168
-19462.305	    15.903	  -160.579	    62.273
-19779.668	    15.929	  -153.180	    54.469
-19407.945	    15.750	  -156.422	    44.722
-19920.787	    15.631	  -152.282	    47.293
-19662.344	    15.628	  -167.851	    22.941
-19545.021	    15.723	  -145.616	    17.932
-19270.029	    15.808	  -151.690	    26.283
-19735.033	    15.768	  -158.398	    11.506
-19760.490	    15.580	  -142.866	    32.155
-19918.049	    15.391	  -144.714	    20.333
-19886.178	    15.337	  -153.518	    30.969
-19481.477	    15.414	  -151.853	    56.004
-19667.826	    15.507	  -137.723	    30.801
-19504.170	    15.555	  -136.909	    39.705
-19663.369	    15.524	  -148.405	    37.223
-19703.803	    15.545	  -140.940	    20.630
-19712.916	    15.607	  -147.021	    33.372
-19321.004	    15.651	  -168.461	    42.018
-19394.953	    15.679	  -141.896	    32.628
-19615.492	    15.687	  -150.788	    42.034
-19525.715	    15.749	  -158.911	    46.848
-19740.785	    15.735	  -152.494	    32.912
-19706.420	    15.554	  -144.682	    25.640
-19778.443	    15.349	  -151.884	    17.890
-19819.965	    15.266	  -138.284	    34.851
-19793.832	    15.383	  -148.050	    49.444
-19679.996	    15.609	  -154.263	    39.539
-19536.443	    15.897	  -158.751	    44.434
-19575.723	    15.978	  -154.605	    20.482
-19497.955	    15.983	  -165.379	    52.593
-19719.195	    15.845	  -145.516	    44.774
-19666.264	    15.690	  -140.178	    30.912
-19763.438	    15.599	  -143.984	    36.632
-19735.197	    15.601	  -154.750	    31.988
-19890.523	    15.616	  -165.077	    45.289
-19771.098	    15.601	  -161.399	    48.347
-19657.191	    15.635	  -160.176	    32.885
-19680.684	    15.583	  -160.488	    37.705
-19831.953	    15.608	  -155.869	    37.007
-19465.262	    15.651	  -166.309	    35.009
-19458.555	    15.625	  -143.491	    50.741
-19622.623	    15.538	  -148.351	    33.273
-19777.594	    15.500	  -146.648	    23.846
-19831.031	    15.416	  -162.705	    72.598
-19594.631	    15.469	  -150.602	    47.106
-19485.615	    15.654	  -143.481	    30.531
-19290.131	    15.860	  -151.453	    29.873
-19444.219	    15.987	  -144.269	    34.416
-19543.434	    15.976	  -161.576	    44.541
-19646.254	    15.792	  -161.443	    20.166
-19985.535	    15.585	  -150.771	    42.916
-19695.391	    15.400	  -156.612	    39.791
-19724.326	    15.210	  -143.553	    27.679
-19850.320	    15.162	  -163.007	    42.322
-19714.930	    15.291	  -145.465	    40.160
-19820.055	    15.621	  -154.428	    34.872
-19442.037	    15.856	  -154.953	    56.193
-19509.990	    16.024	  -166.635	    20.557
-19463.764	    15.984	  -130.540	    39.572
-19442.865	    15.779	  -148.780	    46.580
-19728.773	    15.595	  -161.578	    29.479
-19612.881	    15.521	  -163.283	    45.166
-19811.797	    15.482	  -158.731	    21.096
-19721.029	    15.447	  -159.777	    39.846
-19570.629	    15.439	  -145.763	    13.868
-19637.975	    15.500	  -153.113	    26.168
-19632.518	    15.514	  -157.262	    35.416
-19662.131	    15.369	  -156.424	    44.866
-19809.953	    15.290	  -151.824	    15.827
-19734.809	    15.320	  -152.396	    34.941
-19952.586	    15.588	  -162.127	    28.821
-19656.225	    15.871	  -150.039	    -2.822
-19714.000	    16.110	  -144.044	    30.026
-19438.316	    16.084	  -157.830	    23.161
-19828.980	    15.887	  -141.084	     7.581
-19797.012	    15.596	  -138.238	    34.793
-19833.227	    15.312	  -134.434	    55.103
-19671.846	    15.255	  -160.490	    48.861
-19380.846	    15.449	  -132.977	    42.434
-19409.713	    15.643	  -145.901	    35.823
-19807.143	    15.708	  -145.986	    42.365
-19640.023	    15.610	  -159.834	    43.100
-19581.332	    15.575	  -160.169	    51.522
-19680.836	    15.616	  -161.222	    55.680
-19762.285	    15.771	  -150.731	    24.211
-19556.908	    15.797	  -165.417	    21.461
-19595.641	    15.801	  -159.672	    34.525
-19270.256	    15.779	  -135.672	    36.981
-19205.330	    15.713	  -143.310	    33.322
-19582.172	    15.604	  -144.807	    24.745
-19769.182	    15.567	  -165.487	    37.983
-19428.555	    15.579	  -151.674	    33.464
-19634.172	    15.599	  -161.972	    28.281
-19783.861	    15.675	  -176.968	    40.330
-19735.203	    15.791	  -146.031	    21.300
-19971.066	    15.754	  -142.213	    12.313
-19597.441	    15.606	  -155.014	    20.261
-19597.996	    15.421	  -155.562	    23.646
-19791.758	    15.297	  -145.759	    16.894
-19762.889	    15.367	  -142.477	    16.544
-19669.117	    15.595	  -155.178	    20.613
-19391.008	    15.905	  -154.941	    19.647
-19455.846	    16.114	  -151.760	    43.289
-19238.820	    16.082	  -158.065	    22.747
-19370.848	    15.788	  -147.943	    40.085
-19655.221	    15.613	  -153.501	    24.263
-19636.951	    15.464	  -149.323	    38.327
-19809.787	    15.325	  -148.460	    25.727
-19817.422	    15.481	  -153.518	    44.600
-19769.625	    15.699	  -159.956	    31.950
-19587.256	    15.812	  -146.772	    25.378
-19484.258	    15.906	  -154.898	    38.772
-19546.090	    15.896	  -150.203	    46.318
-19765.721	    15.864	  -147.860	    29.080
-19808.391	    15.737	  -140.921	    46.567
-19724.898	    15.614	  -152.143	    37.314
-19924.203	    15.495	  -157.288	    49.567
-19643.543	    15.520	  -165.206	    43.002
-19747.592	    15.541	  -166.767	    36.759
-19604.949	    15.703	  -159.559	    44.705
-19635.123	    15.770	  -164.681	    50.989
-19746.479	    15.700	  -166.082	    21.171
-19564.045	    15.543	  -140.513	    17.392
-19564.162	    15.473	  -155.218	    39.249
-19564.332	    15.500	  -162.200	    64.401
-19611.268	    15.533	  -156.474	    29.637
-19811.566	    15.523	  -153.072	    40.339
-19712.516	    15.549	  -150.691	    42.221
-19618.426	    15.642	  -154.768	    52.749
-19676.547	    15.645	  -163.844	    27.014
-19888.471	    15.584	  -167.217	    55.448
-19820.666	    15.568	  -157.561	    48.635
-19444.021	    15.610	  -148.158	    16.791
-19524.932	    15.662	  -127.089	    46.185
-19512.520	    15.654	  -145.491	    56.853
-19796.242	    15.546	  -149.031	    26.339
-19709.266	    15.398	  -157.451	    36.152
-19712.887	    15.393	  -144.034	    14.121
-19767.752	    15.550	  -160.701	    33.289
-19722.029	    15.728	  -157.098	    54.495
-19494.566	    15.788	  -147.682	    51.613
-19523.410	    15.759	  -157.064	    35.819
-19527.465	    15.780	  -153.022	    25.622
-19422.305	    15.924	  -153.350	    35.957
-19420.846	    16.011	  -142.947	    29.121
-19517.133	    15.797	  -159.537	    38.179
-19580.141	    15.599	  -155.371	    40.146
-19777.592	    15.383	  -157.090	    50.030
-19866.240	    15.208	  -148.670	    34.965
-19761.773	    15.235	  -156.823	    41.725
-19610.873	    15.463	  -155.439	    50.635
-19429.754	    15.719	  -169.275	    25.594
-19725.588	    15.912	  -147.698	    36.417
-19625.686	    15.964	  -133.811	    29.312
-19616.686	    15.920	  -159.054	    42.742
-19606.551	    15.871	  -139.358	    38.915
-19616.033	    15.795	  -151.863	    34.014
-19821.812	    15.723	  -151.561	    40.231
-19760.953	    15.623	  -139.142	    17.279
-19706.602	    15.598	  -148.770	    36.580
-19810.574	    15.589	  -156.842	    28.790
-19611.855	    15.546	  -157.474	    24.871
-19477.938	    15.608	  -161.467	    55.491
-19583.492	    15.656	  -162.276	    37.408
-19529.896	    15.619	  -153.364	    34.287
-19381.996	    15.670	  -167.146	    30.755
-19474.910	    15.689	  -153.384	    11.065
-19714.891	    15.733	  -147.560	    25.103
-19458.678	    15.776	  -150.711	    39.244
-19470.918	    15.668	  -158.917	    35.637
-19572.055	    15.529	  -159.823	    34.601
-19493.221	    15.559	  -157.647	    52.976
-19755.641	    15.599	  -151.363	    22.918
-19778.996	    15.532	  -157.717	    26.698
-19663.816	    15.467	  -151.567	    41.185
-19842.568	    15.564	  -162.939	    31.904
-19641.533	    15.679	  -155.067	    20.025
-19601.037	    15.796	  -156.378	    24.721
-19606.473	    15.859	  -157.226	    23.821
-19806.404	    15.748	  -150.553	    32.620
-19607.160	    15.700	  -163.287	    39.776
-19674.344	    15.515	  -147.001	    45.654
-19791.445	    15.454	  -152.814	    30.807
-19659.873	    15.542	  -150.734	    26.969
-19619.449	    15.529	  -140.335	    34.904
-19798.230	    15.481	  -152.832	    32.586
-19381.658	    15.500	  -142.928	    29.830
-19716.752	    15.494	  -148.218	    17.258
-19791.945	    15.532	  -131.821	     8.969
-19433.291	    15.554	  -150.427	    40.575
-19434.576	    15.613	  -139.443	    33.868
-19736.354	    15.655	  -155.410	    36.490
-19746.205	    15.585	  -161.741	    37.597
-19545.260	    15.607	  -154.882	    32.341
-19570.512	    15.665	  -146.331	    39.147
-19451.928	    15.619	  -166.078	    18.222
-19844.551	    15.591	  -161.635	    19.316
-19501.051	    15.612	  -144.652	    21.001
-19638.328	    15.564	  -153.832	    32.295
-19562.621	    15.545	  -148.355	    42.216
-19680.146	    15.567	  -153.086	    50.945
-19568.264	    15.594	  -155.005	    45.141
-19482.396	    15.671	  -156.801	    51.136
-19565.258	    15.727	  -161.927	    32.082
-19559.590	    15.724	  -147.582	    59.785
-19415.031	    15.629	  -144.761	    44.453
-19729.479	    15.401	  -155.425	    39.661
-19785.592	    15.292	  -148.884	    35.111
-19766.852	    15.413	  -158.386	    36.260
-19779.293	    15.679	  -155.244	    -7.970
-19545.701	    15.793	  -135.715	    15.274
-19392.125	    15.769	  -143.393	    24.240
-19622.637	    15.711	  -151.759	    37.688
-19600.213	    15.733	  -148.609	    36.070
-19800.461	    15.673	  -156.375	    24.827
-19795.277	    15.573	  -148.421	    41.578
-19800.170	    15.670	  -162.096	    34.880
-19682.035	    15.719	  -152.727	    23.202
-19649.604	    15.662	  -146.342	    23.181
-19935.742	    15.618	  -136.864	    35.260
-19705.129	    15.603	  -173.769	    46.974
-19881.791	    15.701	  -153.760	    13.633
-19714.631	    15.814	  -153.644	    37.223
-19821.086	    15.737	  -142.319	    34.148
-19794.424	    15.611	  -150.735	    35.507
-19809.084	    15.639	  -150.381	    48.803
-19471.082	    15.728	  -144.376	    27.193
-19624.045	    15.660	  -158.917	    25.087
-19583.611	    15.574	  -144.164	    29.399
-19696.895	    15.503	  -139.323	    32.071
-19512.887	    15.666	  -142.899	    41.004
-19418.377	    15.747	  -151.555	    34.389
-19767.648	    15.682	  -147.769	    46.013
-19554.361	    15.647	  -158.693	    42.455
-19462.133	    15.686	  -148.619	    18.756
-19663.363	    15.652	  -150.356	    36.473
-19589.629	    15.570	  -152.010	    16.381
-19569.654	    15.692	  -148.637	    25.015
-19369.408	    15.826	  -154.059	    48.147
-19579.484	    15.980	  -157.821	    28.022
-19419.242	    15.966	  -155.224	    45.009
-19601.818	    15.798	  -162.511	    33.083
-19576.529	    15.679	  -133.322	    36.269
-19536.105	    15.611	  -145.043	    41.141
-19462.406	    15.607	  -158.332	    35.196
-19700.516	    15.648	  -145.097	    44.478
