-20010.490	    15.334	   -92.310	   122.143
-19907.977	    15.409	  -145.583	    90.039
-20153.936	    15.506	  -163.574	    89.812
-20099.832	    15.503	  -164.505	   110.642
-20131.301	    15.489	  -160.506	   120.023
-19905.314	    15.570	  -155.000	   117.096
-19992.742	    15.522	  -170.352	   100.759
-19872.896	    15.499	  -166.630	    99.397
-19753.990	    15.486	  -165.728	   124.892
-19823.975	    15.577	  -167.686	   108.618
-19949.648	    15.652	  -172.676	   105.630
-20144.455	    15.681	  -165.818	   104.488
-20056.332	    15.642	  -160.299	   111.830
-19963.805	    15.537	  -163.895	   107.756
-19902.678	    15.466	   177.528	   125.273
-20189.824	    15.332	  -167.695	    93.937
-19910.752	    15.128	  -157.016	   132.528
-20161.230	    14.949	  -168.454	   119.747
-19900.859	    14.991	  -160.432	   114.611
-20024.307	    15.209	   175.350	   101.222
-19854.045	    15.510	  -172.478	    84.657
-19819.904	    15.779	  -169.736	   133.938
-19660.734	    15.951	  -174.696	   111.166
-19661.834	    15.898	  -174.870	   140.911
-20052.943	    15.609	  -175.581	   115.644
-19709.062	    15.279	  -162.385	   105.347
-20235.023	    15.203	   170.314	   135.518
-19985.434	    15.446	  -170.102	   116.928
-19908.451	    15.684	  -175.575	   135.831
-19832.723	    15.769	  -150.950	   138.356
-19965.885	    15.677	  -162.258	   102.858
-19891.996	    15.498	  -158.955	   119.100
-19914.510	    15.412	  -154.309	   139.090
-19890.615	    15.469	  -159.584	   114.868
-20125.693	    15.595	   178.254	    91.667
-19836.326	    15.758	  -173.472	   125.242
-19922.512	    15.846	  -169.071	   148.616
-19730.965	    15.839	  -162.417	   128.791
-19909.404	    15.785	  -161.574	   108.656
-19881.334	    15.615	  -175.726	   116.846
-19903.184	    15.479	  -168.277	   115.112
-19847.781	    15.454	  -166.635	   125.171
-19932.133	    15.478	  -178.369	   117.481
-20001.588	    15.518	  -158.693	    98.178
-19867.000	    15.574	  -150.560	    90.753
-19650.551	    15.590	  -163.560	   121.686
-19904.291	    15.554	   177.715	    95.016
-19901.973	    15.520	   170.245	   124.950
-19784.461	    15.524	  -163.875	   128.571
-19793.807	    15.513	  -171.738	   119.908
-19938.145	    15.490	  -177.312	   125.344
-19734.244	    15.546	  -159.302	   107.158
-19956.838	    15.672	  -171.585	   112.610
-20032.523	    15.621	   174.895	   111.959
-19682.387	    15.484	  -165.274	   115.627
-19892.744	    15.391	  -171.078	   112.738
-20038.520	    15.405	  -157.145	   104.779
-20054.686	    15.498	  -160.777	   102.649
-19717.752	    15.654	   178.553	   101.740
-19704.664	    15.778	  -176.319	   123.058
-20015.379	    15.782	  -162.600	   109.817
-19841.369	    15.817	  -171.650	   116.027
-19898.184	    15.788	  -168.945	   104.943
-19442.004	    15.766	  -174.929	   117.349
-19748.752	    15.618	  -172.521	   121.113
-20016.348	    15.374	  -155.023	   139.285
-19983.287	    15.200	  -166.423	   101.303
-19821.584	    15.139	  -158.068	   111.262
-19972.311	    15.230	   173.687	    62.747
-19823.104	    15.328	  -156.172	   111.108
-20070.182	    15.346	  -160.144	   128.872
-19707.434	    15.488	  -157.182	   101.518
-19772.816	    15.677	  -162.640	   116.474
-19813.086	    15.826	  -165.765	   104.105
-19665.090	    15.834	   169.574	   114.694
-19721.971	    15.630	  -159.770	    94.256
-19846.781	    15.419	  -163.769	    77.664
-19847.689	    15.370	   178.051	   129.004
-19912.840	    15.521	  -164.494	    89.821
-20083.947	    15.573	  -164.120	   121.149
-19847.014	    15.470	  -151.878	   126.820
-20000.641	    15.450	  -162.274	   129.925
-20013.125	    15.481	  -165.554	   112.416
-20013.842	    15.537	  -171.714	   104.606
-20067.645	    15.569	  -167.832	    97.417
-20125.400	    15.539	  -161.496	   115.387
-19824.064	    15.605	  -162.193	    76.117
-19997.205	    15.698	  -174.400	    96.919
-19953.951	    15.764	  -156.589	    95.290
-19942.020	    15.660	  -176.265	   100.193
-19921.494	    15.502	  -161.496	    85.884
-19822.592	    15.448	  -176.511	   101.826
-20031.494	    15.423	  -156.727	   123.759
-19881.178	    15.424	  -176.488	   122.391
-19861.797	    15.470	  -163.311	   107.276
-19904.314	    15.515	  -169.586	   128.380
-20092.492	    15.559	  -175.934	   117.120
-19823.277	    15.797	  -170.548	   134.365
-20050.549	    15.863	  -154.540	   117.813
-20083.385	    15.785	  -170.376	    96.975
-20146.465	    15.638	  -155.774	   105.565
-20203.449	    15.478	  -167.554	   115.501
-20059.895	    15.379	  -172.732	   110.958
-19968.809	    15.423	  -159.804	   123.681
-19880.217	    15.504	  -154.963	    95.564
-19658.197	    15.536	  -157.361	   103.581
-19744.367	    15.611	  -151.240	    90.986
-19961.420	    15.670	  -172.584	   112.758
-19913.748	    15.700	  -167.598	   104.485
-19861.615	    15.648	  -164.107	    82.855
-20089.758	    15.695	  -164.809	   111.400
-19825.926	    15.694	  -159.284	   102.790
-20024.820	    15.662	  -170.692	   108.944
-19749.576	    15.709	  -167.165	   117.424
-19721.375	    15.804	  -169.700	    93.324
-19508.311	    15.849	  -165.621	   136.253
-19592.441	    15.777	   179.312	   102.851
-20132.066	    15.559	  -160.233	   123.265
-19977.107	    15.365	  -166.416	   111.229
-19977.404	    15.342	  -169.384	   101.892
-20012.430	    15.382	  -164.761	   119.394
-19788.184	    15.592	  -169.322	   141.442
-19855.076	    15.719	  -175.392	   113.921
-20094.902	    15.718	  -154.518	   120.049
-20070.559	    15.604	  -158.652	   120.899
-19885.402	    15.361	  -173.274	   101.407
-19794.297	    15.227	  -164.355	   114.706
-20272.586	    15.107	  -158.657	   119.992
-20000.625	    15.264	  -157.537	   127.697
-19908.125	    15.561	  -165.498	   132.322
-19906.850	    15.764	  -155.850	    96.436
-19601.045	    15.861	  -157.929	   106.353
-19496.756	    15.748	  -153.286	   120.437
-19923.264	    15.566	  -169.020	   103.156
-19970.000	    15.373	  -172.106	   125.117
-20140.996	    15.232	  -174.158	   110.988
-19981.336	    15.295	  -160.777	   101.603
-20139.854	    15.451	  -171.321	   110.343
-19995.906	    15.566	  -153.885	   125.034
-19724.166	    15.687	  -159.264	   127.012
-20027.764	    15.652	  -165.762	   125.178
-20072.775	    15.509	  -157.764	   130.779
-20027.703	    15.486	  -169.881	   121.249
-20065.344	    15.581	  -168.175	   107.785
-19854.162	    15.662	  -177.576	   118.726
-19992.635	    15.627	  -166.450	   123.081
-19759.352	    15.495	  -177.816	   108.222
-19999.666	    15.320	  -168.015	   126.315
-20115.170	    15.347	  -166.824	   113.494
-19958.744	    15.464	  -170.205	   141.734
-19795.219	    15.605	  -160.294	   133.845
-19690.598	    15.592	  -167.465	   141.824
-20006.127	    15.521	  -176.578	   119.874
-19952.979	    15.508	  -163.437	   124.293
-19651.625	    15.499	  -175.674	   113.380
-20080.299	    15.490	  -170.714	   113.976
-19966.121	    15.466	  -156.690	    93.765
-19913.400	    15.388	  -168.314	   107.079
-19877.146	    15.333	  -166.521	   114.237
-20383.131	    15.361	  -161.851	   112.804
-20109.518	    15.488	  -163.917	   123.153
-19724.459	    15.646	  -154.771	   121.492
-19754.674	    15.704	  -163.163	   117.026
-19475.869	    15.726	  -161.367	    94.012
-19737.656	    15.503	  -173.880	    93.178
-20090.033	    15.171	  -172.142	    94.462
-20116.918	    15.084	  -165.268	    99.182
-20163.080	    15.265	  -154.210	   106.076
-19956.291	    15.522	  -166.626	   140.712
-20019.369	    15.806	  -163.273	   105.480
-19671.303	    16.026	  -169.038	    97.637
-19785.467	    15.960	  -144.900	   113.400
-19858.197	    15.735	  -168.579	    98.496
-19935.426	    15.569	   179.602	   129.914
-19839.639	    15.480	  -176.983	   122.595
-19709.900	    15.515	  -172.457	   126.763
-19756.949	    15.644	   179.740	   132.614
-19917.963	    15.641	  -154.684	    99.162
-20008.973	    15.507	  -166.972	   108.152
-19866.957	    15.383	  -172.388	   136.954
-19918.963	    15.329	  -159.157	   123.372
-19950.639	    15.455	  -159.599	   135.408
-20076.482	    15.672	  -160.421	   116.390
-19585.504	    15.745	  -172.751	   108.969
-19821.484	    15.691	  -162.314	   113.647
-19685.676	    15.602	  -170.619	   117.333
-19958.986	    15.325	  -170.783	   129.455
-20005.539	    15.180	  -163.059	   119.985
-20090.643	    15.176	  -173.439	   119.761
-19797.047	    15.359	  -169.047	   115.908
-19892.482	    15.571	  -176.076	   115.177
-19903.490	    15.716	  -173.271	   126.335
-19703.828	    15.737	  -176.869	   132.278
-19713.820	    15.665	   175.898	    88.574
-20022.666	    15.517	  -172.595	    90.938
-20109.965	    15.404	  -167.993	   125.396
-20164.021	    15.313	  -176.408	   117.972
-20134.740	    15.245	  -161.640	   132.276
-19998.863	    15.320	  -167.561	   121.107
-19987.248	    15.498	  -166.282	   114.274
-20083.768	    15.617	  -158.565	   131.052
-19880.625	    15.705	  -170.358	   124.492
-19775.701	    15.743	  -175.983	   100.454
-19815.131	    15.670	  -168.587	    99.759
-19811.033	    15.480	  -170.915	   118.342
-20116.598	    15.247	  -172.502	   109.379
-19903.682	    15.152	  -161.350	   110.431
-20011.004	    15.180	  -168.336	   102.027
-19789.305	    15.406	  -168.820	   138.542
-19719.564	    15.542	  -166.743	    95.022
-19774.014	    15.584	  -154.924	    92.284
-20163.625	    15.526	  -170.611	    95.227
-19801.504	    15.560	  -164.006	   134.283
-19852.219	    15.758	  -178.437	    99.072
-19621.389	    15.959	  -170.362	   109.153
-19913.139	    16.018	  -150.779	   138.898
-20073.502	    15.987	  -158.260	   125.284
-20012.143	    15.868	  -173.392	    92.640
-20045.207	    15.714	  -163.234	   102.370
-19917.486	    15.555	  -175.573	   115.513
-19882.662	    15.428	  -155.658	    99.888
-20178.000	    15.392	   176.408	   100.722
-20131.410	    15.428	  -156.778	    85.704
-19925.910	    15.433	  -155.511	   105.577
-19964.926	    15.434	  -160.915	   122.768
-19928.693	    15.407	  -144.411	   139.152
-19989.396	    15.382	  -151.965	   126.536
-20283.189	    15.388	  -165.149	   111.412
-20081.281	    15.380	  -171.617	   114.369
-19905.943	    15.445	  -171.909	   120.260
-20046.592	    15.582	  -170.299	   112.483
-19911.625	    15.745	  -162.030	   128.105
-19679.643	    15.886	  -172.260	   103.625
-19735.416	    15.871	  -153.566	   117.590
-19787.326	    15.737	  -169.503	    89.489
-19843.996	    15.572	  -171.020	    97.378
-19663.154	    15.542	  -157.650	   123.825
-19731.922	    15.569	  -144.341	   111.089
-19663.166	    15.613	  -165.239	   106.764
-19902.141	    15.428	  -167.064	   119.771
-19918.400	    15.255	  -166.656	   126.769
-20146.488	    15.352	  -167.874	   105.221
-20046.129	    15.574	  -164.194	    88.765
-20119.246	    15.598	  -168.015	   126.890
-19854.830	    15.476	  -161.590	   111.494
-20108.105	    15.427	  -153.885	   108.747
-20133.068	    15.411	  -154.808	   135.301
-19917.217	    15.380	  -169.613	   153.448
-19974.842	    15.490	  -160.619	   126.874
-19838.074	    15.560	  -173.246	   104.852
-19797.365	    15.600	  -156.862	   132.109
-19952.596	    15.468	  -164.277	   129.180
-19903.545	    15.411	  -164.324	   111.936
-20073.506	    15.371	  -174.877	   111.573
-20004.615	    15.426	  -164.271	   130.896
-19929.924	    15.591	  -157.261	   101.641
-19901.486	    15.731	  -169.707	   123.180
-19714.006	    15.760	  -175.648	    86.148
-19867.934	    15.650	  -162.813	   110.330
-20060.100	    15.421	   179.974	    94.628
-19743.734	    15.331	  -172.973	    78.768
-20254.977	    15.346	  -177.945	    90.859
-20032.463	    15.473	  -168.975	    96.682
-19818.609	    15.796	  -165.263	   100.748
-19926.012	    16.044	  -161.290	   105.503
-19467.814	    16.156	  -147.689	   110.702
-19721.400	    15.978	  -169.268	   107.639
-19694.357	    15.576	  -159.611	    92.107
-19908.480	    15.315	  -175.747	    98.545
-19827.037	    15.318	  -171.896	    84.479
-19886.984	    15.421	  -155.071	   104.165
-20172.953	    15.612	  -169.813	   128.189
-19877.303	    15.689	  -165.601	   116.443
-19742.424	    15.629	  -166.944	   118.481
-20035.814	    15.466	  -175.422	   130.848
-19970.219	    15.380	  -163.304	    98.134
-19982.166	    15.310	  -167.235	   122.503
-19952.551	    15.411	  -163.038	   116.813
-20032.963	    15.506	  -170.739	   127.462
-20038.789	    15.601	   173.784	   129.226
-19901.043	    15.661	  -155.774	   114.040
-19873.963	    15.661	  -168.356	   119.967
-19636.830	    15.606	  -169.580	   115.421
-19905.117	    15.437	  -145.425	    97.061
-19905.926	    15.260	   177.083	    94.990
-19947.967	    15.189	  -172.004	   116.102
-19900.914	    15.314	  -154.421	   117.436
-19896.002	    15.604	  -160.603	   126.687
-19693.820	    15.898	  -173.436	   100.106
-19715.748	    15.883	  -163.279	   112.761
-20089.754	    15.552	  -171.658	   122.328
-19930.625	    15.214	  -159.347	   109.233
-20008.488	    15.028	   176.751	   102.443
-19962.631	    14.988	  -169.171	   124.154
-20164.830	    15.110	  -176.239	   112.976
-20033.715	    15.273	  -168.893	   123.877
-20019.660	    15.578	  -154.060	   122.834
-20139.967	    15.751	  -173.813	    98.558
-19779.791	    15.738	   174.678	   125.299
-19948.863	    15.593	  -159.411	    84.347
-19898.521	    15.429	   176.572	   102.445
-19951.473	    15.284	  -176.575	   125.265
-20199.002	    15.306	  -172.287	   115.622
-20140.744	    15.525	  -167.734	   130.930
-19858.566	    15.771	  -169.050	   106.675
-19819.389	    15.882	  -171.125	    78.455
-19815.662	    15.821	  -174.141	   125.203
-19982.619	    15.606	  -167.243	   112.687
-19988.436	    15.389	  -170.140	   108.901
-20059.537	    15.311	  -164.227	   107.098
-20030.100	    15.389	  -168.052	   145.322
-19844.668	    15.497	  -178.128	   125.598
-20146.516	    15.650	   176.568	   119.184
-19712.498	    15.771	  -151.373	   121.974
-19620.873	    15.768	  -154.934	   113.412
-19771.377	    15.906	  -164.372	   107.623
-19707.387	    15.980	  -171.130	   113.795
-19748.961	    15.952	  -153.950	   113.752
-19931.715	    15.868	  -177.311	   124.781
-20009.408	    15.806	  -153.633	   127.670
-20038.549	    15.598	  -158.460	   115.772
-19980.361	    15.425	  -176.219	   126.032
-19736.584	    15.406	  -162.678	   142.064
-20098.791	    15.424	  -169.612	   128.317
-20041.580	    15.522	  -153.439	   107.072
-19963.061	    15.565	  -170.770	   113.965
-19848.137	    15.594	  -163.135	   117.541
-19658.445	    15.589	  -164.909	    85.084
-19954.832	    15.543	  -164.746	   128.265
-19950.553	    15.454	  -156.130	   107.238
-19914.459	    15.455	  -172.558	   115.659
-19723.113	    15.492	   178.037	    91.876
-19788.043	    15.501	  -173.753	   116.477
-20096.162	    15.594	  -164.050	   129.733
-19775.545	    15.659	   171.323	   103.565
-19986.039	    15.564	  -170.797	   116.086
-20062.568	    15.356	  -171.841	   103.817
-20064.340	    15.239	  -170.241	   103.454
-20119.623	    15.350	  -170.455	   117.170
-19630.004	    15.633	  -176.801	   107.775
-19589.988	    15.832	  -166.633	   113.235
-19794.842	    15.763	  -170.325	   123.548
-19934.770	    15.566	  -169.537	   129.531
-19929.785	    15.326	  -168.382	   112.929
-19967.127	    15.295	  -163.097	   126.861
-19944.809	    15.541	  -175.416	   119.653
-19915.916	    15.783	  -161.974	   125.340
-19901.654	    15.803	  -159.051	   139.569
-19877.209	    15.626	  -156.574	   107.743
-19750.787	    15.395	  -169.814	   108.465
-20062.994	    15.350	  -171.333	    96.196
-20069.488	    15.319	  -151.765	    99.624
-20098.693	    15.361	  -164.165	   107.303
-20044.361	    15.501	  -162.850	    94.882
-19909.674	    15.584	  -171.654	   107.262
-19830.234	    15.724	  -160.313	    97.407
-19897.271	    15.915	  -168.696	    88.894
-19772.234	    15.991	  -163.586	   110.823
-19752.262	    15.977	  -175.268	   133.351
-20002.293	    15.768	  -172.379	   118.434
-19994.316	    15.576	  -161.988	   110.196
-19912.385	    15.370	  -159.084	   109.234
-20083.684	    15.222	  -161.111	   114.559
-20125.064	    15.311	  -148.364	    95.038
-20304.363	    15.442	  -173.129	   111.938
-19937.340	    15.450	  -166.694	   126.133
-19982.512	    15.451	  -176.132	   111.669
-20047.576	    15.593	  -162.454	   107.051
-19842.004	    15.691	  -160.711	   113.621
-19773.156	    15.639	  -165.763	    83.731
-19907.996	    15.481	  -172.892	   102.866
-20218.770	    15.411	  -167.910	   113.602
-20091.621	    15.471	  -172.160	   111.045
-19832.652	    15.613	  -175.796	   130.648
-19719.195	    15.722	   179.924	   104.038
-19833.664	    15.886	  -169.847	   124.024
-19773.234	    15.965	  -171.134	   101.884
-19956.764	    15.794	  -174.626	   118.929
-19677.967	    15.587	  -157.171	   104.143
-20081.160	    15.381	  -160.724	    93.001
-20075.496	    15.259	  -164.613	   116.542
-19901.012	    15.269	  -164.503	    99.064
-19760.123	    15.376	  -152.133	   129.167
-19961.262	    15.540	  -167.363	    89.918
-19895.418	    15.689	  -163.839	   107.399
-19938.904	    15.684	  -163.238	   101.753
-20007.275	    15.538	  -150.931	   111.440
-20084.457	    15.330	  -165.195	    98.710
-20100.438	    15.361	  -159.279	   126.177
-19627.508	    15.699	  -166.751	   125.526
-19825.152	    15.892	  -155.767	    88.322
-19674.916	    15.881	  -170.086	   115.533
-19961.158	    15.720	  -157.434	   132.569
-19808.592	    15.542	  -177.232	   106.508
-20083.756	    15.319	  -171.873	   139.530
-20180.781	    15.207	  -158.031	   119.747
-20044.457	    15.243	  -178.749	   122.040
-19845.713	    15.432	  -157.779	   129.387
-19643.621	    15.591	  -169.711	   116.999
-19791.697	    15.744	  -163.756	    75.273
-20025.020	    15.900	  -178.516	    98.742
-19943.297	    15.770	  -177.144	   121.349
-20236.053	    15.452	   171.953	   122.265
-20201.783	    15.148	  -161.503	   121.534
-20177.514	    15.001	  -177.581	   105.737
-20142.479	    15.205	  -164.208	    88.532
-19604.449	    15.409	  -173.889	   119.039
-19681.051	    15.565	  -172.705	    93.824
-19918.611	    15.680	   168.774	    96.988
-19879.623	    15.624	  -169.846	    88.756
-19633.371	    15.506	  -168.798	   120.983
-19700.441	    15.452	  -174.647	   106.713
-19892.777	    15.518	  -152.190	   103.227
-19966.123	    15.641	  -162.710	   118.738
-19915.271	    15.642	  -159.253	   130.799
-19936.869	    15.549	   178.019	   130.999
-19744.496	    15.411	  -172.935	   122.727
-19708.539	    15.334	  -150.671	   108.699
-19922.305	    15.419	  -165.431	   110.314
-19909.066	    15.611	  -167.834	   141.074
-19763.695	    15.753	  -155.080	    81.612
-19701.961	    15.772	  -177.497	   134.001
-19975.393	    15.597	  -165.168	   115.843
-20109.936	    15.502	  -177.707	   133.251
-19866.303	    15.637	  -159.067	   120.747
-19644.510	    15.694	  -172.506	   111.870
-19995.479	    15.612	   176.866	   113.905
-20152.795	    15.435	  -172.373	   116.450
-19944.430	    15.363	   179.526	   114.739
-19716.396	    15.453	  -157.373	   108.557
-19974.826	    15.563	  -157.996	   119.343
-19748.176	    15.682	  -162.197	    96.810
-19988.631	    15.725	  -170.021	    90.788
-19981.762	    15.687	  -172.402	   106.561
-20014.359	    15.674	  -169.368	    88.958
-19685.869	    15.619	  -167.412	   114.100
-19928.434	    15.398	  -157.013	   114.237
-20095.576	    15.234	  -154.949	    98.284
-19846.273	    15.200	  -152.959	   101.172
-19968.908	    15.233	  -160.996	    96.415
-20214.545	    15.356	  -161.093	   124.605
-19875.037	    15.575	  -172.822	    98.484
-19730.916	    15.803	  -166.607	   109.902
-19714.627	    15.878	  -162.900	   122.858
-19940.867	    15.832	  -176.579	   115.782
-19525.254	    15.719	  -161.056	   113.581
-20108.455	    15.580	  -178.921	   121.054
-19766.855	    15.464	  -152.827	   114.197
-19919.596	    15.343	  -147.668	   112.918
-19861.297	    15.436	  -174.218	   107.571
-19605.414	    15.755	  -171.955	   111.670
-19465.695	    15.797	  -168.588	   117.844
-19734.461	    15.663	  -160.216	    95.043
-19561.852	    15.575	  -158.514	   112.101
-19870.855	    15.519	  -167.260	   124.146
-19891.109	    15.581	  -169.126	   125.717
-19866.777	    15.576	  -174.996	   116.810
-19874.537	    15.545	  -163.421	   120.743
-19517.236	    15.571	  -178.886	    99.556
-19668.455	    15.496	   176.191	    95.229
-20052.051	    15.466	  -157.319	   112.720
-19908.400	    15.426	  -165.158	   139.389
-20108.689	    15.388	  -163.369	   133.659
-19808.502	    15.363	  -152.858	   123.089
-19959.527	    15.347	  -166.949	   101.798
-19741.414	    15.317	  -151.009	   105.871
-20032.117	    15.428	  -153.785	   100.058
-20155.297	    15.545	  -158.065	   111.941
-19877.258	    15.725	  -163.952	   107.453
-19931.154	    15.815	  -167.764	    80.819
-19800.248	    15.670	  -165.703	   110.989
-19688.078	    15.518	   175.980	   102.295
-19938.893	    15.414	  -162.768	   100.244
-19674.330	    15.302	  -156.025	    92.483
-20058.805	    15.267	  -166.010	   118.703
-19829.988	    15.376	  -162.142	   133.367
-19833.848	    15.563	  -156.694	   129.555
-20038.990	    15.575	  -161.182	   121.303
-19865.615	    15.642	   179.094	   124.597
-19739.465	    15.718	  -171.330	    96.505
-19787.846	    15.712	  -177.655	   110.158
-19831.125	    15.505	  -157.743	    96.611
-19919.635	    15.124	   178.863	   115.916
-20330.062	    14.961	  -162.057	   120.977
-20112.295	    15.085	  -167.714	   120.515
-20011.719	    15.415	  -165.817	   118.977
-19711.090	    15.642	  -167.233	   103.746
-20052.377	    15.677	   179.836	   101.603
-19711.648	    15.602	  -176.441	   143.968
-19826.203	    15.470	  -170.592	   125.109
-19685.740	    15.406	  -160.149	   128.604
-19753.238	    15.430	   177.249	   112.959
-19799.963	    15.464	  -163.712	   118.141
-19877.889	    15.445	  -178.583	   113.739
-19797.658	    15.294	  -164.038	   103.879
-20084.191	    15.230	  -172.741	   110.381
-20036.369	    15.269	   179.552	   125.378
-19911.711	    15.409	  -157.930	   109.730
-19774.242	    15.628	  -161.536	   113.374
-19932.551	    15.834	   179.980	   121.323
-19737.797	    15.901	  -175.059	   104.487
-19720.334	    15.793	  -167.197	   140.388
-19868.107	    15.583	  -167.852	   128.436
-20017.305	    15.234	  -171.268	   104.969
-20284.418	    15.067	  -163.509	   104.674
-20106.299	    15.185	  -163.738	   130.075
-20202.184	    15.402	  -174.490	   107.074
-19908.082	    15.626	  -172.877	   118.753
-19834.508	    15.724	  -167.775	   104.540
-19946.004	    15.668	  -171.210	   121.652
-19885.646	    15.551	  -153.663	   105.330
-20168.010	    15.359	  -167.103	   110.365
-20033.785	    15.310	  -161.585	   120.203
-20036.182	    15.392	  -172.801	   106.675
-20065.502	    15.621	   179.385	   122.296
-20061.096	    15.696	   166.071	   137.053
-19834.281	    15.677	  -169.469	   131.287
-19679.326	    15.605	  -172.743	   116.575
-19729.174	    15.534	  -160.538	   107.560
-20018.236	    15.571	  -167.501	    97.778
-19896.266	    15.623	  -174.574	   137.912
-19860.365	    15.552	  -157.399	   102.560
-19733.875	    15.445	  -173.113	   116.789
-20067.684	    15.356	  -163.322	   130.251
-20047.303	    15.318	  -159.703	   129.254
-20008.232	    15.420	  -155.553	   113.537
-19699.992	    15.474	  -165.664	   119.939
-19867.604	    15.590	  -179.111	   128.506
-19880.805	    15.778	  -172.200	   129.255
-19736.201	    15.821	  -171.546	   140.919
-19624.939	    15.595	  -179.097	   125.956
-19944.621	    15.347	  -169.705	   130.298
-19985.180	    15.252	  -177.012	   101.324
-20259.084	    15.229	  -173.258	    95.024
-20035.148	    15.427	  -162.677	   122.807
-19929.998	    15.530	  -167.617	   144.878
-20005.123	    15.510	  -165.782	   107.798
-19893.031	    15.485	  -162.473	   101.303
-20016.805	    15.589	  -170.690	   123.721
-19692.582	    15.848	  -155.106	   122.106
-19922.969	    15.858	  -150.143	   112.894
-19661.947	    15.663	   178.568	   108.465
-19855.635	    15.402	  -166.948	    87.045
-19943.420	    15.217	  -154.665	   127.552
-19988.104	    15.168	  -167.464	   112.445
-20082.564	    15.161	  -164.901	   109.062
-19708.725	    15.268	  -157.248	   126.289
-19972.855	    15.371	  -167.170	   104.832
-19933.266	    15.417	  -169.660	   101.246
-19729.611	    15.567	  -164.704	    93.978
-19654.531	    15.633	  -163.128	   104.714
-19636.117	    15.557	  -158.147	   103.089
-20047.203	    15.349	  -158.012	   107.292
-20112.527	    15.135	  -175.495	   107.351
-20255.176	    15.106	  -165.612	   111.273
-19988.977	    15.185	  -156.054	   117.585
-19940.908	    15.380	  -161.445	    90.265
-19867.859	    15.572	  -156.049	   111.081
-19808.945	    15.860	  -153.385	    84.008
-19649.506	    16.022	  -168.932	    89.631
-19684.557	    15.905	  -167.229	   106.030
-19851.025	    15.605	  -170.526	   118.041
-19806.084	    15.351	  -166.240	    88.826
-19784.080	    15.185	  -171.125	   107.520
-20038.342	    15.120	  -155.196	   100.717
-20114.434	    15.136	  -165.369	   127.325
-20060.094	    15.376	  -175.348	   118.997
-19902.998	    15.671	  -178.361	   107.661
-19858.590	    15.865	  -165.593	   108.230
-19927.553	    15.905	  -150.243	   120.497
-19748.781	    15.606	  -149.950	   128.856
-20135.592	    15.295	  -168.996	   107.951
-19931.396	    15.147	  -176.897	   111.438
-19870.094	    15.158	  -164.498	   126.955
-20104.000	    15.257	  -172.752	   106.785
-19904.965	    15.361	  -171.094	   133.525
-19856.137	    15.455	  -152.170	   112.429
-19681.174	    15.618	  -167.083	   119.698
-19848.523	    15.695	  -163.739	   120.534
-19930.018	    15.600	  -157.163	   117.728
-20013.963	    15.383	  -157.771	   112.966
-20001.662	    15.256	  -167.212	    96.365
-19870.195	    15.241	  -179.380	   110.480
-19844.762	    15.428	  -172.059	   114.190
-19962.434	    15.529	  -171.925	   119.634
-19895.783	    15.438	  -167.116	   113.915
-19793.221	    15.329	  -157.259	   113.950
-19972.279	    15.373	  -151.472	   114.467
-19953.172	    15.502	  -169.912	   110.002
-19734.742	    15.666	  -167.264	   100.007
-19755.254	    15.774	  -167.677	   122.725
-19989.506	    15.712	   179.155	   114.321
-19915.643	    15.598	  -169.444	   102.693
-19939.537	    15.553	  -177.128	   119.829
-19806.633	    15.573	  -168.110	   108.443
-19814.154	    15.574	  -155.613	   114.461
-19831.791	    15.631	  -165.132	   114.232
-19769.258	    15.632	  -175.843	   103.495
-19837.959	    15.534	  -179.288	   131.719
-19899.154	    15.363	  -169.066	   112.152
-19836.273	    15.272	  -158.610	   114.494
-20036.756	    15.407	  -176.601	   121.315
-19831.863	    15.613	  -164.369	   110.174
-19788.555	    15.784	  -174.997	    99.978
-19951.113	    15.822	  -155.454	   120.594
-19715.064	    15.715	  -166.666	   104.567
-20036.277	    15.572	  -162.007	   124.647
-19808.156	    15.479	  -173.234	   104.243
-19909.016	    15.541	  -172.376	    88.653
-19811.627	    15.755	  -176.224	   110.079
-19872.951	    16.003	  -161.494	   122.300
-19794.994	    16.029	  -164.320	   112.411
-19947.551	    15.966	  -167.175	    99.756
-20046.496	    15.810	  -161.809	   112.790
-19643.994	    15.707	   169.229	   150.201
-19788.688	    15.637	  -160.515	   119.667
-20092.445	    15.596	  -174.875	   140.282
-19943.400	    15.408	  -164.014	   136.118
-20082.582	    15.243	  -150.675	   114.164
-19832.969	    15.290	  -166.618	    64.991
-19867.430	    15.345	  -155.798	   119.816
-19983.016	    15.384	  -167.400	    98.128
-19732.568	    15.478	  -175.026	   147.366
-19723.094	    15.553	  -169.076	   121.864
-19959.451	    15.503	  -175.217	    96.861
-19886.059	    15.364	  -167.361	    95.409
-19647.059	    15.258	  -164.160	   125.304
-20084.744	    15.335	  -176.044	   125.379
-19869.910	    15.542	  -155.638	   107.164
-19679.551	    15.699	  -178.703	    99.240
-19748.904	    15.722	  -143.288	    81.432
-20143.479	    15.525	  -176.408	   147.211
-19916.920	    15.370	  -153.309	   119.858
-19825.197	    15.270	  -161.951	    99.909
-20043.320	    15.322	  -169.322	   119.726
-19884.252	    15.379	  -176.731	   134.451
-19810.967	    15.488	  -160.621	   105.949
-19953.902	    15.652	  -163.011	   131.203
-19821.488	    15.772	  -165.871	   138.954
-19794.277	    15.867	  -172.622	   101.427
-20052.609	    15.779	  -160.018	   110.141
-20086.564	    15.600	  -168.071	   108.666
-19952.486	    15.458	  -161.913	   117.054
-20049.621	    15.342	  -159.736	   125.308
-19831.451	    15.328	  -153.677	    92.317
-20069.410	    15.277	  -161.824	   111.372
-19940.666	    15.291	  -157.388	   112.476
-19943.111	    15.506	  -163.056	   111.208
-20207.834	    15.677	  -174.492	   126.408
-19779.012	    15.880	  -153.884	   110.825
-19849.576	    16.079	  -172.242	    89.220
-20105.055	    16.097	  -154.480	   107.208
-19831.537	    15.897	  -166.598	    88.382
-19984.438	    15.551	  -172.812	   103.286
-20009.330	    15.257	  -170.309	    97.135
-19943.246	    15.150	  -166.077	   117.845
-19870.705	    15.198	  -176.634	   106.343
-20005.146	    15.345	  -153.292	    97.718
-20036.229	    15.462	  -168.233	   112.253
-20001.562	    15.645	  -164.742	   105.369
-19842.641	    15.783	   179.687	   122.552
-19839.643	    15.838	  -156.836	   112.235
-19840.115	    15.756	  -170.771	   132.691
-19748.863	    15.610	  -163.615	   111.572
-19844.279	    15.551	  -166.708	   111.630
-20085.584	    15.621	  -167.772	   133.627
-19853.473	    15.749	  -160.144	   127.821
-19612.949	    15.720	  -178.151	   117.826
-20036.006	    15.478	  -174.932	    89.027
-19817.744	    15.463	  -175.256	   109.541
-19850.334	    15.636	  -172.193	    96.045
-19661.834	    15.666	  -163.327	   111.599
-19941.486	    15.601	  -153.069	   112.061
-19911.611	    15.602	  -172.591	   134.268
-19734.285	    15.539	  -169.839	    95.702
-19966.803	    15.381	  -176.492	   119.222
-19745.369	    15.385	  -167.971	    91.779
-19918.662	    15.426	  -166.397	    88.301
-19925.305	    15.339	  -162.893	   119.308
-20126.223	    15.268	  -168.971	   116.045
-20192.732	    15.188	  -172.226	   120.443
-20216.369	    15.346	  -153.852	    86.830
-19691.553	    15.567	  -164.950	    93.624
-20054.402	    15.673	  -159.701	    81.212
-20088.709	    15.694	  -157.731	    97.477
-20075.934	    15.674	  -163.343	   112.275
-19956.143	    15.621	  -178.174	   118.144
-20033.480	    15.530	  -171.031	   115.671
-20025.523	    15.481	  -163.367	   132.713
-19712.914	    15.498	   178.782	   108.766
-19952.727	    15.561	  -156.515	   116.707
-19885.393	    15.640	  -178.635	   130.879
-19851.578	    15.753	  -166.175	   124.307
-19814.957	    15.728	   178.820	   127.560
-20068.068	    15.572	  -155.373	   101.469
-19787.807	    15.508	   175.768	   101.934
-20162.732	    15.445	  -169.235	    97.969
-19894.570	    15.526	  -163.410	    90.940
-19828.559	    15.773	  -162.475	   102.961
-19717.301	    15.765	  -165.993	   117.317
-19548.814	    15.613	  -166.635	   119.634
-20065.641	    15.556	   177.803	   129.430
-19838.102	    15.547	  -165.242	   103.510
-19954.242	    15.586	  -169.328	   114.244
-19873.797	    15.587	  -165.342	   108.449
-19952.947	    15.585	  -170.507	   107.864
-19893.260	    15.732	  -168.162	   114.776
-19899.734	    15.853	  -168.682	   103.866
-19985.885	    15.829	  -168.110	   110.176
-19920.795	    15.669	  -167.334	    95.989
-19971.760	    15.428	  -175.156	   104.491
-19968.736	    15.349	  -160.917	    92.842
-19963.977	    15.334	  -163.967	    98.851
-20043.062	    15.432	  -161.346	    98.013
-19647.988	    15.696	  -156.195	    81.272
-19989.240	    15.779	  -168.875	   117.489
-19774.715	    15.705	  -162.644	    90.580
-19905.490	    15.457	  -166.507	   100.800
-19723.879	    15.283	  -169.768	   119.563
-19970.678	    15.197	  -161.125	    79.793
-20164.021	    15.289	  -167.210	   124.607
-19940.201	    15.522	  -162.656	   126.429
-20155.521	    15.757	  -150.451	    93.644
-19618.807	    15.867	  -155.623	   121.890
-19672.053	    15.795	  -170.967	   114.167
-19866.252	    15.710	  -155.842	   105.133
-19798.096	    15.591	  -163.165	   114.660
-20020.553	    15.412	  -174.057	   127.870
-19829.844	    15.334	  -162.656	   104.835
-19753.781	    15.400	  -165.101	   119.996
-19994.602	    15.381	  -168.001	   115.409
-19863.844	    15.509	  -146.867	   104.687
-19920.242	    15.595	  -170.884	   114.626
-19869.764	    15.647	  -168.755	   121.630
-19787.156	    15.624	  -160.863	   129.863
-19937.264	    15.522	  -164.636	   114.764
-19835.723	    15.415	  -176.454	    98.490
-19802.777	    15.397	  -162.382	   118.573
-19940.963	    15.486	  -169.820	   119.666
-19811.250	    15.532	  -169.046	   117.862
-19904.895	    15.570	  -157.271	   136.704
-19866.143	    15.586	  -161.552	   106.478
-19687.529	    15.645	  -156.986	   117.241
-19861.475	    15.648	  -159.526	   126.123
-19638.273	    15.531	  -143.833	   116.995
-19868.404	    15.433	  -167.761	   116.201
-20077.082	    15.482	  -168.487	   127.181
-19885.047	    15.620	  -163.339	   138.190
-19961.648	    15.795	  -174.789	   114.938
-19765.633	    15.924	  -175.049	   107.341
-19903.781	    15.939	  -165.711	   104.618
-19919.805	    15.854	  -166.369	   112.899
-20063.641	    15.572	  -168.385	   117.855
-20159.076	    15.282	  -152.696	    99.889
-20105.174	    15.230	  -176.344	   117.233
-19986.623	    15.361	  -174.050	   111.590
-20114.959	    15.532	  -176.023	   119.181
-19905.062	    15.535	  -176.823	   113.462
-19823.920	    15.434	  -163.474	   133.511
-20037.936	    15.230	  -156.723	   123.508
-19801.883	    15.220	  -163.672	   112.176
-19734.805	    15.371	  -168.462	   129.898
-19831.250	    15.491	  -172.003	   105.868
-19847.713	    15.481	  -172.137	   121.728
-19888.113	    15.298	  -177.360	   116.932
-19895.664	    15.247	  -175.672	   106.115
-20054.053	    15.294	  -167.236	   113.584
-19949.484	    15.282	  -175.308	   135.048
-20029.781	    15.384	  -177.700	   123.026
-19766.732	    15.556	  -172.356	   121.210
-19707.994	    15.595	  -149.033	    95.488
-19563.705	    15.550	  -171.865	   106.323
-19723.170	    15.412	  -168.526	   110.786
-20072.408	    15.261	  -160.138	   124.147
-19910.391	    15.226	  -161.831	   119.950
-19866.578	    15.498	  -169.296	   124.102
-19599.115	    15.781	  -176.914	   124.617
-19815.174	    15.927	  -157.558	   123.274
-19891.609	    15.785	  -172.329	   148.848
-20150.125	    15.604	  -157.978	   129.687
-19933.744	    15.449	  -169.304	   108.942
-20016.396	    15.345	  -153.648	   129.495
-20106.303	    15.359	  -160.651	   121.573
-19879.705	    15.505	  -169.115	   111.161
-19786.186	    15.588	  -177.788	   128.932
-19680.547	    15.694	  -164.713	   124.893
-19549.791	    15.780	   175.065	   112.804
-19658.738	    15.754	  -168.475	   104.376
-19908.912	    15.590	  -165.891	   125.728
-19940.303	    15.315	  -164.651	   112.160
-20217.842	    15.054	  -165.455	   111.229
-20169.674	    14.896	  -158.445	   127.349
-19815.682	    15.013	  -165.918	   120.633
-19862.090	    15.376	  -164.566	    86.483
-19878.723	    15.773	  -154.527	   106.071
-19651.697	    15.968	  -165.424	   119.724
-19748.229	    15.903	  -172.968	   108.745
-19796.764	    15.743	  -169.960	   115.793
-19796.541	    15.620	  -170.106	   103.041
-19960.779	    15.516	  -164.618	   111.675
-19931.115	    15.468	   176.293	   107.051
-19752.246	    15.394	  -164.332	    93.070
-19957.635	    15.300	  -165.614	   111.058
-19879.654	    15.336	  -173.914	   104.484
-19936.375	    15.516	  -164.724	    90.570
-20047.111	    15.502	  -174.966	   101.376
-19995.705	    15.451	  -162.333	   105.464
-19756.014	    15.445	  -156.599	    92.368
-19978.090	    15.480	  -158.737	    97.241
-19812.557	    15.524	  -162.857	    96.340
-19904.521	    15.543	  -172.174	   105.290
-19897.371	    15.588	  -165.408	   100.089
-19898.459	    15.668	  -150.701	   105.763
-19853.680	    15.751	   177.048	    94.948
-19795.270	    15.637	  -172.559	   110.463
-19883.014	    15.452	  -148.663	    95.850
-19938.158	    15.369	  -172.519	   101.750
-20222.484	    15.419	  -169.203	   122.347
-19935.980	    15.523	  -167.185	    95.609
-19906.830	    15.518	  -164.055	   121.907
-19950.398	    15.391	  -172.439	   108.686
-19939.951	    15.342	  -155.506	   102.620
-19936.793	    15.533	  -168.766	    96.051
-19712.221	    15.741	  -158.229	    80.188
-19997.922	    15.776	  -158.582	    88.421
-19817.115	    15.600	  -164.642	   109.388
-19931.268	    15.426	  -168.748	   101.725
-19958.207	    15.359	  -176.044	   117.080
-20155.537	    15.408	  -175.793	   110.370
-19846.152	    15.565	  -168.522	    98.404
-19843.094	    15.636	  -165.734	   110.605
-19889.504	    15.681	  -154.930	   101.806
-19908.492	    15.660	  -162.041	   123.133
-19927.416	    15.661	  -166.968	   116.151
-20055.051	    15.647	  -161.805	   132.344
-19862.029	    15.555	  -169.451	   131.145
-19962.365	    15.562	  -156.985	   123.823
-19921.201	    15.621	  -172.877	    99.944
-19680.971	    15.686	  -163.471	    93.274
-19907.527	    15.752	  -167.329	   114.063
-19582.982	    15.716	  -156.278	   118.708
-19909.018	    15.636	  -165.791	    98.189
-19931.342	    15.545	  -162.109	   112.102
-19990.393	    15.377	  -170.348	   108.431
-20007.006	    15.356	  -162.039	   133.718
-19960.465	    15.457	  -163.210	   115.594
-19737.129	    15.498	  -173.818	   130.520
-20111.713	    15.445	  -178.825	   106.827
-19807.898	    15.414	  -159.171	   118.489
-19887.625	    15.454	  -170.639	    94.157
-19698.529	    15.638	  -164.686	   103.203
-19708.893	    15.836	  -169.623	   111.467
-19836.521	    15.849	  -158.164	   107.604
-19762.508	    15.806	  -176.527	   112.235
-19745.666	    15.679	  -160.403	    55.499
-19814.119	    15.489	  -173.244	   101.634
-19888.969	    15.376	  -164.393	   112.215
-20056.170	    15.363	  -163.750	    95.424
-19922.906	    15.413	  -167.237	   114.950
-19803.479	    15.533	  -158.845	   118.917
-19700.348	    15.590	  -159.367	   114.348
-19780.547	    15.561	  -154.384	   116.469
-19869.244	    15.477	  -175.146	    99.786
-19866.096	    15.373	  -165.982	   116.360
-20101.432	    15.342	  -165.257	    95.113
-20038.709	    15.422	  -158.022	   123.743
-19638.818	    15.534	  -151.944	   110.206
-19881.426	    15.539	  -147.175	    98.374
-19795.299	    15.591	  -176.287	   114.862
-19684.148	    15.747	  -159.429	   118.040
-19771.729	    15.906	  -152.668	   122.154
-19706.379	    15.970	  -171.274	   108.942
-19971.514	    15.953	  -158.808	   116.479
-19982.711	    15.812	  -151.513	   123.984
-19942.500	    15.497	  -157.351	   106.030
-19993.980	    15.334	  -161.282	   124.545
-19913.213	    15.299	  -175.434	   113.516
-19884.162	    15.450	  -167.247	   115.315
-19684.166	    15.721	  -158.045	   119.962
-19771.002	    15.850	  -174.315	   116.657
-19560.154	    15.836	  -173.601	    95.293
-19844.033	    15.713	  -167.132	   108.719
-19834.010	    15.508	  -161.449	    84.602
-19893.320	    15.266	  -164.656	   116.360
-20018.000	    15.154	  -162.736	    84.695
-20011.289	    15.208	  -169.929	   103.964
-20010.555	    15.240	  -160.554	   120.778
-20089.170	    15.311	  -164.661	   113.224
-20124.029	    15.303	  -177.328	   118.608
-20292.367	    15.387	  -174.405	   133.190
-19977.682	    15.611	  -167.332	   124.729
-19899.375	    15.693	  -179.706	   131.301
-19790.129	    15.615	  -168.716	   124.037
-19713.559	    15.488	   177.160	   102.479
-19993.020	    15.333	  -178.782	   122.445
-20054.906	    15.281	  -162.026	   128.973
-19600.967	    15.385	  -172.803	   131.618
-19829.311	    15.502	  -174.133	   132.533
-20230.297	    15.678	  -156.305	   117.813
-19791.775	    15.841	  -165.854	    99.033
-19704.848	    15.975	  -161.625	    83.854
-19887.312	    15.959	  -146.075	    83.204
-19906.531	    15.767	  -175.670	   115.388
-19651.168	    15.479	  -166.741	   125.654
-20164.129	    15.139	  -152.113	   124.169
-20073.678	    15.006	   175.369	   135.753
-19948.051	    15.188	  -179.467	   113.771
-19751.850	    15.507	   179.035	   140.404
-19854.256	    15.863	  -158.365	   132.074
-19685.604	    15.987	  -177.974	   113.974
-19940.875	    15.792	  -159.708	   116.777
-19881.930	    15.485	  -175.525	   139.746
-20090.576	    15.305	  -167.350	   118.975
-20292.596	    15.241	  -168.458	   115.861
-20123.818	    15.335	  -171.004	    96.992
-20113.852	    15.480	  -176.514	   107.426
-19964.162	    15.495	  -172.808	   105.978
-20097.232	    15.445	  -154.303	   118.126
-19917.982	    15.469	  -174.278	   107.676
-20048.795	    15.465	  -163.533	    81.723
-19884.430	    15.537	  -175.451	   107.547
-19752.127	    15.662	  -158.284	   130.986
-19675.135	    15.635	  -158.674	   119.045
-19845.465	    15.721	  -158.807	   100.583
-19880.854	    15.763	  -162.640	   119.053
-19809.066	    15.817	  -178.134	    91.987
-19972.988	    15.786	  -162.335	   126.600
-19868.648	    15.802	  -171.511	   106.918
-20001.004	    15.728	  -162.812	   115.259
-19989.693	    15.583	  -171.869	   101.065
-19688.102	    15.409	  -174.734	   121.970
-19631.621	    15.565	  -172.765	   135.999
-19821.318	    15.771	  -162.480	   111.660
-19928.594	    15.848	  -164.141	   106.087
-20059.059	    15.776	   179.606	   131.584
-20103.881	    15.640	  -156.541	   124.281
-19899.549	    15.497	  -171.427	   113.047
-19895.031	    15.426	  -157.450	   127.135
-20073.049	    15.334	  -162.948	   120.564
-20012.477	    15.382	  -164.332	   117.358
-19973.387	    15.478	  -159.897	   126.454
-20035.428	    15.625	   172.017	   130.710
-19864.389	    15.682	  -155.788	    87.808
-19897.959	    15.721	  -154.410	   112.385
-20031.432	    15.671	  -162.254	   123.856
-19975.070	    15.530	  -173.041	   116.127
-20067.234	    15.431	   179.325	    99.644
-19842.775	    15.497	  -167.886	   109.164
-19695.260	    15.602	  -177.750	   127.059
-20048.107	    15.655	   177.344	   107.385
-19836.490	    15.635	  -165.457	   103.031
-19679.666	    15.569	  -166.277	   113.274
-19970.320	    15.516	  -172.915	   122.978
-19957.412	    15.485	  -159.510	   125.258
-19994.947	    15.501	  -162.727	   113.018
-19628.129	    15.550	  -179.325	   132.031
-19974.414	    15.582	  -172.546	    91.908
-20038.062	    15.604	  -154.780	   122.903
-20313.039	    15.654	  -168.227	   131.504
-19790.201	    15.667	  -161.707	   118.031
-19949.271	    15.616	  -163.698	   118.048
-20040.711	    15.528	  -172.529	   129.786
-19848.168	    15.464	  -166.435	   137.596
-19766.494	    15.436	  -168.063	   115.712
-19640.092	    15.404	  -168.979	   124.216
-19908.299	    15.364	  -170.315	   115.697
-19704.691	    15.357	  -175.331	   119.062
-19891.326	    15.246	  -165.949	   130.268
-19959.758	    15.167	   165.109	   126.614
-19776.430	    15.330	  -169.975	   128.520
-19704.408	    15.508	  -179.774	   106.720
-19776.086	    15.581	  -168.223	   113.828
-19954.383	    15.615	  -169.353	   103.383
-19887.533	    15.724	  -161.616	   121.858
-19849.662	    15.701	  -154.798	   102.171
-20067.033	    15.597	  -163.183	   122.324
-20021.615	    15.357	  -151.049	   106.692
-19991.893	    15.185	  -173.497	    95.599
-20120.164	    15.190	  -179.032	   133.084
-20119.934	    15.402	  -168.461	   124.036
-19888.217	    15.529	  -168.350	   118.574
-19924.316	    15.586	  -169.462	    96.899
-19932.008	    15.567	  -176.718	   105.538
-20047.287	    15.488	  -153.347	   101.795
-20061.400	    15.352	  -170.651	   117.613
-20247.033	    15.267	  -173.069	    90.496
-20073.256	    15.368	  -158.293	   118.799
-19890.379	    15.706	  -155.617	   112.287
-19736.803	    15.894	  -161.080	   115.189
-19661.967	    15.965	  -155.893	   100.384
-19895.719	    15.933	  -162.585	    93.432
-19920.438	    15.811	  -166.130	    95.582
-19847.016	    15.607	   174.583	   123.481
-19855.893	    15.442	  -159.459	   116.711
-20304.416	    15.404	  -174.452	   120.053
-19998.809	    15.600	  -179.423	   111.110
-19840.811	    15.767	  -173.656	   114.221
-19892.939	    15.733	  -176.678	    66.668
-19867.861	    15.618	  -159.723	   112.509
-19877.291	    15.511	  -169.294	    89.697
-19813.092	    15.338	  -167.791	    95.999
