-20049.734	    15.334	   -92.310	   122.143
-19841.916	    15.414	   -82.065	    42.813
-19981.559	    15.393	   -74.951	    33.980
-19962.180	    15.364	   -82.755	    37.293
-19790.062	    15.438	   -81.921	    31.241
-19988.637	    15.590	   -96.366	    26.465
-19651.422	    15.712	   -97.009	    36.643
-19720.289	    15.705	   -87.074	    48.927
-19998.096	    15.631	   -90.201	    51.592
-19948.805	    15.514	   -84.629	    48.218
-20017.697	    15.368	   -83.264	    58.951
-19707.020	    15.362	   -72.806	    33.335
-19936.602	    15.526	   -90.509	    33.262
-19853.955	    15.714	   -93.573	    12.779
-19698.416	    15.853	   -91.931	    24.803
-19449.082	    15.898	   -86.832	    24.114
-19956.998	    15.793	   -79.984	    16.645
-19736.080	    15.600	   -90.602	    46.813
-19852.875	    15.456	   -72.753	    -0.093
-19905.570	    15.296	   -94.099	    -4.481
-19935.318	    15.170	  -105.410	    18.732
-19899.830	    15.139	   -73.338	    21.016
-20068.182	    15.211	   -98.813	    26.232
-20276.258	    15.314	   -58.490	     5.541
-20054.410	    15.547	   -79.034	    39.098
-19838.576	    15.822	   -98.757	    27.391
-19912.053	    15.896	   -89.565	    51.611
-19661.479	    15.782	   -76.944	    33.128
-19796.770	    15.518	   -85.489	    39.550
-19880.186	    15.291	   -84.145	    33.385
-19854.834	    15.151	   -80.086	    26.699
-19941.900	    15.286	   -97.177	    60.161
-19932.232	    15.544	   -80.430	    45.411
-20048.742	    15.754	   -81.640	    23.413
-19705.754	    15.671	   -73.891	    45.976
-19907.215	    15.653	   -90.125	    64.273
-19819.109	    15.786	   -88.280	    57.235
-19284.162	    15.726	   -86.091	    47.072
-19587.551	    15.497	   -93.466	    19.909
-19747.707	    15.296	   -99.136	     6.851
-20010.996	    15.177	   -77.586	    31.101
-19964.729	    15.320	   -83.438	     0.100
-19876.455	    15.541	   -95.516	    34.686
-19861.072	    15.717	   -80.416	     3.403
-19750.129	    15.845	   -73.924	    27.140
-19801.473	    15.781	   -80.087	    55.227
-19805.486	    15.506	  -100.223	    27.663
-20036.410	    15.256	   -92.884	     5.505
-19993.848	    15.155	   -64.292	    41.860
-20165.424	    15.244	   -91.488	    49.047
-19677.135	    15.510	   -85.308	    26.689
-19950.990	    15.639	   -78.996	    25.673
-19768.564	    15.781	   -72.245	    50.594
-19902.947	    15.813	   -84.975	    38.797
-19957.785	    15.729	   -83.301	    33.945
-20055.102	    15.586	   -83.503	    39.193
-19999.131	    15.614	   -64.926	    37.912
-19987.311	    15.618	   -80.259	    34.761
-19928.389	    15.587	   -78.284	    23.811
-19911.184	    15.580	  -107.367	     7.671
-20022.965	    15.490	   -84.273	    28.920
-19594.438	    15.409	   -91.207	    38.216
-20086.934	    15.300	   -69.670	    39.045
-19726.877	    15.237	   -82.808	    53.932
-19736.744	    15.285	   -82.980	    55.432
-19694.117	    15.446	   -91.817	    15.856
-19783.691	    15.473	   -85.596	    24.491
-19697.371	    15.374	   -76.515	    27.275
-19894.391	    15.231	   -82.551	    45.673
-19929.979	    15.217	  -111.916	    14.069
-20120.295	    15.312	   -98.326	    38.633
-20079.680	    15.433	   -78.070	    37.016
-19755.252	    15.719	   -88.257	    21.308
-20020.645	    15.938	   -91.112	    27.048
-19889.557	    15.915	   -84.734	    29.212
-19803.928	    15.744	   -81.870	    34.656
-19892.230	    15.476	   -74.132	    36.460
-20113.576	    15.359	   -76.863	    31.579
-19818.850	    15.368	   -75.416	    32.365
-19962.027	    15.348	   -73.800	    32.987
-19971.646	    15.367	   -75.245	    26.036
-20085.303	    15.373	   -75.085	    44.382
-20118.678	    15.240	   -80.489	    30.427
-19860.217	    15.203	  -101.811	    36.153
-19913.006	    15.358	   -82.766	    45.355
-19982.057	    15.691	   -81.576	    58.443
-19680.539	    15.984	   -80.812	    51.218
-19786.057	    16.108	   -85.205	    31.108
-19999.906	    15.997	   -77.281	    32.640
-19921.721	    15.817	   -68.939	    51.697
-20040.961	    15.517	   -62.811	    42.128
-19989.369	    15.338	   -76.573	    27.741
-19946.318	    15.310	   -76.016	    59.866
-20257.467	    15.442	   -74.287	    28.241
-19775.994	    15.614	   -98.323	    62.441
-19944.580	    15.695	   -87.773	     9.846
-19943.938	    15.608	   -92.888	    25.413
-20044.135	    15.482	   -89.547	    32.707
-19952.064	    15.557	   -83.053	    30.495
-19725.098	    15.667	  -101.433	    19.423
-19871.258	    15.790	   -74.557	    30.610
-19929.980	    15.858	  -103.761	    28.670
-19947.025	    15.865	   -90.472	    17.092
-19855.662	    15.731	   -70.691	    57.341
-19974.803	    15.378	   -94.984	    36.797
-20301.410	    15.043	   -81.306	    18.176
-20027.342	    14.975	   -80.041	    30.283
-19800.459	    15.225	   -90.457	    35.509
-19619.225	    15.597	   -95.849	    30.636
-19545.789	    15.887	   -75.679	    30.710
-19657.703	    16.121	   -70.989	    24.659
-19676.521	    16.162	   -80.789	    30.708
-19861.621	    16.160	   -97.673	    29.358
-19885.217	    15.915	   -92.024	    44.019
-19987.732	    15.452	   -96.066	    18.082
-19969.412	    15.246	   -70.706	    20.448
-20115.684	    15.233	   -79.436	    49.633
-20119.539	    15.372	   -72.015	     7.131
-19777.602	    15.565	   -80.859	    10.453
-19800.676	    15.687	   -80.633	    18.043
-19918.541	    15.762	   -87.577	    46.067
-19973.443	    15.693	   -87.272	    42.793
-19947.227	    15.634	   -98.893	    39.305
-20101.398	    15.639	   -89.127	    44.992
-19862.609	    15.644	   -79.667	    39.159
-19934.990	    15.612	   -85.528	    68.037
-19679.279	    15.589	   -86.934	    30.393
-19969.162	    15.607	   -83.702	    33.361
-19850.469	    15.733	   -89.379	    34.637
-19807.578	    15.866	   -83.845	    37.566
-19863.785	    15.931	   -88.410	    33.024
-19692.396	    15.841	   -73.315	    31.889
-19870.273	    15.566	  -104.097	    42.920
-20158.586	    15.281	   -77.737	    57.294
-19767.316	    15.225	   -69.988	    35.941
-19692.207	    15.312	   -78.936	     4.141
-20085.916	    15.398	   -85.453	    36.384
-19657.238	    15.583	   -85.615	    51.038
-19925.363	    15.686	   -69.507	    42.858
-19951.688	    15.707	   -67.921	    50.642
-19858.797	    15.655	   -83.028	    24.525
-19761.223	    15.575	   -82.320	    37.420
-19998.129	    15.562	   -80.057	    33.526
-19968.434	    15.509	   -79.357	    38.899
-20107.240	    15.444	   -81.805	    41.390
-19656.113	    15.453	   -88.915	    30.417
-19996.328	    15.445	   -68.702	    46.351
-19962.381	    15.480	   -72.371	    13.036
-19871.023	    15.522	   -78.143	    34.661
-19958.455	    15.481	   -58.911	    73.796
-19833.404	    15.367	   -73.249	    47.112
-19992.328	    15.327	   -85.098	    45.910
-20062.396	    15.328	   -79.143	    35.346
-20004.225	    15.413	   -79.271	    20.621
-19883.617	    15.500	   -82.061	     7.099
-19958.791	    15.514	   -89.267	    10.937
-20358.439	    15.513	   -83.220	    18.144
-19941.100	    15.516	   -90.858	    46.852
-20044.424	    15.413	   -82.162	    30.824
-19989.479	    15.246	   -69.713	    25.763
-20025.275	    15.295	   -77.832	    37.056
-19864.959	    15.446	   -90.772	    29.532
-19946.006	    15.540	   -97.428	    19.989
-19866.736	    15.628	  -100.845	    24.032
-19997.025	    15.689	   -99.815	    36.098
-19794.705	    15.621	   -87.725	    11.410
-20119.184	    15.549	   -72.566	    37.407
-19829.037	    15.555	   -79.604	    31.233
-20181.582	    15.573	   -92.414	    13.707
-20313.770	    15.492	  -103.560	    31.284
-19966.799	    15.503	  -105.532	    25.557
-19714.883	    15.611	   -69.883	    36.685
-20021.328	    15.582	   -86.204	    35.525
-20211.496	    15.484	  -102.675	    34.687
-20230.938	    15.477	   -79.994	    47.757
-20004.256	    15.585	   -71.428	    49.027
-19844.281	    15.749	   -87.112	    19.943
-19915.500	    15.786	   -72.323	    70.622
-19804.014	    15.682	   -80.683	    59.470
-19680.316	    15.516	   -72.311	    -0.741
-20037.047	    15.360	   -85.497	    53.282
-20322.623	    15.150	   -80.322	    45.999
-20116.828	    15.138	   -79.918	    18.668
-19924.982	    15.332	   -83.445	    29.264
-19882.131	    15.559	  -116.466	    29.183
-19721.492	    15.649	   -76.002	    21.431
-19868.562	    15.618	   -76.189	    38.144
-19938.611	    15.607	   -86.390	    27.984
-20130.584	    15.479	   -81.619	    22.806
-20086.783	    15.354	   -81.979	    30.445
-19827.934	    15.357	   -77.899	    31.381
-19968.762	    15.499	   -81.117	    27.494
-20012.000	    15.636	   -77.140	    54.157
-20017.148	    15.644	   -77.735	    32.543
-19966.076	    15.437	   -77.758	    29.646
-19931.818	    15.134	   -75.565	    34.153
-20075.205	    15.083	   -85.651	    18.768
-20207.541	    15.214	   -70.758	    11.183
-19863.812	    15.402	   -98.749	    29.044
-19667.064	    15.641	   -83.419	    28.443
-19752.301	    15.771	   -79.313	    34.298
-19890.277	    15.755	   -67.679	    29.100
-20063.014	    15.643	   -79.916	    33.938
-19774.689	    15.547	   -82.858	    40.820
-20170.162	    15.465	   -92.527	    36.949
-19841.199	    15.476	  -103.006	    69.498
-20116.898	    15.499	   -82.136	    44.929
-19959.691	    15.488	   -86.418	    34.214
-19843.098	    15.477	   -75.437	    24.421
-19984.598	    15.539	   -81.573	    29.615
-20304.061	    15.588	  -100.699	    33.283
-19927.836	    15.663	  -111.816	    11.442
-19760.053	    15.741	   -92.093	    28.495
-19925.967	    15.671	   -79.387	    12.716
-20114.244	    15.582	   -98.529	    25.332
-20009.527	    15.488	   -99.833	    17.405
-19594.059	    15.491	   -96.947	    17.977
-19636.979	    15.629	   -87.473	    23.312
-19957.004	    15.631	   -94.756	    39.870
-19600.566	    15.516	   -90.267	    11.613
-19544.641	    15.496	   -93.092	    18.142
-19869.322	    15.388	   -70.929	    21.643
-20089.105	    15.216	   -89.319	    -1.058
-20185.068	    15.150	   -89.483	    31.984
-20247.600	    15.278	   -93.214	     2.901
-19680.355	    15.585	  -116.284	    14.650
-19765.939	    15.797	  -107.602	    17.970
-19649.973	    15.886	   -80.959	    82.703
-19889.842	    15.852	   -70.531	    25.080
-19930.494	    15.782	   -94.545	    42.179
-20011.201	    15.646	   -89.012	    46.185
-20187.166	    15.487	   -90.917	    35.549
-20060.088	    15.382	   -73.580	    56.616
-19943.998	    15.386	   -85.606	    24.131
-19791.242	    15.395	   -83.578	    45.456
-19899.838	    15.456	   -95.109	    22.248
-19851.602	    15.588	   -87.256	     2.003
-19850.525	    15.614	   -88.389	    24.042
-20114.873	    15.509	   -88.881	    23.643
-20001.861	    15.561	   -94.355	    30.003
-20042.930	    15.649	   -85.699	    23.804
-19977.615	    15.703	   -93.879	    18.098
-19702.002	    15.785	  -109.122	    39.273
-19641.070	    15.795	   -86.351	    59.517
-19939.861	    15.626	   -83.889	    33.796
-19763.795	    15.482	   -88.123	    20.430
-19710.135	    15.423	   -85.120	    50.232
-20064.717	    15.476	   -81.381	    47.005
-19985.990	    15.504	   -84.372	    33.298
-20055.965	    15.607	   -75.197	    42.260
-19662.080	    15.710	   -81.780	    52.259
-19798.504	    15.724	   -98.995	    29.754
-20103.072	    15.619	   -78.759	    42.977
-19975.328	    15.450	   -71.572	    48.262
-19868.186	    15.423	   -89.283	    36.562
-19701.736	    15.460	   -88.489	    42.769
-19798.145	    15.484	   -98.736	    26.576
-20206.760	    15.533	   -71.120	    17.597
-19775.883	    15.575	   -77.238	    29.419
-20205.027	    15.562	   -78.383	    33.856
-20056.289	    15.577	   -86.248	    32.145
-19912.500	    15.639	   -96.981	    40.445
-19865.426	    15.615	   -82.004	    33.305
-19891.666	    15.494	   -79.955	    31.401
-19938.447	    15.452	   -72.307	    49.214
-19857.133	    15.493	   -80.369	    51.452
-19946.812	    15.621	   -79.932	    56.796
-19819.352	    15.744	   -86.569	    40.435
-20032.426	    15.787	   -91.055	    24.851
-19773.955	    15.794	   -96.667	    15.867
-19627.609	    15.753	   -84.346	    67.773
-19905.221	    15.522	   -89.027	    45.964
-19888.518	    15.327	   -74.896	    40.850
-19940.748	    15.247	   -83.527	    28.542
-19902.680	    15.318	   -91.843	    13.203
-20092.881	    15.385	   -77.703	    38.389
-19901.135	    15.383	   -89.160	     8.572
-20001.525	    15.436	   -90.250	    35.179
-19774.461	    15.509	  -103.138	    37.826
-19893.629	    15.551	   -95.271	    51.778
-19778.084	    15.513	   -88.632	    59.964
-19819.680	    15.456	   -93.270	    62.568
-20013.172	    15.514	   -78.193	    43.072
-20103.795	    15.525	   -83.725	    17.746
-20176.193	    15.470	   -80.879	    46.666
-20048.277	    15.477	   -92.265	    50.189
-19932.738	    15.476	   -93.540	    47.357
-20055.516	    15.426	   -90.102	    36.907
-20003.955	    15.477	   -83.193	    50.208
-20024.947	    15.540	   -85.323	    37.782
-19611.039	    15.566	   -73.107	    24.834
-19998.672	    15.572	   -84.590	    48.414
-19829.812	    15.521	   -89.599	    42.212
-20151.891	    15.452	   -88.541	    22.783
-19856.004	    15.427	   -93.065	    25.891
-19958.330	    15.578	   -83.749	    20.285
-19647.031	    15.729	   -80.990	    42.086
-19885.590	    15.852	   -93.033	    35.344
-19978.561	    15.856	   -81.819	    56.182
-19823.180	    15.866	   -97.349	    60.141
-20147.633	    15.718	  -101.486	    21.396
-19776.695	    15.529	   -79.996	    45.631
-19959.391	    15.412	   -98.016	    35.873
-19827.260	    15.325	   -80.741	    41.161
-20074.113	    15.335	   -97.322	    46.380
-19631.330	    15.433	   -90.224	    46.030
-20171.051	    15.471	   -79.786	    58.840
-19941.955	    15.448	   -79.284	    29.811
-19837.613	    15.434	   -97.276	    35.690
-19752.400	    15.535	   -90.043	    41.780
-19990.043	    15.584	   -80.645	    50.466
-19789.277	    15.638	   -75.628	     0.475
-19968.309	    15.654	   -96.063	    31.699
-19977.984	    15.674	   -75.551	    26.185
-19941.365	    15.618	   -74.482	    37.757
-19916.496	    15.460	   -81.247	    30.925
-19889.400	    15.289	   -85.670	    65.907
-20113.799	    15.192	   -85.295	    53.972
-19788.912	    15.374	   -86.750	    49.339
-19860.350	    15.625	   -71.063	    42.815
-19727.664	    15.735	   -82.179	    44.835
-19843.207	    15.621	   -84.362	    43.708
-19761.254	    15.405	   -73.955	    73.148
-19984.283	    15.176	   -92.367	    52.471
-20104.332	    15.094	   -97.148	    22.901
-20183.930	    15.201	   -75.604	    31.602
-19909.908	    15.382	   -79.638	    28.957
-20096.691	    15.536	   -83.842	    40.737
-19731.074	    15.642	   -90.126	    36.494
-19936.160	    15.715	   -94.591	    33.357
-19697.354	    15.724	   -90.038	    33.046
-20044.488	    15.601	   -77.005	    38.833
-19717.686	    15.530	   -84.861	    26.626
-20032.693	    15.509	   -85.613	    34.810
-19975.436	    15.570	   -82.141	     6.143
-19787.840	    15.639	   -96.829	    44.701
-19933.506	    15.593	   -89.680	    33.572
-19835.201	    15.450	   -96.072	    43.365
-19886.984	    15.424	   -70.853	    32.138
-20040.793	    15.490	   -94.928	    29.597
-19886.146	    15.578	   -76.149	    40.479
-19891.098	    15.580	   -83.291	    24.789
-19643.684	    15.471	   -94.253	    51.881
-19823.965	    15.348	   -95.940	    32.333
-19887.668	    15.299	   -84.027	    35.966
-19657.102	    15.384	   -86.950	    40.360
-19972.072	    15.567	   -83.630	    38.980
-20156.018	    15.791	   -77.208	    14.183
-19939.525	    15.959	   -82.555	    31.965
-19669.553	    16.016	   -71.522	    31.209
-19803.662	    15.838	   -81.464	    17.226
-19902.582	    15.465	   -74.462	    40.712
-19850.539	    15.277	   -74.938	    47.758
-19859.920	    15.316	   -82.415	    41.125
-19805.043	    15.499	   -90.202	    37.787
-19981.936	    15.675	   -99.062	     7.979
-19880.934	    15.844	   -86.193	    29.733
-19748.090	    15.915	  -115.298	    33.987
-19971.248	    15.931	   -80.637	    49.682
-19731.697	    15.914	   -92.467	    21.668
-19765.662	    15.839	   -78.841	    22.678
-20247.109	    15.721	   -86.655	    34.513
-19734.381	    15.622	   -94.415	    37.641
-19970.066	    15.464	   -86.843	    35.642
-20022.668	    15.297	   -82.404	    18.270
-20036.709	    15.291	   -96.813	    24.353
-19804.338	    15.319	   -70.147	    31.557
-19807.359	    15.406	   -79.257	    30.409
-19871.746	    15.507	   -82.022	    50.179
-19976.480	    15.603	   -77.532	    40.862
-20104.230	    15.649	   -73.022	    39.030
-19965.770	    15.690	   -76.396	    47.062
-19840.154	    15.739	   -99.269	    52.090
-20058.939	    15.729	   -86.115	    27.540
-19978.789	    15.565	   -79.641	    17.619
-20025.576	    15.320	   -95.354	    39.662
-20054.133	    15.199	   -78.370	    19.682
-19912.898	    15.273	   -88.185	    28.696
-20049.779	    15.463	   -74.656	    26.673
-19803.061	    15.639	   -93.986	    26.768
-19802.291	    15.814	   -92.418	    39.392
-19920.035	    15.874	   -66.396	     3.594
-19896.215	    15.825	   -87.432	    49.452
-19826.500	    15.654	   -83.548	    36.056
-20146.879	    15.510	   -86.186	    40.491
-20123.898	    15.370	   -81.112	    61.894
-19913.891	    15.338	   -74.764	    37.533
-19920.531	    15.470	   -73.052	    27.332
-19790.812	    15.585	  -109.231	    42.151
-19603.664	    15.657	   -70.355	    32.906
-19589.924	    15.709	  -101.189	     5.068
-19886.334	    15.726	   -70.015	    10.861
-19939.211	    15.727	   -83.706	    45.169
-20129.377	    15.658	   -89.817	    22.505
-19860.266	    15.570	   -89.924	    42.397
-19913.736	    15.426	   -93.881	    18.716
-19795.418	    15.334	   -87.894	    29.459
-19910.514	    15.255	   -87.394	    40.319
-20138.910	    15.219	   -90.591	    38.195
-20096.838	    15.233	   -82.634	    52.241
-19851.059	    15.363	   -80.105	    41.247
-19946.162	    15.569	   -81.305	    22.948
-19760.742	    15.780	   -76.152	    31.864
-19721.193	    15.775	   -74.264	    35.036
-19928.676	    15.692	   -74.305	    29.775
-19824.176	    15.536	   -95.292	    15.538
-20253.283	    15.283	   -94.236	    29.599
-20277.123	    15.181	   -87.632	    28.493
-20163.326	    15.216	   -86.550	    25.344
-19984.861	    15.491	   -81.534	    38.617
-19953.629	    15.673	   -79.770	    47.886
-19942.154	    15.499	   -85.789	    50.332
-19939.879	    15.200	   -92.566	    33.503
-19934.930	    15.124	   -89.031	    33.137
-20300.900	    15.231	   -71.971	    29.182
-20016.291	    15.456	   -91.831	    53.230
-19979.348	    15.646	   -72.721	    14.276
-19928.023	    15.733	  -113.089	    36.732
-19965.309	    15.639	   -82.920	    26.785
-19965.498	    15.584	   -78.179	    34.741
-19909.971	    15.657	   -79.583	    26.529
-19828.246	    15.864	   -71.611	    30.779
-19533.834	    16.086	   -85.034	    36.831
-19876.729	    16.000	   -83.642	    39.555
-19786.869	    15.692	   -92.177	    31.623
-19933.381	    15.273	   -97.430	     9.591
-20084.656	    14.989	   -88.353	    24.448
-19920.980	    15.050	   -92.207	    24.117
-20023.555	    15.350	   -82.706	    21.673
-19947.527	    15.642	   -82.751	    33.098
-19648.031	    15.867	  -103.009	    49.374
-19742.387	    15.963	   -88.641	    46.142
-20010.805	    15.902	   -88.150	    41.023
-19675.967	    15.649	   -77.799	    49.967
-20076.314	    15.354	   -84.127	    43.049
-19918.418	    15.198	   -84.873	    22.786
-19968.787	    15.283	   -93.311	    16.353
-19986.879	    15.532	   -92.910	    25.376
-20033.926	    15.759	   -81.849	    11.541
-19676.613	    15.840	   -76.668	    41.148
-19850.963	    15.650	   -77.333	    34.962
-20139.605	    15.385	   -92.870	    26.047
-20091.412	    15.279	   -77.306	    35.760
-20022.916	    15.214	   -88.559	    24.147
-19982.854	    15.278	   -84.245	    19.419
-19967.480	    15.403	   -86.381	    29.309
-19938.822	    15.459	   -75.958	     7.950
-20047.322	    15.494	   -88.427	    48.200
-19812.754	    15.549	   -77.504	    43.739
-20005.352	    15.636	   -68.242	    27.686
-19958.176	    15.685	   -92.856	    29.816
-19988.271	    15.661	   -84.625	    32.152
-19865.945	    15.529	   -94.681	    24.031
-19829.895	    15.408	   -85.496	    31.839
-20373.139	    15.216	   -84.698	    63.168
-19924.967	    15.225	   -87.907	    45.537
-20251.979	    15.324	   -89.827	    42.413
-19936.410	    15.581	   -90.399	    49.627
-19785.666	    15.820	   -81.817	    42.638
-20118.244	    15.949	   -74.166	    33.775
-19766.104	    15.830	   -85.107	    45.478
-20116.062	    15.507	   -79.732	    26.234
-19993.332	    15.314	   -94.071	    48.592
-19935.070	    15.214	   -83.607	    44.130
-20073.008	    15.251	   -97.796	    34.847
-20005.977	    15.425	   -72.381	    28.311
-20016.932	    15.712	   -70.570	    28.687
-19772.531	    15.839	   -87.297	    21.024
-19857.213	    15.865	   -95.080	    41.873
-19977.141	    15.801	   -85.721	    28.466
-20051.580	    15.718	   -98.169	    40.139
-19764.594	    15.575	   -77.561	    44.024
-20035.828	    15.460	   -79.181	    31.003
-20281.994	    15.466	   -92.617	    41.834
-20037.604	    15.563	   -96.126	    54.295
-20011.299	    15.767	   -97.101	    35.169
-19810.697	    15.893	   -83.894	    23.707
-19793.490	    15.851	   -77.748	    30.226
-19730.631	    15.661	   -91.869	    46.860
-20064.951	    15.469	   -85.684	    28.559
-19898.500	    15.270	   -90.714	    36.033
-20004.104	    15.239	   -86.812	    31.857
-19835.031	    15.324	   -82.948	    44.467
-20202.693	    15.362	   -78.030	    25.528
-20168.076	    15.510	   -80.532	    18.479
-19717.338	    15.713	   -91.132	    58.007
-19988.377	    15.856	   -79.064	    25.775
-19873.732	    16.029	   -87.534	    22.542
-19951.350	    15.896	   -88.158	     2.479
-19808.471	    15.563	   -94.461	    19.095
-19823.133	    15.311	   -72.754	    27.762
-19862.520	    15.210	   -80.766	    27.610
-20067.689	    15.209	   -79.126	    47.268
-19924.957	    15.346	   -85.667	    55.315
-20068.998	    15.479	   -88.689	    77.587
-20122.814	    15.652	   -71.559	    43.335
-19929.021	    15.735	  -101.487	    37.861
-19939.361	    15.680	   -92.236	    26.608
-19787.850	    15.622	   -66.247	    -6.020
-19863.393	    15.469	   -77.377	     9.727
-20002.797	    15.410	   -77.425	    30.738
-19959.877	    15.372	   -83.857	    36.079
-19948.182	    15.310	   -74.757	    25.275
-19764.127	    15.309	   -92.053	    38.431
-20119.432	    15.449	   -89.125	    48.485
-19993.969	    15.607	   -57.574	    30.624
-19776.271	    15.708	   -91.125	    20.791
-19564.656	    15.710	   -85.947	    41.212
-19796.475	    15.703	  -109.955	    18.520
-19748.650	    15.746	   -80.062	    24.121
-19880.986	    15.676	   -81.065	    62.758
-19929.275	    15.641	   -78.982	    28.465
-20094.615	    15.566	   -85.549	    25.477
-19954.062	    15.437	   -85.485	    28.269
-20047.793	    15.294	   -84.776	    59.162
-20005.512	    15.192	   -85.480	    21.933
-20146.643	    15.139	   -75.416	    53.171
-19953.305	    15.162	   -99.396	    33.403
-20001.967	    15.323	   -70.783	    10.125
-19704.242	    15.649	  -115.866	    21.428
-19997.836	    15.868	   -95.234	    23.767
-19763.543	    15.948	  -110.149	    44.716
-19771.387	    15.880	   -74.624	    22.444
-19827.086	    15.721	   -99.411	     7.901
-19781.799	    15.564	   -74.686	    20.465
-20026.332	    15.334	   -90.395	    12.591
-19985.311	    15.184	   -77.047	    21.997
-19901.582	    15.192	   -89.252	    45.151
-20201.287	    15.228	   -82.659	    43.463
-20225.842	    15.282	  -101.543	    23.428
-20097.412	    15.387	   -86.812	    63.959
-19935.471	    15.460	   -79.480	    47.619
-19929.119	    15.641	   -78.776	    47.992
-19930.574	    15.660	   -78.462	    17.482
-19953.291	    15.643	   -83.324	    32.597
-19967.580	    15.610	   -78.481	    42.838
-19883.885	    15.534	   -98.010	    43.136
-19974.896	    15.412	   -71.518	    22.682
-20035.738	    15.348	   -97.695	    35.463
-20171.811	    15.493	   -82.651	    35.141
-20149.283	    15.683	   -94.062	    26.639
-19979.941	    15.707	   -83.109	    34.905
-19978.715	    15.705	   -84.693	    36.328
-19766.547	    15.811	   -96.928	    35.082
-19752.746	    15.732	   -78.022	    36.945
-19894.369	    15.534	   -90.198	    53.866
-20118.047	    15.410	   -72.744	    21.833
-20100.775	    15.484	   -91.523	    38.263
-19715.576	    15.614	   -80.859	    46.754
-19723.221	    15.677	   -83.643	    37.723
-19695.084	    15.640	   -83.401	    23.814
-19945.410	    15.503	   -80.609	    44.174
-20107.602	    15.366	   -71.385	    35.442
-20103.115	    15.360	   -78.694	    34.012
-19758.561	    15.469	   -74.590	    13.541
-19779.816	    15.553	   -91.799	    28.997
-19946.461	    15.723	   -88.957	    30.071
-19806.578	    15.924	   -66.511	    23.672
-19528.361	    16.016	   -86.523	    44.849
-19825.900	    15.888	   -77.469	    45.710
-20213.902	    15.569	  -103.962	    45.378
-19859.109	    15.287	   -81.500	    56.763
-19871.371	    15.076	   -96.993	    52.753
-20077.980	    15.068	   -75.459	    47.796
-20162.596	    15.155	   -76.674	    42.245
-19775.775	    15.357	   -81.884	    64.885
-19797.256	    15.562	   -74.647	    45.001
-19941.631	    15.542	   -78.054	    22.600
-19838.064	    15.495	   -77.943	    52.671
-19741.660	    15.428	   -86.759	    42.243
-19926.668	    15.387	   -71.637	    48.316
-20111.350	    15.431	   -78.236	    26.264
-19936.178	    15.593	   -83.074	    49.232
-20061.182	    15.727	   -76.802	    43.589
-19754.074	    15.815	   -75.284	    21.846
-19909.877	    15.764	   -75.395	     9.566
-20005.951	    15.563	   -85.037	    28.297
-20024.824	    15.397	   -87.003	    37.766
-20206.193	    15.300	   -78.911	   -13.153
-19852.955	    15.374	   -92.564	    25.097
-19644.125	    15.529	   -85.026	    44.359
-19908.883	    15.665	   -93.857	    44.641
-19895.369	    15.839	   -88.813	    46.193
-19861.695	    15.971	   -78.832	    20.929
-19808.113	    15.939	   -74.527	    29.019
-19847.590	    15.679	   -75.870	    38.508
-19960.635	    15.366	   -92.198	    24.189
-19970.514	    15.162	  -128.563	    33.749
-20051.156	    15.119	   -95.064	    22.757
-19981.172	    15.231	   -88.101	    39.264
-19853.756	    15.488	   -77.211	    37.362
-19759.340	    15.745	   -82.822	    49.458
-19966.305	    15.817	   -93.458	    25.381
-20066.094	    15.786	   -97.347	    24.993
-19991.803	    15.815	  -102.998	    35.395
-19723.180	    15.818	   -92.075	    39.347
-19839.982	    15.653	   -89.843	    19.248
-20054.676	    15.570	  -101.189	    27.344
-20018.068	    15.612	   -81.301	    17.250
-20055.082	    15.577	   -91.090	    40.339
-20031.873	    15.593	   -76.915	    28.004
-19944.164	    15.554	   -95.316	    36.050
-20049.375	    15.452	   -86.037	    30.991
-20039.500	    15.423	  -107.639	    17.816
-20110.000	    15.469	   -84.060	    12.967
-20156.701	    15.606	   -82.981	    27.049
-20041.092	    15.816	   -92.335	    48.750
-19845.043	    15.889	   -79.994	    42.436
-19683.443	    15.801	   -75.280	    59.958
-20002.596	    15.591	   -82.012	    33.806
-20079.965	    15.379	   -87.055	    53.919
-19894.455	    15.298	   -98.521	    12.305
-20146.021	    15.333	   -72.803	    40.415
-19898.730	    15.447	   -79.645	    44.109
-19784.445	    15.519	   -68.806	    44.607
-19947.391	    15.516	   -97.537	    37.218
-20185.723	    15.439	   -81.681	    10.054
-19900.139	    15.290	   -75.212	    13.153
-20126.445	    15.222	   -86.441	    33.257
-19836.992	    15.308	   -81.698	    34.111
-19753.830	    15.510	   -91.798	    25.954
-19863.074	    15.599	   -85.395	    17.095
-19748.756	    15.652	   -87.849	    45.033
-19950.398	    15.659	   -83.645	    39.378
-19876.633	    15.605	   -94.409	    26.963
-20067.895	    15.422	   -85.809	    45.708
-19907.969	    15.491	   -75.453	    44.946
-19748.441	    15.586	   -93.068	    48.729
-19813.238	    15.608	   -78.115	    43.140
-19640.080	    15.628	   -68.304	    46.208
-20071.734	    15.642	   -75.229	    68.215
-19772.441	    15.642	   -82.023	    57.148
-19618.023	    15.469	   -81.396	    49.426
-20004.926	    15.329	   -79.250	    41.179
-20037.293	    15.264	   -85.895	    29.373
-20311.816	    15.361	   -77.732	    51.211
-19861.523	    15.493	   -74.976	    14.676
-19875.006	    15.529	   -90.069	    34.574
-19903.311	    15.446	   -67.123	    49.928
-20053.346	    15.442	   -76.242	    39.821
-19826.951	    15.514	   -87.662	    53.627
-20159.750	    15.514	   -95.262	    48.291
-19836.973	    15.574	  -117.331	    59.469
-19816.809	    15.694	   -85.222	    29.348
-20003.932	    15.682	   -73.056	    27.520
-20186.025	    15.608	   -89.888	     2.044
-20019.227	    15.529	   -84.237	    32.601
-19969.102	    15.402	   -85.640	    57.354
-19916.203	    15.446	   -89.030	    15.201
-19923.574	    15.566	  -107.169	    15.588
-19860.773	    15.626	   -89.909	    25.046
-19727.564	    15.688	   -84.309	    22.292
-19579.135	    15.758	   -68.801	     7.037
-19800.973	    15.630	  -107.782	    19.907
-19895.512	    15.396	   -80.733	    32.274
-19877.832	    15.288	   -82.012	    19.855
-19810.725	    15.373	   -79.477	    36.476
-19697.346	    15.466	   -94.679	    56.655
-19920.367	    15.452	   -74.218	    32.473
-19768.951	    15.531	   -90.881	    61.238
-19929.436	    15.658	   -83.253	    47.447
-19720.359	    15.860	   -91.360	    40.659
-19759.303	    15.984	   -74.930	    38.436
-19762.572	    15.864	   -73.992	    56.219
-20007.510	    15.714	   -82.980	    39.675
-19606.369	    15.628	   -94.819	    39.499
-19767.449	    15.477	   -74.640	    49.391
-19830.721	    15.337	   -75.060	    41.570
-19923.150	    15.224	   -94.585	    28.640
-19955.438	    15.137	   -67.687	    30.150
-19980.992	    15.192	  -101.524	    25.548
-19889.387	    15.394	   -83.621	    19.776
-19907.561	    15.602	   -95.593	     3.441
-19863.391	    15.699	   -75.542	    28.022
-19710.857	    15.733	   -91.232	    52.299
-19760.107	    15.738	   -82.705	    47.431
-19701.211	    15.805	   -84.160	    56.363
-19842.822	    15.747	   -70.752	    31.675
-19967.463	    15.645	   -93.445	    21.427
-19861.264	    15.481	   -76.962	    43.966
-20090.045	    15.463	   -73.711	    25.865
-19769.797	    15.597	   -89.913	    27.310
-20010.258	    15.629	   -93.419	    37.166
-20004.701	    15.636	   -87.817	    38.723
-19964.221	    15.505	   -77.372	    72.474
-20189.641	    15.284	   -96.475	    46.246
-20055.420	    15.144	   -89.409	    26.753
-20037.316	    15.205	   -81.053	    47.716
-19851.904	    15.327	   -82.072	    19.474
-19790.891	    15.645	   -91.637	    21.607
-19779.756	    16.042	   -87.917	    20.105
-19458.602	    16.167	   -92.869	    42.541
-19938.012	    15.990	   -82.863	    24.009
-20031.393	    15.761	   -74.922	    50.732
-20046.582	    15.431	   -85.203	    35.546
-20131.582	    15.242	   -71.020	    39.421
-20074.193	    15.265	   -80.293	    43.475
-20219.938	    15.451	   -94.328	    37.873
-20027.773	    15.662	   -82.554	    47.694
-19937.727	    15.818	   -86.509	    27.361
-19905.955	    15.787	   -73.862	    42.588
-20022.510	    15.728	   -80.582	    34.735
-19912.004	    15.746	   -88.087	    47.372
-20090.213	    15.628	   -84.705	    61.260
-19902.486	    15.497	   -93.751	    51.786
-19851.951	    15.460	   -71.541	    52.818
-19970.736	    15.546	   -79.899	    48.399
-19928.959	    15.694	   -84.578	    40.210
-19803.037	    15.721	   -73.288	    58.641
-19988.234	    15.773	   -92.679	    45.165
-20005.504	    15.724	   -85.365	    42.300
-19990.141	    15.686	   -77.768	    32.279
-19818.033	    15.762	   -80.884	    30.669
-19796.842	    15.875	   -99.409	    54.380
-19753.266	    15.906	   -90.494	    22.438
-19646.400	    15.804	   -87.204	    50.352
-19695.373	    15.574	   -80.914	    37.769
-19850.102	    15.435	   -75.068	    42.633
-20008.543	    15.428	   -87.834	    57.521
-19887.500	    15.591	   -81.598	    36.490
-19973.930	    15.772	   -92.136	    26.756
-20041.090	    15.782	   -88.665	    37.429
-19959.982	    15.686	   -80.695	     4.692
-20066.574	    15.643	   -92.289	    43.990
-20069.852	    15.565	   -85.868	    51.171
-20026.621	    15.517	   -98.149	    38.853
-19768.064	    15.432	   -93.424	    53.406
-19963.129	    15.457	   -86.822	    22.001
-20048.488	    15.431	   -83.376	    19.656
-20006.658	    15.383	   -77.965	    29.905
-20035.271	    15.453	   -73.614	    38.043
-19870.900	    15.521	   -77.790	    40.552
-19884.076	    15.560	   -84.985	    19.287
-19810.000	    15.494	   -77.364	    24.271
-20093.844	    15.433	   -77.177	    37.923
-19925.938	    15.382	   -75.173	    38.001
-19698.311	    15.248	   -86.419	    22.108
-20180.691	    15.164	   -81.798	    12.918
-20390.471	    15.288	   -80.985	    41.045
-20028.125	    15.471	   -73.168	    25.828
-20019.117	    15.673	   -80.992	    28.724
-19742.764	    15.806	   -81.945	    25.925
-19741.496	    15.740	   -69.847	    34.659
-20087.648	    15.492	   -94.107	    32.296
-19805.330	    15.291	  -102.234	    39.327
-19843.740	    15.290	   -81.926	    44.989
-19886.320	    15.453	   -82.182	    29.295
-19897.596	    15.554	   -95.906	    41.706
-19936.930	    15.611	   -88.240	    34.649
-19876.438	    15.526	   -78.697	    17.723
-19960.947	    15.321	   -81.947	    38.068
-19817.492	    15.147	   -85.529	    58.174
-20119.949	    15.272	   -69.675	    23.680
-19722.139	    15.555	   -89.279	    29.370
-19868.734	    15.677	   -85.752	    18.235
-19819.406	    15.665	   -83.101	    13.259
-19952.482	    15.648	   -99.200	    18.762
-19958.750	    15.615	   -86.290	    19.825
-20127.875	    15.530	   -83.044	    40.205
-19869.734	    15.471	   -85.443	    65.136
-19792.072	    15.454	   -95.049	    60.121
-19920.084	    15.429	   -83.621	    59.225
-20116.230	    15.505	   -87.150	    39.161
-19929.773	    15.571	   -76.958	    39.788
-19778.285	    15.556	   -78.378	    30.921
-20000.525	    15.506	   -82.453	    22.299
-19840.801	    15.539	   -73.936	    19.842
-19748.762	    15.628	  -102.762	    14.850
-19659.949	    15.489	   -74.158	    45.933
-19926.754	    15.324	   -73.346	    17.160
-20053.383	    15.265	   -76.459	    50.937
-19820.373	    15.346	   -86.881	    42.311
-19976.953	    15.398	   -84.436	    26.504
-19963.840	    15.479	   -78.856	    44.066
-20061.445	    15.405	   -91.926	    38.379
-20289.152	    15.173	   -85.598	    25.336
-20018.195	    15.154	   -82.799	    58.096
-20100.363	    15.298	   -77.238	    41.445
-19970.342	    15.552	   -87.434	    37.436
-19854.939	    15.689	   -89.337	    51.112
-20006.830	    15.612	   -86.324	    46.298
-19978.980	    15.482	   -71.484	    25.188
-20067.068	    15.363	   -84.238	    31.813
-20064.922	    15.446	   -85.535	    37.188
-19882.242	    15.658	   -89.071	    46.326
-19698.240	    15.838	   -72.498	    39.867
-19928.449	    15.781	   -73.577	    24.881
-20056.461	    15.555	   -85.309	    37.037
-19855.195	    15.450	   -87.757	    25.517
-19942.553	    15.501	  -106.356	    12.781
-19898.691	    15.648	   -93.884	    20.385
-19973.477	    15.707	   -77.401	    18.633
-19860.736	    15.662	   -82.939	    32.883
-19683.199	    15.589	   -75.641	    40.577
-19689.934	    15.552	   -77.329	    51.771
-19726.402	    15.585	   -72.501	    39.363
-19765.562	    15.640	   -97.400	    42.701
-19989.773	    15.534	   -76.487	    53.301
-19905.654	    15.446	   -78.646	    56.288
-19910.225	    15.365	   -80.619	    29.046
-20220.420	    15.306	   -80.494	    39.641
-19893.139	    15.390	   -84.542	    51.250
-19912.453	    15.524	   -71.519	    51.401
-19930.512	    15.572	   -94.913	    49.231
-19855.686	    15.583	   -75.463	    20.046
-19892.875	    15.438	   -90.871	    38.123
-19936.225	    15.281	   -73.918	    20.630
-19958.113	    15.294	   -84.107	    41.056
-19899.684	    15.524	   -89.731	    38.103
-19996.811	    15.732	   -93.920	    19.018
-20007.346	    15.773	   -85.600	    26.550
-20093.191	    15.586	   -78.439	    33.736
-20150.006	    15.501	   -80.290	    13.680
-20141.562	    15.431	   -81.623	    19.362
-19883.029	    15.436	   -75.689	    10.103
-19796.473	    15.534	   -68.510	    33.017
-19962.086	    15.661	   -82.770	    24.203
-19790.232	    15.686	   -77.838	    44.452
-19780.979	    15.465	   -82.000	    19.198
-19773.846	    15.279	   -91.059	    17.846
-20126.525	    15.333	  -106.002	    25.028
-19880.328	    15.428	   -77.594	    37.662
-20125.000	    15.491	   -87.622	    12.463
-19778.850	    15.514	   -86.385	    21.224
-20181.809	    15.639	  -108.205	    19.345
-19759.881	    15.703	  -109.024	    21.924
-19817.936	    15.733	   -83.015	    32.287
-20074.049	    15.749	   -89.730	    55.184
-19991.279	    15.697	   -85.989	    23.181
-19941.881	    15.582	   -87.370	    29.072
-20053.760	    15.480	   -91.910	    33.840
-19963.105	    15.485	   -82.898	    12.959
-20093.646	    15.489	   -85.633	    54.629
-19957.098	    15.545	  -109.677	    46.948
-20085.191	    15.525	   -79.778	    45.204
-19832.223	    15.367	   -73.164	    53.580
-20066.354	    15.205	   -83.576	    29.834
-20094.762	    15.256	   -84.102	    23.747
-19773.299	    15.453	   -73.332	    24.554
-19779.508	    15.642	   -76.982	     5.760
-20008.750	    15.685	   -75.629	    13.159
-20063.008	    15.678	   -75.820	    47.864
-19664.455	    15.662	   -64.871	    23.893
-19994.248	    15.654	   -79.770	    24.151
-19764.920	    15.719	   -55.922	    19.530
-19963.201	    15.711	   -68.024	    47.674
-19786.488	    15.600	   -87.176	    31.325
-19638.252	    15.379	   -91.045	    26.456
-20103.088	    15.211	   -73.098	     6.068
-19860.787	    15.186	   -83.357	    12.228
-19961.254	    15.282	   -96.184	    34.438
-19912.852	    15.423	   -89.512	    29.819
-20010.266	    15.538	   -77.888	    22.392
-19552.488	    15.626	   -86.966	    18.740
-19869.025	    15.596	   -95.063	    41.453
-19909.250	    15.570	   -77.869	    25.354
-19810.750	    15.513	   -83.189	    50.620
-20018.121	    15.489	   -87.593	    52.071
-19951.002	    15.401	   -89.790	    31.998
-19802.977	    15.297	   -77.412	    10.649
-20219.631	    15.183	   -96.812	    24.330
-19962.113	    15.398	   -85.054	    28.981
-19831.008	    15.755	   -78.111	    46.052
-19752.379	    16.071	   -83.695	    58.649
-19892.629	    16.069	   -76.301	    29.212
-19878.004	    15.852	   -70.578	    34.696
-20190.199	    15.638	   -97.894	     8.162
-20079.166	    15.422	   -77.554	    30.873
-19910.008	    15.330	   -77.732	    -2.919
-19779.152	    15.362	   -88.552	    20.524
-20071.742	    15.395	   -97.277	     3.013
-19952.979	    15.457	   -83.294	    16.336
-19775.248	    15.646	  -101.207	    17.966
-19743.518	    15.642	   -99.891	    48.002
-20122.402	    15.591	   -72.810	    53.126
-19816.133	    15.451	   -82.961	    42.826
-20129.414	    15.335	   -79.328	    58.313
-19938.420	    15.347	  -105.968	    34.951
-19802.500	    15.464	   -87.976	    33.870
-19712.486	    15.598	   -73.991	    19.872
-19927.869	    15.710	   -68.390	    12.876
-19721.957	    15.712	   -84.246	    23.898
-19900.779	    15.725	   -92.283	    24.641
-19732.793	    15.666	   -80.928	    39.510
-19885.055	    15.552	   -88.377	    36.992
-19761.197	    15.540	   -75.946	    37.857
-19876.262	    15.638	   -80.741	    38.049
-19782.811	    15.773	   -80.706	    54.252
-19900.225	    15.687	   -88.785	    18.242
-20022.982	    15.536	   -83.839	    47.671
-19953.061	    15.389	   -75.171	    58.269
-19799.658	    15.253	   -75.333	    33.464
-19709.904	    15.174	   -75.672	    39.132
-20313.713	    15.216	   -69.113	    72.816
-19946.785	    15.398	   -91.001	    42.896
-19702.939	    15.566	   -79.414	    50.959
-19830.127	    15.657	   -95.699	    26.175
-19874.119	    15.710	   -78.085	     6.773
-19997.074	    15.650	   -88.553	    35.964
-19878.818	    15.551	   -75.873	    15.061
-19868.283	    15.384	   -80.918	    25.976
-20009.098	    15.365	   -93.397	    32.784
-19928.801	    15.417	   -81.199	    11.830
-20069.547	    15.390	   -87.576	    25.237
-19932.309	    15.456	  -111.146	    23.843
-19825.150	    15.558	   -69.442	    -0.149
-19761.828	    15.581	   -68.627	    13.660
-19941.330	    15.559	   -83.945	     8.393
-19833.732	    15.479	   -94.907	    39.813
-19812.541	    15.432	   -83.513	    44.239
-19916.281	    15.358	   -79.665	    32.697
-20007.158	    15.314	   -88.058	    28.484
-20009.172	    15.269	   -88.306	    52.030
-20117.229	    15.227	   -85.090	    36.103
-19876.691	    15.237	   -96.410	    70.137
-20104.850	    15.342	   -79.242	    30.908
-20083.141	    15.435	   -86.363	    24.656
-20022.711	    15.539	   -87.151	    52.448
-19837.678	    15.612	   -96.493	    38.259
-19855.504	    15.549	   -81.112	    35.435
-19840.494	    15.366	   -87.599	    47.462
-20094.781	    15.219	   -97.610	    33.030
-19949.539	    15.353	   -90.333	    46.277
-20050.367	    15.564	   -79.991	    28.489
-19802.332	    15.747	   -85.147	    45.442
-19794.129	    15.795	   -80.799	    26.706
-19896.217	    15.618	   -90.528	    50.397
-19618.277	    15.410	   -80.939	    40.064
-19992.471	    15.131	   -71.446	    52.908
-20250.668	    15.127	   -72.581	    36.104
-20091.795	    15.281	   -90.944	    32.350
-20002.367	    15.465	  -100.158	    25.034
-19760.346	    15.719	   -84.443	    26.802
-19721.631	    15.927	   -81.921	    17.961
-19839.809	    15.961	   -85.002	    31.431
-20048.494	    15.778	   -94.427	    30.791
-19810.312	    15.529	   -94.335	    26.198
-19877.656	    15.402	   -84.142	    44.993
-20123.508	    15.361	   -88.059	    27.026
-20105.975	    15.387	   -89.662	    29.407
-19942.930	    15.490	   -79.076	    33.613
-19942.375	    15.418	   -80.152	    24.356
-19965.180	    15.316	   -91.549	    22.238
-19929.326	    15.369	   -75.701	    37.254
-19779.752	    15.526	   -83.162	    53.712
-19765.238	    15.673	   -77.287	    45.269
-19667.057	    15.774	   -85.107	    13.823
-19588.453	    15.659	   -74.595	    39.261
-19611.398	    15.419	   -81.158	    37.347
-19868.428	    15.275	   -85.884	    44.822
-20194.318	    15.238	   -76.841	    33.746
-19886.551	    15.319	   -85.189	    40.097
-19934.311	    15.389	   -72.913	    13.486
-20040.924	    15.395	   -89.107	    25.356
-19976.607	    15.477	   -97.920	    32.665
-20087.375	    15.554	   -94.550	    37.837
-19583.211	    15.581	   -77.560	    27.553
-20020.354	    15.531	   -84.004	    51.774
-19971.576	    15.582	   -87.215	    33.031
-20058.111	    15.571	   -87.381	    62.907
-19992.910	    15.534	   -83.112	    18.347
-19883.881	    15.507	   -64.598	    62.659
-20038.203	    15.586	   -86.055	    34.963
-19552.754	    15.722	   -85.473	    48.267
-19762.510	    15.800	  -101.917	    21.360
-19988.939	    15.735	   -79.901	    21.105
-19672.697	    15.622	   -79.340	    20.671
-20025.736	    15.438	   -71.356	    21.852
-20020.607	    15.365	   -69.225	    24.924
-19808.723	    15.372	   -98.893	     2.786
-19901.029	    15.415	   -74.821	    40.706
-19945.262	    15.564	  -113.468	    35.814
-19892.762	    15.676	   -84.764	    44.259
-19930.510	    15.684	  -101.809	    52.597
-19834.195	    15.629	   -93.666	    45.236
-20093.471	    15.502	   -93.069	    38.920
-19886.107	    15.312	   -93.154	    12.408
-20381.953	    15.289	   -82.056	    30.545
-19681.303	    15.554	   -84.943	    16.500
-19878.174	    15.657	   -74.503	    23.823
-19854.584	    15.624	   -81.890	    31.522
-19834.508	    15.549	  -101.933	    29.693
-19895.547	    15.471	   -94.557	    34.507
-19970.045	    15.423	   -92.481	    28.447
-20268.342	    15.407	   -75.026	    27.920
-20040.426	    15.447	   -78.471	     5.172
-19842.514	    15.460	   -75.600	    38.129
-19894.248	    15.499	   -91.831	    21.565
-19839.061	    15.621	   -84.970	    36.515
-19644.355	    15.789	   -89.412	    66.034
-19795.012	    15.749	   -84.213	    56.252
-19869.627	    15.656	   -85.163	    30.723
-19866.037	    15.494	   -80.838	    58.776
-19926.955	    15.322	   -75.756	     0.846
-20037.320	    15.283	   -82.927	    17.215
-19976.742	    15.364	   -81.187	    27.096
-19905.248	    15.485	   -81.737	    25.192
-20026.227	    15.585	   -67.236	    59.144
-19661.979	    15.658	   -85.778	    60.580
-19816.279	    15.690	   -85.267	    41.264
-19916.240	    15.681	   -93.938	    31.376
