-19830.611	    15.334	   -92.310	   122.143
-20127.770	    15.383	  -140.666	   -48.959
-19988.869	    15.453	  -167.080	   -52.560
-20282.699	    15.535	  -152.740	   -47.412
-20175.670	    15.618	  -142.892	   -26.166
-19982.141	    15.619	  -155.395	   -26.731
-20119.111	    15.519	  -149.965	   -40.660
-20286.434	    15.467	  -154.726	   -49.093
-20395.910	    15.522	  -164.504	   -50.752
-20192.170	    15.502	  -166.608	   -37.993
-20193.174	    15.360	  -139.838	   -34.087
-20333.721	    15.246	  -148.684	   -28.412
-20179.078	    15.212	  -153.711	   -38.003
-20235.293	    15.245	  -159.950	   -25.865
-20057.350	    15.326	  -147.687	   -55.886
-20034.924	    15.381	  -163.006	   -34.368
-20041.490	    15.384	  -155.671	   -21.157
-20136.277	    15.365	  -155.577	   -40.137
-20290.275	    15.340	  -158.225	   -42.448
-20364.148	    15.150	  -156.226	   -22.195
-20411.213	    15.114	  -159.871	   -44.036
-20572.246	    15.334	  -144.470	   -43.007
-20005.016	    15.578	  -157.258	   -45.682
-20015.449	    15.661	  -157.938	   -35.661
-20121.809	    15.520	  -162.666	   -28.466
-20194.432	    15.514	  -148.202	   -32.421
-19959.402	    15.536	  -160.144	   -27.122
-20334.816	    15.558	  -152.707	   -24.053
-20074.254	    15.572	  -145.227	   -45.118
-19984.695	    15.451	  -161.698	   -39.455
-20428.164	    15.272	  -144.329	   -39.575
-20383.859	    15.245	  -156.084	   -26.951
-20095.932	    15.481	  -150.957	   -40.046
-20057.318	    15.705	  -150.733	   -41.487
-19769.141	    15.716	  -147.145	   -17.869
-20038.322	    15.597	  -147.514	   -34.228
-20160.859	    15.441	  -137.906	   -57.788
-20243.146	    15.369	  -151.333	   -32.100
-20198.188	    15.344	  -161.971	   -45.646
-20265.395	    15.350	  -149.780	   -35.847
-20307.820	    15.338	  -149.130	   -45.975
-20236.158	    15.291	  -164.368	   -26.868
-20174.635	    15.301	  -159.554	   -40.385
-20168.422	    15.364	  -165.892	   -26.782
-20350.582	    15.385	  -157.372	   -40.277
-20294.764	    15.316	  -160.870	   -29.851
-20212.965	    15.343	  -143.576	   -35.261
-20236.035	    15.462	  -149.275	   -47.290
-20453.135	    15.472	  -149.343	   -55.459
-20293.289	    15.368	  -155.449	   -50.626
-20297.125	    15.287	  -151.400	   -45.920
-20131.811	    15.277	  -156.974	   -58.455
-20238.904	    15.241	  -167.483	   -49.669
-20144.320	    15.351	  -156.071	   -73.491
-20036.557	    15.660	  -160.802	   -54.467
-19922.018	    15.915	  -163.236	   -45.843
-20107.012	    15.950	  -139.105	   -37.187
-20119.594	    15.762	  -147.917	   -23.071
-20124.662	    15.565	  -136.053	   -46.934
-20044.178	    15.390	  -149.859	   -39.157
-20094.174	    15.321	  -161.286	   -35.091
-20344.557	    15.340	  -145.600	   -32.449
-20030.430	    15.297	  -153.157	   -52.620
-20230.881	    15.255	  -162.389	   -49.831
-20168.109	    15.262	  -164.239	   -29.594
-20277.572	    15.319	  -156.656	   -38.519
-20362.617	    15.464	  -152.278	   -43.082
-20214.705	    15.673	  -145.411	   -41.239
-20019.689	    15.731	  -150.816	   -51.781
-20113.061	    15.676	  -153.958	   -60.229
-19958.865	    15.478	  -163.540	   -43.084
-20330.340	    15.320	  -146.663	   -48.034
-20075.879	    15.192	  -138.619	   -46.263
-20357.156	    15.034	  -170.117	   -37.925
-20546.326	    15.032	  -146.846	   -35.201
-20259.145	    15.182	  -138.945	   -27.839
-20351.615	    15.343	  -147.439	   -23.613
-20271.656	    15.499	  -162.083	   -34.489
-20189.570	    15.459	  -156.133	   -30.311
-20214.422	    15.324	  -156.007	   -17.061
-20259.242	    15.532	  -149.590	   -35.873
-20004.264	    15.796	  -155.429	   -26.009
-20014.902	    15.979	  -147.047	   -38.708
-20074.535	    15.990	  -154.917	   -47.414
-20344.662	    15.756	  -175.477	   -51.519
-20351.361	    15.348	  -140.135	   -57.981
-20278.746	    15.132	  -143.733	   -34.787
-20366.279	    15.169	  -155.962	   -38.306
-20210.279	    15.200	  -162.282	   -35.253
-20315.877	    15.312	  -154.953	   -37.799
-19943.799	    15.402	  -157.341	   -42.120
-20331.281	    15.432	  -152.724	   -23.177
-20195.785	    15.472	  -141.245	   -31.597
-20095.777	    15.547	  -135.871	   -44.617
-20138.064	    15.671	  -152.508	   -57.954
-20130.611	    15.706	  -160.710	   -42.922
-20160.527	    15.683	  -155.922	   -29.768
-20080.943	    15.715	  -153.441	   -44.415
-19916.113	    15.667	  -163.043	   -22.761
-20020.137	    15.552	  -149.982	   -40.614
-20499.850	    15.494	  -157.000	   -25.826
-20131.080	    15.587	  -151.259	   -22.584
-20308.594	    15.780	  -159.628	   -37.022
-20006.674	    15.946	  -159.925	   -30.337
-20066.855	    15.947	  -153.252	   -25.732
-20355.488	    15.765	  -156.587	   -40.595
-20363.525	    15.503	  -159.529	   -36.661
-20284.639	    15.249	  -141.809	   -62.176
-20114.293	    14.979	  -154.782	   -59.829
-20332.484	    14.935	  -160.791	   -30.641
-20328.686	    15.076	  -152.490	   -46.926
-20354.164	    15.291	  -144.477	   -49.992
-20162.275	    15.513	  -174.439	   -47.564
-20131.316	    15.523	  -155.166	   -39.740
-20251.066	    15.446	  -155.370	   -49.241
-20320.584	    15.469	  -166.009	   -41.963
-20218.764	    15.516	  -158.352	   -38.315
-20057.582	    15.505	  -153.075	   -42.370
-20315.465	    15.341	  -160.256	   -48.727
-20140.645	    15.167	  -153.312	   -36.559
-20250.779	    15.085	  -145.158	   -42.541
-20144.766	    15.113	  -153.475	   -40.346
-20362.471	    15.271	  -154.236	   -53.320
-20215.111	    15.515	  -164.955	   -38.381
-20061.203	    15.629	  -159.507	   -14.540
-20255.844	    15.598	  -153.412	   -25.088
-20090.604	    15.534	  -160.438	   -41.659
-20294.555	    15.359	  -150.959	   -26.087
-20147.846	    15.171	  -151.844	   -43.337
-20184.666	    15.148	  -144.123	   -50.543
-20453.088	    15.139	  -142.920	   -31.999
-20246.287	    15.221	  -157.031	   -46.426
-19923.900	    15.372	  -141.804	   -17.785
-19931.297	    15.532	  -156.772	   -30.379
-20036.199	    15.548	  -152.530	   -21.219
-20019.029	    15.469	  -143.868	   -45.368
-20129.979	    15.478	  -148.567	   -43.004
-19905.211	    15.556	  -162.299	   -53.783
-19912.473	    15.589	  -162.212	   -38.254
-20401.143	    15.585	  -155.724	   -49.013
-20466.363	    15.488	  -149.498	   -39.180
-20381.055	    15.487	  -148.109	   -63.637
-20238.100	    15.545	  -145.781	   -48.801
-19966.857	    15.587	  -169.916	   -61.587
-20234.719	    15.517	  -156.806	   -41.184
-20148.453	    15.497	  -127.486	   -34.867
-20152.586	    15.486	  -157.918	   -45.956
-19891.197	    15.447	  -162.731	   -39.200
-20081.240	    15.357	  -139.721	   -29.730
-20096.545	    15.323	  -165.776	   -55.527
-20304.135	    15.231	  -145.709	   -43.306
-20123.604	    15.218	  -150.906	   -37.960
-20458.445	    15.196	  -152.330	   -36.635
-20215.938	    15.235	  -177.177	   -26.139
-20181.016	    15.343	  -156.310	   -57.063
-19973.906	    15.501	  -165.960	   -60.295
-20270.188	    15.655	  -157.549	   -35.724
-19781.443	    15.598	  -157.812	   -42.975
-20263.094	    15.499	  -159.844	   -65.641
-20440.611	    15.497	  -149.170	   -42.238
-20303.547	    15.505	  -173.526	   -34.615
-20302.984	    15.362	  -157.214	   -40.498
-20386.398	    15.290	  -161.686	   -20.161
-20369.217	    15.321	  -153.133	   -32.777
-20278.311	    15.363	  -151.267	   -26.109
-20195.059	    15.535	  -152.235	   -40.747
-20052.467	    15.583	  -142.883	   -26.091
-20077.533	    15.532	  -177.458	   -15.178
-20426.152	    15.498	  -163.451	   -45.316
-20311.955	    15.428	  -157.012	   -31.004
-20429.195	    15.296	  -153.870	   -35.839
-20325.688	    15.204	  -150.567	   -41.348
-20314.568	    15.248	  -149.763	   -46.119
-20240.209	    15.377	  -167.735	   -39.052
-20074.035	    15.526	  -147.954	   -56.919
-20125.363	    15.490	  -161.338	   -48.956
-20166.338	    15.385	  -151.380	   -50.137
-20285.307	    15.359	  -155.859	   -50.252
-20211.939	    15.280	  -152.256	   -47.428
-20171.684	    15.196	  -162.926	   -46.020
-20105.166	    15.211	  -165.226	   -36.789
-20210.389	    15.277	  -157.313	   -53.610
-20125.051	    15.501	  -162.614	   -35.865
-20046.258	    15.731	  -148.776	   -28.820
-20109.105	    15.885	  -137.642	   -26.140
-19918.102	    15.744	  -158.761	   -45.829
-20223.467	    15.413	  -158.732	   -46.999
-20500.896	    15.119	  -151.900	   -35.375
-20587.592	    15.176	  -148.006	   -57.526
-20207.877	    15.366	  -156.015	   -43.227
-20042.227	    15.552	  -155.532	   -44.343
-20150.373	    15.629	  -157.061	   -37.567
-19980.195	    15.630	  -150.951	   -40.655
-20039.846	    15.574	  -170.648	   -51.103
-20101.621	    15.596	  -156.659	   -36.704
-20049.326	    15.516	  -159.393	   -46.266
-20369.725	    15.349	  -175.230	   -39.578
-20446.385	    15.266	  -152.488	   -32.991
-20135.537	    15.218	  -159.071	   -56.158
-20350.477	    15.245	  -148.865	   -56.330
-20100.854	    15.382	  -160.084	   -34.648
-20199.977	    15.514	  -153.891	   -42.271
-20299.971	    15.534	  -155.983	   -38.262
-20046.623	    15.477	  -161.642	   -45.438
-20143.602	    15.457	  -157.323	   -30.097
-20216.236	    15.458	  -163.009	   -30.391
-20183.318	    15.478	  -158.967	   -42.722
-20341.361	    15.423	  -165.850	   -49.995
-20039.637	    15.290	  -144.195	   -46.578
-20072.527	    15.128	  -175.467	   -32.315
-20115.520	    15.153	  -152.545	   -34.130
-19966.666	    15.413	  -169.416	   -51.245
-20001.523	    15.656	  -148.792	   -24.723
-20221.494	    15.691	  -142.574	   -45.364
-20015.119	    15.613	  -152.143	   -27.284
-20086.463	    15.423	  -157.659	   -48.279
-20295.914	    15.137	  -150.236	   -53.692
-20223.377	    15.039	  -154.193	   -50.429
-20398.924	    15.102	  -157.758	   -41.715
-20336.801	    15.327	  -157.773	   -54.669
-19970.945	    15.538	  -144.729	   -20.270
-20083.977	    15.595	  -154.405	   -54.742
-20103.350	    15.541	  -151.081	   -41.933
-20213.537	    15.477	  -168.975	   -56.568
-20354.686	    15.343	  -153.926	   -42.536
-20181.459	    15.459	  -150.950	   -19.276
-20078.666	    15.670	  -146.177	   -42.377
-20167.631	    15.796	  -165.760	   -51.053
-20063.779	    15.863	  -146.250	   -40.663
-19910.453	    15.720	  -167.783	   -44.127
-20044.252	    15.525	  -144.492	   -31.219
-20224.514	    15.437	  -158.487	   -32.239
-20297.490	    15.438	  -150.431	   -49.743
-20020.992	    15.543	  -155.946	   -25.625
-20008.598	    15.601	  -153.604	   -31.369
-20206.615	    15.618	  -171.702	   -59.960
-20226.912	    15.590	  -158.027	   -45.894
-20188.312	    15.566	  -159.470	   -42.778
-20139.461	    15.552	  -155.777	   -53.744
-20271.525	    15.499	  -150.123	   -40.770
-20385.090	    15.416	  -154.735	   -53.135
-20381.129	    15.361	  -157.968	   -51.915
-20241.523	    15.544	  -160.006	   -41.107
-20151.770	    15.713	  -157.587	   -38.455
-20196.693	    15.576	  -152.853	   -35.397
-20247.684	    15.372	  -166.512	   -41.168
-20457.693	    15.226	  -158.100	   -44.344
-20074.381	    15.205	  -167.814	   -52.132
-20065.875	    15.335	  -154.087	   -33.793
-20226.373	    15.483	  -154.819	   -41.887
-19968.260	    15.581	  -156.152	   -47.445
-19920.795	    15.631	  -143.399	   -44.472
-19943.822	    15.486	  -152.736	   -62.392
-20082.965	    15.308	  -153.614	   -42.165
-20480.141	    15.194	  -165.221	   -43.404
-20208.645	    15.235	  -164.766	   -30.876
-20137.473	    15.454	  -154.261	   -38.406
-20190.150	    15.605	  -147.228	   -29.595
-20049.023	    15.738	  -152.630	   -13.033
-20182.773	    15.593	  -165.304	   -29.848
-20034.664	    15.378	  -146.736	   -41.453
-20380.912	    15.212	  -143.446	   -42.649
-20347.500	    15.211	  -143.875	   -50.146
-20444.617	    15.236	  -166.984	   -57.869
-20243.051	    15.316	  -146.219	   -17.500
-20207.875	    15.263	  -152.982	   -34.553
-19934.582	    15.350	  -160.197	   -26.674
-19986.996	    15.504	  -166.251	   -29.814
-19847.023	    15.679	  -146.105	   -26.737
-19953.641	    15.713	  -144.270	   -26.505
-20050.793	    15.584	  -151.636	   -30.535
-20106.533	    15.403	  -149.777	   -15.766
-20150.359	    15.255	  -160.862	   -36.782
-20307.027	    15.247	  -154.368	   -43.239
-20350.076	    15.257	  -143.020	   -38.137
-20071.672	    15.399	  -148.513	   -37.518
-20034.189	    15.672	  -158.931	   -52.214
-20199.438	    15.762	  -162.179	   -40.549
-19999.801	    15.599	  -146.506	   -52.056
-19957.037	    15.359	  -157.024	   -55.805
-20281.812	    15.169	  -157.871	   -45.235
-20047.871	    15.170	  -138.424	   -49.408
-20404.855	    15.287	  -151.089	   -41.794
-20026.875	    15.480	  -165.834	   -62.661
-20101.092	    15.589	  -154.869	   -62.961
-20028.725	    15.727	  -141.818	   -52.767
-20082.822	    15.770	  -157.488	   -33.447
-19987.070	    15.613	  -151.381	   -22.322
-20091.871	    15.252	  -150.750	   -26.738
-20368.355	    14.992	  -155.694	   -32.091
-20370.416	    14.910	  -148.927	   -44.312
-20432.547	    15.049	  -160.309	   -47.538
-20193.492	    15.166	  -132.899	   -58.733
-20188.570	    15.288	  -161.234	   -45.795
-20262.619	    15.452	  -154.539	   -39.381
-19948.881	    15.466	  -162.138	   -38.660
-19831.496	    15.506	  -139.043	   -60.946
-19984.266	    15.550	  -156.954	   -53.527
-19995.619	    15.497	  -162.902	   -35.303
-20249.227	    15.356	  -150.658	   -35.743
-20412.080	    15.214	  -155.145	   -51.926
-19978.398	    15.160	  -161.548	   -37.983
-20385.400	    15.089	  -160.494	   -35.655
-20334.689	    15.208	  -156.944	   -34.861
-20172.885	    15.430	  -167.651	   -31.864
-20291.277	    15.359	  -157.213	   -43.740
-20233.385	    15.152	  -147.552	   -33.523
-20263.738	    15.143	  -157.839	   -47.862
-20141.707	    15.324	  -156.578	   -36.928
-20212.928	    15.608	  -146.729	   -33.702
-20063.201	    15.791	  -160.057	   -51.462
-20132.236	    15.767	  -142.100	   -31.128
-20167.207	    15.688	  -158.522	   -48.030
-20123.410	    15.654	  -154.221	   -36.328
-20036.645	    15.625	  -136.430	   -34.532
-20166.547	    15.549	  -140.749	   -22.393
-20165.156	    15.476	  -152.354	   -22.070
-20153.691	    15.447	  -156.645	   -29.761
-20164.402	    15.479	  -143.634	   -44.920
-20168.828	    15.533	  -165.272	   -50.769
-20589.199	    15.509	  -137.383	   -58.525
-20036.252	    15.489	  -153.937	   -37.542
-20309.273	    15.541	  -150.837	   -41.899
-20121.908	    15.654	  -134.173	   -52.960
-20044.207	    15.739	  -145.182	   -35.271
-20125.926	    15.702	  -140.420	   -48.548
-20214.375	    15.644	  -163.045	   -44.575
-20011.457	    15.594	  -152.042	   -43.709
-20399.438	    15.459	  -151.510	   -43.826
-20312.711	    15.294	  -159.042	   -32.023
-20353.553	    15.211	  -154.707	   -34.416
-20154.410	    15.268	  -165.716	   -24.844
-20175.885	    15.368	  -155.760	   -47.163
-20057.230	    15.563	  -151.944	   -28.175
-19961.779	    15.695	  -155.636	   -39.382
-20166.678	    15.551	  -162.620	   -34.843
-19981.701	    15.394	  -165.174	   -31.204
-20176.543	    15.266	  -161.169	   -36.529
-20066.484	    15.203	  -139.531	   -37.273
-19904.516	    15.368	  -153.509	   -29.009
-20195.623	    15.515	  -164.692	   -44.735
-20368.430	    15.486	  -159.756	   -42.663
-20435.387	    15.311	  -150.671	   -56.563
-20408.361	    15.266	  -150.751	   -35.643
-20145.402	    15.349	  -147.022	   -40.097
-20171.438	    15.422	  -163.790	   -28.967
-20320.123	    15.411	  -149.218	   -38.817
-20358.043	    15.328	  -153.547	   -35.894
-20323.855	    15.326	  -157.188	   -59.676
-20060.104	    15.402	  -149.625	   -30.246
-20039.350	    15.455	  -150.378	   -39.591
-20075.855	    15.484	  -157.101	   -40.965
-20287.307	    15.466	  -160.572	   -44.169
-20237.412	    15.480	  -162.361	   -46.174
-20439.984	    15.527	  -156.474	   -43.530
-20275.998	    15.554	  -151.326	   -43.883
-20331.125	    15.487	  -142.731	   -47.810
-20156.895	    15.535	  -140.150	   -31.018
-20008.402	    15.678	  -158.128	   -49.719
-20094.826	    15.745	  -146.767	   -41.832
-20016.791	    15.646	  -135.869	   -31.978
-20238.158	    15.452	  -154.515	   -41.477
-20089.703	    15.300	  -155.800	   -37.869
-20281.330	    15.231	  -160.715	   -61.092
-20127.453	    15.251	  -161.278	   -40.862
-20310.305	    15.453	  -145.524	   -68.450
-19978.863	    15.549	  -152.863	   -58.974
-20198.238	    15.532	  -154.072	   -48.994
-20165.551	    15.438	  -175.719	   -54.795
-20368.980	    15.261	  -161.996	   -28.821
-20144.908	    15.116	  -154.970	   -30.414
-20189.812	    15.024	  -151.330	   -32.686
-20350.502	    15.035	  -151.271	   -60.859
-20099.086	    15.254	  -152.217	   -34.729
-20137.180	    15.580	  -153.810	   -24.060
-20354.666	    15.786	  -152.299	   -51.395
-20144.896	    15.810	  -146.404	   -55.723
-20410.031	    15.671	  -141.505	   -28.483
-20333.459	    15.499	  -154.113	   -42.930
-20246.322	    15.344	  -157.282	   -43.684
-20379.920	    15.236	  -158.887	   -31.341
-20317.197	    15.270	  -162.675	   -53.755
-20075.020	    15.365	  -152.147	   -39.784
-20168.049	    15.415	  -147.528	   -48.105
-20100.818	    15.402	  -144.217	   -41.291
-19882.385	    15.508	  -157.120	   -45.447
-19970.000	    15.589	  -163.331	   -38.105
-20222.926	    15.544	  -158.491	   -35.041
-20188.646	    15.404	  -157.192	   -39.295
-20367.256	    15.281	  -160.338	   -30.538
-20307.980	    15.320	  -172.377	   -33.846
-20193.328	    15.429	  -147.980	   -65.805
-20157.051	    15.575	  -144.755	   -24.038
-20137.395	    15.552	  -155.568	   -56.323
-20198.535	    15.504	  -138.663	   -51.548
-20386.111	    15.466	  -173.464	   -39.019
-20129.217	    15.463	  -167.104	   -50.951
-20113.443	    15.569	  -152.479	   -40.345
-20012.055	    15.607	  -138.441	   -19.070
-20068.162	    15.609	  -141.355	   -45.857
-20050.533	    15.581	  -144.897	   -55.324
-20348.447	    15.492	  -151.050	   -48.942
-20212.844	    15.462	  -164.294	   -47.336
-20230.111	    15.442	  -163.651	   -60.671
-20396.582	    15.356	  -162.080	   -44.707
-20026.859	    15.314	  -150.465	   -28.975
-20245.283	    15.386	  -134.980	   -34.162
-20354.463	    15.385	  -155.792	   -31.682
-20241.535	    15.380	  -160.299	   -20.216
-20103.639	    15.361	  -150.831	   -24.559
-20256.512	    15.364	  -150.276	   -47.965
-20285.785	    15.335	  -138.561	   -52.611
-20107.973	    15.375	  -158.100	   -31.226
-20077.248	    15.319	  -149.099	   -34.205
-20219.281	    15.260	  -147.163	   -39.110
-20271.357	    15.280	  -154.641	   -37.206
-20307.557	    15.353	  -149.075	   -51.992
-20094.104	    15.346	  -169.545	   -54.495
-20106.764	    15.384	  -156.363	   -41.152
-19914.961	    15.438	  -160.072	   -18.294
-19890.764	    15.582	  -167.119	   -37.819
-20219.529	    15.605	  -167.795	   -43.041
-20111.002	    15.613	  -176.011	   -59.318
-20203.701	    15.708	  -157.946	   -52.810
-20098.359	    15.794	  -163.976	   -22.208
-20162.061	    15.635	  -139.554	   -42.360
-20088.123	    15.420	  -143.814	   -55.082
-20442.268	    15.217	  -172.337	   -39.056
-20244.062	    15.113	  -138.384	   -41.734
-20030.934	    15.212	  -160.564	   -46.912
-19981.480	    15.456	  -151.920	   -55.602
-20110.094	    15.591	  -152.785	   -44.804
-20259.051	    15.556	  -146.649	   -29.491
-20373.500	    15.388	  -161.099	   -66.161
-20388.354	    15.248	  -147.482	   -46.226
-20098.561	    15.245	  -166.939	   -47.382
-19922.406	    15.409	  -152.749	   -26.599
-20183.162	    15.547	  -154.044	   -24.153
-20242.453	    15.528	  -157.612	   -40.175
-20444.320	    15.512	  -171.844	   -49.282
-20206.004	    15.487	  -147.466	   -50.740
-20223.607	    15.414	  -151.650	   -51.829
-20174.779	    15.360	  -175.653	   -63.989
-20250.959	    15.329	  -146.327	   -36.662
-20369.924	    15.338	  -158.403	   -45.523
-20279.814	    15.432	  -171.459	   -66.638
-20038.527	    15.653	  -158.609	   -57.505
-19833.875	    15.682	  -148.242	   -65.022
-20231.469	    15.589	  -161.344	   -36.628
-20080.621	    15.536	  -153.204	   -39.255
-20317.875	    15.468	  -162.368	   -39.485
-20260.623	    15.531	  -167.248	   -39.368
-20074.256	    15.573	  -162.710	   -45.510
-19933.205	    15.579	  -156.195	   -30.345
-20059.195	    15.604	  -166.325	   -52.118
-20145.260	    15.589	  -149.497	   -37.750
-19927.898	    15.450	  -142.776	   -29.302
-20118.021	    15.417	  -149.098	   -26.908
-20426.062	    15.503	  -143.920	   -29.323
-20238.455	    15.503	  -146.513	   -37.240
-20215.016	    15.449	  -150.734	   -31.074
-20011.084	    15.485	  -135.319	   -56.449
-20359.189	    15.411	  -152.435	   -55.294
-20263.494	    15.344	  -154.146	   -36.332
-20156.686	    15.320	  -146.475	   -12.615
-20095.172	    15.302	  -151.237	   -32.327
-20368.723	    15.252	  -160.319	   -34.032
-20258.850	    15.139	  -157.031	   -31.000
-20398.172	    15.245	  -148.917	   -36.091
-20141.102	    15.459	  -153.364	   -46.841
-20107.221	    15.609	  -149.038	   -39.804
-20214.344	    15.660	  -160.513	   -26.514
-20126.875	    15.584	  -145.128	   -43.483
-20056.412	    15.488	  -148.508	   -44.502
-20279.963	    15.511	  -160.375	   -38.137
-19959.143	    15.610	  -156.582	   -39.983
-20205.543	    15.601	  -154.554	   -58.452
-20165.924	    15.470	  -157.040	   -36.218
-20357.979	    15.207	  -144.205	   -42.466
-20390.439	    15.068	  -153.405	   -40.561
-20414.604	    15.228	  -163.200	   -48.801
-19981.162	    15.535	  -140.964	   -43.785
-20051.156	    15.712	  -155.568	   -29.803
-20230.363	    15.767	  -159.214	   -33.668
-20297.818	    15.607	  -157.132	   -39.506
-20185.002	    15.526	  -158.945	   -47.848
-20287.691	    15.500	  -154.357	   -39.572
-19843.592	    15.542	  -152.893	   -14.268
-20151.410	    15.493	  -147.154	   -34.447
-19988.438	    15.491	  -146.541	   -39.599
-20126.584	    15.549	  -161.766	   -48.333
-19933.086	    15.566	  -155.830	   -49.311
-19996.285	    15.498	  -142.896	   -28.940
-20118.102	    15.365	  -176.007	   -45.893
-20159.203	    15.078	  -148.564	   -27.993
-20392.479	    14.990	  -153.946	   -33.683
-20365.311	    15.179	  -160.456	   -35.889
-20208.932	    15.374	  -155.348	   -35.693
-20181.289	    15.483	  -163.395	   -24.058
-20163.449	    15.548	  -161.496	   -45.521
-20339.242	    15.465	  -162.852	   -43.887
-19980.527	    15.496	  -159.714	   -41.646
-20025.123	    15.551	  -158.933	   -25.747
-20090.043	    15.410	  -155.660	   -38.533
-20223.762	    15.161	  -158.718	   -32.612
-20246.643	    15.131	  -146.623	   -56.778
-20245.961	    15.216	  -150.563	   -53.578
-20002.477	    15.308	  -151.892	   -52.099
-20028.316	    15.332	  -147.600	   -41.108
-20345.293	    15.343	  -162.252	   -47.865
-20460.031	    15.446	  -158.714	   -52.562
-20265.588	    15.470	  -162.914	   -51.432
-20265.830	    15.491	  -148.376	   -27.620
-20222.318	    15.510	  -158.624	   -21.667
-20183.953	    15.442	  -153.561	   -20.225
-20234.928	    15.251	  -151.611	   -32.518
-20122.541	    15.132	  -149.257	   -29.302
-20263.182	    15.197	  -146.261	   -38.892
-20080.545	    15.427	  -158.134	   -36.751
-19989.650	    15.635	  -145.701	   -36.603
-20256.775	    15.620	  -141.388	   -25.590
-20363.455	    15.442	  -150.194	   -29.593
-20130.947	    15.359	  -152.745	   -31.463
-19938.668	    15.312	  -164.007	   -35.924
-20119.721	    15.322	  -151.272	   -57.669
-19970.826	    15.359	  -169.270	   -31.322
-20181.771	    15.413	  -162.797	   -41.853
-20295.676	    15.451	  -166.691	   -31.020
-20150.965	    15.390	  -149.060	   -35.214
-20397.262	    15.406	  -155.447	   -24.909
-20177.559	    15.373	  -162.561	   -27.783
-20371.736	    15.257	  -151.175	   -33.355
-20325.133	    15.301	  -161.043	   -33.549
-19908.791	    15.503	  -153.797	   -54.783
-19955.061	    15.539	  -155.550	   -34.928
-20198.074	    15.528	  -152.490	   -36.763
-20106.961	    15.506	  -146.829	   -32.291
-20174.551	    15.456	  -151.429	   -44.400
-20091.006	    15.281	  -140.660	   -54.903
-20095.189	    15.316	  -170.574	   -66.090
-20021.922	    15.360	  -147.629	   -37.123
-20085.201	    15.477	  -147.713	   -30.506
-20168.738	    15.532	  -151.776	   -50.056
-20488.857	    15.369	  -166.831	   -36.352
-20520.141	    15.258	  -140.687	   -31.822
-20318.271	    15.216	  -154.121	   -45.282
-19963.867	    15.329	  -159.279	   -37.018
-19945.389	    15.441	  -149.605	   -32.447
-20379.201	    15.487	  -157.099	   -33.398
-20182.076	    15.630	  -154.931	   -58.173
-20008.609	    15.721	  -160.747	   -51.819
-20122.113	    15.632	  -163.499	   -48.681
-20103.746	    15.397	  -165.394	   -40.727
-20208.090	    15.090	  -155.503	   -32.816
-20447.732	    14.879	  -160.204	   -52.199
-20496.189	    15.001	  -148.952	   -34.368
-20090.324	    15.288	  -154.009	   -44.860
-20088.910	    15.484	  -158.248	   -32.615
-20086.982	    15.581	  -161.445	   -40.410
-20299.623	    15.543	  -159.769	   -46.546
-20065.896	    15.531	  -148.622	   -29.891
-20148.844	    15.433	  -153.434	   -48.175
-20024.717	    15.336	  -149.537	   -54.051
-20332.568	    15.277	  -143.374	   -40.326
-20127.492	    15.299	  -150.374	   -40.102
-20246.914	    15.416	  -153.766	   -37.858
-19934.844	    15.525	  -160.637	   -48.889
-20062.391	    15.686	  -150.243	   -42.412
-20228.885	    15.752	  -145.249	   -13.427
-20182.812	    15.626	  -142.922	   -45.188
-20167.391	    15.409	  -155.469	   -47.040
-20310.533	    15.287	  -147.211	   -26.855
-20068.002	    15.181	  -138.896	   -44.536
-20264.432	    15.176	  -160.761	   -42.539
-20190.646	    15.231	  -156.910	   -12.319
-20331.062	    15.407	  -154.349	   -33.309
-20088.348	    15.483	  -139.391	   -26.286
-20154.781	    15.499	  -169.760	   -41.010
-20257.756	    15.467	  -150.864	   -39.889
-20262.729	    15.450	  -161.408	   -37.870
-20250.332	    15.293	  -146.857	   -45.949
-20068.309	    15.154	  -141.939	   -32.338
-20090.947	    15.135	  -157.206	   -31.854
-20208.160	    15.437	  -146.870	   -32.162
-20048.818	    15.775	  -145.358	   -29.991
-19984.920	    16.024	  -165.570	   -30.158
-19960.320	    16.063	  -149.833	   -46.069
-19890.994	    16.012	  -152.285	   -18.529
-20119.010	    15.829	  -160.795	   -43.750
-20401.545	    15.635	  -162.731	   -28.377
-20259.115	    15.513	  -174.251	   -54.874
-20084.684	    15.363	  -159.363	   -50.721
-20258.525	    15.430	  -159.501	   -40.865
-20211.088	    15.472	  -141.055	   -42.205
-20312.070	    15.420	  -145.136	   -33.176
-20184.125	    15.285	  -143.794	   -46.543
-20072.250	    15.266	  -160.173	   -32.680
-19909.852	    15.341	  -140.835	   -47.092
-19988.736	    15.318	  -159.564	   -18.900
-20207.516	    15.268	  -162.137	   -33.428
-20232.326	    15.282	  -165.956	   -37.087
-20105.381	    15.310	  -161.518	   -60.554
-20543.479	    15.187	  -160.104	   -39.720
-20330.486	    15.172	  -158.977	   -34.239
-20521.580	    15.284	  -156.706	   -37.084
-20194.457	    15.401	  -142.661	   -20.443
-19935.629	    15.458	  -146.482	   -46.933
-20152.373	    15.430	  -152.178	   -26.450
-20252.668	    15.505	  -149.299	   -37.057
-20220.914	    15.437	  -146.861	   -36.869
-20074.684	    15.442	  -148.516	   -45.509
-20227.137	    15.488	  -157.862	   -39.720
-20094.557	    15.426	  -142.765	   -25.103
-20353.834	    15.523	  -139.984	   -44.125
-20184.381	    15.533	  -143.750	   -50.864
-19989.043	    15.454	  -150.539	   -51.832
-20275.070	    15.316	  -164.062	   -33.613
-20257.531	    15.226	  -143.186	   -38.044
-20457.148	    15.202	  -153.727	   -37.536
-20376.922	    15.294	  -156.872	   -20.671
-20366.531	    15.335	  -153.122	   -37.509
-20081.908	    15.350	  -157.759	   -32.569
-20096.541	    15.297	  -148.130	   -49.565
-20222.826	    15.233	  -159.807	   -39.214
-19954.688	    15.287	  -159.591	   -39.916
-20151.998	    15.433	  -158.989	   -18.647
-19868.062	    15.547	  -157.719	   -49.483
-19996.516	    15.476	  -156.418	   -46.139
-20276.867	    15.335	  -148.023	   -37.284
-20195.666	    15.355	  -163.057	   -42.730
-20135.793	    15.475	  -140.849	   -56.038
-20173.186	    15.452	  -166.953	   -26.581
-20278.176	    15.377	  -144.433	   -51.023
-20207.996	    15.417	  -145.855	   -34.233
-20115.291	    15.611	  -137.692	   -26.325
-20081.680	    15.759	  -167.624	   -34.408
-20079.527	    15.713	  -146.250	   -31.976
-20163.883	    15.542	  -141.759	   -44.395
-20167.604	    15.410	  -147.230	   -38.912
-20323.242	    15.382	  -141.416	   -47.145
-20351.957	    15.377	  -160.447	   -47.813
-20041.188	    15.397	  -163.229	   -60.142
-20017.668	    15.332	  -170.817	   -59.036
-19959.670	    15.287	  -154.887	   -43.518
-20344.488	    15.315	  -158.439	   -44.794
-20242.492	    15.442	  -150.863	   -52.841
-20030.746	    15.725	  -172.504	   -46.381
-19764.393	    15.890	  -151.770	   -53.758
-20210.584	    15.791	  -170.339	   -25.273
-20266.141	    15.624	  -132.498	   -47.950
-19982.008	    15.369	  -153.572	   -12.453
-20315.875	    15.233	  -153.669	   -57.906
-20338.412	    15.245	  -162.605	   -44.921
-20068.043	    15.318	  -153.814	   -26.009
-20325.096	    15.421	  -155.404	   -64.329
-20374.500	    15.553	  -153.222	   -36.576
-20219.080	    15.716	  -163.751	   -44.375
-19994.623	    15.760	  -153.182	   -32.090
-20178.736	    15.558	  -146.299	   -43.507
-20432.910	    15.260	  -172.785	   -51.658
-20330.600	    15.069	  -154.697	   -16.457
-20195.824	    15.181	  -163.077	   -63.418
-20127.781	    15.399	  -149.510	   -43.978
-20295.455	    15.405	  -166.532	   -35.737
-20219.879	    15.400	  -162.524	   -33.570
-20017.037	    15.432	  -150.158	   -54.080
-19900.617	    15.425	  -148.150	   -36.497
-20375.730	    15.407	  -154.953	   -32.825
-20165.801	    15.264	  -147.339	   -43.516
-20308.520	    15.275	  -140.573	   -46.215
-20285.627	    15.356	  -152.592	   -48.971
-20090.709	    15.402	  -149.286	   -35.566
-20128.930	    15.425	  -142.306	   -52.569
-20137.461	    15.458	  -159.778	   -37.477
-20089.725	    15.418	  -149.413	   -48.809
-19947.746	    15.361	  -152.545	   -30.552
-19985.764	    15.367	  -156.950	   -36.439
-20164.809	    15.454	  -157.856	   -30.197
-19828.898	    15.598	  -164.596	   -31.639
-20162.133	    15.746	  -146.594	   -35.976
-20171.141	    15.863	  -140.640	   -55.598
-19927.018	    15.883	  -148.155	   -26.020
-20088.678	    15.786	  -149.658	   -28.716
-19875.428	    15.692	  -145.041	   -34.465
-20301.834	    15.674	  -139.615	   -34.707
-20250.506	    15.578	  -137.689	   -51.643
-20052.404	    15.570	  -133.801	   -64.481
-20033.018	    15.689	  -153.572	   -35.877
-19898.184	    15.965	  -156.176	   -19.784
-20025.094	    16.140	  -150.097	   -35.145
-20188.961	    15.976	  -149.390	   -54.899
-19850.225	    15.615	  -147.213	   -45.027
-20289.236	    15.212	  -156.497	   -40.597
-20313.607	    15.026	  -155.908	   -46.182
-20445.721	    15.064	  -154.543	   -52.700
-20550.391	    15.246	  -148.681	   -44.739
-20315.020	    15.422	  -148.175	   -43.386
-20217.572	    15.595	  -164.457	   -38.027
-19917.121	    15.625	  -153.890	   -27.713
-20195.379	    15.530	  -164.960	   -40.071
-20324.658	    15.596	  -143.425	   -43.176
-20193.357	    15.690	  -148.257	   -35.399
-20014.963	    15.702	  -147.393	   -48.470
-20065.951	    15.437	  -157.168	   -26.824
-20401.098	    15.059	  -142.685	   -27.744
-20347.801	    14.869	  -157.151	   -25.218
-20225.098	    14.995	  -159.860	   -37.087
-20171.670	    15.137	  -148.517	   -25.274
-19863.928	    15.201	  -158.228	   -24.404
-20314.416	    15.209	  -151.394	   -18.385
-20168.422	    15.261	  -132.876	   -45.468
-20349.846	    15.267	  -136.320	   -21.345
-20413.332	    15.246	  -152.102	   -34.199
-20398.699	    15.271	  -144.465	   -46.835
-20117.344	    15.346	  -154.724	   -36.339
-19893.332	    15.473	  -155.722	   -33.795
-20038.246	    15.524	  -150.870	   -49.549
-20027.602	    15.536	  -153.167	   -27.248
-20513.531	    15.502	  -142.419	   -42.924
-20113.512	    15.341	  -148.467	   -28.721
-20211.113	    15.305	  -155.619	   -32.096
-20253.430	    15.282	  -163.076	   -32.112
-20146.523	    15.348	  -157.475	   -47.984
-20168.662	    15.504	  -158.963	   -37.391
-20264.324	    15.575	  -165.313	   -43.018
-20389.342	    15.558	  -166.273	   -40.076
-20174.557	    15.504	  -160.243	   -55.405
-20013.662	    15.562	  -155.970	   -45.567
-20204.021	    15.562	  -167.644	   -26.224
-20178.404	    15.354	  -151.880	   -40.661
-20278.676	    15.126	  -147.882	   -47.123
-20447.184	    15.077	  -138.931	   -45.497
-19931.854	    15.238	  -152.081	   -61.141
-19942.855	    15.509	  -150.826	   -38.390
-20197.320	    15.736	  -160.486	   -61.684
-20115.754	    15.715	  -149.536	   -46.580
-19855.424	    15.554	  -160.024	   -45.612
-20462.592	    15.483	  -152.743	   -56.558
-20266.393	    15.506	  -143.736	   -39.395
-20161.154	    15.609	  -142.108	   -18.119
-20029.568	    15.636	  -152.265	   -37.553
-20195.125	    15.502	  -160.108	   -32.966
-20176.588	    15.295	  -159.886	   -48.967
-20357.693	    15.251	  -154.467	   -28.331
-20227.477	    15.375	  -167.706	   -46.116
-20085.420	    15.609	  -157.611	   -32.376
-20018.777	    15.755	  -169.332	   -45.105
-20132.832	    15.668	  -158.392	   -82.667
-20102.170	    15.428	  -157.603	   -57.035
-20530.662	    15.215	  -154.269	   -52.757
-20484.199	    15.084	  -143.064	   -50.982
-20619.098	    15.226	  -150.487	   -37.238
-20188.061	    15.528	  -167.108	   -32.710
-19884.143	    15.704	  -164.267	   -37.103
-19975.197	    15.689	  -162.733	   -21.528
-19946.756	    15.552	  -159.775	   -35.413
-20081.646	    15.361	  -172.018	   -41.748
-20186.502	    15.312	  -150.911	   -44.001
-20085.180	    15.289	  -149.232	   -37.800
-20266.172	    15.344	  -158.157	   -44.122
-20416.514	    15.297	  -140.521	   -48.675
-20232.305	    15.275	  -159.872	   -44.122
-20304.652	    15.332	  -161.822	   -47.014
-20346.209	    15.452	  -165.303	   -48.439
-20054.949	    15.625	  -149.780	   -28.681
-19946.443	    15.782	  -148.711	   -44.491
-20047.521	    15.805	  -163.519	   -28.771
-19956.094	    15.720	  -162.049	   -27.166
-20260.982	    15.501	  -154.254	   -20.414
-20312.838	    15.283	  -162.942	   -23.716
-20273.627	    15.114	  -149.569	   -27.139
-20090.541	    15.116	  -158.116	   -37.876
-20309.166	    15.323	  -149.453	   -48.104
-20012.273	    15.646	  -164.291	   -49.993
-19938.221	    15.763	  -159.377	   -57.041
-20412.367	    15.585	  -166.284	   -34.948
-20192.334	    15.465	  -144.909	   -58.234
-20456.238	    15.467	  -144.234	   -42.028
-20209.463	    15.504	  -150.537	   -40.115
-20367.273	    15.566	  -145.701	   -59.331
-20390.436	    15.550	  -156.937	   -22.448
-20189.014	    15.606	  -143.390	   -55.852
-20271.848	    15.697	  -167.398	   -41.630
-20118.910	    15.781	  -149.454	   -39.430
-19939.029	    15.864	  -155.167	   -39.881
-20020.475	    15.809	  -143.876	   -42.251
-20191.855	    15.641	  -168.242	   -26.214
-20169.730	    15.495	  -168.372	   -37.290
-20442.723	    15.375	  -140.091	   -49.008
-20160.158	    15.269	  -160.524	   -41.890
-20108.688	    15.239	  -128.132	   -39.155
-20073.383	    15.323	  -141.883	   -36.112
-20043.189	    15.470	  -151.621	   -35.715
-20213.678	    15.456	  -162.908	   -32.755
-19950.316	    15.262	  -153.947	   -26.867
-20180.320	    15.166	  -138.827	   -23.505
-19971.180	    15.227	  -160.977	   -49.297
-20171.256	    15.413	  -177.765	   -26.119
-20157.875	    15.522	  -153.260	   -47.977
-20098.166	    15.608	  -143.029	   -48.145
-20042.699	    15.602	  -148.753	   -40.094
-20262.113	    15.638	  -134.560	   -64.790
-20098.309	    15.583	  -158.177	   -47.771
-20137.572	    15.519	  -149.598	   -34.780
-20207.246	    15.492	  -159.201	   -38.002
-20216.605	    15.460	  -151.835	   -48.425
-20071.525	    15.493	  -148.468	   -22.150
-20145.164	    15.481	  -155.445	   -44.055
-20058.863	    15.516	  -155.059	   -41.999
-20150.182	    15.506	  -146.930	   -40.921
-20331.104	    15.442	  -167.404	   -53.841
-20334.635	    15.413	  -152.755	   -36.075
-20466.375	    15.432	  -157.793	   -32.921
-20458.531	    15.427	  -153.993	   -44.935
-20426.957	    15.461	  -152.675	   -41.212
-20299.643	    15.484	  -158.484	   -22.766
-20226.084	    15.439	  -148.861	   -24.495
-20307.041	    15.275	  -158.685	   -45.577
-20346.771	    15.207	  -149.051	   -21.838
-20197.707	    15.341	  -156.989	   -32.251
-19971.115	    15.573	  -160.836	   -29.760
-20209.105	    15.648	  -156.267	   -30.327
-19958.914	    15.653	  -151.510	   -32.279
-20337.047	    15.763	  -169.851	   -65.198
-19889.803	    15.913	  -150.577	   -44.487
-20173.010	    15.831	  -144.552	   -37.924
-19990.051	    15.624	  -153.570	   -19.167
-20072.822	    15.263	  -150.582	   -28.053
-20257.705	    15.077	  -136.707	   -25.265
-20301.424	    15.104	  -156.823	   -26.872
-20219.215	    15.139	  -145.216	   -26.720
-20101.438	    15.282	  -147.766	   -28.093
-20219.174	    15.515	  -162.772	   -34.297
-19898.979	    15.686	  -151.806	   -41.641
-20079.477	    15.750	  -157.667	   -32.275
-20062.119	    15.732	  -167.320	   -32.500
-20155.658	    15.540	  -168.742	   -47.639
-20272.379	    15.340	  -156.873	   -32.342
-20203.125	    15.306	  -169.236	   -51.684
-20059.203	    15.329	  -162.971	   -42.763
-20446.039	    15.290	  -159.624	   -41.530
-20674.840	    15.299	  -168.080	   -47.802
-20269.594	    15.369	  -146.965	   -19.926
-20043.033	    15.466	  -155.640	   -39.960
-19776.008	    15.487	  -154.808	   -41.871
-20010.951	    15.469	  -141.068	   -43.878
-20231.639	    15.376	  -153.332	   -15.505
-20280.438	    15.264	  -141.862	   -47.836
-20354.916	    15.162	  -159.519	   -35.471
-20412.748	    15.212	  -141.409	   -33.160
-20305.184	    15.326	  -164.836	   -32.174
-20156.652	    15.479	  -150.763	   -27.526
-20181.957	    15.501	  -161.895	   -52.611
-20155.732	    15.395	  -135.826	   -40.827
-20116.852	    15.318	  -152.982	   -34.046
-20057.672	    15.393	  -150.528	   -32.742
-20181.611	    15.494	  -148.896	   -47.136
-19784.572	    15.691	  -153.868	   -53.888
-19978.273	    15.764	  -159.348	   -38.857
-19690.988	    15.590	  -157.325	   -40.181
-20125.539	    15.247	  -158.218	   -36.314
-20002.893	    15.090	  -156.840	   -32.084
-20323.893	    15.099	  -158.600	   -21.615
-20215.438	    15.183	  -130.741	   -16.651
-20232.441	    15.267	  -149.395	   -21.168
-19898.947	    15.436	  -156.556	   -34.990
-20192.469	    15.485	  -154.084	   -18.915
-20177.490	    15.453	  -137.924	   -28.015
-20491.646	    15.327	  -156.199	   -49.517
-20152.053	    15.242	  -147.870	   -41.514
-20075.549	    15.254	  -155.274	   -26.925
-20231.270	    15.310	  -151.551	   -21.963
-20074.092	    15.404	  -156.935	   -44.786
-20227.029	    15.503	  -156.968	   -31.507
-20129.943	    15.456	  -168.756	   -42.615
-20202.092	    15.347	  -153.250	   -31.263
-20365.527	    15.270	  -147.917	   -32.859
-20319.020	    15.165	  -159.653	   -47.318
-20271.334	    15.157	  -153.193	   -41.147
-20389.334	    15.334	  -151.059	   -41.085
-20085.871	    15.505	  -149.070	   -35.904
-20050.000	    15.540	  -167.278	   -61.209
-20117.686	    15.544	  -148.351	   -34.582
-20170.072	    15.445	  -150.642	   -42.624
-20299.305	    15.329	  -150.907	   -52.929
-19993.902	    15.333	  -151.323	   -15.682
-19980.166	    15.397	  -161.998	   -53.501
-19871.098	    15.561	  -167.183	   -28.513
-20022.547	    15.723	  -147.669	    -9.100
-19958.512	    15.827	  -144.710	   -42.421
-20241.830	    15.842	  -152.627	   -45.639
-20019.002	    15.626	  -148.185	   -47.241
-20467.725	    15.248	  -161.125	   -34.181
-20432.613	    15.108	  -150.035	   -44.017
-20159.086	    15.266	  -161.839	   -48.134
-20058.150	    15.536	  -158.802	   -34.684
-20054.277	    15.678	  -163.084	   -40.362
-20051.602	    15.684	  -150.543	   -37.685
-20238.834	    15.670	  -161.475	   -41.836
-20159.584	    15.604	  -149.022	   -15.705
-20213.188	    15.520	  -128.735	   -41.805
-20180.863	    15.447	  -161.718	   -41.462
-20317.957	    15.428	  -152.021	   -59.260
-20412.822	    15.496	  -168.686	   -25.818
-20275.650	    15.596	  -159.841	   -50.672
-20145.467	    15.742	  -165.668	   -39.287
-20068.645	    15.921	  -146.068	   -59.805
-19939.182	    16.000	  -150.129	   -44.726
-20166.898	    15.906	  -154.374	   -34.335
-20203.236	    15.683	  -156.434	   -46.028
-20489.211	    15.365	  -151.065	   -44.663
-20291.891	    15.247	  -144.725	   -34.279
-20157.488	    15.235	  -161.270	   -41.756
-20333.482	    15.299	  -158.146	   -57.241
-20069.855	    15.412	  -158.806	   -43.432
-20247.744	    15.500	  -153.365	   -51.649
-20271.221	    15.515	  -139.392	   -34.966
-20112.123	    15.364	  -163.637	   -29.898
-20357.189	    15.210	  -168.048	   -56.020
-20345.670	    15.205	  -152.413	   -34.291
-20168.064	    15.406	  -138.790	   -54.842
-20265.545	    15.664	  -150.354	   -37.497
-20045.625	    15.713	  -151.736	   -18.525
-20040.162	    15.576	  -163.301	   -61.212
-20055.336	    15.407	  -156.360	   -46.273
-20313.145	    15.321	  -158.377	   -43.328
-20163.479	    15.378	  -154.698	   -47.528
-20313.996	    15.352	  -163.462	   -33.955
-20428.834	    15.300	  -145.121	   -29.986
-20058.459	    15.275	  -167.184	   -38.249
-20226.203	    15.260	  -158.222	   -43.309
-20306.391	    15.237	  -143.408	   -19.590
-20052.381	    15.255	  -155.109	   -23.494
-20302.234	    15.296	  -134.183	   -31.113
-20166.119	    15.320	  -164.216	   -39.860
-20086.496	    15.428	  -161.433	   -49.842
-20135.938	    15.440	  -153.362	   -38.823
-20254.242	    15.507	  -144.742	   -38.020
-20378.818	    15.586	  -144.889	   -25.804
-19992.125	    15.652	  -155.780	   -28.784
-20096.617	    15.549	  -148.597	   -30.901
-19989.236	    15.285	  -168.399	   -44.307
-20349.867	    15.062	  -151.517	   -28.806
-20204.686	    15.080	  -156.425	   -23.486
-20352.535	    15.288	  -163.388	   -39.471
-20268.799	    15.560	  -150.838	   -40.900
-20161.430	    15.632	  -153.005	   -44.281
-20308.307	    15.581	  -159.936	   -42.979
-20526.838	    15.380	  -149.381	   -34.894
-20376.516	    15.095	  -163.038	   -31.875
-20483.920	    14.992	  -161.890	   -43.225
-20400.521	    15.046	  -156.772	   -47.019
-20445.215	    15.255	  -148.831	   -42.762
-20298.898	    15.479	  -164.675	   -31.853
-19782.207	    15.721	   176.913	   -41.462
-20107.275	    15.868	  -169.066	   -31.009
-20116.518	    15.846	  -146.195	   -27.242
-20244.785	    15.643	  -142.601	   -50.856
-20163.158	    15.280	  -150.663	   -34.499
-20239.895	    15.029	  -143.535	   -25.138
-20057.031	    15.066	  -159.993	   -43.697
-20342.396	    15.329	  -158.623	   -43.399
-19955.191	    15.522	  -156.341	   -28.779
-20261.549	    15.768	  -146.291	   -29.329
-19764.436	    15.948	  -151.103	   -29.957
-19878.514	    15.897	  -145.729	   -23.900
-20137.025	    15.680	  -143.003	   -35.419
-20166.859	    15.459	  -153.509	   -25.036
-20315.996	    15.318	  -155.899	   -39.899
-20391.293	    15.293	  -161.253	   -39.677
-20255.941	    15.242	  -153.669	   -43.798
-20122.529	    15.352	  -159.625	   -40.002
-20414.287	    15.508	  -149.296	   -47.623
-20096.865	    15.585	  -160.459	   -57.667
-20254.484	    15.614	  -160.819	   -49.018
-20131.881	    15.476	  -161.147	   -56.609
-20385.193	    15.294	  -153.120	   -50.417
-20163.727	    15.177	  -156.714	   -29.386
-19925.912	    15.282	  -167.936	   -31.578
-20208.047	    15.398	  -134.407	   -45.865
-20115.580	    15.406	  -144.675	   -51.597
-20036.051	    15.403	  -167.027	   -34.335
-20368.973	    15.468	  -161.545	   -12.442
-20185.986	    15.649	  -147.215	   -17.991
-20279.822	    15.719	  -151.137	   -49.982
-20059.506	    15.692	  -158.141	   -39.004
-20178.918	    15.592	  -141.949	   -58.271
-20100.754	    15.515	  -140.138	   -54.847
-20205.764	    15.452	  -159.190	   -35.754
-20233.582	    15.323	  -142.723	   -54.056
-20335.961	    15.230	  -146.814	   -30.972
-20293.486	    15.258	  -140.263	   -37.733
-20272.695	    15.288	  -144.008	   -52.708
-20038.680	    15.409	  -152.984	   -39.799
-20040.277	    15.591	  -155.343	   -32.941
-19829.510	    15.794	  -158.671	   -52.011
-20102.223	    15.796	  -154.359	   -21.821
-20212.877	    15.668	  -147.935	   -49.825
-20396.074	    15.500	  -168.491	   -43.468
-20220.432	    15.402	  -155.942	   -43.576
-19902.578	    15.391	  -159.447	   -41.521
