-19910.566	    15.334	   -92.310	   122.143
-19675.582	    15.448	  -127.616	  -142.950
-19604.838	    15.621	  -115.936	   -68.212
-19753.465	    15.647	  -112.265	   -48.812
-19836.729	    15.515	  -129.633	   -51.485
-19836.381	    15.448	  -120.786	   -64.193
-19784.695	    15.541	  -111.607	   -58.633
-19514.279	    15.715	  -111.966	   -62.446
-19686.553	    15.793	  -118.363	   -70.996
-19645.271	    15.753	  -101.239	   -45.941
-19776.486	    15.657	  -100.708	   -46.383
-19626.777	    15.537	  -114.138	   -52.620
-19770.797	    15.481	  -122.656	   -45.212
-19585.508	    15.562	  -114.547	   -57.609
-19632.912	    15.854	  -115.963	   -38.229
-19534.561	    15.984	   -88.530	   -67.275
-19758.615	    15.950	  -109.790	   -69.593
-19625.748	    15.904	  -126.487	   -54.287
-19619.717	    15.876	  -109.903	   -51.834
-19745.967	    15.808	   -90.337	   -46.445
-19782.404	    15.688	   -89.941	   -44.826
-19715.338	    15.540	  -126.903	   -72.513
-19588.990	    15.516	  -109.433	   -35.265
-19532.629	    15.488	  -104.895	   -66.631
-19689.879	    15.492	  -107.867	   -64.025
-19573.027	    15.545	  -109.346	   -42.925
-19427.629	    15.545	   -96.628	   -35.569
-19811.588	    15.611	  -102.669	   -59.826
-19661.023	    15.751	  -126.077	   -64.043
-19559.918	    15.691	  -122.117	   -61.770
-19740.676	    15.589	  -108.568	   -47.098
-19677.576	    15.469	  -132.729	   -38.792
-19670.340	    15.514	  -104.069	   -55.034
-19446.549	    15.717	   -91.090	   -58.592
-19847.924	    15.934	  -117.815	   -48.771
-19688.881	    16.004	  -107.882	   -52.602
-19743.355	    15.970	   -85.838	   -57.361
-19281.244	    15.849	  -103.621	   -57.413
-19606.828	    15.709	  -113.007	   -80.964
-19694.533	    15.659	  -131.378	   -95.134
-19852.662	    15.709	   -85.679	   -61.944
-19809.092	    15.757	   -92.348	   -79.701
-19350.039	    15.682	  -114.785	   -61.370
-19617.596	    15.519	  -116.204	   -71.132
-19931.805	    15.395	  -102.270	   -90.621
-19776.850	    15.410	  -102.113	   -49.964
-19426.018	    15.586	   -98.181	   -75.083
-19634.609	    15.835	   -96.935	   -55.955
-19565.154	    15.960	  -106.911	   -60.810
-19533.830	    16.042	  -105.830	   -74.845
-19481.602	    15.945	  -124.525	   -68.718
-19593.115	    15.677	   -96.341	   -67.039
-19564.336	    15.457	  -113.179	   -61.351
-19897.938	    15.385	  -107.239	   -49.891
-19560.299	    15.388	  -103.093	   -67.861
-19598.393	    15.606	   -81.940	   -53.960
-19580.332	    15.902	  -109.409	   -63.501
-19599.496	    16.033	   -83.145	   -54.921
-19633.523	    16.031	  -128.077	   -31.287
-19574.723	    15.856	  -111.786	   -68.355
-19674.486	    15.644	  -122.030	   -55.118
-19687.961	    15.472	  -128.992	   -49.251
-19834.330	    15.320	  -120.573	   -61.335
-19912.463	    15.267	  -108.960	   -48.129
-19902.600	    15.376	  -112.831	   -53.426
-19822.529	    15.605	  -104.522	   -55.675
-19657.373	    15.705	  -117.879	   -71.625
-19633.033	    15.782	  -103.689	   -85.554
-19666.312	    15.842	  -114.647	   -64.978
-19658.969	    15.880	  -112.396	   -61.916
-19603.115	    15.849	  -115.435	   -31.041
-19716.783	    15.689	  -111.553	   -48.473
-19642.244	    15.561	   -80.312	   -71.715
-19508.084	    15.464	   -88.162	   -42.327
-19809.441	    15.457	  -121.109	   -64.799
-19535.451	    15.717	  -117.248	   -65.668
-19690.340	    15.939	   -97.782	   -72.624
-19434.260	    15.889	   -96.345	   -41.462
-19709.096	    15.689	  -111.015	   -85.954
-19489.980	    15.476	   -92.215	   -63.293
-19887.045	    15.270	   -97.386	   -53.860
-19694.258	    15.255	   -92.450	   -69.808
-19786.686	    15.356	  -147.893	   -58.246
-19929.715	    15.356	  -136.911	   -62.247
-19916.895	    15.330	  -122.425	   -60.835
-19651.775	    15.383	  -109.174	   -63.682
-19980.920	    15.450	   -93.022	   -76.765
-19668.920	    15.581	   -73.076	   -54.810
-19682.311	    15.699	  -107.594	   -58.944
-19593.869	    15.747	   -83.368	   -52.326
-19537.184	    15.778	  -119.139	   -85.152
-19465.078	    15.799	  -107.104	   -38.498
-19705.301	    15.759	  -100.153	   -59.341
-19500.521	    15.742	   -91.573	   -67.043
-19689.842	    15.800	  -109.639	   -69.741
-19667.088	    15.786	  -110.221	   -63.968
-19769.996	    15.718	  -103.723	   -45.071
-19567.189	    15.612	  -118.678	   -40.931
-19840.525	    15.557	   -95.403	   -79.896
-19554.283	    15.607	  -139.989	   -80.233
-19600.539	    15.700	  -110.536	   -66.225
-19720.367	    15.706	  -112.736	   -64.919
-19489.111	    15.726	  -100.134	   -47.862
-19812.652	    15.790	  -109.252	   -62.025
-19871.650	    15.832	   -74.803	   -47.904
-19909.568	    15.862	   -89.827	   -52.214
-19512.291	    15.893	   -99.781	   -54.422
-19663.846	    15.841	   -99.619	   -68.122
-19569.107	    15.631	  -120.060	   -69.661
-19520.486	    15.219	  -117.205	   -55.794
-19941.473	    15.001	   -97.422	   -59.394
-19971.492	    15.127	  -100.705	   -52.421
-19506.244	    15.424	   -96.288	   -59.981
-19754.080	    15.791	   -91.476	   -49.892
-19501.861	    16.015	   -98.626	   -65.210
-19861.680	    15.915	  -107.734	   -69.887
-19424.289	    15.680	  -101.673	   -88.880
-19561.594	    15.521	   -96.813	   -83.446
-19765.119	    15.529	  -124.299	   -57.447
-19629.934	    15.596	   -96.734	   -58.308
-19646.943	    15.750	  -103.571	   -58.437
-19635.822	    15.795	  -143.459	   -66.158
-19564.461	    15.768	  -113.913	   -84.602
-19380.680	    15.606	  -133.520	   -46.368
-19865.160	    15.546	  -110.268	   -93.347
-19819.049	    15.537	  -102.931	   -78.641
-19676.561	    15.727	  -115.743	   -59.699
-19471.336	    16.011	  -141.580	   -50.705
-19680.029	    16.245	  -101.615	   -54.671
-19435.193	    16.204	  -106.824	   -59.626
-19576.215	    15.969	  -128.339	   -83.217
-19650.463	    15.642	  -116.157	   -86.822
-19805.133	    15.417	  -129.594	   -97.411
-19824.443	    15.348	  -109.516	   -53.459
-19912.469	    15.521	   -99.985	   -39.990
-19473.254	    15.742	   -98.656	   -82.759
-19650.809	    15.877	   -97.608	   -66.562
-19456.270	    15.873	  -124.153	   -71.175
-19341.029	    15.815	   -92.856	   -71.024
-19381.189	    15.759	  -132.387	   -59.403
-19461.189	    15.680	  -120.777	   -65.208
-19748.191	    15.512	  -120.994	   -44.322
-19687.260	    15.531	  -123.228	   -53.660
-19486.822	    15.677	  -139.618	   -65.257
-19556.420	    15.756	  -118.910	   -52.411
-19614.773	    15.707	  -141.497	   -56.281
-19932.986	    15.553	  -108.778	   -55.634
-19784.648	    15.499	   -99.718	   -34.672
-19776.273	    15.517	   -95.592	   -65.670
-19623.992	    15.553	  -127.500	   -66.180
-19491.295	    15.610	  -101.329	   -58.098
-19636.869	    15.591	   -93.952	   -70.547
-19666.342	    15.516	  -117.349	   -92.689
-19725.705	    15.521	   -85.098	   -66.206
-19459.664	    15.456	  -116.128	   -63.226
-19679.068	    15.389	  -127.503	   -63.748
-19807.088	    15.379	  -121.892	   -70.328
-19659.932	    15.451	  -115.125	   -90.353
-19806.730	    15.515	  -103.558	   -62.051
-19762.350	    15.635	   -86.839	   -77.581
-19760.770	    15.614	   -93.245	   -72.084
-19587.371	    15.623	  -105.793	   -64.067
-19673.568	    15.662	   -90.772	   -52.082
-19664.158	    15.636	  -112.488	   -57.340
-19855.861	    15.531	  -116.604	   -54.658
-19679.611	    15.519	   -81.638	   -42.631
-19923.244	    15.542	   -86.778	   -67.763
-19607.514	    15.535	   -83.683	   -57.072
-19614.014	    15.641	   -87.016	   -61.649
-19456.271	    15.651	  -123.950	   -45.918
-19762.154	    15.585	  -116.994	   -60.890
-19481.709	    15.666	   -85.436	   -44.354
-19355.184	    15.776	   -93.180	   -57.933
-19340.660	    15.929	   -89.038	   -40.783
-19480.232	    16.050	  -102.668	   -78.496
-19626.717	    16.024	  -110.131	   -64.245
-19478.199	    15.722	  -100.952	   -52.270
-19662.080	    15.556	  -117.044	   -55.240
-19817.244	    15.608	  -102.623	   -60.115
-19602.875	    15.752	  -120.723	   -56.902
-19563.477	    15.780	  -104.115	   -78.368
-19727.988	    15.776	  -104.482	   -55.914
-19688.062	    15.771	  -107.945	   -64.795
-19859.074	    15.597	   -95.425	   -47.925
-19880.195	    15.449	  -105.482	   -76.042
-19639.568	    15.542	  -103.457	   -91.575
-19464.887	    15.826	  -130.231	   -65.616
-19432.732	    16.023	  -130.189	   -75.817
-19679.516	    16.073	  -107.139	   -57.233
-19531.451	    16.022	   -96.718	   -48.783
-19547.279	    15.821	   -80.833	   -55.515
-19917.951	    15.560	   -94.684	   -58.286
-19723.018	    15.472	  -108.940	   -75.893
-19513.883	    15.617	   -90.585	   -68.747
-19653.848	    15.768	  -115.314	   -54.916
-19762.248	    15.787	  -109.024	   -43.168
-19657.422	    15.654	  -119.611	   -64.822
-19643.307	    15.524	  -129.211	   -62.404
-19637.518	    15.586	   -97.843	   -51.986
-19599.582	    15.771	   -88.783	   -59.499
-19386.984	    15.802	  -119.551	   -55.237
-19588.275	    15.864	   -99.529	   -88.437
-19346.531	    15.816	   -99.300	   -79.080
-19703.697	    15.715	   -99.998	   -56.563
-19503.795	    15.650	   -93.804	   -66.651
-20092.125	    15.569	   -87.497	   -64.734
-19839.457	    15.508	  -112.493	   -74.101
-19839.098	    15.497	  -103.184	   -44.558
-19772.371	    15.558	  -101.978	   -68.781
-19467.965	    15.605	   -88.512	   -63.254
-19654.965	    15.758	  -131.668	   -29.581
-19409.988	    15.988	   -92.664	   -69.461
-19452.635	    15.970	  -111.064	   -75.321
-19933.389	    15.772	   -98.732	   -77.094
-19771.859	    15.509	   -71.552	   -68.642
-19498.686	    15.350	  -134.231	   -58.889
-19490.350	    15.401	  -120.387	   -54.945
-19544.264	    15.539	   -96.607	   -51.111
-19382.881	    15.630	  -109.713	   -68.397
-19682.562	    15.612	  -125.757	   -41.595
-19905.223	    15.598	  -119.236	   -63.201
-19625.215	    15.599	   -99.264	   -64.377
-19918.107	    15.612	  -101.650	   -66.971
-19901.479	    15.585	  -119.198	   -60.013
-19678.705	    15.578	  -119.430	   -76.765
-19698.568	    15.551	  -116.836	   -63.879
-19780.213	    15.563	  -123.690	   -66.107
-19907.719	    15.556	  -109.962	   -81.050
-19531.596	    15.553	   -84.076	   -47.580
-19447.195	    15.512	   -99.062	   -89.516
-19868.088	    15.522	  -104.787	   -51.838
-19754.486	    15.616	   -86.184	   -86.305
-20054.551	    15.717	  -121.879	   -64.081
-19545.225	    15.850	   -98.590	   -53.078
-19285.271	    15.960	  -108.471	   -62.003
-19639.967	    15.812	  -103.099	   -55.559
-19449.988	    15.687	  -107.343	   -63.750
-19702.359	    15.691	  -109.516	   -84.658
-19787.730	    15.684	   -98.312	   -71.438
-19710.703	    15.604	  -119.327	   -50.180
-19530.760	    15.479	  -119.246	   -68.872
-20024.803	    15.501	   -79.002	   -42.410
-19643.945	    15.545	  -123.964	   -64.482
-19586.625	    15.593	  -112.000	   -80.312
-19786.479	    15.552	  -122.282	   -72.447
-19707.100	    15.619	  -128.514	   -46.600
-19603.289	    15.690	  -137.954	   -64.961
-19646.695	    15.738	   -94.441	   -66.352
-19495.869	    15.700	  -116.790	   -65.229
-19553.256	    15.583	   -94.567	   -83.407
-19655.727	    15.356	  -113.128	   -52.992
-19548.195	    15.241	   -93.123	   -44.066
-19930.221	    15.243	   -82.477	   -48.960
-19859.111	    15.367	  -107.700	   -69.264
-19513.824	    15.739	  -119.482	   -64.696
-19397.523	    15.976	  -113.594	   -54.404
-19415.201	    15.974	   -88.092	   -46.520
-19762.713	    15.844	   -85.919	   -67.468
-19665.939	    15.703	  -101.606	   -38.404
-19860.941	    15.397	  -105.771	   -67.407
-19868.730	    15.175	  -113.450	   -62.160
-19870.910	    15.203	  -102.585	   -69.744
-19854.980	    15.375	   -94.323	   -68.510
-19678.338	    15.510	  -134.635	   -72.925
-19632.191	    15.654	  -136.045	   -77.820
-19617.482	    15.746	  -106.867	   -79.311
-19598.322	    15.861	  -108.925	   -72.277
-19652.979	    16.015	  -116.802	   -74.290
-19488.441	    16.043	   -90.557	   -82.918
-19772.566	    15.907	   -77.540	   -55.428
-19661.496	    15.602	  -111.347	   -48.378
-19908.635	    15.449	  -107.670	  -104.083
-19966.311	    15.413	   -97.576	   -98.424
-19673.826	    15.559	  -116.021	   -83.564
-19550.975	    15.706	   -92.924	   -71.383
-19626.701	    15.880	   -91.243	   -50.573
-19543.641	    15.911	   -99.437	   -51.445
-19383.832	    15.786	   -88.612	   -54.014
-19727.258	    15.652	   -72.651	   -63.398
-19696.566	    15.554	   -85.318	   -54.691
-19565.201	    15.738	   -98.491	   -54.098
-19447.834	    15.990	  -103.429	   -66.466
-19604.074	    16.128	   -97.577	   -44.079
-19540.281	    16.092	   -99.315	   -59.360
-19764.033	    15.999	  -135.179	   -70.349
-19445.732	    15.855	  -102.934	   -53.783
-19488.367	    15.693	   -77.839	   -59.918
-19600.502	    15.627	   -91.095	   -58.110
-19499.170	    15.522	   -86.635	   -24.741
-19635.150	    15.534	  -105.514	   -67.362
-19555.807	    15.747	   -96.995	   -73.780
-19568.291	    16.027	   -79.471	   -74.011
-19396.359	    16.151	  -102.051	   -63.484
-19468.518	    15.992	  -111.178	   -71.792
-19739.812	    15.672	  -121.198	   -75.769
-19605.467	    15.406	  -106.127	   -65.742
-19654.955	    15.377	  -109.748	   -73.932
-19645.312	    15.442	   -83.714	   -59.293
-19586.059	    15.566	   -87.806	   -71.254
-19786.803	    15.625	  -124.722	   -66.666
-19670.512	    15.523	  -100.125	   -63.460
-19539.531	    15.437	  -110.981	   -56.612
-19695.115	    15.410	  -102.187	   -57.904
-19669.467	    15.499	   -88.863	   -53.637
-19705.215	    15.663	  -109.586	   -45.415
-19661.701	    15.937	  -104.921	   -80.943
-19445.219	    16.104	  -103.031	   -55.482
-19670.162	    16.183	  -108.855	   -61.375
-19625.285	    16.045	   -92.778	   -72.629
-19530.051	    15.745	   -95.076	   -47.411
-19553.441	    15.497	  -120.331	   -75.699
-19743.053	    15.417	  -126.509	   -57.068
-19770.197	    15.558	  -111.171	   -56.222
-19710.684	    15.860	  -116.499	   -44.327
-19495.752	    16.092	   -99.752	   -66.615
-19671.926	    16.001	  -105.249	   -70.544
-19523.602	    15.732	  -100.571	   -86.780
-19865.924	    15.452	  -100.039	   -62.121
-19671.520	    15.382	   -93.552	   -88.167
-19875.039	    15.506	  -103.617	   -90.951
-19668.143	    15.548	   -95.604	   -67.412
-19569.572	    15.613	  -101.330	   -51.780
-19704.609	    15.577	   -99.395	   -62.275
-19436.635	    15.560	  -113.664	   -42.209
-19448.398	    15.613	   -85.995	   -48.184
-19765.520	    15.708	  -114.133	   -51.732
-19619.074	    15.815	  -100.527	   -61.301
-19493.793	    15.770	  -111.742	   -41.818
-19580.863	    15.673	  -106.119	   -54.388
-19753.051	    15.573	  -122.237	   -51.128
-19926.637	    15.581	  -105.455	   -49.112
-19723.867	    15.651	  -100.871	   -52.550
-19796.727	    15.614	  -125.966	   -36.376
-19687.238	    15.579	  -109.510	   -63.545
-19752.668	    15.642	  -111.093	   -34.298
-19637.955	    15.624	  -109.548	   -69.557
-19720.385	    15.614	   -87.685	   -69.252
-19715.045	    15.527	   -86.034	   -76.805
-19527.346	    15.556	   -88.104	   -67.606
-19740.570	    15.619	  -106.950	   -52.276
-19789.076	    15.806	   -93.501	   -74.290
-19716.830	    16.043	  -115.310	   -75.156
-19331.320	    16.064	  -112.091	   -65.745
-19452.018	    15.859	   -99.667	   -67.132
-19609.139	    15.584	  -123.294	   -49.894
-19640.131	    15.469	  -103.759	   -75.800
-19873.836	    15.459	  -104.193	   -37.540
-19900.971	    15.552	   -98.477	   -50.394
-19565.332	    15.617	  -110.897	   -56.688
-19609.932	    15.690	  -109.593	   -73.342
-19661.039	    15.732	  -115.365	   -69.655
-19409.070	    15.666	   -91.464	   -53.770
-19699.830	    15.372	   -96.322	   -67.290
-20005.051	    15.257	  -120.588	   -74.484
-19830.402	    15.401	   -84.201	   -89.431
-19802.080	    15.661	   -87.558	   -77.243
-19824.537	    15.856	  -101.908	   -63.877
-19668.139	    15.861	  -141.291	   -52.301
-19732.721	    15.832	  -116.399	   -57.719
-19857.645	    15.852	  -129.703	   -47.644
-19761.814	    15.857	   -99.475	   -88.679
-19471.414	    15.744	  -127.574	   -42.210
-19817.104	    15.625	  -111.690	   -39.433
-19904.430	    15.629	   -93.318	   -61.238
-19701.846	    15.797	  -123.623	   -60.370
-19820.758	    15.819	  -115.220	   -72.543
-19774.064	    15.795	  -116.329	   -81.622
-19945.371	    15.825	   -82.616	   -51.087
-19635.393	    15.816	   -94.893	   -75.554
-19851.279	    15.717	  -100.148	   -55.559
-19754.229	    15.565	   -88.951	   -51.842
-19711.896	    15.443	   -84.529	   -55.872
-19882.543	    15.345	  -106.237	   -59.842
-19884.893	    15.365	   -92.350	   -42.053
-19592.262	    15.527	   -95.981	   -84.653
-19768.000	    15.748	  -124.501	  -101.647
-19358.438	    15.774	  -135.367	   -86.512
-19596.756	    15.651	   -80.643	   -82.616
-19997.785	    15.493	   -94.207	   -80.836
-19813.400	    15.420	  -120.120	   -57.196
-19663.902	    15.524	  -117.756	   -80.662
-19657.730	    15.576	  -105.865	   -61.647
-19473.354	    15.494	  -109.606	   -73.104
-19860.752	    15.418	  -103.730	   -72.320
-19727.348	    15.481	  -104.237	   -68.486
-19615.225	    15.660	   -86.693	   -61.521
-19624.484	    15.791	   -84.055	   -61.908
-19658.238	    15.711	  -103.906	   -70.592
-19552.625	    15.560	  -119.168	   -44.222
-19732.539	    15.555	  -100.035	   -54.406
-19761.242	    15.626	  -124.173	   -54.702
-19833.723	    15.538	  -110.740	   -58.603
-19723.398	    15.417	   -89.960	   -41.986
-19706.775	    15.409	  -107.770	   -42.382
-19738.844	    15.560	  -128.933	   -52.057
-19657.473	    15.737	  -129.263	   -51.812
-19477.477	    15.683	  -121.591	   -47.938
-19608.465	    15.496	  -122.454	   -50.196
-19594.271	    15.315	  -116.005	   -60.635
-19422.041	    15.233	   -94.480	   -57.711
-19839.723	    15.463	  -112.553	   -73.089
-19544.453	    15.747	   -69.690	   -81.892
-19599.852	    15.883	  -124.968	   -53.806
-19444.350	    15.865	   -90.512	   -41.095
-19649.383	    15.757	  -127.152	   -44.401
-19496.486	    15.778	  -129.683	   -60.413
-19618.793	    15.721	   -88.931	   -78.716
-19717.920	    15.770	  -116.880	   -52.818
-19494.330	    15.805	  -123.089	   -67.789
-19371.010	    15.758	  -134.101	   -68.339
-19445.330	    15.632	  -107.872	   -83.026
-19576.211	    15.494	  -113.883	   -85.328
-19406.793	    15.316	   -81.333	   -66.045
-19643.939	    15.310	   -85.001	   -40.904
-19617.736	    15.504	   -98.838	   -65.555
-19768.432	    15.791	   -92.058	   -49.586
-19301.070	    15.981	  -114.176	   -66.874
-19523.852	    15.896	  -104.261	   -87.778
-19540.982	    15.657	   -99.143	   -63.336
-19753.861	    15.484	  -100.745	   -45.518
-19649.594	    15.517	  -106.353	   -69.656
-19539.512	    15.620	   -78.299	   -53.308
-19565.869	    15.609	  -106.458	   -67.442
-19846.916	    15.441	  -128.587	   -63.158
-19708.857	    15.398	  -123.367	   -47.537
-19824.084	    15.539	  -106.064	   -83.693
-19737.555	    15.697	  -103.382	   -70.725
-19666.430	    15.743	   -89.239	   -61.477
-19481.453	    15.762	  -101.069	   -51.031
-19729.807	    15.693	   -64.815	   -58.430
-19528.891	    15.532	   -98.488	   -61.187
-19696.127	    15.500	   -98.777	   -77.069
-19693.332	    15.572	  -103.873	   -41.702
-19452.133	    15.664	  -115.113	   -58.089
-19334.621	    15.798	  -132.613	   -35.738
-19389.875	    15.919	   -98.267	   -60.680
-19554.564	    16.018	  -109.224	   -54.561
-19535.965	    15.920	  -103.720	   -74.990
-19613.314	    15.791	  -118.627	   -57.191
-19749.186	    15.461	  -124.953	   -48.158
-19672.246	    15.206	   -95.907	   -51.370
-19609.783	    15.264	  -108.170	   -42.659
-19880.217	    15.519	   -96.324	   -59.085
-19507.461	    15.915	  -106.616	   -56.037
-19441.346	    16.202	  -122.906	   -53.833
-19495.455	    16.264	  -119.098	   -52.862
-19593.402	    16.108	  -108.303	   -51.816
-19739.051	    15.859	  -105.933	   -67.939
-20011.021	    15.625	  -117.854	   -82.475
-19784.467	    15.412	  -100.523	   -77.588
-19710.471	    15.393	  -108.237	   -68.846
-19715.098	    15.436	  -116.967	   -59.263
-19820.168	    15.556	  -109.394	   -66.056
-19537.441	    15.679	  -125.515	   -70.320
-19768.748	    15.669	  -100.912	   -62.894
-19438.080	    15.631	   -88.176	   -44.412
-19613.131	    15.562	   -78.272	   -51.430
-19590.590	    15.592	  -119.878	   -54.893
-19431.801	    15.579	  -113.642	   -73.316
-19868.438	    15.548	  -107.418	   -77.008
-19633.486	    15.592	  -103.214	   -71.415
-19724.682	    15.745	   -99.620	   -81.208
-19569.982	    15.877	  -128.115	   -69.619
-19647.266	    15.757	   -96.300	   -43.162
-19673.131	    15.658	  -113.037	   -44.068
-19798.590	    15.567	  -112.590	   -53.129
-19767.100	    15.570	   -97.296	   -70.011
-19922.414	    15.546	  -118.303	   -52.123
-19662.500	    15.533	  -121.081	   -44.278
-19599.279	    15.588	   -74.726	   -42.802
-19791.082	    15.706	  -117.624	   -82.527
-19361.760	    15.854	  -109.993	   -43.663
-19570.607	    15.943	   -99.607	   -85.247
-19725.781	    15.831	  -119.551	   -54.288
-19697.043	    15.531	  -105.338	   -71.395
-19826.354	    15.319	  -103.000	   -51.369
-19524.246	    15.413	  -112.958	   -49.814
-19727.973	    15.598	   -92.766	   -71.012
-19336.760	    15.783	   -90.389	   -64.392
-19437.941	    15.913	   -92.072	   -68.860
-19526.420	    15.928	   -97.468	   -61.250
-19633.043	    15.787	   -94.817	   -82.383
-19766.596	    15.644	  -109.395	   -82.811
-19685.924	    15.481	  -130.202	   -60.376
-19906.672	    15.339	  -111.701	   -54.307
-19892.969	    15.305	  -106.065	   -42.447
-19652.289	    15.425	   -92.826	   -79.080
-19831.035	    15.573	  -115.860	   -54.774
-19871.379	    15.747	   -92.303	   -82.958
-19598.029	    15.949	  -108.045	   -55.526
-19609.479	    16.061	  -105.112	   -75.410
-19441.088	    16.136	  -140.367	   -51.576
-19542.852	    15.932	  -109.263	  -109.669
-19686.861	    15.603	   -94.539	   -43.916
-19650.406	    15.498	  -135.341	   -49.052
-19696.336	    15.547	  -117.666	   -61.950
-19796.986	    15.604	  -130.870	   -69.412
-19478.500	    15.694	  -110.049	   -81.687
-19721.799	    15.696	   -94.727	   -79.845
-19530.312	    15.666	  -123.503	   -42.173
-19870.980	    15.639	   -97.707	   -51.006
-19769.670	    15.618	  -112.878	   -60.300
-19736.105	    15.507	  -125.126	   -49.144
-19736.596	    15.521	  -109.410	   -43.374
-19860.746	    15.577	   -84.315	   -47.612
-19530.221	    15.715	  -109.250	   -62.209
-19387.984	    15.870	  -114.783	   -62.005
-19683.920	    15.970	  -109.246	   -47.201
-19566.271	    16.012	  -114.146	   -69.042
-19540.205	    15.996	   -99.369	   -62.682
-19604.807	    15.946	  -105.078	   -71.666
-19565.598	    15.925	  -125.697	   -36.382
-19465.191	    15.850	   -90.073	   -50.504
-19760.205	    15.705	  -123.285	   -45.137
-19760.891	    15.544	  -131.582	   -62.664
-19861.930	    15.378	  -108.574	   -59.914
-20167.816	    15.307	  -108.602	   -79.475
-19961.162	    15.478	  -106.657	   -64.981
-19771.199	    15.652	   -94.668	   -66.840
-19643.150	    15.775	   -93.547	   -74.261
-19500.072	    15.763	   -96.557	   -55.499
-19569.096	    15.548	  -121.228	   -60.910
-19852.521	    15.359	   -75.379	   -82.648
-19545.139	    15.321	  -115.151	   -80.182
-19648.803	    15.311	  -119.075	   -54.046
-19623.318	    15.383	  -122.467	   -93.448
-19513.488	    15.540	   -83.430	  -105.058
-19796.695	    15.575	  -103.352	   -69.845
-19566.809	    15.608	  -113.176	   -74.346
-19802.842	    15.566	   -97.397	   -54.857
-19675.881	    15.483	  -116.888	   -64.146
-19584.260	    15.523	  -105.946	   -79.105
-19599.127	    15.642	  -117.832	   -89.448
-19771.734	    15.663	  -129.039	   -62.306
-19464.746	    15.666	  -141.824	   -49.046
-19850.652	    15.627	  -128.044	   -91.121
-19737.553	    15.609	  -115.135	   -50.402
-19802.881	    15.624	   -97.645	   -55.061
-19673.975	    15.663	  -115.075	   -71.748
-19596.586	    15.564	   -93.146	   -84.989
-19917.322	    15.475	   -92.382	   -74.803
-19754.756	    15.440	   -98.169	   -88.098
-19617.240	    15.604	  -113.447	  -103.546
-19618.111	    15.825	  -108.759	   -75.609
-19702.857	    15.805	   -98.668	   -69.549
-19675.701	    15.593	  -111.362	   -74.360
-19954.418	    15.415	  -116.108	   -65.838
-19621.697	    15.443	  -114.777	   -68.041
-19875.639	    15.494	  -106.594	   -77.269
-19760.441	    15.488	  -116.046	   -50.033
-19850.451	    15.477	  -107.910	   -61.551
-19788.506	    15.486	  -100.510	   -59.848
-19484.596	    15.365	   -89.684	   -85.082
-19942.074	    15.345	  -128.689	   -73.309
-19347.652	    15.571	  -119.100	   -55.734
-19441.518	    15.747	  -109.633	   -70.977
-19727.529	    15.854	  -112.593	   -61.990
-19592.514	    15.781	  -121.357	   -56.437
-19837.504	    15.625	  -104.660	   -52.271
-19812.096	    15.611	  -100.284	   -88.551
-19691.189	    15.634	  -124.554	   -79.144
-19746.176	    15.623	  -135.869	   -47.397
-19796.803	    15.573	  -115.041	   -69.541
-19638.654	    15.545	  -133.005	   -68.592
-19743.508	    15.665	  -141.765	   -67.048
-19389.986	    15.815	  -128.164	   -65.233
-19605.199	    15.966	  -114.748	   -61.766
-19469.514	    15.983	  -132.018	   -61.168
-19677.887	    15.756	  -129.257	   -61.591
-19731.824	    15.494	  -122.199	   -54.845
-19710.531	    15.386	  -128.580	   -65.100
-19643.705	    15.505	  -105.436	   -52.531
-19399.518	    15.671	  -112.462	   -78.787
-19604.082	    15.619	  -103.117	   -47.318
-19791.973	    15.569	   -96.206	   -62.898
-19638.303	    15.639	   -83.496	   -41.321
-19624.635	    15.741	   -91.761	   -62.237
-19271.699	    15.698	  -116.429	   -61.740
-19695.512	    15.523	   -93.857	   -67.906
-19602.834	    15.438	  -109.939	   -81.676
-19639.258	    15.375	  -118.953	   -69.301
-19636.914	    15.366	   -85.236	   -70.104
-19655.080	    15.537	   -81.051	   -63.795
-19551.150	    15.779	  -100.232	   -39.630
-19536.301	    15.975	  -123.501	   -74.094
-19371.410	    15.990	   -91.432	   -78.941
-19901.736	    15.862	  -118.833	   -82.418
-19792.318	    15.647	   -81.313	   -56.305
-19917.254	    15.361	   -97.929	   -81.980
-19955.236	    15.324	  -110.477	   -50.281
-19687.564	    15.394	  -116.804	   -60.501
-19572.139	    15.555	  -118.131	   -45.235
-19510.127	    15.629	  -104.608	   -46.608
-19838.660	    15.580	  -131.869	   -68.424
-19651.355	    15.754	  -104.976	   -49.593
-19650.740	    15.837	  -111.521	   -56.676
-19578.738	    15.836	   -91.765	   -71.290
-19478.301	    15.741	  -116.713	   -55.124
-19782.279	    15.693	  -116.575	   -66.308
-19466.500	    15.739	  -110.646	   -54.402
-19605.814	    15.768	  -120.223	   -70.402
-19654.248	    15.663	  -113.810	   -54.588
-19735.287	    15.335	  -115.912	   -56.441
-19794.553	    15.165	  -114.114	   -85.424
-19717.826	    15.257	  -123.876	   -59.533
-19810.086	    15.502	  -103.275	   -63.760
-19557.684	    15.812	  -131.788	   -86.432
-19535.145	    16.024	  -107.426	   -86.438
-19652.717	    15.906	  -101.333	   -82.823
-19710.381	    15.719	   -94.628	   -85.713
-19964.576	    15.453	  -131.316	   -80.929
-19795.645	    15.204	  -112.094	   -81.377
-19918.016	    15.248	  -108.741	   -61.578
-19822.168	    15.492	  -111.959	   -68.255
-19642.309	    15.721	   -85.440	   -52.659
-19875.008	    15.899	   -96.744	   -63.898
-19575.270	    15.926	   -98.151	   -65.115
-19402.232	    15.880	   -96.252	   -73.306
-19737.209	    15.816	   -99.110	   -69.533
-19598.990	    15.632	   -83.205	   -50.752
-19660.039	    15.467	  -112.176	   -75.080
-19760.871	    15.453	  -124.762	   -67.320
-19390.770	    15.578	   -96.198	   -56.558
-20056.916	    15.646	  -118.815	   -86.386
-19692.031	    15.772	  -124.769	   -94.698
-19618.977	    15.839	  -116.001	   -47.579
-19594.572	    15.772	  -109.839	   -67.929
-19597.889	    15.568	  -111.505	   -62.547
-19630.268	    15.411	  -104.953	   -46.970
-19828.795	    15.349	   -98.266	   -40.098
-19729.506	    15.482	  -118.418	   -44.233
-19484.828	    15.697	   -95.680	   -62.581
-19487.404	    15.797	  -136.895	   -49.821
-19531.979	    15.864	  -104.950	   -63.349
-19835.842	    15.741	   -93.286	   -70.585
-19868.473	    15.535	   -81.102	   -75.722
-19679.320	    15.501	  -111.601	   -49.593
-19409.125	    15.562	  -118.099	   -62.257
-19590.400	    15.572	  -120.789	   -56.554
-19617.732	    15.600	  -115.996	   -46.622
-19574.762	    15.582	  -122.693	   -33.738
-19636.807	    15.541	  -116.976	   -49.325
-19563.398	    15.541	  -129.370	   -80.310
-19768.803	    15.532	  -126.682	   -53.090
-19565.691	    15.538	  -110.106	   -59.949
-19680.078	    15.658	   -99.662	   -57.984
-19337.072	    15.783	   -99.302	   -63.777
-19735.162	    15.842	  -126.728	   -78.719
-19548.209	    15.815	  -102.584	   -65.899
-19556.998	    15.757	  -106.539	   -73.165
-19638.562	    15.668	   -82.033	   -68.717
-19759.082	    15.535	   -78.848	   -46.936
-19804.488	    15.440	   -77.790	   -53.773
-19762.920	    15.414	  -106.130	   -58.207
-19665.717	    15.323	   -91.009	   -61.683
-19642.852	    15.294	   -86.234	   -36.661
-19770.459	    15.354	   -98.360	   -57.706
-19702.127	    15.593	  -100.069	   -65.799
-19446.623	    15.819	   -86.985	   -76.613
-19556.359	    15.736	  -105.630	   -71.510
-19573.664	    15.573	   -99.653	   -47.260
-19799.658	    15.497	  -126.500	   -69.893
-19511.939	    15.504	  -124.577	   -48.832
-19748.820	    15.496	  -124.486	   -55.428
-19469.816	    15.661	  -101.379	   -50.519
-19511.557	    15.846	  -131.711	   -75.989
-19612.354	    15.913	   -92.835	   -58.729
-19653.727	    15.920	   -96.375	   -48.581
-19519.602	    15.853	  -108.835	   -61.738
-19374.355	    15.638	   -76.576	   -57.312
-19765.275	    15.336	   -98.738	   -81.199
-19505.971	    15.274	   -92.403	   -66.665
-19429.271	    15.488	   -78.578	   -64.783
-19441.432	    15.671	  -135.532	   -69.577
-19369.635	    15.784	  -141.195	   -66.043
-19496.092	    15.707	  -105.779	   -53.400
-19586.307	    15.525	  -117.722	   -58.291
-19834.785	    15.451	  -114.511	   -69.403
-19632.270	    15.569	   -92.675	   -86.452
-19587.369	    15.729	  -115.279	   -68.472
-19692.852	    15.749	  -103.786	   -71.719
-19486.619	    15.708	  -102.788	   -63.182
-19788.402	    15.644	  -110.371	   -72.444
-19752.150	    15.570	   -92.590	   -44.581
-19813.648	    15.548	  -113.191	   -62.515
-19897.490	    15.588	  -110.668	   -48.068
-19892.293	    15.619	  -135.514	   -46.118
-19747.996	    15.626	  -116.750	   -37.938
-19574.727	    15.650	   -98.741	   -43.023
-19704.594	    15.729	   -85.723	   -79.751
-19497.213	    15.724	  -110.984	   -76.848
-19580.369	    15.695	  -121.005	   -60.422
-19442.799	    15.707	   -98.537	   -63.353
-19518.529	    15.641	   -91.339	   -58.153
-19420.039	    15.537	  -104.080	   -76.634
-19626.625	    15.565	  -111.017	   -92.385
-19753.920	    15.638	  -103.159	   -73.560
-19502.518	    15.666	   -84.610	   -58.888
-19648.166	    15.686	   -90.114	   -74.090
-19495.080	    15.716	   -90.629	   -71.671
-19641.256	    15.700	  -108.425	   -32.871
-19756.693	    15.598	   -96.703	   -60.153
-19712.699	    15.553	  -103.372	   -67.158
-19806.398	    15.542	  -125.444	   -72.247
-19788.211	    15.576	  -119.775	   -79.686
-19425.021	    15.705	   -96.008	   -86.223
-19738.961	    15.885	  -126.314	   -55.033
-19679.307	    15.833	   -97.280	   -76.909
-19445.877	    15.681	  -129.255	   -64.193
-19853.951	    15.524	  -108.117	   -47.918
-19759.137	    15.391	  -122.143	   -52.721
-19455.412	    15.369	   -95.714	   -47.666
-19461.273	    15.337	  -111.033	   -36.154
-19675.385	    15.337	  -117.382	   -36.938
-19595.887	    15.521	   -95.852	   -76.858
-19581.396	    15.695	  -110.459	   -69.293
-19484.021	    15.817	   -88.976	   -55.471
-19693.059	    15.756	  -106.170	   -53.457
-19503.918	    15.727	  -115.415	   -77.351
-19775.359	    15.645	   -80.811	   -78.552
-19621.594	    15.586	  -113.264	   -84.307
-19704.975	    15.745	  -115.092	   -73.305
-19255.934	    15.948	  -122.690	   -82.931
-19381.195	    16.079	  -129.306	   -57.998
-19683.098	    15.979	  -118.225	   -57.636
-19589.051	    15.769	  -127.915	   -66.674
-19688.277	    15.622	  -110.769	   -59.100
-19709.648	    15.571	   -89.936	   -67.779
-19581.559	    15.539	   -93.513	   -46.107
-19699.336	    15.591	   -86.720	   -72.038
-19785.953	    15.712	   -98.677	   -47.737
-19284.037	    15.844	  -105.564	   -55.847
-19586.020	    15.843	   -92.839	   -65.602
-19394.932	    15.834	   -92.799	   -53.210
-19636.947	    15.838	   -99.993	   -75.064
-19668.100	    15.772	  -124.458	   -52.295
-19471.459	    15.582	  -109.998	   -74.539
-19630.436	    15.468	  -119.965	   -45.272
-19613.045	    15.390	  -110.237	   -67.638
-19887.387	    15.389	  -119.301	   -74.388
-19793.457	    15.513	   -97.405	   -43.952
-19656.354	    15.681	  -109.002	   -63.728
-19478.041	    15.782	  -124.221	   -61.050
-19342.047	    15.904	  -117.101	   -48.804
-19479.951	    15.854	  -128.422	   -54.905
-19733.736	    15.831	  -101.933	   -61.704
-19728.637	    15.710	  -122.261	   -78.154
-19571.414	    15.624	  -136.934	   -42.549
-19920.406	    15.540	  -110.423	   -52.458
-19598.104	    15.530	   -92.172	   -69.573
-19550.051	    15.494	   -89.919	   -65.703
-19618.559	    15.439	   -83.597	   -50.947
-19674.955	    15.399	  -100.433	   -52.652
-19839.824	    15.425	   -82.670	   -57.333
-19584.930	    15.558	   -99.627	   -42.060
-19439.375	    15.679	  -105.558	   -47.596
-19491.520	    15.825	   -81.875	   -59.885
-19664.855	    15.942	  -104.199	   -74.292
-19650.090	    15.874	  -105.092	   -63.432
-19883.137	    15.695	  -116.701	   -53.455
-19812.523	    15.473	  -102.735	   -36.878
-20009.867	    15.376	  -108.042	   -73.975
-19415.932	    15.428	  -110.645	   -64.352
-19783.205	    15.560	  -100.094	   -57.326
-19459.379	    15.648	   -91.772	   -54.680
-19416.680	    15.713	   -88.324	   -57.111
-19576.598	    15.591	   -78.331	   -64.135
-19901.818	    15.437	   -90.214	   -60.108
-19901.916	    15.423	   -95.357	   -27.541
-19758.574	    15.483	   -95.407	   -53.667
-19746.266	    15.508	  -103.370	   -39.508
-19634.568	    15.466	   -95.231	   -32.785
-19721.053	    15.622	   -90.692	   -56.362
-19719.660	    15.819	  -109.291	   -83.198
-19804.150	    15.902	  -100.440	   -65.990
-19478.932	    15.970	  -120.497	   -45.116
-19766.033	    15.904	   -93.015	   -59.095
-19691.002	    15.752	  -104.235	   -58.747
-19689.240	    15.551	  -103.032	   -70.312
-19714.684	    15.389	  -139.801	   -75.515
-19855.072	    15.413	  -146.847	   -57.866
-19688.346	    15.549	  -114.841	   -77.197
-19808.971	    15.658	  -108.124	   -62.294
-19545.598	    15.751	   -95.223	   -72.560
-19690.322	    15.801	   -81.661	   -58.431
-19528.084	    15.758	   -86.210	   -55.423
-19738.014	    15.739	  -102.496	   -64.743
-19382.570	    15.824	   -97.906	   -60.587
-19861.635	    15.959	  -102.624	   -86.098
-19681.514	    16.037	   -80.437	   -75.807
-19773.223	    16.016	   -86.924	   -77.037
-19622.213	    15.945	  -118.182	   -52.857
-19555.078	    15.921	  -130.189	   -69.266
-19504.418	    15.748	  -145.020	   -92.641
-19817.365	    15.540	  -107.953	   -45.830
-19760.242	    15.505	  -114.506	   -66.229
-19984.041	    15.477	  -114.428	   -61.050
-19691.828	    15.464	  -109.273	   -61.528
-19711.520	    15.473	  -114.806	   -53.572
-19867.152	    15.502	  -104.911	   -42.726
-19420.615	    15.598	  -127.758	   -56.054
-19421.375	    15.782	  -114.503	   -60.272
-19386.076	    15.882	  -122.343	   -41.262
-19574.947	    15.884	   -99.016	   -65.106
-19527.527	    15.758	  -119.896	   -45.143
-19837.791	    15.602	  -104.263	   -68.494
-19813.689	    15.485	   -76.786	   -50.106
-19656.191	    15.632	  -124.908	   -49.931
-19500.523	    15.717	  -104.644	   -46.270
-19673.986	    15.754	   -86.477	   -31.675
-19597.219	    15.856	   -88.614	   -86.864
-19565.504	    15.927	   -90.463	   -72.020
-19633.148	    15.823	  -126.524	   -56.073
-19615.896	    15.633	  -118.607	   -50.781
-19840.150	    15.470	   -89.008	   -67.250
-19774.254	    15.462	   -91.125	   -70.866
-19709.848	    15.591	  -103.600	   -54.457
-19846.166	    15.656	  -106.532	   -59.643
-19712.570	    15.637	   -98.969	   -56.844
-19764.205	    15.661	  -127.911	   -42.927
-19608.529	    15.592	   -92.913	   -31.769
-19477.307	    15.578	  -110.859	   -69.941
-19536.406	    15.557	   -93.381	   -35.558
-19800.463	    15.508	  -118.855	   -62.990
-19761.891	    15.485	  -113.643	   -78.045
-19577.279	    15.623	  -110.560	   -65.220
-19462.984	    15.872	   -92.088	   -67.933
-19246.000	    15.974	  -109.467	   -67.064
-19690.547	    15.915	   -87.270	   -85.099
-19357.123	    15.800	  -126.057	   -39.202
-19720.219	    15.703	  -114.130	   -43.550
-19608.881	    15.584	  -115.526	   -71.568
-19508.834	    15.528	  -111.672	   -61.836
-19788.250	    15.499	  -106.479	   -86.507
-19746.543	    15.540	   -84.296	   -73.028
-19721.330	    15.632	  -107.490	   -65.531
-19676.084	    15.947	   -90.528	   -57.542
-19513.709	    16.139	  -102.490	   -46.733
-19292.271	    16.113	  -118.862	   -51.276
-19340.527	    15.886	  -122.098	   -49.567
-19498.168	    15.527	  -109.550	   -82.777
-19747.305	    15.185	  -121.226	   -46.958
-19939.713	    15.022	  -102.578	   -36.766
-19911.719	    15.153	  -103.572	   -55.037
-19895.051	    15.535	  -106.680	   -60.815
-19501.910	    16.089	  -122.011	   -64.771
-19571.902	    16.493	  -128.841	   -51.321
-19314.287	    16.610	  -115.203	   -52.531
-19487.984	    16.395	  -104.610	   -47.509
-19436.826	    16.112	  -108.477	   -77.275
-19653.559	    15.915	  -103.801	   -74.771
-19704.820	    15.766	  -135.220	   -49.453
-19664.396	    15.595	  -111.472	   -60.155
-19803.420	    15.437	   -79.237	   -62.935
-19662.158	    15.370	  -101.502	   -80.293
-19759.721	    15.364	  -110.204	   -78.122
-19794.381	    15.408	   -99.272	   -69.792
-19725.523	    15.603	  -109.958	   -74.274
-19527.982	    15.741	  -139.607	   -65.980
-19764.570	    15.737	  -127.636	   -63.726
-19878.875	    15.755	  -116.130	   -71.495
-19499.121	    15.801	  -122.270	   -62.723
-19725.525	    15.906	  -123.243	   -79.118
-19466.730	    15.969	  -111.166	   -80.691
-19573.090	    15.852	  -124.216	   -62.880
-19596.945	    15.703	  -123.804	   -49.908
-19742.895	    15.626	   -89.849	   -48.306
-19778.734	    15.598	  -109.984	   -55.563
-19701.525	    15.644	  -139.622	   -72.134
-19745.945	    15.782	  -107.312	   -46.050
-19547.727	    15.775	   -90.511	   -62.192
-19813.359	    15.609	  -110.961	   -49.116
-19694.738	    15.530	  -101.674	   -73.749
-19671.539	    15.470	  -100.725	   -57.405
-19723.553	    15.538	  -105.228	   -71.422
-19654.725	    15.645	  -116.027	   -74.847
-19454.508	    15.796	   -92.946	   -69.049
-19421.367	    15.907	  -108.597	   -61.907
-19674.596	    15.900	  -131.464	   -66.725
-19742.803	    15.732	  -115.197	   -76.550
-19802.631	    15.584	  -125.879	   -88.281
-19739.836	    15.533	  -134.697	   -58.224
-19609.545	    15.620	   -87.010	   -63.591
-19608.031	    15.663	  -101.704	   -74.291
-19723.068	    15.755	   -90.674	   -42.954
-19806.033	    15.858	  -112.566	   -58.976
-19687.225	    15.906	  -104.400	   -76.887
-19830.318	    15.785	  -112.174	   -69.841
-19520.512	    15.591	   -86.640	   -52.378
-19883.234	    15.342	  -119.788	   -88.225
-19843.695	    15.260	  -108.465	   -43.448
-20047.008	    15.413	   -86.689	   -74.959
-19733.711	    15.733	  -111.150	   -47.712
-19466.926	    16.051	  -118.571	   -54.894
-19651.562	    16.171	  -118.010	   -73.658
-19479.109	    16.093	  -120.609	   -41.954
-19438.965	    15.829	   -90.864	   -73.565
-19798.965	    15.501	  -115.424	   -73.016
-19822.670	    15.195	   -91.781	   -77.398
-20047.561	    15.207	   -84.692	   -71.891
-19766.928	    15.524	  -115.053	   -59.435
-19529.027	    15.771	  -102.216	   -54.369
-19665.600	    15.832	  -115.400	   -59.091
-19775.420	    15.815	  -122.253	   -56.912
-19559.033	    15.867	  -116.815	   -68.615
-19479.311	    15.804	  -101.728	   -57.262
-19690.045	    15.659	  -116.108	   -53.727
-19444.895	    15.573	  -121.798	   -50.665
-19725.449	    15.412	  -108.142	   -64.898
-19700.402	    15.381	  -126.650	   -64.078
-19798.346	    15.495	  -124.307	   -71.611
-19611.795	    15.722	  -107.676	   -75.092
-19521.871	    15.834	  -102.021	   -58.180
-19608.525	    15.828	   -92.148	   -68.631
-19755.297	    15.897	   -91.844	   -48.034
-19745.098	    15.979	   -89.063	   -48.042
-19569.652	    15.954	   -89.564	   -68.964
-19676.453	    15.934	  -116.098	   -64.059
-19473.488	    15.975	  -103.165	   -65.892
-19445.383	    15.957	  -105.744	   -72.942
-19826.420	    15.831	  -113.314	   -69.876
-19737.307	    15.587	  -135.395	   -61.642
-19726.695	    15.408	   -89.688	   -39.080
-19788.471	    15.317	  -121.357	   -71.161
-19877.867	    15.396	   -95.469	   -72.937
-19714.162	    15.632	  -130.513	   -74.235
-19811.920	    15.914	  -121.061	   -54.972
-19456.682	    16.048	   -91.325	   -78.843
-19734.355	    15.989	  -108.727	   -56.511
-19619.715	    15.819	   -95.426	   -53.494
-19938.018	    15.574	  -100.193	   -66.040
-19691.455	    15.378	   -93.610	   -56.839
-19912.172	    15.156	   -99.285	   -76.404
-19685.328	    15.110	   -84.672	   -53.081
-19732.471	    15.308	   -99.598	   -52.303
-19581.037	    15.534	  -123.113	   -42.880
-19525.643	    15.774	  -121.547	   -35.040
-19756.551	    15.925	   -90.124	   -78.545
-19705.627	    15.885	  -119.125	   -72.839
-19610.744	    15.637	  -103.121	   -52.906
-19888.889	    15.384	  -114.785	   -75.895
-19963.293	    15.322	  -127.329	   -47.827
-19831.076	    15.372	  -114.808	   -47.158
-19887.082	    15.492	  -115.180	   -75.651
-19633.602	    15.609	   -97.278	   -69.275
-19648.594	    15.674	   -92.972	   -81.843
-19882.705	    15.614	  -102.956	   -83.715
-20131.625	    15.565	   -92.505	   -83.509
-19896.188	    15.668	  -105.422	   -44.072
-19743.168	    15.773	   -89.175	   -69.099
-19774.461	    15.704	  -113.513	   -71.999
-19776.188	    15.604	  -104.513	   -63.933
-19680.359	    15.486	  -139.039	   -45.803
-19833.998	    15.414	  -101.060	   -47.076
-19605.709	    15.424	  -104.791	   -58.521
-19583.500	    15.424	  -112.295	   -61.632
-19948.121	    15.405	  -102.475	   -78.870
-19522.643	    15.357	  -109.019	   -49.141
-19736.395	    15.360	   -91.385	   -60.149
-19716.488	    15.608	  -112.877	   -68.653
-19480.816	    15.739	  -143.630	   -43.966
-19638.986	    15.714	   -97.667	   -62.359
-19481.109	    15.753	  -114.580	   -82.579
-19542.490	    15.899	  -115.390	   -43.873
-19330.957	    15.967	  -100.632	   -52.490
-19509.830	    16.053	   -98.188	   -65.689
-19394.381	    16.054	  -136.338	   -68.854
-19518.557	    15.859	  -120.411	   -69.015
-19386.648	    15.712	  -131.523	   -72.327
-19620.688	    15.474	  -115.992	   -64.030
-19731.924	    15.376	   -84.301	   -73.913
-19820.660	    15.369	  -137.188	   -56.227
-19774.184	    15.377	  -129.974	  -103.574
-19630.957	    15.489	  -116.881	   -90.204
-19691.119	    15.693	  -111.627	   -63.545
-19586.867	    15.878	  -109.937	   -75.388
-19617.227	    15.927	   -72.386	   -55.345
-19580.705	    15.929	  -107.699	   -68.645
-19627.443	    15.849	  -102.123	   -35.713
-19577.387	    15.700	  -102.340	   -50.723
-19727.066	    15.560	  -101.530	   -59.465
-19642.975	    15.443	   -94.614	   -55.326
-19964.730	    15.452	  -100.735	   -77.168
-19955.412	    15.543	   -94.857	   -84.910
-19426.469	    15.676	  -108.873	   -83.547
-19570.637	    15.769	  -119.318	   -59.564
-20037.701	    15.690	  -105.506	   -78.223
-19940.311	    15.646	   -92.941	   -56.229
-19599.707	    15.711	  -114.419	   -79.114
-19574.613	    15.633	  -116.751	   -71.313
-19698.250	    15.546	   -78.808	   -44.577
-19826.248	    15.470	   -97.600	   -57.177
-19696.000	    15.432	  -103.481	   -67.520
-19540.758	    15.516	  -109.831	   -60.266
-19593.943	    15.723	  -110.972	   -67.858
-19696.949	    15.937	   -91.868	   -64.581
-19462.318	    16.077	   -88.038	   -57.169
-19623.334	    16.033	   -96.398	   -56.128
-19402.361	    16.002	   -78.256	   -37.777
-19671.082	    15.905	  -102.937	   -65.252
-19677.041	    15.813	  -124.569	   -69.202
