   -92.310	   122.143	    -3.179
  -152.970	   168.675	    17.085
  -158.406	   157.587	     9.554
  -169.635	  -175.765	   -18.381
  -156.942	   163.125	     6.366
  -160.680	  -179.700	    -1.479
  -162.355	   166.025	     3.791
  -164.359	   173.519	    -5.277
  -149.700	   172.335	   -17.639
  -159.753	  -176.377	   -16.182
  -162.048	   174.285	    14.272
  -163.376	   157.201	     3.361
  -165.554	   159.022	     8.451
  -159.193	  -173.959	     7.949
  -159.131	   178.461	     7.844
  -152.370	  -172.347	    -2.584
  -154.706	  -179.897	    17.098
  -153.081	  -174.524	     4.946
  -153.829	  -150.809	     0.172
  -153.518	  -177.933	    -7.201
  -168.174	  -178.902	     0.113
  -157.905	   176.335	    16.921
  -159.443	  -163.035	    -4.917
  -163.340	  -174.302	    -3.211
  -147.552	   178.710	    11.164
  -143.600	   174.054	   -16.109
  -153.409	   177.860	   -12.436
  -169.518	   171.483	     2.060
  -169.694	  -161.720	    17.309
  -158.269	   177.157	     3.694
  -161.694	   178.128	     4.643
  -159.632	   168.927	     1.536
  -167.606	   161.709	     3.748
  -155.837	  -167.505	     4.625
  -148.762	   166.777	    20.920
  -140.021	  -175.767	    -4.929
  -156.889	   170.058	   -22.356
  -162.640	   165.415	     1.305
  -157.110	   170.377	   -13.113
  -148.460	   176.454	    -9.931
  -149.393	  -172.397	    -2.248
  -147.702	   175.611	   -10.864
  -147.768	   171.733	    17.105
  -153.417	   179.644	     5.456
  -142.068	   166.971	    12.427
  -153.408	   173.486	   -23.691
  -158.156	   176.975	    -4.064
  -160.488	   160.864	     8.435
  -150.343	   168.939	    13.905
  -153.823	  -179.297	    12.492
  -143.962	   175.306	    -1.033
  -143.411	   177.942	     1.507
  -154.568	   172.408	     9.590
  -145.873	   169.488	    11.843
  -156.543	   151.100	    14.103
  -165.124	   174.956	     4.687
  -158.144	  -175.447	     3.396
  -158.794	   177.203	     3.212
  -157.854	   160.244	    -2.887
  -171.088	   173.734	     8.323
  -156.050	   162.137	     0.958
  -148.072	   174.737	     0.806
  -147.600	  -172.507	   -11.210
  -157.036	  -174.455	     8.490
  -159.562	  -178.770	     1.982
  -156.485	   163.564	    -7.568
  -142.632	   164.972	    -1.162
  -149.005	   165.824	     5.459
  -160.504	   170.185	    -3.404
  -163.462	  -177.965	    -2.174
  -158.190	   153.365	     2.932
  -162.303	   168.339	    -2.807
  -159.426	  -162.984	    12.090
  -149.273	   171.326	     9.853
  -164.146	   179.878	    -1.646
  -167.531	   170.295	    13.086
  -155.364	  -175.427	     8.516
  -162.095	   170.981	     4.522
  -151.596	   170.375	    -8.108
  -140.112	   176.736	   -11.130
  -126.800	   164.232	   -12.586
  -161.352	  -159.706	    11.995
  -156.643	   164.864	   -11.449
  -160.768	   179.799	    -2.163
  -178.190	   172.390	     7.759
  -159.534	   161.332	     2.076
  -153.918	   174.945	    -6.610
  -170.273	  -170.339	     9.418
  -141.318	  -174.785	    13.134
  -151.126	  -174.244	    -4.989
  -154.061	  -175.697	    14.669
  -152.047	   178.765	     7.540
  -142.101	  -176.469	     0.648
  -155.270	   168.679	   -11.227
  -161.093	   173.234	    12.548
  -153.517	   175.495	    22.616
  -158.713	   166.067	    -1.317
  -135.630	  -178.990	    10.393
  -133.270	   179.542	     8.005
  -148.662	   153.249	    -6.093
  -162.953	   160.972	     1.873
  -170.384	   174.615	     1.605
  -167.125	   178.476	     5.890
  -163.621	   161.334	    -0.746
  -154.274	   161.596	    -4.335
  -146.049	  -178.501	    -1.956
  -159.855	   173.164	   -15.970
  -151.092	   178.516	   -14.035
  -150.697	   177.427	    -7.494
  -165.573	   175.233	   -17.230
  -139.601	  -175.219	     2.574
  -148.911	  -176.896	   -14.260
  -151.967	   174.634	     2.921
  -144.672	   177.152	    -9.200
  -153.327	   170.905	    16.564
  -154.065	  -171.415	    -6.009
  -163.161	   169.738	   -22.453
  -169.779	   177.252	     8.488
  -154.662	  -175.567	     9.169
  -162.642	   160.870	    13.711
  -146.824	  -172.167	     3.506
  -150.959	   171.949	   -11.050
  -151.116	   177.518	    13.282
  -161.287	   172.613	    -8.274
  -150.573	   149.383	    -5.602
  -139.768	   148.632	    -8.664
  -157.369	   176.973	    -2.500
  -165.895	   169.689	     7.873
  -149.287	   158.910	    -0.717
  -172.571	   170.210	   -11.394
  -160.328	   177.232	     4.312
  -157.417	   168.294	     1.384
  -155.797	   166.172	     8.178
  -158.505	   155.364	     2.148
  -152.983	   176.384	    -3.420
  -152.582	  -168.053	    10.168
  -160.742	  -168.660	     5.818
  -163.254	  -177.351	    -3.157
  -160.515	  -171.672	    21.207
  -151.860	   178.691	     0.116
  -156.460	   177.774	   -12.314
  -164.066	  -178.092	   -11.537
  -165.210	   160.230	    10.731
  -151.387	   178.061	     4.405
  -141.308	  -179.377	     6.691
  -137.511	   176.912	     2.347
  -149.313	   179.995	     5.716
  -154.024	   164.608	    -0.636
  -147.351	   168.880	     1.964
  -153.276	   173.026	   -20.352
  -136.073	   171.287	   -11.017
  -168.455	   171.006	    -7.938
  -155.254	   157.810	    10.561
  -157.512	   152.563	    -0.051
  -147.189	   156.303	   -11.639
  -165.140	   178.693	    15.512
  -158.590	   172.823	     3.491
  -158.917	   162.430	    10.957
  -165.997	  -171.435	     4.435
  -158.658	   179.689	    12.942
  -167.044	  -175.273	    -0.943
  -161.972	   168.808	    10.765
  -159.033	   155.412	     2.871
  -161.892	   162.777	     2.079
  -158.138	  -179.956	    -1.986
  -146.387	   153.818	   -12.469
  -158.946	   162.428	    12.686
  -155.401	   169.760	     2.256
  -150.997	   172.653	   -10.263
  -150.333	   163.232	    -4.326
  -152.696	   166.081	    -0.004
  -169.338	   173.787	    -0.998
  -150.910	   172.248	     0.038
  -150.746	  -177.280	   -13.557
  -153.912	  -176.570	    -3.708
  -159.656	  -175.689	     8.288
  -138.912	  -177.097	    -8.874
  -166.471	   179.781	    11.062
  -164.932	   177.943	     2.748
  -157.100	   161.391	    -1.055
  -158.581	   174.982	    -1.981
  -149.078	   170.476	     3.571
  -160.622	   160.085	     5.046
  -153.766	   175.848	     9.697
  -161.171	   174.869	    18.102
  -145.371	   176.535	    18.280
  -155.141	   178.889	    -2.866
  -152.548	   178.732	     2.550
  -146.777	   169.450	     0.821
  -139.091	   175.482	    -2.118
  -159.767	  -171.051	   -21.704
  -144.857	  -160.335	   -12.266
  -149.384	   173.612	    -9.388
  -147.073	   177.572	   -14.295
  -158.110	  -170.710	    -1.059
  -158.727	   155.573	   -18.844
  -161.899	  -177.828	    -0.871
  -166.261	   164.459	   -20.257
  -154.906	   163.541	    19.438
  -157.216	   166.278	    -3.946
  -166.021	   173.444	    -6.355
  -145.337	  -171.414	   -18.391
  -147.813	   175.193	   -12.515
  -163.512	  -171.362	     0.579
  -149.560	   178.189	   -10.810
  -156.872	   159.746	     1.200
  -164.105	  -179.684	    -9.082
  -139.505	   161.924	     5.567
  -141.484	   151.766	    -2.575
  -166.921	   166.614	     6.731
  -158.325	   164.225	    20.549
  -171.204	  -176.887	     8.489
  -162.542	  -176.873	    18.577
  -152.251	   170.919	    -7.993
  -151.220	   176.902	    -5.557
  -155.189	  -179.241	     4.096
  -153.351	   179.179	    10.202
  -162.093	   175.548	     7.510
  -161.737	   163.277	     5.763
  -147.945	  -179.166	   -21.433
  -156.826	   177.688	    11.411
  -143.918	   174.852	    11.111
  -164.348	  -174.701	     7.701
  -157.464	   170.699	     3.046
  -151.257	   177.355	     0.976
  -161.615	  -174.899	    -3.137
  -156.970	   174.931	     3.090
  -142.412	   162.580	    -4.810
  -152.258	   173.011	     1.833
  -149.000	  -174.018	    -9.426
  -151.948	   179.773	     7.252
  -168.726	   172.415	    -5.093
  -164.332	   178.262	     3.253
  -159.331	  -165.317	    -6.598
  -153.103	  -174.407	    -4.626
  -146.458	   176.768	    10.629
  -163.027	   173.829	    17.371
  -162.786	  -176.475	     4.968
  -165.835	   176.175	     8.692
  -151.531	   175.480	    10.461
  -150.316	  -169.346	   -19.395
  -145.291	   171.209	    -4.283
  -154.283	   179.054	     1.767
  -155.594	   167.739	     0.205
  -158.126	   168.421	    -3.805
  -163.189	   170.887	     4.452
  -168.797	  -175.381	    -7.690
  -145.762	   176.552	    -8.932
  -149.071	   161.822	    -8.471
  -158.343	   171.342	    -3.292
  -144.554	  -173.977	    -8.399
  -155.574	  -173.794	   -14.198
  -142.773	   151.522	   -12.094
  -159.166	   176.688	     7.134
  -161.005	   174.943	    10.771
  -137.063	  -169.904	    19.667
  -151.271	  -162.449	    13.979
  -147.024	  -175.197	     4.606
  -157.606	  -166.064	    12.744
  -147.767	  -168.276	   -12.132
  -140.908	  -172.213	   -13.593
  -146.651	  -145.931	    20.548
  -161.718	   166.022	     5.197
  -157.397	  -176.806	     4.771
  -174.703	  -178.865	     7.471
  -146.984	   178.297	    -8.154
  -152.521	  -170.865	     5.849
  -164.970	   159.390	    -1.175
  -150.101	   171.559	     2.430
  -154.620	   159.571	    -0.372
  -158.402	   179.107	     0.333
  -159.502	  -177.325	    -0.370
  -148.299	   159.106	     9.931
  -168.369	   169.141	    -2.794
  -162.997	   173.684	     1.514
  -163.791	   174.101	    -0.134
  -149.805	   170.566	    -2.074
  -155.082	   162.976	    18.206
  -157.285	  -179.662	     7.528
  -164.957	  -179.211	    10.135
  -152.498	  -160.458	    -3.983
  -145.339	  -162.468	     6.757
  -154.483	  -161.009	    -2.867
  -160.760	   176.587	     0.430
  -136.701	  -179.859	    -2.218
  -138.582	   178.679	     9.731
  -156.744	  -170.405	     5.772
  -151.581	   164.550	    -4.991
  -156.716	   167.596	     2.434
  -153.028	   169.446	   -10.118
  -154.490	   169.825	    -3.854
  -151.743	   165.157	     8.813
  -154.311	   168.920	    -4.463
  -153.650	   163.904	    -0.063
  -150.815	   161.448	    -7.497
  -172.944	   158.522	     4.337
  -153.728	  -172.299	   -11.341
  -152.404	   172.711	    10.436
  -156.236	  -177.643	   -10.292
  -141.603	   167.352	    -8.706
  -139.422	   166.184	    16.050
  -152.316	   165.650	    19.062
  -149.599	   160.311	     3.870
  -147.972	   179.005	     7.834
  -148.905	   178.354	    -4.519
  -154.536	   166.983	    -3.083
  -150.989	   173.928	    -2.930
  -164.299	   166.714	     1.683
  -149.325	  -173.116	    -1.636
  -157.031	   169.441	    -7.763
  -153.270	   153.016	    14.812
  -156.660	   173.069	     0.881
  -156.641	   176.841	    -7.265
  -159.492	   172.052	     1.365
  -161.556	   175.760	    -1.884
  -143.542	  -168.505	     6.407
  -162.624	   176.153	     2.888
  -146.059	   162.968	    -5.606
  -159.852	   154.041	    22.443
  -165.718	   161.969	     7.425
  -162.175	   170.991	   -25.324
  -166.484	   173.370	    -0.361
  -151.527	   162.000	     0.650
  -165.004	   173.182	    -2.592
  -154.923	   166.217	     8.120
  -154.179	   178.646	     1.478
  -143.204	   163.467	    -7.422
  -140.360	   171.797	    -2.735
  -155.464	   177.268	    -9.848
  -144.702	   166.912	     4.181
  -154.244	   169.447	    11.372
  -155.952	  -178.794	    -0.327
  -156.944	  -176.347	   -19.096
  -152.584	   171.527	   -14.403
  -139.892	  -175.411	     5.915
  -152.309	   165.858	     8.104
  -152.644	   164.216	     5.071
  -137.908	   157.469	    -1.676
  -150.579	   166.418	    -4.247
  -158.067	   171.367	    13.073
  -131.744	  -172.118	     8.161
  -148.059	  -173.641	    15.040
  -165.490	   177.184	     3.643
  -158.130	  -176.450	   -23.108
  -161.060	  -169.943	    -6.815
  -172.743	   176.906	     6.586
  -162.732	   177.116	    -1.824
  -156.809	   176.542	    -8.896
  -147.922	   169.304	    -4.546
  -152.491	   169.189	   -11.390
  -164.429	   165.513	     6.805
  -168.138	   177.128	    -1.223
  -160.820	   169.604	    10.918
  -164.287	   173.466	     2.841
  -164.599	  -179.872	     6.255
  -141.546	  -167.667	    -9.587
  -128.767	   179.939	    -1.825
  -152.104	   159.019	     5.558
  -149.067	   147.197	     8.108
  -149.057	   171.927	    -2.032
  -153.689	  -170.432	    10.855
  -150.129	   168.862	    -2.977
  -148.528	   168.250	    10.777
  -160.593	   171.945	     5.285
  -161.737	  -178.500	    -4.606
  -160.676	   171.922	   -31.150
  -162.678	   166.805	     3.079
  -145.472	   173.206	    -0.164
  -153.502	   173.000	     6.099
  -133.934	   175.567	     5.873
  -164.928	  -173.592	   -12.548
  -165.508	  -154.578	     7.406
  -160.865	   159.321	     7.142
  -153.033	   170.147	    -5.832
  -148.439	  -174.775	    -6.179
  -163.569	   165.049	    -2.212
  -148.724	   170.001	     4.823
  -156.930	  -178.634	   -10.225
  -159.365	  -168.774	     5.092
  -171.811	   159.689	     1.906
  -161.295	  -176.277	    10.995
  -156.185	   164.373	     5.859
  -155.328	   177.243	     6.786
  -162.279	  -172.176	     0.942
  -145.545	   171.032	    14.402
  -167.703	   177.634	    17.025
  -140.007	  -169.710	     5.415
  -145.828	  -171.297	     6.359
  -143.573	  -178.437	    -4.120
  -159.025	   173.870	     1.923
  -168.577	   168.705	    16.441
  -134.274	   169.215	     9.714
  -156.051	  -176.008	    -4.309
  -159.110	  -163.582	     8.613
  -154.537	   177.760	    -3.698
  -162.975	   177.853	    19.626
  -157.709	  -177.126	     7.375
  -162.980	  -178.341	    11.036
  -166.437	  -176.605	     6.775
  -159.681	   173.431	    -5.987
  -144.376	  -164.386	    -5.640
  -152.708	  -166.610	    15.394
  -134.128	  -144.996	    -6.605
  -147.082	   176.520	     3.821
  -151.714	   175.558	   -20.102
  -148.729	   146.285	    -6.429
  -163.520	   160.391	     2.185
  -145.617	   161.337	    23.279
  -153.493	   163.134	     6.863
  -145.721	   149.573	    -4.323
  -142.313	   177.672	     4.415
  -161.899	   175.575	     7.019
  -162.800	   162.821	     3.873
  -165.602	  -178.447	    13.626
  -156.296	   166.494	    -2.939
  -160.019	   175.249	     4.851
  -171.164	   158.719	   -18.119
  -156.473	   164.457	     1.866
  -146.265	  -176.726	    -1.404
  -148.645	   173.125	    -7.644
  -150.447	  -176.186	     8.970
  -159.890	  -177.885	    10.704
  -166.066	   178.548	    -6.778
  -161.445	  -169.877	    -5.180
  -142.236	   170.174	    -3.964
  -153.413	  -178.497	     1.027
  -160.083	  -174.962	    20.761
  -157.682	   162.074	   -11.240
  -147.039	   179.074	   -28.938
  -146.969	  -172.776	    -0.285
  -161.344	   174.090	    -4.164
  -154.436	   173.283	   -16.306
  -157.144	  -169.070	     2.590
  -169.258	   179.042	    -3.076
  -147.565	  -178.316	    -1.031
  -141.928	   165.051	    10.448
  -154.563	   168.954	     0.630
  -157.475	   175.761	   -11.375
  -174.075	  -178.655	     4.038
  -172.875	  -175.743	     7.493
  -159.659	  -173.101	    -4.780
  -151.417	  -175.144	    -0.135
  -146.160	   177.875	    -7.042
  -157.626	   162.011	     3.424
  -152.897	   162.195	     6.279
  -174.083	   175.513	    13.731
  -165.411	   169.681	    -5.004
  -161.098	  -179.089	    -3.436
  -151.950	   174.592	    13.196
  -156.148	   169.825	    -7.596
  -153.192	  -173.025	     8.728
  -161.750	  -179.707	    11.388
  -149.386	   176.366	     2.903
  -146.339	   154.200	     4.120
  -147.387	  -178.788	    -3.477
  -169.420	   166.511	     9.302
  -161.518	   163.614	    -2.213
  -144.589	   166.371	    15.469
  -158.980	  -174.512	    -8.252
  -164.155	  -178.156	    16.964
  -153.080	   156.398	     7.684
  -162.146	   161.366	    22.940
  -156.152	   170.991	    11.664
  -156.708	   174.605	    -7.024
  -157.307	   174.993	   -11.055
  -170.101	   163.037	    -2.888
  -143.212	   153.633	     0.431
  -152.636	   170.146	     1.168
  -150.981	  -177.291	    -8.149
  -172.342	   167.572	    15.216
  -154.987	   167.643	     1.461
  -167.326	   173.173	    14.583
  -163.423	   174.215	   -12.958
  -167.736	   164.088	    -3.112
  -147.636	   165.961	     3.458
  -151.988	   166.298	    -8.228
  -151.292	  -174.328	    -0.914
  -139.747	   172.156	    11.315
  -137.073	   178.167	     5.974
  -160.300	   179.511	    20.050
  -153.344	  -172.329	    -0.093
  -153.134	   172.928	    -7.013
  -164.358	   173.463	    18.117
  -147.874	  -178.955	     8.002
  -149.577	  -176.978	    -6.178
  -154.414	   178.915	     4.093
  -150.051	  -172.863	    -6.974
  -163.172	   176.366	    -2.262
  -150.815	   173.027	     6.710
  -146.893	   171.603	    -2.041
  -152.112	   161.881	    -2.967
  -143.234	   165.149	    14.964
  -155.234	   154.319	    10.259
  -152.281	   177.334	     5.215
  -166.246	   175.743	    -0.775
  -171.883	   167.052	     7.190
  -150.296	  -158.208	    -2.966
  -149.064	   155.525	    13.165
  -148.909	   176.753	   -24.983
  -152.739	   171.929	    -2.156
  -157.397	   163.338	     5.578
  -157.312	   172.722	    -4.579
  -142.458	   178.540	    18.199
  -159.480	  -164.793	     2.182
  -153.146	   168.321	     6.219
  -150.603	  -172.444	     2.172
  -166.818	   176.901	    10.291
  -145.894	   163.940	     3.899
  -155.403	   167.933	     6.764
  -166.509	   171.907	     6.780
  -150.311	   175.445	    12.986
  -145.754	   161.615	    -6.000
  -154.740	   176.334	    -0.229
  -149.587	  -177.483	    13.840
  -165.543	   156.569	    -5.405
  -160.684	   168.276	    19.511
  -155.867	   160.297	   -14.397
  -162.442	   169.863	     0.051
  -179.826	  -177.671	    13.120
  -155.292	   176.991	     2.763
  -151.805	   169.179	     0.155
  -159.360	  -168.347	     9.925
  -156.773	  -176.482	     7.747
  -151.631	   174.189	    13.513
  -163.653	  -177.882	    11.039
  -161.241	   174.048	    19.498
  -154.831	   164.941	    -7.303
  -160.302	   169.787	   -18.016
  -162.874	   164.702	   -19.190
  -166.463	   164.380	     9.910
  -152.792	   169.123	     2.015
  -158.763	   171.390	    13.401
  -160.855	   169.801	    -4.155
  -156.315	   170.273	    13.449
  -154.428	   167.558	    -6.045
  -162.137	   177.945	    12.205
  -173.422	   170.084	     6.527
  -168.003	   174.493	     0.184
  -156.396	  -179.673	   -13.174
  -162.410	   168.077	     1.143
  -166.818	   164.352	     8.621
  -164.855	   165.818	    11.975
  -147.610	   159.014	    21.764
  -157.482	   165.597	     5.068
  -145.990	   170.638	    16.366
  -165.828	   166.173	     3.935
  -162.931	   175.136	     1.513
  -154.815	   166.534	    11.575
  -155.117	  -174.038	    -3.834
  -138.465	  -157.422	   -12.921
  -166.389	  -178.414	    28.655
  -151.736	   166.576	    -9.148
  -158.849	  -179.781	    -8.969
  -161.772	   158.697	     6.478
  -165.109	   167.067	     1.797
  -161.655	   174.547	     2.206
  -152.614	  -176.592	     3.964
  -143.430	   171.691	   -12.323
  -146.161	  -174.238	     1.590
  -140.075	   172.024	    -9.627
  -148.899	   177.966	    -1.305
  -162.819	   178.313	   -17.337
  -153.817	  -167.756	     8.455
  -156.721	   179.757	     4.142
  -154.908	   170.033	    -0.345
  -152.370	   177.905	   -15.637
  -145.535	   156.886	    13.162
  -154.633	   171.822	    13.121
  -150.895	   153.888	    12.698
  -152.057	   158.705	   -18.596
  -150.246	   179.221	   -14.485
  -154.023	   170.039	    10.057
  -149.456	  -176.277	    -8.660
  -162.801	   179.500	     9.028
  -162.815	  -177.830	   -14.837
  -139.975	  -167.919	   -19.426
  -161.744	   175.552	    14.366
  -163.045	   176.701	    -4.191
  -144.165	  -178.828	   -22.661
  -154.611	   164.213	    -5.049
  -154.413	   178.648	     7.973
  -149.859	   153.419	     2.261
  -163.767	   176.769	   -16.035
  -159.115	  -171.833	    -1.145
  -165.900	   168.570	     0.237
  -145.652	   178.384	     2.005
  -157.510	   171.934	     8.992
  -154.289	  -170.639	     3.197
  -155.815	   171.587	   -34.698
  -137.950	  -168.567	   -21.275
  -155.049	  -172.868	    10.458
  -167.534	  -179.076	    22.178
  -153.449	  -177.202	    -0.462
  -160.041	   167.805	    16.645
  -161.825	   154.995	    11.860
  -154.012	   174.884	     2.652
  -165.008	  -172.857	     6.526
  -157.714	   171.062	     6.374
  -145.737	   170.876	    -1.438
  -141.824	   164.135	    -4.226
  -161.783	   176.543	    20.368
  -152.359	   173.904	    14.280
  -143.164	   176.033	    -6.107
  -149.567	   157.890	    -3.663
  -149.416	   172.603	    -2.657
  -153.399	  -160.293	    -4.212
  -159.728	   173.913	    -4.361
  -160.530	   170.432	    14.818
  -158.062	   172.225	     8.177
  -149.766	   151.346	     2.301
  -138.342	   176.255	    -9.073
  -168.637	   172.469	    -1.371
  -141.787	  -177.753	     4.812
  -157.399	   179.878	     1.260
  -149.431	   165.013	     9.824
  -149.763	   170.613	     0.188
  -149.696	   176.317	    -7.130
  -157.083	  -179.130	   -13.248
  -168.398	  -179.842	    -0.968
  -162.219	   160.809	   -12.563
  -168.491	   165.275	     2.556
  -156.638	   172.445	    -5.397
  -147.954	   165.032	   -16.056
  -141.484	   178.743	    -8.228
  -156.611	   165.237	    -2.064
  -141.524	   170.643	    14.284
  -150.760	   172.001	   -10.073
  -151.361	   156.901	    -7.873
  -163.466	   164.302	    -1.485
  -143.638	  -171.074	   -10.234
  -154.284	   167.181	   -19.634
  -159.338	   172.545	    -3.263
  -158.524	   172.603	     4.906
  -143.614	   176.624	    -6.059
  -155.157	  -179.383	   -14.243
  -165.914	   169.884	    -5.424
  -163.085	   178.210	     4.674
  -165.304	  -179.484	     2.002
  -159.833	  -171.843	    -8.295
  -154.668	  -173.304	    -9.264
  -174.445	  -175.853	    11.738
  -152.556	   169.034	    -1.828
  -167.618	   178.976	    10.700
  -167.942	   164.300	    14.533
  -159.868	  -171.556	   -10.510
  -168.735	   165.211	     7.877
  -144.746	   164.402	    -2.677
  -160.391	   158.264	    10.071
  -156.467	   171.149	    -8.717
  -158.176	   159.771	     8.761
  -157.140	   178.862	     2.551
  -164.761	   178.320	     8.541
  -167.828	   170.896	    -1.000
  -148.984	   177.199	     2.224
  -160.583	   176.128	    13.641
  -156.909	   157.019	    -2.333
  -157.709	   171.940	     4.248
  -159.384	   167.277	    -2.655
  -148.499	   178.765	   -10.245
  -140.473	   167.083	    11.146
  -164.295	   172.327	    15.324
  -151.317	   179.589	    -4.316
  -159.407	  -165.703	    17.886
  -141.161	  -175.342	    -1.794
  -149.049	  -178.747	    -4.466
  -142.918	   171.191	    11.847
  -165.485	  -170.057	   -12.692
  -170.635	   168.915	    -2.752
  -146.836	   159.516	     1.784
  -148.231	   179.817	     1.340
  -152.324	   176.076	    13.254
  -159.312	   162.410	    -6.070
  -165.583	   174.362	    11.534
  -151.243	   173.453	    -6.520
  -154.013	   164.284	    22.873
  -147.129	   171.404	    -1.318
  -161.234	   170.937	    -2.701
  -149.518	   167.976	    13.976
  -158.373	   170.405	   -17.901
  -142.242	  -177.175	    -7.995
  -155.395	   163.335	     4.580
  -154.815	  -177.348	     4.479
  -146.200	  -174.025	     6.584
  -156.169	   171.541	     8.949
  -150.820	   162.056	     3.765
  -162.663	   173.566	     5.310
  -158.788	   167.392	    -2.021
  -163.703	   171.726	     1.527
  -157.370	  -177.178	     2.294
  -147.655	   171.480	    -3.143
  -168.371	  -174.245	     3.362
  -160.743	   174.662	     6.248
  -141.770	   152.437	    -5.559
  -163.496	   156.164	     3.620
  -153.107	   166.979	     7.489
  -161.296	   178.810	    -4.804
  -157.038	   175.766	    -4.736
  -164.793	  -167.439	     2.344
  -138.689	   177.540	    -5.933
  -159.844	  -166.367	   -14.118
  -150.064	  -174.642	     8.003
  -152.721	   167.412	    11.629
  -170.850	   170.665	    13.717
  -151.346	  -167.762	    20.684
  -162.836	   178.679	    -3.252
  -165.533	   177.130	    -9.624
  -155.207	   172.484	     7.141
  -133.404	   179.689	     2.751
  -147.452	  -168.553	    -1.758
  -159.174	   179.755	     1.610
  -157.060	   163.436	     2.657
  -166.349	   178.419	   -10.211
  -147.734	   175.407	     1.524
  -142.875	   178.151	    -5.032
  -155.515	  -178.885	    16.466
  -148.892	   175.741	     6.868
  -142.928	   177.199	    -7.803
  -165.826	   171.257	     7.215
  -164.613	   163.307	    11.461
  -166.175	   171.361	     2.518
  -156.824	   174.080	     7.171
  -156.040	   173.804	     4.253
  -163.694	   163.113	     2.556
  -152.665	   164.488	     2.519
  -158.664	  -176.064	    -4.725
  -154.596	  -175.636	     8.368
  -162.110	   162.408	    -7.091
  -159.032	   174.980	    12.160
  -151.789	   169.816	     4.193
  -149.134	   168.457	     0.514
  -153.091	  -174.814	     9.957
  -152.129	   179.788	    -2.277
  -151.910	   166.157	    -7.389
  -158.430	  -170.348	     2.957
  -143.099	   169.589	    -7.792
  -153.488	   156.045	     6.561
  -151.244	   160.653	    -9.010
  -152.201	   179.006	    -3.038
  -150.034	   175.607	     4.865
  -160.116	  -172.788	     7.713
  -164.237	   178.276	    -7.821
  -146.960	   175.263	    -2.796
  -164.225	   170.044	     8.288
  -163.989	   164.329	     5.243
  -137.880	   176.998	    -4.293
  -153.076	   176.413	   -15.436
  -172.526	   166.141	     5.909
  -167.174	   165.162	   -10.106
  -153.729	   172.342	    26.014
  -155.995	   169.396	    -8.190
  -145.649	   162.587	    10.766
  -153.734	  -175.105	    -0.320
  -151.534	   155.259	     2.414
  -155.393	   174.272	     1.889
  -153.474	   176.191	    -0.966
  -153.160	   178.630	    -8.535
  -151.111	   167.289	    -2.086
  -161.722	   165.618	    -0.848
  -158.287	   175.447	   -11.686
  -157.637	  -178.922	     6.626
  -168.055	   179.586	     4.617
  -157.004	   170.261	     3.171
  -156.300	   167.426	    11.878
  -152.344	   175.443	    -9.043
  -153.480	   173.701	     0.766
  -140.828	  -170.183	     6.545
  -153.413	  -174.633	    17.313
  -155.736	  -174.875	     2.236
  -149.927	   176.436	    20.631
  -168.920	  -177.782	     8.394
  -158.950	   164.409	     2.574
  -158.588	   178.940	   -21.865
  -147.994	   178.993	     1.593
  -146.006	  -174.816	     4.795
  -143.237	  -174.443	     2.061
  -154.858	   167.386	     8.610
  -165.922	   171.316	    10.861
  -151.454	  -173.696	     4.192
  -146.647	   172.181	     0.795
  -159.199	  -179.123	   -14.505
  -151.565	  -178.767	    -0.526
  -147.083	  -178.085	    -3.699
  -156.461	  -166.662	     6.472
  -160.499	  -173.738	    -8.633
  -162.646	  -177.884	     5.769
  -147.917	  -177.088	     1.803
  -161.863	  -166.630	    17.319
  -149.204	  -177.795	     7.237
  -153.572	   170.188	     3.084
  -152.504	  -170.606	     4.013
  -150.669	  -174.210	     6.951
  -133.055	   178.424	     7.435
  -152.264	  -178.789	    12.192
  -162.550	  -166.163	    -3.751
  -154.016	   172.517	     3.100
  -154.660	  -175.537	    11.899
  -136.862	  -173.107	     8.635
  -158.181	   162.926	     5.450
  -151.747	   164.503	     2.884
  -159.522	  -179.883	     2.375
  -154.931	  -171.170	    19.858
  -162.070	   179.034	    -4.210
  -155.619	  -167.488	    -3.251
  -151.802	   169.117	    -3.032
  -165.365	  -168.218	     7.645
  -154.900	   173.898	   -14.883
  -162.753	  -178.748	     4.873
  -161.889	  -170.292	   -12.629
  -154.791	  -168.894	     6.734
  -160.194	  -179.107	     2.551
  -160.619	   170.328	    -2.637
  -150.125	  -179.758	    -2.848
  -149.841	   156.302	    -6.438
  -160.205	   158.073	   -19.910
  -155.156	   178.894	    18.820
  -167.922	   162.231	     3.154
  -155.822	   152.840	    -7.500
  -154.017	   152.411	    -7.376
  -168.563	   173.085	    -1.587
  -158.735	   171.833	    -2.500
  -159.661	   179.552	    14.836
  -143.326	   162.468	     1.138
  -150.171	   179.093	     9.782
  -157.494	   178.209	    -4.156
  -151.448	   174.741	    -6.885
  -145.832	   165.441	     4.514
  -152.720	   178.195	     7.080
  -162.985	   177.732	    16.287
  -142.661	   174.558	     3.204
  -159.670	   174.972	    16.463
  -149.955	  -177.303	     7.497
  -147.045	   175.488	   -16.308
  -146.939	   169.596	    -2.073
  -152.220	   178.150	    16.648
  -151.508	  -168.863	    -3.758
  -150.447	   167.680	    -0.428
  -170.698	   177.373	    20.512
  -162.052	  -177.497	     7.038
  -149.290	  -179.462	     8.426
  -147.213	  -176.607	     9.173
  -153.973	  -171.682	    15.052
  -151.973	   177.668	     7.135
  -137.294	   179.776	    10.042
  -141.622	   160.214	    11.064
  -162.137	   177.939	    18.493
  -159.013	  -167.594	   -17.925
  -162.730	   173.129	     4.524
  -155.288	  -176.476	    12.197
  -168.543	   161.217	    -8.273
  -162.097	  -176.142	    14.964
  -136.563	   175.122	    -9.046
  -152.884	   170.016	    10.043
  -152.724	   178.143	     0.346
  -145.921	  -179.709	     1.034
  -166.891	   175.976	    -7.394
  -155.538	   178.060	     3.861
  -152.688	   164.364	    -5.826
  -170.392	  -176.454	    17.410
  -152.987	   170.673	     5.791
  -157.056	  -165.162	    -2.519
  -163.115	   175.901	    -3.613
  -156.962	  -179.380	    -7.500
  -146.698	   162.716	   -21.443
  -161.910	   175.337	     8.194
  -163.460	   179.232	    -2.243
  -148.257	   177.292	   -16.163
  -163.738	   164.466	    10.869
  -157.733	   161.009	     4.956
  -156.417	   165.576	     9.580
  -172.256	  -176.781	    12.607
  -155.856	   165.887	     1.231
  -157.277	  -171.574	    -0.324
  -153.992	  -176.683	    13.451
  -145.080	   175.975	     0.623
  -139.975	   172.948	    13.056
  -155.701	   173.363	    -2.452
  -171.722	  -179.414	    -8.506
  -155.999	  -167.727	    -6.745
  -162.168	   174.703	     0.750
  -156.296	   170.755	     9.104
  -140.791	   164.694	    -0.667
  -147.311	   175.326	    -3.651
  -145.848	  -163.092	   -19.413
  -168.823	   174.438	    10.844
  -166.283	   173.499	    -4.404
  -154.260	  -174.618	    10.001
  -149.035	   169.059	    10.709
  -169.108	   172.968	    -7.295
  -149.866	   165.174	    -0.196
  -157.094	   173.485	    -4.980
  -148.353	   175.928	   -13.559
  -144.779	   174.340	    -4.112
  -156.885	   177.940	    -1.866
  -168.547	   170.120	    10.071
  -153.677	   163.829	     5.119
  -160.816	   179.322	    -8.433
  -151.831	   175.794	   -13.002
  -154.130	  -165.663	   -13.066
  -141.627	  -179.274	    -1.859
  -143.350	  -168.909	    -4.089
  -138.655	   173.287	   -21.523
  -164.169	   178.718	    20.267
  -156.964	   164.507	    -2.912
  -168.890	   166.437	     2.825
  -164.632	   166.196	     6.778
  -156.271	   167.246	     7.373
  -158.621	   176.092	    -8.619
  -151.252	   178.050	    -1.113
  -152.136	   167.208	   -12.170
  -151.225	   158.987	    -4.935
  -160.043	   177.117	    -3.175
  -145.343	  -176.475	    -9.262
  -158.310	  -173.820	     4.379
  -144.310	  -166.025	   -13.641
  -148.836	  -173.251	     0.759
  -159.419	  -173.000	    -4.426
  -170.510	   169.075	    -8.788
  -157.259	   173.974	     9.177
  -156.833	   172.324	     2.135
  -165.492	  -173.685	     3.976
  -160.433	   174.296	    -4.765
  -153.670	   176.629	    -2.816
  -153.155	  -149.726	   -18.653
  -169.410	   169.836	    -2.965
  -171.776	  -171.307	    -3.910
  -161.595	  -173.605	     5.124
  -153.624	   173.731	    11.004
  -142.956	   159.161	    -0.494
  -156.960	   164.137	   -11.613
  -163.572	   179.675	    34.982
  -163.143	  -173.038	     1.994
  -158.584	   166.220	     2.702
  -154.586	   169.488	     3.751
  -168.690	   175.447	    14.929
  -179.209	   175.217	     9.634
  -160.981	   165.148	    -2.076
  -165.244	   167.812	     9.978
  -152.521	   178.141	     6.537
  -157.238	  -172.225	    21.488
  -147.136	   179.256	    -5.080
  -154.936	   169.843	    12.678
  -154.422	   169.821	     6.460
  -151.715	   175.023	     7.222
  -152.772	   156.645	    11.223
  -169.636	   169.623	     4.464
  -143.655	  -168.713	    -8.957
  -149.032	  -174.297	   -11.245
  -155.829	   162.805	    -5.677
  -154.057	  -172.191	    12.555
  -154.441	   166.043	   -14.685
  -158.698	   162.883	     8.760
  -153.792	   178.541	     3.342
  -149.188	   177.279	    12.156
  -150.485	  -175.013	     7.739
  -158.663	   175.191	    11.864
  -159.097	   163.498	   -15.279
  -142.902	  -177.271	     2.724
  -150.499	  -176.929	    -1.581
  -144.480	   155.018	    -8.709
  -165.615	   165.696	    15.950
  -163.290	   158.327	    -4.717
  -148.838	   162.886	    -8.174
  -141.892	   153.085	     0.178
  -159.003	   166.926	    -9.348
  -165.136	   178.791	     7.633
  -159.087	  -178.484	     7.642
  -150.623	   159.268	   -12.643
  -150.981	   173.247	   -13.493
  -162.715	   179.798	    -1.470
  -151.024	   177.935	    -6.078
  -149.039	   173.417	    14.551
  -162.157	  -178.714	     2.090
  -150.316	  -170.060	     6.773
  -169.718	  -179.391	    -2.684
  -161.020	  -176.942	    23.053
  -149.415	   169.305	    23.583
  -147.545	  -177.790	     1.083
  -159.391	  -174.424	     7.663
  -155.752	  -173.906	    16.632
  -160.782	   173.095	    27.684
  -155.659	   164.513	    -0.127
  -168.224	   162.607	    -1.010
  -171.604	   155.466	    10.061
  -153.136	  -172.073	     9.917
  -152.774	   171.643	    13.483
  -166.163	  -176.348	    10.238
  -157.614	   169.398	    -4.814
  -152.022	   165.921	     7.360
  -155.437	   166.770	    -2.838
  -158.443	   177.241	    11.626
  -153.277	   163.389	     2.672
  -151.384	   155.997	    -7.571
  -162.948	   175.659	     5.984
  -152.199	  -178.411	     0.413
  -139.354	  -168.256	    -5.293
  -159.964	  -170.103	     3.395
  -161.364	   177.599	     8.550
  -159.702	  -173.618	    -3.476
  -160.733	   160.090	    -6.443
  -162.728	  -171.147	    -9.273
  -155.046	   173.307	   -11.516
