   -92.310	   122.143	    -3.179
   -97.597	  -160.874	     3.633
   -98.372	   -86.224	    -6.955
  -102.283	  -109.095	   -29.538
  -103.463	  -106.837	    -8.699
  -101.699	   -90.608	    -0.245
  -113.977	   -91.083	    -9.677
  -118.761	   -86.515	    17.309
   -98.315	  -109.311	   -10.794
   -98.545	  -108.608	     4.272
   -77.127	   -81.040	     9.137
  -115.246	  -102.288	    13.101
  -100.519	   -85.696	     9.141
  -126.277	  -140.201	    -4.799
   -94.388	  -134.931	    -0.038
  -109.877	  -117.242	    -6.056
  -101.933	  -121.479	    17.477
  -120.151	  -121.144	    13.971
  -115.840	   -89.395	    -6.260
  -128.398	  -110.341	    12.945
  -119.094	   -99.601	    -4.468
  -106.130	  -108.651	   -16.082
  -113.322	  -133.475	     0.745
   -91.732	  -141.482	    -4.968
  -111.833	  -138.123	   -10.856
  -106.873	  -139.899	    -4.081
  -110.494	  -138.133	     0.807
  -107.131	  -118.425	   -12.446
   -89.791	  -114.600	   -19.805
   -93.488	  -127.495	   -21.617
  -117.552	  -130.630	   -21.157
  -129.870	  -144.649	    -0.861
  -106.547	  -100.947	    15.454
   -99.112	  -134.452	   -12.394
  -120.909	  -151.981	   -16.666
  -104.439	  -142.114	    -3.408
   -96.286	  -163.153	     5.428
  -125.974	  -164.682	    17.060
  -123.199	  -142.834	     0.780
  -116.415	  -134.058	    -5.730
   -97.639	  -146.551	     6.662
  -119.130	  -122.032	    -9.568
  -100.746	  -108.471	     6.618
  -105.403	  -117.437	    -0.137
  -120.638	  -125.329	    -9.859
  -118.978	  -110.562	    -6.421
   -99.175	   -92.010	   -24.978
   -86.706	  -125.889	     8.404
   -94.545	  -127.208	   -10.906
  -115.697	  -128.218	    12.972
  -116.972	  -143.217	   -22.093
  -119.881	  -132.558	    -1.760
  -124.738	  -151.395	    10.975
  -108.117	  -138.050	    -7.036
  -115.016	  -126.097	     5.543
  -120.100	   -87.311	    11.487
  -128.140	   -99.068	    -2.703
  -101.166	  -108.746	     5.338
  -105.212	  -137.012	    -4.457
  -100.574	  -112.751	    17.852
  -104.344	  -110.539	     9.674
  -104.023	   -92.535	     5.994
   -96.204	   -78.354	    18.249
  -107.167	   -84.921	    -0.676
  -104.977	  -110.471	     3.090
  -109.526	  -124.540	     0.017
  -111.980	  -101.961	     3.167
   -80.498	  -146.760	   -16.883
  -114.602	  -112.025	    13.214
  -118.981	   -81.988	    -8.128
  -103.662	   -87.235	    11.185
  -105.044	   -85.479	    -6.926
  -132.790	  -100.201	     1.596
  -124.645	  -119.466	    -3.481
  -120.344	   -92.757	     1.240
  -115.253	  -121.915	     6.136
  -121.470	  -115.048	    -1.550
  -120.093	   -86.489	    -4.493
  -101.764	  -118.742	    -7.382
  -107.104	  -107.749	    -4.769
  -103.897	  -104.989	     6.074
  -120.123	  -138.864	   -12.374
  -135.257	   -78.104	     6.689
  -124.876	   -93.666	    -0.706
  -126.459	   -78.692	    19.128
  -119.509	  -111.961	     2.320
  -134.518	  -112.249	     2.114
  -108.744	  -127.844	     1.494
   -99.238	  -115.446	    -3.023
   -81.417	  -113.657	     8.274
  -124.130	  -116.371	     0.734
  -105.835	   -94.720	    14.051
  -101.528	  -116.846	    -3.869
  -115.571	  -107.300	    11.397
  -118.094	  -110.712	   -16.169
  -135.828	  -110.028	   -18.562
  -129.880	   -90.199	    -7.928
  -101.111	   -80.452	     2.700
  -109.704	  -121.689	    -7.988
  -107.715	  -124.253	    -6.775
   -98.033	  -104.276	    14.954
  -103.376	  -131.690	    -2.468
  -106.113	  -134.797	     0.224
  -108.721	  -111.992	     2.785
   -97.834	  -122.956	     7.007
   -93.045	  -105.513	    17.378
  -113.358	   -95.667	     3.962
   -94.485	  -106.765	    10.142
   -98.095	  -127.259	    -8.144
   -95.771	   -85.628	     5.587
   -99.582	  -103.719	    13.370
  -104.285	  -129.359	    10.080
   -89.994	  -101.544	    16.754
  -101.728	   -98.871	    15.628
  -117.587	  -103.105	     9.142
  -120.276	   -95.928	   -18.300
  -134.099	  -100.901	    -7.535
  -135.551	  -109.327	     4.790
  -120.184	  -117.791	    -8.866
   -99.405	  -113.824	    -5.581
  -110.836	  -133.222	     8.000
  -106.812	   -95.940	    -1.723
   -98.199	  -115.585	   -18.789
  -114.121	  -128.370	   -19.884
  -103.259	  -113.876	     1.581
  -116.179	  -134.215	   -17.180
   -97.522	   -99.016	    -1.621
  -106.676	   -81.496	    -8.431
   -96.896	   -77.474	    -9.737
  -105.474	  -126.887	     6.579
  -123.668	  -109.014	     7.980
   -98.383	  -118.397	    18.790
  -105.630	  -145.792	    -5.026
   -84.611	  -139.422	     7.687
  -111.264	  -132.470	     2.313
  -106.246	  -138.643	     3.741
  -115.988	  -122.700	     4.089
   -88.731	  -113.334	    -2.243
   -93.661	   -79.548	    15.125
  -117.625	  -121.204	     2.560
  -108.042	  -116.571	    14.342
   -98.611	  -121.743	   -21.008
  -103.057	  -120.929	   -19.550
  -117.188	  -112.763	     8.870
  -109.520	  -110.454	    12.649
  -105.252	  -111.323	    -8.991
  -107.108	  -110.614	    -9.506
  -124.784	  -123.406	    10.208
  -105.223	  -116.386	    -1.819
  -115.563	  -112.513	     1.665
  -123.310	  -136.507	    -9.155
  -120.141	  -115.735	    -8.894
  -112.077	  -140.303	     5.897
  -112.656	  -150.145	     1.793
  -117.640	  -127.162	    13.024
  -117.703	   -94.492	    -2.538
  -106.530	   -89.201	    -7.888
  -126.984	   -97.088	    -7.402
  -124.933	  -101.057	     2.306
  -124.868	  -112.362	     8.877
  -123.884	  -113.672	     9.423
  -105.110	  -124.722	     1.631
   -90.649	  -117.391	     7.264
  -124.420	  -104.494	    14.520
  -106.549	  -110.286	     4.576
  -133.655	  -105.232	     5.250
  -110.787	   -97.844	     8.022
  -112.472	  -104.044	   -26.502
   -88.497	  -120.636	    -6.796
   -98.477	  -113.686	   -13.314
  -105.491	  -113.577	     0.938
  -108.105	   -95.326	     4.095
  -114.860	  -100.121	   -13.937
  -122.319	   -96.923	   -24.842
  -133.286	  -121.704	     1.059
  -120.973	  -104.970	    -6.324
  -127.129	  -130.036	   -14.195
  -131.176	  -130.751	     5.048
  -122.827	  -106.699	    -9.872
  -114.567	  -114.286	    -3.258
  -135.001	  -124.683	   -31.948
  -132.881	  -141.276	    -1.801
  -117.016	  -128.232	    -6.452
  -105.963	  -102.504	    -2.150
   -93.919	  -127.898	     1.090
  -102.577	   -82.531	    -0.665
  -122.154	   -83.860	    -3.654
  -124.767	   -97.606	     8.143
  -104.412	   -72.666	    -3.848
  -121.549	   -88.794	   -11.384
  -108.476	   -79.922	     4.381
  -121.422	   -98.626	   -10.991
  -113.146	  -136.683	    -0.721
  -133.598	  -141.293	    15.017
  -112.994	  -139.077	    11.264
  -108.570	  -147.923	    -5.540
  -125.993	  -152.795	    -2.767
  -107.003	  -105.910	    -2.437
  -117.326	  -126.189	    -4.337
  -101.010	  -136.172	     0.632
  -100.171	  -112.923	    -0.123
  -105.251	  -117.992	    18.308
  -123.144	  -110.037	     7.882
  -106.643	   -95.426	    15.667
  -107.793	  -113.346	    -2.367
  -104.437	  -124.685	     7.133
  -103.942	  -115.076	    -8.462
   -91.404	  -118.601	   -11.895
   -99.445	  -112.948	    -1.528
  -102.746	  -116.174	     3.042
   -95.192	  -112.541	    -1.640
   -96.875	   -59.637	     0.408
   -95.927	  -127.442	     8.222
  -116.935	  -114.747	    18.922
  -102.421	  -108.863	     3.896
  -112.130	  -133.202	    10.200
  -105.758	  -112.303	   -14.424
  -107.741	   -91.502	    -4.154
  -124.313	  -117.880	    -8.654
  -106.934	  -120.666	     4.760
  -130.201	  -114.811	    -8.774
  -129.786	  -106.564	    -5.745
  -107.367	   -94.244	     9.170
   -90.455	   -62.513	    -0.088
  -101.594	   -74.392	     9.210
  -110.961	   -92.785	    10.885
  -104.746	  -108.685	     1.021
   -94.313	  -115.253	    -4.265
  -119.744	  -117.934	     0.689
  -100.088	  -108.083	    -3.128
  -118.903	   -93.993	    16.261
   -87.614	   -94.468	     7.668
   -74.883	  -123.432	    -8.681
  -118.502	   -97.009	    13.526
  -127.997	   -87.092	   -10.869
  -130.795	   -87.971	     1.002
  -108.971	   -85.900	    -8.815
  -122.034	  -117.612	    -5.692
  -113.957	  -131.597	    -5.122
  -111.381	  -124.179	     6.599
  -111.334	  -114.915	     7.110
  -101.374	  -105.887	    -9.063
  -117.787	  -122.327	     5.777
  -125.629	  -110.712	   -14.171
  -109.585	  -112.756	    -4.830
  -119.913	  -122.870	    -1.605
  -123.065	  -118.753	    -6.321
  -139.298	   -91.745	   -13.841
  -108.081	  -120.273	     4.857
   -92.060	  -121.004	    -3.449
  -100.728	   -90.943	    -1.471
  -116.991	  -115.131	     3.757
  -121.043	  -136.337	     3.825
  -107.187	  -110.640	   -14.063
   -91.032	  -118.666	    -1.081
  -107.944	   -86.577	    -0.662
   -86.325	   -89.048	   -11.873
  -104.248	  -105.024	   -24.646
   -75.085	   -78.238	   -14.545
  -109.304	   -97.233	    22.640
  -105.931	   -92.930	   -10.058
   -96.553	  -131.341	    -0.430
  -123.281	  -148.169	    -6.645
  -120.830	  -115.248	     4.835
  -110.482	  -102.101	    -8.788
   -97.799	   -85.034	   -12.848
  -113.062	   -74.794	    -5.165
   -89.439	   -84.905	    10.894
  -100.546	   -90.576	    13.022
  -110.950	   -75.662	    19.492
   -95.798	   -79.832	    11.130
   -75.098	   -81.780	     3.876
  -109.699	   -81.323	     5.935
   -88.154	   -79.310	     1.567
   -94.612	  -112.643	    -6.703
   -94.028	   -89.027	     5.235
  -116.402	  -100.023	    -0.580
  -120.691	  -106.461	     0.920
  -129.466	  -110.925	     1.747
  -140.374	  -130.390	    11.772
   -98.094	  -118.611	    -4.485
   -85.005	  -126.383	    -6.542
  -113.405	  -105.502	     7.945
  -114.680	  -117.411	    -4.179
  -108.910	  -118.078	     1.587
  -119.271	  -126.154	   -12.783
  -133.077	  -119.209	    -5.238
   -93.646	  -132.490	     7.846
  -106.230	  -126.349	     1.316
  -126.613	  -101.185	    11.286
  -108.363	  -116.686	    -2.468
  -106.561	  -112.168	    -2.420
  -124.995	   -82.744	     0.019
   -98.780	   -97.086	    -8.531
  -126.947	  -115.896	    -0.038
  -106.012	  -122.588	     4.067
  -108.986	  -148.978	    -5.674
  -128.618	  -133.226	    11.622
  -109.117	  -120.188	     9.258
   -99.552	   -86.949	    -2.069
  -104.734	  -115.060	    15.131
  -107.986	   -89.877	     4.104
   -99.763	   -83.283	     3.053
   -97.865	   -97.548	   -13.566
  -100.476	  -106.215	     3.828
  -109.286	  -110.688	     1.859
   -98.227	   -87.896	    10.059
  -111.710	  -138.347	    -2.186
   -91.199	  -134.429	   -15.534
  -112.088	  -125.973	    -3.676
  -108.585	   -90.331	    -8.931
  -114.843	  -105.755	   -16.376
  -118.475	  -104.344	     1.470
  -126.248	   -48.575	    11.148
  -113.941	  -101.220	    -1.249
   -92.103	  -104.443	    -1.181
  -108.024	   -80.045	    19.504
  -111.494	  -118.757	   -17.247
   -95.618	  -118.657	     7.169
  -114.887	  -139.039	    18.415
  -102.586	  -139.392	    25.233
   -83.288	  -148.372	    -5.758
  -100.034	  -133.893	    16.946
   -99.849	  -126.520	     4.471
   -98.320	  -135.630	    10.407
  -112.640	  -128.700	     6.083
  -102.002	  -129.101	    -0.628
  -128.403	  -126.279	    -8.881
   -88.186	   -97.294	    -7.884
   -85.654	   -88.979	     1.805
   -96.477	  -104.986	    23.463
   -94.848	  -114.248	    11.221
   -91.199	  -134.904	     9.269
   -98.262	  -140.388	    10.285
  -108.870	   -99.069	    19.735
  -103.777	  -146.825	     4.997
  -104.619	  -140.079	     4.777
   -90.634	  -134.710	     1.372
  -110.618	  -134.071	     1.231
  -108.458	  -130.318	   -17.541
  -104.466	  -139.630	     1.023
  -108.632	  -130.079	   -12.921
  -109.772	  -112.970	    15.943
  -103.781	   -97.414	   -12.978
   -87.798	  -100.223	   -33.941
  -120.344	  -121.107	   -11.719
  -118.565	  -129.032	     2.570
  -116.978	   -85.383	   -11.548
   -75.289	  -111.373	    -9.292
  -119.687	  -114.089	    16.062
  -121.482	  -106.071	     6.358
   -97.754	   -75.683	   -11.511
  -107.982	   -99.636	    13.636
   -88.434	   -72.945	     5.574
  -100.075	  -127.533	   -21.530
  -101.152	  -101.781	    -9.886
  -114.801	  -117.362	     0.533
   -92.309	  -125.243	    -1.796
  -110.650	   -90.856	   -25.900
  -119.059	  -100.070	   -13.368
  -136.728	   -98.279	     1.506
  -126.746	  -104.826	   -20.059
  -123.776	   -80.402	   -12.855
  -119.353	  -102.963	     3.118
  -110.141	   -79.537	    13.077
   -98.523	   -91.713	    -3.768
  -118.471	  -122.020	     0.276
  -103.926	   -78.980	    -1.603
  -111.495	   -91.083	     1.905
  -119.870	   -87.207	    -1.452
  -100.783	  -103.565	     4.084
   -94.802	  -110.158	     1.242
   -88.543	  -123.204	    -7.439
  -118.372	  -115.611	   -12.810
  -106.676	  -126.689	    -6.262
  -106.707	  -110.784	   -11.444
  -142.026	  -145.435	     5.694
  -123.842	  -131.484	   -21.191
   -99.172	  -103.758	    -0.867
   -94.137	  -112.103	    -4.060
  -106.140	  -109.412	     9.226
  -123.559	   -96.664	    29.332
   -94.904	   -75.396	    19.200
  -110.792	   -99.954	     2.325
  -109.583	   -91.146	    10.208
   -92.111	   -73.097	     9.103
  -109.006	  -101.264	     3.364
  -135.270	  -111.086	     2.203
  -128.379	   -92.048	    -0.451
  -120.045	   -85.512	     8.100
   -98.528	  -111.692	    -3.569
  -135.701	   -94.288	     0.720
   -86.298	   -91.209	    -5.172
  -119.116	  -103.841	    -1.919
  -117.187	  -123.603	    -3.990
  -108.210	  -124.361	     1.098
  -111.141	  -102.914	     2.669
  -103.195	   -81.929	    -3.044
  -122.258	   -87.601	    12.826
  -106.481	  -109.130	   -25.592
  -121.180	  -109.716	    -2.469
  -100.006	  -117.620	    -3.619
   -72.235	   -93.919	    22.942
   -91.876	  -138.867	     2.938
   -94.338	   -74.082	    14.919
  -109.286	  -106.890	    18.583
  -115.000	  -117.323	    19.070
  -117.445	   -90.042	    32.847
  -117.990	   -97.260	     7.267
  -104.661	   -91.144	    -0.889
  -113.632	  -106.999	    -3.384
  -114.938	  -145.436	     7.287
  -107.923	  -130.042	    -0.009
  -102.178	   -95.754	    -0.671
  -116.107	  -134.220	     1.766
  -115.406	  -120.239	     9.075
   -98.688	  -148.247	   -15.549
  -101.866	  -125.009	    -8.739
  -122.387	  -121.841	    10.623
  -129.755	   -78.202	    -2.541
  -118.636	  -138.256	    16.261
   -96.030	  -133.788	   -12.162
  -112.072	  -148.733	    -0.543
  -114.105	  -124.336	    -5.230
  -115.623	  -115.912	    -8.264
  -108.436	   -91.053	    -5.714
  -113.493	  -130.405	    10.573
  -124.402	  -110.173	     8.914
  -100.515	   -94.676	     6.158
   -94.019	   -87.636	    -0.696
  -107.633	  -100.096	    -1.596
  -101.803	   -80.974	    17.890
   -94.793	  -107.321	     8.860
  -116.755	  -102.278	    -2.295
  -106.602	   -65.868	     8.586
  -114.309	   -65.466	   -11.781
  -111.124	  -111.745	    12.504
  -107.167	   -84.329	    -9.090
  -133.190	   -68.891	    -6.264
  -116.385	  -114.207	    -4.374
   -81.296	   -99.613	    -4.006
  -103.443	  -124.468	   -10.973
  -105.321	  -142.894	    -5.253
  -121.814	  -134.081	     1.974
  -122.969	  -168.652	    -8.522
  -128.495	  -130.260	    -3.803
  -106.485	   -99.740	    -4.393
  -115.842	   -98.598	     0.087
  -105.296	   -88.632	    -1.391
  -105.028	  -103.153	     5.277
  -128.530	   -80.565	     6.758
  -119.545	  -126.159	    -3.484
  -118.466	  -122.416	    -2.912
  -133.145	  -137.967	    24.844
  -101.754	  -132.395	    -3.697
  -140.592	  -144.279	    -6.704
  -112.417	  -113.278	   -16.861
  -131.336	  -136.685	    -2.919
   -96.566	  -125.958	    19.610
   -90.518	  -120.189	     0.045
  -109.529	  -113.700	     1.452
  -110.660	  -121.662	     4.935
  -102.339	  -132.520	    -2.779
   -92.646	  -116.909	     7.382
  -118.671	   -89.575	    23.330
   -92.006	  -131.349	    -7.966
  -116.342	   -88.078	     7.030
  -106.861	   -96.537	    11.149
   -99.436	   -96.660	   -10.761
  -105.274	  -116.924	    -4.604
  -111.879	   -80.834	     2.894
  -124.863	  -117.592	     9.133
  -145.213	  -114.547	    -7.886
  -130.864	   -95.766	   -13.450
   -95.495	   -77.837	    15.138
   -84.018	   -83.209	    10.202
   -96.287	   -85.504	    21.214
  -102.458	   -95.077	    13.572
  -111.880	  -104.730	    -6.918
  -123.156	  -118.817	   -13.556
  -106.723	  -134.083	    -9.218
  -114.882	  -129.248	    -1.224
  -117.778	  -131.524	    -0.355
  -140.010	   -87.394	    14.251
  -103.728	  -113.785	     1.601
  -109.164	  -104.049	     3.528
  -112.404	  -119.422	    14.322
  -105.649	  -138.270	    -2.625
  -105.292	  -108.674	     1.323
   -82.111	   -92.627	     9.114
  -110.522	   -95.995	    22.549
   -94.813	  -109.527	     6.150
   -99.844	  -107.623	    18.028
  -136.120	  -116.888	   -11.435
  -127.495	  -111.817	    -7.077
  -108.780	  -111.180	     6.141
  -107.153	  -122.052	     6.545
   -97.545	   -91.162	   -17.358
   -93.637	   -92.675	     2.212
   -99.836	  -105.461	     9.602
  -105.737	  -103.330	     7.259
  -118.202	   -88.436	    -4.511
  -112.747	  -116.249	    -8.917
  -113.477	  -107.517	    -1.870
  -115.726	  -108.196	     6.792
  -104.274	   -99.606	   -15.870
   -95.728	  -113.229	   -11.428
  -131.866	  -102.023	    -8.317
  -117.046	  -100.464	   -16.500
  -101.497	  -102.304	    14.239
  -112.607	  -115.559	    -4.143
  -114.686	  -140.345	   -11.194
  -110.167	  -127.425	    -3.401
  -106.282	  -102.369	     2.256
  -124.808	  -120.556	     0.693
  -116.626	  -117.208	    -3.780
  -107.069	  -139.042	    -1.068
  -128.603	  -112.041	    10.102
  -123.723	  -118.621	    -1.729
  -116.723	  -139.281	    -7.474
   -96.513	  -162.335	   -17.158
  -122.485	  -131.789	   -18.180
  -105.492	  -113.120	     1.627
  -102.609	  -119.774	    -0.927
  -101.652	  -121.182	     1.084
   -97.482	  -115.413	   -18.166
   -92.569	  -101.753	    -9.213
  -102.731	  -108.241	     1.217
  -108.736	  -121.369	     0.721
   -95.262	  -114.606	     0.965
  -111.111	  -109.189	     8.909
   -97.062	  -109.660	    -5.832
  -103.206	  -114.450	     8.081
  -106.258	  -116.041	     4.585
  -108.504	   -99.518	    -9.257
  -102.330	   -91.515	     0.891
  -117.769	  -111.443	     6.313
  -131.432	  -133.529	    -2.536
  -120.029	  -131.599	   -31.003
  -100.277	  -125.948	     4.098
  -118.540	  -115.060	    -7.257
   -94.384	  -130.886	     1.895
  -104.600	  -127.493	    -5.682
  -107.548	  -134.381	    -9.827
  -143.317	  -118.745	    -2.576
  -108.836	  -111.372	     4.784
   -92.246	  -127.979	   -12.843
  -105.017	  -119.836	    -5.111
  -122.009	  -128.525	     1.119
   -89.090	  -104.363	    -3.851
   -89.867	  -101.490	     3.013
  -123.549	   -95.563	     5.824
  -118.403	  -103.448	     7.817
  -109.760	   -80.428	     1.006
  -113.595	  -108.652	    -6.030
  -113.920	   -87.486	     4.727
  -107.398	   -98.912	     3.138
  -112.665	  -113.896	   -23.412
   -89.805	  -103.955	    -1.470
  -103.589	  -106.480	     0.946
   -99.597	  -101.439	    -3.575
   -96.529	   -81.942	    26.121
  -101.592	  -108.920	    18.197
  -122.471	   -75.882	   -16.813
  -133.243	  -126.655	     8.601
  -112.712	  -135.065	    -2.916
  -113.822	   -98.759	    -6.897
  -120.399	   -96.824	     4.378
  -100.489	  -122.523	   -16.946
  -106.247	  -152.432	    10.406
  -115.786	  -141.628	     9.721
  -114.047	  -140.259	    -1.889
  -117.304	  -151.606	   -12.551
  -109.644	  -154.815	     8.674
   -92.438	  -115.488	   -21.873
   -85.735	  -110.242	     5.412
  -111.072	   -95.163	     9.632
  -122.123	  -111.425	    -2.273
   -96.525	  -133.973	    -1.392
  -100.244	  -110.649	    -1.315
  -113.208	  -107.226	   -11.537
  -117.594	  -128.754	     4.262
  -120.554	  -128.430	    11.693
   -92.977	  -149.272	    -6.040
   -83.570	   -98.413	   -28.017
   -92.237	  -120.031	    -1.190
  -100.450	  -119.977	     3.859
   -95.861	  -112.168	     5.758
  -105.732	  -123.052	    -5.010
  -103.951	  -114.352	   -12.057
   -97.682	  -126.309	     3.695
  -117.701	  -133.146	    -4.627
  -124.447	  -138.930	    -1.739
  -104.674	  -142.327	     6.218
   -81.604	  -112.876	   -10.294
  -107.410	  -119.324	     3.206
  -107.182	   -67.478	    -2.316
  -126.351	  -106.962	     0.885
  -128.876	  -101.942	    -3.455
  -104.482	  -100.793	    15.150
  -110.763	   -99.208	    -3.593
  -101.260	  -101.375	   -22.986
  -101.136	  -114.573	    -2.984
  -118.519	  -123.134	    13.820
  -133.734	  -106.175	   -10.482
  -124.612	   -89.737	    -7.672
  -122.493	   -96.725	    -5.308
  -106.083	   -97.162	    -0.684
  -118.235	  -112.274	     7.106
   -90.717	  -120.602	   -11.114
  -103.207	  -130.289	   -13.499
   -92.530	  -128.292	    -4.310
   -88.427	  -135.841	   -10.928
  -107.781	  -108.942	    11.428
  -116.302	  -119.692	    -0.654
   -96.382	  -122.913	     5.919
  -132.995	   -81.786	     4.285
   -99.326	   -82.769	     8.659
  -119.630	   -82.240	    -1.185
  -117.288	   -74.234	     4.248
  -105.578	   -69.522	    17.310
  -113.627	   -76.332	    -1.772
  -121.785	   -90.083	     1.052
   -94.368	  -109.017	    -1.164
  -109.819	   -82.291	     1.891
  -101.383	   -92.596	     3.856
   -88.992	  -111.689	   -10.321
  -123.429	  -122.749	    18.773
  -122.224	  -105.920	   -13.041
  -102.074	   -94.193	    -7.904
  -111.869	  -127.198	   -10.124
  -126.476	  -123.306	    10.189
  -110.304	   -80.305	    -2.621
   -98.823	  -116.470	    -6.769
  -128.477	  -112.767	    -0.778
  -127.780	  -116.619	   -27.183
  -125.824	   -87.735	    -8.569
  -133.089	  -135.041	    -2.951
  -130.071	  -133.430	     1.710
  -114.831	  -118.830	    -6.499
  -108.179	  -111.875	   -13.834
  -104.963	  -134.774	    -6.976
  -111.736	  -112.778	    -3.204
  -109.107	  -140.017	     4.623
   -98.492	   -99.812	    -8.151
  -110.578	  -126.302	    13.271
  -109.806	   -93.917	     3.736
   -89.401	  -104.353	   -19.493
  -105.406	   -84.229	    -0.837
   -98.628	  -108.087	     3.747
  -113.517	  -116.358	    -4.743
  -105.452	  -106.112	     3.813
  -119.692	  -102.403	     1.003
  -105.719	   -66.931	     5.006
  -103.216	   -68.308	     1.863
  -105.942	   -76.471	     3.908
  -114.845	   -80.395	    -5.656
  -111.398	  -100.765	   -10.165
  -113.004	  -114.627	    10.298
   -97.109	  -133.897	    -7.893
  -101.835	  -136.481	    -3.236
   -99.823	  -109.379	     0.850
  -101.716	  -125.817	    -5.068
  -130.351	  -109.188	    -1.612
  -138.776	  -105.448	    20.482
  -116.555	  -117.386	     9.357
  -128.745	   -70.601	   -12.355
  -118.105	   -87.846	    -2.877
   -97.274	  -108.950	    -4.144
  -105.726	  -108.269	     2.517
  -112.631	  -109.672	     6.014
  -133.489	  -103.729	   -14.547
  -114.555	  -121.145	     1.968
  -121.149	  -109.508	    -1.095
  -114.918	  -114.923	     9.094
  -112.676	  -101.775	     1.476
   -86.741	  -109.345	    -0.548
   -86.214	  -109.249	   -11.069
   -94.048	   -76.113	    -8.069
   -95.936	   -83.202	     5.002
  -107.586	   -67.791	     0.653
  -121.551	   -97.926	    -2.889
   -89.600	   -85.272	   -13.377
  -125.672	   -98.235	    16.381
   -95.612	  -113.112	    14.050
  -104.808	  -104.583	     4.029
   -86.173	  -120.355	   -11.957
  -117.763	   -90.060	   -16.024
  -117.857	  -116.640	    -6.518
  -113.617	   -70.680	     2.552
  -118.213	  -105.171	     2.168
   -79.189	   -85.530	    -8.833
  -126.780	  -106.910	     7.778
   -95.089	  -122.190	     5.824
  -113.160	  -118.120	    -9.200
  -104.536	  -109.068	     6.188
  -117.369	  -113.479	    -5.302
  -106.873	  -127.443	   -14.719
  -119.887	  -135.692	     8.540
   -98.100	  -127.708	    -9.159
   -92.949	  -133.377	    -6.960
  -118.232	  -115.997	     5.279
   -99.161	  -100.133	    -0.472
  -102.308	  -129.525	    -7.306
  -118.317	  -100.192	    -8.505
   -99.721	   -90.613	    12.987
   -85.442	   -96.082	     3.352
  -134.252	   -88.123	    -0.109
  -109.179	  -101.752	    -6.054
  -112.234	   -89.392	   -13.017
  -101.053	   -83.879	    -4.488
  -116.627	   -83.436	     6.673
  -100.977	  -109.468	    -3.417
   -97.236	   -97.868	   -21.217
   -95.857	   -80.709	   -12.846
  -103.667	  -102.883	     1.684
   -95.807	   -84.289	    -3.000
  -104.708	  -103.450	    -1.233
   -96.610	   -90.515	    -7.494
   -84.230	  -112.069	   -11.186
  -100.265	  -111.138	   -15.885
   -98.862	  -116.806	    19.951
   -95.850	  -128.007	    -1.651
  -104.215	   -90.711	     8.084
  -121.591	   -99.055	     4.601
  -124.292	  -122.482	    12.101
   -95.116	  -122.668	     3.935
  -113.449	  -111.596	    15.087
  -105.319	  -122.181	   -11.404
  -107.972	   -98.380	     0.115
   -83.751	  -125.139	    -9.490
  -106.791	  -105.144	     8.787
  -118.083	   -98.493	    18.215
  -124.685	  -108.732	    -1.124
  -131.282	   -90.992	    -3.404
  -103.077	  -100.200	    -3.991
  -114.763	  -131.230	     4.577
  -106.995	   -91.873	     3.096
   -89.577	  -110.497	    -0.108
  -101.467	  -127.322	     4.795
   -91.143	  -108.637	     2.634
  -107.524	  -131.964	     5.572
  -114.681	  -135.210	    -8.400
  -122.436	  -126.927	     1.887
  -112.921	  -107.247	     1.511
  -113.515	  -140.042	   -15.820
   -93.785	  -116.224	     5.267
  -111.063	   -89.641	   -14.395
  -113.324	   -86.871	    -2.980
  -114.731	  -111.610	     3.069
  -128.548	  -129.746	     7.100
  -102.437	  -143.980	   -13.213
  -107.979	  -126.663	    18.219
  -124.344	  -125.302	   -16.745
   -95.043	  -127.413	     5.744
  -108.894	  -124.010	    -9.901
  -107.295	  -147.210	   -15.359
  -130.160	  -138.958	    -9.545
  -118.738	  -125.368	    -8.017
  -131.393	  -117.729	     9.783
  -122.586	  -146.811	   -13.036
  -118.375	  -118.844	     0.657
  -135.160	  -111.056	     3.329
  -117.624	  -117.501	     1.845
  -122.047	  -100.100	   -15.628
  -102.447	  -106.004	     7.628
  -111.123	   -98.545	   -27.369
  -121.110	  -105.801	    -7.376
  -139.785	  -128.742	     7.736
  -130.723	   -94.186	    -0.949
  -106.061	  -115.409	     3.426
  -120.665	  -112.749	    -1.434
  -121.815	  -113.168	   -11.594
  -103.238	  -121.401	     3.311
  -103.944	  -109.496	     7.974
  -111.560	  -102.719	     1.194
   -97.149	  -129.256	   -10.923
  -109.235	  -127.137	    -8.272
   -94.935	  -104.900	   -11.274
  -114.225	  -113.708	    -3.067
  -131.777	  -100.335	    -8.888
  -130.166	   -94.430	    -5.615
  -126.719	  -113.933	    -6.853
  -118.347	  -119.479	     0.008
  -119.715	   -98.936	   -11.360
  -102.877	   -82.612	    10.817
  -126.285	  -110.299	   -10.805
  -120.630	  -102.177	     3.371
  -103.952	  -112.808	    -6.792
   -91.040	   -99.471	   -14.801
  -106.321	  -130.426	     9.578
   -99.310	  -131.339	    -0.601
   -87.324	  -143.649	    -3.110
  -110.450	  -107.759	   -10.753
   -99.562	  -107.148	   -20.008
  -117.078	   -91.599	     2.397
   -93.066	  -124.768	    13.792
   -99.945	  -112.960	    11.273
  -113.538	  -119.188	    24.403
  -111.657	  -126.830	    -6.240
  -128.481	  -115.613	   -14.882
   -85.727	   -98.489	   -19.706
  -108.739	  -122.413	    12.078
   -95.828	   -86.401	    -0.168
   -86.741	   -81.265	     1.953
   -98.645	   -82.088	     7.048
  -114.997	   -90.477	     5.804
  -107.061	   -77.933	    14.248
  -106.247	   -91.392	     7.522
  -111.008	  -123.818	    -4.147
  -120.162	   -96.702	    -7.771
  -138.441	  -107.607	     6.436
  -110.125	  -101.565	    -8.219
  -113.350	  -119.269	     6.514
  -101.832	   -94.069	    -7.294
  -116.286	  -117.002	   -11.774
   -83.517	   -98.520	   -11.069
  -120.256	  -122.487	     9.006
  -102.839	  -138.960	   -16.169
  -102.537	  -136.887	    10.331
  -115.245	  -121.405	     0.376
  -101.885	  -132.073	    -4.385
  -114.687	  -120.879	    -4.906
   -92.127	  -128.057	    -9.247
  -122.183	  -110.979	     3.776
   -97.439	  -106.003	    11.631
  -105.674	  -122.159	    11.307
   -95.585	  -114.303	     0.231
  -118.808	   -86.647	     7.945
   -96.416	  -102.171	     8.751
  -111.705	   -66.868	    -2.074
  -109.310	   -63.476	     0.305
  -117.898	   -77.221	    -7.163
  -130.825	   -94.759	    -1.514
  -124.370	  -127.892	    -9.640
  -113.560	  -117.172	   -18.933
  -110.359	  -106.353	     6.899
  -110.433	  -108.071	    11.408
   -77.886	  -113.225	   -12.705
   -84.812	  -100.394	     1.207
  -106.075	  -107.711	   -12.419
  -134.278	  -135.804	   -12.581
  -127.646	  -134.561	    -5.884
  -125.946	  -122.821	   -11.939
  -113.433	  -126.992	    -7.366
  -127.865	  -130.950	   -14.828
  -127.285	  -126.383	     4.034
  -103.614	   -96.910	   -13.141
  -115.878	  -114.486	    -1.027
  -120.679	  -114.074	     6.031
  -133.727	  -103.814	   -15.001
  -111.894	   -76.196	   -21.150
  -109.755	  -107.333	   -13.659
  -105.759	   -94.944	     0.584
   -96.852	  -111.840	    -3.547
  -101.347	  -121.907	    -1.248
  -125.082	  -129.131	    10.060
  -107.249	  -136.352	    -7.695
  -126.624	  -138.931	    12.445
  -101.215	  -130.338	    -8.377
   -95.510	  -143.806	    -1.442
   -95.661	  -118.597	    10.430
   -93.135	  -121.135	     8.495
  -123.838	  -116.435	     3.131
  -121.335	  -119.521	    -7.490
  -102.624	  -103.593	     9.658
  -119.947	  -114.122	    17.131
   -93.231	  -103.045	     4.123
  -103.561	   -90.256	     3.638
   -98.582	   -92.347	    29.044
   -77.689	   -58.051	     0.611
   -80.255	   -63.678	    13.763
   -95.686	   -81.998	    -5.865
  -100.646	   -85.547	     6.428
   -79.839	   -77.378	     6.530
   -98.442	   -96.712	    12.609
  -103.708	  -103.797	    16.958
   -97.983	   -86.250	    21.925
  -109.787	  -104.033	   -10.739
   -95.088	  -108.995	     7.790
   -97.404	  -117.702	    -7.893
  -108.574	  -101.360	     4.916
  -100.085	  -111.716	   -11.269
  -110.771	  -102.562	    14.486
   -91.387	  -140.868	     8.862
  -108.723	  -138.789	     6.796
   -92.665	  -113.827	    22.781
   -89.584	  -124.254	    -4.044
  -104.429	  -115.781	     5.589
  -111.870	   -94.704	     0.559
  -103.653	   -92.819	   -26.782
  -110.971	  -100.220	   -14.127
   -97.448	   -94.593	   -18.900
  -135.746	  -100.585	    -8.203
  -123.971	  -116.261	     1.286
  -100.782	  -108.405	   -16.567
  -118.528	  -126.894	     1.988
  -112.287	   -98.065	    -6.080
  -116.676	   -95.544	    -1.503
  -117.218	   -91.647	   -17.692
  -102.017	  -119.464	     5.960
  -120.217	  -102.519	    -0.311
  -116.538	   -98.360	    -0.245
  -113.907	  -129.008	   -14.071
  -121.092	  -102.675	   -13.580
  -118.055	  -101.305	    -2.250
   -89.734	  -100.434	   -14.504
  -115.455	   -90.116	     4.596
  -102.811	   -86.991	   -14.777
  -121.788	   -89.020	     7.073
  -120.266	   -97.466	   -21.551
  -114.292	   -90.927	    15.453
  -105.242	  -106.406	   -24.547
  -122.373	  -119.426	     1.806
  -120.245	  -111.128	     6.805
  -108.556	  -132.660	    16.932
  -125.437	  -101.901	   -16.743
  -106.558	   -98.612	   -15.703
  -107.245	  -114.277	   -19.288
  -117.961	   -90.149	   -16.280
  -115.026	   -92.859	    -7.360
  -123.962	  -127.437	    -0.717
  -126.831	  -114.712	   -12.573
  -119.621	  -133.845	    -5.035
  -103.177	  -136.633	    11.001
   -95.741	  -138.565	    -7.571
  -121.438	  -120.126	     3.115
  -112.207	  -131.191	     3.239
   -97.245	  -121.884	     4.756
  -122.529	  -107.642	    -9.739
  -117.226	  -113.458	     7.764
  -119.964	  -111.798	   -10.818
  -114.760	   -98.832	    16.685
  -105.815	   -97.514	     0.326
  -108.483	  -100.171	   -13.607
  -117.743	  -135.767	   -10.057
  -113.931	   -94.731	    -2.741
   -97.791	   -63.280	     7.075
  -111.045	  -100.687	   -19.068
  -131.556	  -129.281	     0.415
   -84.923	   -99.496	    -8.032
  -114.030	  -110.988	    -3.546
  -114.481	   -44.700	    -5.738
  -127.736	   -75.224	    -9.954
   -92.690	  -100.577	   -19.634
  -118.432	  -125.866	    -9.092
   -97.920	  -107.553	     0.054
  -122.357	  -148.064	    12.163
   -95.841	  -127.237	    -1.018
  -110.469	  -141.164	     5.739
   -84.725	  -150.510	    -2.496
  -109.579	  -127.209	     6.927
  -123.893	   -98.567	   -15.104
  -111.296	  -102.497	    12.170
  -125.109	   -78.622	     8.699
  -119.446	   -84.567	     0.710
   -86.910	  -101.168	    -4.666
  -124.150	  -114.877	   -12.233
  -107.955	  -116.730	    -8.511
  -106.175	  -114.706	   -12.857
  -105.252	  -145.941	    -6.991
  -122.721	   -85.014	    -8.493
  -103.793	  -143.647	    -2.078
  -118.875	  -123.270	     7.928
  -101.296	  -117.691	    -2.708
   -92.545	  -136.704	    -8.753
  -112.758	  -133.229	     5.988
   -85.152	  -126.518	   -23.446
  -140.524	  -100.811	     3.252
  -119.963	   -89.072	   -17.893
   -81.218	  -109.077	     7.668
   -96.856	  -114.949	     1.614
   -97.293	  -125.603	     1.872
  -100.591	  -161.636	     8.334
  -109.625	  -146.480	     2.816
  -108.405	  -131.186	    -0.916
   -91.745	  -134.596	    -6.227
  -112.521	  -112.159	     2.921
   -93.579	   -82.691	    -2.763
  -109.270	  -100.161	   -14.505
  -110.234	  -106.881	    -5.575
  -124.983	  -127.214	   -14.971
  -116.502	  -154.688	    -4.385
  -109.348	  -128.569	   -19.437
  -118.342	  -141.462	   -18.895
  -124.335	  -120.459	    13.675
  -115.067	  -134.059	     6.383
  -136.903	  -133.572	    -8.716
  -129.690	  -148.029	    -9.320
  -118.628	  -138.996	    -2.007
  -100.844	  -103.085	   -17.913
  -120.974	  -130.517	     2.304
  -130.342	  -150.115	   -14.396
  -116.532	  -145.248	   -11.776
  -117.435	  -144.756	    -5.021
  -114.444	  -114.232	    -9.238
  -117.892	  -124.562	   -11.314
   -99.092	  -123.250	    -6.605
  -129.247	  -140.895	    -7.202
  -118.955	  -110.354	    -8.976
  -131.598	  -136.146	   -11.032
