   -92.310	   122.143	    -3.179
  -166.798	   114.762	    -1.685
  -166.063	   146.496	   -10.459
  -173.127	   157.511	    18.231
   178.541	   132.543	    11.029
   179.317	   144.218	    -9.182
   171.986	   133.912	   -11.742
  -174.616	   127.761	    10.497
   179.551	   128.620	     3.571
  -166.370	   140.704	     0.403
   169.221	   120.550	    -5.873
   163.284	   123.249	     9.683
  -176.772	   128.176	    -9.458
  -173.867	   138.859	     2.438
   157.757	   124.185	     2.648
   162.557	   137.358	    -9.266
   159.027	   123.899	    20.765
  -176.427	   144.646	    -8.111
  -176.464	   141.937	   -16.124
   179.959	   144.940	    14.047
  -174.601	   119.517	    -5.137
  -172.539	   141.198	   -11.348
   169.484	   135.071	     5.897
   162.422	   128.147	    -4.622
  -172.670	   134.820	    -1.222
   165.302	   140.098	    -6.453
   162.195	   133.421	    15.263
  -176.117	   137.327	     5.567
  -176.585	   131.463	    13.352
   179.716	   125.943	     1.260
   163.086	   140.670	    24.484
   166.138	   124.474	    16.111
  -166.729	   135.768	    21.568
  -174.537	   140.292	    12.691
  -164.944	   142.999	    12.438
  -177.769	   168.760	    13.571
  -177.047	   148.658	    23.623
  -179.929	   146.875	    -0.312
  -167.984	   134.998	    12.061
   178.928	   156.021	    10.753
   170.797	   135.123	    13.809
  -176.191	   144.698	    -1.781
  -169.053	   155.309	     9.399
   172.632	   133.055	    12.607
   175.894	   150.754	     4.760
  -172.296	   143.210	     6.588
  -173.539	   144.841	    20.842
  -178.464	   129.703	    -1.650
   178.051	   143.352	     2.170
  -170.573	   149.063	    11.810
   172.397	   165.444	    -2.332
   158.844	   164.405	     2.372
   179.301	   132.668	     6.272
   176.691	   133.254	     7.344
   167.027	   150.021	    15.280
   163.426	   153.684	    17.480
   174.931	   154.796	     9.456
   178.207	   141.069	    15.936
   175.979	   152.840	    15.210
   177.183	   142.767	    16.155
   170.873	   135.948	    -0.243
  -179.323	   129.170	     9.083
   171.053	   146.242	     4.409
   173.503	   155.226	     6.960
   176.405	   152.733	    17.869
   174.914	   152.631	    18.002
  -175.807	   141.920	     6.053
  -173.704	   119.517	     0.948
   177.935	   146.956	     6.059
  -166.958	   135.193	    17.119
   170.294	   124.776	     5.132
  -172.547	   138.677	     7.774
   170.805	   130.958	    21.672
   177.017	   123.802	    -6.678
  -177.259	   130.153	    19.558
   164.936	   130.049	    -4.880
   150.847	   130.085	    35.459
  -179.867	   143.099	     0.960
  -166.549	   157.725	     2.519
   178.322	   141.881	     0.314
  -173.367	   148.706	    -1.612
   175.345	   128.478	    11.175
   178.634	   145.384	     8.873
  -174.853	   153.527	    15.674
   169.053	   141.016	    14.725
  -175.566	   141.840	     1.997
  -176.888	   119.205	    -3.539
  -169.612	   161.465	    -6.296
   166.790	   138.712	    11.258
   179.321	   167.506	     7.761
   174.045	   133.170	    13.575
  -166.628	   131.878	    20.510
  -165.258	   128.804	    -1.157
  -170.329	   133.660	     8.438
  -172.944	   132.884	     5.826
   173.321	   132.307	    12.349
  -176.681	   151.969	     0.536
   175.703	   132.789	    -2.804
   163.008	   134.625	    -2.568
   177.475	   141.214	     4.765
  -177.826	   139.584	    10.665
   176.622	   142.633	    12.003
  -173.825	   149.000	     1.131
  -177.413	   152.924	    10.606
  -177.412	   148.624	    -3.899
   167.084	   150.852	     6.849
   176.288	   151.546	    19.729
   173.397	   136.575	    16.808
  -171.788	   149.814	     2.410
  -175.298	   136.852	    -3.707
  -173.135	   142.492	    -7.056
  -174.065	   124.092	     5.238
  -176.155	   143.796	     1.234
  -172.112	   144.384	     5.192
   172.408	   131.763	   -18.513
  -169.280	   139.490	    -4.203
  -172.871	   136.109	     1.034
  -177.901	   144.382	     8.624
  -166.040	   148.814	     2.992
   179.853	   158.431	     9.422
  -158.482	   153.866	    11.731
  -165.563	   134.893	    -2.391
  -172.472	   117.600	   -11.389
  -179.749	   145.580	    10.820
  -172.299	   155.866	    -9.481
  -174.571	   160.216	    -1.103
   169.714	   148.969	    11.170
  -162.937	   139.135	    -9.832
   156.784	   130.369	     8.477
  -178.414	   145.082	    11.816
   175.453	   151.311	    -8.054
   174.187	   146.512	     1.317
   174.508	   147.686	    -4.481
  -174.936	   151.563	    12.292
  -178.048	   137.119	    18.509
   176.319	   131.920	    21.469
   176.254	   146.964	    -0.642
  -178.511	   123.125	    -8.561
  -178.044	   127.694	    -3.896
   171.849	   137.092	    17.362
   168.687	   138.406	    14.432
   170.341	   156.734	    12.925
  -178.915	   144.092	    16.083
   172.293	   160.781	     1.466
   176.133	   138.727	    11.365
  -177.269	   146.966	    12.891
  -170.998	   146.044	    11.123
  -179.480	   153.366	     4.803
   165.168	   133.373	    -1.596
  -177.859	   129.844	     7.106
   165.155	   138.757	     8.490
   168.166	   147.326	    10.116
  -154.103	   148.271	    -1.718
  -173.263	   131.379	     0.747
  -175.668	   151.880	    21.942
   169.565	   138.963	    10.367
  -171.918	   150.421	   -12.849
   179.156	   136.709	    16.669
  -168.949	   145.796	    -3.699
   174.700	   129.594	     8.811
  -173.609	   131.250	     6.380
  -167.406	   161.799	    20.787
   177.206	   164.185	     9.952
   178.498	   134.895	    18.039
   179.139	   131.877	    26.912
   176.563	   146.870	    14.018
  -176.572	   148.630	     5.570
  -169.750	   139.435	    11.691
   174.640	   148.849	     7.394
  -169.973	   140.854	    10.279
  -174.614	   141.178	    14.770
   155.390	   149.181	    -0.211
   170.085	   155.504	    21.480
   174.064	   150.946	    10.192
   175.865	   149.680	    13.936
   169.846	   149.839	    14.479
  -177.869	   142.965	     9.827
   174.250	   146.406	    -1.318
   175.669	   143.792	     4.179
   170.029	   130.048	     3.101
   172.984	   129.220	    -3.812
  -169.999	   145.198	     6.196
  -173.375	   143.026	    -2.684
  -166.303	   133.661	    13.579
   179.427	   133.130	   -14.008
  -164.889	   124.050	    14.943
  -176.509	   157.584	    17.167
  -173.044	   127.553	     2.560
   171.427	   156.115	     6.048
  -162.149	   136.489	    14.091
   176.837	   151.820	    21.370
   125.517	   136.266	    15.330
   143.305	   139.170	    11.981
  -176.391	   153.882	     5.688
   177.031	   150.840	    10.617
   162.206	   117.724	     7.749
  -179.269	   129.350	   -15.587
   179.461	   145.758	    -7.127
  -172.058	   136.943	     3.618
  -173.513	   143.050	     0.856
   175.778	   138.186	    14.645
  -179.335	   134.935	     4.446
  -173.725	   169.599	    13.546
   163.077	   149.188	     6.478
   179.592	   151.034	     4.975
   177.945	   147.588	    19.119
   176.762	   157.940	    -4.151
  -172.159	   149.125	     1.507
   167.520	   147.589	    19.273
  -170.299	   148.282	    -4.045
  -178.182	   155.314	    -4.614
   171.182	   149.394	    17.795
   176.840	   147.215	    10.529
  -178.902	   132.050	     3.927
  -170.400	   135.904	    16.715
   165.402	   154.829	   -13.568
  -176.140	   146.188	     8.866
  -170.425	   136.694	    -3.015
   174.150	   150.830	    -5.285
   179.387	   130.492	     4.043
   165.078	   141.746	    16.674
   170.774	   130.813	    20.159
  -166.357	   133.600	    14.959
   164.535	   152.921	    17.988
   177.269	   139.244	    19.094
  -164.974	   145.210	     8.001
  -173.633	   143.860	     3.113
   177.613	   141.295	    30.924
  -171.031	   154.282	     4.922
  -164.203	   138.595	     7.368
   179.056	   117.448	    14.438
  -175.862	   137.369	    14.779
   179.705	   137.927	     0.125
  -162.306	   132.066	    11.711
   170.603	   138.267	     5.526
   178.340	   130.786	    -3.623
   170.006	   134.491	    -0.231
  -178.187	   136.723	     8.897
  -174.486	   125.652	    -3.353
  -176.168	   145.942	     2.703
   176.728	   138.581	    18.147
   179.449	   128.919	    21.510
   174.380	   140.870	     9.591
  -178.576	   129.221	     4.552
   179.621	   136.486	   -10.936
  -168.697	   157.558	     9.203
   171.766	   137.311	    22.472
  -173.621	   153.179	    -5.837
  -170.884	   146.391	    -7.802
  -168.757	   139.473	    18.230
  -175.963	   137.477	     2.428
  -179.623	   153.254	    11.818
   172.327	   140.402	    10.992
  -175.236	   155.547	    13.976
   171.827	   151.354	    16.387
   171.644	   150.701	    11.015
  -179.848	   135.839	     3.337
   178.037	   134.517	     3.384
   175.112	   148.862	    -1.225
  -175.442	   144.531	    10.363
  -172.959	   139.219	    18.529
  -170.777	   145.516	    19.652
   177.981	   139.458	    12.662
  -171.053	   144.001	     5.425
  -179.978	   142.968	    -3.152
   166.802	   130.567	     9.739
  -163.036	   131.687	     4.440
   178.051	   125.411	     5.660
  -173.542	   120.469	     2.301
   178.234	   143.412	    17.971
  -170.566	   137.954	    -7.935
   166.318	   138.504	    19.892
  -171.678	   135.080	     6.927
  -167.285	   149.316	    10.053
  -176.974	   135.431	    14.720
  -174.181	   143.163	   -11.706
  -174.004	   131.433	    18.945
  -177.705	   147.341	    11.032
   178.806	   152.058	    25.770
   170.360	   154.719	     2.857
  -166.260	   139.781	   -10.495
  -174.793	   150.535	    12.621
  -170.433	   132.350	    16.215
  -173.602	   125.501	    -2.774
   178.495	   126.763	    -7.501
  -177.763	   143.818	     3.321
  -155.678	   130.333	   -13.182
   178.531	   138.080	     4.821
  -177.387	   132.534	    -2.730
  -176.245	   146.224	    12.968
  -176.393	   142.865	    -8.520
   179.755	   145.262	     5.313
   176.182	   128.444	     8.716
  -172.333	   139.107	     4.761
   174.051	   154.404	    13.713
  -174.605	   135.569	     3.181
   171.501	   142.272	     4.907
  -172.738	   121.213	     6.183
   171.730	   129.334	     2.523
  -178.605	   130.456	    11.674
   169.437	   129.035	    20.291
  -176.527	   141.446	    -4.456
  -165.250	   144.612	    11.780
  -158.371	   152.714	     6.668
  -172.859	   139.014	    -0.260
   178.331	   143.393	     5.709
  -173.072	   154.020	     4.238
   173.612	   146.283	    11.255
   179.400	   134.524	    28.376
   176.572	   159.376	     7.681
  -174.976	   139.544	    -6.472
   177.933	   158.149	     4.577
   168.404	   137.200	    -0.885
  -172.465	   143.809	    -4.284
   171.033	   156.380	    -4.585
   177.375	   146.883	    11.214
  -179.707	   139.468	    11.162
   169.236	   129.958	    11.331
  -177.075	   145.014	    -2.468
   164.115	   135.339	     9.590
   162.554	   125.366	    -5.779
  -179.877	   128.653	     7.913
  -178.550	   129.676	    10.431
   174.521	   129.132	     6.703
   173.905	   165.464	     9.735
  -177.003	   156.924	    19.660
   171.731	   127.868	    -7.541
  -178.636	   141.877	     2.116
  -162.830	   142.144	    -0.877
   178.651	   130.574	     9.911
   173.821	   130.389	     3.260
   155.924	   135.373	    -1.682
   179.378	   145.509	     5.092
  -171.127	   118.461	    -4.293
   178.984	   148.685	     5.293
   177.757	   132.320	     7.404
   169.602	   155.965	    16.016
  -177.536	   132.687	     7.582
  -172.989	   138.531	     3.092
   175.359	   145.888	    23.271
   179.203	   156.155	     9.370
  -178.511	   139.617	    28.583
  -173.620	   148.612	     4.744
  -170.734	   128.920	    16.412
   176.942	   132.270	    11.720
   176.657	   157.912	    -0.065
  -172.459	   142.712	   -12.275
   176.119	   137.454	    17.455
  -176.657	   143.007	     5.988
  -159.390	   135.160	     2.786
  -178.602	   119.001	    15.620
  -175.067	   117.244	     0.195
   176.008	   138.923	     8.348
  -167.632	   136.118	    -7.848
   178.292	   132.402	     9.305
  -179.605	   121.040	    13.883
   163.190	   143.779	    24.863
   170.137	   148.826	     4.659
   179.576	   157.095	     5.484
   173.770	   143.457	   -14.661
  -170.327	   132.718	     5.567
  -169.177	   125.628	    10.454
  -169.073	   146.338	     1.236
  -176.722	   150.016	     9.116
   166.588	   123.263	    -0.172
  -176.896	   130.457	    -1.669
   177.422	   148.414	    33.136
   173.229	   152.981	    12.393
   161.731	   145.976	    16.680
   179.159	   142.018	     2.690
   165.279	   139.861	    15.642
  -173.109	   152.793	    11.451
   176.419	   140.030	    -6.032
   177.201	   159.059	    -1.602
  -166.082	   126.987	     6.681
  -173.430	   142.789	    14.247
  -176.014	   135.378	    15.939
  -163.723	   155.601	     7.661
  -175.841	   130.899	     1.612
  -176.427	   134.000	    14.567
   178.456	   138.635	     7.556
  -165.662	   139.321	   -18.349
  -174.255	   133.082	    12.841
  -173.419	   145.364	    17.512
   179.247	   142.859	    10.782
   172.553	   146.834	    16.981
   176.187	   144.533	    24.392
  -174.331	   145.954	     7.325
   173.022	   140.013	    12.473
  -176.864	   129.000	    29.618
   163.097	   145.939	     1.160
  -177.713	   126.734	    -7.189
  -175.698	   131.887	     2.723
  -178.139	   140.952	    12.900
  -169.424	   134.518	     6.427
   179.503	   113.169	    10.121
  -164.980	   143.366	     8.795
   174.919	   139.473	    -1.033
  -170.503	   135.085	     3.237
  -176.688	   116.106	    24.058
   176.839	   141.593	    12.369
  -159.847	   138.279	    -8.220
  -168.613	   155.993	     5.052
  -178.969	   157.440	    21.117
  -164.616	   165.121	    16.212
  -168.366	   151.800	     9.059
  -175.227	   134.169	    -2.975
  -179.717	   132.259	    12.927
   169.813	   135.384	    14.744
  -171.331	   137.812	     3.859
  -174.736	   158.398	    -4.050
  -172.794	   138.166	    10.820
  -171.300	   154.196	     3.742
  -178.882	   143.665	    10.160
  -170.250	   158.520	    30.347
  -175.417	   170.424	    20.419
   179.815	   131.225	    19.015
  -176.893	   148.557	     9.379
  -174.416	   127.189	     8.551
  -172.419	   139.753	    -5.588
   177.085	   135.545	    20.770
   170.912	   137.284	     6.075
  -178.242	   136.456	    21.155
   170.843	   154.231	     0.975
  -176.375	   138.216	    -0.630
  -169.573	   142.682	   -11.316
   171.511	   153.007	    35.928
  -169.708	   134.834	    -9.926
  -179.121	   146.862	     3.851
  -162.722	   135.241	    -2.792
   174.156	   131.389	    11.347
   179.805	   128.908	    16.905
   176.118	   137.551	    -1.982
   168.711	   157.585	    -2.647
   173.960	   122.421	    -5.774
   174.963	   129.546	    -9.079
   170.777	   129.007	    13.792
   173.924	   130.190	    -3.356
  -178.582	   131.337	    11.416
   177.212	   152.274	    24.199
  -169.014	   154.800	     6.935
   176.007	   156.656	    14.441
   170.029	   138.123	    18.328
  -171.541	   122.074	    -2.604
   170.514	   137.100	     4.707
   178.111	   147.589	    15.967
  -172.334	   135.502	     4.845
   176.399	   144.448	    -1.796
   169.853	   137.108	    27.637
   177.146	   132.083	    -1.726
  -175.817	   151.273	     3.293
  -174.745	   122.597	    -6.908
   176.352	   144.683	    20.333
  -172.515	   139.109	     6.306
  -167.906	   144.315	     7.339
  -177.256	   138.017	    26.994
  -172.015	   149.553	    12.611
  -170.703	   148.682	    11.555
   176.442	   137.872	     5.774
  -166.859	   140.838	    -0.923
  -173.273	   149.728	    13.084
   164.106	   148.111	    10.817
  -178.063	   141.774	    20.992
   166.983	   156.469	     0.346
  -173.403	   127.320	     4.299
  -174.491	   140.151	    -7.061
  -168.096	   138.355	     2.105
  -176.380	   146.477	     9.896
  -176.913	   140.683	    17.665
  -175.516	   154.603	    16.509
  -174.726	   160.398	     9.554
  -171.756	   125.719	    11.228
  -179.447	   130.472	     8.171
   169.360	   114.966	   -26.445
  -178.804	   124.202	     9.713
  -177.690	   135.786	    11.295
  -173.079	   159.299	    12.549
  -172.032	   141.607	     0.127
   159.514	   149.987	    11.628
   169.603	   137.692	     0.986
  -164.755	   136.022	     7.228
  -175.750	   133.808	    -7.253
   175.629	   144.204	    23.407
  -163.297	   126.068	    10.474
  -175.052	   134.602	    10.427
  -171.504	   124.654	    14.171
  -170.741	   138.558	     0.499
   175.342	   138.958	    18.099
  -175.554	   147.165	    19.218
   178.653	   149.661	     8.792
  -172.692	   138.998	    17.894
   178.700	   148.591	    22.942
  -175.811	   130.573	    11.502
  -166.681	   159.595	     9.776
  -171.413	   164.424	    19.415
  -177.673	   141.837	    23.157
   164.223	   127.112	    -8.451
  -175.747	   152.251	    -2.029
   168.663	   145.241	    27.683
   175.906	   136.765	     1.813
   158.475	   150.844	    11.531
  -175.795	   129.805	    -4.950
   171.766	   138.449	    15.155
  -173.887	   142.845	    -9.176
  -169.228	   139.465	    -3.687
   179.896	   159.828	    20.309
  -171.246	   142.218	    -4.009
  -172.905	   128.046	    11.198
  -164.807	   146.614	    13.420
   169.554	   115.437	     9.384
   178.716	   154.888	    19.457
   168.705	   131.677	    10.403
  -173.341	   129.321	     4.166
  -177.252	   151.883	     2.933
   168.538	   165.524	    -8.659
  -176.756	   126.325	    14.270
   172.629	   154.390	    -1.769
   152.614	   138.934	    12.968
  -171.436	   132.275	     5.914
   171.965	   132.628	    -0.823
  -173.211	   142.477	     0.083
  -167.844	   154.924	     3.703
  -178.084	   153.298	    11.888
  -170.556	   134.584	     0.050
  -173.818	   121.489	    16.081
  -179.914	   145.524	    11.067
  -157.246	   145.169	   -13.961
   171.783	   148.971	     0.677
  -179.437	   139.392	    22.102
   179.763	   130.432	     1.839
   179.068	   151.160	    19.796
   166.893	   132.137	    18.509
  -168.694	   128.339	     3.094
   175.021	   131.297	    11.571
  -167.778	   133.894	     2.195
   173.345	   146.427	    18.899
   175.583	   135.779	    12.338
   176.631	   143.646	     5.381
  -176.197	   148.293	     2.912
   171.848	   142.099	    -3.237
   179.769	   163.961	     2.805
  -172.693	   141.393	     7.534
  -172.994	   137.793	    14.228
   160.980	   143.668	    -6.510
   155.143	   131.993	    -1.445
   152.640	   148.038	     8.414
   178.892	   142.840	     9.899
   173.794	   151.152	    16.701
   175.430	   137.584	    18.024
   168.075	   122.776	     9.148
   168.795	   142.491	    11.305
   173.826	   150.586	    20.644
   177.448	   165.266	    10.017
   177.892	   130.330	    23.354
  -166.322	   136.242	     7.916
   174.135	   143.976	     1.702
  -174.433	   147.234	    20.973
   176.180	   134.459	    -3.196
  -179.889	   144.523	    -3.805
   167.409	   140.178	    17.914
   167.878	   141.821	    19.928
   174.363	   134.599	    13.001
  -171.579	   168.164	    13.335
  -170.196	   155.861	    12.992
  -177.305	   158.934	     5.899
  -171.656	   157.478	   -13.518
  -170.563	   137.403	     9.038
  -175.358	   154.654	    14.503
  -177.047	   155.041	     4.946
  -175.270	   148.646	    -4.126
  -159.040	   135.929	     5.577
  -164.988	   136.657	    17.202
  -173.350	   140.634	   -11.052
  -176.450	   137.829	    18.407
  -173.160	   132.296	     3.936
   178.901	   135.196	    -1.701
   174.309	   138.811	     9.336
   173.061	   117.841	     3.090
   155.925	   126.078	    10.707
  -179.300	   125.751	   -10.169
   151.500	   135.005	     2.552
   175.339	   149.431	     4.546
  -173.618	   144.201	     4.553
   177.885	   142.042	    12.544
  -175.423	   143.898	   -12.225
  -175.768	   132.243	     5.731
  -170.894	   143.562	    20.314
  -177.460	   119.547	     8.502
  -175.735	   143.037	     0.295
  -179.779	   139.084	    15.294
   177.854	   147.634	    16.300
  -175.315	   151.416	     7.373
  -179.815	   137.365	     4.180
  -179.214	   157.787	     5.489
   170.366	   139.001	     7.314
   175.145	   124.658	    27.865
  -166.270	   156.924	     7.757
   172.702	   150.611	    30.692
   163.265	   146.921	    -0.420
   176.317	   133.395	   -10.516
   169.663	   122.330	    24.808
  -171.584	   152.790	    -8.028
   179.438	   133.403	    20.748
   175.329	   153.473	    13.387
   176.627	   151.324	    -2.777
   168.855	   144.945	     7.997
  -163.473	   127.052	    -9.452
  -176.495	   144.180	    -5.028
   175.684	   126.315	    14.982
   174.359	   117.064	    20.360
  -164.531	   139.505	    -9.325
  -176.197	   145.064	     1.919
   167.116	   131.289	    14.536
  -176.639	   143.524	    -8.844
   175.126	   151.281	    20.346
   177.908	   152.357	    15.191
   166.415	   144.933	    15.375
  -175.953	   151.190	    10.105
  -179.548	   152.438	     0.267
   161.539	   156.010	    11.975
   162.381	   145.378	    31.263
   177.280	   152.837	   -11.375
  -165.987	   141.492	     7.531
   177.794	   131.846	     6.936
   169.114	   136.028	     8.828
  -175.749	   147.874	     1.853
  -171.519	   131.126	     0.502
   174.859	   127.911	    16.943
  -178.760	   143.368	    12.753
  -176.638	   147.208	     5.182
  -177.261	   139.368	     8.542
   178.466	   130.921	    -3.982
   176.609	   124.389	    -2.557
   179.285	   152.266	    23.276
  -177.212	   129.357	     3.816
   171.136	   135.533	     0.278
  -170.548	   158.978	    20.356
  -172.587	   137.090	    10.048
  -177.649	   139.057	     2.821
  -177.234	   144.056	    11.607
   177.162	   124.455	     8.895
   176.199	   139.964	     8.642
  -171.451	   142.011	    -1.834
   173.529	   140.990	     7.897
   176.567	   144.468	    -7.312
   170.639	   143.702	    10.009
   174.747	   146.689	    19.660
   170.331	   153.225	    17.573
  -173.920	   142.438	    23.866
   175.793	   152.621	    17.706
   174.462	   139.110	    17.271
  -168.891	   153.274	     7.071
  -177.144	   141.305	    -0.968
  -177.708	   154.025	    -6.895
   168.491	   145.165	    18.931
   178.027	   150.016	     8.129
  -170.791	   131.387	     4.955
   173.807	   164.010	    18.546
   178.029	   149.308	    11.211
   167.108	   149.316	    23.763
   177.513	   129.548	    -8.190
   173.094	   133.943	   -17.630
   178.904	   131.016	     3.098
   176.681	   139.559	    23.190
  -170.094	   164.958	    15.309
   175.642	   146.397	    -2.239
  -175.575	   128.721	     4.607
   176.060	   147.282	    12.133
   169.207	   152.359	    -0.877
  -176.689	   137.604	   -18.708
   178.355	   140.475	     9.646
  -177.834	   150.520	    -8.260
   158.432	   135.296	    19.757
   173.929	   141.611	     2.903
  -178.512	   113.134	    -3.506
   164.780	   145.075	     9.438
  -173.961	   136.450	    -1.439
  -176.787	   151.639	    -2.638
   167.884	   135.407	     1.891
   174.854	   146.764	     1.318
  -170.191	   149.244	    -7.526
  -173.894	   146.569	   -13.477
  -174.140	   144.429	     3.067
   162.720	   148.008	    12.401
   170.022	   154.359	    -5.465
  -176.310	   159.360	    -3.290
   173.434	   144.962	    -1.641
   177.862	   147.245	     8.746
   175.129	   141.147	    32.110
  -173.345	   137.333	    10.655
   171.677	   123.414	    25.473
  -172.010	   130.682	     0.074
  -165.213	   146.868	     5.310
  -176.086	   155.829	    17.379
  -179.322	   153.277	     2.824
  -151.999	   128.598	     4.517
   173.194	   142.942	    24.314
  -168.702	   137.175	     9.587
  -169.975	   129.650	     3.363
   170.959	   133.954	    -2.589
   163.122	   136.392	     9.275
  -177.924	   150.201	     0.069
   176.090	   136.450	     3.519
  -170.150	   140.014	     3.402
   178.768	   144.689	     3.425
   172.909	   121.516	     7.782
   171.344	   135.941	    -7.225
   173.554	   140.881	    10.388
  -175.647	   155.782	    23.528
  -168.112	   149.985	     8.751
   178.151	   132.559	    17.679
  -174.482	   136.695	    -0.435
   178.243	   140.821	    20.626
   174.278	   140.525	    24.488
  -177.988	   131.163	    21.434
  -173.546	   135.046	    16.374
  -167.564	   159.089	    -8.775
  -171.802	   131.986	    13.787
   170.498	   143.445	    10.810
   165.843	   141.056	    24.038
  -158.102	   146.623	   -17.582
  -173.460	   153.079	     5.679
   178.017	   140.598	    -5.373
  -173.133	   141.243	    17.101
   171.761	   143.604	    13.818
  -169.118	   132.060	    17.736
  -177.848	   134.698	     7.367
   178.571	   142.187	    -3.406
   150.999	   140.201	    10.933
  -170.875	   127.731	     4.292
   177.277	   133.341	     7.413
   159.727	   151.815	    -0.207
  -176.433	   139.975	    23.653
   170.055	   137.539	     7.876
  -178.845	   152.747	    -0.200
   171.750	   157.530	    17.511
   175.562	   145.557	    15.299
  -156.010	   143.972	     3.401
   167.924	   147.199	    25.156
  -173.724	   151.219	    16.836
  -174.155	   128.860	    11.924
   169.504	   140.619	    21.982
   173.808	   144.209	     0.097
   177.907	   135.996	    12.122
  -172.926	   138.256	    12.889
  -168.724	   130.175	    17.252
  -179.459	   143.191	    16.553
  -175.887	   147.669	     6.599
   177.650	   145.716	    15.408
   174.155	   150.159	    20.781
   173.618	   148.986	    26.387
   175.128	   158.127	    13.773
  -170.148	   147.085	    12.672
   178.831	   138.218	    17.428
  -166.223	   127.714	    13.884
  -170.933	   137.450	    13.147
  -176.775	   137.231	    19.327
  -170.795	   143.788	    31.233
  -174.057	   141.593	     7.072
  -168.185	   152.705	    17.462
  -177.084	   150.561	     1.516
  -179.746	   148.349	     7.047
  -174.235	   139.657	     9.748
   178.668	   137.073	     2.298
  -175.025	   145.251	     7.330
  -177.102	   123.079	    14.746
  -177.481	   133.294	    -5.026
  -174.376	   139.242	   -15.553
  -173.116	   105.932	     7.735
  -178.934	   140.086	    30.903
   176.601	   141.867	    18.662
   174.104	   133.505	     6.067
  -168.749	   143.692	    -8.878
   178.544	   130.883	     1.264
   171.051	   145.166	     0.435
  -172.209	   125.686	     0.243
   171.653	   139.620	    24.705
  -179.591	   146.230	    10.387
   179.640	   152.711	     2.954
   174.239	   143.787	     6.312
  -176.083	   132.771	    -7.509
   165.755	   153.917	    12.324
  -170.647	   154.243	    -5.993
   179.028	   147.598	    13.261
  -172.303	   154.991	    12.102
  -170.419	   140.854	    18.429
   177.127	   142.609	     9.532
  -173.737	   137.430	     8.747
  -178.160	   159.188	    -7.957
  -164.227	   132.816	    -7.249
   176.791	   141.588	     0.457
   176.747	   133.398	    18.699
  -167.606	   168.486	    12.797
  -162.514	   153.468	     5.133
   179.892	   151.575	     7.664
  -175.294	   147.510	    -2.866
   177.612	   139.478	    12.724
  -171.914	   145.844	    10.217
  -178.414	   139.682	    -0.542
  -168.440	   122.992	   -15.787
   173.591	   128.525	    15.558
   177.294	   127.934	    -0.779
  -172.806	   146.364	     2.490
  -174.339	   130.881	    -0.793
   161.532	   135.841	     1.376
   167.440	   137.756	    -1.321
  -179.328	   126.223	     0.999
  -163.003	   131.888	    -1.805
   174.064	   155.901	    -1.661
  -161.966	   153.271	    18.442
   177.584	   136.138	    16.054
   177.911	   148.347	    -8.895
  -174.258	   128.526	     1.577
   171.787	   101.253	     3.808
   178.441	   126.723	    12.575
  -178.918	   130.857	     5.711
   179.186	   154.920	    -3.953
   175.348	   135.477	    12.286
  -167.327	   136.379	    -7.356
  -177.637	   142.935	    12.313
   176.201	   143.936	    16.472
  -178.719	   148.298	     9.434
  -166.534	   144.752	    -7.041
  -171.237	   140.324	     4.054
   173.341	   148.210	    14.626
  -163.468	   150.784	     3.178
   178.588	   135.516	     2.406
  -169.911	   127.979	     1.911
  -165.151	   147.139	     2.978
   179.397	   148.530	    26.207
  -171.754	   110.748	     2.390
  -178.364	   164.843	    -7.449
  -174.915	   122.768	   -10.665
  -178.406	   147.085	    23.283
   172.944	   139.944	     5.971
   170.460	   133.103	     1.454
   179.514	   124.174	    11.061
  -176.619	   136.005	     2.538
  -178.653	   164.664	    21.654
  -178.227	   145.649	    14.531
  -172.163	   140.619	    24.822
  -169.732	   137.740	    22.557
  -177.595	   143.026	    -2.914
   167.744	   130.781	     3.870
  -172.630	   167.064	     4.476
   174.605	   140.195	   -12.429
   169.193	   127.507	    15.085
  -171.500	   140.205	     7.965
  -171.511	   144.788	    -7.626
   175.359	   133.349	     0.738
  -171.645	   138.559	     4.041
   169.743	   128.401	     4.172
   176.557	   143.111	    10.742
  -175.728	   132.200	     2.279
   172.371	   138.988	    18.294
   169.985	   152.301	    24.236
   176.584	   163.966	    -2.687
   176.602	   133.725	    -4.247
   177.808	   155.308	    10.282
  -177.326	   149.005	    -4.287
   177.524	   129.069	    -9.606
  -179.101	   148.608	    13.167
  -179.294	   146.092	     1.347
   166.241	   133.522	    -1.800
   178.480	   142.936	    11.997
   179.355	   134.725	    -4.973
  -179.501	   143.909	    17.765
   179.973	   138.223	     9.342
   171.761	   139.257	     5.900
  -176.422	   145.280	    10.647
   162.799	   125.781	     0.741
   179.574	   144.220	    11.689
  -176.422	   130.231	     1.132
   176.985	   157.711	   -17.290
   170.469	   138.461	     3.960
   171.477	   135.585	    14.545
   179.486	   152.308	    10.921
  -178.848	   146.011	     8.917
  -168.327	   128.393	    14.140
   172.938	   142.084	    12.510
  -177.572	   144.267	    29.601
  -179.998	   151.025	     6.022
   174.573	   155.277	    19.334
   173.653	   140.470	    16.066
  -174.353	   148.162	     6.215
  -166.462	   144.138	     0.557
  -158.713	   148.589	    13.679
  -177.794	   145.233	    13.167
  -164.690	   126.461	    -5.448
   176.202	   159.023	    23.132
   178.502	   132.804	    23.253
  -176.319	   149.800	    -7.448
  -171.148	   148.233	    -0.568
   174.509	   113.575	    10.627
   178.370	   125.255	    15.075
  -179.553	   141.060	   -12.370
  -172.169	   138.553	     5.511
  -178.218	   133.787	    19.310
  -170.483	   143.543	     2.612
   174.976	   154.046	    16.605
   170.442	   128.117	    -6.216
   178.828	   120.982	    12.797
   171.554	   137.960	     3.450
  -177.777	   145.237	     2.747
   168.859	   151.164	     4.789
   173.927	   159.238	    22.372
  -179.521	   126.262	    13.482
  -169.869	   127.228	   -12.018
   168.374	   114.565	     2.673
   169.065	   147.841	    -5.176
   156.770	   136.003	    10.153
  -174.925	   122.356	    -6.423
   156.415	   132.025	     8.708
  -168.325	   149.460	   -17.077
   174.871	   127.888	    26.729
  -174.026	   128.296	    15.093
  -174.072	   149.102	     5.814
   176.899	   145.024	    23.043
  -169.712	   132.073	    10.335
  -177.805	   129.342	     3.485
  -157.499	   128.623	     6.886
   175.455	   137.914	    -6.203
  -177.568	   141.377	     9.732
   174.296	   139.585	     4.213
  -172.181	   146.134	    -7.295
   174.811	   150.508	    14.260
   175.043	   138.748	    -4.713
   176.245	   135.239	    -3.479
  -169.578	   136.968	    17.105
   175.102	   154.213	    29.197
  -179.669	   138.400	     6.727
   174.079	   138.756	    17.576
  -179.139	   139.139	    -8.461
  -172.042	   144.833	    -1.510
  -170.479	   145.947	     9.386
   164.258	   150.089	    12.847
   167.594	   157.489	    13.068
  -169.587	   134.134	    -2.387
  -173.946	   110.688	    17.652
  -167.452	   135.863	     1.283
   178.262	   144.301	    11.936
  -174.267	   143.411	     8.883
  -166.647	   138.264	    11.744
   178.789	   145.245	    -7.667
   168.867	   148.364	    11.651
   168.964	   161.347	     3.490
   177.531	   148.785	     8.729
   162.797	   144.701	    12.522
   174.579	   142.317	    -2.145
  -170.581	   153.292	    -1.391
  -173.174	   139.991	    22.721
  -174.831	   151.438	    -4.747
   174.599	   168.372	     7.153
  -167.795	   140.862	     7.925
  -175.635	   136.219	    13.861
  -160.116	   152.722	    -3.371
   150.605	   143.514	    21.395
  -177.046	   142.791	    -4.727
   163.808	   142.995	     0.452
   169.960	   147.120	     7.504
  -176.379	   144.994	    19.100
  -177.257	   135.686	    -7.532
   175.996	   125.016	     5.035
   173.786	   138.989	    16.569
  -170.908	   146.409	     5.564
   175.754	   133.895	    25.499
   177.375	   149.820	     2.027
  -178.914	   139.971	     1.843
  -165.814	   153.928	    -2.640
  -166.525	   136.929	    -3.120
  -171.009	   110.987	     3.693
  -172.120	   140.816	     7.115
  -177.225	   141.334	    11.027
   169.061	   144.625	    15.546
  -170.146	   142.246	    -2.841
  -172.236	   148.360	     7.679
  -169.386	   155.213	     5.632
   173.884	   135.098	    13.208
   170.318	   142.720	     4.050
  -174.349	   134.158	     3.121
  -178.515	   137.443	    11.190
  -169.333	   143.052	     8.502
   178.312	   146.209	   -10.772
  -175.056	   129.918	    -3.484
   162.031	   139.757	    -4.071
  -166.460	   127.126	     7.129
  -166.832	   120.834	     6.512
   178.763	   137.982	    13.528
   176.429	   140.059	     6.715
   178.855	   141.398	    21.771
   175.388	   140.433	    11.999
  -169.095	   126.688	     0.090
  -176.858	   134.338	    17.984
  -166.652	   133.740	    -4.858
  -178.046	   117.524	     1.410
  -161.524	   139.749	    -9.362
  -177.368	   147.603	    27.002
  -174.923	   147.855	    17.846
   174.723	   148.545	     7.857
   170.400	   152.339	    10.821
   168.998	   137.202	    10.498
