   -92.310	   122.143	    -3.179
    47.619	  -172.372	   -24.870
    55.899	  -146.105	     4.963
    55.606	  -145.313	     3.867
    57.096	   -95.050	    -0.559
    50.367	  -116.556	    -4.404
    57.715	  -108.291	    -8.907
    55.067	  -116.510	    14.636
    62.834	  -109.015	     5.197
    68.403	  -105.392	   -13.587
    56.791	  -125.535	    -5.563
    47.661	  -113.440	    13.939
    50.820	  -113.179	   -11.106
    54.622	  -115.418	     7.531
    72.769	  -104.953	    -4.918
    71.724	  -115.724	     1.330
    63.742	  -109.157	    -8.374
    48.853	  -113.774	    -7.651
    53.861	  -110.617	     9.363
    61.183	  -110.225	   -17.284
    72.457	  -119.851	   -18.953
    37.949	  -120.438	    34.355
    70.160	  -113.269	    -7.177
    65.256	  -137.853	    -7.579
    59.931	  -100.515	    -0.864
    61.029	  -119.222	    -8.542
    60.186	  -124.842	    -3.843
    59.459	  -125.221	    -6.942
    67.024	  -124.197	   -12.483
    57.653	  -143.196	    -7.329
    67.420	  -131.727	     1.038
    61.808	  -138.401	   -18.129
    59.943	  -105.855	    -0.922
    54.797	  -121.839	    -7.864
    62.732	  -137.154	    -2.352
    56.383	  -133.402	     1.080
    46.495	  -129.194	     4.727
    63.624	   -86.947	    -2.750
    61.643	  -102.354	     0.036
    67.066	  -119.553	     4.943
    50.489	  -127.260	     8.619
    44.517	  -119.539	     5.106
    64.021	  -129.049	    -9.300
    52.576	  -118.567	    11.492
    57.114	  -110.215	   -15.375
    53.545	   -92.364	    10.936
    52.563	  -110.033	    -7.046
    50.026	  -125.659	    -0.666
    57.803	  -111.941	    -6.922
    53.012	  -114.336	    -8.639
    50.982	  -125.025	   -13.354
    70.550	  -133.241	     5.676
    51.811	  -100.157	    12.441
    62.091	  -100.017	    -1.374
    55.991	  -102.598	    -4.562
    59.107	   -73.312	    19.183
    61.943	   -98.004	     2.691
    59.686	   -88.794	    10.607
    59.632	  -111.963	     6.343
    56.555	  -134.515	     7.038
    41.563	  -121.469	    16.521
    62.756	  -116.712	    -6.844
    61.655	   -95.960	   -10.023
    40.961	  -114.752	    -8.466
    63.225	  -128.535	    14.623
    49.660	  -115.295	     9.458
    63.656	   -92.846	    -8.404
    47.786	  -112.704	   -18.001
    50.363	  -117.115	     0.949
    64.951	  -124.621	    11.595
    50.524	  -118.762	    12.314
    45.475	  -126.091	    16.487
    58.036	   -99.870	    -1.235
    58.452	  -119.227	    11.003
    49.100	  -103.031	    15.972
    49.328	  -119.943	    -5.874
    54.869	  -103.985	    -4.903
    60.465	  -101.838	   -14.031
    54.375	  -133.412	    -7.768
    62.278	   -92.232	    -1.139
    58.421	  -118.688	    -2.845
    63.698	  -118.291	    -1.058
    62.390	  -110.805	    -2.002
    51.847	  -114.697	    12.947
    65.526	  -117.763	   -13.730
    58.913	  -120.218	   -13.186
    38.237	  -111.534	   -10.411
    47.821	  -117.619	     0.125
    45.500	  -112.684	    -3.708
    63.145	  -113.064	     2.711
    59.079	  -111.838	    -5.021
    48.256	  -126.643	     6.773
    52.022	   -92.518	    17.357
    53.816	   -86.593	     4.408
    44.388	  -127.068	   -11.116
    52.900	  -126.240	    -0.390
    34.980	  -108.186	     1.757
    35.924	  -118.438	    10.242
    51.131	  -144.961	    -5.212
    55.641	  -112.439	    17.972
    57.278	  -122.420	    18.251
    51.844	  -120.232	     2.096
    53.304	   -93.860	    18.442
    64.883	  -112.896	    -7.017
    57.888	   -83.165	    11.866
    57.666	  -103.695	     2.148
    52.881	  -120.474	    -5.222
    61.310	  -141.191	   -11.789
    53.797	  -113.575	    11.863
    47.745	  -136.590	   -10.031
    48.534	  -117.275	    -4.950
    50.149	  -101.705	     3.907
    52.170	  -125.514	    -9.491
    53.914	  -115.378	   -18.456
    51.892	  -124.817	    -0.329
    53.355	  -131.278	    -4.486
    41.756	  -104.071	    22.141
    52.748	  -109.912	    22.803
    61.950	  -129.643	   -13.169
    62.408	  -121.645	     1.712
    47.297	  -142.675	     6.155
    57.100	  -152.252	     9.318
    57.095	  -122.799	   -15.517
    48.780	  -118.031	     2.541
    62.374	  -132.680	     0.113
    65.656	  -112.563	    -0.153
    61.770	   -87.631	     2.756
    65.655	   -76.075	     0.425
    61.724	   -80.465	    -7.996
    65.407	   -76.664	    13.250
    52.820	  -108.619	    -7.529
    46.780	  -121.775	    -1.153
    50.567	  -121.106	    -3.417
    60.961	  -125.246	     0.630
    59.849	  -117.416	     6.555
    57.906	  -136.882	     2.030
    58.711	  -138.603	     7.817
    58.189	  -137.956	   -13.234
    49.792	  -138.955	    -6.343
    43.965	  -115.642	    23.127
    54.611	  -116.843	   -10.243
    48.761	  -107.983	    -9.324
    55.731	  -114.516	    -6.327
    48.483	  -104.417	     2.343
    62.247	  -110.335	     3.694
    58.261	  -105.195	     8.765
    51.898	  -119.568	    16.364
    67.019	  -117.674	    -0.311
    55.594	  -121.036	    -6.176
    60.892	   -89.906	     3.373
    49.632	  -111.635	    -7.952
    47.465	  -115.387	    -1.959
    56.732	  -126.385	    -1.303
    60.150	  -137.142	   -14.858
    43.132	  -115.591	     7.341
    52.420	  -121.025	    -8.393
    63.140	  -126.467	   -10.937
    58.676	  -126.558	   -12.424
    56.496	  -114.482	    -2.265
    45.484	  -121.210	    19.962
    65.411	  -108.408	     3.683
    70.494	  -116.241	    -3.586
    63.752	   -83.096	     1.241
    69.423	  -103.406	     3.991
    52.666	  -139.530	    -0.902
    54.523	  -102.983	    16.282
    61.821	  -113.140	    -9.208
    57.331	  -141.359	     9.949
    59.039	  -133.237	    12.423
    62.357	  -107.190	     3.513
    67.759	  -118.986	   -21.153
    59.898	   -88.032	    -9.193
    56.573	  -111.803	     9.074
    43.317	  -108.517	     5.872
    52.755	   -95.768	    11.378
    57.206	  -118.475	   -10.363
    47.293	  -104.253	   -16.659
    62.923	  -104.348	   -26.514
    67.181	   -90.165	    14.482
    52.775	   -95.942	    16.310
    72.394	  -115.992	    -8.353
    46.284	  -105.530	    15.511
    65.946	  -118.239	     2.782
    67.294	  -111.563	     6.979
    54.980	  -103.486	     1.839
    51.174	  -107.378	    14.128
    64.731	  -110.032	     4.483
    51.202	  -126.550	     3.953
    62.749	  -125.620	     7.188
    58.146	   -92.878	    -6.649
    63.037	   -66.739	    11.784
    56.143	   -80.179	     3.216
    68.139	  -133.080	     0.908
    60.181	  -110.793	    -7.558
    60.408	   -90.196	    -0.897
    67.738	  -130.100	    -0.498
    74.589	  -111.015	     1.830
    63.623	  -106.220	    13.299
    55.997	  -125.962	     9.410
    59.103	  -127.383	     9.661
    43.423	  -112.338	     5.575
    71.104	  -110.451	    -7.084
    55.010	  -120.024	    12.481
    40.189	  -125.950	    12.091
    63.035	  -111.372	    14.564
    47.474	  -137.863	    -4.782
    57.264	   -92.173	    25.265
    46.601	  -116.854	     0.265
    65.933	  -128.713	    12.675
    51.595	  -134.036	    -1.908
    70.218	  -119.373	    -1.187
    53.988	   -96.025	     8.006
    60.352	  -101.302	    15.147
    59.614	  -102.077	     5.856
    65.506	  -118.796	    -3.524
    61.508	   -98.013	     3.775
    56.326	  -107.921	     9.278
    65.871	  -109.335	    12.970
    50.817	  -124.022	     4.828
    54.801	  -114.289	     7.138
    54.511	   -96.712	    -1.580
    62.873	  -104.757	     0.937
    54.471	  -121.871	     3.486
    54.278	  -115.100	    -0.423
    57.976	  -112.769	    -7.678
    62.949	   -80.130	    -1.271
    63.227	  -105.620	   -10.774
    70.840	  -102.457	   -19.387
    61.416	  -103.233	     9.923
    63.363	  -131.418	   -11.198
    63.498	   -97.969	    -1.386
    68.213	  -115.595	    -4.512
    54.635	  -137.835	   -15.200
    57.519	  -107.491	    15.459
    60.831	  -126.097	    17.252
    45.985	  -107.876	     9.544
    60.020	  -113.623	    -5.349
    67.084	  -121.385	   -10.499
    53.566	  -117.575	     4.585
    51.961	  -108.843	    -8.150
    51.831	  -120.263	    -4.995
    45.930	  -137.792	     8.506
    51.501	  -107.084	     4.289
    59.808	  -122.667	   -13.508
    58.057	  -106.425	    18.759
    50.005	  -114.008	    -4.365
    60.076	  -130.020	     3.351
    58.396	   -73.121	     9.558
    65.190	  -125.830	     3.536
    38.829	  -123.300	     4.666
    45.186	  -131.967	    -5.897
    48.043	  -113.597	     3.769
    56.270	  -138.997	    11.737
    48.733	  -118.026	    -3.533
    60.289	  -110.946	    -0.826
    57.187	  -100.724	    -7.129
    53.840	  -120.404	   -31.383
    58.199	  -105.849	   -12.978
    54.234	   -99.271	    -4.234
    50.264	  -127.229	   -11.261
    45.969	  -117.134	     3.126
    60.548	  -131.988	     3.581
    60.527	  -103.767	    -1.960
    54.923	  -116.648	    11.199
    57.885	  -110.950	     0.779
    44.679	  -109.656	   -11.033
    54.877	   -98.454	     7.345
    61.223	  -113.656	     9.011
    47.473	  -121.142	     6.598
    62.274	   -95.798	    -2.265
    59.891	   -91.351	     3.071
    61.799	   -87.650	     3.263
    53.334	  -124.273	    -2.284
    58.359	  -113.581	    -4.653
    55.186	   -93.181	    11.980
    62.287	  -111.186	    -2.554
    65.207	  -114.184	    15.129
    49.330	  -107.218	    10.699
    61.929	   -98.522	     2.881
    59.075	   -97.328	    18.177
    41.848	  -126.342	    10.165
    60.770	  -122.861	    -7.263
    73.790	  -133.565	    -7.667
    55.417	   -86.376	     8.756
    54.533	   -94.696	     3.989
    68.458	   -87.476	     4.902
    60.640	   -98.194	     6.525
    68.355	  -127.811	    -4.856
    67.259	  -117.215	    -1.984
    46.946	  -127.795	     6.649
    55.564	  -132.437	     4.364
    54.472	  -125.144	     7.218
    59.629	  -121.172	   -17.211
    58.610	  -117.969	   -15.116
    47.107	  -101.817	    -3.162
    56.444	  -102.484	    -3.576
    68.943	  -114.906	    11.289
    48.923	  -107.532	     6.037
    73.081	  -128.788	   -10.353
    44.488	  -121.002	     3.211
    47.503	  -115.569	    -2.713
    68.205	  -113.192	     2.684
    54.248	  -114.186	    19.035
    61.262	   -97.776	   -11.342
    58.808	  -107.739	   -11.295
    51.279	  -105.182	   -17.950
    47.942	  -121.321	     9.185
    74.470	   -88.215	    -4.561
    46.245	  -108.393	     3.645
    57.370	  -136.880	    -4.600
    58.673	  -127.454	     4.105
    44.766	  -118.040	     8.029
    57.427	  -142.662	   -13.032
    59.190	  -100.841	    -7.171
    52.821	  -113.409	     8.018
    63.902	  -103.467	    -7.627
    60.750	  -117.947	     7.442
    62.296	  -124.450	     1.756
    49.851	  -103.487	    -2.907
    63.119	   -98.933	    16.282
    50.783	   -81.768	     2.858
    60.935	  -103.596	    -6.500
    63.026	  -120.252	     1.207
    53.097	  -132.306	    -5.726
    71.829	  -116.592	     5.920
    58.396	  -112.378	    -8.977
    60.296	  -128.463	   -13.368
    57.799	  -112.831	    10.320
    54.725	  -125.424	     6.216
    47.169	  -100.846	     3.075
    63.903	   -99.587	   -12.220
    47.770	  -120.437	    11.010
    49.318	  -107.956	     2.551
    50.599	  -106.373	    12.161
    58.376	  -111.270	   -10.658
    65.867	  -100.652	   -12.830
    50.611	  -124.687	     4.078
    56.443	  -115.860	   -12.011
    59.218	  -131.698	     1.389
    64.574	  -109.390	    -4.605
    52.763	  -129.439	    23.986
    50.722	  -134.160	     4.914
    67.547	   -97.905	    -4.263
    46.278	  -102.804	    20.110
    56.123	  -100.886	     0.752
    57.382	  -100.399	    20.859
    72.163	   -89.818	    -8.797
    54.732	  -107.351	   -12.925
    58.618	  -108.769	   -15.487
    49.954	  -113.041	    -6.915
    57.843	  -124.530	    10.549
    68.317	   -97.496	    -3.226
    58.399	  -114.532	     6.241
    55.885	  -109.761	    -2.424
    63.071	  -114.202	    10.424
    73.300	  -106.705	    -8.995
    62.396	  -112.318	    -2.254
    52.659	  -119.845	    -2.522
    56.232	  -122.509	     1.212
    50.235	  -124.677	    -4.689
    70.660	  -124.062	    20.257
    58.541	   -87.529	     6.147
    61.511	   -94.136	    -2.271
    61.825	  -116.903	   -14.600
    70.081	  -121.791	     0.748
    54.230	  -100.764	     0.392
    40.004	  -109.726	     3.478
    63.263	  -124.441	    -4.419
    53.532	  -112.934	    -0.151
    54.416	  -113.952	    -8.576
    42.835	  -113.806	    -0.644
    63.849	  -127.260	    10.933
    60.641	  -108.024	     1.581
    51.344	  -105.951	   -30.874
    48.613	  -114.555	     2.840
    53.087	   -98.391	    -2.629
    54.829	  -114.924	    -7.988
    61.760	  -120.775	   -10.296
    58.221	  -117.371	    12.838
    60.437	  -104.900	    -3.629
    51.868	  -105.195	     3.103
    65.271	  -118.707	    -2.363
    60.130	  -105.185	    -4.414
    47.619	  -128.093	    -6.491
    62.731	   -80.943	     6.356
    65.024	  -117.596	   -14.496
    51.349	  -103.445	     7.796
    70.232	  -113.979	    -8.028
    56.656	  -101.545	    -1.529
    47.977	  -106.993	     5.129
    65.020	   -89.882	    17.968
    63.127	  -111.274	    -5.633
    46.137	  -130.441	    14.080
    60.919	  -120.755	     4.708
    62.807	  -138.079	    26.638
    58.944	  -110.141	    12.807
    44.784	   -99.377	    -2.985
    53.261	   -97.119	     7.894
    57.593	   -81.838	     1.335
    57.482	   -99.405	    -2.516
    43.525	  -123.688	    -1.475
    55.930	  -124.810	    -3.682
    53.439	   -90.079	     4.982
    43.169	   -86.941	     6.658
    54.485	   -80.441	     6.299
    51.179	   -96.052	    11.210
    69.856	   -99.605	    -3.595
    53.597	   -96.094	    -8.385
    60.497	  -110.102	    -2.942
    57.570	  -107.568	    10.368
    47.833	  -120.039	   -10.457
    50.695	  -144.194	    11.843
    46.668	  -110.847	    -0.162
    60.912	  -105.993	     6.388
    64.504	  -115.510	     1.930
    63.380	   -85.908	    13.200
    68.226	  -106.043	    -0.957
    54.593	  -114.653	    18.981
    64.168	  -123.758	   -11.109
    53.213	   -81.831	     6.243
    67.362	  -105.854	    -0.428
    56.730	  -109.484	     3.199
    62.402	  -106.857	     4.901
    53.912	  -109.431	    -1.708
    47.206	  -125.649	     0.129
    56.310	  -119.400	    -3.328
    59.229	  -112.563	    -2.286
    49.320	  -133.338	    23.329
    65.049	  -125.917	     0.634
    65.612	   -88.839	   -20.514
    57.055	  -106.661	    12.009
    60.119	  -108.383	    21.031
    51.457	   -89.154	     7.402
    56.378	  -114.460	     5.126
    59.942	  -117.490	     2.826
    56.438	  -140.668	    19.027
    48.635	  -118.429	   -10.453
    63.713	  -140.764	    -3.690
    52.466	  -129.504	     0.203
    54.943	  -103.129	    -1.189
    54.980	  -126.763	     5.267
    55.705	  -112.238	     9.464
    64.232	   -98.516	     0.987
    64.795	   -95.293	     4.030
    49.269	  -109.813	     5.186
    56.439	  -123.218	    11.417
    53.144	  -110.212	     1.261
    54.969	  -105.009	   -19.356
    50.055	  -114.893	    -5.181
    48.831	  -122.952	    18.532
    67.778	  -130.886	    -7.689
    51.041	  -108.433	    16.123
    51.063	  -110.313	    -9.014
    60.065	   -91.084	     3.742
    61.723	  -114.489	    -1.573
    51.500	  -123.382	    10.780
    59.329	  -109.452	   -10.407
    48.545	  -123.669	    -7.666
    52.441	  -112.535	    12.548
    60.756	  -106.777	    -1.876
    58.253	  -114.833	     0.326
    52.698	  -107.143	    -1.317
    55.121	  -132.970	    -0.768
    50.387	  -126.251	     7.631
    61.620	  -114.180	   -15.193
    72.183	  -107.654	   -17.442
    72.946	   -76.147	    -4.508
    52.480	   -77.471	     9.118
    67.635	   -97.818	     4.167
    63.387	  -112.620	    -6.072
    60.205	  -133.690	   -16.247
    69.685	  -150.422	    -6.609
    61.369	  -135.739	    -8.031
    60.457	  -120.749	   -11.259
    51.242	  -119.822	   -13.073
    58.935	  -109.566	   -29.294
    61.542	  -117.025	     5.562
    70.225	   -99.172	     4.316
    42.974	  -111.691	     6.568
    50.143	  -116.117	     4.338
    54.267	  -100.141	    -9.824
    54.476	   -98.626	    -2.819
    56.517	  -112.751	    -5.183
    53.337	  -102.529	    -5.850
    50.824	  -116.862	     6.665
    52.642	  -114.095	    -3.189
    57.477	  -121.309	     7.203
    48.486	  -133.587	     5.388
    62.024	  -121.580	   -10.226
    67.421	  -110.488	    -6.647
    61.028	  -117.984	    -6.216
    60.593	  -107.904	    -3.175
    72.204	  -108.886	    -1.832
    60.414	   -98.934	    10.173
    49.766	  -107.411	    -0.325
    51.676	  -107.817	     9.914
    61.019	  -101.986	     5.387
    62.562	  -108.398	    -6.305
    59.172	  -103.688	   -24.718
    52.330	  -127.226	     8.942
    53.149	  -106.712	   -16.363
    69.853	  -115.704	    -1.515
    54.749	  -109.558	     9.272
    49.221	  -121.694	     4.833
    58.682	   -98.847	    -0.426
    54.371	   -99.137	   -13.066
    62.163	  -111.599	   -11.457
    50.744	   -87.076	    10.886
    61.169	  -118.911	     1.566
    50.162	   -91.781	    -8.702
    66.356	   -96.774	    -2.939
    48.915	  -126.607	    -1.465
    52.940	   -97.787	     0.741
    57.906	  -106.709	    -3.026
    51.463	  -104.486	    15.742
    64.588	   -99.127	    12.658
    48.458	   -93.153	    -5.700
    50.990	  -104.758	     6.541
    57.225	  -127.074	   -10.573
    58.238	  -116.863	    -8.600
    59.513	  -122.151	    -2.527
    53.168	   -99.985	    -1.084
    68.092	  -104.514	    -6.235
    55.879	  -116.755	    18.604
    55.565	  -104.338	    -0.602
    45.704	   -99.619	    -6.203
    48.691	  -104.840	    13.695
    50.910	   -99.984	   -10.128
    63.626	  -120.358	     2.126
    58.983	  -101.551	     5.494
    44.493	  -112.875	     6.374
    62.145	   -97.471	     7.041
    54.636	  -132.343	    -6.323
    56.750	  -116.203	   -12.648
    61.989	  -104.452	    -6.806
    55.319	  -100.720	     8.478
    61.734	   -78.325	     4.843
    52.318	  -117.416	    18.550
    63.375	  -120.266	    -3.414
    54.374	  -106.070	    -6.527
    49.910	  -115.250	     0.567
    55.099	   -98.581	     8.704
    59.768	  -125.949	   -14.071
    67.497	  -122.472	     7.179
    56.993	  -122.367	   -12.252
    58.675	  -122.692	    -4.654
    59.968	   -99.589	    -5.912
    64.387	  -106.857	     3.371
    53.564	  -120.864	     6.696
    52.209	  -109.966	     2.943
    62.776	  -111.078	    -1.562
    54.621	  -126.338	    -9.347
    47.050	  -118.597	     5.946
    66.759	  -101.648	     2.742
    50.844	  -114.165	    -3.958
    63.990	  -112.319	   -21.591
    64.351	  -105.523	   -12.370
    49.186	  -121.156	   -11.714
    45.156	  -121.956	    -2.790
    51.803	  -115.390	    -6.930
    44.203	  -103.803	     8.965
    59.240	  -112.046	     3.051
    39.606	  -106.311	   -15.037
    67.652	  -100.483	     4.205
    58.633	  -122.360	   -15.362
    59.122	  -137.576	    -6.659
    69.550	  -131.518	     5.217
    56.230	  -125.557	    20.576
    58.886	  -106.876	    -8.658
    52.458	  -121.448	    13.394
    51.586	  -119.290	    -2.928
    62.573	  -101.274	    -5.215
    52.349	  -112.541	     9.785
    69.697	  -153.580	     2.755
    47.703	  -118.132	     9.023
    56.080	  -126.179	   -11.884
    52.496	  -127.833	    -4.083
    54.212	  -117.008	     8.999
    64.394	  -116.913	    -6.348
    57.072	  -124.299	    -5.996
    50.971	  -124.526	    -5.800
    50.606	  -112.789	     6.251
    53.609	  -110.788	     5.822
    42.383	  -121.828	    15.862
    51.894	  -136.303	    23.106
    67.715	   -94.980	    -4.807
    61.416	  -102.446	     5.099
    61.249	  -107.446	     0.732
    61.872	  -105.915	    -0.979
    54.284	  -109.419	    12.727
    55.717	   -91.658	    -3.293
    54.132	  -126.783	    -3.235
    65.234	  -105.234	     2.776
    50.680	  -100.158	    -1.613
    52.958	  -114.643	    -8.235
    43.050	  -131.674	    -5.554
    44.464	  -125.298	    11.614
    49.580	  -135.427	     9.606
    51.611	  -139.764	    -1.091
    39.395	  -118.017	     7.509
    53.631	  -111.748	    -2.745
    47.075	  -100.503	    -0.768
    65.819	  -103.997	   -11.285
    53.185	  -119.203	    -5.095
    53.707	  -110.513	     8.454
    47.559	  -118.779	     2.599
    65.597	  -110.741	     8.354
    58.001	  -117.104	     2.311
    59.472	  -127.412	    -7.732
    52.567	  -124.860	    -4.524
    59.141	  -110.815	    -8.022
    45.180	  -115.874	     2.226
    55.456	  -133.590	    10.235
    68.625	  -126.140	    -2.645
    51.735	  -101.891	    -2.833
    56.576	  -122.965	     2.394
    50.483	  -112.622	     2.640
    55.271	  -116.640	    12.956
    62.965	  -119.514	     1.344
    49.503	  -108.737	     0.405
    64.146	  -103.139	    -5.232
    54.424	  -112.013	    -1.141
    42.626	  -103.333	   -10.727
    50.378	  -103.912	    -3.854
    60.743	  -118.052	    12.761
    68.394	  -142.258	    -3.383
    60.290	  -116.550	    -1.434
    61.973	  -137.157	     6.253
    49.801	  -131.710	    10.645
    61.670	  -132.432	    -3.878
    70.502	  -116.381	     5.291
    61.319	   -96.978	    -1.896
    55.760	  -112.255	   -18.914
    53.066	  -104.296	     6.872
    56.537	  -147.976	     9.458
    45.421	  -122.671	    16.353
    62.281	  -120.575	   -18.659
    69.760	  -122.642	   -23.309
    60.899	  -108.178	     2.299
    56.515	  -109.828	     2.047
    55.283	   -98.935	   -10.737
    58.077	  -114.224	    11.627
    55.703	  -113.248	     6.760
    52.597	  -117.398	     0.525
    64.675	   -93.666	    -9.162
    50.357	  -126.623	     1.529
    54.174	  -134.095	     2.949
    61.096	  -110.448	    10.038
    50.485	  -121.347	     1.063
    40.018	  -122.283	    -2.422
    51.286	  -136.322	    -5.418
    47.388	  -118.546	    20.871
    51.176	  -115.042	   -13.649
    68.644	  -117.069	    -4.200
    66.026	  -115.154	    -7.005
    57.275	  -111.645	     0.875
    46.289	  -113.338	    -1.596
    61.228	  -124.918	    -5.120
    47.181	  -126.170	   -11.190
    55.383	   -98.453	     6.276
    53.140	  -122.171	   -19.155
    65.830	  -128.584	     0.959
    57.416	  -129.727	     0.535
    57.626	   -94.628	     5.776
    51.046	  -100.138	    -2.640
    62.050	  -101.447	     8.471
    59.040	   -97.376	   -13.689
    41.294	  -105.910	    -6.192
    52.241	  -122.641	   -22.778
    42.723	   -94.443	     3.182
    58.877	  -123.985	    -5.390
    37.734	  -110.998	    13.950
    56.395	   -98.512	    14.642
    54.260	  -104.311	    12.790
    56.039	  -102.340	    20.317
    55.348	   -68.781	     8.921
    54.624	   -99.110	    13.961
    58.123	  -113.582	   -15.511
    51.732	  -108.151	    -2.270
    61.523	  -124.012	   -14.716
    47.218	  -107.860	    -4.242
    55.240	  -102.564	   -10.879
    59.204	  -114.519	    -1.153
    53.263	  -118.320	    -2.554
    63.237	   -89.591	     6.645
    74.004	   -97.307	    -3.955
    58.918	  -134.647	    10.995
    42.993	  -137.046	     0.169
    63.950	  -114.771	    -6.734
    51.695	  -124.858	     2.510
    53.448	  -107.990	     0.079
    56.729	  -102.630	     6.211
    49.606	   -92.273	    -5.647
    53.287	  -104.369	     6.700
    64.700	   -94.669	   -13.078
    59.925	   -97.940	    -1.984
    66.857	   -79.071	    11.613
    62.944	  -110.183	    -5.456
    65.262	  -108.295	    12.006
    50.760	  -107.484	    -0.529
    51.865	  -120.325	    -3.614
    59.571	  -108.074	    -4.540
    61.092	  -119.606	   -14.205
    49.776	  -130.551	     7.103
    50.235	  -151.046	    -1.666
    46.916	  -124.467	     6.169
    54.943	  -130.906	    -9.995
    34.953	  -109.420	   -15.797
    59.800	  -115.927	   -16.359
    59.338	  -108.362	    -2.829
    55.969	  -125.240	     5.828
    50.309	  -130.832	    -1.501
    48.601	  -100.513	     0.841
    56.024	  -104.821	     2.073
    56.058	  -114.133	    -0.069
    60.971	  -111.267	    10.636
    52.607	  -109.832	     1.351
    69.403	  -120.636	   -16.922
    51.976	  -107.549	     1.099
    54.680	  -121.065	     9.149
    61.158	  -113.163	    -0.411
    42.805	  -103.479	     7.301
    59.271	  -122.732	    -0.033
    49.709	  -113.043	    -6.675
    51.341	  -133.801	    -3.828
    56.496	  -119.048	    -4.250
    60.252	  -121.754	   -12.639
    62.678	  -115.779	     1.081
    56.260	   -95.300	    -3.520
    61.369	  -121.274	    -2.700
    55.570	  -107.828	    13.419
    54.786	  -143.405	     1.247
    59.152	   -98.182	    -9.062
    63.728	   -85.000	     7.778
    63.945	   -76.081	     0.900
    60.542	   -96.478	     2.117
    68.038	  -100.139	    -4.940
    61.363	  -133.758	    13.381
    59.932	  -112.511	    -5.537
    69.129	  -118.223	    -0.810
    58.230	   -91.638	     7.920
    51.026	  -132.363	    14.523
    68.282	   -86.631	    -2.203
    37.149	  -104.739	     7.663
    52.314	  -103.604	     9.693
    60.471	  -108.025	   -21.389
    61.336	  -119.479	    -8.704
    63.649	  -120.850	   -14.567
    51.601	  -102.345	     8.604
    55.034	  -113.572	     4.970
    48.864	  -110.110	    16.273
    65.198	  -113.434	    -7.701
    49.655	  -123.940	    11.862
    68.693	  -115.877	     0.826
    64.412	   -98.291	    -7.810
    60.889	   -93.383	     5.537
    65.150	  -117.512	   -13.059
    54.480	  -106.057	    16.627
    58.783	  -134.749	    -4.086
    60.541	  -136.904	     1.662
    44.763	  -129.715	     9.438
    55.950	  -129.925	     2.919
    57.437	  -118.188	     6.630
    54.053	   -89.353	    13.566
    50.328	  -115.500	    10.572
    65.998	   -95.245	    -1.100
    56.349	  -118.462	    -4.878
    51.187	  -138.488	     4.079
    62.399	  -114.876	   -14.028
    56.193	  -109.478	     9.841
    54.805	  -113.267	     9.722
    48.391	  -117.268	    -2.163
    47.133	  -103.132	     6.159
    49.352	  -113.334	    -1.834
    61.937	   -99.406	    -2.165
    54.061	   -94.183	    11.782
    48.652	   -90.574	   -14.493
    60.214	  -103.436	    -9.832
    49.092	  -119.703	    10.023
    55.504	  -126.279	   -10.717
    55.197	  -128.215	     7.924
    51.698	  -143.163	   -10.009
    49.707	  -113.315	   -13.618
    60.650	  -113.338	     1.729
    66.474	   -88.039	    -7.092
    67.445	  -121.075	     8.234
    46.700	  -117.260	    -1.697
    67.920	  -119.278	    11.346
    49.960	  -127.673	     9.443
    57.649	  -123.161	    -8.964
    73.609	  -118.220	    -6.556
    52.365	  -114.568	   -13.551
    58.590	   -95.797	    -5.760
    63.466	   -74.909	    -3.883
    63.697	   -75.555	    -0.096
    62.864	  -125.349	     3.945
    62.806	   -87.346	     7.221
    53.772	   -98.511	    10.480
    53.376	  -116.751	    -3.072
    64.834	   -98.974	     4.829
    45.902	   -90.205	    17.740
    52.427	   -93.214	     2.193
    69.183	  -115.170	    -0.810
    61.298	  -115.184	    -1.991
    59.513	  -106.001	    -1.970
    66.418	  -116.192	    11.279
    56.148	  -140.794	     7.575
    46.922	   -97.168	    -7.803
    49.677	  -103.001	     5.520
    58.103	  -158.762	   -11.494
    46.857	  -138.939	     2.154
    58.946	  -131.534	    -8.641
    44.449	  -127.535	    17.340
    42.666	  -103.302	    -1.102
    50.644	  -134.327	   -11.900
    54.864	   -97.805	     8.929
    64.889	  -108.599	     4.949
    49.505	  -100.996	     2.398
    70.205	  -122.694	     9.151
    43.699	  -123.574	     6.088
    59.059	  -129.644	    -2.559
    50.195	  -119.349	    -2.367
    58.280	  -112.108	    -5.130
    55.334	  -125.329	     1.684
    47.909	  -116.874	     0.744
    66.643	  -110.342	     4.160
    58.736	  -110.592	     1.485
    65.964	  -105.898	     1.036
    55.732	  -104.161	    13.247
    62.763	   -91.111	    16.045
    56.262	  -112.207	    -6.332
    59.897	  -112.565	    12.260
    61.422	  -104.404	     4.584
    64.897	   -87.691	    -2.103
    62.755	   -94.405	    -2.824
    59.996	  -136.616	     1.900
    53.537	  -114.651	   -18.584
    73.495	   -92.680	   -11.422
    44.811	   -99.985	     8.751
    61.417	   -96.902	     6.141
    63.595	   -95.334	    -7.248
    56.442	   -97.869	     2.394
    59.070	   -77.560	     4.985
    56.907	  -114.614	    -6.856
    66.871	  -109.668	    -3.517
    46.431	  -109.986	    -1.990
    65.203	  -127.411	   -18.868
    52.910	  -129.360	    -3.124
    54.788	  -134.499	    19.431
    51.841	  -119.460	   -16.952
    50.312	  -127.217	    25.412
    48.711	  -111.499	    14.335
    65.468	  -105.079	     7.614
    56.814	   -88.908	    13.387
    49.852	  -119.906	    16.981
    59.760	  -120.397	    -5.849
    60.829	  -103.995	    10.608
    50.119	  -117.484	    10.514
    53.568	   -95.451	    -4.918
    58.956	  -120.043	   -13.154
    60.338	  -113.139	   -13.214
    62.396	  -125.999	     7.997
    48.565	  -118.309	    -8.633
    66.253	  -115.712	    -3.517
    45.088	  -120.610	    10.666
    56.769	  -108.268	     6.955
    55.903	  -109.962	     9.067
    39.888	  -138.528	     2.527
    61.507	  -129.110	     2.765
    38.463	  -136.012	    -0.582
    62.335	  -125.328	     2.989
    63.773	  -101.257	     0.142
    62.092	  -106.341	     9.280
    59.928	  -109.868	    -3.955
    70.512	  -101.581	     0.202
    61.304	  -107.411	    -1.728
    50.661	  -122.270	    -5.586
    50.569	  -120.922	    10.236
    68.783	  -131.541	    -1.805
    43.447	  -105.337	   -14.647
    53.121	  -104.605	    -6.931
    57.194	  -105.203	   -19.347
    58.972	  -117.330	     1.065
    56.444	  -104.798	    -8.704
    57.146	  -106.847	   -19.341
    59.091	  -109.805	     7.724
    56.299	  -113.047	    -0.758
    59.900	  -123.478	    -3.208
    64.138	  -102.695	    11.100
    53.028	  -139.762	    -2.099
    62.870	  -113.850	    -9.381
    69.013	  -136.384	    -4.168
    52.003	  -118.877	    19.315
    48.566	   -97.596	    -9.054
    64.725	  -108.221	    -7.151
    55.602	  -139.841	    -1.446
    64.992	  -124.767	    -1.683
    58.688	  -100.976	   -23.303
    57.297	  -128.176	    -5.114
    50.620	  -132.065	     1.327
    47.862	  -104.273	     5.158
    65.870	  -116.522	     1.309
    52.680	  -133.974	    -3.493
    51.544	  -109.288	    11.321
    47.856	  -102.854	     4.498
    48.451	  -120.810	     5.085
    68.267	   -98.522	   -15.514
    55.912	  -120.949	    25.013
    55.067	   -89.095	     8.424
    60.960	  -102.483	     4.458
    47.598	  -117.718	     3.890
    45.639	  -128.216	     7.773
    56.986	  -140.866	    -0.222
    67.058	  -120.829	    -1.468
    61.100	  -116.291	    -2.138
    55.484	   -89.621	    -0.459
    57.258	  -114.015	     9.432
    51.420	   -98.180	    14.877
    52.476	   -98.861	     2.396
    57.618	  -124.896	    -4.395
    55.406	  -113.782	    10.446
    65.920	   -86.166	    -0.013
    62.769	   -88.337	     8.139
    53.716	  -101.247	   -14.512
    52.102	  -113.331	    13.416
    66.930	  -131.927	   -16.380
    38.854	  -100.921	    -7.335
    60.750	  -113.163	     1.484
    64.503	   -97.128	     1.776
    41.367	  -114.765	    10.438
    43.734	  -141.046	     2.950
    40.194	  -119.659	     0.357
    39.148	  -109.106	    13.866
    48.467	  -110.873	    -1.229
    64.218	  -112.270	     7.055
    57.428	   -96.656	     0.502
    49.393	  -118.165	    -9.271
    50.724	   -98.809	   -14.230
    50.482	  -115.568	     3.328
    50.713	  -129.411	    -2.729
    55.139	  -117.701	    10.053
    58.985	  -121.275	    -3.407
    47.345	  -114.895	   -11.288
    56.056	  -103.623	     1.848
    47.892	  -129.890	     2.926
    47.694	  -113.196	    -2.710
    55.098	  -122.113	     3.429
    63.203	  -144.433	     1.042
    56.562	  -116.902	     2.848
    66.415	   -98.477	    -6.477
    59.565	  -133.846	   -11.462
    60.181	  -114.241	     9.191
    49.051	   -99.939	     9.491
    50.164	  -109.934	    -1.902
    70.198	  -120.760	   -17.383
    65.929	  -106.727	     3.918
    71.392	  -122.707	     5.296
    57.259	  -130.976	     1.520
    56.933	  -111.690	    -4.290
    49.485	  -111.474	    -5.440
    57.838	  -105.176	    -2.960
    45.218	  -123.240	    11.691
    58.260	  -124.858	     1.779
    57.685	  -131.676	     3.001
    65.743	  -108.185	    -7.027
    66.866	  -100.512	   -30.610
    52.026	  -116.539	     9.685
    67.873	  -120.407	    -0.381
    46.798	  -143.462	    -9.461
    68.467	  -119.740	     5.105
    55.160	  -105.035	     0.674
    54.628	  -102.322	     2.440
    58.769	  -119.677	    -6.685
    53.936	  -103.059	    -3.732
    59.141	  -108.179	    -9.044
    45.561	  -130.429	     1.548
    63.564	   -92.673	   -14.071
    41.958	  -121.765	     9.917
    60.787	  -122.484	    -0.237
    49.357	  -107.056	    21.332
    61.742	  -115.890	     3.339
    41.927	   -89.261	     5.023
    57.060	   -95.769	    -2.534
    70.698	   -96.463	     9.743
    67.304	   -89.752	    -6.673
    68.079	   -71.689	     9.493
    43.838	  -102.973	    20.621
    61.749	  -106.900	    10.111
    57.046	  -127.060	    11.690
    54.500	  -116.380	   -10.089
    56.917	  -114.656	    -8.928
    55.392	  -114.959	    -5.674
    57.713	  -136.918	     4.411
    33.176	  -118.653	    21.901
    45.835	  -127.244	    -6.764
    46.183	  -113.982	     4.776
    48.227	  -118.519	     7.451
    75.699	  -132.988	    -3.488
    48.320	  -127.252	    -1.279
    44.351	  -121.024	    18.199
    60.858	  -130.127	   -22.969
