   -92.310	   122.143	    -3.179
  -169.838	    37.643	     8.152
  -173.773	    -2.827	    11.000
  -175.345	    -6.517	    12.642
  -175.424	    12.927	    30.048
  -176.947	     5.771	    10.563
  -156.652	    -7.393	     7.137
  -178.668	     3.462	    -6.365
  -170.269	    17.634	     0.727
   177.536	     3.322	     8.562
   178.857	     3.047	     5.550
  -175.953	     3.378	     1.419
  -161.824	    10.763	    -4.591
  -178.208	     6.006	    16.266
  -170.945	     7.139	    -5.587
  -171.133	    -4.282	    -3.044
  -179.615	    16.857	    -8.819
  -159.769	    -5.307	     1.748
  -171.933	    -2.649	    -1.070
  -171.039	   -21.633	    18.217
  -165.199	     3.878	    -5.407
  -156.121	     0.429	     1.848
  -178.643	    17.873	    14.061
  -165.977	     6.639	     0.509
  -169.822	    24.376	     8.972
  -154.922	    12.799	    12.208
  -172.642	    15.520	    -3.712
  -163.230	    17.204	     2.617
  -158.385	     9.053	   -12.106
  -165.102	    29.243	   -12.934
  -155.336	    23.479	     1.586
  -169.172	     5.938	     5.549
  -173.180	     0.682	    13.619
  -174.393	     3.911	    15.387
  -167.499	    -8.369	     5.359
  -171.024	    31.202	     7.996
   177.914	    -3.598	     8.219
  -176.921	    20.690	    17.096
   179.345	    30.740	     6.141
  -179.602	     9.100	     6.095
   176.378	    17.815	     7.782
  -168.105	    14.634	     4.899
  -172.836	     5.935	    -9.676
  -174.796	     9.315	    -0.357
  -175.953	     4.499	    33.914
  -167.288	    24.650	    19.880
  -176.611	     8.457	    -4.917
   173.941	    -7.733	    14.085
  -178.462	    17.643	    13.447
  -169.745	    10.764	     2.619
  -178.052	    20.525	    16.575
  -171.241	    -3.663	    35.011
   177.616	     6.136	    16.276
  -178.299	    10.231	    -1.662
  -178.683	     2.175	    10.447
  -170.394	   -30.498	    21.390
  -177.232	    -2.646	     9.047
  -165.044	     5.441	     3.313
  -179.169	    -2.337	     7.862
   179.102	   -13.106	     7.075
  -161.642	    -2.044	     0.030
  -172.355	     3.370	    -7.177
  -172.057	    -2.460	     7.814
  -172.855	    25.587	    11.391
  -172.642	     9.685	     5.596
  -163.811	    18.997	     2.827
  -167.682	    10.873	    -3.743
  -164.757	    33.127	    -0.986
  -163.642	    15.968	     6.445
  -174.548	    -6.794	    10.091
   177.023	    -5.744	    -0.588
  -174.026	    22.534	    12.705
  -170.874	    14.355	     1.328
  -178.171	   -18.234	    15.740
  -173.892	   -18.715	    25.464
   171.574	   -10.950	     8.398
   168.737	    -7.854	    17.769
   169.947	    19.389	    11.290
  -164.051	    11.879	    -0.038
  -174.474	     0.824	    -8.876
  -178.218	     6.961	     8.574
  -164.077	     4.426	    -6.321
  -177.784	    13.457	     8.615
  -175.154	     1.010	     3.205
  -170.709	    -1.482	    18.983
   178.446	   -20.606	    13.936
  -179.463	     0.663	     4.538
  -174.930	     9.632	    22.170
   178.997	    12.986	    14.640
  -164.028	    -2.470	     3.567
   171.699	    -9.252	    -2.661
  -172.709	    15.170	    20.806
  -174.347	    -3.889	    18.850
  -179.081	    -4.506	    -6.642
  -178.893	    -5.078	     4.348
  -170.041	    17.296	     8.049
  -178.987	    28.906	    29.290
  -173.456	    35.029	     9.022
  -173.933	    36.853	     5.022
  -175.483	     7.404	    13.821
  -179.637	    -2.975	     6.211
  -178.065	    -1.817	     0.262
   176.386	    15.861	     7.266
  -166.314	     1.862	    18.995
   179.409	    13.664	    15.437
  -179.421	    12.386	     7.079
  -164.847	    17.575	     6.027
  -173.699	    -6.482	    -5.424
   171.422	   -15.713	     4.622
   179.477	   -15.688	     9.788
   179.478	    12.492	    16.028
  -176.651	     1.503	    22.860
  -165.983	    14.108	     2.088
   170.730	    34.001	    -8.904
   172.826	    41.738	     0.042
  -158.331	    24.668	     4.051
  -178.049	   -13.034	     6.566
  -167.736	    15.019	     0.652
  -163.125	    13.707	     7.062
  -168.876	     7.416	    -5.204
   175.847	    15.186	     8.507
   175.584	    19.473	    21.292
  -172.182	    -0.713	     5.809
  -175.289	     4.433	     5.492
   176.550	    11.976	    12.046
  -166.848	     6.763	     2.954
  -178.181	   -10.081	    16.775
  -178.923	    -5.633	     6.596
   173.769	    -9.161	     4.014
  -168.273	   -17.936	     1.510
  -179.524	   -15.056	    -3.081
  -166.779	    12.645	    -1.588
  -174.614	    21.046	    27.977
  -174.524	    11.676	    25.877
  -166.210	    -5.069	    28.790
  -173.677	    10.675	    12.878
  -173.969	    13.591	    14.110
  -158.305	     6.162	    16.567
  -166.293	    16.294	     5.627
  -168.543	     3.989	    20.717
  -168.159	    20.712	    13.039
  -170.805	    18.709	    -8.664
   178.570	    -0.269	    16.818
  -170.384	    21.498	   -13.706
  -169.697	    -3.666	    15.568
  -170.905	    24.825	     8.318
   171.092	   -18.190	     7.081
  -177.560	    17.513	    -0.580
  -173.281	     8.233	    -2.320
  -166.699	    -1.748	    16.509
  -174.751	    25.658	    -0.326
   177.040	   -23.547	     1.972
   179.536	    -8.984	   -19.593
  -168.368	   -15.553	     8.013
  -164.692	     9.386	    -0.384
   166.375	    -7.096	    34.560
   168.709	    21.726	     9.210
  -178.729	     2.682	    11.007
  -172.257	   -11.766	    -2.339
  -168.961	    19.183	    -4.162
  -162.091	    11.008	    19.759
  -167.920	    -5.996	    12.305
  -177.278	    12.285	    17.619
  -179.352	    11.908	     2.970
  -171.850	     4.373	    10.091
  -163.923	    21.558	     2.449
  -178.569	    15.721	    12.610
   158.090	    -3.741	    12.278
  -177.036	   -25.932	    -8.403
  -176.102	     5.992	    13.557
  -173.034	    20.906	     6.115
   174.806	    11.277	    26.078
  -169.315	    -7.834	    28.865
  -176.910	    24.545	    41.650
  -160.046	    20.567	    14.046
  -177.708	    20.401	     8.318
   179.588	   -10.810	     1.387
   168.403	     5.527	     6.865
  -167.989	    15.422	    37.702
  -172.578	    -0.880	     9.713
  -157.292	    -0.887	    23.565
  -177.389	    27.088	    10.614
  -177.776	    10.083	    14.597
   176.337	    -7.871	     6.289
  -176.854	     5.340	     6.265
  -173.567	    26.894	    10.348
  -172.982	    38.175	     9.514
  -165.493	    27.712	     8.677
  -176.545	    22.262	     0.124
  -155.326	     3.793	     9.150
  -175.384	    42.395	    24.164
   168.681	    29.127	     6.702
  -178.800	    17.703	    12.123
  -166.930	   -14.436	     4.119
   179.077	     2.755	    10.906
  -179.361	     6.742	     2.080
  -174.700	     0.016	    14.301
  -165.974	    -8.382	    11.883
   168.329	    13.362	    12.287
  -174.072	    -3.819	    18.802
  -173.539	    19.921	     5.783
   171.917	    17.950	    15.885
   176.369	    -1.596	    -4.234
  -170.808	    22.325	    11.895
   173.172	    -8.304	    11.860
  -168.459	    19.718	    10.779
  -175.983	     2.828	    13.312
   178.427	    -4.278	     1.099
  -165.965	    22.171	    20.209
  -167.034	    18.980	    21.742
  -171.626	    -9.329	    13.708
  -172.567	    20.258	    27.748
  -165.813	     7.033	    10.108
  -179.501	    -2.396	    14.523
  -178.180	     5.865	     5.435
   174.899	     6.529	     7.831
  -166.436	    16.109	    12.670
   178.874	   -12.280	    10.844
  -173.130	    39.509	    -5.259
  -166.083	    -7.745	    12.943
  -170.430	    -6.124	    13.642
  -173.940	    -4.851	     3.290
   178.064	   -10.411	    11.868
  -151.074	    -1.639	     2.084
  -165.530	    -8.671	    -3.503
  -174.895	    -3.878	   -11.634
  -177.317	    -2.732	    18.617
  -166.836	    15.061	     8.470
  -176.205	    17.512	    20.965
  -159.378	    38.463	     9.494
  -179.022	   -12.228	     1.840
   174.280	     0.353	     2.560
   174.409	    -6.787	    27.752
  -179.286	   -12.551	     1.835
  -174.324	     1.935	    16.427
  -168.555	    15.217	     4.326
  -174.629	     9.262	    12.510
  -176.273	    23.616	     7.124
  -178.605	    13.566	    16.273
  -178.693	     2.230	     4.835
  -165.414	    38.825	    11.886
  -178.237	   -16.840	     8.637
   169.287	   -18.198	    12.916
  -177.890	     7.122	    21.109
  -163.829	    21.657	     6.528
  -179.339	    15.128	     9.377
   179.947	    -0.305	    12.321
   178.680	    -7.896	     8.370
  -171.213	    -2.452	    13.705
  -170.437	     8.457	     3.122
  -174.122	     3.809	     6.637
   176.183	   -11.344	    36.051
   177.553	     0.391	    20.811
  -179.600	    -2.059	     3.011
  -163.768	    -4.928	     1.158
  -175.373	     7.251	    12.623
   178.636	     3.014	     8.968
   178.604	    -1.552	    -7.810
  -173.314	   -12.250	    19.274
   179.847	     9.115	    20.946
  -167.903	     0.064	    -3.340
  -165.889	    18.908	    11.860
  -179.263	    17.682	    11.750
  -177.086	    10.417	    21.978
   176.222	   -11.344	    17.972
  -179.213	     1.252	    18.183
  -173.877	    18.402	     1.431
  -176.074	    17.560	    -7.305
  -178.178	   -23.880	    10.109
   174.052	     6.186	     0.544
   166.171	    -6.389	     1.908
  -173.126	    30.151	    20.425
   175.152	    -3.353	    17.574
  -178.919	    34.558	    -0.305
  -167.183	    14.495	    14.357
   175.115	    28.157	     8.121
   179.571	    22.843	    15.264
   178.653	    -2.375	    15.251
  -175.748	    11.562	    35.589
  -179.068	    23.730	    14.670
  -170.403	    12.780	    24.558
  -158.946	     1.597	    -5.880
  -161.747	    11.854	    25.932
  -163.250	    26.599	    35.002
  -179.101	    34.951	     6.769
  -166.160	     3.757	    12.997
  -174.115	    34.851	    26.768
  -166.791	    20.694	    14.585
  -167.528	    22.169	    17.309
  -171.187	    17.747	    12.437
  -171.259	    -0.567	     6.389
  -178.233	   -11.875	    13.433
  -171.580	     3.221	    15.699
  -178.361	    23.087	     4.273
  -172.580	    23.454	    20.246
  -167.076	    14.536	     3.275
  -168.056	    18.714	    11.485
  -162.222	     6.598	    15.811
  -174.799	    19.903	    23.753
  -179.792	    21.079	    36.979
  -173.403	    12.745	    11.835
   179.536	    -9.721	    13.891
   172.346	     4.252	     0.320
   168.572	    -4.919	    19.857
  -179.765	    -3.092	     1.306
  -170.313	    16.878	    10.555
  -179.814	    -0.447	    11.006
  -168.485	    -6.432	    11.138
  -176.429	    16.629	     4.736
  -170.173	    12.577	    10.173
  -160.645	    22.454	    -4.086
  -165.960	     8.897	    12.726
  -170.794	     8.217	    21.311
  -171.179	    13.473	    10.636
  -173.160	    12.922	    18.684
  -178.542	     9.482	     0.099
   175.466	    -8.176	     6.067
   176.817	    -4.275	     7.307
  -169.419	     4.225	     5.354
  -167.782	    17.519	     7.771
  -169.749	    -2.181	    20.782
  -168.555	    19.751	    13.897
  -172.626	     7.598	    13.672
  -177.578	     8.678	    10.097
  -173.253	    25.880	     5.810
  -170.569	    12.485	    14.514
  -168.502	     2.627	    16.897
  -173.329	    -1.875	    -2.706
  -172.105	     3.922	   -16.126
   179.212	     2.847	     9.679
   179.934	     6.087	     3.431
  -174.866	     3.777	    -6.948
  -164.880	     7.101	    -1.810
  -172.219	    -0.258	    20.233
   173.042	    16.495	    15.780
   179.912	   -15.688	    14.966
  -173.276	    15.394	    11.586
  -172.166	     1.439	     7.218
   171.991	    -6.714	    11.832
  -163.987	     9.871	    -5.952
   175.883	     6.279	    11.665
   170.545	    -5.968	    17.348
  -167.811	   -19.222	    13.198
  -178.465	    -0.722	    16.479
   179.808	    -2.433	     8.884
  -175.792	    -1.711	    10.917
  -174.593	    12.409	     9.405
  -176.119	    32.332	    27.353
  -179.234	    14.702	    22.341
  -179.001	    15.882	    21.871
  -172.434	     3.590	    13.659
  -169.595	    15.682	    17.227
  -171.527	    26.242	     5.282
  -173.291	    -9.241	    17.591
   171.999	    -8.790	   -18.399
  -167.345	    26.256	    -0.136
  -160.689	    24.839	    -1.307
  -173.261	    -0.036	    10.994
  -174.648	     8.323	    17.442
  -171.064	    18.184	    13.552
  -177.453	    14.091	    12.677
  -173.196	    -0.585	     1.676
  -177.829	     0.116	    12.641
  -171.077	    23.434	    10.056
  -155.485	    33.583	    11.538
  -168.623	    26.926	    10.091
  -176.688	     2.933	    10.870
  -171.135	     0.441	    19.042
  -173.191	    18.841	     7.560
  -172.730	    25.638	    20.302
  -173.205	     1.232	    27.987
  -179.781	    -5.759	    19.933
  -170.548	    20.620	    14.382
  -167.415	    -1.179	    11.068
  -171.191	    40.357	     8.912
  -175.429	    36.500	    17.197
  -173.855	    31.253	    18.381
   176.175	    34.863	    38.472
  -172.388	    23.659	     8.845
   175.080	     3.158	    -1.765
   163.697	    -2.442	    -2.037
  -162.501	    11.674	     1.968
  -176.470	    -4.407	     8.526
   178.976	   -16.677	    12.347
   157.791	    -9.581	    22.463
   175.337	     6.239	     1.214
  -173.262	    -5.409	    27.499
  -174.547	   -13.579	     9.544
  -170.176	    -4.238	    15.712
  -173.869	    15.147	    12.534
  -176.711	    21.700	   -12.325
  -177.564	     5.693	    -1.525
  -179.255	    13.995	    -4.067
  -169.355	    -5.579	    -3.765
  -174.057	   -12.338	   -14.691
   173.827	    -0.280	    -5.228
  -166.670	   -12.579	    -5.522
  -172.888	    11.207	     5.032
  -164.272	   -10.053	    -2.054
  -166.531	     8.763	    -2.747
  -176.055	    -6.448	     5.522
  -170.390	    34.975	     9.167
  -161.940	     7.532	     9.509
   179.098	    -6.580	     6.079
  -170.916	    17.486	     2.344
  -170.046	    40.890	     8.216
  -175.240	    22.301	     6.715
  -177.727	    -3.716	    15.387
  -179.641	     6.402	     8.167
  -176.342	    -7.036	     4.934
  -171.178	    -2.597	     2.197
   178.320	    -2.169	     4.653
  -179.413	     0.493	    17.964
  -166.383	    -2.265	    21.374
  -176.021	    25.706	    15.442
  -162.230	     0.116	    11.964
  -169.046	    35.879	    14.518
  -172.336	    20.586	     6.029
  -176.447	    -9.569	    17.807
  -164.773	     0.046	     6.158
  -166.562	    21.350	    -0.118
  -166.192	    22.110	     3.076
  -162.546	    18.679	     2.192
  -162.774	     5.223	    -4.908
  -172.812	    -1.857	     9.760
  -173.689	    -5.141	     9.679
  -165.397	    14.593	    -7.395
  -177.131	    -4.580	    -4.072
  -162.876	     4.690	     4.190
  -162.218	    -0.031	    -4.883
   168.342	     9.090	     1.594
  -174.563	     4.485	     3.899
   177.133	   -19.346	    -3.722
  -157.419	    23.074	    23.983
  -163.839	    15.105	    25.207
  -173.287	    36.051	    -5.694
  -162.073	    11.652	     9.251
  -173.505	     3.408	     5.685
  -170.223	    -8.003	    -2.640
  -173.446	    -1.616	     9.279
  -161.130	     9.680	     5.817
  -172.434	    19.818	    17.126
  -174.160	    -4.967	    -2.674
   179.233	     1.707	     4.716
  -172.280	    24.463	    35.979
   174.270	   -14.533	    17.401
  -173.607	   -17.180	     7.115
  -172.279	    -3.284	    14.620
  -172.657	     9.747	     2.257
  -173.745	    19.829	    20.916
  -177.785	    40.773	     1.594
  -179.024	    13.798	     4.570
  -179.696	     7.735	    17.813
  -170.436	     7.353	    -5.918
  -173.530	    -4.705	     8.610
  -176.966	     1.520	    11.976
   178.719	   -13.196	     5.522
   171.875	     8.497	    -1.450
  -167.273	     9.354	     4.057
  -165.416	   -13.022	     5.477
  -174.417	    -4.462	    13.724
   172.172	     7.698	    15.610
  -172.449	    -8.133	    18.528
  -171.438	   -11.400	     5.583
  -168.436	    -8.327	    21.222
   174.946	    -4.214	     3.492
  -174.739	   -19.998	    23.910
  -179.032	    -1.546	    13.889
   170.625	   -18.727	     3.701
   177.245	   -10.700	    17.235
  -176.351	   -13.654	    -9.158
  -161.833	   -16.330	     4.192
  -178.438	    -1.641	     0.770
   178.172	     3.120	    24.468
  -168.637	     8.954	    24.791
  -160.310	    -4.719	     4.365
  -164.524	     6.335	     8.669
  -173.605	    12.621	    -7.845
  -171.439	     3.512	    13.724
  -168.155	     3.356	    -1.687
  -159.073	     5.660	     8.795
  -166.867	    16.557	    16.463
  -174.569	     3.737	    13.954
   179.110	    -6.708	    13.414
  -167.521	    10.574	     6.841
   177.164	    -6.139	    -8.826
   175.932	    17.375	     9.293
   176.081	     1.142	    -5.924
  -175.842	    17.569	    -4.870
  -170.501	    -9.750	    -0.435
   171.023	    -5.938	    11.588
   177.560	     0.406	    12.734
  -172.872	    -3.297	    -3.389
   173.384	     8.833	   -11.943
   174.998	   -20.684	     7.004
  -172.107	    26.325	     0.950
  -173.541	     3.032	     1.581
  -166.924	    11.369	    24.153
   166.873	    -9.302	    13.630
   175.221	    27.575	     7.325
   177.684	    27.228	    11.298
  -177.073	    -0.453	    -1.528
  -175.022	    26.123	    16.967
  -166.015	    10.834	    -0.278
  -174.146	    23.811	     6.450
  -174.975	    -3.477	     2.431
  -170.403	    16.256	     7.223
  -168.843	    14.476	     7.566
  -175.926	    31.617	     5.504
  -178.861	   -25.677	    23.869
  -170.864	     0.446	     7.155
  -165.413	     9.925	     8.084
  -175.165	    -7.604	    -0.899
  -177.455	    -2.053	    10.149
   178.429	    21.550	    20.175
  -178.754	    -7.778	    -7.836
  -177.562	    -6.972	    30.946
  -169.827	     9.536	     7.610
   176.881	   -14.034	     8.506
   179.602	    -6.514	    -4.084
   158.786	     2.285	    -1.168
  -157.298	     6.142	    24.847
  -163.754	    13.767	    19.786
  -169.359	     6.829	     0.838
  -169.038	     1.134	    11.430
   173.050	    11.783	     0.546
  -175.199	     8.652	    13.330
   178.099	    21.540	    10.336
  -178.611	     4.175	    20.393
  -175.213	    -9.896	     6.608
  -170.863	    11.876	    17.631
  -175.159	   -14.030	     9.127
   177.192	     5.044	     1.288
  -153.300	     1.047	    12.645
   172.009	    21.709	    17.496
  -164.129	     1.361	    11.950
  -153.136	    24.419	     3.195
  -164.041	     4.162	    36.471
   169.465	    -5.316	    16.675
  -166.593	    19.807	     8.812
   179.776	    22.402	    18.749
  -174.269	     6.315	    10.957
  -179.350	   -11.341	    35.958
   176.452	     3.629	    21.053
  -170.204	    39.295	    13.824
  -171.067	    20.046	    -2.861
  -178.000	    23.656	     2.380
  -168.360	     3.112	     9.445
   168.875	   -11.546	     3.888
   177.293	     1.913	    13.609
  -167.419	    14.645	    15.331
  -179.440	     7.878	    10.508
  -169.629	     7.532	    14.743
  -179.433	    16.475	     8.297
  -162.580	     8.540	    -0.358
  -177.275	    -5.206	     5.360
  -166.063	     7.521	     5.451
  -163.807	    15.645	    -0.510
  -171.959	    25.652	     8.002
  -172.442	    16.889	     7.999
  -175.482	    32.302	    21.320
   177.575	    16.657	     0.252
  -169.790	     3.282	    14.625
  -161.069	     7.864	     0.917
   171.065	     1.249	   -12.467
  -174.394	   -10.337	    -6.463
   158.110	    -6.706	   -11.791
   109.208	    -3.652	    -8.445
    75.301	    26.758	     2.124
    84.016	     2.457	    24.688
    90.263	    34.986	   -12.147
    71.394	    22.881	    -8.742
    74.622	    21.077	   -14.730
    71.468	     3.128	    -6.595
    77.282	     0.875	   -13.609
    82.985	    -4.749	     0.317
    80.225	    11.243	   -13.135
    73.373	    18.769	   -10.022
    72.508	    -3.651	    -2.268
    71.679	    17.338	     1.542
    92.313	    -4.287	     2.652
    78.374	    15.138	    -6.172
    79.871	    -1.181	    -6.808
    75.983	     0.487	    -0.613
    71.394	    15.919	   -17.736
    79.773	    15.855	   -12.732
    68.942	    14.640	   -11.579
    76.139	    14.642	    -6.142
    74.327	     5.061	   -17.415
    75.933	    21.729	   -12.565
    85.048	    14.918	   -10.057
    75.061	     9.676	    -9.178
    84.216	     7.351	    -0.375
    87.014	     3.713	    -3.229
    86.244	    -1.682	    -2.079
    77.526	    -0.135	    -6.954
    81.366	    17.806	   -25.417
    90.842	    35.407	   -11.627
    69.957	    18.402	    -2.378
    75.737	    -2.941	   -21.141
    76.428	    -7.397	   -20.242
    61.166	    -8.709	    -8.782
    81.883	    -9.595	   -17.848
    77.699	     7.081	   -19.491
    86.612	    -1.170	   -19.526
    87.289	    34.344	    -4.262
    83.407	     9.843	     2.299
    71.660	    11.855	   -11.999
    76.256	     8.582	   -30.015
    80.489	    11.200	    -4.777
    85.759	     3.337	   -19.271
    66.749	    14.341	    -9.163
    85.450	     2.123	    -2.664
    89.040	    21.822	   -23.754
    81.724	    25.227	    -5.223
    76.089	    -0.053	    12.348
    84.832	    -8.502	   -14.338
    80.088	     0.856	   -10.196
    80.306	    19.221	    -6.939
    64.509	    22.673	   -15.693
    85.394	    10.761	   -21.722
    67.946	    16.851	    -0.559
    69.123	    22.931	    -5.067
    94.549	    23.118	   -23.592
    84.241	    13.344	     2.943
    75.997	    17.540	    -1.495
    80.714	     7.978	    -1.510
    74.756	    -6.743	   -18.755
    90.591	    13.143	   -12.552
    79.010	    12.093	   -13.794
    65.223	     0.738	   -10.643
    78.381	    -0.286	   -11.314
    67.316	   -21.079	   -10.978
    98.544	    20.437	   -11.277
    75.367	    28.730	    -3.701
   102.051	    13.006	    -5.421
    92.566	   -13.987	    -3.621
    86.503	     2.657	   -19.265
    87.122	     8.630	    -5.642
    76.241	    -3.999	   -27.621
    82.384	    16.071	   -25.854
    78.411	    -2.168	    21.077
    61.206	    19.982	    -2.295
    92.631	    10.680	    -7.459
    78.162	    -8.566	   -27.950
    80.157	    -3.251	     2.599
    57.797	     8.410	    -3.872
    82.443	     0.297	    -3.095
    77.343	    17.476	     8.050
    81.664	     9.025	   -22.434
    73.050	     6.206	    -8.191
    80.697	    22.791	    -6.336
    82.101	     3.230	   -13.574
    68.372	    19.743	   -11.750
    70.950	    -2.170	     4.206
    86.961	     3.289	   -16.297
    82.550	    10.776	    -4.090
    90.498	     5.546	   -20.940
    64.702	     7.906	    -4.119
    75.769	    -7.091	     1.438
    75.686	     4.483	   -16.110
    84.881	    -0.749	   -18.644
    91.909	    10.770	   -12.848
    88.881	    16.436	    -8.233
    87.143	     4.817	    -7.323
    73.928	     6.391	     1.934
    79.996	    11.919	    -5.645
    87.481	    -8.324	    -7.098
    88.155	    21.513	   -11.247
    61.599	     2.177	     6.028
    76.596	    41.087	   -10.205
    76.592	    22.577	    -6.422
    78.173	    25.653	    -3.509
    71.736	    18.177	    -5.976
    84.319	     8.619	   -13.223
    76.464	     2.312	   -21.602
    72.100	    14.844	    -8.636
    69.401	     2.854	   -24.566
    83.592	     8.930	   -14.681
    74.589	    19.196	   -12.524
    86.233	     2.834	   -22.019
    66.877	    20.399	    -9.697
    83.745	    29.243	    -9.983
    80.488	    17.558	     1.052
    78.352	    17.308	     0.043
    73.850	    12.952	     2.055
    62.787	    29.743	   -10.282
    68.907	    28.071	   -19.111
    83.302	     7.143	    -1.043
    77.760	     6.077	   -11.408
    72.347	     9.400	     3.028
    72.328	    24.220	    -6.933
    71.432	    10.665	   -10.147
   105.449	    13.769	    -5.564
    69.903	    19.923	    -5.872
    83.626	     4.450	     3.181
    78.379	     9.202	    -3.219
    71.653	    12.665	    -4.314
    77.973	    22.475	    -8.149
    68.189	    26.347	     1.316
    87.966	     7.848	    -5.489
    89.745	    10.015	    -0.048
    67.327	    13.170	   -11.310
    73.894	    17.419	   -10.958
    95.590	    25.809	     2.818
    89.366	    10.563	   -13.414
    81.195	     2.093	   -17.739
    71.899	    29.588	    -0.114
    85.273	    21.521	    -0.318
    82.383	   -17.174	   -26.947
    78.786	     1.107	    -4.016
    83.301	    14.224	   -15.188
    76.295	    -6.541	   -11.814
    75.643	    14.563	   -11.233
    75.268	     3.575	     2.566
    71.981	     7.532	    -7.257
    87.874	   -13.470	   -10.657
    81.387	    16.288	    -0.877
    75.529	     3.716	    -1.949
   102.612	     9.889	     6.630
    82.632	    17.010	    -7.526
    80.870	     8.218	   -10.658
    76.136	   -16.755	     7.079
    90.551	    -2.861	   -19.522
    71.818	    19.344	   -29.811
    69.250	    15.796	    -1.153
    76.210	    18.951	   -16.633
    76.909	     0.902	    -9.732
    82.514	     5.754	    -2.109
    77.580	    20.237	   -11.583
    96.641	     9.513	    -1.652
    87.940	    12.890	    -2.798
    81.134	    -8.137	   -23.063
    71.601	     1.217	    -4.404
    70.982	    11.085	    -6.905
    93.149	    -9.879	    -6.735
    75.820	     5.056	   -14.194
    63.940	    16.935	   -17.415
    76.686	    10.731	    -4.339
    71.617	     4.065	   -22.188
    93.402	    15.883	   -11.794
    80.106	   -10.915	     4.775
    81.090	     4.988	   -11.880
    67.025	    24.945	   -20.208
    85.120	    14.185	   -19.259
    76.617	    -7.728	   -12.836
    78.264	     7.333	     5.348
    83.596	     0.077	    -1.072
    84.766	    35.149	   -23.639
    88.377	    -2.464	    -3.284
    73.872	     6.693	   -12.363
    77.556	    24.767	    -9.146
   120.228	     7.442	   -14.858
    73.496	    12.246	   -28.308
    76.252	    -1.487	    -2.309
    89.887	    17.054	    -9.097
    88.153	    -8.523	   -10.578
    91.160	     5.020	    -7.942
    76.523	    -4.806	    -5.986
    67.125	     2.612	    -2.730
    72.262	    -0.704	   -15.614
    68.555	     4.314	     4.945
    81.678	    16.541	    -0.474
    89.022	     0.001	   -11.651
    75.344	    24.414	     1.670
    76.022	    21.224	    -8.094
    59.423	     5.277	    -7.572
    81.306	    -0.212	    -1.540
    69.327	   -10.474	    17.256
    86.049	    21.614	   -20.833
    60.912	     3.527	    10.324
    85.803	    26.030	   -28.346
    89.701	     2.498	    -5.167
    87.060	    23.850	   -14.099
    80.716	    21.895	   -27.098
    90.140	    11.993	   -17.984
    87.575	    18.169	    -3.162
    80.614	     5.564	    -5.980
    70.411	    29.224	    -2.517
    78.296	     5.264	   -21.467
    73.491	     2.167	   -27.035
    84.380	    20.300	   -11.467
    85.152	    16.707	    10.691
    88.862	     7.639	    -1.995
    67.310	    -9.467	    -7.598
    76.069	    13.850	   -13.525
    66.997	     8.559	   -11.655
    74.295	    12.160	    -7.049
    74.558	    13.799	   -21.397
    66.262	    23.884	   -12.318
    72.582	    12.747	   -14.740
    86.464	     1.479	    -9.093
    78.377	     1.588	    -5.662
    71.332	     4.556	    -3.894
    68.262	    13.579	    -3.978
    66.073	    13.667	    -2.931
    71.585	    26.419	   -18.048
    78.104	    19.946	   -25.679
    73.771	     5.019	   -13.196
   100.979	     7.152	   -17.098
    79.919	     3.355	    -4.788
    75.630	    15.466	   -12.558
    87.186	     3.092	   -26.608
    77.700	    13.805	    -4.828
    81.866	    26.343	   -12.878
    79.709	    10.992	     3.437
    77.421	    -9.260	   -18.350
    79.046	     9.730	    -6.917
    83.806	    19.561	   -14.684
    71.839	    18.896	   -18.669
    68.640	    14.087	   -15.923
    88.934	     5.537	   -11.531
    72.079	    11.397	   -12.119
    86.821	    11.102	    -7.546
    65.341	    16.020	   -10.177
    95.373	    -0.793	   -10.314
    68.972	     3.509	   -11.711
    86.953	     6.370	   -10.508
    78.127	    10.441	    -8.884
    80.344	     2.531	   -14.566
    67.820	    17.764	   -11.017
    72.883	     9.660	    -3.632
    85.233	     7.444	    -0.263
    77.320	    18.796	    -8.964
    70.642	     6.215	    -0.686
    73.361	    11.907	     9.014
    83.801	    -0.041	   -32.492
    75.452	    12.045	   -26.544
    86.703	    14.545	   -23.527
    72.007	    15.512	   -30.283
    83.326	    17.825	   -20.895
    90.198	     6.885	    -3.459
    76.546	    15.241	     7.458
    89.734	    -0.267	   -24.616
    96.477	    -7.685	    -0.798
    69.080	    26.869	     2.809
    77.080	     8.571	   -13.933
    80.109	     8.536	    -8.058
    71.927	     9.420	    -3.301
    82.553	     1.216	   -12.973
    74.270	     4.660	    -4.557
    63.691	    25.940	    -5.553
    92.553	    13.987	   -14.447
    73.947	    26.801	   -13.747
    81.466	     9.952	     7.294
    74.385	    11.844	   -11.101
    84.781	     8.693	     2.031
    71.735	    26.501	    -1.065
    63.344	    26.113	    -2.316
    80.095	    13.273	    -5.470
    83.094	    21.265	     2.775
    79.658	    17.296	     3.370
    73.842	    10.820	     1.139
    71.594	    28.171	     2.182
    82.822	    16.009	    -0.205
    81.023	    30.699	   -18.457
    82.084	    10.800	    -1.000
    83.323	    11.445	   -12.282
    84.947	    11.781	    -8.870
    79.033	     8.162	   -12.573
    72.647	    14.606	    -9.016
    74.616	    28.461	    -0.095
    67.566	    18.320	     3.177
    76.843	    24.630	   -11.781
    78.561	    18.587	    -5.676
    72.514	    22.853	   -10.888
    83.533	    11.764	   -28.277
    84.369	    28.975	    10.305
    89.239	    19.997	    13.652
    74.863	    11.487	     2.308
    84.678	    12.952	     1.086
    84.755	     8.644	   -22.107
    62.245	    16.508	    -3.319
    84.333	     8.042	   -16.386
    72.474	    19.002	     4.510
    91.272	     6.454	    -3.984
    83.648	     7.666	    -4.159
    92.434	     1.758	    -0.767
    77.676	    18.354	   -10.721
    78.958	    13.975	   -13.901
    72.367	    27.700	    -6.673
    70.967	    22.636	    -8.146
    76.460	    22.513	   -12.713
    82.123	    25.256	   -17.748
    75.076	    10.664	     7.955
    79.657	     1.815	     0.544
    81.596	     9.751	     0.760
    68.840	    20.258	    11.215
    74.857	    29.015	     1.594
    86.860	    19.279	   -16.227
    80.585	     3.885	    -6.864
    69.863	    19.934	   -11.496
    82.124	    -0.862	    -8.919
    87.476	    22.663	    -0.104
    77.229	    12.001	    -1.413
    81.071	    15.934	    -5.795
    60.092	    -7.451	     5.083
    77.891	     6.524	   -31.560
    82.378	    -0.299	   -21.710
    78.139	     4.299	   -10.808
    72.357	     9.601	    -8.995
    80.287	     6.550	   -10.864
    89.550	     9.015	   -12.125
    74.052	     7.077	    -0.044
    86.476	     6.876	   -22.061
    75.380	    30.581	   -22.987
    76.722	    17.877	   -11.891
    73.045	    17.677	    -0.137
    93.508	     5.281	   -14.759
    78.272	    17.834	    -6.425
    72.678	    13.591	     7.822
    78.407	     8.751	   -16.598
    74.288	    10.124	   -18.686
    71.352	    32.689	    -8.356
    67.294	    12.291	   -11.921
    88.572	    -0.066	   -20.907
    69.887	    -6.694	   -14.517
    69.221	     2.013	    -3.657
    71.379	    12.352	   -27.895
    83.556	     4.572	    15.778
    80.277	    -3.878	    -4.359
    78.254	     2.580	    -1.122
    89.201	    13.507	   -11.153
    93.592	    -4.015	    -0.449
    78.864	     1.535	   -19.853
    92.676	    -7.607	     1.771
    78.727	     2.577	   -13.163
    93.035	    24.294	   -13.638
    89.882	    18.674	     4.709
    69.771	    11.239	    -2.222
    68.164	    21.285	     4.543
    65.308	    30.787	    -8.427
    73.576	     9.691	     1.733
    83.450	    22.369	     8.097
    70.845	     4.764	    -3.582
    99.543	     0.197	   -14.196
    66.501	    11.585	   -11.193
    81.086	    11.261	   -23.662
    88.983	     3.094	   -17.699
    72.323	     8.683	    -6.219
    82.120	     9.259	   -14.937
    84.436	     4.114	   -20.776
    76.190	    -9.397	    -4.875
    77.855	    -3.342	   -13.509
    71.332	     9.564	   -16.620
    80.409	    22.687	    -9.790
    70.869	    22.804	   -12.888
    74.138	    26.970	    -6.556
    86.192	     9.820	   -24.557
    81.942	    -9.662	   -13.443
    74.131	   -23.655	   -18.122
    91.579	   -15.544	   -28.705
    81.211	     6.027	     5.588
    82.974	     6.413	   -18.566
    81.788	    16.809	     5.596
    65.939	     8.308	    10.840
    88.729	     0.790	    -4.312
    81.430	     5.198	    13.571
    79.620	    -4.538	     2.103
   102.591	    21.506	     3.650
    87.805	    23.896	    -9.544
    82.963	     3.613	    -7.762
    66.327	    24.705	     3.511
    72.979	    13.917	     9.987
    74.360	    16.784	   -14.513
    84.815	    36.697	     6.084
    78.306	    16.564	     0.231
    71.409	     8.584	   -15.705
    93.597	    13.726	   -10.818
    71.359	     6.671	    -3.073
    84.297	    17.890	    -9.184
    98.597	     8.948	   -15.814
    78.565	    -9.244	     4.547
    85.889	     3.572	   -10.640
   109.783	    -4.142	   -12.836
    82.933	    14.510	   -10.053
    88.132	     1.086	   -11.609
    67.926	    19.101	    -8.516
    83.003	    18.059	     3.357
    74.540	    10.755	    -6.274
    72.369	     9.893	    -0.547
    91.272	    13.611	   -14.319
    95.635	     0.919	    11.698
    74.616	    14.422	    -4.269
    88.791	    17.966	   -12.210
    74.593	    10.701	     5.201
    79.454	    14.011	    -3.557
    75.976	    -1.076	     3.695
    61.383	    19.622	     8.081
    76.138	    19.461	   -17.122
    68.396	    25.643	   -10.369
    72.042	    -0.508	    -3.418
    78.250	    -1.605	    -4.702
    70.657	    14.178	   -15.903
    80.817	    14.161	    -6.368
    82.158	    15.314	     5.555
    76.928	    16.961	    -2.924
    85.579	     1.017	    -6.847
    85.708	     6.579	    -3.788
    89.267	    -3.262	     0.232
    90.728	     7.793	   -28.384
