   -92.310	   122.143	    -3.179
    56.293	    11.684	    -5.684
    50.901	     6.506	     5.907
    74.110	    25.979	   -16.232
    64.592	    16.203	    -7.097
    58.898	    13.775	    14.350
    69.866	    27.693	     1.080
    58.756	     2.200	     3.445
    57.478	    30.477	     2.441
    71.425	     7.477	    -3.107
    63.219	    22.857	   -24.227
    63.164	    14.351	     8.585
    62.835	    24.777	    -5.965
    76.636	     5.073	   -16.602
    60.802	    20.057	   -11.911
    65.439	    13.039	    -7.090
    53.176	    30.936	   -16.290
    54.679	    14.499	    -3.541
    55.793	    30.560	    -3.194
    66.808	    20.468	     3.512
    57.667	    16.517	     7.793
    67.939	    -7.163	     3.653
    65.001	     5.100	    12.627
    64.768	    -8.477	    -3.595
    58.276	    12.026	    -4.616
    56.492	    13.117	     3.152
    67.853	    11.711	   -10.649
    67.579	    17.217	     1.817
    58.920	    17.648	    11.309
    58.677	    14.625	    -0.192
    50.988	    27.206	    13.517
    71.362	    15.253	     1.796
    64.502	    20.233	    -3.641
    76.733	    14.681	    -9.786
    68.247	    23.856	     7.265
    69.916	    23.275	   -11.328
    66.937	    36.376	    -9.062
    52.801	    21.601	    19.039
    72.438	    10.457	   -11.510
    50.623	    28.136	     1.139
    51.860	    11.982	   -13.534
    43.025	    18.592	     3.442
    62.034	     9.155	    12.278
    57.158	    18.001	     7.437
    66.202	    17.381	     4.049
    66.056	     3.722	   -12.154
    56.167	    20.086	    -5.478
    56.518	    22.115	     7.921
    52.697	    29.268	    -3.237
    62.285	    25.691	     4.553
    58.532	    15.355	     2.982
    51.647	    18.570	    -7.080
    61.428	   -13.883	     1.053
    61.892	     1.426	   -11.890
    62.912	     3.719	    12.840
    60.761	    22.099	    -5.358
    62.288	    18.381	    -0.147
    53.937	    15.320	    -2.346
    65.253	    18.679	   -20.035
    61.622	    -1.721	    -4.998
    65.516	    -2.873	    -2.838
    59.371	    -1.315	   -19.868
    57.740	     1.922	    -8.847
    60.239	    15.460	    -3.336
    61.527	    11.569	     0.173
    70.022	    -4.574	    -7.458
    63.508	    -6.840	    -6.681
    59.963	    17.681	   -18.348
    55.974	    17.833	     0.336
    68.534	    26.886	     6.010
    63.720	    23.333	    -1.285
    61.161	    15.940	     2.205
    60.811	    25.174	   -17.919
    68.781	     8.456	   -13.407
    61.872	    15.665	     7.171
    62.153	    18.668	     5.177
    62.207	    30.536	    -8.859
    51.845	    20.475	     4.101
    62.578	    -2.826	    -2.872
    56.510	    15.747	     1.567
    57.846	     8.489	    -3.599
    63.946	     5.858	    -6.527
    53.216	    34.387	    -3.480
    59.652	    19.279	    -9.329
    48.513	    11.497	    -0.275
    65.410	    21.989	   -18.325
    53.191	    12.861	    -5.228
    50.268	    25.267	    -9.386
    56.684	    14.124	    -4.224
    58.258	     7.668	    -1.854
    70.892	     1.695	     3.447
    63.662	    16.222	    -9.886
    63.715	    15.241	    -4.200
    60.219	     2.553	     7.824
    63.021	    10.434	     1.127
    69.126	   -10.154	    -5.354
    63.592	    12.881	     2.695
    57.973	    18.532	    -2.110
    43.435	    24.789	    -7.713
    56.720	    13.391	    -9.824
    60.639	     4.152	    -2.941
    66.500	     4.328	   -12.637
    58.892	     4.232	    -2.159
    56.790	    15.914	    -0.322
    70.409	    15.376	     4.651
    61.765	    -4.169	     3.398
    56.290	    31.623	    -4.524
    56.671	    17.651	    -4.411
    61.853	     8.361	    -6.047
    70.364	    11.884	    -3.226
    50.683	    28.929	   -13.652
    66.229	     9.217	    -1.948
    66.661	    -3.015	    -7.080
    69.445	    13.367	    -1.395
    58.616	    -1.567	   -12.561
    43.747	    14.973	     2.256
    72.997	    21.537	    -9.907
    56.387	    19.126	   -12.344
    57.350	    14.002	     1.276
    51.432	    25.268	    -2.085
    59.979	    14.546	   -16.053
    58.495	     3.074	    -2.320
    57.278	    -0.990	    -1.680
    65.551	    10.464	    -5.921
    63.621	    12.456	    -5.157
    55.436	     7.815	    -5.133
    59.657	     9.630	     2.127
    61.748	    16.618	   -11.924
    50.961	    28.640	     6.933
    61.622	    18.529	    -4.614
    60.381	     6.310	    -1.204
    50.684	     6.287	    10.524
    65.740	    12.597	    -3.728
    62.262	     7.371	     5.472
    60.727	    17.655	   -19.176
    64.560	    22.314	   -19.245
    60.221	    17.799	    -4.376
    58.245	    -2.241	    -3.468
    61.039	    30.474	    -8.090
    67.078	    16.271	     0.814
    57.384	    14.876	     4.745
    62.953	    20.001	     1.868
    61.772	    21.028	    -8.484
    56.680	    31.473	    -1.450
    51.538	     8.859	    -2.128
    64.937	    26.083	   -22.773
    72.647	     0.521	    -4.999
    61.607	     4.161	    -0.194
    65.963	    -1.031	    -5.521
    58.220	    25.390	   -10.684
    58.448	    -4.564	    -1.273
    57.788	    17.307	    -0.872
    49.781	    40.238	   -13.113
    59.246	    22.275	     7.881
    64.235	    18.676	    -9.902
    56.016	    29.790	    -4.627
    60.466	     2.749	   -12.720
    79.019	     6.697	   -17.781
    65.195	    39.522	    -4.679
    64.610	    11.057	    -7.716
    57.718	    17.204	    -1.823
    53.693	    19.623	     1.412
    60.895	    25.830	     1.778
    55.369	    29.244	     0.608
    65.598	    12.994	    -1.938
    68.904	    21.790	    -4.999
    67.088	    15.234	    -4.106
    61.081	    23.575	    -8.128
    58.914	    21.490	     3.989
    60.202	    14.279	    -8.013
    64.103	    29.284	    -6.976
    61.166	    37.075	    -7.882
    69.438	    29.737	    -2.985
    50.212	     9.262	    -9.596
    66.571	    25.093	   -22.839
    63.638	    33.514	    14.783
    58.872	    15.679	     9.632
    61.280	    12.878	     3.446
    63.144	    17.805	     9.786
    60.687	    19.513	    -3.764
    43.844	    33.284	     0.186
    50.127	    34.051	     2.858
    70.295	     1.534	     2.297
    50.726	    24.208	     8.217
    60.145	    19.849	    -7.824
    63.002	    19.283	     1.153
    66.956	    -0.423	    -0.089
    54.305	    21.354	   -14.604
    53.821	     8.793	    -2.816
    67.400	     3.643	    -4.562
    65.675	    30.204	   -14.980
    64.856	    16.770	    -4.464
    54.032	    23.844	   -10.940
    67.477	    16.125	   -12.403
    58.124	    14.975	   -12.441
    56.839	    29.211	   -17.876
    61.316	    -0.184	     1.731
    77.381	     2.213	   -19.544
    77.119	    13.417	   -21.444
    57.943	    35.537	   -18.561
    51.391	    32.726	     3.431
    69.083	    16.400	   -23.517
    57.288	    14.008	    -4.093
    58.751	     1.380	    -6.135
    63.950	     8.575	     2.283
    65.243	    22.911	    11.814
    63.208	    19.582	     9.776
    65.971	     7.038	    -8.386
    69.783	    -0.500	    -3.532
    56.151	    39.933	    -2.028
    65.502	    26.454	    14.025
    59.045	    24.557	    -0.211
    67.889	    24.470	    20.769
    60.696	    13.049	    12.218
    63.693	    14.852	     2.359
    60.077	     8.888	     1.620
    62.415	    25.048	    -9.552
    61.677	    34.878	    -7.137
    62.101	    30.986	   -15.293
    47.368	    36.003	     6.333
    81.965	    -0.023	   -16.102
    66.881	    11.536	   -14.369
    73.689	    16.770	   -11.317
    58.355	    17.230	    13.023
    60.341	    20.544	     4.449
    60.733	    12.213	    -6.223
    53.602	    33.477	     9.700
    59.031	    11.006	     0.906
    72.080	    10.411	     5.506
    60.229	     5.961	    -6.855
    50.534	    18.406	    -8.132
    68.057	    -8.195	   -18.313
    54.318	    22.896	    -4.485
    54.196	    17.027	     2.299
    64.154	    16.107	   -12.603
    71.066	    12.904	    -6.682
    59.717	    15.160	   -12.828
    60.698	    -7.282	   -10.895
    69.779	     9.886	   -11.973
    60.629	    26.951	   -16.152
    60.624	    12.296	   -17.779
    65.227	    10.508	    -5.200
    71.040	    11.410	     6.642
    54.053	     9.784	     9.724
    59.030	    13.582	     2.110
    53.444	    34.407	     6.042
    65.017	     4.302	   -17.235
    62.564	     3.269	    -1.586
    61.673	    10.483	     0.699
    50.520	    16.281	     6.886
    62.134	    15.024	    -9.611
    59.933	     1.323	    -5.626
    64.704	    -3.903	    -3.065
    62.270	     0.945	     4.851
    60.727	    18.959	    -8.789
    58.708	     2.559	    -1.395
    63.674	     7.848	   -11.560
    59.805	     2.834	    -6.283
    57.613	    13.438	     4.136
    56.891	    28.592	    -1.705
    64.902	    19.613	    -2.234
    54.914	    15.280	    -3.216
    62.569	    29.209	     6.363
    51.254	    24.209	    -3.780
    62.947	   -12.099	    -1.977
    63.012	    -9.682	    -1.663
    63.925	    -3.667	    -1.469
    56.004	    13.767	    16.571
    52.414	    10.713	     8.089
    64.943	    -7.855	    -3.531
    57.658	    31.893	    -1.713
    54.248	    30.137	    -6.223
    56.211	    31.161	    14.776
    65.572	     9.344	   -15.207
    59.722	    19.219	     4.570
    68.270	    24.498	    -3.890
    64.595	    23.365	   -18.956
    64.142	     0.771	     1.665
    61.238	    21.681	    -7.404
    53.100	    19.966	     4.181
    54.489	    20.063	     5.178
    54.340	    22.545	     5.090
    59.734	    33.254	    -8.905
    49.682	    22.881	     6.757
    49.757	    14.465	    11.651
    59.568	    23.509	    -4.561
    57.225	    20.619	    -8.554
    65.131	    23.607	   -10.572
    56.808	    19.436	    -7.754
    56.488	    16.753	     1.344
    51.834	     2.480	    26.976
    68.483	    30.559	    -4.958
    61.981	    11.260	    -2.568
    54.937	     2.672	   -15.309
    55.823	    23.170	     1.396
    71.876	    13.466	     4.081
    59.194	    11.555	   -12.456
    60.118	     3.635	   -14.627
    60.823	    12.703	    -1.053
    55.164	     1.183	    -6.909
    65.167	     3.109	     2.697
    53.312	    21.775	    -6.143
    59.431	    29.655	   -17.067
    55.338	    15.148	     3.118
    71.232	    -2.671	   -13.139
    67.578	    22.145	    -4.333
    57.787	    36.376	     1.249
    63.605	    28.142	   -11.686
    54.925	    23.313	    11.501
    47.854	    42.137	    -4.456
    49.903	    42.580	   -15.607
    64.517	    15.853	   -16.624
    69.791	    31.581	    -8.042
    64.171	    19.914	    -6.141
    53.985	    23.567	    -2.075
    60.217	    26.277	     5.880
    72.420	    -0.306	    -7.778
    59.180	    20.067	    -5.701
    65.814	    32.182	   -10.686
    50.081	    38.035	     7.530
    54.495	    18.622	     3.460
    64.614	    16.565	     2.689
    53.111	    11.736	    -8.977
    64.912	     2.618	   -11.457
    61.120	     5.840	    -9.503
    48.728	    19.989	    -1.431
    49.207	     8.268	    -0.861
    55.708	     2.492	    -2.623
    57.145	     9.066	    -6.613
    57.444	    -0.170	    -7.073
    67.440	    -0.696	    -6.149
    60.978	     9.398	    -5.817
    60.051	    15.864	    12.255
    69.539	    34.233	   -11.931
    73.160	    11.880	    -8.034
    65.029	    20.215	   -16.917
    69.885	     9.435	    -1.922
    64.973	    25.549	     3.912
    64.916	    25.648	    -1.123
    62.415	    22.232	    -2.070
    53.531	    28.368	     8.876
    59.034	    -1.132	   -11.150
    75.150	    20.150	    -4.480
    58.009	    27.014	   -14.719
    68.629	    15.273	     4.678
    61.992	     5.195	    -6.927
    65.593	    30.323	    -0.139
    50.643	    27.397	     2.960
    65.069	    14.349	    -8.518
    81.704	    18.931	    -6.998
    54.605	    14.849	    -2.949
    69.056	    12.194	    -2.559
    53.262	    37.124	    -5.178
    58.024	    23.418	     1.556
    59.793	    30.887	    -2.739
    61.411	   -10.097	     3.751
    60.550	    24.557	   -12.491
    68.613	     0.713	     8.778
    52.932	     8.642	     7.446
    62.559	    18.864	     4.871
    59.025	    19.872	     2.790
    64.439	    15.827	    -6.572
    52.289	    25.167	    -3.588
    59.716	    19.700	    -6.726
    49.135	    27.548	    -4.806
    62.566	    10.293	     2.625
    61.352	     3.809	   -15.611
    62.036	    16.360	    -9.954
    47.938	    23.890	    10.534
    62.618	    -9.846	    -8.658
    59.535	    24.473	    15.285
    54.846	    19.061	     0.420
    57.336	    19.484	    -5.909
    73.517	    21.469	    -2.517
    56.735	    12.204	    -2.150
    61.505	    14.820	     3.800
    66.304	    -1.277	   -12.918
    66.656	    -0.665	    -0.121
    60.481	    17.903	   -10.508
    64.270	     2.234	    -6.727
    58.114	    15.434	    12.104
    69.764	    -2.337	    -3.481
    70.270	    12.566	   -16.568
    50.829	    46.554	    -2.272
    61.109	    25.614	   -13.011
    59.722	    25.988	    -7.825
    68.256	    17.259	    -6.480
    61.029	     5.786	    -1.196
    68.573	    19.137	    -4.674
    62.422	    12.248	    17.350
    56.964	    27.146	    -5.658
    55.813	    18.756	    -2.680
    61.896	    18.476	    -2.215
    50.299	    29.990	    -4.482
    60.312	    28.829	   -11.176
    53.841	     3.212	    -2.881
    68.834	     6.118	   -19.066
    56.629	    -3.978	    -6.703
    52.026	     4.273	     2.060
    65.846	     3.624	    -7.171
    52.332	    20.650	    15.077
    58.355	    27.135	    -3.843
    59.448	    14.265	    -7.746
    57.519	    16.736	    -4.512
    78.685	    -3.306	    -2.497
    68.375	     2.471	   -13.415
    62.749	    14.262	    -7.390
    71.978	    24.069	   -17.834
    52.043	    13.118	     8.012
    52.990	    32.663	    12.914
    43.488	    31.744	    16.122
    61.706	    10.127	    -9.025
    74.372	     6.300	   -15.131
    64.403	   -21.451	     7.725
    70.308	    30.599	    -3.657
    61.750	     0.840	     4.898
    62.112	    30.790	    -4.723
    64.039	    16.931	    -7.820
    52.313	    22.406	     9.183
    70.466	    15.717	   -22.330
    51.085	    10.524	    17.200
    38.967	    41.973	     1.267
    62.380	    21.578	     4.212
    63.018	     7.396	    -6.482
    56.125	    22.294	    -4.237
    70.176	    -2.158	     5.958
    58.362	    16.592	     0.772
    64.579	    12.794	   -22.334
    55.149	    13.623	    -6.004
    68.221	     6.827	    -9.449
    52.347	     8.419	    -9.416
    50.428	    -0.496	     0.573
    69.575	    22.126	   -16.661
    60.684	     2.020	     5.039
    62.264	     8.160	   -18.249
    56.988	     5.076	     2.914
    72.024	    13.815	    -6.243
    47.355	     9.178	     0.283
    66.057	    -1.000	    -1.053
    74.243	    -2.499	    -3.819
    59.236	     0.175	    -2.686
    59.284	     7.957	    -5.692
    63.226	    17.682	     9.180
    52.822	     1.660	    -1.723
    64.795	     6.084	     1.578
    62.298	     7.646	     6.141
    57.818	    33.669	     9.429
    61.586	    27.404	     5.550
    62.737	     8.033	    -5.637
    54.695	    23.485	    -8.279
    60.173	    25.486	    -0.728
    66.073	    25.734	   -13.216
    60.847	    15.977	   -12.998
    61.766	    14.496	   -10.126
    61.505	    17.700	    -2.185
    69.441	    15.490	    -7.354
    63.435	    27.891	     7.333
    55.847	    19.501	     1.970
    66.414	   -11.433	    -9.171
    63.563	    22.803	     5.271
    59.252	    32.747	    -0.867
    60.642	    24.096	    -5.162
    57.759	    20.997	    -9.343
    59.586	    23.933	     0.447
    62.472	     6.523	    -6.482
    60.745	    11.698	    -3.012
    60.543	    23.342	     6.921
    58.208	    12.764	    -0.084
    63.245	    25.568	   -10.441
    55.394	    20.483	    -4.202
    57.763	    19.817	     1.644
    65.432	     5.063	    -2.685
    73.233	    20.511	    -9.060
    59.516	     6.112	    -1.085
    60.908	    -0.665	    -2.316
    65.125	     8.110	    -3.238
    56.034	    33.271	    -1.172
    60.544	    13.933	    -4.908
    39.666	    19.771	     6.538
    56.416	    22.140	     1.232
    63.818	    10.682	   -13.602
    64.706	    23.551	   -22.357
    58.361	    31.504	    -1.109
    62.954	    14.587	    -8.708
    65.776	     6.626	    -6.324
    62.184	     5.838	    -1.432
    60.617	    30.500	   -18.674
    60.795	    21.409	    -7.346
    59.958	    21.045	    12.385
    69.593	    14.231	    -0.822
    57.202	    13.660	    -0.545
    64.101	    24.277	    -5.737
    62.980	    24.069	     2.834
    61.714	    18.192	    -8.497
    70.954	    13.979	   -14.370
    64.541	     3.711	     9.637
    61.899	    11.381	     8.991
    55.734	    -8.625	     2.804
    53.306	     3.875	   -14.718
    74.920	     5.466	    14.706
    53.363	     4.897	    10.361
    70.634	    -6.599	    -9.467
    59.193	     0.927	     5.084
    60.544	    -6.256	    -5.774
    53.614	    21.721	    17.273
    60.238	     5.692	     3.081
    64.821	    16.466	     4.744
    62.512	    12.921	     3.852
    62.826	    15.319	   -10.765
    61.226	    11.132	    -3.052
    47.387	    15.167	    -2.239
    56.748	    18.776	     1.724
    62.858	     5.892	   -10.273
    54.736	    16.899	    10.877
    51.471	    12.359	     6.665
    47.023	    19.597	    -8.374
    67.434	    22.606	    -1.817
    51.902	    29.583	     6.452
    49.173	    39.293	     3.241
    63.926	    28.039	     7.249
    59.140	    33.566	    10.498
    63.616	    19.641	    -2.000
    58.963	    21.680	     6.620
    60.151	    10.627	     3.507
    66.643	    19.589	   -12.470
    51.981	    14.796	     9.105
    53.154	    -0.057	    -4.266
    53.203	    26.963	     1.060
    60.005	    21.805	    -4.313
    54.293	    30.647	    -2.392
    39.745	    38.989	    14.374
    55.934	    20.824	   -16.037
    71.416	     0.120	   -11.409
    56.550	     5.237	    -8.476
    65.857	     6.596	     3.597
    64.577	     1.723	    -1.828
    65.285	    23.748	     2.572
    61.920	    18.849	     7.066
    57.110	    39.864	    -3.405
    57.082	    34.962	     2.254
    73.345	    25.647	    -2.143
    64.252	    18.078	    -7.105
    55.321	    16.854	     6.191
    68.520	    19.980	    12.078
    60.848	     9.451	     2.038
    60.399	    16.407	     6.709
    76.445	    25.272	   -13.045
    68.047	    15.658	     0.273
    52.182	    25.302	    13.926
    71.376	     3.782	   -14.122
    65.191	    14.906	   -14.603
    62.781	    19.004	    -8.541
    54.840	    18.317	    -8.692
    56.688	    25.348	    -5.974
    59.804	    14.330	    -6.657
    56.241	    26.115	    -7.947
    64.708	    24.613	   -10.992
    58.394	    -8.301	    -8.689
    42.438	    34.826	    -0.639
    50.300	    23.135	     8.591
    57.473	    23.795	    -6.722
    62.119	    14.754	     0.584
    48.281	    26.939	     9.191
    59.460	    25.920	     0.133
    53.562	    43.083	     6.372
    78.711	    10.564	    -6.670
    61.692	    36.658	     1.161
    56.216	    23.483	   -10.192
    60.797	    16.517	   -12.850
    66.859	     7.939	   -15.463
    75.910	     5.116	   -14.201
    56.926	    21.707	    -4.330
    54.235	    16.591	    -6.918
    55.903	    31.985	   -21.876
    62.909	    22.775	   -22.917
    59.550	    16.158	   -12.612
    51.049	    19.761	     7.768
    65.416	    28.308	    -5.570
    51.277	    10.071	    -0.311
    62.326	    17.801	    -8.085
    60.500	    13.252	     0.099
    65.477	    21.602	   -14.280
    57.704	    12.439	     1.071
    63.283	     8.666	     3.743
    69.880	    25.236	   -13.224
    58.285	    31.807	    -9.570
    66.509	    20.074	   -12.220
    58.751	    12.317	     0.591
    59.103	    15.605	   -11.122
    62.392	    16.568	    -1.053
    61.950	     4.227	     2.450
    50.652	    21.959	    -0.142
    52.696	    19.882	    10.973
    66.224	    13.513	   -24.549
    60.025	    33.933	     1.977
    58.000	    33.422	    -3.553
    62.943	    15.105	    -1.392
    57.485	     7.659	    -4.437
    51.923	    16.682	   -14.486
    62.182	     8.204	    -4.784
    57.778	    32.475	    -8.486
    60.515	    11.043	     6.219
    56.936	    16.283	     4.312
    49.825	    15.690	    21.189
    53.580	     9.546	    -8.951
    63.307	    21.233	    -8.075
    59.545	    15.023	   -14.131
    63.853	     9.995	     6.731
    65.564	     9.115	   -11.775
    61.647	     6.058	     3.541
    64.960	    13.927	     5.987
    57.815	    32.891	     6.598
    51.343	    32.621	    11.842
    56.782	    24.697	     5.961
    68.108	    25.848	     1.814
    62.188	    23.073	    -1.269
    53.986	    29.274	     3.358
    56.563	    20.743	     2.867
    62.470	    26.735	   -11.679
    59.781	    20.969	     4.104
    58.136	    28.727	    -7.034
    62.012	     8.705	    -1.606
    64.997	     6.994	    -0.097
    55.533	    16.738	     9.447
    63.964	     8.751	     4.122
    66.992	    17.057	     4.343
    65.917	    -1.957	     4.474
    65.890	    26.928	   -11.763
    59.026	    23.464	     5.292
    58.813	    12.588	    12.349
    61.394	     2.861	    -4.462
    66.718	    26.453	    -8.883
    64.480	    12.349	   -13.492
    56.404	    13.753	    -3.741
    53.016	    11.179	    -7.843
    56.551	    16.623	     6.951
    58.514	    10.838	    -8.570
    61.222	     7.524	    -9.224
    69.311	    19.487	   -11.655
    59.607	    29.693	    -2.446
    55.534	    23.987	    -9.970
    64.916	    16.491	    -7.409
    60.378	    22.128	    -2.223
    56.768	     3.005	   -21.608
    56.779	     1.498	    11.767
    66.131	     1.243	    -5.494
    55.182	    -7.602	    -1.405
    62.155	    11.383	     2.624
    69.565	     2.353	    -2.398
    58.749	    21.811	     6.741
    73.200	    28.882	    -5.454
    59.771	    14.496	     5.224
    68.897	     6.059	    -3.533
    58.091	    19.171	     4.044
    67.256	    21.449	     7.697
    56.961	    13.035	    -2.002
    65.172	     6.765	    15.258
    73.833	     5.807	     0.944
    57.505	    14.833	    -3.385
    57.834	    21.124	     1.820
    55.636	    10.106	     3.103
    55.125	    23.911	    -2.111
    65.497	    26.960	   -17.753
    65.926	    33.214	    -6.053
    61.183	    11.775	   -12.028
    73.079	     6.367	    -8.343
    62.986	    17.513	    -7.183
    55.749	    11.642	   -11.875
    65.252	     4.453	   -15.470
    68.411	    17.309	     1.703
    55.297	    -6.348	   -19.619
    61.565	     1.706	     2.596
    52.230	    21.915	     9.234
    57.209	    19.773	     1.118
    54.276	     6.307	    -6.780
    60.628	    15.994	     8.070
    53.847	    23.862	   -11.200
    62.191	    34.380	    -2.518
    67.550	    19.176	   -10.056
    60.289	     8.510	     3.151
    59.530	    33.437	     2.874
    54.701	    19.841	    -4.840
    50.745	    22.832	     1.240
    62.225	    21.751	     5.946
    73.724	    14.192	     1.471
    67.625	    19.686	    -8.287
    51.122	    26.134	    -2.848
    59.600	    27.027	    -6.339
    63.220	    13.333	     2.789
    60.590	    11.266	     4.722
    61.878	    26.388	    13.531
    65.439	    13.344	     0.254
    57.266	    16.365	     2.284
    63.844	    44.616	   -12.686
    59.063	    36.384	     4.434
    52.163	    34.627	     2.665
    70.394	     5.955	     1.100
    62.178	    -1.139	    10.506
    62.484	    -0.739	     8.601
    66.750	    -3.812	     4.915
    58.570	     5.874	     3.270
    51.117	     7.755	    -1.298
    63.627	    11.081	    10.187
    56.318	    20.117	    -1.751
    66.685	    29.737	     0.709
    62.037	    22.256	     3.175
    61.638	    18.098	    -8.142
    54.292	    26.861	    -6.730
    47.934	    30.787	   -10.997
    54.544	    35.686	    -7.502
    64.179	     8.680	    -4.923
    48.150	    17.253	    -1.128
    70.351	     5.263	    -9.227
    65.341	     6.605	    -6.032
    61.176	     4.017	    -1.334
    59.727	    18.461	    -2.404
    68.209	     1.004	    -8.448
    60.786	    12.611	    -7.816
    62.485	     4.184	   -21.092
    54.925	    -7.845	    -1.463
    71.941	   -11.032	     4.649
    63.772	    -1.297	   -16.548
    64.725	    -4.068	     6.546
    59.231	    -1.874	     1.081
    57.289	    16.257	     0.079
    62.920	     5.025	    -9.310
    58.932	    16.221	   -17.862
    61.510	    20.032	     2.215
    62.099	     5.992	    -0.219
    57.955	    21.794	     0.984
    54.970	    14.470	     7.374
    61.670	    21.106	    -7.694
    62.443	     5.508	    -0.369
    44.238	    11.845	     0.605
    72.736	    11.914	    -8.928
    67.548	    14.243	   -11.603
    60.182	    25.061	   -13.597
    67.556	    14.184	   -13.916
    37.398	    40.650	    20.103
    65.802	    22.475	     0.742
    56.164	    -2.350	     1.139
    58.062	    21.382	     1.505
    65.212	     4.738	    -3.878
    66.627	    20.848	    -7.756
    58.630	    25.616	    -0.879
    73.768	    12.518	   -11.077
    65.227	    -6.304	   -17.324
    73.761	    -3.581	   -25.455
    66.796	     4.984	     3.000
    61.750	    13.986	     8.100
    60.161	    20.781	    -2.408
    68.403	   -12.164	     3.626
    55.548	    12.471	    21.317
    60.385	    21.155	     7.223
    55.102	    32.298	     7.719
    45.219	    25.239	     4.841
    59.598	    18.827	     4.642
    70.331	    21.623	    -5.931
    56.641	     3.552	   -27.240
    52.885	    15.918	   -12.608
    54.568	     2.480	   -16.068
    61.933	    18.229	   -12.706
    55.530	    26.854	    -8.477
    66.179	    26.296	   -18.675
    62.949	    22.849	     2.989
    70.063	    14.537	     2.559
    68.831	    22.711	    -4.790
    52.499	    28.735	   -11.563
    54.142	    18.564	    -4.535
    55.583	    14.480	    -0.755
    44.484	    31.913	     8.533
    71.279	    24.429	   -13.811
    64.436	    27.339	    -2.738
    63.566	    23.928	   -22.935
    60.592	    21.934	    -7.456
    51.774	    28.217	     7.208
    67.159	    -5.177	   -18.066
    52.539	     9.982	     2.528
    74.072	    -3.400	    -7.484
    72.074	   -14.713	   -17.640
    55.581	    10.692	    -7.959
    62.977	     1.396	     2.466
    62.439	    23.474	    -6.427
    59.099	    15.069	     5.486
    63.427	     4.045	    -1.529
    63.694	    -1.711	    -8.001
    55.607	    27.339	   -19.213
    66.282	     6.259	     7.656
    56.529	    14.843	    -4.117
    65.683	     9.473	     8.046
    58.846	     9.104	    -4.468
    68.666	    12.297	    -4.907
    52.851	    35.221	     2.502
    54.467	    13.154	    16.489
    64.474	    23.693	   -16.969
    56.308	    28.024	   -12.635
    56.663	    28.703	     4.980
    67.795	    10.527	     4.725
    57.362	    14.924	    -3.961
    60.337	    16.650	    -6.086
    57.195	    33.024	     0.505
    62.034	    25.538	     2.681
    53.685	    13.381	    -1.847
    67.325	    16.409	   -19.909
    66.458	     3.367	   -10.058
    49.449	    12.678	     1.170
    66.693	     4.898	    -9.763
    66.570	    24.170	    -0.734
    48.808	    26.570	    -2.554
    67.180	    18.175	     4.259
    46.146	     5.205	    13.201
    63.823	     0.318	     3.922
    52.005	    24.072	   -30.747
    52.242	    17.188	     4.820
    55.010	    32.678	     3.762
    59.649	    27.542	   -10.046
    65.636	    -8.191	    -4.216
    59.254	     4.275	     6.275
    74.770	    -8.537	   -32.547
    52.602	    23.891	   -12.710
    64.039	     5.583	     7.342
    60.347	    21.262	     1.164
    49.277	    20.092	    20.888
    68.786	     3.375	    -0.484
    55.746	    14.665	    -1.537
    50.687	    18.221	     4.910
    56.496	    12.647	    -1.980
    67.791	     9.968	   -11.368
    58.423	    18.679	   -17.430
    59.202	    -3.188	     6.896
    65.141	    -0.765	    -5.667
    69.460	    11.118	   -11.301
    55.405	    26.036	    -2.698
    54.988	    33.342	   -15.793
    65.693	    -6.894	   -17.544
    61.828	    -7.326	    -6.530
    44.274	    25.186	     5.441
    68.228	    15.632	    -3.366
    60.512	    19.715	     3.083
    58.632	    25.860	     0.694
    57.106	    38.673	     9.351
    60.919	    17.979	    -1.065
    63.137	    16.109	     2.528
    62.902	    14.350	     4.787
    58.922	    21.432	     0.282
    62.699	    25.844	     2.481
    67.424	    16.846	   -13.553
    61.360	    17.271	     7.233
    60.316	    18.704	     8.560
    55.017	     4.451	    28.051
    57.826	    23.194	     2.766
    68.106	    11.050	    -0.964
    46.453	    17.243	     9.702
    65.939	     2.218	    -6.132
    64.696	    16.113	    -8.780
    60.356	     6.918	     4.491
    60.980	    15.983	    -1.345
    64.777	    22.636	     6.829
    72.401	    15.665	   -15.315
    57.978	    12.145	     7.293
    63.365	    22.966	   -17.028
    59.624	    21.057	     6.468
    61.563	     8.019	    -3.231
    57.382	    13.504	   -11.481
    63.167	    14.264	    -3.299
    56.634	    16.636	    18.709
    72.004	    34.529	     0.441
    56.069	     4.731	    16.149
    72.150	    30.297	   -22.809
    70.565	     5.693	     7.644
    59.850	     5.286	   -13.174
    59.101	    21.182	     6.011
    49.007	    37.518	     7.048
    54.222	    15.617	   -12.841
    65.966	    12.612	   -12.435
    68.158	    23.319	    -1.390
    79.801	    19.858	    -1.541
    60.709	    21.197	     3.546
    51.537	    -1.005	    -7.612
    50.113	    18.512	     4.540
    54.531	    46.113	     1.551
    58.648	   -12.270	     2.457
    64.382	    10.561	    -5.397
    61.012	     2.877	   -16.983
    52.222	     2.286	    -2.318
    49.544	    33.325	    -3.929
    63.070	    25.501	    21.007
    50.793	    19.008	    10.583
    48.970	    34.377	    -1.126
    65.783	    14.610	    -3.110
    58.029	    22.472	   -10.837
    65.091	    12.261	    -8.038
    62.041	    19.466	    -8.349
    64.905	    18.749	    -4.416
    54.768	    15.091	     2.227
    62.013	    30.765	   -15.634
    58.982	    27.829	     3.935
    43.494	    34.090	     9.255
    67.930	    27.040	   -26.577
    66.156	    14.541	    -1.632
    61.898	    26.301	   -24.751
    57.776	    25.438	    -4.556
    52.441	    13.573	    -1.000
    64.905	    13.566	    -9.963
    56.238	    29.938	     0.837
    69.718	    13.025	    -2.629
    57.109	    15.284	    -6.327
    66.801	     5.465	     0.563
    60.849	     5.842	    -1.286
    54.494	    14.489	     3.456
    69.341	    19.491	   -11.828
    55.673	    32.477	    -2.458
    56.175	     4.095	     5.928
    64.959	    14.722	     8.532
    55.996	    14.167	    -0.783
    63.412	     6.412	    -5.106
    57.017	    14.463	    10.225
    60.988	    16.749	   -13.615
    63.340	    -3.095	     0.994
    60.027	   -11.531	     4.435
    56.492	    -3.494	    -0.955
    64.273	     9.218	    -2.363
    59.327	     6.684	     2.398
    52.087	     8.528	     2.706
    56.203	    14.802	    -1.585
    55.352	    23.303	     4.194
    59.153	     5.113	    -1.318
    75.367	    -7.904	   -16.318
    53.956	    -7.800	   -16.305
    68.573	     6.440	     1.631
    63.082	    24.208	   -12.230
    59.291	     7.432	     9.800
    67.632	     0.426	   -16.025
    65.685	     6.570	    -0.288
    65.339	    10.509	    -1.135
    58.385	    28.129	    -4.235
    57.388	     5.139	     6.833
    56.994	    27.950	    -7.597
    60.086	    19.606	    -6.726
    59.478	    25.719	    -3.352
    51.557	    17.323	    -5.197
    57.495	    20.109	    14.099
    76.309	     8.816	    -3.988
    63.203	    33.382	    -5.657
    59.311	     5.316	     4.865
    49.394	    10.978	    -2.953
    55.588	    11.887	    -9.806
    66.315	    24.563	   -25.081
    73.384	    28.589	   -12.380
    60.298	     7.442	    -2.001
    54.234	    29.418	   -14.496
    63.036	    19.740	   -11.674
    68.137	    16.416	    -3.847
    61.377	    17.035	    -2.486
    67.805	    28.973	   -16.274
    58.324	    41.738	    -2.643
    54.152	    32.578	    -8.439
    71.736	    12.416	   -18.858
    63.702	    28.904	   -18.789
    58.199	    17.227	    15.739
    60.364	     0.314	    13.015
    58.529	   -17.593	     2.692
    65.194	    23.359	    -1.472
    60.355	    14.256	     1.935
    75.058	     3.390	    11.717
    59.321	   -12.505	    -0.135
    60.552	    23.478	     3.507
    54.332	    14.245	    15.040
    62.744	    19.493	     9.717
    61.051	    23.909	   -10.159
    73.722	    19.406	   -11.616
    63.173	    24.432	     1.317
    64.371	    39.128	    -4.600
    50.079	    29.299	    -7.490
    68.305	     2.029	    12.659
    67.226	    17.471	    15.488
    54.593	    26.736	     5.307
    73.729	    -7.164	   -12.585
    46.365	    12.874	     3.633
    45.256	    27.047	    -8.052
    52.816	    -2.736	     1.287
    64.571	    25.802	    -7.072
    66.748	     3.484	    12.092
    60.452	    27.353	     0.724
    62.475	    11.836	     1.428
    47.844	    12.151	    -1.726
    60.781	    24.178	     6.702
    58.527	    -5.810	    10.416
    59.337	    19.132	   -19.177
    62.095	    35.286	    -5.578
    45.771	    23.708	     1.088
    61.972	    15.259	    -5.108
    57.602	    14.590	    -3.572
    57.769	    16.719	    -1.213
    54.464	    17.672	    -0.060
    61.367	     6.916	     2.355
    60.067	     7.151	    13.509
    60.492	    21.901	    -2.503
    53.188	    12.451	     6.533
    57.301	    32.418	    -6.783
    51.404	    20.184	    -2.929
