   -92.310	   122.143	    -3.179
   -73.071	  -160.600	    -4.147
   -89.340	  -136.135	     2.464
   -76.242	  -136.971	   -25.017
   -60.497	   -76.502	   -14.847
   -56.789	   -84.163	    -1.898
   -60.474	   -89.622	     8.217
   -56.746	   -96.290	     4.130
   -53.690	   -87.640	    -4.887
   -57.658	  -120.231	    -9.892
   -56.704	   -72.624	    -0.698
   -73.119	  -104.466	    -7.562
   -63.247	  -103.192	    -0.423
   -67.203	  -110.652	    -6.059
   -66.686	   -66.326	    19.182
   -64.033	   -97.265	    13.306
   -70.381	   -93.493	     7.773
   -51.512	   -73.172	     2.980
   -66.949	   -93.068	     0.881
   -58.019	   -78.445	     9.548
   -54.781	   -70.517	     1.886
   -52.294	   -90.301	     9.562
   -66.017	   -72.051	    11.788
   -50.587	   -61.612	     4.528
   -72.359	   -72.544	     9.580
   -38.949	   -87.442	   -11.232
   -35.187	   -77.850	    12.743
   -67.711	   -77.026	     4.857
   -60.830	  -104.175	    -5.387
   -81.158	   -83.632	   -14.256
   -57.585	  -106.639	   -13.350
   -66.625	   -99.777	   -15.301
   -59.787	   -98.310	    14.898
   -61.234	  -123.486	   -11.341
   -77.655	   -69.000	    19.113
   -48.404	  -120.282	     5.646
   -62.323	  -128.215	    -2.429
   -59.981	   -81.365	     5.532
   -50.897	   -84.062	    14.974
   -78.387	   -90.441	    -3.624
   -67.139	   -93.503	   -11.574
   -56.258	   -96.273	     8.157
   -70.403	   -89.269	    17.437
   -59.291	   -98.834	     7.650
   -80.035	  -120.368	     8.722
   -66.287	  -106.005	   -19.164
   -75.335	  -109.169	     4.357
   -64.704	   -96.776	    -5.929
   -58.195	  -107.080	    -6.942
   -75.400	   -96.562	    18.377
   -67.219	  -105.641	   -12.293
   -69.719	   -84.784	    -6.471
   -72.667	  -103.028	     5.131
   -72.984	   -96.913	    -6.130
   -64.083	   -83.544	   -18.207
   -72.243	   -75.857	     5.103
   -68.803	   -90.317	   -16.607
   -59.452	   -81.484	     8.337
   -63.662	   -89.538	    -1.570
   -44.535	   -94.105	   -11.552
   -64.245	   -74.823	     5.771
   -72.316	   -96.722	     6.016
   -70.155	   -78.789	    -6.685
   -68.626	   -64.407	     4.490
   -63.429	   -51.063	    -0.478
   -69.856	   -75.324	    -1.416
   -44.938	   -78.323	     3.310
   -67.987	   -86.576	     9.704
   -63.840	   -70.034	    -8.645
   -67.418	   -71.445	     1.998
   -64.700	   -82.009	     7.587
   -65.885	  -133.506	     3.697
   -57.807	  -113.270	   -20.330
   -58.428	   -83.261	    15.401
   -60.559	   -80.466	    -5.104
   -46.575	   -71.797	    -3.420
   -48.071	   -86.341	     0.261
   -71.752	   -70.146	    -1.275
   -63.817	   -76.682	    14.847
   -59.871	   -93.119	     0.357
   -49.248	   -81.167	   -12.521
   -53.368	   -53.974	     5.154
   -66.931	   -67.856	     7.746
   -56.864	   -70.860	     4.358
   -70.181	   -76.649	    -7.275
   -72.237	   -85.094	   -21.401
   -68.390	   -92.905	   -16.365
   -52.865	   -72.483	    -7.688
   -66.256	   -58.480	    -5.560
   -63.167	   -51.759	    -5.006
   -75.418	   -88.944	    11.830
   -52.637	   -88.907	     4.031
   -41.446	   -60.156	     4.820
   -72.383	   -80.371	    10.084
   -56.337	   -74.811	    -1.164
   -54.774	   -72.984	    11.112
   -58.328	   -69.041	    -1.280
   -57.144	   -63.769	     1.705
   -54.134	   -96.770	    -5.616
   -66.217	   -69.658	     5.123
   -39.096	   -86.896	    16.715
   -76.283	   -83.535	     3.184
   -73.514	  -134.851	   -15.086
   -69.283	  -159.658	   -20.396
   -78.809	  -151.576	    -7.679
   -72.918	  -124.094	     0.801
   -68.131	  -136.786	    -9.511
   -71.662	  -134.677	    -8.548
   -87.625	  -126.094	     3.602
   -76.592	  -135.083	    -5.542
   -70.662	  -143.314	   -17.250
   -79.534	  -101.765	   -13.047
   -76.218	   -86.491	    -1.303
   -75.281	   -71.029	    -6.429
   -59.659	   -75.001	    -3.941
   -59.187	   -62.960	     9.805
   -44.743	   -90.976	     0.890
   -79.227	   -93.429	     7.189
   -67.401	   -80.488	   -10.893
   -74.764	   -99.880	     4.770
   -75.272	  -106.146	    -3.295
   -69.422	   -85.444	    -6.642
   -81.309	   -99.721	   -13.954
   -62.546	   -76.841	    -4.572
   -68.502	   -85.056	   -11.357
   -69.247	   -92.956	    -9.372
   -75.235	  -115.865	     3.426
   -74.299	  -159.590	    10.878
   -88.784	  -135.256	     2.948
   -86.010	  -131.116	     0.610
   -74.925	  -139.607	    -2.286
   -75.495	  -141.767	     3.130
   -72.413	  -154.741	     3.772
   -79.520	  -139.054	    -4.930
   -73.801	  -115.557	    -1.869
   -78.219	  -164.745	    -6.763
   -53.695	   -90.473	   -16.443
   -71.083	   -74.833	     9.550
   -62.843	   -57.635	     3.923
   -42.645	   -62.096	    11.629
   -47.614	   -62.783	    18.228
   -39.965	   -85.289	    12.642
   -57.304	   -81.622	     0.408
   -61.790	   -72.029	     3.541
   -50.482	   -63.497	     6.356
   -57.995	   -79.518	    -6.537
   -76.245	   -74.748	    15.019
   -64.222	   -81.603	    -3.126
   -74.958	  -116.256	     4.499
   -66.013	  -127.913	   -17.194
   -67.998	   -97.036	    -4.108
   -60.122	   -99.577	    -4.474
   -66.518	  -106.532	     8.728
   -70.643	   -88.464	     5.604
   -69.456	   -85.449	     2.881
   -51.472	   -49.410	    -3.693
   -57.047	   -90.590	    -8.177
   -73.203	   -97.819	   -11.937
   -73.711	  -117.339	    -0.083
   -52.507	  -107.699	    11.044
   -80.301	  -110.460	    12.625
   -47.777	   -88.870	   -26.263
   -60.438	  -104.461	   -13.327
   -68.622	   -92.776	   -13.334
   -76.426	  -103.382	   -13.374
   -79.308	  -113.588	    -6.001
   -71.760	  -147.983	   -15.572
   -73.894	  -121.966	    12.464
   -62.538	  -110.044	    -4.100
   -67.644	   -96.602	    -7.856
   -68.409	   -92.052	     7.367
   -75.651	  -108.647	   -20.206
   -71.736	   -88.715	    -3.853
   -59.379	   -76.251	    -1.497
   -72.406	   -95.622	    -1.857
   -65.217	   -82.355	     4.656
   -54.905	   -63.939	   -11.351
   -57.287	   -81.789	    -4.658
   -58.318	   -92.915	    -5.233
   -74.133	   -67.798	     3.008
   -72.106	  -119.068	   -10.358
   -70.633	  -112.993	    -2.029
   -61.773	   -91.833	   -20.552
   -64.415	   -94.444	   -15.710
   -59.815	  -116.429	   -13.274
   -81.544	   -97.367	     5.223
   -76.913	   -97.690	     1.880
   -73.072	   -77.080	   -12.258
   -49.889	   -78.846	   -15.811
   -65.799	   -83.188	     0.214
   -66.674	   -81.941	    -2.816
   -58.462	   -85.426	    -9.322
   -52.842	   -96.613	    -6.496
   -81.110	  -126.527	    -3.044
   -86.996	  -137.126	     8.411
   -80.607	  -140.365	     9.457
   -73.783	   -82.272	    -1.864
   -67.118	  -114.892	   -25.661
   -67.045	   -90.097	    -5.855
   -77.488	  -137.075	   -18.498
   -65.602	  -103.114	   -12.340
   -67.106	   -90.331	    -9.589
   -43.724	   -77.501	    -8.905
   -63.557	   -94.593	   -23.805
   -83.721	  -116.772	     9.933
   -35.909	  -101.353	    -2.557
   -75.636	   -82.985	     8.500
   -58.591	   -88.238	     5.663
   -55.662	   -91.085	    -6.933
   -47.237	   -77.695	   -13.178
   -44.289	  -103.060	     1.936
   -68.822	   -73.276	     4.750
   -65.728	  -101.791	     2.649
   -84.937	   -88.129	    14.335
   -72.139	  -114.419	    -5.167
   -58.571	  -119.011	   -11.118
   -65.083	   -99.213	    -4.078
   -69.284	   -55.251	    -0.199
   -58.984	   -77.629	     4.487
   -64.927	   -99.070	   -17.612
   -62.965	   -83.929	   -10.367
   -64.942	   -62.334	     0.285
   -44.209	   -82.148	   -12.942
   -62.936	   -69.095	     3.657
   -76.470	   -91.645	    -8.838
   -56.369	  -108.830	   -29.912
   -71.759	   -70.928	    -7.247
   -83.188	  -110.289	    -7.146
   -73.541	  -107.993	   -11.785
   -59.742	   -85.543	    -6.974
   -70.997	   -88.342	     8.010
   -49.242	   -92.477	   -14.339
   -74.436	  -120.326	   -23.230
   -76.708	   -72.883	    -2.120
   -58.294	   -63.324	     2.734
   -72.338	   -99.577	    -6.996
   -54.580	  -100.046	    -6.737
   -58.782	   -78.893	   -26.511
   -60.868	   -90.855	   -11.331
   -65.314	   -96.033	     4.610
   -67.312	   -94.951	    -5.210
   -66.981	   -86.102	   -13.091
   -65.774	   -82.424	    -4.738
   -74.640	   -72.215	    17.782
   -69.811	   -72.829	    -8.343
   -62.499	   -89.865	   -13.724
   -64.307	   -89.169	    -2.896
   -62.779	   -81.020	     5.210
   -79.169	   -94.988	    12.561
   -75.855	  -109.827	     2.701
   -56.758	   -80.645	    -1.281
   -76.226	  -110.236	    -8.039
   -65.953	   -91.411	   -10.259
   -59.409	  -116.474	     4.242
   -72.106	  -135.747	    -9.304
   -67.966	   -93.845	    -8.613
   -74.934	  -140.889	    -9.613
   -40.393	  -105.718	     6.860
   -68.549	  -107.223	   -10.157
   -83.100	  -147.597	     6.265
   -76.202	  -106.169	     5.600
   -66.785	   -83.797	    -2.566
   -71.130	  -103.397	    -1.939
   -81.810	   -91.840	    24.021
   -74.058	   -92.093	     4.086
   -65.593	   -85.141	    -2.810
   -59.498	   -80.319	    -3.437
   -79.685	  -100.306	    20.249
   -62.879	   -93.103	    -8.712
   -51.475	   -77.064	   -18.019
   -61.521	   -62.370	    -7.196
   -56.634	   -68.407	    -5.560
   -71.824	  -124.907	   -18.362
   -64.100	   -91.149	     7.914
   -64.887	   -80.798	   -18.691
   -71.928	   -77.647	    -4.052
   -65.988	  -114.683	    16.794
   -67.886	  -127.228	     1.806
   -64.951	  -122.000	     1.347
   -48.243	  -103.109	   -14.835
   -69.207	   -83.291	     0.647
   -90.279	   -91.184	    -2.347
   -79.213	  -111.036	    -0.699
   -73.587	   -85.434	    11.099
   -68.747	   -61.717	     0.275
   -55.065	   -77.076	    -3.398
   -43.804	   -87.093	   -16.318
   -70.726	  -127.454	   -10.106
   -76.519	  -126.326	     1.988
   -77.494	  -150.493	    -7.373
   -64.961	  -109.545	     7.058
   -55.600	   -75.391	   -12.722
   -50.657	   -70.735	   -17.089
   -57.997	   -76.358	    -7.617
   -65.464	   -91.312	     3.108
   -70.190	   -92.161	    -6.230
   -71.282	  -131.846	   -10.212
   -75.414	  -156.814	   -10.564
   -68.231	  -118.687	     3.464
   -70.443	  -104.511	    -9.293
   -77.025	   -75.720	     6.543
   -42.295	   -89.798	    -2.431
   -67.406	   -76.581	     8.378
   -52.148	   -82.409	     6.886
   -65.191	  -113.209	     3.017
   -65.724	  -103.274	    13.183
   -82.262	   -98.525	    -1.756
   -73.675	   -74.966	    -2.694
   -78.359	  -101.106	    -2.519
   -87.209	   -94.772	     3.841
   -77.535	   -83.429	     6.579
   -70.230	   -95.148	     1.574
   -68.220	   -97.966	    -5.044
   -74.555	   -86.917	    -0.724
   -52.179	   -78.863	    -7.150
   -41.826	   -75.353	    -1.395
   -88.105	   -94.176	     7.994
   -51.590	   -74.342	     2.547
   -58.057	   -82.689	     2.529
   -66.376	   -78.561	    11.800
   -52.716	   -86.844	   -19.981
   -66.260	   -70.101	     2.975
   -68.069	   -81.063	    -5.906
   -51.687	   -63.312	    -6.129
   -71.082	   -73.242	   -11.413
   -74.439	   -66.340	    15.490
   -46.591	   -60.430	    -2.757
   -64.126	   -65.233	    -3.629
   -60.577	   -94.864	    -5.733
   -80.281	   -77.378	     9.543
   -73.074	   -96.374	    -2.035
   -54.068	   -65.198	    -1.495
   -73.549	   -89.634	    10.261
   -62.059	   -96.834	    -0.382
   -59.446	   -72.666	    -1.798
   -62.178	   -85.726	   -13.220
   -69.939	   -76.159	    -1.611
   -69.962	  -112.732	    -8.808
   -84.052	  -116.885	    -5.093
   -83.276	  -129.142	     2.134
   -76.363	  -126.331	    -0.525
   -50.403	   -82.859	    -4.112
   -66.653	   -72.831	    -8.882
   -76.305	   -83.330	    -4.275
   -66.419	   -71.630	    -2.980
   -63.819	   -65.320	    -7.976
   -76.474	  -107.778	   -24.242
   -77.212	  -101.246	    11.755
   -68.078	   -71.439	    -2.907
   -61.510	   -78.140	   -11.383
   -70.040	   -96.252	    -8.535
   -67.525	   -74.010	    -8.214
   -68.148	   -80.245	     1.490
   -66.872	   -84.528	    -7.217
   -80.304	   -84.194	    -3.025
   -53.806	   -66.591	    -2.525
   -59.140	   -73.324	    13.753
   -66.043	   -83.760	     5.082
   -48.826	   -85.496	    -7.111
   -68.312	   -83.506	     5.597
   -68.750	   -53.430	    -6.869
   -64.569	   -79.128	    -3.374
   -70.110	   -59.341	    -6.496
   -71.871	  -116.262	   -11.354
   -91.206	  -105.377	    -5.612
   -60.142	   -80.654	    -9.170
   -59.617	   -67.314	    -9.217
   -69.041	   -94.626	     5.613
   -57.017	   -81.564	   -13.264
   -79.152	  -104.317	    -4.652
   -73.724	   -93.815	    -0.149
   -73.999	  -108.277	   -16.155
   -47.957	   -86.512	     2.465
   -69.964	  -122.043	   -16.659
   -56.780	  -108.448	    19.434
   -65.999	   -64.919	    -6.078
   -61.529	   -70.280	   -20.653
   -47.189	   -88.714	   -14.962
   -73.989	  -124.973	   -12.312
   -85.400	  -110.280	   -26.106
   -72.255	  -116.529	    -7.680
   -54.868	   -75.063	     1.202
   -60.328	   -95.744	     2.792
   -49.628	   -68.154	   -14.182
   -75.797	   -84.215	     5.899
   -66.564	   -63.915	   -12.176
   -56.826	   -72.162	    -5.022
   -76.585	   -98.652	    -1.328
   -82.266	  -132.340	   -14.226
   -56.760	   -92.622	   -10.287
   -52.949	   -93.356	    18.801
   -65.211	   -79.197	   -14.615
   -65.911	   -61.754	     0.029
   -48.950	   -65.718	   -19.322
   -62.382	   -58.252	    -7.214
   -69.693	   -74.579	    -5.371
   -64.967	   -91.496	    -2.111
   -85.986	  -101.311	    -2.685
   -57.657	   -75.483	    -8.380
   -83.554	  -103.717	     4.224
   -69.829	   -80.642	    -0.837
   -65.552	   -80.070	   -19.787
   -64.555	   -80.150	   -13.302
   -80.618	   -79.649	   -12.675
   -62.609	   -98.437	   -23.134
   -71.946	  -114.587	   -22.859
   -78.958	   -87.563	     4.497
   -75.302	   -68.728	   -16.632
   -70.703	   -87.714	    18.583
   -75.054	   -86.242	     1.961
   -69.165	   -89.202	    -0.610
   -49.951	   -60.425	    -2.968
   -65.420	   -70.000	    -8.627
   -56.430	   -81.366	   -14.683
   -52.048	   -82.233	     3.543
   -66.331	   -76.218	    -3.403
   -60.301	   -82.418	    -4.971
   -70.271	  -111.496	     2.238
   -77.697	  -116.439	   -19.032
   -77.951	  -104.072	    -6.804
   -69.232	   -98.603	     0.644
   -71.432	  -120.904	    -4.499
   -73.004	  -134.846	    14.860
   -65.109	   -98.742	   -10.175
   -73.901	   -97.862	     3.086
   -46.230	  -109.357	     7.266
   -60.788	   -97.303	     0.925
   -84.324	  -105.612	    -4.453
   -54.841	   -81.320	    -8.998
   -79.669	   -94.886	    10.829
   -66.616	   -78.679	   -14.063
   -42.386	   -71.901	    -3.418
   -54.939	   -61.735	   -12.110
   -66.833	   -51.356	    16.659
   -54.810	   -71.051	    -0.381
   -55.160	   -70.609	    -3.604
   -63.114	   -82.071	    -2.642
   -60.369	   -88.167	     2.902
   -50.723	   -79.850	    11.347
   -46.297	   -63.474	     9.508
   -54.651	   -76.627	    -2.783
   -67.768	   -76.089	    -6.739
   -71.687	   -79.087	    -9.516
   -76.285	   -97.386	    -1.552
   -67.011	  -108.625	   -12.988
   -75.205	  -110.627	    -8.437
   -69.035	  -107.618	   -11.479
   -74.276	  -135.602	    -0.222
   -69.311	  -105.660	   -13.373
   -57.642	   -93.220	    -1.529
   -50.094	   -76.783	     4.063
   -59.755	   -87.333	     1.449
   -60.670	   -84.047	    -7.488
   -90.814	   -83.881	    -2.535
   -65.366	  -114.233	    -9.869
   -70.921	  -114.163	    14.104
   -63.923	   -99.670	    -9.100
   -67.617	  -110.725	     6.389
   -86.101	  -127.167	    -2.867
   -57.235	  -117.654	    -7.185
   -57.530	   -82.390	    -5.318
   -57.943	  -104.954	     5.794
   -62.830	   -87.766	     7.434
   -56.297	   -64.372	     4.761
   -79.955	   -78.352	     3.735
   -65.786	  -100.405	    -5.982
   -67.678	  -106.581	   -16.558
   -80.456	  -100.765	     4.643
   -75.024	  -115.854	   -11.165
   -72.014	   -95.471	    -4.034
   -42.706	   -77.160	    -0.479
   -74.355	   -91.253	    -5.462
   -91.497	  -121.660	    -3.281
   -59.270	  -108.664	     0.889
   -66.409	   -83.168	   -10.331
   -68.538	  -104.865	    13.440
   -54.683	   -90.677	    -1.484
   -88.084	  -116.839	    -3.252
   -78.740	  -105.881	   -14.237
   -68.461	  -118.433	    -8.902
   -67.990	  -102.291	     5.843
   -58.953	   -96.894	   -20.657
   -61.514	   -79.965	    -2.945
   -79.238	  -128.013	   -11.975
   -71.585	  -124.893	     0.755
   -66.536	   -78.827	   -10.463
   -51.423	   -60.445	    -0.744
   -64.723	   -87.130	   -11.775
   -52.242	   -60.345	     4.928
   -52.412	   -56.046	     6.453
   -67.342	   -75.908	     2.863
   -65.063	   -75.132	    -2.954
   -56.161	   -72.555	   -13.188
   -60.047	   -66.329	   -32.286
   -65.030	   -88.002	   -20.554
   -75.568	  -105.620	    -2.452
   -78.398	   -90.687	    -6.571
   -85.181	  -107.310	     6.014
   -71.677	  -125.299	   -19.969
   -83.628	  -157.655	     1.085
   -78.351	  -165.385	   -28.959
   -72.453	  -158.768	   -11.883
   -67.261	  -124.333	    -3.574
   -66.504	  -148.216	    -4.594
   -70.300	  -117.498	    -8.469
   -74.771	  -115.804	   -16.747
   -77.859	  -103.502	   -10.627
   -70.901	   -98.575	     1.760
   -66.047	  -104.390	    -7.394
   -80.618	   -94.201	   -12.549
   -67.561	   -84.717	     8.456
   -50.243	   -76.670	   -13.145
   -79.753	   -84.951	    19.077
   -74.152	  -124.223	   -14.101
   -73.189	  -109.342	    -8.482
   -70.398	  -119.072	   -12.670
   -68.555	  -131.952	   -13.101
   -69.869	  -105.731	    23.091
   -88.517	  -112.497	    -4.610
   -64.342	   -85.947	   -13.150
   -51.269	   -96.758	     1.043
   -68.609	   -95.909	    -5.621
   -55.826	  -111.039	   -19.818
   -78.815	   -91.514	    -2.492
   -56.192	   -93.248	    14.592
   -48.341	   -67.784	    -2.880
   -47.762	   -73.688	   -20.679
   -35.050	   -59.534	    -5.388
   -48.469	   -69.966	   -14.264
   -56.826	   -95.376	     4.368
   -55.371	   -74.330	     1.571
   -51.482	   -79.702	     0.723
   -50.636	  -132.106	   -21.570
   -59.708	  -115.163	   -23.078
   -71.574	   -89.568	    11.335
   -56.502	   -92.433	    -8.159
   -58.049	   -90.198	    -5.803
   -53.879	   -80.473	    -5.526
   -57.179	   -85.115	     4.888
   -73.289	   -79.580	   -13.421
   -56.850	   -91.042	     3.850
   -60.371	  -114.607	     8.802
   -57.507	   -82.597	   -13.805
   -60.713	   -88.411	    -1.272
   -74.513	   -90.312	     2.344
   -66.784	   -82.698	    -0.099
   -45.585	   -54.862	   -13.087
   -79.580	   -84.053	   -13.013
   -67.465	   -93.995	    -6.883
   -73.287	  -116.551	    -1.654
   -72.147	   -99.779	    -1.422
   -57.363	   -92.893	   -10.419
   -48.973	   -73.846	    -5.777
   -68.749	  -115.917	   -17.001
   -61.878	   -90.269	    -6.390
   -56.174	   -93.040	    -5.167
   -52.993	   -68.642	    -6.818
   -51.580	   -81.193	    -9.557
   -65.766	   -74.113	    -1.958
   -51.387	   -81.052	   -16.121
   -52.402	   -99.007	   -15.746
   -62.601	  -116.080	    -8.460
   -56.493	  -101.115	    -2.793
   -53.818	  -120.133	   -25.984
   -75.954	  -130.111	    -7.948
   -68.401	  -128.956	    -1.038
   -72.260	   -86.395	    -5.526
   -55.622	   -80.297	     9.394
   -64.260	  -102.002	   -20.954
   -48.482	   -92.428	   -13.162
   -72.774	  -117.873	   -19.728
   -74.382	  -121.308	     8.037
   -82.291	  -130.934	    -1.011
   -78.940	  -119.378	    -3.156
   -74.141	  -116.442	    -3.818
   -69.388	  -120.337	    -1.079
   -77.554	  -104.359	    -3.919
   -79.141	  -136.839	   -11.508
   -69.215	  -146.441	     1.338
   -61.091	  -134.937	   -31.854
   -73.349	  -135.047	     5.897
   -68.527	  -118.372	   -11.357
   -72.954	  -128.895	    -6.197
   -59.645	   -81.532	   -12.830
   -52.298	   -75.655	     0.887
   -56.329	   -73.937	    -0.942
   -68.370	   -86.433	   -19.635
   -77.097	   -78.612	     1.373
   -56.603	   -71.765	   -14.766
   -71.861	   -91.048	    -3.630
   -54.818	   -84.431	   -22.397
   -79.857	   -74.115	   -20.496
   -65.250	   -69.469	    -8.711
   -60.353	   -80.098	    -6.163
   -46.825	   -80.758	   -21.983
  -106.044	  -113.730	    28.461
   -82.939	   -81.660	     9.341
   -83.240	   -98.976	     3.964
   -55.381	   -76.574	   -15.073
   -50.886	   -92.997	    -1.021
   -61.989	   -80.343	     1.482
   -71.519	   -64.014	   -17.807
   -74.208	  -101.523	    -1.157
   -66.839	   -88.946	     6.990
   -54.202	   -79.461	   -11.622
   -62.444	  -100.700	    -6.883
   -73.885	  -103.696	   -12.262
   -63.758	   -91.929	    16.265
   -74.226	   -94.235	    -1.471
   -68.983	   -80.546	     8.562
   -57.947	   -89.754	    10.307
   -49.376	  -107.429	     7.537
   -41.794	   -83.502	    -7.839
   -61.384	   -87.677	     2.256
   -71.847	   -93.085	    12.326
   -72.114	   -81.638	    10.782
   -65.488	   -82.009	     4.182
   -66.330	   -82.308	     4.451
   -70.622	   -59.298	     5.100
   -71.206	   -76.693	     7.820
   -60.327	   -89.965	    -6.956
   -82.033	   -88.314	    -6.367
   -68.659	   -82.564	    -6.384
   -56.373	   -79.996	    -1.987
   -77.688	   -90.508	     0.521
   -74.670	   -82.334	    -0.226
   -74.119	  -114.893	    -1.808
   -74.240	   -84.470	    -0.776
   -81.164	   -90.220	    -7.286
   -65.186	   -91.639	     6.924
   -71.932	  -106.435	     7.274
   -50.081	   -86.037	    -6.781
   -70.093	  -118.120	    -4.488
   -53.370	   -85.756	    -1.166
   -70.040	  -105.872	    -1.846
   -67.115	   -79.930	   -11.671
   -57.564	   -68.130	    -6.873
   -59.243	   -65.662	   -11.028
   -54.148	   -72.394	    -6.629
   -61.486	   -64.738	    -3.444
   -53.690	   -61.816	     0.974
   -63.207	   -72.283	    -1.590
   -51.300	   -85.616	     0.369
   -58.251	   -69.872	     7.019
   -54.316	   -66.172	     6.852
   -55.041	   -48.593	    -2.600
   -64.932	   -78.406	     2.319
   -50.441	   -65.579	   -18.224
   -64.065	   -90.945	     3.110
   -76.850	   -76.844	    -0.644
   -78.117	  -126.867	   -17.050
   -75.917	   -91.217	     2.860
   -80.856	   -89.727	    -6.520
   -71.196	   -91.829	    -9.382
   -81.474	  -104.393	     3.985
   -63.819	  -101.951	    -8.691
   -71.760	  -126.919	    -6.382
   -62.297	  -110.665	    -7.023
   -95.153	  -116.672	     4.527
   -87.797	  -134.113	    -2.087
   -78.715	  -114.783	    10.496
   -70.691	   -90.231	     3.466
   -41.315	   -67.072	    -2.396
   -64.421	   -91.577	   -21.896
   -65.355	  -111.963	     8.091
   -74.603	  -136.164	   -19.875
   -67.928	  -109.137	   -10.803
   -59.965	   -93.662	   -10.874
   -58.483	   -88.723	   -13.607
   -40.239	  -100.114	     0.533
   -46.489	   -86.660	     6.171
   -71.793	   -93.047	    -4.754
   -63.069	   -74.258	     0.908
   -59.161	   -64.492	    -8.386
   -63.612	   -76.123	    -3.415
   -69.347	  -110.786	     5.164
   -84.550	  -101.054	    11.023
   -45.627	   -75.922	    -3.446
   -69.156	   -77.667	    17.098
   -62.527	   -73.823	    -3.477
   -58.521	   -91.522	    -2.000
   -67.696	   -85.744	     8.983
   -73.218	  -113.412	     9.249
   -55.565	   -76.099	    -9.098
   -44.920	   -88.722	    -8.853
   -75.320	  -109.718	     6.574
   -77.071	   -89.933	    -0.715
   -72.705	  -102.073	     8.622
   -73.529	   -92.746	     9.112
   -88.011	  -131.296	    -9.350
   -68.715	  -135.854	    -9.185
   -74.126	  -121.904	   -18.120
   -80.333	  -111.234	     2.015
   -61.144	   -72.016	     8.296
   -62.306	   -82.872	   -20.491
   -65.882	   -66.723	    -0.738
   -34.841	   -69.676	     9.867
   -57.019	   -93.654	    -5.698
   -56.870	   -78.615	     0.587
   -60.599	   -89.782	    14.256
   -89.610	  -125.380	   -14.384
   -67.194	  -105.766	     4.710
   -60.021	   -92.388	    10.301
   -62.755	   -88.577	     6.240
   -65.732	  -110.475	     4.725
   -76.777	  -112.876	   -10.432
   -65.699	  -135.515	   -15.829
   -79.233	  -126.424	    -8.268
   -76.306	  -146.806	    -0.633
   -93.683	  -124.669	    -1.852
   -41.261	   -64.138	    -1.907
   -74.433	   -86.213	    -5.992
   -54.867	   -69.036	    -1.244
   -69.005	   -66.196	    -2.864
   -62.599	   -81.104	    -9.772
   -54.954	   -79.413	    -3.565
   -53.406	   -75.439	     3.523
   -44.225	   -73.269	     1.538
   -69.188	   -71.323	    12.406
   -64.882	   -86.740	   -15.686
   -74.231	   -85.055	    -2.035
   -49.919	   -76.933	   -23.479
   -65.996	   -66.813	    -3.717
   -65.636	   -77.895	    -5.029
   -69.742	   -88.332	   -15.043
   -53.083	   -78.551	    -2.977
   -70.721	   -72.718	   -10.427
   -57.110	   -77.021	    -7.838
   -56.604	   -73.749	    -9.724
   -71.621	   -89.500	    -5.933
   -67.698	  -107.424	    -3.361
   -59.570	   -80.500	    -6.700
   -63.200	   -89.942	     3.321
   -65.169	  -133.263	   -14.343
   -74.060	  -132.939	     2.753
   -81.272	  -131.433	    -1.558
   -75.095	  -127.098	    -0.552
   -67.307	  -142.846	     0.130
   -78.320	  -108.023	    12.821
   -67.593	  -116.619	    -4.429
   -68.467	   -89.288	   -21.474
   -63.814	  -104.952	   -13.216
   -56.821	  -100.143	    -8.004
   -70.423	   -96.741	    -6.213
   -84.969	   -83.528	    -2.336
   -58.465	   -83.694	   -22.038
   -57.288	   -74.257	   -12.797
   -66.039	   -84.336	   -10.727
   -66.124	  -100.483	    -9.039
   -69.136	   -95.130	    -5.490
   -64.189	   -92.754	    -4.504
   -54.690	   -81.171	     5.072
   -58.517	   -78.040	    10.494
   -79.191	  -101.042	    -4.175
   -68.751	   -97.064	    -6.697
   -70.706	   -81.575	   -10.524
   -53.006	   -91.042	     7.339
   -52.247	   -95.287	     7.988
   -64.279	  -103.413	    -1.638
   -66.913	   -89.036	     7.572
   -34.476	   -74.134	   -16.060
   -66.219	   -64.511	    10.116
   -90.465	   -78.734	     8.268
   -50.495	   -73.773	    -3.802
   -50.423	   -88.072	    -4.796
   -68.322	   -90.171	   -10.838
   -71.430	   -69.818	    -4.439
   -50.257	   -75.710	    -1.533
   -64.179	   -55.810	    -1.969
   -60.315	   -85.446	     8.190
   -65.108	   -71.557	    14.756
   -59.322	   -73.587	    -7.141
   -65.974	   -78.610	    -1.186
   -57.562	   -85.655	     2.624
   -46.877	   -72.979	     0.002
   -60.430	   -88.727	    12.335
   -44.091	   -72.942	    -1.073
   -66.817	   -95.504	    -4.878
   -70.177	  -101.612	    -7.121
   -48.093	   -81.047	   -12.264
   -56.893	   -64.802	    10.250
   -64.119	  -100.109	    -3.306
   -72.944	   -92.658	    -1.131
   -89.134	   -98.978	    -2.302
   -72.975	  -130.142	    -8.950
   -64.693	   -98.027	   -12.336
   -88.369	  -114.099	    10.668
   -64.716	   -56.085	     1.358
   -67.864	  -104.109	   -17.144
   -71.867	   -74.682	   -18.288
   -65.796	   -76.966	   -31.265
   -53.253	   -93.282	    18.846
   -66.328	   -77.907	   -17.523
   -57.988	   -99.188	   -17.872
   -66.767	   -92.407	     6.645
   -40.451	   -86.654	    -6.071
   -60.133	   -96.994	   -11.569
   -68.472	   -80.693	     0.389
   -74.505	   -92.971	    -4.042
   -59.967	   -93.954	    -9.768
   -65.989	   -83.315	     1.414
   -53.759	   -73.064	    -5.432
   -67.640	  -115.520	    -8.362
   -75.910	  -121.861	   -19.242
   -69.226	   -97.275	   -12.723
   -79.540	  -111.460	     9.515
   -72.256	  -102.805	   -12.978
   -65.733	  -102.883	   -20.119
   -68.329	  -126.667	   -18.137
   -65.407	  -103.012	     4.489
   -71.236	  -121.750	    -8.329
   -72.918	  -125.956	    -3.352
   -70.179	  -111.292	   -15.568
   -89.784	  -130.753	    -7.309
   -83.060	  -101.901	    -1.252
   -65.571	  -136.112	   -14.439
   -71.897	  -118.693	    -7.075
   -46.447	  -102.159	    -8.593
   -57.641	   -92.203	    -7.197
   -60.083	   -96.698	    12.916
   -46.598	  -104.559	   -12.396
   -73.887	  -101.580	     5.190
   -71.719	   -77.695	   -11.040
   -62.502	   -62.310	   -23.608
   -78.322	   -95.507	     7.446
   -61.020	   -94.667	   -10.038
   -58.892	  -105.155	   -19.402
   -60.802	   -85.370	     7.244
   -69.514	   -73.194	    -7.777
   -59.519	   -99.989	     0.813
   -57.139	   -80.829	    14.215
   -47.190	   -92.801	    -5.202
   -55.053	  -100.688	    22.282
   -49.941	   -72.848	    12.117
   -59.805	  -104.282	   -12.019
   -73.562	   -92.293	     3.682
   -54.138	   -83.649	   -14.162
   -66.480	   -93.419	   -11.285
   -46.986	   -79.883	    -6.847
   -41.031	  -101.997	     8.173
   -69.537	   -80.135	     7.392
   -43.767	   -73.692	     6.988
   -58.307	   -79.825	   -28.101
   -56.082	   -99.169	    -8.249
   -56.997	   -82.865	     0.942
   -66.448	   -79.948	     0.246
   -58.457	   -68.583	     3.563
   -58.922	  -101.687	   -12.038
   -81.137	  -102.183	    -4.066
   -65.517	   -93.759	    10.343
   -58.427	   -96.064	    -3.145
   -58.899	   -85.216	    -4.382
   -52.590	   -77.264	     0.891
   -75.590	   -80.391	     5.886
   -74.244	   -85.478	     2.833
   -70.038	   -86.927	   -18.987
   -68.442	  -106.397	   -15.800
   -71.848	  -143.026	   -21.334
   -74.967	   -93.627	    12.134
   -48.976	   -81.661	    -1.803
   -57.788	   -89.488	     1.414
   -87.974	  -106.958	     0.445
   -59.233	  -101.071	    -7.518
   -58.866	   -94.464	    14.745
   -44.873	   -79.162	     2.075
   -48.195	   -74.920	     6.602
   -85.104	  -101.401	    11.311
   -70.382	   -77.278	   -14.237
   -76.372	   -86.209	    16.539
   -75.048	   -99.590	     7.427
   -58.136	   -92.802	    -1.816
   -67.286	   -76.867	    13.844
   -76.094	   -83.599	   -12.170
   -64.792	   -76.465	    -5.587
   -59.090	   -82.399	    -4.183
   -50.374	  -104.559	     0.808
   -63.596	   -99.221	     8.643
   -60.664	  -106.112	    -4.324
   -65.115	   -99.841	   -26.469
   -74.536	   -79.769	    10.610
   -61.995	   -75.498	    -9.299
   -61.767	   -74.989	    13.679
   -74.794	  -104.594	    -0.123
   -69.309	   -92.250	   -11.268
   -67.605	   -88.823	    -6.517
   -78.962	   -97.665	    -8.783
   -52.873	  -102.143	   -15.685
   -60.707	   -71.042	    -3.288
   -55.643	   -77.493	     9.182
   -66.793	  -104.073	    -1.479
   -48.268	   -63.112	    -6.836
   -61.590	   -84.914	    -2.350
   -58.935	   -76.553	     0.523
   -55.395	   -80.528	     7.492
   -51.606	   -74.111	     5.008
   -61.360	   -82.906	    -2.858
   -53.132	   -74.508	     0.633
   -55.032	   -73.413	     6.476
   -56.268	   -78.047	    -4.572
   -76.176	   -88.758	    -0.095
   -73.331	  -102.421	    -4.892
   -64.638	   -92.306	    13.511
   -56.075	   -93.291	   -20.009
   -84.129	   -89.883	     3.870
   -64.752	  -119.200	     4.843
   -70.942	   -98.199	    -9.735
   -57.777	   -76.852	    -0.880
   -65.020	   -84.743	     1.169
   -59.858	   -73.248	    -8.608
   -66.732	   -94.791	     4.558
   -58.856	   -73.883	   -13.709
   -73.235	   -71.274	    11.761
   -73.343	   -78.043	    -8.468
   -65.521	   -89.462	    10.377
   -57.349	   -77.353	    13.124
   -67.443	  -102.951	    -2.082
   -75.303	   -89.311	    -5.763
   -76.820	  -103.707	     2.281
   -72.746	  -117.572	   -15.139
   -62.287	   -95.603	     1.816
   -75.689	   -85.950	    -1.624
   -61.311	   -99.941	   -13.674
   -61.199	   -95.565	    -8.457
   -79.630	   -97.275	   -10.337
   -73.786	   -80.084	     0.834
   -48.389	   -97.541	    -7.795
   -78.772	  -104.710	   -12.506
   -75.450	  -115.144	   -14.795
   -69.610	  -111.755	   -12.677
   -74.427	  -115.860	     2.712
   -40.795	   -93.775	    -9.547
   -73.197	  -104.982	   -16.822
   -59.026	  -114.120	   -16.270
   -60.464	   -68.275	    -1.713
   -44.792	   -61.609	     2.038
   -64.803	   -76.771	     6.516
   -64.199	   -82.519	    -2.116
   -62.340	   -74.849	    -8.828
   -55.707	   -91.192	   -15.132
   -47.149	   -66.617	    -9.170
   -66.450	   -78.107	    12.601
   -84.213	   -88.546	     1.017
   -70.241	   -75.711	     2.875
   -41.023	   -74.846	   -13.267
   -72.061	  -112.127	     3.692
   -58.777	   -96.352	     2.193
   -73.673	  -124.464	    10.619
   -76.065	   -88.581	     2.300
   -72.808	  -112.867	   -19.567
   -64.919	  -125.494	   -13.743
   -76.624	  -113.323	   -13.213
   -71.003	   -98.030	   -13.994
   -63.938	   -59.727	    -5.456
   -58.703	   -73.343	   -11.383
   -49.891	   -69.512	   -10.803
   -56.501	   -73.519	    -8.602
   -47.577	   -63.552	     1.900
   -68.409	   -72.369	     8.970
   -63.036	   -80.408	    -5.318
   -82.515	   -76.218	   -14.302
   -79.310	   -93.967	     1.795
   -46.846	   -84.909	    -0.826
   -61.436	   -76.481	    -8.103
   -69.951	   -94.897	    -9.259
   -77.746	   -78.333	     7.792
   -46.867	   -82.317	     9.380
   -77.192	   -85.581	     1.356
   -46.960	   -73.742	   -11.866
   -52.187	   -72.462	     2.844
   -58.791	   -62.842	     6.050
   -47.525	   -91.574	    -5.690
   -58.187	   -65.914	   -13.197
   -68.666	   -70.151	    20.159
   -49.330	   -69.713	    10.235
   -52.546	   -65.240	   -13.557
   -60.663	   -77.460	   -17.441
   -61.583	   -96.270	    -9.579
   -69.871	  -128.073	   -23.401
   -71.641	   -73.108	     3.497
   -71.034	  -101.534	    -2.688
   -56.836	   -85.318	     6.281
   -57.873	   -73.549	     5.754
   -58.078	   -85.703	    10.559
   -59.722	   -70.378	   -15.078
   -65.796	   -65.065	    -0.627
   -57.697	   -68.717	    -6.978
   -56.054	   -58.566	     1.385
   -69.253	  -107.484	    -9.542
   -75.047	   -94.003	     7.953
   -72.775	   -97.589	    13.042
   -71.351	   -92.200	    18.882
   -49.276	   -85.514	    -1.092
   -61.119	   -89.059	     9.442
   -69.649	   -61.863	    -4.491
   -69.226	   -89.247	    -1.197
   -62.159	   -89.943	     4.148
   -64.215	  -100.952	   -10.107
   -58.090	   -84.124	    -8.679
   -68.063	   -68.186	    -6.719
   -64.069	   -62.387	    -3.957
   -50.115	   -68.163	    -5.667
