   -92.310	   122.143	    -3.179
  -112.713	   178.970	    -7.095
  -107.333	   177.886	    13.773
   -94.860	   163.016	   -12.318
  -122.764	   173.178	    13.887
  -113.489	   173.374	    -0.841
  -101.147	   168.207	    -1.827
  -116.300	   165.270	    15.175
   -90.563	   176.041	    -9.589
  -104.306	  -175.214	    11.899
  -113.859	  -178.368	    -2.462
  -109.209	   167.866	    18.149
   -95.454	  -158.535	     8.956
  -118.794	  -175.946	     8.397
  -107.506	   172.667	     7.893
   -88.307	   174.780	     6.953
  -121.273	   179.693	    -2.452
  -105.596	   174.474	     1.751
  -122.908	   170.948	    -5.454
  -131.340	   168.757	    -6.867
   -94.245	  -179.392	     9.336
   -85.446	   173.636	     1.487
  -114.606	   171.811	    11.248
  -117.106	  -172.923	    -5.681
   -97.636	  -174.767	    -3.891
  -119.902	   177.876	     7.333
  -117.586	  -179.384	     8.534
  -122.450	   176.197	    -0.246
   -88.428	   170.473	    -1.111
  -105.124	   169.027	   -16.940
  -112.179	   172.978	    -2.761
  -120.537	   165.581	     0.095
   -99.771	   178.828	    -8.932
  -112.631	   172.595	    16.043
   -84.760	   173.576	     5.217
  -106.680	   171.608	   -14.783
  -126.020	   169.876	    -3.152
   -95.090	  -177.057	    -4.741
   -89.784	   158.671	    10.233
   -94.600	  -177.934	   -16.067
  -122.497	   173.015	     5.489
  -116.985	   177.812	    -8.444
  -127.534	   176.680	    -6.913
  -130.035	   168.139	    -0.659
  -126.832	   170.179	     6.963
  -105.371	  -175.745	    -4.952
   -72.631	   168.902	     9.587
   -89.671	   179.936	    -2.221
  -109.361	   173.030	     2.788
  -122.944	   172.752	   -10.153
  -106.505	   163.578	     7.099
  -129.020	  -162.115	   -13.131
  -144.731	  -173.209	   -11.907
  -126.114	   164.829	   -16.238
  -126.529	  -179.110	    -1.283
  -123.961	   167.592	     8.471
  -121.126	   168.327	     2.299
  -107.703	   176.812	    22.765
   -97.964	   163.003	    -7.132
  -100.796	   173.303	    -0.331
  -127.865	  -173.930	     4.902
  -123.617	  -170.263	    17.442
  -115.864	  -172.981	     0.522
   -95.052	   170.156	    -3.870
  -129.373	   166.917	     1.113
   -92.360	   149.970	    -6.123
  -105.570	   163.629	     5.424
  -119.475	   169.900	     2.257
  -133.003	   170.685	    -4.045
  -110.887	  -169.798	    14.307
  -102.639	   172.121	     1.156
  -117.598	   173.526	     0.206
  -107.783	   175.076	   -10.292
  -118.489	   178.274	     0.568
   -98.086	   166.929	    -0.563
  -111.197	   175.294	    -1.639
  -118.625	   165.017	     5.719
  -125.154	   171.221	    -6.088
  -115.756	  -178.216	    12.304
  -129.458	   173.626	     4.701
   -92.166	   163.753	     7.109
  -108.054	   178.361	   -18.718
   -94.095	  -169.995	    -1.204
  -104.559	   170.817	     4.915
  -115.274	   155.090	    -7.821
   -91.333	   165.410	    14.848
  -127.805	   166.073	   -15.149
  -117.218	   167.516	     1.031
  -103.370	   167.586	   -10.839
  -103.678	   174.827	    -8.019
  -126.357	  -174.884	   -11.220
  -110.160	   166.625	    -5.590
  -149.912	   177.002	    12.957
  -117.751	  -178.062	    -8.942
  -115.281	  -169.890	   -10.453
  -105.023	  -171.774	   -16.835
  -107.270	   176.000	     1.914
  -117.146	   166.136	     9.804
  -111.489	  -164.154	   -17.868
  -112.301	  -179.879	     0.882
  -112.739	  -177.236	    -9.504
   -93.751	   173.826	     0.659
  -118.173	  -173.434	   -19.512
  -115.287	  -172.725	    16.406
  -138.628	  -171.480	    -4.151
  -102.489	   173.866	    -2.887
  -126.443	   166.554	   -16.619
   -94.761	  -171.124	   -14.136
  -117.835	  -160.357	    -0.098
  -132.532	  -174.019	     3.603
  -121.981	  -175.942	    15.283
  -128.348	   172.103	    -6.129
   -98.392	   173.247	     5.289
  -124.212	   173.365	    -3.005
   -94.352	   179.925	    13.390
   -94.465	  -173.474	    -0.694
   -93.042	   179.634	    -2.397
  -102.167	   166.064	     0.366
   -92.639	   147.865	     6.924
   -96.895	   178.565	     7.405
   -94.104	   163.468	     6.634
  -120.351	   176.210	     2.752
  -108.145	  -179.681	    -8.072
   -89.841	  -176.653	     2.679
  -133.323	   163.827	    -3.763
  -102.495	   165.778	    -7.351
   -96.755	   155.925	    10.077
  -121.022	   161.338	    -7.606
   -95.789	   169.154	    12.201
   -67.928	   166.985	    -1.575
  -108.785	   172.625	    14.134
   -88.569	   171.630	     5.277
   -95.890	   176.674	    14.113
  -121.582	   165.073	    13.165
  -119.228	   170.685	   -10.519
  -115.356	   168.246	     4.889
   -92.247	   175.192	    -4.382
   -96.370	   175.405	    15.011
   -97.451	   157.984	    -8.579
  -106.074	  -175.728	     8.993
   -91.139	  -164.475	    -3.532
  -107.069	   169.557	    -0.761
  -115.535	  -162.353	    11.397
  -111.173	  -175.345	     9.770
   -85.206	  -176.601	    12.738
  -111.420	   168.691	     2.758
   -98.058	  -179.887	    16.795
   -88.297	  -176.961	    15.096
  -108.774	   168.494	    16.519
  -100.668	   171.713	     1.248
  -107.884	   168.982	   -11.862
  -128.370	  -162.793	     3.002
  -110.089	   179.895	    -6.332
  -111.881	   174.149	     9.642
  -102.731	   173.283	    11.250
  -101.516	   178.525	     4.035
  -103.097	  -175.827	     3.728
   -96.267	   178.420	   -11.277
  -112.547	  -152.946	    -8.802
  -119.758	  -170.932	    -6.530
  -110.822	  -175.297	     1.514
   -92.628	  -164.484	     0.183
   -99.149	  -169.918	   -10.392
  -110.764	  -175.467	   -10.775
  -130.747	   172.997	   -35.127
  -132.879	   179.004	     3.177
  -130.295	   170.198	    -3.955
  -124.997	   159.611	    -1.796
  -132.397	   175.728	    -9.733
   -83.717	  -169.703	    -0.049
   -97.532	   168.126	    15.606
  -104.876	   153.872	    -7.786
  -117.564	   158.702	    -5.727
   -97.152	   171.697	     2.846
   -86.289	  -176.805	   -11.777
   -90.261	  -169.579	     8.637
  -113.309	  -176.929	    16.616
  -131.840	   178.671	    -0.593
  -113.000	   173.293	     8.302
  -108.676	   153.789	    14.264
  -104.731	  -168.329	     5.532
   -98.500	  -179.811	    -8.387
   -99.387	   164.344	     3.738
  -113.262	   174.627	    14.130
  -131.120	   165.702	    10.142
   -96.647	   163.050	    -6.256
  -102.205	  -170.777	   -30.079
  -106.421	   171.971	   -15.227
  -115.933	  -177.588	    -6.592
  -130.919	  -175.123	   -16.840
  -140.641	   174.993	     7.965
  -119.385	  -163.964	   -16.984
  -103.543	  -174.661	    -0.476
  -103.231	  -179.404	   -11.598
  -116.946	  -177.013	    16.237
   -74.261	   171.073	    23.999
  -102.021	  -179.001	     2.206
  -110.273	   172.006	    -2.815
   -83.129	  -175.222	     1.756
   -89.757	   176.623	    -3.160
   -83.836	   172.217	    -8.293
  -123.504	  -167.963	    -8.461
  -145.828	   163.867	    22.103
  -118.286	   175.767	     2.547
  -112.565	   166.825	    -8.439
  -115.015	   168.390	    -5.647
   -97.299	   171.284	    -8.500
  -100.027	   165.533	    14.911
  -105.982	   176.455	    10.884
   -84.590	   173.041	    -7.546
  -111.367	   157.837	   -13.766
  -105.245	  -170.883	   -12.012
  -109.351	   169.198	     2.039
   -86.973	   174.979	   -18.370
  -124.111	  -174.005	    11.082
  -100.973	   170.839	     4.677
  -114.626	   164.170	   -10.594
  -103.632	  -173.650	   -13.456
  -102.624	   173.184	   -12.223
   -96.417	   171.846	    -7.488
  -128.460	   164.066	    11.017
   -97.460	   160.499	    11.387
  -126.321	  -162.055	     1.972
  -124.088	   167.289	     0.148
  -109.758	   156.874	    -5.641
   -98.892	  -166.457	    -7.305
   -89.245	  -169.435	    -1.154
  -125.371	  -172.769	     7.106
   -91.206	   168.655	    10.764
  -118.349	   160.523	   -16.005
  -105.824	   164.387	    21.489
  -133.043	  -178.822	     5.097
   -88.673	   161.985	     5.311
  -111.302	   178.388	   -17.555
  -127.607	   174.714	    20.214
   -94.843	  -173.600	     7.664
  -117.793	  -164.568	    -9.317
  -107.052	  -177.336	    -0.867
  -103.959	   157.488	    20.881
  -108.876	   163.804	    24.585
  -115.992	   153.275	     8.732
   -93.609	   163.923	   -15.081
   -95.036	   171.731	    -3.071
   -90.242	   176.485	     5.643
  -115.004	   177.646	    -8.712
   -89.906	   175.116	    -3.609
  -121.464	   169.401	     7.173
  -108.672	   169.807	     9.443
  -114.048	   179.800	    15.368
  -103.755	   166.073	    -0.955
  -105.226	   170.738	   -15.764
  -105.842	   161.864	     9.246
  -111.633	   167.832	    13.181
  -108.964	   179.578	     9.040
  -124.525	   158.517	     3.689
  -124.688	  -178.929	     4.657
  -115.715	  -174.924	    -0.809
  -121.002	  -174.526	    16.838
  -154.356	  -173.575	     4.164
  -125.127	  -176.871	   -10.399
   -89.333	   160.412	    12.812
   -86.966	   160.334	     3.660
  -117.955	   177.585	     3.211
  -115.163	   169.010	    -3.112
   -94.212	   175.523	    22.747
   -99.726	  -179.014	     8.901
   -69.431	   176.721	     9.178
   -86.670	  -175.243	    -9.869
  -126.618	   162.440	     8.172
  -101.655	   172.513	    -7.901
  -130.134	   176.251	    -4.892
  -103.372	  -169.787	   -19.253
  -127.883	   178.877	     4.902
  -107.468	  -161.201	   -14.707
  -124.457	  -165.390	     4.536
   -99.366	  -174.167	   -11.367
  -114.147	   170.025	     1.769
  -143.135	  -178.499	    -0.686
  -115.806	  -159.744	     5.131
  -119.360	  -172.707	   -10.615
   -81.836	  -175.644	    -1.865
   -81.975	   179.123	     8.085
  -122.613	   175.817	   -14.968
  -112.529	  -164.296	   -15.019
  -124.589	   174.819	     1.179
  -115.279	   177.424	    -5.231
  -117.838	   176.322	   -14.912
  -133.177	   158.576	    -6.475
   -97.032	   169.239	     7.533
   -93.194	   174.891	    -0.597
  -101.191	   165.633	    -4.249
  -116.934	  -177.735	   -14.660
  -115.243	   164.948	    -6.148
  -126.635	   168.988	    11.281
  -117.179	  -164.895	    -1.877
   -96.698	  -169.986	     8.759
   -90.451	   168.154	     3.382
  -112.646	   169.799	     1.806
  -115.969	  -177.903	    -4.855
  -118.979	  -174.700	     6.165
  -113.735	  -179.386	    -6.194
  -105.884	   163.927	     4.842
   -89.077	   159.354	   -22.117
  -110.481	   175.034	    12.361
  -102.819	   175.051	    -4.042
  -132.045	   173.876	   -17.373
  -104.137	   177.340	   -21.559
  -102.532	  -174.185	    -7.313
  -103.384	   179.018	     1.759
  -109.325	   175.430	     6.804
  -103.453	   172.585	    13.692
   -72.690	   167.713	    -6.694
   -99.411	   170.199	    -9.449
  -112.190	  -173.728	    -4.138
  -120.783	   169.850	     1.919
  -121.766	   166.700	   -10.873
  -120.600	   175.720	    -6.882
  -106.038	   175.078	   -11.301
  -114.474	  -175.267	    -8.976
  -119.777	   166.870	    -2.027
  -121.025	   174.021	    -7.105
  -113.994	  -178.005	    -9.314
   -93.908	   158.993	    -5.722
  -101.056	  -179.807	     1.847
   -93.976	   172.267	    19.693
   -86.261	   176.331	     8.411
  -118.865	   179.658	    -1.216
   -90.666	   175.853	    12.718
  -116.804	   160.641	     1.206
   -87.045	   166.924	    -6.557
   -91.863	  -175.841	   -17.015
  -104.853	  -176.578	    16.967
   -84.579	   170.830	   -14.586
   -89.818	   177.080	     2.309
   -84.911	   158.596	     4.561
  -109.792	   163.265	    15.542
   -88.245	   169.602	    15.352
   -88.859	   174.260	   -18.492
  -105.219	   176.499	     3.415
  -124.026	  -170.324	   -25.238
  -139.006	  -171.378	    -5.715
  -127.723	  -175.218	   -16.887
  -135.072	   178.097	     0.400
  -150.748	   177.570	   -15.111
  -114.417	   167.826	    11.674
   -98.448	  -177.801	    -4.975
  -120.373	   177.354	     7.391
  -125.449	   175.820	    13.922
  -121.390	   172.442	    -6.674
   -92.917	  -176.707	    -8.963
  -116.523	  -163.571	    -6.650
  -109.563	   179.893	     5.247
  -125.646	   173.029	   -18.483
   -99.756	   175.528	    -9.055
  -109.781	   170.510	    -6.533
  -101.043	  -169.382	   -11.698
  -122.279	   178.675	    25.901
  -102.945	  -161.508	    -8.763
  -102.845	   167.597	    21.665
  -101.163	  -156.391	     9.647
  -101.777	  -166.915	    16.259
  -131.460	   158.732	    -2.556
  -139.171	  -166.551	     9.459
  -107.336	  -175.424	    14.781
  -105.619	   176.494	    -2.549
   -90.663	  -172.107	    -7.838
  -105.535	   167.642	   -33.688
   -94.386	   167.201	    20.230
  -108.114	  -169.902	    10.823
  -102.982	   178.173	     3.372
  -104.263	  -170.844	     5.358
  -128.922	  -172.233	     3.134
  -100.391	   174.878	    -9.286
  -132.438	   171.330	     3.428
  -131.100	  -172.969	    -6.715
  -106.865	  -176.785	     4.323
  -119.394	   164.371	    -4.991
  -130.098	   169.679	     4.747
  -118.184	   171.072	   -19.342
  -125.339	   172.210	    -8.550
  -130.174	   176.727	    -1.766
  -108.392	   168.367	    14.118
   -96.101	   171.938	    -7.295
   -97.544	  -172.928	    -4.313
  -123.404	  -170.797	    14.115
  -101.056	  -174.158	     3.114
   -95.342	  -157.161	    -8.690
   -90.368	  -156.389	    16.673
   -95.695	  -175.236	    14.406
  -106.596	   172.324	    14.703
   -84.899	   178.957	     5.278
  -127.661	  -165.078	     2.477
   -96.357	   177.134	   -21.429
  -106.422	  -160.497	   -21.790
  -113.939	   172.509	    -7.245
  -114.186	  -177.614	     7.470
  -133.137	   166.002	     4.537
  -127.394	   174.989	     3.003
  -121.117	  -176.281	   -24.751
  -133.591	   174.819	    -7.350
  -120.639	   167.660	   -16.406
  -108.247	  -173.498	   -25.877
  -109.483	   169.911	   -35.066
  -126.288	  -173.044	    -5.114
   -93.073	   177.940	    -9.144
   -99.015	   173.257	     4.750
   -83.786	   166.338	    -4.047
  -119.932	   171.791	     5.147
  -102.165	   172.609	    15.350
  -111.804	   160.355	     7.495
  -124.869	   165.218	   -13.484
  -105.135	   173.499	    -9.638
   -91.375	  -171.079	    -2.845
  -100.553	   171.271	     6.282
  -126.558	   165.580	     4.001
  -117.395	  -174.517	     4.917
  -102.480	  -172.958	     5.396
  -105.276	   178.444	     2.613
  -121.264	   174.933	     1.330
  -130.321	   172.912	     5.260
  -105.932	  -169.591	    -7.322
  -120.325	   178.535	    -2.821
  -129.971	  -170.899	   -16.380
  -122.438	  -166.626	   -10.381
  -144.559	  -179.441	   -15.172
  -127.536	  -179.842	    -0.113
   -96.544	   169.640	     4.847
  -105.306	   160.712	    25.500
   -97.217	   178.171	    17.931
   -96.816	   170.416	    -2.725
   -86.390	   172.773	     6.294
   -98.507	  -175.869	   -20.510
  -107.675	   173.070	    -2.349
  -120.298	   179.198	    11.434
  -129.296	   177.651	    -6.795
   -92.207	   157.620	    -2.086
   -85.878	   167.937	     4.080
  -108.293	   172.421	    -8.134
  -123.207	   176.881	   -11.026
  -136.996	   170.590	   -18.256
  -128.187	   176.508	     4.879
  -106.674	   174.101	    -6.106
  -100.312	  -178.655	    -7.755
   -88.654	   178.484	     1.779
  -100.340	   173.168	     6.873
  -112.897	   173.830	   -14.074
  -129.316	   170.723	    10.670
  -111.517	  -174.939	     1.214
  -112.145	  -170.886	    -7.104
  -100.654	   179.358	    -1.910
  -125.801	  -176.842	   -24.698
  -101.899	   172.914	   -16.862
   -88.246	   168.976	    -7.201
   -93.170	   162.192	     3.157
   -96.092	  -177.281	     7.355
  -110.954	  -177.901	    32.481
  -123.277	  -178.409	    17.116
   -98.818	   169.164	   -14.111
  -115.071	   177.129	   -20.986
  -108.205	  -168.431	   -17.034
  -114.172	  -169.775	    17.919
   -98.358	  -162.079	    12.919
   -98.101	   170.391	    17.914
   -85.927	   175.257	     0.698
  -101.517	  -178.820	    -7.997
  -122.161	   175.511	     6.213
  -119.652	  -174.007	    -2.895
  -103.758	  -179.652	     6.827
  -114.858	   174.868	     6.063
  -110.024	  -174.933	    -5.526
   -95.171	  -168.425	    16.859
  -110.920	  -174.481	     1.968
  -102.137	   175.519	     4.586
  -100.339	   171.374	    17.559
  -103.972	   164.591	    -7.931
  -115.896	   176.427	   -13.688
  -118.800	   179.013	    -6.381
  -116.162	   170.212	    -5.673
  -110.383	   175.315	     9.230
  -135.064	   167.008	     6.448
  -103.943	   175.837	    10.844
  -100.752	   169.289	    14.126
  -110.800	  -168.025	    12.787
   -89.763	   162.617	    -0.253
   -78.746	  -172.692	     7.102
   -95.407	  -178.369	     3.686
  -128.420	   170.902	    -3.589
  -116.529	  -177.908	    -4.374
  -116.901	  -168.824	    -3.593
  -114.015	   177.735	     2.082
  -102.953	   164.852	     4.731
   -97.894	  -178.267	    -2.669
  -105.895	   173.605	    -0.231
  -122.361	   171.826	    -3.736
  -132.587	  -179.141	    -1.174
  -121.051	  -175.364	   -16.659
  -118.604	   179.699	    -5.349
  -102.038	  -177.195	     6.485
  -100.873	  -173.245	    -6.648
  -105.143	  -179.762	    -4.070
  -112.478	   171.079	    -0.714
  -134.678	   164.028	     6.561
  -103.821	   174.442	     3.783
   -99.535	  -171.601	     7.853
  -105.831	   175.512	    17.599
   -97.987	  -174.436	    -0.278
   -85.187	   165.689	    -2.078
  -102.311	   165.605	     6.483
   -96.163	   178.417	    15.709
   -77.148	   176.127	    -5.311
   -90.439	   167.849	    -5.650
   -97.589	   173.154	     1.320
  -141.790	   179.533	    15.115
  -134.857	   173.961	    -9.331
   -90.021	  -177.301	    -2.363
   -96.330	  -171.956	    11.642
  -135.029	  -175.839	    18.367
  -123.904	   179.412	    -5.145
   -91.148	  -179.878	   -12.052
  -108.094	   170.850	     6.729
  -129.170	  -179.190	     4.753
  -107.355	  -177.046	     3.067
  -100.628	  -179.392	    13.996
   -99.368	  -166.720	    12.460
  -110.348	  -173.024	   -17.913
  -111.733	  -163.179	    -5.417
   -94.464	   166.111	     3.420
  -108.358	   173.969	    10.151
  -100.443	   168.568	     3.173
   -88.060	  -179.851	     0.182
   -82.561	   163.524	    -6.423
  -123.324	   165.145	   -10.545
  -124.959	   159.035	     4.041
  -104.298	   164.088	   -10.325
  -103.434	   171.481	    -5.635
  -117.521	   179.425	    -2.130
  -104.461	   168.006	     4.252
  -105.895	   174.085	    15.590
  -108.079	   166.888	    -1.988
  -109.161	   153.074	    -5.307
  -120.708	  -178.830	     5.196
  -125.223	  -170.847	    -2.177
  -102.866	   159.078	    -5.659
  -111.326	  -169.693	    -0.064
  -124.183	  -174.333	    11.845
  -122.949	   151.362	     9.224
  -110.414	  -174.788	    -6.229
  -105.832	   161.138	     3.608
  -105.100	   175.933	     8.874
  -103.959	   171.089	    -0.952
   -98.915	   162.239	     5.397
   -83.673	   159.847	    -1.565
  -122.714	   166.304	    13.536
  -133.576	   168.061	    -4.320
  -108.652	   160.553	    13.453
   -87.470	   167.540	    21.415
  -102.177	   179.986	     1.130
  -108.499	   172.276	     3.587
  -104.304	   158.515	    -4.151
  -110.620	  -169.073	     4.281
   -74.365	   163.546	     3.439
  -128.532	  -176.307	    16.001
  -103.714	  -166.722	    -9.225
  -114.081	   174.993	   -18.134
  -102.795	   174.633	    -0.736
  -108.503	   177.885	    -8.457
   -95.308	   174.210	    14.458
  -108.899	   172.554	     2.510
  -118.289	   177.002	    -1.122
  -108.840	  -178.660	   -11.457
  -142.004	  -178.835	    -8.612
   -87.002	   169.076	    -0.403
  -112.816	   166.445	    14.298
   -84.371	  -178.075	     2.057
   -84.100	  -167.087	    -7.572
   -90.098	   179.752	    -0.005
   -98.058	  -175.418	     1.014
  -127.223	   179.337	     8.481
  -124.431	   155.910	     0.974
  -133.738	   162.196	   -13.660
  -115.708	   176.267	    -4.359
  -135.262	  -179.549	    -6.142
  -123.685	   173.990	     4.802
  -110.246	  -178.658	     2.042
  -126.416	   170.264	     0.798
  -110.031	   166.413	     1.779
   -98.359	  -172.861	    -8.521
  -107.500	  -174.242	    -2.488
  -123.867	   175.237	    12.668
   -99.682	   168.672	    -7.670
  -122.188	   172.336	    10.917
  -113.327	  -178.808	     9.575
  -102.168	   174.320	    -5.288
  -100.010	   173.041	     2.572
   -84.752	   175.121	    -4.794
   -86.001	   178.737	     8.907
   -82.650	   165.467	     7.052
  -103.246	  -173.392	    19.397
   -76.372	  -175.408	    -9.864
   -86.819	   157.976	    -2.510
   -94.054	  -177.554	    12.503
   -99.234	  -177.127	    -7.091
   -99.307	  -178.327	     3.789
  -137.280	  -167.047	    16.195
  -117.700	   177.090	     5.851
   -85.460	   164.750	     9.789
   -93.827	   175.854	    -9.964
   -94.307	   167.395	   -15.754
   -84.482	  -179.041	   -14.966
   -94.733	   178.164	   -14.757
  -116.028	  -156.620	    -8.967
  -112.543	   166.945	   -26.866
   -89.021	  -178.752	    11.618
   -98.068	   171.879	   -11.007
   -93.385	   160.950	    12.579
   -87.776	  -171.599	    -8.322
  -117.819	  -174.749	     3.299
  -124.692	   165.152	    -2.146
  -122.805	  -178.201	   -11.441
  -106.749	  -175.212	    -1.825
  -116.750	   173.624	     0.885
  -110.042	   178.634	    -5.245
  -107.082	   162.141	    10.296
  -105.355	   158.846	   -23.401
  -105.160	   167.134	     7.654
  -109.069	   171.795	   -20.274
  -113.376	   177.218	    -0.595
  -107.798	   169.490	   -15.691
  -125.727	   179.303	    -3.371
  -107.089	  -174.180	     9.304
  -118.833	   176.691	     6.926
  -114.865	  -177.106	    -1.933
  -131.352	   172.018	    -3.379
  -116.674	  -175.377	     2.643
  -122.042	  -167.827	   -18.867
  -107.784	  -169.244	     4.518
  -106.957	   171.090	    -8.797
  -106.077	   171.907	     6.607
  -144.453	  -158.179	     4.769
  -105.959	   176.365	     0.420
  -107.625	  -175.365	    13.817
  -116.667	   173.308	    10.453
  -105.934	  -178.664	     1.860
  -114.966	  -176.668	    -8.452
  -102.096	   174.060	   -26.466
  -119.952	  -178.162	    -5.497
   -93.644	   168.857	   -12.102
   -87.544	  -179.067	   -11.156
  -107.108	   172.672	    -7.169
  -104.315	   163.414	     4.778
   -90.206	   176.081	     5.023
  -102.392	   177.720	    11.673
   -91.548	   170.815	     2.521
   -99.426	  -168.541	   -10.250
  -136.975	  -171.408	     0.060
  -127.615	  -163.385	    -3.720
  -106.533	   177.959	    -1.786
   -94.438	   171.109	    -2.310
  -103.441	   161.669	    -6.319
  -112.358	   169.253	   -14.133
  -110.661	  -175.834	     5.726
  -126.662	  -176.129	    -2.009
  -152.286	  -173.165	    -1.713
   -99.277	   179.218	    11.995
   -92.565	   177.762	    -5.393
   -89.437	   170.903	   -12.223
  -109.883	   167.873	    -4.052
  -131.774	   174.564	   -12.197
  -129.011	   166.735	     2.657
  -125.070	   172.348	    -3.821
  -139.228	   164.587	   -17.530
  -111.762	  -173.349	    -9.631
  -116.589	   163.998	    -5.135
   -75.089	  -179.391	   -20.372
  -113.205	   172.861	    -4.376
  -108.324	   173.560	     4.849
   -99.297	  -179.577	    17.822
  -105.199	   175.054	     6.366
   -90.123	   167.768	     9.354
   -81.078	  -172.976	    -3.625
   -91.475	  -153.062	     2.743
   -90.142	   175.882	    13.737
  -105.334	   158.929	     3.450
   -90.230	   167.236	    -7.404
  -105.969	   178.355	    -1.928
  -146.817	  -177.677	     2.476
   -91.587	   161.995	    -5.890
  -110.624	  -178.027	     0.136
   -75.885	   150.924	    10.984
  -116.940	  -175.277	     3.634
  -131.927	  -177.151	   -15.095
  -140.816	  -179.338	    -0.737
   -93.408	   179.907	   -14.817
   -93.614	  -176.272	    12.057
   -99.083	   158.484	    27.298
   -96.805	  -178.669	   -10.383
  -122.980	   170.406	    -6.221
  -113.853	   169.109	     2.842
   -97.878	   169.432	    -1.536
  -116.863	  -175.716	   -15.339
  -129.090	  -173.830	    -6.363
  -111.160	  -168.349	   -17.434
   -98.577	  -166.061	   -21.850
  -118.658	  -163.041	   -19.339
  -125.720	  -175.311	    -3.499
  -120.718	   161.856	   -18.538
  -136.295	  -175.921	    -5.206
  -131.850	   177.587	    -3.353
  -114.089	   175.529	     1.707
   -96.036	  -174.853	    -6.587
  -120.236	  -179.600	     1.334
  -111.244	  -157.919	    11.606
  -123.969	  -170.461	     4.826
   -80.048	   165.725	    -6.827
  -102.499	  -178.045	    -1.724
  -127.410	  -178.921	    21.840
  -112.091	   173.783	    -2.359
   -98.333	   177.990	   -22.255
  -135.098	  -170.770	    -1.492
  -124.341	   177.948	     7.976
  -100.286	  -170.045	    -7.457
  -124.953	   174.620	    -0.811
   -91.283	  -161.748	   -11.292
   -86.973	   170.697	    10.617
  -112.354	  -171.705	    -9.885
   -85.566	   176.736	     8.340
   -68.588	   167.583	    -6.884
   -83.609	   177.326	    -2.456
  -118.495	   165.289	    11.016
   -81.800	  -167.933	    10.070
  -119.192	   169.741	     5.147
  -119.141	  -176.427	   -23.493
  -114.713	  -173.258	   -10.358
   -92.031	   162.400	   -12.177
  -122.530	   155.060	     6.796
  -123.756	   169.984	     8.937
  -107.558	   168.441	    -0.644
   -97.452	   167.876	   -11.716
  -102.545	   156.682	     2.094
  -109.476	   179.986	    10.053
  -130.015	   163.862	    -2.726
  -100.226	   168.818	    -8.643
  -101.682	  -171.946	    -6.081
  -102.797	   168.835	    -4.116
  -103.769	  -176.998	   -16.401
   -97.368	   166.784	     6.713
  -112.407	   153.641	    10.201
  -117.536	   178.063	     3.200
  -117.774	   170.627	    -4.948
  -102.271	   177.847	    -5.886
   -86.006	   159.293	     8.138
  -101.254	  -159.347	    12.156
   -82.146	   166.652	    -0.908
  -111.514	   177.270	     4.804
  -100.163	   163.271	     3.173
  -147.394	   179.335	     3.612
  -119.618	  -170.401	   -21.158
   -93.714	   179.134	    11.500
   -99.114	   167.081	   -17.894
  -113.841	   158.362	    -1.580
  -122.689	   168.126	    -0.482
   -86.405	   171.854	     7.622
   -90.402	   172.241	    16.642
   -82.962	   174.656	    -4.387
  -129.088	   169.301	    19.192
   -99.616	   176.103	     0.897
  -113.246	  -166.109	    -4.954
   -93.583	  -169.813	     5.544
   -95.399	   166.189	    17.159
   -90.808	   165.034	    11.940
  -116.109	   171.692	     8.809
  -110.109	  -174.647	    12.005
   -91.348	  -179.626	     3.440
  -107.547	   167.879	     9.612
   -96.563	   177.648	    -9.410
  -116.942	   155.492	   -14.258
  -104.172	   176.047	   -16.535
  -121.415	   159.595	   -26.335
  -100.608	  -156.797	     2.134
  -136.695	   173.076	    -2.546
  -128.320	   164.739	     2.951
   -98.364	  -177.152	    -4.240
   -97.958	   169.751	   -10.417
  -109.231	   161.334	    -2.242
  -105.000	   172.101	    -4.033
   -95.376	   178.026	    -4.910
  -122.914	  -167.202	    10.832
  -105.796	  -175.225	   -13.463
  -133.319	   168.100	   -18.147
  -100.990	  -173.965	   -27.720
   -89.598	   173.476	    -4.492
  -104.106	   157.770	    -6.113
  -100.302	  -175.968	    -3.580
  -120.368	  -170.122	    -6.934
  -110.611	  -178.812	     4.851
   -96.570	   176.105	     0.855
   -85.875	   167.738	     1.534
  -103.767	   162.082	     2.090
   -98.204	  -178.196	     2.962
   -84.030	   176.857	    -9.221
  -126.370	   178.999	   -13.401
  -136.161	  -178.866	   -10.060
  -118.244	  -171.669	     7.506
  -117.298	   155.426	    -4.109
   -96.449	   174.110	    -8.058
  -136.643	   169.351	    18.677
  -122.277	   177.765	    -0.955
   -95.739	  -176.120	    -7.312
  -122.236	   172.134	   -14.143
  -106.312	  -172.583	    -9.271
   -82.696	   157.980	     6.780
   -71.928	   171.421	    -1.815
   -82.339	   178.769	    17.034
  -107.486	  -178.085	    -2.807
   -84.246	   170.990	    -8.506
  -126.698	   169.766	    -7.520
  -109.690	   177.594	     5.194
   -97.881	   166.893	    -2.954
   -91.660	   175.163	    -8.053
  -113.112	   169.456	    -3.045
  -102.216	  -169.903	   -12.223
   -81.117	  -173.112	    -2.188
  -137.368	   171.038	     3.383
  -120.593	   168.601	    -2.453
  -104.407	   168.291	    -8.504
  -121.660	   160.667	    -0.737
  -111.569	   178.332	   -10.042
  -119.216	  -166.236	     2.330
  -109.656	   172.605	     4.744
  -111.345	   165.451	     4.125
  -122.425	   172.713	    -6.401
  -111.820	   174.656	    15.127
  -103.563	  -144.966	    26.390
  -141.346	  -172.621	     0.335
  -129.568	   160.293	    -1.952
  -117.395	   175.989	   -24.050
  -135.219	   179.873	    -9.168
  -105.409	   175.259	    14.172
  -104.678	   170.746	   -17.819
  -140.328	   173.154	     4.047
  -110.476	   176.033	    -6.220
   -92.548	   161.248	   -14.469
  -138.630	   171.656	    14.241
  -101.490	   170.781	    23.118
  -103.929	  -159.611	    -4.768
   -95.226	  -175.968	   -11.412
  -100.837	  -174.289	    -5.345
  -116.607	   169.837	    24.605
  -122.065	  -178.559	    -0.704
  -103.167	  -177.398	   -10.892
  -120.549	   169.219	   -24.011
  -110.633	   170.032	   -13.429
  -121.275	   165.410	    -5.164
  -102.599	  -156.841	   -11.899
  -110.113	  -175.869	    -4.516
  -127.108	  -170.383	    -5.982
  -109.703	   176.074	   -13.902
  -139.659	  -170.995	    -8.042
  -134.394	   168.522	    -6.583
  -134.145	   170.987	     6.120
  -117.415	   176.817	     2.022
  -106.706	   179.868	    -0.426
  -121.297	  -170.143	   -15.878
  -114.992	  -176.023	    -4.372
   -93.195	   160.266	   -14.142
   -95.177	  -168.441	    -7.205
  -100.413	   168.108	   -10.981
   -99.165	   166.319	   -17.012
  -114.230	   168.598	    12.021
  -117.101	   172.876	   -15.084
  -122.036	   155.730	    -9.416
  -106.283	   168.421	    -3.357
  -129.688	   166.011	    -0.787
  -140.550	   165.073	    -3.218
  -129.207	   174.200	    15.088
  -107.389	   178.291	    -1.212
  -115.494	   165.164	   -10.192
  -121.457	   179.956	   -19.460
  -112.398	   174.244	     4.936
  -103.548	   177.465	    13.947
  -125.452	   178.560	    11.700
  -106.636	   168.007	   -13.163
  -119.889	  -176.196	    21.879
  -117.613	   162.625	     5.742
   -83.558	   178.972	     1.063
  -102.961	   177.715	     9.239
  -119.169	   177.118	     0.957
  -130.269	   163.560	     4.063
  -108.067	   166.985	     3.317
  -106.210	   169.410	     9.155
   -98.043	   168.696	    -0.901
   -93.312	   175.944	     8.811
  -135.440	   176.513	     1.511
  -122.637	  -177.910	     6.158
  -109.553	  -179.682	     6.295
   -96.843	  -174.096	    15.206
   -88.103	  -166.128	   -17.444
   -97.632	   176.881	    19.123
  -124.491	  -179.302	     6.936
  -127.367	   170.468	    -2.139
  -142.789	  -173.455	     4.376
  -131.083	   179.993	    -8.959
  -114.528	   156.026	    17.092
  -115.812	   160.104	    -8.604
  -124.640	   160.355	    -1.997
  -123.162	   171.411	    -0.200
  -149.799	   167.836	     5.158
  -130.211	   160.867	     1.046
  -137.983	   177.102	    -1.217
  -112.952	   178.124	    -6.156
  -114.853	   166.183	    -8.348
  -101.497	   168.013	    -5.748
  -112.531	  -175.764	    -6.765
  -103.366	  -178.400	     5.472
   -95.503	  -169.571	    -9.592
  -143.375	   177.150	    -8.625
  -115.778	   155.851	    -5.032
  -119.511	   166.943	    -9.150
  -107.166	   172.358	     8.427
  -122.861	   165.279	     3.420
  -132.426	   159.260	     9.170
  -109.888	   170.365	   -12.215
  -102.032	   173.814	    14.314
   -88.362	   173.050	    -6.645
  -114.495	   174.033	    -2.727
   -87.688	   177.229	    -3.381
   -94.709	   173.206	    19.920
  -114.852	  -173.047	    -8.881
  -129.715	  -176.889	     2.559
   -91.660	   179.899	    -7.471
  -140.083	   176.520	    -0.203
   -97.769	   174.807	     4.419
   -81.684	   161.398	    -0.782
   -96.661	   161.294	     4.953
   -82.984	   162.697	     5.376
  -116.742	   160.503	    -9.726
  -119.431	   168.560	     5.239
   -83.539	   163.909	    11.935
   -95.096	   165.837	    -2.646
   -87.730	  -178.882	    -2.966
  -100.296	   168.340	     2.412
  -109.927	  -176.538	    -0.425
  -114.126	   179.746	     0.296
   -99.118	  -174.540	   -16.541
  -111.026	  -159.185	    -4.509
   -93.944	   179.724	    10.242
  -111.136	   179.944	     6.255
  -100.036	  -173.254	     3.235
  -108.588	   157.403	    11.183
  -116.201	   161.983	    -1.234
  -102.152	   168.395	     8.577
   -81.302	   173.465	    25.430
  -110.539	  -174.913	    12.791
   -80.560	   179.661	     2.631
   -89.404	   163.820	    -2.893
   -89.003	  -178.195	     9.897
  -106.193	  -178.124	    25.800
  -107.210	  -176.764	     5.349
  -106.070	   162.219	    -2.974
   -96.135	   178.796	   -32.977
  -122.507	   173.151	    -1.526
   -90.697	  -172.858	   -11.697
  -105.393	   170.837	   -12.131
   -98.639	   168.100	     1.874
  -118.274	   161.968	    -5.849
  -109.438	   168.141	   -21.520
  -124.678	  -175.693	    12.836
  -123.569	   161.096	    -2.655
  -131.035	  -168.732	     2.903
  -111.137	   176.047	    -8.323
  -116.856	  -172.189	    -1.456
  -132.371	   173.933	    -6.573
  -122.336	  -178.898	     1.615
   -72.453	  -178.058	   -13.933
  -102.159	   166.197	   -16.485
   -98.267	   171.003	    14.477
  -101.968	   157.387	     6.859
  -121.211	   170.524	     2.429
  -105.562	   159.620	    -3.026
  -117.377	   167.383	     5.702
  -105.957	   154.415	     2.578
  -105.736	   177.952	    -7.512
  -118.331	  -176.385	    -6.042
  -100.974	   160.150	    -1.474
  -125.987	  -173.296	   -25.362
   -87.046	   171.094	    -7.585
   -94.647	   166.627	    -6.700
   -93.803	   179.087	     6.283
  -109.140	   157.343	     5.220
  -114.507	  -178.710	    -5.548
  -106.822	  -173.370	    -3.105
  -100.913	   167.337	    -8.928
   -87.899	  -178.017	     3.393
  -133.747	  -156.770	     8.459
  -138.185	  -164.738	     7.702
   -86.354	   179.782	    -2.443
   -82.241	   167.240	    -0.693
   -77.345	   159.748	     0.445
   -75.614	   173.859	   -15.097
   -98.717	  -179.495	    -1.551
  -108.677	   172.969	     4.328
