   -92.310	   122.143	    -3.179
    55.860	    49.412	     7.673
    60.397	    67.545	    -5.608
    61.769	    69.779	    -7.514
    67.561	    28.842	     2.795
    65.519	    49.707	   -13.774
    60.547	    68.021	    -3.623
    57.240	    33.243	    -9.988
    63.057	    39.105	     2.313
    57.252	    62.338	    -6.691
    63.971	    46.485	    -4.746
    66.527	    30.762	    -5.976
    50.466	    45.105	   -13.676
    45.717	    47.455	    -0.221
    47.459	    58.843	    -8.686
    36.933	    49.764	    14.284
    52.702	    53.967	    -3.705
    59.092	    63.668	    -0.366
    46.107	    47.369	     0.581
    36.748	    66.886	     2.663
    51.859	    50.632	    -7.792
    58.480	    77.084	    -9.653
    53.897	    74.424	    -0.011
    55.211	    66.014	    -2.617
    54.469	    56.249	     1.738
    55.807	    58.718	    -3.394
    64.186	    55.301	   -11.470
    50.856	    64.832	     0.901
    55.159	    50.108	    -4.085
    54.287	    57.409	    -8.228
    57.376	    48.914	    -4.410
    52.228	    54.027	     0.485
    64.563	    45.262	     1.933
    56.401	    46.846	    -5.907
    55.815	    43.683	   -14.030
    48.733	    43.335	     5.672
    71.513	    68.518	    -9.900
    56.814	    59.962	     3.677
    39.241	    43.542	     8.507
    55.605	    38.547	    -5.237
    61.372	    53.340	     0.115
    59.059	    47.003	    -6.849
    61.910	    44.547	     0.981
    51.928	    52.380	     2.007
    54.166	    64.360	    -5.284
    44.771	    66.878	    17.118
    55.812	    72.589	    -1.997
    58.020	    37.683	     4.357
    52.039	    30.887	   -11.190
    56.440	    64.294	    16.870
    60.864	    75.124	     1.279
    57.395	    35.432	     1.050
    57.826	    57.501	     4.003
    57.805	    34.669	     2.910
    44.553	    53.700	     6.919
    59.928	    32.526	    -7.359
    48.130	    59.894	    13.429
    67.932	    50.224	    -3.291
    51.250	    49.507	     6.331
    53.063	    60.375	    -4.495
    59.326	    37.722	   -11.352
    58.865	    55.373	     8.906
    68.043	    59.752	   -20.227
    69.492	    61.072	     0.111
    49.814	    65.660	     3.343
    51.480	    51.867	   -11.017
    61.708	    55.623	   -30.255
    63.314	    42.641	    -2.273
    43.997	    61.565	    -3.534
    52.788	    36.835	    -0.767
    52.972	    63.174	   -10.594
    54.004	    58.601	    -1.761
    47.849	    39.014	     1.712
    54.264	    47.115	    -7.567
    50.033	    54.710	     4.801
    56.409	    53.724	    21.863
    56.785	    46.336	    14.698
    61.396	    75.808	     4.311
    64.578	    59.705	    10.551
    55.433	    97.593	    15.089
    52.967	    68.796	     2.230
    55.981	    52.835	    -3.739
    61.382	    64.328	     0.238
    62.335	    50.671	    10.434
    58.277	    41.214	     0.760
    43.396	    54.594	    24.790
    58.057	    39.625	    -2.842
    56.926	    51.507	    -5.293
    44.827	    85.607	    -6.422
    59.660	    77.333	    -5.926
    58.443	    71.096	   -18.554
    71.437	    57.402	    19.709
    53.345	    52.020	     4.507
    60.114	    55.274	     4.571
    46.316	    83.249	   -12.086
    53.103	    60.400	    21.806
    49.013	    65.824	     1.403
    58.853	    47.480	    -3.651
    56.846	    56.985	     4.533
    46.514	    58.852	    -1.008
    59.896	    52.053	    -6.046
    54.414	    57.252	    -3.484
    58.486	    38.305	     2.553
    52.078	    62.113	    -6.435
    54.581	    64.290	     4.440
    62.472	    68.240	    -0.822
    50.140	    82.183	     6.381
    69.070	    57.669	   -14.190
    58.345	    47.599	    -2.118
    51.114	    69.953	     2.816
    55.942	    66.281	    10.452
    54.153	    57.232	   -26.957
    48.614	    63.610	    -1.350
    49.851	    42.476	     0.051
    55.638	    40.248	   -12.830
    50.103	    50.428	     5.812
    49.900	    51.437	     8.154
    58.602	    54.226	    10.354
    57.638	    51.291	    -3.352
    55.130	    47.819	    -4.079
    47.676	    72.167	     0.587
    50.942	    49.365	    -1.340
    54.511	    45.480	    -5.670
    50.229	    49.115	    10.063
    64.455	    71.892	   -12.090
    62.326	    29.770	    12.008
    38.686	    79.206	    -6.321
    53.754	    58.209	     0.127
    57.667	    62.723	     3.952
    71.818	    62.473	    -3.806
    44.982	    65.377	     0.937
    66.584	    58.809	    -1.580
    59.558	    63.917	    -8.179
    47.147	    72.087	     2.710
    48.136	    57.930	    14.744
    36.617	    70.654	    13.894
    49.431	    60.550	    -1.442
    50.696	    47.034	   -12.299
    45.028	    71.724	    -8.325
    57.358	    70.041	    -7.543
    61.077	   100.717	    10.855
    52.586	    94.372	   -12.032
    69.051	    88.590	     1.420
    71.382	    42.991	     6.736
    43.959	    54.409	    10.812
    46.099	    49.236	    -7.727
    60.744	    53.454	     6.177
    58.055	    71.522	    10.524
    53.071	    71.921	    -9.598
    51.303	    51.283	     1.910
    59.286	    45.091	   -23.306
    50.662	    87.270	     2.658
    63.875	    78.611	    -0.141
    60.308	    64.748	    -3.133
    47.003	    50.432	    -8.887
    50.985	    53.549	    -4.633
    54.888	    69.666	    -2.667
    41.804	    62.800	    -7.290
    60.789	    58.699	     0.451
    49.512	    68.670	     4.555
    48.599	    75.655	     8.547
    50.299	    67.009	    11.120
    63.290	    40.679	    -6.391
    68.997	    43.793	   -21.313
    44.080	    40.937	     7.170
    45.028	    41.294	    -5.883
    50.843	    63.595	     3.343
    62.028	    35.022	    -5.480
    58.366	    60.811	    -6.554
    49.932	    51.577	     3.972
    67.674	    45.672	   -11.483
    46.280	    62.872	    19.682
    58.788	    55.265	   -17.031
    54.259	    75.203	    -6.534
    46.418	    38.768	    -0.180
    53.883	    49.390	   -10.059
    51.637	    66.936	   -11.640
    61.886	    67.147	     2.455
    57.694	    83.074	     2.122
    53.710	    46.998	    -9.934
    52.172	    46.289	    -1.709
    51.775	    45.708	    -9.194
    55.443	    41.525	   -13.990
    44.972	    54.572	    -4.935
    50.537	    61.824	     2.533
    63.238	    51.749	     1.967
    58.077	    30.507	    -6.696
    45.974	    45.975	     8.974
    61.945	    85.766	   -11.975
    58.200	    62.005	   -20.395
    57.811	    68.513	   -23.162
    60.207	    47.862	    -5.206
    61.727	    63.832	    -1.932
    57.551	    43.933	    -1.740
    55.938	    59.806	    -5.468
    57.044	    51.208	     3.113
    59.883	    21.999	    -3.484
    57.985	    61.607	    -8.295
    57.114	    32.352	   -13.654
    58.870	    49.596	    -9.857
    47.982	    53.112	   -11.536
    64.292	    59.266	    -3.939
    61.615	    61.882	    20.496
    61.529	    41.906	     8.820
    54.833	    46.878	     9.458
    62.044	    47.821	   -13.017
    63.538	    63.942	     6.694
    56.945	    73.128	    13.306
    57.576	    53.742	    -0.867
    70.471	    38.320	     0.637
    48.769	    48.549	    23.787
    64.720	    63.021	     7.265
    48.141	    77.537	    14.644
    55.597	    39.967	    -3.303
    62.023	    52.808	    -5.669
    56.810	    50.293	    -0.294
    46.890	    43.829	    -1.934
    50.293	    35.779	    -9.312
    50.146	    47.357	     8.326
    36.978	    47.597	     7.270
    51.805	    63.362	    -4.415
    44.562	    58.301	   -16.032
    38.273	    63.194	    -3.386
    66.633	    48.529	   -22.833
    66.116	    76.467	    -8.924
    52.053	    63.272	     2.301
    60.122	    62.098	    -9.890
    67.332	    75.161	    -7.659
    51.797	    50.879	     2.111
    61.605	    63.833	    -6.280
    53.272	    48.005	    -2.242
    56.441	    49.877	     3.528
    46.692	    54.785	    -2.163
    44.702	    57.822	     9.316
    58.021	    60.186	    14.683
    63.809	    47.757	    -2.086
    58.991	    50.278	    -0.072
    50.197	    82.532	     5.688
    52.960	    64.241	    -2.529
    59.354	    85.773	    -3.015
    57.876	    95.049	    -8.275
    58.822	    64.651	    -6.738
    54.678	    41.992	     1.460
    43.270	    57.008	     3.498
    56.733	    31.452	   -24.458
    52.940	    44.359	   -13.475
    51.057	    40.595	     8.777
    54.108	    42.115	   -24.852
    58.338	    61.522	    -3.037
    63.049	    53.014	     3.057
    50.559	    45.891	    -0.498
    57.956	    68.490	    -3.484
    53.376	    73.034	    13.537
    53.857	    71.824	     8.220
    66.453	    60.219	    -7.122
    49.345	    61.307	     3.947
    54.021	    43.694	    -7.435
    54.869	    71.584	    -3.250
    58.326	    45.243	     6.465
    49.655	    51.413	     5.804
    53.330	    48.264	    -9.515
    48.433	    63.633	    -0.394
    43.657	    30.321	    -4.459
    58.247	    37.872	    -7.154
    54.546	    37.115	     4.768
    53.667	    57.897	    -7.782
    49.227	    74.252	    10.794
    62.551	    55.284	    -9.389
    63.984	    62.232	   -19.812
    67.903	    54.967	    -3.964
    51.933	    44.588	    -8.126
    63.228	    41.718	     5.651
    52.284	    42.952	     5.291
    66.659	    49.044	    -6.685
    49.685	    61.167	     0.545
    54.602	    72.163	    -0.939
    59.492	    50.360	    -6.097
    51.339	    65.220	    -6.965
    56.067	    51.207	   -16.584
    68.040	    31.816	    -2.306
    60.410	    43.281	    -2.878
    54.773	    52.718	    -7.192
    46.061	    49.451	   -10.474
    60.323	    54.956	    -1.773
    60.235	    52.236	    -4.010
    57.423	    43.896	     7.608
    48.508	    43.484	    -6.759
    65.882	    64.852	    -9.826
    54.468	    89.590	     9.901
    44.625	    51.845	    19.099
    62.076	    51.507	   -11.523
    45.096	    56.826	     3.469
    50.637	    44.423	    -6.553
    54.222	    39.685	    11.320
    59.249	    37.236	   -22.353
    54.446	    43.467	   -13.152
    51.504	    54.784	    17.166
    53.739	    57.434	    -9.611
    63.515	    57.418	   -10.822
    64.563	    50.109	    -6.853
    68.286	    72.517	    -7.128
    66.148	    53.403	    -6.557
    47.330	    54.809	    20.909
    56.470	    76.202	    -2.632
    59.033	    49.048	    -4.928
    65.989	    58.969	    -6.445
    55.044	    58.586	     5.219
    63.501	    55.348	    17.470
    46.982	    49.900	   -17.188
    61.506	    66.883	    -8.918
    42.873	    68.085	   -14.894
    57.243	    64.980	    -5.580
    65.759	    47.445	   -11.951
    45.089	    37.984	     2.239
    54.001	    45.165	    -3.532
    56.389	    41.705	    -5.433
    42.181	    43.862	     3.552
    52.621	    49.869	    -3.231
    59.995	    39.722	   -16.185
    74.141	    36.051	    -1.207
    56.125	    53.311	    -2.176
    56.291	    52.789	    -8.017
    53.158	    46.493	    -3.292
    44.104	    59.279	     5.726
    51.984	    67.169	   -12.803
    54.982	    70.212	    -1.667
    59.068	    74.724	    -6.851
    63.542	    36.805	    -4.344
    57.134	    57.662	   -11.246
    64.094	    51.101	   -16.902
    52.060	    67.028	    15.677
    54.732	    70.736	     0.119
    64.865	    63.534	   -27.114
    58.725	    57.624	   -18.021
    46.849	    63.343	    -3.284
    58.198	    66.916	    -6.390
    53.473	    86.319	     2.211
    62.547	    91.925	    -0.476
    60.727	    83.485	   -12.665
    56.253	    47.767	    -7.673
    66.125	    60.441	     3.634
    49.202	    73.046	     2.228
    56.566	    52.316	    -6.263
    60.777	    45.420	   -15.264
    62.134	    56.636	     4.807
    63.442	    58.559	    -9.410
    57.999	    74.278	    -3.904
    59.923	    67.619	     4.586
    62.703	    58.844	     2.093
    61.906	    51.644	     1.192
    62.104	    44.891	    -3.847
    45.456	    76.457	    18.111
    64.988	    82.151	    -7.572
    51.880	    69.588	     2.334
    58.008	    71.377	     0.190
    60.595	    63.239	    11.902
    45.138	    63.085	    -2.849
    58.921	    69.974	   -21.032
    54.008	    50.006	    -5.797
    61.625	    53.290	    -0.261
    52.553	    55.351	    -3.922
    57.083	    70.356	   -17.571
    58.703	    44.856	   -19.644
    53.405	    45.055	    -7.516
    63.774	    56.906	   -11.286
    59.413	    51.170	   -26.033
    48.207	    70.192	     3.640
    47.672	    65.983	    14.041
    52.434	    75.500	   -14.598
    59.755	    65.232	   -13.582
    55.351	    78.240	    12.030
    62.729	    73.004	     4.157
    54.294	    57.547	    13.052
    64.391	    70.555	     8.442
    55.489	    61.740	    -4.290
    51.753	    41.421	    18.203
    44.862	    29.375	    -3.188
    51.308	    59.637	    -3.379
    56.463	    41.346	    -2.747
    62.936	    64.830	    -5.983
    57.270	    40.061	     3.459
    44.545	    63.326	    12.599
    56.277	    45.525	    -7.182
    44.893	    34.343	    21.629
    47.054	    39.393	    18.806
    40.868	    82.549	    18.042
    63.707	    81.533	   -11.034
    61.148	    67.436	   -19.454
    59.730	    56.448	    11.708
    76.528	    60.997	     1.958
    39.065	    70.884	     3.399
    52.125	    55.404	   -13.374
    59.236	    55.372	     0.320
    55.001	    64.962	    17.095
    55.222	    58.889	    -2.475
    53.040	    52.206	     6.148
    59.135	    59.391	     2.915
    67.058	    44.365	   -10.927
    50.044	    80.838	     9.581
    55.874	    48.063	    -2.585
    55.860	    57.893	    -9.224
    51.292	    57.358	    -4.408
    44.574	    42.118	   -10.775
    53.324	    61.390	    -9.106
    61.583	    52.489	     9.052
    48.772	    60.153	     2.930
    61.407	    54.936	    -5.803
    48.049	    62.914	    -9.834
    56.584	    57.039	    -6.723
    56.326	    40.313	    10.413
    58.201	    52.980	   -19.344
    68.686	    61.797	     6.129
    62.015	    49.144	    -6.542
    47.946	    57.812	    11.805
    55.656	    75.485	     6.947
    50.879	    69.658	    10.393
    71.243	    60.847	     6.735
    54.741	    64.407	    12.838
    64.865	    58.620	     0.937
    62.010	    62.456	   -14.253
    52.327	    33.575	     4.260
    59.787	    51.014	     0.754
    41.527	    48.257	    21.856
    58.216	    65.178	     6.493
    57.238	    57.261	    13.076
    68.735	    54.994	     1.139
    49.760	    46.538	     3.585
    67.710	    46.488	    -2.380
    52.687	    53.718	     7.325
    56.016	    52.904	    -6.781
    49.113	    54.893	   -29.258
    54.416	    32.122	    -0.262
    57.324	    72.624	    -3.891
    44.862	    39.039	    11.264
    53.777	    38.002	    11.883
    55.438	    55.118	     2.555
    54.310	    65.820	    -3.860
    54.516	    62.993	     2.980
    71.779	    54.630	    -2.533
    53.377	    57.315	     8.543
    49.928	    43.347	     1.368
    51.357	    50.320	     5.005
    56.295	    53.224	   -13.376
    62.389	    64.454	    -5.042
    58.273	    42.178	     7.995
    56.171	    35.427	   -18.678
    66.580	    38.963	     1.662
    55.579	    45.371	   -11.400
    50.434	    62.595	     2.722
    59.361	    49.407	    -4.460
    50.477	    49.893	     4.254
    58.858	    57.060	    14.161
    51.789	    52.407	     4.843
    56.936	    56.767	     9.660
    54.909	    47.533	    -3.950
    58.669	    68.464	    11.553
    61.527	    78.718	     7.549
    64.045	    36.462	    -7.414
    45.066	    32.868	   -10.005
    39.723	    44.380	    -6.609
    42.512	    73.046	   -13.449
    55.384	    60.219	    -1.703
    74.783	    60.103	     2.838
    58.690	    45.428	     9.254
    72.361	    49.257	   -25.853
    64.896	    47.517	     8.723
    65.643	    69.255	     1.769
    54.182	    34.148	     1.756
    42.970	    57.430	     7.504
    45.242	    61.160	     0.373
    59.766	    47.825	    -2.650
    62.977	    43.729	    -7.875
    62.661	    32.241	    -7.066
    58.490	    57.194	   -25.610
    58.461	    48.307	     0.426
    68.596	    61.393	    -5.271
    51.103	    56.579	   -12.114
    65.451	    68.932	     6.551
    57.835	    66.580	     0.518
    54.677	    65.795	    -1.512
    52.712	    60.600	     2.021
    58.223	    64.116	   -11.803
    65.871	    58.194	     1.478
    64.248	    79.661	    -7.665
    49.344	    55.707	     6.350
    52.081	    59.027	   -18.353
    59.209	    39.725	     4.075
    50.816	    53.554	     4.700
    51.324	    50.268	   -17.634
    53.586	    62.109	    -4.452
    59.697	    47.957	    -9.121
    43.025	    57.901	    -4.751
    59.140	    41.657	     0.520
    55.457	    62.210	     1.201
    47.224	    51.492	    -3.376
    61.609	    37.546	     1.148
    66.058	    45.160	    -3.725
    51.189	    62.934	    -4.317
    53.984	    41.553	    -0.168
    56.742	    63.831	    -6.815
    57.923	    50.725	    -7.533
    49.906	    48.499	    10.269
    66.335	    66.323	    -9.822
    49.244	    54.814	     5.725
    62.946	    72.298	     5.315
    45.207	    42.558	     8.716
    55.444	    76.551	    21.839
    60.063	    69.850	     1.185
    53.513	    75.769	     7.446
    58.756	    36.297	    -8.553
    52.510	    34.399	   -11.391
    62.425	    67.558	     1.492
    55.421	    55.692	   -17.851
    60.060	    56.017	    -5.398
    51.279	    47.199	    -2.777
    46.467	    59.065	     2.760
    57.421	    59.799	    -9.064
    58.517	    43.540	    -2.400
    66.847	    53.522	     0.851
    64.189	    56.474	   -10.131
    49.872	    46.262	   -11.105
    57.877	    58.640	    18.004
    62.933	    58.681	    -5.659
    48.241	    63.552	     1.593
    48.324	    58.834	    -0.318
    56.118	    77.597	     0.984
    56.811	    50.918	    18.705
    63.448	    59.723	   -21.443
    47.858	    52.476	    -3.699
    51.678	    43.211	     4.930
    67.624	    53.547	   -13.749
    47.940	    54.957	     6.699
    57.979	    57.352	   -10.580
    68.532	    44.878	    -8.360
    60.230	    48.708	   -15.942
    56.569	    60.380	   -16.848
    34.204	    48.323	    -5.260
    62.721	    30.776	    -6.177
    72.397	    58.701	   -13.986
    58.233	    52.469	    -6.872
    57.648	    54.407	     8.874
    48.851	    52.285	     6.756
    54.811	    53.157	    -5.027
    44.922	    76.431	     7.288
    52.886	    63.478	   -13.430
    58.649	    53.048	    16.428
    57.107	    61.278	    11.996
    49.277	    63.485	    -2.203
    56.301	    54.307	    -3.717
    50.188	    52.976	     2.639
    59.893	    70.241	    -4.531
    62.361	    46.937	     5.643
    59.311	    63.752	    -2.418
    49.122	    46.906	     0.130
    61.399	    51.976	     9.841
    52.550	    52.646	     0.352
    45.323	    76.518	    -6.607
    54.565	    78.845	     6.554
    52.488	    62.365	    18.635
    54.936	    54.282	     2.586
    53.912	    40.945	   -10.412
    39.666	    64.335	    14.444
    65.070	    54.019	    -7.689
    61.475	    32.383	    -5.631
    44.366	    53.396	     9.587
    78.695	    60.012	     8.850
    53.034	    40.438	    -0.189
    48.110	    66.751	     8.812
    60.871	    60.258	    -1.739
    60.661	    49.750	    -4.727
    56.361	    53.042	     1.987
    63.043	    66.580	   -16.096
    56.084	    41.538	    10.179
    54.145	    61.874	   -19.079
    35.905	    54.341	     7.448
    61.749	    45.398	    -6.615
    45.593	    57.872	    -9.345
    50.852	    60.485	     4.429
    53.948	    60.506	    -4.759
    44.939	    46.695	     0.562
    49.072	    68.688	   -11.236
    53.874	    46.200	   -10.953
    62.288	    45.949	    -8.783
    53.492	    49.190	    -6.063
    55.009	    66.001	   -13.461
    63.574	    41.613	   -19.267
    57.659	    47.904	    -5.458
    57.420	    44.445	     0.754
    50.881	    34.226	     1.521
    60.850	    51.231	   -10.345
    53.942	    41.188	    12.741
    57.573	    45.528	     5.709
    60.909	    43.215	    -3.015
    62.053	    40.945	    -8.794
    52.255	    41.867	     2.945
    51.916	    63.409	     3.766
    52.765	    54.855	    -0.252
    56.189	    60.337	     9.218
    65.103	    43.494	     0.214
    57.186	    60.310	   -12.443
    59.502	    49.922	     8.653
    58.591	    51.087	    -1.445
    58.111	    72.773	    -0.540
    56.923	    58.560	    15.159
    61.227	    63.967	     1.106
    49.971	    58.848	    12.510
    58.026	    49.866	     2.413
    47.925	    36.581	    -1.397
    65.697	    35.417	   -11.358
    63.531	    49.027	    -2.059
    46.943	    49.441	    -3.991
    56.738	    65.112	   -11.929
    58.210	    60.973	    -4.027
    47.266	    65.183	     2.915
    56.965	    55.178	     4.827
    57.758	    42.967	    23.027
    57.263	    60.320	   -12.002
    61.733	    67.780	    -0.551
    66.252	    53.061	     2.592
    56.796	    53.046	     4.377
    52.698	    39.578	    -6.726
    49.875	    54.893	     3.098
    43.601	    35.990	     9.032
    50.940	    49.288	   -11.279
    57.602	    36.431	    -1.117
    53.632	    53.188	    -4.144
    53.921	    43.145	    -0.739
    62.806	    37.846	    -8.912
    55.774	    56.535	    -0.162
    54.477	    66.832	     6.267
    47.124	    61.380	     5.268
    66.047	    59.554	    -8.736
    54.143	    62.178	   -15.496
    60.259	    77.317	    -7.162
    51.499	    67.810	    -7.994
    47.260	    64.086	    11.977
    47.387	    64.905	     4.331
    66.684	    51.218	     2.119
    57.319	    43.905	   -19.504
    50.466	    47.293	    22.227
    66.081	    58.901	   -11.813
    61.749	    72.956	    -8.088
    65.798	    57.608	     3.281
    65.824	    46.584	     0.609
    67.197	    72.815	    -7.496
    61.904	    70.953	    -3.755
    49.556	    38.018	    15.641
    52.852	    81.233	   -12.447
    51.124	    58.366	    14.555
    61.063	    67.041	    10.858
    50.590	    50.950	     8.524
    59.916	    67.373	    -6.805
    51.409	    60.390	     9.859
    59.085	    49.866	    -2.755
    63.844	    57.013	     3.764
    48.946	    51.565	     3.022
    69.761	    70.043	   -11.999
    42.183	    57.963	     1.942
    49.686	    58.483	    -7.711
    43.125	    54.205	    -0.644
    59.574	    55.126	    -1.918
    72.131	    55.552	     0.149
    52.213	    64.296	     5.329
    41.672	    57.477	     6.263
    59.450	    50.612	    18.356
    60.948	    54.218	    22.414
    49.807	    56.392	    -0.897
    52.304	    61.134	     2.734
    56.814	    50.651	     3.065
    57.211	    55.339	     3.078
    56.446	    71.934	     3.487
    55.162	    40.433	    -0.211
    69.638	    38.067	     4.948
    44.719	    47.241	    12.544
    48.669	    62.666	     3.611
    58.886	    38.196	    -3.458
    54.300	    51.183	     4.495
    60.651	    49.363	     5.427
    56.062	    65.917	     1.968
    56.259	    63.025	    -2.226
    57.620	    63.446	     7.053
    56.862	    47.773	    -3.472
    55.164	    61.757	     3.922
    46.921	    50.538	    15.091
    50.923	    66.769	    -9.881
    61.881	    58.314	    -7.366
    59.427	    57.759	    -6.742
    50.546	    55.068	    20.252
    50.216	    64.011	   -12.098
    64.232	    52.933	    -7.504
    55.712	    60.746	    -5.392
    46.491	    72.727	    -0.088
    55.706	    62.888	    -6.851
    51.953	    67.082	    27.490
    66.345	    69.278	     8.594
    62.741	    67.104	    -3.153
    44.288	    55.587	    11.675
    56.017	    67.661	    10.937
    45.741	    64.630	    -9.301
    63.235	    72.341	     1.114
    54.868	    53.832	     1.854
    49.089	    58.967	    -1.279
    54.338	    66.363	    15.321
    46.769	    57.063	    -2.778
    58.458	    52.922	     3.392
    54.608	    51.901	    -2.624
    56.210	    51.978	    -1.724
    58.468	    36.945	    -7.570
    63.630	    43.688	    -2.617
    45.768	    66.815	   -18.282
    45.555	    59.556	    -4.593
    41.735	    64.262	     2.294
    57.811	    51.111	    -2.612
    50.542	    55.690	     4.817
    54.413	    49.119	    -0.187
    45.101	    46.200	     5.138
    58.512	    46.841	   -22.395
    43.523	    47.842	     7.383
    55.930	    40.550	     9.617
    58.557	    61.781	   -14.137
    59.513	    62.325	    14.760
    60.860	    73.040	    -1.098
    43.347	    56.323	     3.116
    46.536	    77.088	    -0.244
    46.616	    61.868	     7.272
    51.924	    65.047	     7.700
    57.149	    44.177	   -17.836
    57.348	    61.551	   -19.780
    67.963	    57.982	   -13.471
    48.494	    56.823	    -9.347
    58.764	    41.774	    -9.848
    41.262	    40.300	    -0.711
    46.973	    43.639	   -14.639
    46.260	    40.758	     2.046
    53.948	    49.007	    -1.890
    62.248	    37.564	     1.197
    55.638	    53.041	   -14.330
    52.535	    43.032	     8.979
    63.519	    57.488	    -2.083
    62.221	    68.452	   -11.660
    51.195	    54.369	    20.989
    58.040	    53.304	    -9.290
    61.658	    43.693	     3.632
    53.042	    65.922	     7.547
    59.623	    64.119	    -6.236
    50.014	    44.796	     3.888
    55.550	    48.281	    14.753
    48.505	    52.286	     8.416
    48.461	    53.428	   -17.944
    61.383	    57.604	    -7.143
    53.522	    60.115	    -6.075
    57.126	    49.276	    -8.596
    58.289	    55.506	     2.262
    52.988	    82.786	     9.193
    46.543	    70.184	     5.688
    43.162	    61.477	    13.105
    56.573	    66.535	   -13.714
    44.149	    64.159	     7.806
    47.335	    53.181	   -11.795
    52.082	    34.637	     4.308
    58.733	    27.360	     5.646
    57.565	    52.389	    -0.787
    40.850	    77.931	   -15.975
    57.643	    56.646	     8.347
    51.575	    52.501	     8.753
    66.190	    65.238	    -3.677
    59.708	    69.285	    -6.612
    55.897	    47.338	    -4.602
    51.276	    56.077	     0.545
    66.247	    57.093	    -0.050
    57.289	    58.149	    -5.375
    56.885	    55.550	    -9.948
    65.543	    52.425	     0.087
    57.165	    45.904	    -1.847
    58.023	    51.792	   -10.180
    49.230	    45.664	     2.334
    54.834	    45.650	     5.649
    54.937	    53.180	    12.400
    50.693	    63.079	    14.170
    57.128	    49.577	     6.001
    58.483	    55.881	    -7.594
    42.052	    38.557	    16.476
    58.143	    57.530	   -11.909
    48.780	    47.722	    -5.997
    46.742	    44.207	    22.942
    58.671	    50.589	    -5.918
    50.079	    65.437	    -9.606
    56.039	    48.698	     7.423
    58.236	    43.902	     9.461
    66.803	    52.182	   -11.551
    60.554	    51.642	     5.736
    48.492	    59.154	     8.104
    61.440	    61.147	    16.686
    50.438	    61.933	    14.300
    58.481	    68.869	     3.346
    52.895	    56.795	     4.810
    58.260	    56.687	    -8.468
    60.842	    64.814	     1.956
    54.957	    48.037	    -5.881
    78.229	    53.345	   -14.264
    59.749	    56.541	    -7.368
    55.226	    58.381	    12.024
    71.599	    58.262	   -16.669
    52.218	    66.192	   -14.552
    61.092	    49.383	    -2.438
    61.466	    68.002	   -19.071
    40.764	    52.063	     3.868
    46.741	    74.435	    13.267
    56.991	    67.881	    -3.717
    48.384	    70.462	    23.021
    51.280	    57.629	    20.050
    60.133	    60.181	    -2.611
    65.762	    54.052	    -6.464
    67.294	    58.020	    -0.941
    57.284	    76.705	   -12.031
    57.914	    61.501	     4.517
    62.250	    51.616	   -22.194
    52.199	    53.575	    14.727
    55.164	    62.293	    24.487
    55.422	    66.873	     4.063
    63.991	    36.546	   -15.840
    60.257	    44.578	    -8.561
    63.495	    49.496	     9.054
    50.441	    31.553	     4.977
    61.748	    54.003	     4.415
    52.414	    79.822	    17.409
    52.373	    70.216	     1.647
    35.273	    62.407	     0.431
    51.940	    56.249	   -17.233
    40.855	    62.922	     6.832
    55.224	    40.196	    -8.632
    62.257	    54.272	    -9.414
    54.303	    53.135	    -5.184
    64.051	    77.063	    -5.419
    60.071	    43.001	   -30.776
    43.216	    48.880	   -11.087
    50.822	    64.048	    -3.319
    53.906	    59.867	     0.971
    63.195	    47.290	     1.720
    58.873	    71.565	    11.852
    52.094	    72.920	    -9.890
    63.123	    72.333	    -0.260
    53.167	    71.151	     2.170
    42.962	    57.885	    -1.784
    50.559	    55.934	    -5.234
    63.972	    50.651	    -8.292
    52.917	    51.538	    -1.892
    42.842	    60.428	     6.545
    56.169	    71.003	     5.175
    68.984	    77.567	   -17.303
    60.790	    47.622	    10.666
    56.512	    57.601	    -1.872
    60.018	    43.770	     0.629
    46.053	    58.757	     6.077
    52.816	    33.704	    12.647
    62.518	    47.378	     0.023
    58.299	    46.727	    -5.945
    49.507	    61.755	   -12.368
    51.549	    59.232	     0.167
    59.190	    56.642	   -10.632
    53.439	    40.476	     5.324
    56.879	    41.514	     5.767
    55.083	    28.734	     4.302
    35.611	    64.335	     5.572
    46.944	    66.347	     6.458
    60.691	    58.653	    -6.250
    51.126	    66.455	    10.803
    55.449	    67.244	     9.372
    68.136	    61.359	    -0.231
    55.449	    62.159	    10.481
    43.806	    41.693	     3.817
    47.184	    70.471	    -0.878
    41.226	    80.507	     4.252
    63.242	    61.768	    -4.757
    50.044	    55.534	    13.669
    44.835	    51.743	    -1.469
    61.959	    67.056	     1.348
    44.868	    62.780	    -5.056
    63.726	    59.286	   -15.738
    61.435	    46.149	     4.792
    55.136	    71.882	    18.695
    53.393	    59.321	    -6.868
    54.253	    47.886	    -8.549
    51.456	    67.112	    -3.271
    58.154	    48.481	     9.775
    55.239	    62.938	     7.495
    61.507	    40.590	    15.147
    47.957	    73.768	     7.589
    56.940	    45.768	     5.456
    48.533	    52.216	    -6.729
    59.827	    51.015	   -11.996
    44.580	    50.534	     7.049
    56.382	    40.426	     3.222
    48.107	    67.592	    -9.426
    57.538	    60.131	    -3.835
    61.882	    59.197	    -8.993
    64.944	    61.461	   -11.650
    61.327	    60.186	   -10.790
    55.699	    61.747	     1.062
    58.330	    45.714	    -2.468
    62.344	    80.073	    -4.357
    48.153	    58.256	   -14.575
    50.770	    58.924	    -0.346
    65.637	    51.836	    -7.905
    61.521	    64.135	     6.139
    53.723	    67.500	    -6.242
    61.179	    73.768	   -17.705
    65.679	    70.263	    -2.517
    58.473	    72.721	    -0.635
    62.882	    70.189	   -12.898
    55.026	    54.115	    -1.034
    44.136	    78.353	     7.462
    52.971	    43.715	     0.314
    56.338	    73.819	   -14.283
    48.177	    73.256	     7.006
    61.613	    63.910	   -22.787
    61.250	    43.954	     8.800
    49.472	    64.705	     7.632
    54.681	    72.029	    -0.355
    54.417	    48.181	    -1.493
    49.894	    46.120	     9.486
    64.986	    46.469	    -8.916
    50.143	    33.584	    -1.731
    56.564	    44.917	     2.174
    60.870	    27.189	    -6.851
    61.352	    73.449	     2.249
    54.447	    71.452	     5.737
    56.473	    53.831	   -11.863
    65.782	    44.559	    -0.875
    50.072	    61.643	    11.426
    40.087	    61.504	    -2.628
    52.160	    71.347	    -0.699
    46.840	    65.845	    -5.514
    55.610	    64.434	   -26.373
    36.695	    60.676	     4.595
    51.711	    63.703	    -9.661
    44.247	    55.847	    11.144
    68.832	    60.315	   -12.460
    44.075	    72.009	     6.452
    64.001	    65.893	   -22.209
    59.731	    55.644	   -17.814
    57.135	    96.607	    11.508
    60.759	    81.568	    -6.807
    49.026	    68.935	    -2.365
    56.570	    73.302	    17.546
    63.349	    59.180	   -10.350
    49.811	    87.526	   -14.520
    55.339	    53.311	     1.860
    56.612	    73.770	     1.985
    53.324	    77.006	     3.714
    68.770	    59.778	    -2.404
    61.330	    42.220	     6.127
    48.254	    39.869	    -6.825
    36.937	    59.374	    -1.664
    62.266	    59.953	   -13.113
    47.840	    64.073	    -3.981
    55.322	    46.583	     1.830
    48.288	    50.477	    -4.209
    44.449	    50.359	    15.245
    57.428	    70.463	    -6.395
    62.763	    56.453	    -8.238
    58.005	    40.233	   -15.643
    49.779	    51.122	     8.198
    74.431	    48.251	   -12.896
    52.132	    66.820	    -1.829
    45.963	    73.072	    20.821
    58.456	    38.683	    -2.649
    55.014	    57.378	    -6.485
    44.877	    58.060	     7.763
    58.573	    55.336	    -1.628
    45.451	    64.157	    12.076
    51.888	    65.165	   -13.529
    58.854	    33.254	     5.109
    48.626	    62.344	    -0.278
    65.438	    60.116	    -2.783
    63.932	    69.096	    -2.628
    63.822	    56.166	     6.098
    73.940	    50.446	    12.459
    79.604	    60.037	    12.011
    57.217	    47.508	     9.081
    63.596	    65.162	    -9.678
    73.517	    62.255	    18.762
    55.561	    86.015	     6.177
    52.536	    51.255	    -2.017
    75.416	    47.369	    -0.564
    39.311	    76.622	     7.132
    52.673	    73.197	   -14.227
    55.801	    70.359	   -29.499
    45.943	    68.675	    -5.429
    64.251	    79.875	    -8.086
    55.325	    59.556	   -11.431
    48.733	    64.963	   -11.736
    59.155	    82.311	     1.859
    65.246	    58.924	   -18.971
    48.136	    65.452	    11.403
    62.134	    53.943	   -13.605
    52.494	    67.693	     5.285
    54.943	    50.381	     1.868
    52.221	    50.916	    -4.023
    60.071	    66.632	    -1.902
    59.242	    74.903	     4.482
