   -92.310	   122.143	    -3.179
   -57.404	   163.693	    -8.297
   -59.632	   157.806	   -10.089
   -84.850	   170.521	     4.609
   -65.630	   174.056	   -11.590
   -58.211	   165.614	    -8.641
   -74.590	   169.157	    -9.572
   -64.928	   172.877	    -7.267
   -59.369	   161.413	   -10.795
   -70.625	   165.121	   -14.349
   -76.454	   174.843	    -1.612
   -59.605	   179.107	   -10.028
   -64.600	   178.266	   -17.944
   -72.906	  -175.595	     8.499
   -71.384	   165.670	    -3.139
   -77.641	   177.717	     4.126
   -66.399	  -177.195	    -8.834
   -71.157	  -176.950	     7.895
   -70.949	   168.037	     3.812
   -70.169	   165.374	     0.622
   -67.872	   171.213	     2.541
   -65.608	   170.253	   -11.703
   -66.640	   168.472	     2.324
   -57.375	   173.767	   -14.539
   -60.925	   159.342	    -8.011
   -57.959	  -176.933	    -7.142
   -76.659	   167.508	   -11.524
   -78.920	   159.410	    18.447
   -63.688	   170.259	   -17.027
   -58.941	   174.217	    13.634
   -66.425	   170.548	    -5.617
   -75.256	   161.104	    24.504
   -60.475	   161.468	   -22.455
   -58.174	   168.430	    -7.462
   -62.807	   177.836	    -0.376
   -71.453	   174.819	     0.954
   -74.355	   157.437	    -3.234
   -59.803	   166.100	     2.715
   -72.534	   176.546	     0.629
   -83.372	   160.758	    -4.000
   -79.129	   171.991	    15.689
   -59.420	   168.353	    -0.879
   -62.299	   169.270	   -33.748
   -49.989	   163.370	     7.615
   -66.738	   175.400	   -16.011
   -71.490	  -156.220	   -15.186
   -61.600	  -177.243	     2.813
   -69.642	   170.765	    -7.694
   -78.677	   168.011	    11.120
   -68.001	   173.786	     9.596
   -73.814	   176.342	    -7.246
   -65.529	   160.819	    -5.699
   -63.050	   179.012	    -5.064
   -62.767	   169.148	    -5.152
   -62.757	   177.852	   -12.702
   -70.209	  -179.788	    -2.138
   -56.000	   165.050	   -13.494
   -73.533	   169.492	    -2.494
   -61.481	   166.263	     8.169
   -52.860	   166.594	    -2.127
   -60.042	   160.472	    -0.170
   -55.354	   170.178	    -8.891
   -59.801	   166.727	    -5.236
   -61.314	   161.565	     6.179
   -80.424	   175.654	    13.051
   -90.784	   162.060	   -11.979
   -58.238	   160.922	   -26.680
   -64.614	   171.793	    -1.473
   -69.616	   162.368	     6.262
   -60.093	   171.249	     4.487
   -59.778	   170.449	    10.843
   -72.365	   176.948	     0.338
   -69.220	  -176.326	    12.270
   -66.433	   171.861	    18.927
   -61.241	   178.808	    -4.719
   -73.596	   169.436	    -8.584
   -72.859	  -173.081	   -12.995
   -75.824	   171.967	    -3.059
   -69.341	   160.268	     5.642
   -56.558	   143.698	   -11.869
   -68.795	   173.730	   -14.936
   -68.732	   171.816	    -0.651
   -67.091	   176.165	   -13.679
   -58.994	   158.898	   -23.557
   -72.364	   174.239	     4.328
   -57.452	   154.408	   -25.894
   -79.765	   179.081	   -19.030
   -58.468	   174.199	   -22.722
   -59.908	   178.743	    -2.609
   -69.475	   173.046	    -9.999
   -69.961	   170.072	     1.765
   -69.511	   169.802	    -2.629
   -62.459	   177.380	    -8.172
   -89.172	  -178.140	   -12.162
   -71.394	   164.348	   -11.526
   -67.658	   166.046	    -9.135
   -65.900	   158.270	   -12.314
   -61.965	   166.956	    20.418
   -66.397	   168.311	    -3.824
   -61.624	   177.261	     5.806
   -80.445	   175.860	    -4.073
   -76.176	   174.203	   -17.431
   -57.779	   169.480	     8.314
   -59.536	   176.769	    -3.141
   -73.561	   171.218	    -5.617
   -55.036	   167.709	   -13.645
   -47.183	   166.856	   -18.180
   -74.582	   164.994	    12.069
   -74.392	   149.836	    28.343
   -54.377	   166.117	   -17.577
   -56.708	   171.369	   -14.272
   -67.547	   172.319	    -5.191
   -53.512	   165.256	   -20.500
   -58.893	   170.282	   -13.568
   -75.480	   159.931	   -22.448
   -74.670	   166.740	   -23.862
   -67.511	   164.867	   -15.737
   -72.061	   175.198	   -13.588
   -55.693	   155.536	    -1.360
   -61.884	   179.982	   -12.721
   -77.593	   169.386	     4.923
   -69.771	   167.971	    12.827
   -67.546	   158.320	    -2.543
   -81.724	   175.621	    -0.018
   -55.879	   160.640	    -8.339
   -66.576	   173.365	    -8.809
   -70.042	   154.284	     4.315
   -68.691	   166.401	    -8.056
   -56.706	   166.093	     2.172
   -65.803	   158.566	   -15.477
   -68.423	   166.884	     4.549
   -58.348	  -175.394	    -9.104
   -73.300	   166.724	     2.071
   -83.544	   176.521	    18.990
   -58.852	   164.896	   -16.492
   -54.547	   172.078	    -3.265
   -62.406	   167.455	    -1.127
   -59.481	   164.177	     5.537
   -63.286	  -179.678	    -8.874
   -63.127	   179.101	   -21.273
   -65.241	  -165.871	    -5.301
   -62.422	  -177.478	     7.797
   -64.241	  -174.227	    -5.444
   -61.513	   172.034	   -16.340
   -60.227	   158.636	    -1.685
   -54.438	   178.704	    -9.511
   -67.449	   175.801	     8.121
   -77.949	   164.847	    13.573
   -75.845	   177.749	   -24.847
   -80.631	   177.326	     0.118
   -70.197	   155.179	    11.054
   -71.983	   172.277	     0.325
   -59.584	   170.554	    -1.947
   -69.421	   166.871	   -14.818
   -63.844	   154.666	     5.817
   -74.743	   153.397	   -18.345
   -70.428	   159.039	     1.701
   -63.170	   166.527	    -6.305
   -74.911	   157.456	     4.923
   -64.379	   165.723	   -21.472
   -58.902	   139.734	    -8.778
   -67.277	   160.449	   -26.639
   -72.830	   176.199	     8.591
   -64.057	  -178.318	    -8.999
   -65.997	   175.999	    -3.803
   -66.455	  -173.383	    -7.482
   -67.256	  -179.937	   -20.015
   -65.311	  -175.383	   -22.440
   -61.868	   172.911	   -30.293
   -90.896	  -170.502	     7.329
   -72.331	   169.180	     4.540
   -56.943	   179.112	   -12.799
   -65.530	   167.647	     0.289
   -69.904	   160.072	   -10.686
   -66.081	   172.610	   -21.453
   -76.925	   173.748	    -2.022
   -71.134	   162.359	   -16.887
   -45.812	   167.427	    -8.178
   -59.354	   166.682	    -6.142
   -65.328	   169.356	    -0.244
   -65.506	   165.143	    13.713
   -61.535	   167.364	    -3.071
   -58.997	   155.997	     3.882
   -62.477	   160.035	   -11.470
   -69.167	   161.642	    -5.312
   -57.371	   170.241	   -18.468
   -51.321	   163.746	    -3.705
   -71.820	   178.649	    -4.857
   -59.993	   161.008	   -17.504
   -67.786	   159.980	     0.107
   -62.282	   174.623	    12.624
   -55.349	   159.533	   -21.965
   -58.760	   159.784	     0.617
   -58.809	   153.268	    -0.605
   -68.406	   143.518	    11.326
   -72.501	   162.759	     5.463
   -47.377	   172.077	   -22.332
   -77.897	  -179.366	    -2.359
   -48.706	   165.457	    -4.366
   -75.519	  -175.540	    -7.896
   -57.104	   172.001	   -16.030
   -67.827	   176.290	    -0.452
   -61.838	   169.342	    -0.571
   -69.858	   172.173	    -7.889
   -64.455	   172.918	    -7.062
   -60.516	   170.428	    -9.290
   -54.560	   162.781	    -3.609
   -48.911	  -171.065	    -3.141
   -66.270	   163.540	   -26.590
   -71.038	   169.487	     4.547
   -69.510	  -179.666	    17.096
   -78.079	   167.807	    -0.169
   -62.396	  -175.395	    -5.134
   -72.474	   173.200	     3.932
   -61.808	   165.226	     3.944
   -52.910	   164.740	   -12.990
   -63.703	   163.204	     7.673
   -61.023	   176.407	   -21.148
   -73.944	   174.933	   -12.578
   -76.993	  -177.360	    -2.842
   -68.879	   174.387	    14.126
   -76.906	   158.685	    10.516
   -65.624	  -177.245	   -18.395
   -63.595	   158.945	    -2.622
   -78.466	   168.855	   -11.939
   -69.175	   175.021	   -22.627
   -73.545	   165.024	    -9.247
   -57.885	   169.874	   -11.327
   -56.354	   141.869	     7.422
   -76.763	   162.606	    -5.644
   -73.917	   175.780	    -4.030
   -69.645	   169.355	    10.799
   -73.619	   156.137	     5.992
   -69.842	   160.752	   -20.782
   -50.483	   151.939	    -9.528
   -75.321	   164.390	     4.481
   -62.285	   172.566	    -5.314
   -73.003	   168.098	    -1.147
   -68.370	   167.619	    -0.627
   -65.725	   173.144	   -15.700
   -68.248	  -175.866	   -13.893
   -64.681	   174.432	   -12.406
   -62.381	   169.418	   -11.563
   -63.459	   169.738	   -12.875
   -48.604	   171.511	    -0.484
   -64.414	   174.230	   -11.410
   -87.442	  -170.025	    -2.993
   -52.712	   161.826	   -21.636
   -73.721	  -172.057	    -0.144
   -70.132	   163.890	     6.433
   -68.122	   155.197	   -12.782
   -64.394	   177.702	    -0.721
   -64.807	   169.372	    -2.252
   -71.795	   163.569	    15.606
   -91.439	  -166.585	    -5.013
   -39.945	   163.172	   -17.631
   -68.187	   167.936	    -4.287
   -68.159	   173.855	    -6.877
   -67.779	   164.144	    -3.216
   -72.629	  -169.820	   -14.887
   -66.771	  -175.098	    -9.416
   -66.873	   168.867	    -8.592
   -98.527	   164.984	     4.700
   -76.015	   154.083	     1.955
   -66.404	   170.590	    -4.336
   -64.353	   166.684	   -15.225
   -79.837	   175.407	     0.390
   -65.200	   167.859	    -4.144
   -58.825	   161.754	    -6.921
   -61.561	   160.474	    -8.118
   -63.578	   172.685	   -10.405
   -77.098	   177.576	    -0.040
   -59.286	   168.049	     8.831
   -60.805	   153.370	     8.906
   -71.087	   165.177	    -3.371
   -53.536	   158.488	    -6.562
   -87.205	   166.820	    13.575
   -71.488	   174.329	     5.451
   -57.790	   165.461	    -8.761
   -54.525	   173.022	    -1.852
   -53.193	   169.936	     0.526
   -55.005	   162.099	    -2.192
   -54.448	   170.076	    -2.877
   -71.277	   172.990	    -6.787
   -60.463	   172.910	    -4.992
   -79.271	   157.842	    -8.535
   -66.527	   177.747	   -16.550
   -65.672	   178.072	   -24.431
   -73.590	  -170.321	     5.850
   -68.157	  -172.256	     0.737
   -67.998	   176.372	    -3.843
   -59.147	   175.867	     0.149
   -54.921	   171.063	   -12.813
   -65.986	  -174.390	    -8.688
   -64.190	   167.279	   -11.250
   -67.842	  -178.765	    -8.786
   -69.195	   165.369	     4.457
   -84.356	   179.592	    -0.969
   -74.934	   168.603	     1.650
   -59.267	   171.435	   -12.696
   -65.105	   164.316	     4.501
   -58.398	   165.137	     6.113
   -53.733	   165.302	    -5.133
   -78.816	   167.564	   -11.030
   -62.850	  -179.770	   -14.529
   -55.356	   166.541	   -12.944
   -52.621	   172.990	   -12.249
   -79.909	  -167.338	     1.067
   -62.167	   175.846	    -0.284
   -69.492	   155.590	    -5.321
   -71.025	   165.647	    -1.224
   -56.394	   160.921	   -17.734
   -72.628	   161.636	    -5.024
   -76.138	   176.825	    -0.266
   -68.442	   151.599	   -27.586
   -75.193	  -175.075	   -19.856
   -77.537	   170.460	     8.306
   -61.073	   165.513	   -28.994
   -64.083	   163.709	    -1.683
   -61.237	   145.430	     6.474
   -67.531	   167.416	     4.165
   -54.376	   161.850	    -9.057
   -56.676	   165.589	   -13.119
   -57.260	   172.268	     2.791
   -60.771	   166.545	   -20.349
   -71.390	   178.458	     4.926
   -65.174	   164.124	     2.397
   -68.622	   173.776	     4.371
   -68.539	  -179.248	   -12.349
   -67.951	  -176.136	     6.303
   -70.285	   158.832	    -9.759
   -78.650	  -177.546	    -0.110
   -71.754	   175.497	   -13.230
   -63.494	   168.561	   -16.818
   -57.336	   165.028	   -14.317
   -54.366	   149.491	    -9.884
   -72.628	   172.807	     2.983
   -44.678	   166.060	   -15.588
   -57.338	   164.615	    -9.571
   -71.447	   172.987	   -18.816
   -57.089	   161.110	   -26.043
   -67.897	   175.918	   -14.838
   -82.413	   176.051	     3.029
   -71.659	  -167.224	   -13.493
   -50.111	   162.409	   -12.198
   -57.237	   164.132	    -6.496
   -66.127	   165.492	     6.164
   -66.219	   178.129	    16.583
   -64.453	   163.366	     4.140
   -67.931	   155.674	     7.704
   -69.171	   156.243	     3.586
   -66.784	   175.794	    -3.718
   -63.652	   174.086	   -12.219
   -59.256	   165.088	     5.701
   -63.133	   160.051	     9.328
   -63.241	   172.249	     0.199
   -59.361	   161.695	    -1.310
   -70.099	   166.874	     2.822
   -68.752	  -176.671	    10.637
   -77.194	  -176.857	    -0.326
   -61.348	   168.544	   -10.958
   -58.514	   173.691	    -7.826
   -62.168	   163.969	    22.137
   -55.797	   162.561	    -2.641
   -59.008	   169.693	   -13.368
   -63.053	   179.807	     9.582
   -67.178	   177.157	    15.276
   -75.290	  -178.037	     5.764
   -66.088	   156.951	   -10.499
   -66.421	   166.894	    -6.132
   -71.463	   171.667	   -12.317
   -66.316	  -177.973	   -20.923
   -65.903	  -168.527	   -28.693
   -70.975	   170.818	    -3.709
   -62.925	   150.970	    -4.154
   -59.332	   173.242	     6.886
   -66.417	   172.133	    -8.668
   -73.103	   163.232	    -2.594
   -65.775	   173.693	   -12.879
   -75.766	  -170.507	    -7.598
   -78.736	  -149.585	    -1.434
   -70.395	   173.077	    -5.809
   -79.762	   178.198	     6.257
   -65.279	   158.273	     8.598
   -71.493	   176.517	     9.782
   -61.739	   161.360	     8.423
   -66.687	   167.879	    -8.678
   -67.184	   164.384	    -8.921
   -74.492	   178.004	   -22.307
   -62.949	   161.316	   -22.934
   -68.888	   174.428	   -18.865
   -70.963	   168.268	     0.767
   -55.775	   160.673	    -9.480
   -57.096	   154.330	   -15.532
   -60.798	   171.584	    -6.350
   -63.341	   164.977	   -15.427
   -56.452	   170.326	    -8.770
   -57.330	   166.631	     9.915
   -68.928	   169.515	    -8.514
   -65.464	   173.081	    -6.881
   -72.899	   176.980	     1.138
   -56.836	   174.496	    -3.328
   -62.248	  -179.703	     6.355
   -65.322	   158.587	    -3.077
   -71.163	   163.795	    13.235
   -78.267	   163.803	    -5.888
   -60.161	   174.439	    12.037
   -59.480	   178.564	   -13.423
   -64.625	   163.738	    -7.426
   -53.294	   157.232	     0.481
   -58.412	   179.504	    -7.941
   -74.065	  -177.785	    -2.857
   -73.199	  -170.651	    -5.912
   -64.777	  -175.524	   -10.840
   -60.976	   169.001	    -5.699
   -53.417	   171.540	    -6.746
   -67.055	  -178.878	    -3.816
   -64.022	   174.660	   -18.110
   -59.223	   177.400	    -7.027
   -61.454	   153.677	    -6.905
   -67.178	   175.646	    -4.087
   -61.964	  -176.258	   -21.399
   -70.915	  -172.507	     2.631
   -69.808	   168.031	    -4.811
   -58.488	   176.585	   -20.147
   -81.003	  -178.957	    -7.405
   -81.647	   153.627	    11.501
   -78.804	   179.287	   -13.770
   -64.284	   167.126	     1.624
   -71.050	   178.459	   -18.058
   -61.360	   174.269	    -4.338
   -71.512	   178.507	    -3.759
   -59.789	   160.989	   -17.024
   -75.998	  -179.423	    -4.402
   -63.575	   172.923	    -6.488
   -70.716	   175.367	     6.338
   -67.564	   169.870	     8.490
   -59.719	   157.726	    -4.534
   -75.773	   176.117	    11.081
   -60.870	   176.639	     6.939
   -57.909	   154.058	   -11.081
   -55.729	   159.659	     2.382
   -50.974	   151.068	   -12.644
   -67.705	   155.640	    -4.224
   -62.133	   170.526	   -20.882
   -52.515	   167.974	   -16.219
   -81.179	   176.154	     8.880
   -60.530	   167.568	   -23.586
   -61.276	   155.550	    -2.498
   -77.228	   170.372	     4.281
   -71.511	   155.511	   -13.310
   -75.093	   177.243	    11.568
   -66.216	   171.357	   -11.852
   -66.620	   169.750	   -15.986
   -70.051	   163.258	    -7.293
   -60.572	   169.798	   -18.973
   -63.243	   173.701	    -9.320
   -72.312	   174.725	   -11.285
   -76.849	   164.604	     4.510
   -61.175	   164.700	   -16.234
   -58.974	   173.818	     6.324
   -82.122	   160.195	     4.020
   -55.707	   162.218	     6.543
   -62.892	   165.466	    -4.866
   -68.656	   165.378	     0.681
   -61.336	   164.412	     0.219
   -57.089	   161.298	   -13.740
   -60.336	   155.420	   -10.821
   -48.155	   162.284	   -20.797
   -71.980	   160.054	   -11.078
   -67.520	  -179.876	    -0.069
   -68.151	   171.457	   -10.380
   -69.206	   178.004	     2.639
   -61.245	   165.388	     5.360
   -68.123	   172.879	     4.048
   -71.874	   166.882	    -9.540
   -59.703	   175.414	    -4.307
   -71.779	   161.908	     1.869
   -74.043	   177.526	    -1.898
   -69.815	  -174.997	   -25.559
   -70.964	   174.357	    -7.060
   -78.448	   173.568	     8.064
   -74.817	   173.110	     3.280
   -80.745	  -174.699	     5.418
   -62.071	   166.597	   -13.446
   -75.419	   170.937	    10.407
   -66.990	  -178.765	     6.222
   -55.413	   167.794	   -16.128
   -57.967	   154.719	   -12.612
   -58.366	   159.635	     5.515
   -64.290	   171.246	     2.171
   -69.030	   163.164	   -11.305
   -55.575	   164.421	   -18.098
   -72.459	   171.904	    -4.798
   -80.805	   169.716	    -4.523
   -66.691	   155.098	     6.438
   -48.834	   167.473	   -12.152
   -69.159	   159.205	    -1.114
   -69.303	  -169.121	    -6.857
   -55.849	   155.259	    -3.440
   -63.506	   163.873	    -5.838
   -60.410	   165.574	     1.717
   -54.620	   176.620	    -0.193
   -64.489	   166.856	     6.320
   -78.194	  -179.381	     6.513
   -54.570	   168.145	    -7.552
   -68.374	   168.364	     1.789
   -61.549	   166.494	     2.498
   -39.522	   155.037	    10.409
   -72.721	   174.903	    -6.085
   -69.088	   167.978	     6.585
   -66.863	   171.682	    -4.599
   -65.896	   163.345	   -11.288
   -60.073	   172.528	    -9.816
   -37.602	   162.412	   -22.791
   -69.486	   176.818	   -15.324
   -57.260	   165.948	     0.926
   -66.026	   166.862	   -14.708
   -73.335	   160.982	   -11.588
   -66.637	   159.890	   -24.635
   -70.702	  -175.374	   -13.202
   -65.951	   179.086	     8.671
   -71.877	  -177.327	   -14.545
   -60.265	   170.261	   -19.461
   -47.894	   169.025	   -10.652
   -56.126	   165.883	   -19.101
   -59.184	   160.874	    11.832
   -65.931	   164.416	     5.689
   -69.392	  -175.112	     9.381
   -64.700	   156.025	     0.555
   -63.486	   155.284	    -4.898
   -69.336	  -172.539	     1.646
   -60.917	   161.976	   -12.447
   -56.852	   164.113	     7.021
   -61.795	   174.665	     0.851
   -84.805	   169.471	     6.671
   -72.574	   176.754	    -7.289
   -59.645	   168.504	    -1.687
   -74.926	   169.515	   -12.164
   -71.510	   166.560	     2.428
   -73.868	   162.696	     9.745
   -77.067	  -174.063	    -3.050
   -75.408	  -177.481	   -12.498
   -57.625	  -177.800	    -3.889
   -60.138	   168.388	   -13.415
   -75.710	  -171.360	     5.100
   -70.786	  -178.018	    -7.245
   -53.590	   157.587	     2.531
   -64.896	   156.587	     4.153
   -62.989	   163.513	    -2.798
   -72.667	   167.561	   -10.997
   -64.147	  -177.045	   -27.832
   -48.960	   177.026	    -7.569
   -60.428	   161.619	    -8.787
   -49.049	   169.800	    -5.832
   -58.368	  -176.186	   -15.701
   -69.047	   176.955	    16.657
   -72.687	  -176.934	     7.982
   -77.682	  -175.333	    -8.742
   -71.608	  -163.560	    -3.232
   -72.196	   168.632	    -6.691
   -75.168	   170.144	    -5.028
   -70.339	   166.957	     5.613
   -53.484	   159.632	    -3.177
   -58.655	   169.174	    -3.320
   -68.478	   161.529	     3.686
   -74.795	   172.936	    -2.470
   -61.786	   166.184	    -7.840
   -66.702	  -170.549	    -0.494
   -70.313	   175.967	     9.294
   -87.048	   164.226	     0.642
   -74.606	   175.568	     4.815
   -57.356	   157.818	    -9.814
   -65.282	   155.964	    24.711
   -72.971	   168.132	    -7.460
   -75.577	   169.450	   -14.121
   -57.490	   164.372	   -11.188
   -62.692	   166.578	   -15.557
   -67.852	   168.159	    -1.869
   -69.369	  -170.662	     5.624
   -57.355	   161.065	     7.071
   -62.432	   168.506	     8.593
   -62.682	   171.373	    -5.606
   -72.013	   171.656	    23.673
   -74.958	   172.541	     2.836
   -55.663	   176.185	   -17.162
   -65.667	  -177.346	    -2.419
   -68.130	   174.623	   -21.149
   -58.246	   145.589	   -15.883
   -81.991	   178.322	   -22.204
   -51.342	   151.751	     6.230
   -55.338	   169.652	   -16.713
   -74.424	  -175.412	    -4.111
   -58.783	   173.640	   -13.164
   -69.974	   163.971	   -11.316
   -73.824	   170.785	     3.215
   -53.652	   164.695	     1.379
   -63.601	   172.282	    -6.048
   -51.635	   179.906	   -10.330
   -64.332	   162.817	    -5.863
   -72.641	   176.635	     3.069
   -78.192	   167.739	     3.363
   -73.800	   166.289	     4.025
   -77.737	   173.313	    -0.682
   -67.030	   158.263	     4.715
   -67.862	   177.745	   -15.842
   -68.034	   166.045	   -13.919
   -69.789	   179.328	     4.794
   -61.404	   168.620	   -11.195
   -69.681	   178.864	    -0.554
   -74.496	  -171.111	     1.244
   -76.610	  -161.418	    -0.592
   -62.562	   179.448	   -17.955
   -59.779	   167.163	    -4.464
   -82.777	   164.897	    -1.881
   -59.893	   163.221	   -15.618
   -60.922	   159.598	    -6.125
   -71.393	   169.963	    -0.072
   -57.984	   178.609	   -14.369
   -77.715	   179.556	     9.290
   -60.565	   169.723	   -11.614
   -68.707	   165.308	    -2.293
   -64.121	  -169.474	   -17.191
   -68.107	   179.921	    -7.799
   -64.380	   156.044	    -2.617
   -62.128	   173.762	    -4.206
   -68.769	  -175.683	    13.879
   -68.609	  -177.162	    -5.805
   -64.194	   177.581	     5.549
   -72.654	   172.576	     0.286
   -75.773	   173.335	     6.481
   -65.814	   169.861	   -12.878
   -66.919	   167.005	     8.895
   -67.745	   167.197	    -1.637
   -65.006	   179.337	    -4.546
   -59.940	  -173.667	   -11.793
   -56.052	   160.819	    -8.427
   -64.367	   160.973	    -0.543
   -69.959	   173.480	    -5.109
   -70.705	   178.068	     0.429
   -85.726	   168.098	    -5.583
   -70.371	   166.057	    -1.366
   -63.553	   162.298	    -1.829
   -76.674	  -172.360	     5.280
   -65.972	   174.329	    -5.370
   -52.755	   160.437	    19.827
   -76.457	   178.118	     8.038
   -58.220	   145.538	    -8.955
   -61.480	   158.750	   -27.754
   -60.933	   165.099	     4.829
   -53.989	   168.825	     9.629
   -56.750	   167.344	     4.867
   -62.280	  -174.311	   -19.263
   -60.474	   175.176	    -9.339
   -64.655	   167.479	     1.148
   -60.646	   178.212	   -13.930
   -68.491	   168.747	   -17.416
   -76.308	   170.333	    -3.260
   -72.029	   174.772	    -5.880
   -71.555	   179.657	    -2.093
   -75.144	  -179.442	    -6.300
   -67.814	   178.747	     3.430
   -63.808	   170.812	     1.906
   -59.835	   160.913	     2.912
   -66.942	   149.749	     3.854
   -54.331	   148.199	    -0.662
   -70.032	   179.136	     1.464
   -70.620	   178.634	     3.152
   -63.205	   170.230	   -11.731
   -62.226	   171.449	    -5.808
   -61.855	   166.094	    -5.355
   -68.751	   160.998	     2.712
   -67.016	   160.935	     1.869
   -61.913	   160.557	    -8.274
   -58.475	   169.273	    -6.629
   -58.910	   162.834	     2.361
   -53.744	   170.332	    -8.564
   -64.759	   169.540	    -6.044
   -66.015	   161.387	    13.430
   -85.753	   176.920	    15.243
   -73.869	   170.258	    -2.126
   -76.473	   164.178	    -1.312
   -68.889	   152.672	   -20.146
   -84.274	   155.693	     0.268
   -72.078	   149.999	    -8.543
   -67.798	   155.194	    -0.752
   -65.152	  -179.654	   -13.330
   -60.086	   167.660	    -5.639
   -76.210	   167.708	   -10.650
   -68.689	   176.007	    -0.938
   -81.560	   175.509	   -10.373
   -73.154	   168.104	    -6.685
   -61.308	   168.646	    -2.023
   -62.297	   169.190	    -0.810
   -51.304	   164.196	   -10.813
   -71.853	   178.673	    -6.373
   -61.670	   165.697	     6.326
   -62.971	   179.780	     0.962
   -58.978	   152.628	    -8.751
   -79.615	  -177.382	   -10.389
   -64.147	  -173.903	    -0.604
   -78.859	   166.817	    -4.581
   -60.292	   159.693	    -3.707
   -60.519	   168.761	   -16.862
   -58.800	   170.576	     5.999
   -58.807	   172.932	    -6.607
   -76.288	   174.820	    -1.534
   -71.409	  -179.738	    -8.124
   -81.843	   171.917	    28.734
   -75.439	   167.858	    -1.676
   -57.936	   150.237	     0.346
   -75.270	   168.366	    15.956
   -72.742	   161.169	     4.366
   -50.763	   168.733	   -13.022
   -67.415	   174.991	     3.717
   -71.102	   171.993	    12.182
   -62.043	  -172.734	    -3.561
   -63.964	   174.936	     9.301
   -65.055	   161.485	    -6.910
   -58.778	   148.729	    -5.074
   -61.972	   171.454	   -14.447
   -68.981	   167.621	    -5.225
   -51.806	   165.632	    -8.971
   -61.662	   164.212	   -11.175
   -65.832	   170.818	   -11.144
   -68.361	   170.063	    -0.998
   -70.935	  -159.442	    -3.839
   -67.092	   171.239	   -10.799
   -56.420	   177.370	     3.150
   -67.673	   168.569	   -16.192
   -63.895	   165.111	    -8.897
   -61.877	   166.823	    -7.329
   -67.650	   163.570	     4.600
   -63.674	   175.018	     3.360
   -55.022	   152.075	    -7.417
   -61.505	   157.378	   -16.634
   -62.350	   173.190	   -18.958
   -65.421	   169.858	    15.418
   -70.558	   159.455	    -2.751
   -82.394	  -169.841	     3.739
   -62.213	   179.352	    16.855
   -63.217	   174.606	    20.358
   -53.409	   178.360	    -3.577
   -66.703	   171.845	    14.023
   -50.493	   166.750	     0.179
   -68.634	  -171.868	     3.699
   -59.241	   165.556	    -3.658
   -59.925	   171.940	    -6.358
   -65.671	   165.991	     6.961
   -76.762	   175.085	    20.022
   -78.630	   163.081	    10.474
   -70.713	   155.461	     6.339
   -54.343	   153.026	   -10.760
   -61.620	   152.958	     1.005
   -62.384	   157.604	     0.413
   -69.181	   168.665	     8.861
   -61.608	   179.048	    -8.449
   -67.577	   158.471	     5.755
   -65.638	   167.455	   -11.015
   -58.026	   167.037	    -3.979
   -65.677	   169.417	     0.525
   -55.611	  -177.593	   -18.701
   -70.111	   168.145	    -0.814
   -77.832	   167.749	     1.814
   -55.980	   166.031	   -12.533
   -68.227	   179.308	    -6.069
   -57.822	   166.444	     9.025
   -63.035	   169.531	     1.835
   -69.536	  -172.838	     2.247
   -56.591	   168.504	    -1.991
   -63.149	   161.723	   -17.070
   -77.246	   169.010	     1.950
   -55.669	   173.279	   -20.324
   -59.186	  -177.608	   -17.922
   -59.123	   158.926	     8.638
   -77.773	  -173.381	    14.931
   -69.754	   177.592	     6.606
   -75.169	  -164.680	    -3.190
   -83.919	  -178.309	    14.250
   -50.785	   158.835	    -7.707
   -45.474	   156.702	   -11.260
   -50.690	   156.894	   -12.728
   -63.795	   174.704	   -14.221
   -72.378	   163.211	    -2.483
   -65.400	   177.670	    -7.648
   -62.471	   174.976	     3.092
   -74.059	   169.431	    -1.137
   -71.641	   176.325	   -17.792
   -74.455	   166.923	    -7.798
   -72.044	   169.407	    18.388
   -58.485	   172.108	   -15.759
   -47.571	   160.038	    -5.330
   -56.165	   169.611	     3.350
   -58.852	   165.480	    -6.353
   -58.411	   168.208	   -20.748
   -77.757	   169.365	     2.013
   -84.204	  -166.048	    12.990
   -74.915	   175.912	    -3.976
   -73.082	   166.115	   -14.366
   -74.455	  -173.254	   -18.385
   -49.608	   161.104	   -17.636
   -72.421	   160.632	   -14.632
   -65.928	  -179.919	    -6.907
   -65.438	   178.527	    -3.942
   -61.762	   172.213	    -5.454
   -61.834	  -176.434	   -20.409
   -69.094	  -174.640	   -12.089
   -64.971	  -173.233	    -1.924
   -67.428	  -176.779	   -13.510
   -71.973	   176.976	    -5.139
   -64.421	   167.841	     1.619
   -79.227	   172.447	    -0.435
   -65.312	  -162.097	    -9.552
   -76.036	  -176.969	   -11.132
   -75.323	   178.692	    17.418
   -63.873	  -171.463	    -0.490
   -58.148	   153.912	     9.708
   -86.929	   165.133	    16.006
   -63.336	   171.033	     5.523
   -67.523	   172.909	   -18.846
   -82.277	  -169.343	   -15.125
   -78.613	  -167.609	     6.008
   -64.351	   169.047	   -19.547
   -82.075	   162.242	    -2.293
   -70.248	   168.118	   -18.667
   -55.875	   168.495	   -14.771
   -73.456	   168.166	     0.081
   -59.993	   167.202	    -4.999
   -65.101	   153.560	    -6.971
   -62.674	   171.363	     6.247
   -74.171	   166.993	    10.744
   -55.972	   172.773	   -11.025
   -71.718	   173.373	    12.283
   -57.868	   175.910	    -7.903
   -60.328	   169.158	    -1.519
   -70.442	   169.972	     2.864
   -76.445	   160.206	    -1.876
   -74.283	   164.886	     0.699
   -68.034	   159.538	    -9.407
   -63.012	  -167.454	    -6.554
   -50.731	   159.332	   -26.000
   -71.185	   159.919	     4.466
   -80.110	   176.582	     3.480
   -75.645	   177.770	     1.910
   -61.618	   169.704	    -2.517
   -57.668	   168.192	   -16.060
   -66.773	   172.422	   -22.425
   -61.070	   160.034	     1.867
   -59.034	   175.810	   -14.217
   -74.706	   174.014	   -20.937
   -68.035	   162.345	   -26.413
   -71.739	  -178.642	    -9.251
   -55.736	   178.662	   -20.368
   -76.742	   173.580	   -11.913
   -67.711	   169.593	   -11.709
   -53.349	   166.845	     2.111
   -63.486	   160.734	     1.935
   -66.796	   169.845	   -11.094
   -59.252	   173.081	    -1.423
   -58.622	   159.736	    -3.688
   -64.444	   160.678	    -7.455
   -67.626	   175.097	   -11.961
   -63.637	   176.796	     0.227
   -59.332	   178.068	   -13.114
   -68.970	   168.030	    -0.927
   -67.641	   163.929	    -2.984
   -58.791	   158.255	    -1.241
   -59.723	   157.256	     2.914
   -65.171	   164.353	    -5.007
   -75.915	  -173.040	    -6.179
   -64.344	   173.393	    13.833
   -63.773	   172.752	    -8.176
   -57.544	   171.714	    -4.794
   -51.108	   154.529	   -22.197
   -61.251	   164.568	   -10.055
   -62.782	   163.272	     1.758
   -63.373	   158.925	   -16.913
   -71.649	   156.905	     6.321
   -75.516	  -179.755	    -3.806
   -60.028	   175.392	   -17.012
   -59.884	  -175.182	     5.201
   -74.900	   170.253	    -0.624
   -66.608	  -173.716	    -2.003
   -64.578	   170.252	    -4.927
   -39.678	   165.945	   -23.952
   -57.162	   166.912	     1.869
   -65.939	   157.765	   -24.743
   -53.564	   175.115	   -11.411
   -71.142	   179.077	   -13.931
   -73.310	   176.358	   -14.687
   -67.116	  -173.486	    11.713
   -62.380	   175.655	    -7.355
   -62.393	   162.024	     0.017
   -56.333	   165.226	    10.707
   -49.609	   150.109	   -23.296
   -76.355	   173.758	    12.415
   -62.017	  -179.063	   -10.858
   -62.017	  -176.421	   -18.944
   -93.768	   173.391	    -4.143
   -85.323	  -172.672	   -17.009
   -80.174	  -175.365	    -2.058
   -56.467	   165.437	     8.997
   -72.975	   176.736	    -4.982
   -61.801	   172.361	    -6.558
   -76.014	   179.564	   -13.993
   -55.705	   159.112	    -3.146
   -76.066	   169.732	     4.998
   -67.327	   160.139	   -17.618
   -73.976	   176.549	    -7.195
   -62.848	   165.495	    -7.273
   -62.067	   163.342	    -4.449
   -68.601	   177.141	    -8.623
   -62.836	  -165.684	    -1.375
   -72.458	   159.376	     3.331
   -68.253	   173.647	     8.841
   -67.240	  -174.767	     3.886
   -71.102	   171.865	     8.592
   -77.069	  -174.732	    13.379
   -43.727	   152.143	   -13.368
   -62.511	   170.623	     0.621
   -71.404	  -178.522	    -1.161
   -60.913	   171.202	   -11.584
   -67.024	   152.223	     0.699
   -71.048	   155.372	    -9.490
   -60.393	   168.019	   -24.132
   -59.426	   174.129	   -14.780
   -57.871	   165.216	   -12.556
   -92.557	   168.649	    -3.478
   -63.396	   171.782	    -1.628
   -64.208	   166.601	   -24.763
   -68.133	  -173.919	   -12.878
   -69.251	  -179.857	    -5.517
   -80.161	   164.927	    -6.346
   -76.287	  -177.784	     4.710
   -55.444	   175.318	     4.067
   -50.931	   175.279	   -17.316
   -51.179	   155.009	    -8.541
   -71.249	  -179.855	     5.857
   -68.109	   163.641	     2.771
   -74.977	  -176.839	     7.229
   -63.592	   155.942	    -3.223
   -71.667	   162.473	   -23.536
   -66.111	   177.075	   -18.766
   -77.637	  -178.050	    -7.180
   -73.644	  -178.125	    -2.609
   -55.527	   169.629	   -32.005
   -71.768	   156.874	    -5.835
   -53.589	   167.211	    -4.121
   -72.708	   178.010	     9.004
   -55.798	   164.170	   -15.919
   -62.141	   176.011	    -7.594
   -73.493	  -176.713	    15.664
   -62.792	   172.969	    13.559
   -61.925	   173.050	    -6.038
   -68.510	   165.720	    -1.911
   -61.485	  -178.229	    -5.154
   -65.326	   173.601	   -12.180
   -62.797	   168.853	   -20.382
   -63.381	  -175.123	    -1.491
   -73.691	   175.731	    -1.852
   -62.994	   170.778	    -3.318
   -58.046	   172.863	   -11.092
   -50.837	   157.573	   -11.381
   -59.846	   171.857	     1.757
   -77.816	  -173.744	    -1.600
   -47.604	   164.923	    -6.310
   -63.980	   153.553	   -12.264
   -56.881	   157.524	     5.346
   -68.767	   175.443	    12.126
   -67.134	   166.065	     7.254
   -69.541	   159.778	   -11.456
   -75.553	   154.981	   -13.816
   -64.166	   166.640	     1.396
   -76.296	   160.607	     2.217
   -74.030	   172.477	     1.133
   -57.790	   167.578	    -8.380
   -59.871	   157.758	     8.657
   -60.465	  -176.429	   -20.095
   -62.681	   174.382	     7.802
   -60.910	   176.323	   -10.062
   -64.448	   160.599	    -9.001
   -54.802	   173.881	   -11.690
   -62.745	   166.694	   -12.547
   -64.360	  -178.920	    -1.744
   -56.736	   165.327	    -2.438
   -60.967	   171.731	    -6.154
   -52.357	  -179.018	    -8.414
   -55.791	  -176.575	   -16.083
   -67.559	  -176.406	    -0.092
   -67.927	   168.247	    -5.798
   -57.951	   176.598	    -8.896
   -67.692	   160.491	     1.563
   -72.677	   158.286	     8.395
   -72.950	  -173.285	    -6.184
   -72.045	   167.213	     0.541
   -72.185	  -175.192	   -22.128
   -57.553	   157.595	    -8.300
   -74.940	   172.036	    -5.634
   -71.767	  -177.837	     0.436
   -64.443	   165.500	   -14.356
   -71.170	   169.371	   -14.125
