-19874.109	    15.334	   -92.310	   122.143
-20204.393	    15.387	   -91.592	   -35.960
-20328.998	    15.537	   -74.797	   -27.731
-20175.561	    15.531	  -100.444	   -41.381
-20126.184	    15.324	   -88.380	   -31.012
-20138.135	    14.962	  -122.102	   -23.425
-20321.330	    14.934	   -84.707	   -47.159
-20252.934	    15.107	   -88.481	   -41.794
-20077.377	    15.269	   -97.869	   -42.398
-20072.547	    15.416	   -95.263	   -33.871
-20283.342	    15.393	  -139.921	   -47.042
-20268.121	    15.179	  -136.308	   -48.965
-20149.289	    15.072	  -106.893	   -49.792
-20208.410	    15.139	   -93.978	   -34.399
-20301.619	    15.271	  -101.596	   -22.166
-19942.402	    15.442	  -114.931	   -33.867
-20051.312	    15.480	   -85.201	   -39.895
-20151.967	    15.369	   -97.891	   -35.663
-20287.875	    15.229	   -98.517	   -44.415
-20382.758	    15.099	  -124.274	   -56.936
-20372.475	    15.178	  -133.415	   -59.713
-20325.500	    15.303	   -99.686	   -42.356
-20124.709	    15.357	  -101.973	   -56.547
-20289.871	    15.266	   -91.401	   -46.057
-20282.809	    15.194	  -134.222	   -38.431
-20215.834	    15.189	   -79.794	   -47.290
-20219.195	    15.281	   -93.057	   -54.455
-19969.285	    15.396	  -110.586	   -52.805
-20328.582	    15.478	  -134.491	   -37.387
-20165.836	    15.365	  -126.696	   -25.206
-20310.264	    15.212	  -109.019	   -45.233
-20277.211	    15.140	  -104.920	   -21.695
-20211.648	    15.189	  -107.805	   -33.835
-20267.332	    15.297	  -124.586	   -34.914
-20154.434	    15.402	   -92.721	   -19.165
-20005.363	    15.417	   -98.152	   -30.698
-20087.201	    15.386	  -107.671	   -33.459
-20070.848	    15.351	   -88.816	   -32.253
-20073.455	    15.452	  -106.819	   -52.754
-20184.387	    15.595	  -115.518	   -37.732
-20121.693	    15.769	  -118.753	   -49.536
-20173.277	    15.789	  -110.974	   -28.208
-19945.977	    15.458	  -107.043	   -37.045
-20291.850	    15.079	   -86.069	   -51.709
-20243.707	    14.924	   -95.953	   -37.052
-20317.789	    14.977	  -119.602	   -38.924
-20370.758	    15.252	  -107.061	   -38.434
-20162.285	    15.596	  -102.261	   -39.667
-20000.992	    15.772	  -111.855	   -46.729
-20384.799	    15.732	  -105.009	   -40.909
-20164.035	    15.625	  -124.981	   -28.779
-20169.049	    15.374	  -111.812	   -46.306
-20256.789	    15.211	  -127.712	   -37.174
-20510.035	    15.246	  -134.696	   -26.112
-20106.244	    15.333	   -99.959	   -44.125
-20202.789	    15.431	  -106.164	   -31.190
-20189.924	    15.529	  -122.807	    -8.170
-20207.127	    15.500	  -114.364	   -34.511
-20262.162	    15.406	  -108.114	   -30.142
-20235.789	    15.353	   -99.819	   -47.135
-19941.639	    15.319	  -107.351	   -43.737
-20095.193	    15.346	  -101.525	   -38.952
-19966.400	    15.400	  -123.159	   -45.214
-20198.436	    15.513	  -113.543	   -44.144
-19996.031	    15.645	  -103.385	   -46.243
-20276.654	    15.773	  -111.691	   -39.521
-20114.680	    15.913	   -95.299	   -28.968
-20197.396	    15.728	  -106.116	   -43.252
-20135.080	    15.439	  -102.813	   -56.855
-20232.150	    15.272	   -93.445	   -56.403
-20257.820	    15.268	   -95.435	   -47.251
-20306.557	    15.385	   -94.380	   -43.012
-20470.668	    15.418	   -99.518	   -47.486
-20205.787	    15.460	   -96.435	   -26.896
-20120.523	    15.446	  -114.738	   -46.596
-20123.646	    15.358	  -110.002	   -52.072
-20059.096	    15.253	  -120.964	   -54.495
-20198.688	    15.165	   -99.712	   -38.229
-20097.330	    15.287	  -106.646	   -33.946
-20180.947	    15.502	   -90.832	   -36.563
-20251.150	    15.614	  -123.627	   -26.113
-20184.246	    15.596	  -140.292	   -51.583
-20094.133	    15.441	  -117.139	   -52.518
-20203.447	    15.254	  -107.896	   -20.466
-20314.615	    15.218	  -128.461	   -28.848
-20224.176	    15.370	   -99.100	   -36.955
-20186.277	    15.643	   -84.549	   -16.044
-20056.900	    15.844	   -99.555	   -19.693
-20212.887	    15.862	  -110.372	   -42.505
-19900.670	    15.729	  -113.490	   -40.958
-20237.086	    15.603	  -122.602	   -35.617
-20190.398	    15.490	  -101.451	   -30.822
-20139.703	    15.416	  -105.432	   -48.063
-20332.201	    15.364	  -117.277	   -32.747
-20362.818	    15.402	   -84.143	   -45.253
-19953.764	    15.488	   -90.636	   -47.585
-20142.598	    15.637	  -110.140	   -42.486
-20161.871	    15.738	  -112.118	   -45.469
-19832.830	    15.689	   -97.338	   -47.104
-20291.945	    15.597	  -113.874	   -37.385
-20063.654	    15.568	  -100.302	   -51.293
-20367.672	    15.542	   -94.399	   -48.042
-20108.172	    15.519	  -110.661	   -33.709
-20261.068	    15.492	  -100.113	   -36.654
-19975.979	    15.490	   -80.145	   -40.110
-20042.189	    15.409	  -106.218	   -38.869
-20384.221	    15.446	   -85.442	   -43.389
-20047.535	    15.580	   -94.512	   -38.606
-20147.717	    15.678	   -95.345	   -41.385
-19945.836	    15.785	  -119.175	   -36.891
-20150.494	    15.762	  -116.950	   -34.633
-20102.980	    15.711	  -103.779	   -38.096
-20201.822	    15.556	  -103.258	   -39.411
-20086.256	    15.480	  -105.297	   -36.435
-20223.498	    15.466	  -119.170	   -29.606
-20302.854	    15.376	  -115.629	   -38.789
-20636.141	    15.250	  -112.957	   -18.687
-20318.129	    15.282	  -129.855	   -24.448
-20037.592	    15.365	   -86.669	    -2.377
-20246.146	    15.408	   -95.638	   -44.266
-20161.852	    15.454	   -83.867	   -35.014
-20112.902	    15.451	  -101.269	   -55.124
-20175.141	    15.374	  -101.118	   -25.087
-20194.473	    15.342	   -88.981	   -16.754
-20522.617	    15.373	   -83.816	   -29.218
-20320.162	    15.584	  -113.990	   -33.131
-20366.861	    15.754	   -95.828	   -42.307
-20253.756	    15.912	  -117.982	   -33.496
-20072.023	    16.041	  -120.796	   -33.458
-19975.801	    16.037	  -118.265	   -42.092
-20051.857	    15.877	   -93.131	   -44.958
-20205.094	    15.634	  -122.184	   -56.939
-20325.002	    15.411	  -121.588	   -36.121
-20293.865	    15.277	   -99.599	   -44.232
-20158.496	    15.243	   -82.350	   -12.236
-20263.236	    15.235	  -107.305	   -32.138
-20231.863	    15.327	  -106.411	   -31.521
-20366.855	    15.415	  -121.780	   -36.794
-20005.752	    15.430	   -94.267	   -26.218
-20118.797	    15.521	  -122.044	   -34.616
-20270.061	    15.572	   -98.742	   -22.987
-20192.414	    15.495	  -108.652	   -43.921
-20249.805	    15.360	   -97.245	   -52.852
-20261.078	    15.191	  -101.459	   -33.273
-20495.857	    15.052	   -96.726	   -27.751
-20120.227	    15.251	  -102.082	   -44.353
-20132.477	    15.573	   -88.342	   -29.224
-20141.656	    15.841	   -90.991	   -30.338
-20269.695	    15.879	   -99.256	   -39.125
-20199.344	    15.783	  -106.676	   -44.013
-20226.320	    15.636	  -107.875	   -28.751
-20068.855	    15.456	  -124.451	   -31.963
-20296.121	    15.170	   -93.764	   -36.185
-20148.902	    15.094	   -91.128	   -44.444
-20060.945	    15.229	   -73.921	   -40.100
-20014.377	    15.474	   -68.848	   -31.263
-20485.576	    15.748	   -81.448	   -44.689
-20169.453	    15.920	   -74.647	   -41.010
-19952.092	    15.926	   -81.737	   -46.544
-20040.578	    15.756	  -112.550	   -43.835
-20168.678	    15.564	   -86.829	   -43.505
-19947.670	    15.389	   -91.867	   -26.138
-20179.387	    15.270	  -107.533	   -38.507
-20159.279	    15.196	  -115.265	   -57.254
-20374.158	    15.292	   -93.557	   -33.920
-19923.744	    15.480	  -110.829	   -25.533
-20170.916	    15.572	  -114.682	   -52.410
-20231.676	    15.488	  -112.211	   -42.316
-20389.512	    15.328	  -112.438	   -48.390
-20178.906	    15.193	  -130.512	   -19.258
-20118.189	    15.181	  -120.361	   -25.217
-20135.232	    15.286	   -76.513	   -46.415
-20298.789	    15.464	  -103.343	   -25.327
-20180.719	    15.489	   -89.756	   -33.386
-20216.670	    15.502	  -100.532	   -29.804
-20050.725	    15.612	   -98.331	   -13.280
-20203.328	    15.595	  -112.243	   -26.334
-20332.117	    15.363	   -88.006	   -29.204
-20165.262	    15.115	   -96.586	   -40.030
-19952.240	    15.047	  -127.262	   -21.232
-19957.520	    15.312	  -102.567	   -54.993
-20318.684	    15.593	  -105.289	   -41.931
-20124.748	    15.706	  -106.944	   -38.105
-20234.166	    15.713	  -103.241	   -34.266
-20215.619	    15.634	  -103.973	   -40.684
-20054.541	    15.471	  -130.825	   -36.619
-20377.295	    15.326	  -115.442	   -42.269
-20171.775	    15.282	  -113.030	   -14.192
-20023.412	    15.384	  -108.977	   -34.786
-19965.336	    15.600	   -84.352	   -31.037
-19972.695	    15.796	  -106.289	   -18.250
-19953.691	    15.842	  -110.523	   -35.462
-19905.518	    15.713	  -136.462	   -21.889
-20002.604	    15.482	  -108.936	   -53.079
-20137.746	    15.354	  -117.561	   -50.548
-20251.869	    15.340	  -113.781	   -42.337
-20268.223	    15.322	  -116.952	   -35.541
-20068.629	    15.336	   -98.247	   -36.008
-20257.043	    15.212	  -112.092	   -40.422
-20066.871	    15.256	  -109.992	   -44.937
-20399.070	    15.371	  -129.858	   -45.198
-20122.652	    15.328	   -96.724	   -51.039
-20281.160	    15.283	  -116.428	   -54.460
-20432.340	    15.355	  -127.758	   -38.284
-20324.410	    15.458	   -82.929	   -41.567
-20370.861	    15.525	  -108.952	   -52.536
-20221.678	    15.374	   -96.054	   -39.377
-20385.570	    15.254	  -129.265	   -55.492
-20300.084	    15.243	   -94.379	   -32.610
-20279.594	    15.416	   -95.782	   -22.184
-20169.486	    15.623	  -101.732	   -41.973
-20327.820	    15.710	  -106.949	   -47.463
-20275.512	    15.588	   -90.474	   -26.769
-20168.473	    15.473	   -99.808	   -52.101
-20195.730	    15.345	  -115.713	   -39.893
-20422.354	    15.238	  -126.533	   -34.314
-20380.609	    15.136	  -132.102	   -33.109
-19998.166	    15.248	  -101.988	   -36.383
-20079.713	    15.345	  -101.030	   -27.367
-20143.010	    15.403	  -128.553	   -31.201
-20053.930	    15.451	  -117.316	   -23.410
-19995.770	    15.497	  -126.114	   -24.309
-20289.922	    15.473	  -102.796	   -39.268
-20346.264	    15.604	  -120.391	   -41.539
-20147.428	    15.764	  -121.601	   -42.293
-20275.811	    15.678	  -127.178	   -39.897
-20155.223	    15.486	   -96.374	   -39.066
-20152.258	    15.396	  -131.719	   -30.786
-19985.020	    15.444	  -108.390	   -41.670
-20318.320	    15.437	  -117.519	   -38.184
-20356.244	    15.354	  -102.134	   -53.019
-20317.855	    15.315	   -97.635	   -50.326
-20444.090	    15.335	  -130.272	   -25.299
-20191.334	    15.422	   -98.494	   -30.146
-19913.309	    15.383	   -75.627	   -49.493
-20067.172	    15.332	   -92.966	   -21.181
-20218.109	    15.300	   -96.915	   -12.123
-20219.434	    15.379	  -107.035	   -26.148
-20353.910	    15.466	   -85.834	   -23.316
-20253.912	    15.496	   -94.971	   -27.925
-20142.279	    15.469	   -92.007	   -55.575
-20213.369	    15.355	   -93.125	   -39.333
-20465.389	    15.288	   -99.844	   -40.331
-20169.533	    15.245	  -107.815	   -55.685
-20152.791	    15.283	  -110.403	   -36.654
-20373.459	    15.374	  -118.773	   -31.121
-20058.967	    15.410	  -125.824	   -38.546
-20263.195	    15.470	   -99.757	   -55.811
-20354.271	    15.534	  -120.337	   -28.550
-20315.783	    15.593	  -102.354	   -54.430
-20050.078	    15.685	  -106.997	   -58.959
-20116.578	    15.705	   -96.181	   -42.660
-20153.252	    15.656	   -81.766	   -37.368
-20144.650	    15.576	  -127.143	   -21.715
-20051.770	    15.520	  -134.955	   -59.755
-20216.051	    15.338	  -127.926	   -53.187
-20328.234	    15.083	   -95.249	   -55.715
-20347.891	    15.054	   -87.379	   -47.256
-20398.703	    15.065	   -96.487	   -36.560
-20397.619	    15.117	   -89.580	   -33.376
-20347.221	    15.249	  -106.590	   -42.524
-20127.951	    15.519	  -102.820	   -52.335
-20239.928	    15.622	   -89.803	   -51.548
-20052.877	    15.563	  -112.687	   -56.578
-20187.729	    15.407	   -89.651	   -37.500
-20314.369	    15.211	   -93.942	   -38.331
-20305.830	    15.102	  -131.415	   -18.786
-20145.914	    15.240	  -108.590	   -46.156
-20108.307	    15.560	  -126.562	   -16.794
-19938.330	    15.825	  -116.628	   -20.828
-20049.529	    15.737	  -127.028	   -48.005
-20383.945	    15.456	   -83.463	   -32.281
-20288.664	    15.153	  -112.729	   -19.253
-20068.025	    14.963	   -97.369	   -39.952
-20376.502	    14.901	  -120.928	   -45.140
-20322.537	    15.031	  -107.356	   -44.247
-20159.723	    15.259	  -103.563	   -43.128
-20095.594	    15.376	  -114.260	   -31.444
-20222.959	    15.400	  -117.458	   -53.644
-20171.869	    15.469	  -107.303	   -41.656
-20169.535	    15.439	  -111.478	   -37.282
-20220.795	    15.364	  -130.684	   -41.933
-20283.637	    15.376	   -97.302	   -33.478
-20242.697	    15.369	  -102.378	   -47.397
-20112.461	    15.368	   -80.740	   -37.650
-20045.965	    15.491	   -86.555	   -21.046
-20273.400	    15.656	   -81.787	   -15.396
-19992.248	    15.706	  -122.684	   -19.381
-20005.021	    15.600	  -115.157	   -16.788
-20175.473	    15.576	   -93.513	   -16.059
-20149.730	    15.554	  -121.473	   -22.809
-20125.906	    15.557	  -116.197	   -42.613
-20058.002	    15.561	  -117.836	   -44.248
-20133.600	    15.462	   -87.647	   -61.454
-20075.617	    15.281	   -76.693	   -43.089
-20124.451	    15.111	  -123.089	   -18.312
-20516.811	    15.080	   -78.928	   -35.603
-20420.375	    15.243	   -97.658	   -35.269
-20065.068	    15.442	   -89.253	   -41.399
-19696.572	    15.507	  -111.333	   -14.903
-20025.463	    15.462	   -98.334	   -39.509
-20333.541	    15.395	   -93.381	   -39.241
-20095.105	    15.369	  -115.644	   -39.092
-20348.332	    15.360	  -108.371	   -56.639
-20007.289	    15.420	  -101.435	   -42.204
-19992.465	    15.569	  -112.314	   -37.104
-19950.555	    15.562	  -135.625	   -47.093
-20241.963	    15.323	  -114.817	   -51.077
-20088.643	    15.133	  -109.001	   -54.535
-20142.570	    15.051	  -143.685	   -42.335
-20216.906	    15.162	  -110.825	   -37.220
-20306.934	    15.436	  -112.748	   -34.965
-20095.814	    15.712	  -121.359	   -36.722
-19987.262	    15.895	  -120.326	   -40.220
-19819.844	    15.773	  -107.524	   -54.406
-20186.043	    15.419	  -121.536	   -36.953
-20300.027	    15.070	   -99.381	   -53.885
-20214.691	    14.952	  -129.627	   -38.148
-20170.342	    15.212	   -74.917	   -22.401
-20001.293	    15.599	  -120.817	   -34.390
-19937.461	    15.855	   -93.709	   -18.639
-19873.283	    15.845	   -98.461	   -34.724
-20087.084	    15.630	  -102.427	   -29.138
-20273.053	    15.468	  -109.010	   -31.231
-20096.250	    15.309	   -93.275	   -18.571
-20329.646	    15.276	  -113.184	   -44.838
-20224.771	    15.471	  -109.196	   -50.772
-20163.074	    15.692	  -116.926	   -40.663
-20318.486	    15.696	  -110.716	   -43.069
-20426.980	    15.609	  -122.490	   -45.402
-20168.254	    15.493	  -104.902	   -36.947
-20203.275	    15.299	  -114.483	   -48.094
-20227.881	    15.321	  -116.019	   -23.045
-20234.039	    15.440	   -97.070	   -65.264
-20255.080	    15.517	   -75.187	   -42.399
-20296.441	    15.454	   -89.445	   -30.062
-20349.988	    15.394	   -93.189	   -33.949
-20403.824	    15.337	  -101.803	   -30.485
-20288.861	    15.358	   -94.848	   -40.870
-20293.527	    15.364	   -96.292	   -32.740
-20392.732	    15.333	   -94.667	   -40.175
-20327.076	    15.420	  -101.943	   -27.696
-20236.770	    15.569	   -87.540	   -30.122
-20199.664	    15.666	  -109.922	   -45.892
-20085.588	    15.708	  -108.919	   -26.819
-20321.523	    15.640	  -102.924	   -49.333
-20253.887	    15.573	  -123.637	   -47.591
-20133.375	    15.465	  -138.517	   -37.533
-20257.949	    15.341	  -126.796	   -34.558
-20224.686	    15.363	  -120.831	   -31.651
-20145.338	    15.463	  -139.033	   -49.056
-20277.008	    15.508	   -69.914	   -36.067
-20264.148	    15.442	  -118.019	   -49.352
-20110.697	    15.320	  -131.912	   -24.302
-20084.512	    15.238	  -105.697	   -35.374
-20070.900	    15.197	  -101.087	   -32.359
-19984.914	    15.239	  -120.442	   -42.568
-19937.949	    15.429	  -102.899	   -52.327
-20028.943	    15.542	   -95.090	   -28.024
-20121.066	    15.493	   -99.994	   -37.863
-20296.287	    15.321	   -96.775	   -66.757
-20084.400	    15.218	  -106.724	   -58.724
-20216.211	    14.979	  -111.559	   -40.867
-20569.824	    14.900	   -92.413	   -61.178
-20402.484	    15.060	  -118.967	   -37.025
-20053.771	    15.370	  -107.205	   -57.931
-20021.812	    15.627	   -82.918	   -27.767
-20241.869	    15.643	  -128.651	   -32.140
-20264.846	    15.545	  -112.925	   -28.953
-20074.893	    15.461	  -101.288	   -45.658
-20475.650	    15.326	  -108.053	   -43.274
-20288.279	    15.193	  -120.995	   -47.497
-20288.949	    15.193	  -125.200	   -38.741
-20296.174	    15.226	  -104.911	   -36.107
-20283.184	    15.360	  -128.699	   -53.922
-20166.051	    15.442	   -83.168	   -29.673
-20413.436	    15.511	   -96.847	   -46.967
-20144.451	    15.700	   -95.074	   -40.541
-19985.705	    15.688	  -102.480	   -35.844
-20043.803	    15.673	  -112.253	   -49.848
-20243.293	    15.543	  -118.791	   -27.783
-20195.166	    15.319	  -107.739	   -54.890
-20389.717	    15.141	   -98.571	   -39.227
-20181.139	    15.148	  -100.500	    -8.392
-20296.748	    15.401	  -114.593	   -31.826
-19781.600	    15.679	  -106.268	   -32.843
-19856.773	    15.826	  -106.115	   -39.638
-20009.818	    15.832	  -103.073	   -48.157
-20002.541	    15.765	   -91.948	   -41.579
-20165.037	    15.594	  -108.519	   -49.549
-20152.203	    15.494	   -93.284	   -22.762
-20148.799	    15.551	  -102.060	   -28.606
-19875.566	    15.605	  -100.546	   -32.335
-20160.250	    15.583	  -108.382	   -30.116
-20275.213	    15.477	  -114.964	   -39.081
-20314.607	    15.283	  -122.444	   -48.074
-20383.049	    15.230	  -112.338	   -38.114
-20464.576	    15.099	  -131.609	   -28.631
-20397.561	    15.055	  -102.621	   -33.979
-20405.641	    15.104	   -84.109	   -29.021
-20301.281	    15.264	  -104.427	   -35.759
-19932.346	    15.450	  -138.232	   -41.555
-20185.109	    15.557	  -140.087	   -33.001
-20063.402	    15.554	  -119.518	   -34.049
-20217.838	    15.460	   -99.743	   -25.330
-20258.805	    15.456	  -104.416	   -35.619
-20323.217	    15.359	  -115.468	   -35.411
-20203.145	    15.144	  -105.019	   -30.332
-19965.307	    15.085	   -92.644	   -56.559
-20313.326	    15.181	  -104.772	   -47.044
-20323.295	    15.383	  -114.490	   -48.714
-20166.594	    15.469	  -129.102	   -28.488
-20141.848	    15.370	   -92.629	   -47.690
-20195.119	    15.238	  -114.451	   -45.368
-20379.855	    15.167	  -122.388	   -39.242
-20227.346	    15.281	   -81.435	   -41.014
-20077.217	    15.479	   -92.682	   -21.776
-19963.957	    15.576	   -88.279	   -47.394
-20300.395	    15.510	   -88.026	   -38.603
-20164.064	    15.350	  -100.921	   -45.227
-20463.889	    15.314	  -117.533	   -27.653
-20418.770	    15.272	  -112.829	   -33.352
-20197.764	    15.389	   -97.834	   -23.602
-20124.053	    15.558	   -93.306	   -49.564
-20288.570	    15.529	  -110.223	   -27.250
-20171.533	    15.413	  -113.673	   -46.993
-20354.096	    15.455	  -149.062	   -21.044
-19989.152	    15.579	  -112.796	   -46.112
-20092.271	    15.589	   -96.331	   -33.279
-20235.449	    15.477	   -93.213	   -24.717
-20239.346	    15.476	  -112.955	   -32.655
-19993.363	    15.517	  -111.459	   -37.809
-20242.574	    15.553	  -107.552	   -34.809
-20258.340	    15.574	   -99.230	   -55.124
-20216.371	    15.472	  -108.546	   -49.005
-20141.951	    15.400	   -98.088	   -37.909
-20258.980	    15.389	  -127.892	   -33.473
-20468.893	    15.375	  -109.933	   -29.327
-19905.236	    15.467	   -93.012	   -50.467
-19999.402	    15.633	  -116.044	   -43.236
-20314.439	    15.579	   -89.297	   -48.724
-20073.395	    15.437	  -126.597	   -34.805
-20012.367	    15.340	  -114.244	   -53.952
-20479.637	    15.294	  -118.031	   -28.463
-20230.320	    15.323	  -108.274	   -49.514
-20399.496	    15.418	  -121.737	   -42.195
-20129.113	    15.342	  -145.602	   -27.228
-20281.535	    15.130	  -113.184	   -52.939
-20283.463	    14.924	  -106.212	   -32.234
-20397.969	    14.990	   -88.896	   -42.433
-20171.654	    15.266	   -99.830	   -40.253
-20445.197	    15.523	  -145.452	   -32.181
-19941.398	    15.617	   -93.312	   -29.582
-19817.523	    15.618	  -113.097	   -45.994
-20271.285	    15.516	   -93.293	   -33.005
-20071.584	    15.312	   -87.983	   -28.997
-20271.857	    15.321	  -110.797	   -32.674
-19994.807	    15.477	  -112.569	   -30.175
-20028.887	    15.564	  -127.617	   -39.237
-20179.604	    15.560	  -132.596	   -32.144
-20390.990	    15.444	   -90.205	   -32.256
-20235.600	    15.387	  -120.871	   -41.292
-20436.619	    15.396	  -123.099	   -24.873
-20247.436	    15.404	  -114.479	   -43.913
-20190.578	    15.431	  -100.958	   -56.877
-20185.877	    15.431	   -98.312	   -43.963
-19909.689	    15.482	   -97.419	   -36.964
-19883.654	    15.515	  -107.622	   -10.966
-20101.289	    15.455	  -108.416	   -32.130
-19972.020	    15.454	   -86.700	   -22.445
-20270.986	    15.486	  -111.368	   -35.373
-20044.338	    15.493	  -103.099	   -14.998
-20020.766	    15.573	  -107.108	   -32.928
-20045.729	    15.653	   -99.311	   -31.212
-19914.504	    15.595	   -85.664	   -25.802
-20302.111	    15.354	   -91.228	   -30.290
-20154.154	    15.312	  -100.020	   -50.901
-20084.021	    15.359	   -87.870	   -54.976
-20271.258	    15.407	   -92.458	   -34.344
-20307.777	    15.428	  -117.625	   -35.838
-20080.727	    15.347	   -97.842	   -35.965
-20029.428	    15.281	  -114.454	   -27.249
-20338.648	    15.210	   -72.096	   -33.509
-19996.662	    15.281	   -95.951	   -42.432
-20574.064	    15.454	   -97.619	   -43.518
-20117.680	    15.557	  -135.750	   -28.291
-20149.715	    15.629	  -113.489	   -40.599
-20358.549	    15.637	  -132.800	   -39.413
-20087.781	    15.622	  -111.890	   -46.389
-19925.033	    15.549	   -99.302	   -31.470
-20410.193	    15.447	  -127.291	   -42.544
-20264.742	    15.476	   -95.388	   -43.734
-20292.080	    15.569	  -144.729	   -39.270
-19896.543	    15.699	  -103.044	   -36.650
-19941.057	    15.678	  -112.076	   -32.698
-19593.619	    15.669	  -115.820	   -24.061
-20081.090	    15.699	  -119.855	   -28.483
-20286.551	    15.489	  -108.594	   -60.898
-20397.016	    15.329	  -101.111	   -29.685
-20462.029	    15.363	  -122.353	   -42.164
-19792.301	    15.454	  -101.617	   -14.494
-20020.809	    15.568	  -113.558	   -33.358
-20194.500	    15.565	  -107.997	   -42.048
-20228.279	    15.514	  -117.279	   -39.756
-20180.924	    15.531	  -122.166	   -50.011
-20305.779	    15.568	  -107.353	   -32.077
-20140.242	    15.479	   -96.095	   -45.270
-20235.148	    15.338	  -103.902	   -36.122
-20159.152	    15.384	   -98.750	   -50.392
-19955.668	    15.491	  -112.592	   -37.119
-20052.297	    15.420	   -87.995	   -24.184
-20021.121	    15.326	   -95.448	   -32.759
-20136.975	    15.329	  -116.006	   -21.816
-20115.615	    15.526	  -100.777	   -56.473
-20234.053	    15.578	  -103.877	   -29.969
-19886.850	    15.511	  -116.872	   -31.929
-20359.104	    15.415	  -115.478	   -43.062
-20137.422	    15.320	   -84.007	   -51.408
-20004.250	    15.264	   -93.012	   -44.377
-20094.648	    15.227	   -89.612	   -59.698
-20230.379	    15.300	   -93.528	   -32.748
-20360.627	    15.419	  -101.352	   -46.222
-20040.824	    15.629	   -82.815	   -41.575
-20288.432	    15.817	  -107.589	   -53.349
-20204.180	    15.861	   -88.936	   -15.168
-20097.137	    15.856	   -89.153	   -67.175
-20250.609	    15.734	   -97.991	   -49.559
-20143.586	    15.670	  -110.686	   -32.596
-20210.053	    15.754	  -108.981	   -43.264
-20184.744	    15.850	   -97.412	   -17.436
-20328.723	    15.801	  -104.502	   -38.757
-20403.275	    15.579	  -122.947	   -42.781
-20282.842	    15.413	  -106.960	   -47.924
-20518.543	    15.318	   -96.020	   -42.778
-20183.484	    15.287	  -130.568	   -45.209
-20357.689	    15.229	  -116.589	   -54.756
-20239.357	    15.207	   -94.961	   -49.486
-19902.877	    15.264	   -86.560	   -46.392
-20176.477	    15.306	  -106.108	   -33.492
-20102.438	    15.440	   -98.323	   -24.157
-20235.061	    15.471	   -92.582	   -42.614
-20221.293	    15.559	  -114.001	   -55.064
-20111.928	    15.524	   -99.870	   -27.183
-20381.156	    15.401	   -76.721	   -36.734
-20301.639	    15.344	  -113.090	   -41.313
-20239.791	    15.468	  -124.076	   -36.490
-20138.898	    15.582	   -97.727	   -15.873
-19993.164	    15.521	  -110.823	   -21.135
-20106.074	    15.476	  -100.056	   -40.892
-20163.242	    15.395	   -93.719	   -36.805
-20335.568	    15.242	   -72.152	   -38.659
-20246.781	    15.327	   -73.718	   -30.876
-20300.098	    15.464	  -105.889	    -9.194
-20048.342	    15.549	   -97.658	   -26.955
-20242.600	    15.595	  -120.829	   -36.877
-20081.039	    15.440	  -118.512	   -32.867
-20128.084	    15.265	  -115.588	   -25.146
-20340.967	    15.190	   -76.417	   -44.097
-20228.770	    15.338	   -73.490	   -30.237
-20018.912	    15.487	   -88.089	   -49.244
-19934.230	    15.563	   -96.536	   -39.325
-20171.143	    15.558	  -106.704	   -42.507
-19927.180	    15.480	  -132.958	   -46.518
-20303.586	    15.462	   -85.835	   -43.610
-20150.594	    15.451	  -101.279	   -20.745
-20376.295	    15.328	  -111.423	   -73.078
-20272.600	    15.214	  -102.253	   -27.519
-20364.861	    15.256	   -81.976	   -42.625
-19872.881	    15.429	  -119.802	   -30.282
-20195.820	    15.624	  -129.680	   -30.920
-20132.088	    15.624	  -125.976	   -32.266
-20213.342	    15.416	  -121.047	   -32.035
-20249.834	    15.104	  -108.656	   -35.795
-20430.600	    14.952	  -121.494	   -28.472
-20357.615	    15.042	   -92.820	   -45.723
-20178.818	    15.237	  -132.383	   -40.102
-20257.266	    15.351	   -94.184	   -39.340
-20258.979	    15.518	  -135.152	   -50.622
-20072.027	    15.702	  -116.876	   -51.783
-19953.062	    15.767	  -124.049	   -42.809
-20321.525	    15.664	  -101.895	   -22.046
-20299.588	    15.517	  -122.532	   -32.212
-20500.691	    15.432	  -102.837	   -28.523
-20096.393	    15.423	  -120.094	   -41.021
-20066.529	    15.405	   -98.835	   -29.026
-20071.238	    15.366	   -88.384	   -45.102
-20240.168	    15.416	   -88.217	   -58.408
-20084.441	    15.565	  -106.078	   -54.925
-20061.785	    15.713	  -112.598	   -33.709
-20267.531	    15.775	   -91.109	   -23.436
-20297.715	    15.685	  -102.626	   -36.266
-20075.322	    15.504	   -96.969	   -34.589
-20163.848	    15.295	   -96.013	   -53.556
-20216.422	    15.181	   -83.117	   -35.485
-20222.455	    15.179	  -102.366	   -32.975
-20362.229	    15.159	  -107.417	   -43.102
-20327.955	    15.216	   -93.728	   -30.371
-20454.393	    15.432	  -117.937	   -21.122
-19906.402	    15.638	  -133.549	   -22.125
-19970.107	    15.603	   -92.314	   -44.662
-20258.238	    15.469	  -107.315	   -46.444
-20398.447	    15.385	  -110.640	   -26.072
-20187.400	    15.436	  -115.463	   -25.756
-20011.975	    15.494	  -131.592	   -38.997
-20073.348	    15.542	  -124.339	   -44.819
-20143.283	    15.592	  -130.206	   -24.467
-20042.557	    15.570	  -110.826	   -34.142
-20049.043	    15.503	   -98.576	   -43.323
-20193.117	    15.606	  -109.066	   -57.461
-20119.240	    15.698	   -95.733	   -28.219
-20000.238	    15.615	  -113.601	   -37.900
-20138.992	    15.428	   -86.976	   -35.845
-20633.650	    15.290	  -122.970	   -37.915
-20324.648	    15.248	   -95.340	   -28.448
-20040.197	    15.404	  -118.144	   -35.982
-20441.318	    15.551	  -132.938	   -26.953
-20159.463	    15.646	  -118.709	   -52.875
-20051.986	    15.656	  -108.041	   -51.050
-20197.705	    15.487	  -102.510	   -38.508
-20544.494	    15.179	  -104.627	   -38.751
-20444.578	    15.062	  -103.384	    -7.883
-20154.277	    15.237	  -112.435	   -40.136
-20134.736	    15.409	  -107.125	   -45.298
-20251.648	    15.512	   -91.093	   -29.344
-20115.230	    15.525	  -124.760	   -36.567
-20116.912	    15.446	   -96.622	   -54.180
-20082.082	    15.286	  -114.163	   -30.604
-20458.273	    15.174	  -109.574	    -7.703
-20113.439	    15.194	  -137.263	   -37.244
-20248.117	    15.366	  -121.504	   -27.448
-20204.318	    15.530	   -89.312	   -23.528
-20003.523	    15.624	  -103.058	   -23.167
-19910.463	    15.588	  -130.774	   -25.792
-20382.611	    15.529	  -102.004	   -40.335
-20539.504	    15.556	   -97.799	   -36.564
-20224.961	    15.614	   -99.442	   -70.923
-19957.852	    15.635	  -137.888	   -35.100
-20082.801	    15.491	  -120.819	   -38.669
-19948.271	    15.426	   -88.130	   -26.215
-20154.436	    15.500	  -110.636	   -55.255
-20075.770	    15.538	   -67.166	   -17.005
-20089.311	    15.455	  -115.493	   -42.726
-20139.869	    15.417	  -111.708	   -48.553
-19972.104	    15.499	   -80.766	   -26.314
-20044.006	    15.686	   -72.502	   -36.917
-19978.250	    15.664	   -98.205	   -51.917
-20383.102	    15.570	   -98.806	   -55.143
-20030.551	    15.506	  -114.782	   -35.429
-20410.801	    15.336	  -128.932	   -39.434
-20404.178	    15.204	  -111.309	   -30.930
-20369.707	    15.188	  -119.601	   -40.489
-20427.562	    15.108	  -102.886	   -33.928
-20431.289	    15.078	  -105.285	   -45.109
-20375.113	    15.089	  -117.521	   -24.018
-20254.377	    15.251	  -104.552	   -40.618
-20119.398	    15.512	   -74.760	   -46.440
-19984.482	    15.674	  -126.558	   -34.039
-20211.793	    15.718	   -90.871	   -39.295
-20092.568	    15.727	   -96.067	   -31.675
-20044.076	    15.592	  -109.781	   -27.342
-20375.553	    15.410	   -95.511	   -24.534
-20216.682	    15.347	  -130.265	   -43.169
-20199.215	    15.472	  -118.337	   -52.465
-19949.848	    15.617	  -108.627	   -46.218
-19841.355	    15.666	  -137.188	   -54.480
-20036.109	    15.547	  -114.321	   -46.744
-20392.541	    15.357	   -82.430	   -38.967
-20366.287	    15.209	  -111.102	   -35.521
-20163.775	    15.082	  -112.917	   -40.537
-20415.494	    15.109	  -123.960	   -40.404
-20384.197	    15.162	  -128.541	   -35.574
-20325.715	    15.293	  -100.927	   -33.428
-20496.754	    15.429	  -125.415	   -33.845
-20132.953	    15.470	  -104.818	   -23.451
-19897.117	    15.388	  -111.008	   -23.486
-20127.875	    15.261	  -101.894	   -27.798
-20158.318	    15.288	  -117.188	   -38.490
-20172.828	    15.416	  -105.631	   -46.283
-20172.320	    15.494	  -110.926	   -38.904
-20047.809	    15.521	  -108.791	   -37.460
-19917.262	    15.606	  -121.267	   -24.339
-19762.182	    15.519	   -88.409	   -28.957
-20017.410	    15.344	  -125.959	   -54.462
-20050.439	    15.329	   -98.029	   -42.421
-19943.846	    15.371	  -123.212	   -27.668
-20449.908	    15.457	  -118.026	   -43.140
-20224.457	    15.638	  -116.364	   -47.770
-20145.127	    15.643	   -84.878	   -44.438
-20140.074	    15.453	   -83.179	   -44.815
-20141.738	    15.296	   -91.917	   -21.889
-20208.975	    15.210	   -89.267	   -46.975
-20144.881	    15.161	   -82.680	   -38.359
-20001.336	    15.215	   -79.388	   -31.611
-20261.193	    15.212	  -109.415	   -18.228
-20227.910	    15.163	  -122.430	   -29.546
-20114.285	    15.212	  -107.213	   -47.632
-20238.129	    15.392	   -76.224	   -38.653
-19934.717	    15.531	   -86.373	   -31.920
-20332.646	    15.563	   -83.221	   -30.789
-20322.826	    15.485	   -90.347	   -45.144
-20214.533	    15.380	   -93.880	   -49.962
-20278.932	    15.267	   -97.613	   -18.576
-20156.297	    15.324	  -114.371	   -53.344
-20104.578	    15.436	   -89.591	   -52.458
-20244.330	    15.486	   -97.845	   -25.386
-20127.736	    15.559	   -87.489	   -38.410
-20046.895	    15.590	  -101.693	   -34.348
-20076.926	    15.588	   -82.846	   -48.679
-20037.221	    15.594	   -89.549	   -18.791
-20296.127	    15.500	   -92.240	   -39.445
-20085.400	    15.404	  -119.111	   -32.602
-20009.561	    15.242	  -126.192	   -43.130
-20066.115	    15.116	  -101.030	   -27.105
-20065.639	    15.256	   -98.993	   -32.165
-19962.047	    15.542	  -117.434	   -42.248
-20154.385	    15.748	  -134.944	   -38.722
-20121.943	    15.717	  -132.744	   -47.061
-20384.059	    15.464	  -119.719	   -32.902
-20242.490	    15.205	  -116.988	   -44.625
-20331.346	    15.087	  -133.241	    -7.928
-20053.473	    15.211	   -99.581	   -36.444
-20233.781	    15.440	  -100.891	   -61.929
-20295.748	    15.637	   -96.497	   -36.948
-20142.314	    15.755	   -99.655	   -29.934
-19950.670	    15.713	  -112.715	   -39.846
-20196.867	    15.492	  -110.022	   -27.330
-20517.156	    15.166	  -121.047	   -41.134
-20454.473	    14.995	  -128.452	   -25.735
-20470.295	    14.975	  -105.989	   -45.245
-20320.252	    15.193	  -120.164	   -28.936
-20298.795	    15.523	  -103.354	   -35.858
-20104.785	    15.867	  -125.791	   -46.931
-19888.572	    15.976	  -103.172	   -41.125
-20054.562	    15.788	  -107.369	   -36.112
-19947.789	    15.587	  -104.419	   -31.437
-20030.223	    15.386	  -101.467	   -34.443
-20107.967	    15.235	  -123.193	   -33.024
-19991.152	    15.259	  -122.823	   -44.842
-20194.525	    15.307	  -110.216	   -42.720
-20129.416	    15.508	   -99.187	   -45.113
-20200.107	    15.673	  -104.297	   -51.876
-19948.695	    15.611	  -120.364	   -33.151
-20088.512	    15.474	  -111.351	   -25.897
-20307.889	    15.264	  -100.267	   -27.549
-20536.645	    15.177	   -87.482	    -7.486
-20220.957	    15.322	  -112.599	   -17.047
-20191.732	    15.412	   -90.704	   -37.612
-20197.254	    15.370	  -101.538	    -9.126
-20012.641	    15.282	   -94.645	   -36.701
-20168.957	    15.351	  -103.132	   -36.878
-20226.221	    15.453	   -98.821	   -40.349
-19986.547	    15.560	   -97.488	   -19.002
-20144.697	    15.642	  -119.423	   -20.215
-19850.492	    15.585	  -118.810	   -21.958
-20021.496	    15.420	   -67.851	   -42.836
-20158.625	    15.262	   -97.088	   -25.168
-20223.014	    15.308	   -98.807	   -34.210
-20511.502	    15.369	  -106.888	   -27.313
-20288.062	    15.453	  -121.488	   -34.486
-20171.982	    15.613	  -120.146	   -24.998
-20207.629	    15.829	  -113.781	   -50.182
-20160.994	    15.930	   -88.821	   -42.936
-20216.361	    15.882	  -103.547	   -64.705
-20235.135	    15.828	  -129.691	   -45.343
-19984.715	    15.725	  -126.974	   -34.456
-20190.922	    15.448	  -119.224	   -27.057
-20532.746	    15.258	  -124.319	   -36.189
-20143.955	    15.267	  -115.279	   -43.205
-20130.277	    15.359	  -119.441	   -44.612
-20375.955	    15.487	  -113.352	   -36.453
-20372.209	    15.610	  -124.497	   -37.782
-20165.951	    15.819	   -88.144	   -28.398
-19849.969	    15.892	  -129.560	   -47.776
-19982.051	    15.764	   -81.314	   -30.249
-20134.527	    15.478	  -104.041	   -44.872
-20474.814	    15.179	  -106.778	   -45.040
-20379.045	    15.134	  -108.701	   -28.257
-20170.199	    15.239	  -106.545	   -60.438
-20246.900	    15.463	  -103.406	   -30.130
-19835.834	    15.616	  -123.786	   -38.020
-19872.258	    15.602	  -103.556	   -29.355
-20346.084	    15.544	  -114.369	   -48.924
-20185.449	    15.515	   -82.739	   -50.809
-20114.619	    15.549	  -103.834	   -36.502
-20037.062	    15.551	  -103.391	   -47.278
-19888.311	    15.497	   -86.140	   -24.512
-20338.117	    15.529	   -98.104	   -58.694
-20344.906	    15.499	  -103.397	   -43.359
-20239.811	    15.573	  -103.310	   -25.771
-20097.635	    15.614	  -113.476	   -37.434
-20220.521	    15.712	  -115.615	   -27.125
-20160.391	    15.697	   -99.292	   -24.036
-20058.941	    15.606	   -83.862	   -26.582
-20325.721	    15.515	  -107.480	   -34.318
-19952.736	    15.410	  -108.275	   -34.447
-20185.406	    15.396	  -123.528	   -58.499
-20177.518	    15.404	  -111.946	   -42.423
-20202.578	    15.408	  -106.428	   -35.364
-20037.732	    15.414	  -115.792	   -33.180
-20302.215	    15.525	  -122.166	   -42.726
-20187.869	    15.603	  -132.278	   -48.928
-20284.055	    15.622	  -127.671	   -26.097
-20254.152	    15.487	  -121.099	   -43.888
-20322.088	    15.391	   -96.573	   -44.680
-20307.760	    15.356	  -104.940	   -38.145
-20254.375	    15.324	  -128.581	   -41.412
-20048.814	    15.295	  -113.129	   -20.683
-20148.660	    15.303	   -79.563	   -62.347
-20004.314	    15.388	  -114.925	   -24.633
-20056.545	    15.369	   -92.111	   -25.487
-20086.410	    15.347	  -113.256	   -27.255
-20376.277	    15.197	  -117.736	   -28.603
-20282.811	    15.216	  -126.861	   -24.195
-19849.258	    15.421	  -102.009	   -34.156
-20150.801	    15.792	  -130.477	   -36.590
-19945.682	    15.975	   -92.723	   -34.004
-20200.055	    15.883	  -130.471	   -50.562
-20228.504	    15.575	   -85.771	   -25.586
-20391.668	    15.144	  -125.532	   -32.048
-20426.047	    14.968	  -103.773	   -18.932
-20157.496	    15.212	  -108.295	   -33.185
-20158.277	    15.459	  -102.846	   -43.589
-19949.213	    15.656	  -105.541	   -44.232
-20080.926	    15.595	  -108.235	   -35.087
-20082.094	    15.493	  -124.979	   -41.663
-20288.299	    15.458	   -99.840	   -32.811
-20302.723	    15.525	   -91.348	    -7.853
-20166.135	    15.614	   -70.608	   -22.432
-20083.582	    15.642	  -114.138	   -37.458
-19834.111	    15.575	  -124.896	   -31.954
-20185.807	    15.403	   -91.032	   -30.802
-20056.773	    15.333	   -94.857	   -47.464
-20150.141	    15.391	  -105.378	   -32.705
-20108.961	    15.397	  -112.623	   -40.355
-20293.473	    15.364	  -141.109	   -60.287
-20179.629	    15.233	  -112.463	   -42.543
-20343.961	    15.180	  -126.052	   -31.034
-20150.834	    15.282	  -115.026	   -45.116
-20248.051	    15.430	  -111.500	   -41.788
-20246.008	    15.555	  -104.017	   -42.357
-20147.420	    15.663	   -91.911	   -41.181
-20113.912	    15.793	   -89.379	   -29.567
-20207.547	    15.892	  -128.966	   -40.556
-19965.482	    15.927	  -103.054	   -63.932
-20071.277	    15.806	   -90.114	   -18.867
-20108.000	    15.520	   -72.806	   -40.266
-20188.527	    15.273	  -127.316	   -25.418
-20231.980	    15.233	  -124.479	   -58.793
-20308.211	    15.269	   -87.133	   -38.719
-20174.330	    15.288	   -92.707	   -38.043
-20115.990	    15.282	  -115.845	   -46.305
-20203.924	    15.305	  -126.754	   -39.997
-19951.324	    15.367	  -136.432	   -21.448
-20102.879	    15.485	   -89.126	   -23.097
-20072.980	    15.633	  -102.614	   -21.343
-20012.162	    15.864	  -109.862	   -26.206
-19906.107	    15.972	   -96.074	   -33.453
-19849.830	    15.861	   -91.079	   -27.686
-20134.178	    15.584	   -95.610	   -62.921
-20299.027	    15.375	  -102.235	   -37.205
-20407.768	    15.187	   -95.445	   -35.257
-20445.166	    15.120	  -109.414	   -27.701
-20270.775	    15.245	  -106.702	   -30.976
-20039.336	    15.573	  -108.519	   -73.581
-20081.768	    15.751	  -105.102	   -43.893
-20199.850	    15.873	  -106.161	   -29.705
-20126.361	    15.715	   -92.642	   -36.789
-20196.207	    15.479	  -100.354	   -36.580
-20362.588	    15.255	   -68.092	   -27.083
-20211.922	    15.229	   -96.831	   -26.562
-20298.246	    15.332	   -74.672	   -26.054
-20073.031	    15.458	   -82.619	   -20.750
-20162.881	    15.533	   -70.995	   -19.306
-20190.084	    15.553	   -90.272	   -42.586
-20088.564	    15.550	  -111.011	   -29.312
-20257.367	    15.563	   -89.367	   -32.169
-20085.451	    15.709	   -92.163	   -50.339
-19943.365	    15.798	   -96.753	   -44.354
-20027.586	    15.866	  -107.061	   -45.725
-20236.545	    15.873	   -88.292	   -27.332
-20146.479	    15.842	  -113.470	   -46.549
-20119.816	    15.699	   -81.492	   -20.407
-20229.258	    15.540	  -112.368	   -36.242
-20119.869	    15.338	  -106.827	   -45.314
-20186.508	    15.229	  -102.249	   -38.992
-20179.721	    15.180	   -98.875	   -40.734
-20109.236	    15.252	   -99.060	   -55.260
-20248.787	    15.345	  -114.786	   -17.567
-20304.674	    15.387	   -94.968	   -28.293
-20061.141	    15.550	  -120.167	   -45.483
-20239.000	    15.757	  -105.930	   -26.751
-20080.193	    15.742	  -116.645	   -40.860
-20288.426	    15.537	  -112.850	   -37.045
-20222.902	    15.414	   -94.194	   -28.531
-20202.428	    15.351	   -98.873	   -38.921
-20324.174	    15.268	  -108.787	   -35.168
-20227.250	    15.219	  -107.528	   -36.064
-20151.090	    15.277	   -97.042	   -49.217
-20170.533	    15.281	   -95.179	   -47.365
-20188.365	    15.188	   -92.829	   -23.661
-20219.025	    15.228	   -96.981	   -40.847
-20123.965	    15.346	  -114.003	   -34.137
-20136.910	    15.356	  -104.647	   -55.373
-20178.438	    15.446	   -96.356	   -18.772
-19947.902	    15.495	   -79.035	   -38.316
-20423.904	    15.430	   -98.030	   -25.426
-20311.904	    15.355	   -93.833	   -52.923
-20410.223	    15.304	  -110.762	   -49.038
-20189.215	    15.459	   -95.789	   -50.426
-20252.309	    15.618	   -84.502	   -49.076
-19948.859	    15.628	  -106.900	   -49.401
-20331.055	    15.521	   -97.620	   -42.126
-20246.504	    15.453	  -104.005	   -49.309
-20115.803	    15.462	   -91.673	   -47.448
-20083.672	    15.400	   -95.100	   -51.481
-20223.432	    15.282	  -106.033	   -39.781
-20072.447	    15.306	  -112.789	   -45.308
-20315.959	    15.296	  -109.414	   -51.296
-20153.834	    15.333	  -110.450	   -28.096
-19991.854	    15.392	  -148.410	   -27.533
-20321.934	    15.590	  -123.604	   -42.252
-20137.096	    15.659	  -116.023	   -44.558
-19938.799	    15.622	  -109.296	   -23.429
-20405.324	    15.419	  -127.452	   -50.729
-20282.180	    15.239	  -107.448	   -45.405
-20152.385	    15.198	   -93.838	   -33.258
-20246.941	    15.169	  -102.005	   -16.032
-20288.783	    15.190	  -109.800	   -40.348
-20100.947	    15.368	  -125.151	   -36.705
-19776.459	    15.587	   -97.185	   -40.456
-19984.572	    15.714	  -112.630	   -31.704
-19943.598	    15.811	   -80.474	   -35.301
-20115.295	    15.789	   -80.653	   -29.440
-20051.441	    15.631	  -101.237	   -14.445
-20422.266	    15.348	  -101.095	   -34.381
-20541.066	    15.011	   -91.627	   -35.957
-20374.256	    14.908	   -92.892	   -45.531
-20320.465	    14.930	  -107.353	   -39.529
-20255.727	    15.034	  -101.386	   -37.705
-20237.316	    15.350	  -109.572	   -37.008
-20173.371	    15.660	  -118.335	   -38.817
-20374.312	    15.840	  -113.089	   -38.452
-20070.324	    15.766	   -92.469	   -42.115
-20298.930	    15.487	   -92.337	   -24.315
-20331.543	    15.192	   -94.668	   -37.286
-20300.586	    15.093	  -114.890	   -44.118
-20415.260	    15.266	  -123.032	   -30.877
-19859.426	    15.431	  -108.218	   -32.721
-20183.506	    15.496	  -105.302	   -45.619
-20274.355	    15.434	  -100.786	   -39.280
-20074.229	    15.512	  -135.919	   -54.838
-19908.457	    15.579	  -131.352	   -25.604
-20008.217	    15.483	  -124.646	   -45.007
-20289.145	    15.415	  -112.207	   -36.491
-20324.500	    15.463	  -105.375	   -39.213
-20063.379	    15.446	  -123.959	   -21.856
-20240.631	    15.381	  -105.516	   -24.812
-20108.875	    15.317	   -99.244	   -40.505
-20123.303	    15.252	  -103.164	   -58.272
-19986.379	    15.271	  -128.820	   -46.034
-20321.979	    15.316	  -129.479	   -38.574
-20214.863	    15.375	  -116.765	   -34.546
-20151.807	    15.274	  -113.070	   -55.148
-20368.189	    15.380	  -115.935	   -50.293
-20348.859	    15.693	  -114.167	   -12.165
-20104.086	    15.944	  -132.173	   -28.320
-20088.898	    15.937	  -133.441	   -36.599
-20249.430	    15.879	  -106.626	   -39.311
-20082.080	    15.572	   -91.570	   -42.374
-20349.598	    15.227	  -106.443	   -35.045
-20218.123	    14.959	  -107.575	   -47.503
-20348.164	    15.068	  -122.603	   -31.703
-20353.752	    15.347	   -93.231	   -30.658
-20339.852	    15.511	  -102.092	   -32.367
-20203.748	    15.514	  -111.702	   -46.015
-20047.861	    15.406	  -128.435	   -47.367
-20396.955	    15.280	  -101.914	   -17.636
-19970.947	    15.404	  -105.848	   -18.358
-19980.393	    15.548	  -105.373	   -18.436
-19988.785	    15.719	  -102.307	   -31.538
-20203.123	    15.770	  -101.827	   -43.957
-20050.850	    15.802	  -106.532	   -38.873
-20220.137	    15.733	  -109.178	   -56.635
-20178.203	    15.624	  -102.633	   -35.990
-20020.859	    15.583	   -74.544	   -39.055
-20268.215	    15.557	   -85.291	   -36.657
-20350.262	    15.538	  -117.054	   -47.599
-20300.783	    15.551	  -141.191	   -57.387
-20037.258	    15.608	  -132.836	   -45.283
-20131.422	    15.523	   -88.322	   -31.794
-20381.180	    15.363	  -103.430	   -36.926
-20307.715	    15.247	  -101.178	   -14.230
-20301.920	    15.332	   -84.449	   -36.828
-20052.955	    15.433	   -81.763	   -38.948
-20267.619	    15.525	   -85.459	   -33.576
-20168.611	    15.511	   -93.305	   -58.015
-20081.730	    15.405	  -124.534	   -54.421
-20194.049	    15.212	  -114.117	   -22.883
-20118.311	    15.020	  -125.081	   -41.533
-20285.521	    15.011	  -123.633	   -34.474
-20061.152	    15.299	  -121.624	   -42.996
