-20065.117	    15.334	   -92.310	   122.143
-20067.865	    15.381	  -112.713	   178.970
-20069.887	    15.368	  -107.333	   177.886
-20409.854	    15.305	   -94.860	   163.016
-20406.148	    15.227	  -122.764	   173.178
-20130.955	    15.150	  -113.489	   173.374
-20473.531	    15.279	  -101.147	   168.207
-20408.988	    15.465	  -116.300	   165.270
-20177.199	    15.605	   -90.563	   176.041
-20082.135	    15.582	  -104.306	  -175.214
-20220.785	    15.393	  -113.859	  -178.368
-20193.043	    15.283	  -109.209	   167.866
-20156.557	    15.361	   -95.454	  -158.535
-20422.418	    15.449	  -118.794	  -175.946
-20281.713	    15.581	  -107.506	   172.667
-20057.508	    15.687	   -88.307	   174.780
-19883.982	    15.688	  -121.273	   179.693
-20034.869	    15.669	  -105.596	   174.474
-20102.855	    15.634	  -122.908	   170.948
-20257.201	    15.603	  -131.340	   168.757
-20088.170	    15.487	   -94.245	  -179.392
-20162.879	    15.382	   -85.446	   173.636
-20333.312	    15.309	  -114.606	   171.811
-20390.969	    15.277	  -117.106	  -172.923
-20132.074	    15.394	   -97.636	  -174.767
-20070.033	    15.630	  -119.902	   177.876
-20143.734	    15.798	  -117.586	  -179.384
-20348.941	    15.867	  -122.450	   176.197
-19886.568	    15.866	   -88.428	   170.473
-20120.320	    15.691	  -105.124	   169.027
-20222.217	    15.470	  -112.179	   172.978
-20181.318	    15.299	  -120.537	   165.581
-20124.363	    15.316	   -99.771	   178.828
-20171.375	    15.437	  -112.631	   172.595
-19903.639	    15.549	   -84.760	   173.576
-20088.996	    15.516	  -106.680	   171.608
-20191.176	    15.395	  -126.020	   169.876
-20200.982	    15.349	   -95.090	  -177.057
-20261.500	    15.546	   -89.784	   158.671
-20475.457	    15.677	   -94.600	  -177.934
-19984.613	    15.771	  -122.497	   173.015
-20066.062	    15.876	  -116.985	   177.812
-20271.387	    15.767	  -127.534	   176.680
-20365.006	    15.499	  -130.035	   168.139
-20246.643	    15.260	  -126.832	   170.179
-20031.805	    15.218	  -105.371	  -175.745
-19922.596	    15.280	   -72.631	   168.902
-20019.922	    15.234	   -89.671	   179.936
-20092.873	    15.270	  -109.361	   173.030
-20279.959	    15.481	  -122.944	   172.752
-20087.828	    15.675	  -106.505	   163.578
-19972.029	    15.684	  -129.020	  -162.115
-19977.568	    15.724	  -144.731	  -173.209
-19972.314	    15.694	  -126.114	   164.829
-19890.100	    15.644	  -126.529	  -179.110
-20055.959	    15.599	  -123.961	   167.592
-20178.836	    15.482	  -121.126	   168.327
-20403.488	    15.325	  -107.703	   176.812
-20169.832	    15.210	   -97.964	   163.003
-20282.309	    15.154	  -100.796	   173.303
-20382.064	    15.173	  -127.865	  -173.930
-20413.428	    15.367	  -123.617	  -170.263
-20224.582	    15.542	  -115.864	  -172.981
-20270.363	    15.580	   -95.052	   170.156
-20222.143	    15.591	  -129.373	   166.917
-20303.898	    15.539	   -92.360	   149.970
-20378.693	    15.450	  -105.570	   163.629
-20202.375	    15.254	  -119.475	   169.900
-20228.102	    15.160	  -133.003	   170.685
-20313.268	    15.234	  -110.887	  -169.798
-20032.648	    15.418	  -102.639	   172.121
-19958.264	    15.509	  -117.598	   173.526
-20302.488	    15.533	  -107.783	   175.076
-20183.457	    15.571	  -118.489	   178.274
-20354.340	    15.501	   -98.086	   166.929
-20085.430	    15.483	  -111.197	   175.294
-20347.525	    15.500	  -118.625	   165.017
-20003.268	    15.448	  -125.154	   171.221
-20100.199	    15.446	  -115.756	  -178.216
-20259.650	    15.501	  -129.458	   173.626
-19998.438	    15.595	   -92.166	   163.753
-19921.416	    15.585	  -108.054	   178.361
-20067.139	    15.589	   -94.095	  -169.995
-20174.291	    15.622	  -104.559	   170.817
-20073.947	    15.595	  -115.274	   155.090
-20008.469	    15.534	   -91.333	   165.410
-20287.109	    15.413	  -127.805	   166.073
-20111.854	    15.349	  -117.218	   167.516
-20194.990	    15.425	  -103.370	   167.586
-20078.312	    15.533	  -103.678	   174.827
-20102.006	    15.615	  -126.357	  -174.884
-20348.773	    15.744	  -110.160	   166.625
-19802.863	    15.620	  -149.912	   177.002
-20281.963	    15.354	  -117.751	  -178.062
-20145.098	    15.382	  -115.281	  -169.890
-19887.799	    15.444	  -105.023	  -171.774
-20124.410	    15.386	  -107.270	   176.000
-19955.613	    15.364	  -117.146	   166.136
-20319.537	    15.364	  -111.489	  -164.154
-20083.449	    15.353	  -112.301	  -179.879
-20294.322	    15.259	  -112.739	  -177.236
-20290.957	    15.199	   -93.751	   173.826
-20084.139	    15.372	  -118.173	  -173.434
-19925.146	    15.529	  -115.287	  -172.725
-20436.119	    15.578	  -138.628	  -171.480
-20131.590	    15.541	  -102.489	   173.866
-20346.742	    15.414	  -126.443	   166.554
-20283.793	    15.318	   -94.761	  -171.124
-20337.240	    15.306	  -117.835	  -160.357
-20322.457	    15.294	  -132.532	  -174.019
-20164.043	    15.421	  -121.981	  -175.942
-20042.262	    15.715	  -128.348	   172.103
-19672.160	    15.904	   -98.392	   173.247
-20134.188	    15.985	  -124.212	   173.365
-20294.756	    15.825	   -94.352	   179.925
-20169.367	    15.526	   -94.465	  -173.474
-20412.404	    15.329	   -93.042	   179.634
-20096.922	    15.318	  -102.167	   166.064
-20181.855	    15.308	   -92.639	   147.865
-20369.727	    15.321	   -96.895	   178.565
-20126.504	    15.354	   -94.104	   163.468
-20332.551	    15.332	  -120.351	   176.210
-19982.793	    15.512	  -108.145	  -179.681
-20178.525	    15.649	   -89.841	  -176.653
-20170.533	    15.552	  -133.323	   163.827
-20331.666	    15.520	  -102.495	   165.778
-20296.861	    15.554	   -96.755	   155.925
-20041.775	    15.676	  -121.022	   161.338
-19986.320	    15.766	   -95.789	   169.154
-20252.996	    15.833	   -67.928	   166.985
-20106.844	    15.880	  -108.785	   172.625
-20081.000	    15.906	   -88.569	   171.630
-20132.320	    15.844	   -95.890	   176.674
-20207.160	    15.640	  -121.582	   165.073
-19959.797	    15.459	  -119.228	   170.685
-20190.258	    15.359	  -115.356	   168.246
-20292.967	    15.293	   -92.247	   175.192
-20002.834	    15.383	   -96.370	   175.405
-20362.676	    15.430	   -97.451	   157.984
-20182.100	    15.583	  -106.074	  -175.728
-20296.746	    15.641	   -91.139	  -164.475
-20423.123	    15.611	  -107.069	   169.557
-20162.100	    15.607	  -115.535	  -162.353
-20239.514	    15.501	  -111.173	  -175.345
-20129.695	    15.386	   -85.206	  -176.601
-20274.316	    15.360	  -111.420	   168.691
-20343.199	    15.438	   -98.058	  -179.887
-20351.500	    15.451	   -88.297	  -176.961
-19891.947	    15.573	  -108.774	   168.494
-20249.955	    15.488	  -100.668	   171.713
-20176.732	    15.341	  -107.884	   168.982
-20003.457	    15.311	  -128.370	  -162.793
-20177.148	    15.354	  -110.089	   179.895
-20161.787	    15.373	  -111.881	   174.149
-20018.527	    15.392	  -102.731	   173.283
-20321.594	    15.429	  -101.516	   178.525
-20157.797	    15.506	  -103.097	  -175.827
-20210.000	    15.555	   -96.267	   178.420
-20030.824	    15.550	  -112.547	  -152.946
-20076.078	    15.520	  -119.758	  -170.932
-20387.883	    15.474	  -110.822	  -175.297
-20288.049	    15.441	   -92.628	  -164.484
-20034.961	    15.327	   -99.149	  -169.918
-20317.227	    15.122	  -110.764	  -175.467
-20450.447	    15.097	  -130.747	   172.997
-20441.895	    15.263	  -132.879	   179.004
-19969.902	    15.443	  -130.295	   170.198
-20024.795	    15.564	  -124.997	   159.611
-20033.406	    15.626	  -132.397	   175.728
-20243.473	    15.587	   -83.717	  -169.703
-19985.320	    15.513	   -97.532	   168.126
-20068.512	    15.462	  -104.876	   153.872
-20571.844	    15.415	  -117.564	   158.702
-20227.438	    15.442	   -97.152	   171.697
-19980.760	    15.532	   -86.289	  -176.805
-20188.650	    15.578	   -90.261	  -169.579
-20050.906	    15.627	  -113.309	  -176.929
-19869.166	    15.619	  -131.840	   178.671
-20072.957	    15.509	  -113.000	   173.293
-20095.846	    15.324	  -108.676	   153.789
-20285.715	    15.184	  -104.731	  -168.329
-20245.342	    15.279	   -98.500	  -179.811
-20190.875	    15.478	   -99.387	   164.344
-20109.203	    15.501	  -113.262	   174.627
-19920.477	    15.468	  -131.120	   165.702
-20008.510	    15.530	   -96.647	   163.050
-20158.230	    15.557	  -102.205	  -170.777
-19929.584	    15.672	  -106.421	   171.971
-20167.279	    15.765	  -115.933	  -177.588
-19829.281	    15.839	  -130.919	  -175.123
-20287.934	    15.799	  -140.641	   174.993
-20253.232	    15.604	  -119.385	  -163.964
-20295.637	    15.280	  -103.543	  -174.661
-20307.215	    15.072	  -103.231	  -179.404
-20206.303	    15.105	  -116.946	  -177.013
-20173.494	    15.289	   -74.261	   171.073
-20250.422	    15.546	  -102.021	  -179.001
-20134.906	    15.617	  -110.273	   172.006
-20225.547	    15.538	   -83.129	  -175.222
-20401.424	    15.439	   -89.757	   176.623
-20142.621	    15.302	   -83.836	   172.217
-19980.979	    15.271	  -123.504	  -167.963
-20202.033	    15.363	  -145.828	   163.867
-20378.504	    15.436	  -118.286	   175.767
-20365.820	    15.445	  -112.565	   166.825
-20221.863	    15.565	  -115.015	   168.390
-19831.486	    15.716	   -97.299	   171.284
-20227.615	    15.829	  -100.027	   165.533
-19941.828	    15.764	  -105.982	   176.455
-20086.635	    15.555	   -84.590	   173.041
-20171.061	    15.284	  -111.367	   157.837
-20218.879	    15.201	  -105.245	  -170.883
-20308.115	    15.270	  -109.351	   169.198
-19850.391	    15.366	   -86.973	   174.979
-20249.258	    15.458	  -124.111	  -174.005
-20028.600	    15.596	  -100.973	   170.839
-20219.953	    15.682	  -114.626	   164.170
-19786.479	    15.737	  -103.632	  -173.650
-20173.936	    15.674	  -102.624	   173.184
-20274.438	    15.589	   -96.417	   171.846
-20353.961	    15.421	  -128.460	   164.066
-20430.646	    15.278	   -97.460	   160.499
-20186.738	    15.187	  -126.321	  -162.055
-20239.285	    15.254	  -124.088	   167.289
-20141.527	    15.473	  -109.758	   156.874
-20100.328	    15.746	   -98.892	  -166.457
-19943.785	    15.778	   -89.245	  -169.435
-20133.012	    15.638	  -125.371	  -172.769
-20501.912	    15.515	   -91.206	   168.655
-20163.107	    15.403	  -118.349	   160.523
-20370.447	    15.322	  -105.824	   164.387
-20189.160	    15.346	  -133.043	  -178.822
-20238.156	    15.350	   -88.673	   161.985
-20055.840	    15.365	  -111.302	   178.388
-20403.014	    15.288	  -127.607	   174.714
-20320.928	    15.309	   -94.843	  -173.600
-20248.143	    15.500	  -117.793	  -164.568
-20283.930	    15.573	  -107.052	  -177.336
-20193.201	    15.546	  -103.959	   157.488
-20101.590	    15.510	  -108.876	   163.804
-20300.803	    15.453	  -115.992	   153.275
-20213.230	    15.356	   -93.609	   163.923
-20330.816	    15.253	   -95.036	   171.731
-20187.547	    15.274	   -90.242	   176.485
-20179.041	    15.380	  -115.004	   177.646
-20115.896	    15.458	   -89.906	   175.116
-20140.783	    15.410	  -121.464	   169.401
-20455.133	    15.363	  -108.672	   169.807
-20511.488	    15.321	  -114.048	   179.800
-20244.783	    15.325	  -103.755	   166.073
-20378.580	    15.365	  -105.226	   170.738
-20241.287	    15.530	  -105.842	   161.864
-20086.004	    15.585	  -111.633	   167.832
-20135.104	    15.494	  -108.964	   179.578
-20215.441	    15.321	  -124.525	   158.517
-20223.080	    15.243	  -124.688	  -178.929
-20256.738	    15.309	  -115.715	  -174.924
-20002.922	    15.481	  -121.002	  -174.526
-20155.021	    15.567	  -154.356	  -173.575
-20040.564	    15.620	  -125.127	  -176.871
-20152.615	    15.523	   -89.333	   160.412
-20315.854	    15.286	   -86.966	   160.334
-20399.293	    15.037	  -117.955	   177.585
-20286.939	    15.060	  -115.163	   169.010
-20379.697	    15.252	   -94.212	   175.523
-20353.055	    15.507	   -99.726	  -179.014
-20058.242	    15.698	   -69.431	   176.721
-19886.850	    15.696	   -86.670	  -175.243
-20214.938	    15.493	  -126.618	   162.440
-20420.791	    15.194	  -101.655	   172.513
-20513.406	    15.048	  -130.134	   176.251
-20228.469	    15.108	  -103.372	  -169.787
-20236.496	    15.272	  -127.883	   178.877
-20025.723	    15.488	  -107.468	  -161.201
-20092.775	    15.769	  -124.457	  -165.390
-20338.963	    15.905	   -99.366	  -174.167
-20116.324	    15.908	  -114.147	   170.025
-20079.373	    15.684	  -143.135	  -178.499
-19988.373	    15.442	  -115.806	  -159.744
-20251.354	    15.279	  -119.360	  -172.707
-20468.688	    15.271	   -81.836	  -175.644
-20235.473	    15.372	   -81.975	   179.123
-20354.182	    15.544	  -122.613	   175.817
-20180.686	    15.721	  -112.529	  -164.296
-20059.770	    15.788	  -124.589	   174.819
-20250.584	    15.731	  -115.279	   177.424
-19901.451	    15.673	  -117.838	   176.322
-20305.422	    15.507	  -133.177	   158.576
-20311.734	    15.330	   -97.032	   169.239
-20125.582	    15.319	   -93.194	   174.891
-20491.643	    15.322	  -101.191	   165.633
-20190.506	    15.344	  -116.934	  -177.735
-20081.234	    15.441	  -115.243	   164.948
-20063.162	    15.498	  -126.635	   168.988
-20137.969	    15.450	  -117.179	  -164.895
-20031.730	    15.405	   -96.698	  -169.986
-19949.502	    15.503	   -90.451	   168.154
-20217.842	    15.578	  -112.646	   169.799
-20325.387	    15.517	  -115.969	  -177.903
-20311.551	    15.442	  -118.979	  -174.700
-20334.883	    15.386	  -113.735	  -179.386
-20082.041	    15.399	  -105.884	   163.927
-20334.053	    15.488	   -89.077	   159.354
-20159.004	    15.420	  -110.481	   175.034
-20439.885	    15.350	  -102.819	   175.051
-20317.562	    15.294	  -132.045	   173.876
-20325.912	    15.317	  -104.137	   177.340
-20239.217	    15.399	  -102.532	  -174.185
-20226.812	    15.436	  -103.384	   179.018
-20048.959	    15.512	  -109.325	   175.430
-20179.729	    15.584	  -103.453	   172.585
-20070.822	    15.581	   -72.690	   167.713
-20015.090	    15.549	   -99.411	   170.199
-20104.609	    15.471	  -112.190	  -173.728
-20160.996	    15.295	  -120.783	   169.850
-20230.582	    15.180	  -121.766	   166.700
-20232.939	    15.329	  -120.600	   175.720
-20379.379	    15.454	  -106.038	   175.078
-20208.982	    15.442	  -114.474	  -175.267
-20229.652	    15.345	  -119.777	   166.870
-20185.516	    15.324	  -121.025	   174.021
-20266.680	    15.264	  -113.994	  -178.005
-20320.195	    15.219	   -93.908	   158.993
-20141.131	    15.447	  -101.056	  -179.807
-20123.305	    15.630	   -93.976	   172.267
-20226.443	    15.591	   -86.261	   176.331
-20315.793	    15.502	  -118.865	   179.658
-20195.217	    15.454	   -90.666	   175.853
-20240.666	    15.419	  -116.804	   160.641
-20351.477	    15.387	   -87.045	   166.924
-20118.545	    15.377	   -91.863	  -175.841
-20141.744	    15.371	  -104.853	  -176.578
-20225.688	    15.455	   -84.579	   170.830
-20089.023	    15.640	   -89.818	   177.080
-20075.340	    15.709	   -84.911	   158.596
-20313.916	    15.747	  -109.792	   163.265
-19891.521	    15.696	   -88.245	   169.602
-20317.254	    15.601	   -88.859	   174.260
-20303.574	    15.551	  -105.219	   176.499
-20037.602	    15.498	  -124.026	  -170.324
-20377.703	    15.406	  -139.006	  -171.378
-20366.891	    15.357	  -127.723	  -175.218
-20250.545	    15.333	  -135.072	   178.097
-20286.904	    15.342	  -150.748	   177.570
-20173.695	    15.396	  -114.417	   167.826
-20173.229	    15.411	   -98.448	  -177.801
-20403.172	    15.453	  -120.373	   177.354
-20308.557	    15.455	  -125.449	   175.820
-20446.518	    15.389	  -121.390	   172.442
-19858.232	    15.303	   -92.917	  -176.707
-20050.008	    15.354	  -116.523	  -163.571
-20201.854	    15.548	  -109.563	   179.893
-20045.287	    15.575	  -125.646	   173.029
-20246.592	    15.503	   -99.756	   175.528
-20103.486	    15.502	  -109.781	   170.510
-20328.994	    15.499	  -101.043	  -169.382
-20117.330	    15.470	  -122.279	   178.675
-20165.549	    15.467	  -102.945	  -161.508
-20199.402	    15.330	  -102.845	   167.597
-20175.383	    15.324	  -101.163	  -156.391
-20036.545	    15.473	  -101.777	  -166.915
-20287.338	    15.627	  -131.460	   158.732
-20218.846	    15.717	  -139.171	  -166.551
-20065.105	    15.720	  -107.336	  -175.424
-20087.221	    15.620	  -105.619	   176.494
-20015.344	    15.496	   -90.663	  -172.107
-20050.908	    15.477	  -105.535	   167.642
-19815.777	    15.514	   -94.386	   167.201
-20193.939	    15.451	  -108.114	  -169.902
-20308.715	    15.341	  -102.982	   178.173
-19886.754	    15.196	  -104.263	  -170.844
-20073.189	    15.128	  -128.922	  -172.233
-20050.502	    15.270	  -100.391	   174.878
-20333.898	    15.511	  -132.438	   171.330
-19878.049	    15.765	  -131.100	  -172.969
-19884.393	    15.805	  -106.865	  -176.785
-20202.883	    15.746	  -119.394	   164.371
-20130.105	    15.644	  -130.098	   169.679
-20360.113	    15.524	  -118.184	   171.072
-20189.820	    15.464	  -125.339	   172.210
-19871.543	    15.574	  -130.174	   176.727
-20099.617	    15.607	  -108.392	   168.367
-20100.553	    15.631	   -96.101	   171.938
-20164.586	    15.439	   -97.544	  -172.928
-20514.039	    15.262	  -123.404	  -170.797
-20551.750	    15.199	  -101.056	  -174.158
-20170.846	    15.279	   -95.342	  -157.161
-20124.068	    15.501	   -90.368	  -156.389
-19986.553	    15.651	   -95.695	  -175.236
-20056.209	    15.688	  -106.596	   172.324
-20016.875	    15.488	   -84.899	   178.957
-20255.689	    15.188	  -127.661	  -165.078
-20303.242	    15.045	   -96.357	   177.134
-20258.367	    15.216	  -106.422	  -160.497
-19958.510	    15.523	  -113.939	   172.509
-20033.617	    15.688	  -114.186	  -177.614
-20174.953	    15.598	  -133.137	   166.002
-20348.453	    15.536	  -127.394	   174.989
-20017.092	    15.402	  -121.117	  -176.281
-19991.314	    15.222	  -133.591	   174.819
-20009.061	    15.194	  -120.639	   167.660
-20120.619	    15.353	  -108.247	  -173.498
-19837.562	    15.593	  -109.483	   169.911
-19955.941	    15.685	  -126.288	  -173.044
-20259.033	    15.583	   -93.073	   177.940
-20198.559	    15.424	   -99.015	   173.257
-20234.104	    15.357	   -83.786	   166.338
-20131.783	    15.377	  -119.932	   171.791
-20032.994	    15.388	  -102.165	   172.609
-20319.246	    15.425	  -111.804	   160.355
-20093.279	    15.466	  -124.869	   165.218
-19990.949	    15.374	  -105.135	   173.499
-20204.713	    15.252	   -91.375	  -171.079
-20174.311	    15.221	  -100.553	   171.271
-20187.850	    15.297	  -126.558	   165.580
-20327.037	    15.435	  -117.395	  -174.517
-20026.512	    15.520	  -102.480	  -172.958
-19934.182	    15.503	  -105.276	   178.444
-19932.051	    15.455	  -121.264	   174.933
-20025.086	    15.346	  -130.321	   172.912
-20217.084	    15.188	  -105.932	  -169.591
-20392.107	    15.175	  -120.325	   178.535
-20252.889	    15.266	  -129.971	  -170.899
-20165.307	    15.356	  -122.438	  -166.626
-20477.207	    15.339	  -144.559	  -179.441
-20370.316	    15.276	  -127.536	  -179.842
-20347.086	    15.240	   -96.544	   169.640
-20330.746	    15.213	  -105.306	   160.712
-20192.783	    15.304	   -97.217	   178.171
-20104.072	    15.422	   -96.816	   170.416
-20281.637	    15.601	   -86.390	   172.773
-20146.828	    15.758	   -98.507	  -175.869
-20320.900	    15.708	  -107.675	   173.070
-20186.725	    15.603	  -120.298	   179.198
-20259.064	    15.457	  -129.296	   177.651
-20315.168	    15.369	   -92.207	   157.620
-20358.186	    15.349	   -85.878	   167.937
-20082.033	    15.478	  -108.293	   172.421
-19956.996	    15.677	  -123.207	   176.881
-20095.314	    15.680	  -136.996	   170.590
-20130.078	    15.471	  -128.187	   176.508
-20237.689	    15.224	  -106.674	   174.101
-20296.875	    15.082	  -100.312	  -178.655
-20263.418	    15.099	   -88.654	   178.484
-20359.057	    15.213	  -100.340	   173.168
-20050.906	    15.427	  -112.897	   173.830
-20130.084	    15.603	  -129.316	   170.723
-20216.111	    15.653	  -111.517	  -174.939
-20057.820	    15.625	  -112.145	  -170.886
-19960.617	    15.463	  -100.654	   179.358
-20275.457	    15.343	  -125.801	  -176.842
-19995.273	    15.375	  -101.899	   172.914
-20025.467	    15.350	   -88.246	   168.976
-20199.785	    15.247	   -93.170	   162.192
-20311.646	    15.262	   -96.092	  -177.281
-20197.023	    15.355	  -110.954	  -177.901
-20155.068	    15.615	  -123.277	  -178.409
-20076.217	    15.722	   -98.818	   169.164
-20060.268	    15.724	  -115.071	   177.129
-20123.650	    15.597	  -108.205	  -168.431
-19971.346	    15.438	  -114.172	  -169.775
-20225.816	    15.326	   -98.358	  -162.079
-20147.668	    15.437	   -98.101	   170.391
-20231.051	    15.549	   -85.927	   175.257
-20015.641	    15.523	  -101.517	  -178.820
-20405.846	    15.393	  -122.161	   175.511
-20243.115	    15.275	  -119.652	  -174.007
-20301.312	    15.404	  -103.758	  -179.652
-19856.523	    15.457	  -114.858	   174.868
-20209.932	    15.373	  -110.024	  -174.933
-20136.465	    15.316	   -95.171	  -168.425
-20075.160	    15.390	  -110.920	  -174.481
-20320.340	    15.512	  -102.137	   175.519
-20146.273	    15.586	  -100.339	   171.374
-20175.936	    15.505	  -103.972	   164.591
-20288.781	    15.427	  -115.896	   176.427
-20129.502	    15.489	  -118.800	   179.013
-20259.455	    15.592	  -116.162	   170.212
-20000.322	    15.659	  -110.383	   175.315
-20146.406	    15.434	  -135.064	   167.008
-20358.934	    15.244	  -103.943	   175.837
-20280.586	    15.153	  -100.752	   169.289
-20257.006	    15.154	  -110.800	  -168.025
-20152.576	    15.105	   -89.763	   162.617
-20432.115	    15.091	   -78.746	  -172.692
-20311.643	    15.191	   -95.407	  -178.369
-20219.869	    15.335	  -128.420	   170.902
-20175.252	    15.391	  -116.529	  -177.908
-19916.693	    15.394	  -116.901	  -168.824
-19985.463	    15.374	  -114.015	   177.735
-20320.775	    15.297	  -102.953	   164.852
-20487.076	    15.132	   -97.894	  -178.267
-20340.088	    15.054	  -105.895	   173.605
-20275.609	    15.182	  -122.361	   171.826
-20188.947	    15.416	  -132.587	  -179.141
-20000.246	    15.629	  -121.051	  -175.364
-19947.287	    15.632	  -118.604	   179.699
-20328.018	    15.454	  -102.038	  -177.195
-20210.438	    15.220	  -100.873	  -173.245
-20156.836	    15.128	  -105.143	  -179.762
-20068.742	    15.196	  -112.478	   171.079
-20039.547	    15.297	  -134.678	   164.028
-20051.730	    15.374	  -103.821	   174.442
-20018.322	    15.492	   -99.535	  -171.601
-20235.455	    15.488	  -105.831	   175.512
-20482.496	    15.483	   -97.987	  -174.436
-20325.178	    15.467	   -85.187	   165.689
-20217.441	    15.486	  -102.311	   165.605
-20217.123	    15.447	   -96.163	   178.417
-20194.900	    15.496	   -77.148	   176.127
-20227.531	    15.611	   -90.439	   167.849
-20185.277	    15.671	   -97.589	   173.154
-19773.377	    15.665	  -141.790	   179.533
-20154.504	    15.453	  -134.857	   173.961
-20296.150	    15.219	   -90.021	  -177.301
-20575.998	    15.101	   -96.330	  -171.956
-20112.447	    15.240	  -135.029	  -175.839
-20171.691	    15.464	  -123.904	   179.412
-20202.561	    15.686	   -91.148	  -179.878
-19972.385	    15.702	  -108.094	   170.850
-20141.000	    15.504	  -129.170	  -179.190
-20228.730	    15.342	  -107.355	  -177.046
-20165.539	    15.297	  -100.628	  -179.392
-20124.061	    15.251	   -99.368	  -166.720
-20211.004	    15.273	  -110.348	  -173.024
-20243.418	    15.296	  -111.733	  -163.179
-20274.986	    15.302	   -94.464	   166.111
-20422.877	    15.319	  -108.358	   173.969
-20003.262	    15.306	  -100.443	   168.568
-20201.193	    15.318	   -88.060	  -179.851
-20380.766	    15.299	   -82.561	   163.524
-20437.109	    15.216	  -123.324	   165.145
-20227.793	    15.194	  -124.959	   159.035
-20209.320	    15.285	  -104.298	   164.088
-20067.115	    15.367	  -103.434	   171.481
-20109.125	    15.450	  -117.521	   179.425
-20136.879	    15.397	  -104.461	   168.006
-20365.428	    15.293	  -105.895	   174.085
-20159.523	    15.386	  -108.079	   166.888
-20316.631	    15.463	  -109.161	   153.074
-20282.814	    15.389	  -120.708	  -178.830
-20306.234	    15.391	  -125.223	  -170.847
-20140.949	    15.365	  -102.866	   159.078
-20004.008	    15.382	  -111.326	  -169.693
-20107.412	    15.566	  -124.183	  -174.333
-20136.031	    15.666	  -122.949	   151.362
-20071.240	    15.649	  -110.414	  -174.788
-20059.668	    15.526	  -105.832	   161.138
-20231.061	    15.350	  -105.100	   175.933
-20304.021	    15.321	  -103.959	   171.089
-20171.699	    15.341	   -98.915	   162.239
-20078.592	    15.507	   -83.673	   159.847
-20262.297	    15.443	  -122.714	   166.304
-19914.359	    15.394	  -133.576	   168.061
-20224.246	    15.333	  -108.652	   160.553
-20226.445	    15.286	   -87.470	   167.540
-20169.598	    15.328	  -102.177	   179.986
-20275.641	    15.307	  -108.499	   172.276
-20186.582	    15.325	  -104.304	   158.515
-19889.811	    15.264	  -110.620	  -169.073
-20331.445	    15.183	   -74.365	   163.546
-20422.779	    15.261	  -128.532	  -176.307
-20244.025	    15.424	  -103.714	  -166.722
-20122.824	    15.605	  -114.081	   174.993
-20114.742	    15.644	  -102.795	   174.633
-20159.068	    15.584	  -108.503	   177.885
-20077.125	    15.521	   -95.308	   174.210
-20235.996	    15.443	  -108.899	   172.554
-20022.906	    15.375	  -118.289	   177.002
-20529.619	    15.354	  -108.840	  -178.660
-20280.596	    15.220	  -142.004	  -178.835
-20266.590	    15.212	   -87.002	   169.076
-20249.180	    15.434	  -112.816	   166.445
-20189.176	    15.647	   -84.371	  -178.075
-20039.613	    15.635	   -84.100	  -167.087
-20329.223	    15.526	   -90.098	   179.752
-20502.879	    15.472	   -98.058	  -175.418
-20132.078	    15.399	  -127.223	   179.337
-20357.957	    15.342	  -124.431	   155.910
-20042.713	    15.284	  -133.738	   162.196
-20223.139	    15.247	  -115.708	   176.267
-20294.807	    15.092	  -135.262	  -179.549
-20378.125	    15.116	  -123.685	   173.990
-20470.502	    15.331	  -110.246	  -178.658
-20064.270	    15.610	  -126.416	   170.264
-20066.912	    15.745	  -110.031	   166.413
-20053.262	    15.780	   -98.359	  -172.861
-20288.164	    15.688	  -107.500	  -174.242
-20185.041	    15.671	  -123.867	   175.237
-20265.402	    15.784	   -99.682	   168.672
-20378.320	    15.826	  -122.188	   172.336
-20319.564	    15.805	  -113.327	  -178.808
-20172.301	    15.778	  -102.168	   174.320
-20024.371	    15.638	  -100.010	   173.041
-20269.750	    15.389	   -84.752	   175.121
-20023.607	    15.215	   -86.001	   178.737
-20189.332	    15.258	   -82.650	   165.467
-19994.945	    15.326	  -103.246	  -173.392
-20294.754	    15.486	   -76.372	  -175.408
-20162.121	    15.539	   -86.819	   157.976
-19913.994	    15.375	   -94.054	  -177.554
-20342.865	    15.178	   -99.234	  -177.127
-20312.264	    15.172	   -99.307	  -178.327
-20227.574	    15.195	  -137.280	  -167.047
-20135.078	    15.246	  -117.700	   177.090
-19977.580	    15.407	   -85.460	   164.750
-20212.977	    15.467	   -93.827	   175.854
-20184.414	    15.446	   -94.307	   167.395
-20074.201	    15.408	   -84.482	  -179.041
-20028.895	    15.423	   -94.733	   178.164
-20017.551	    15.491	  -116.028	  -156.620
-20266.297	    15.557	  -112.543	   166.945
-20132.842	    15.572	   -89.021	  -178.752
-20131.211	    15.670	   -98.068	   171.879
-20208.721	    15.699	   -93.385	   160.950
-19962.691	    15.570	   -87.776	  -171.599
-20338.895	    15.331	  -117.819	  -174.749
-20210.162	    15.211	  -124.692	   165.152
-20108.541	    15.225	  -122.805	  -178.201
-20174.230	    15.312	  -106.749	  -175.212
-20102.832	    15.441	  -116.750	   173.624
-20174.150	    15.559	  -110.042	   178.634
-20282.781	    15.629	  -107.082	   162.141
-20199.518	    15.776	  -105.355	   158.846
-20191.951	    15.760	  -105.160	   167.134
-20177.740	    15.595	  -109.069	   171.795
-20236.895	    15.509	  -113.376	   177.218
-20326.023	    15.409	  -107.798	   169.490
-19890.250	    15.417	  -125.727	   179.303
-20177.316	    15.426	  -107.089	  -174.180
-20217.998	    15.391	  -118.833	   176.691
-20138.682	    15.224	  -114.865	  -177.106
-20070.631	    15.171	  -131.352	   172.018
-20185.561	    15.155	  -116.674	  -175.377
-20030.314	    15.274	  -122.042	  -167.827
-20399.496	    15.497	  -107.784	  -169.244
-19997.627	    15.543	  -106.957	   171.090
-20172.371	    15.448	  -106.077	   171.907
-19983.170	    15.364	  -144.453	  -158.179
-20393.684	    15.416	  -105.959	   176.365
-19779.184	    15.589	  -107.625	  -175.365
-20357.184	    15.602	  -116.667	   173.308
-20243.766	    15.555	  -105.934	  -178.664
-20142.270	    15.515	  -114.966	  -176.668
-20221.771	    15.311	  -102.096	   174.060
-20148.691	    15.114	  -119.952	  -178.162
-20152.092	    15.069	   -93.644	   168.857
-20156.426	    15.312	   -87.544	  -179.067
-19942.158	    15.418	  -107.108	   172.672
-20163.664	    15.427	  -104.315	   163.414
-20137.951	    15.406	   -90.206	   176.081
-20337.959	    15.416	  -102.392	   177.720
-20285.070	    15.392	   -91.548	   170.815
-20302.490	    15.363	   -99.426	  -168.541
-20469.502	    15.319	  -136.975	  -171.408
-20299.822	    15.347	  -127.615	  -163.385
-19887.537	    15.342	  -106.533	   177.959
-20205.420	    15.256	   -94.438	   171.109
-20476.008	    15.240	  -103.441	   161.669
-20416.359	    15.398	  -112.358	   169.253
-20091.143	    15.604	  -110.661	  -175.834
-20208.395	    15.629	  -126.662	  -176.129
-20027.180	    15.488	  -152.286	  -173.165
-20228.652	    15.288	   -99.277	   179.218
-20261.543	    15.121	   -92.565	   177.762
-20157.514	    15.111	   -89.437	   170.903
-20311.986	    15.199	  -109.883	   167.873
-19967.750	    15.290	  -131.774	   174.564
-20110.297	    15.242	  -129.011	   166.735
-20387.918	    15.204	  -125.070	   172.348
-20153.188	    15.320	  -139.228	   164.587
-20184.295	    15.538	  -111.762	  -173.349
-20350.842	    15.606	  -116.589	   163.998
-20085.371	    15.618	   -75.089	  -179.391
-20154.824	    15.609	  -113.205	   172.861
-20084.078	    15.611	  -108.324	   173.560
-20120.689	    15.554	   -99.297	  -179.577
-20050.059	    15.548	  -105.199	   175.054
-19904.516	    15.540	   -90.123	   167.768
-20325.779	    15.487	   -81.078	  -172.976
-20337.736	    15.560	   -91.475	  -153.062
-20072.684	    15.608	   -90.142	   175.882
-20058.375	    15.438	  -105.334	   158.929
-20141.787	    15.378	   -90.230	   167.236
-20076.418	    15.502	  -105.969	   178.355
-20277.260	    15.676	  -146.817	  -177.677
-20045.160	    15.708	   -91.587	   161.995
-20266.250	    15.639	  -110.624	  -178.027
-20309.205	    15.531	   -75.885	   150.924
-19885.820	    15.453	  -116.940	  -175.277
-20293.820	    15.304	  -131.927	  -177.151
-20417.008	    15.136	  -140.816	  -179.338
-20116.506	    15.177	   -93.408	   179.907
-20053.105	    15.348	   -93.614	  -176.272
-20092.324	    15.489	   -99.083	   158.484
-20036.334	    15.623	   -96.805	  -178.669
-20060.514	    15.681	  -122.980	   170.406
-20057.979	    15.487	  -113.853	   169.109
-20245.588	    15.224	   -97.878	   169.432
-20203.621	    15.093	  -116.863	  -175.716
-20275.904	    15.174	  -129.090	  -173.830
-20167.582	    15.406	  -111.160	  -168.349
-20326.658	    15.565	   -98.577	  -166.061
-20059.586	    15.522	  -118.658	  -163.041
-20020.096	    15.329	  -125.720	  -175.311
-20193.662	    15.244	  -120.718	   161.856
-20278.088	    15.289	  -136.295	  -175.921
-20183.682	    15.404	  -131.850	   177.587
-20234.359	    15.423	  -114.089	   175.529
-20273.254	    15.367	   -96.036	  -174.853
-20064.203	    15.387	  -120.236	  -179.600
-20055.750	    15.447	  -111.244	  -157.919
-20188.137	    15.518	  -123.969	  -170.461
-20176.184	    15.503	   -80.048	   165.725
-20077.566	    15.431	  -102.499	  -178.045
-20352.230	    15.268	  -127.410	  -178.921
-20372.627	    15.137	  -112.091	   173.783
-20336.033	    15.073	   -98.333	   177.990
-20410.322	    15.221	  -135.098	  -170.770
-20234.557	    15.455	  -124.341	   177.948
-20292.609	    15.613	  -100.286	  -170.045
-20226.195	    15.645	  -124.953	   174.620
-20096.799	    15.585	   -91.283	  -161.748
-20333.223	    15.551	   -86.973	   170.697
-20317.947	    15.565	  -112.354	  -171.705
-19997.873	    15.728	   -85.566	   176.736
-19786.051	    15.828	   -68.588	   167.583
-19990.561	    15.687	   -83.609	   177.326
-20272.824	    15.466	  -118.495	   165.289
-20081.752	    15.475	   -81.800	  -167.933
-19895.227	    15.523	  -119.192	   169.741
-19887.756	    15.571	  -119.141	  -176.427
-20058.887	    15.422	  -114.713	  -173.258
-20174.273	    15.312	   -92.031	   162.400
-20144.309	    15.330	  -122.530	   155.060
-20167.240	    15.328	  -123.756	   169.984
-20194.627	    15.336	  -107.558	   168.441
-20355.984	    15.393	   -97.452	   167.876
-20170.223	    15.405	  -102.545	   156.682
-20076.256	    15.323	  -109.476	   179.986
-19998.787	    15.305	  -130.015	   163.862
-20032.234	    15.373	  -100.226	   168.818
-20083.244	    15.365	  -101.682	  -171.946
-20153.902	    15.239	  -102.797	   168.835
-20308.719	    15.201	  -103.769	  -176.998
-20396.299	    15.231	   -97.368	   166.784
-20386.643	    15.214	  -112.407	   153.641
-20579.727	    15.264	  -117.536	   178.063
-19935.186	    15.354	  -117.774	   170.627
-20203.951	    15.427	  -102.271	   177.847
-20186.545	    15.421	   -86.006	   159.293
-20400.916	    15.369	  -101.254	  -159.347
-20167.227	    15.399	   -82.146	   166.652
-20211.064	    15.465	  -111.514	   177.270
-19980.846	    15.521	  -100.163	   163.271
-19781.082	    15.531	  -147.394	   179.335
-20202.080	    15.408	  -119.618	  -170.401
-20498.553	    15.478	   -93.714	   179.134
-20371.883	    15.549	   -99.114	   167.081
-19964.727	    15.628	  -113.841	   158.362
-19913.115	    15.617	  -122.689	   168.126
-20360.602	    15.616	   -86.405	   171.854
-20001.395	    15.640	   -90.402	   172.241
-20248.508	    15.503	   -82.962	   174.656
-20016.670	    15.342	  -129.088	   169.301
-20115.453	    15.239	   -99.616	   176.103
-20502.461	    15.290	  -113.246	  -166.109
-20413.020	    15.386	   -93.583	  -169.813
-20112.227	    15.392	   -95.399	   166.189
-20218.564	    15.166	   -90.808	   165.034
-20339.037	    15.088	  -116.109	   171.692
-20355.070	    15.231	  -110.109	  -174.647
-20182.625	    15.391	   -91.348	  -179.626
-19969.436	    15.614	  -107.547	   167.879
-20131.602	    15.690	   -96.563	   177.648
-20201.510	    15.608	  -116.942	   155.492
-20277.814	    15.514	  -104.172	   176.047
-20111.752	    15.446	  -121.415	   159.595
-20348.107	    15.311	  -100.608	  -156.797
-20348.285	    15.112	  -136.695	   173.076
-20287.156	    15.089	  -128.320	   164.739
-20120.221	    15.235	   -98.364	  -177.152
-19838.213	    15.483	   -97.958	   169.751
-20234.781	    15.818	  -109.231	   161.334
-20131.195	    16.033	  -105.000	   172.101
-20149.922	    16.007	   -95.376	   178.026
-20185.912	    15.681	  -122.914	  -167.202
-20313.809	    15.291	  -105.796	  -175.225
-20352.629	    14.986	  -133.319	   168.100
-20317.166	    15.059	  -100.990	  -173.965
-20033.812	    15.261	   -89.598	   173.476
-20075.732	    15.606	  -104.106	   157.770
-19911.266	    15.782	  -100.302	  -175.968
-20030.590	    15.686	  -120.368	  -170.122
-19967.803	    15.575	  -110.611	  -178.812
-20063.072	    15.375	   -96.570	   176.105
-20041.834	    15.295	   -85.875	   167.738
-20250.652	    15.297	  -103.767	   162.082
-20191.613	    15.480	   -98.204	  -178.196
-20170.240	    15.603	   -84.030	   176.857
-20293.432	    15.657	  -126.370	   178.999
-19992.096	    15.718	  -136.161	  -178.866
-19903.434	    15.643	  -118.244	  -171.669
-20077.404	    15.388	  -117.298	   155.426
-20305.617	    15.246	   -96.449	   174.110
-20104.146	    15.265	  -136.643	   169.351
-20185.525	    15.473	  -122.277	   177.765
-19979.225	    15.659	   -95.739	  -176.120
-20315.293	    15.653	  -122.236	   172.134
-20341.926	    15.604	  -106.312	  -172.583
-20022.000	    15.534	   -82.696	   157.980
-19991.188	    15.534	   -71.928	   171.421
-20149.740	    15.522	   -82.339	   178.769
-20198.271	    15.526	  -107.486	  -178.085
-20105.332	    15.566	   -84.246	   170.990
-19849.205	    15.535	  -126.698	   169.766
-20083.648	    15.393	  -109.690	   177.594
-20377.189	    15.319	   -97.881	   166.893
-20270.562	    15.146	   -91.660	   175.163
-20242.709	    15.053	  -113.112	   169.456
-20225.422	    15.193	  -102.216	  -169.903
-20049.158	    15.408	   -81.117	  -173.112
-20093.680	    15.689	  -137.368	   171.038
-19920.369	    15.923	  -120.593	   168.601
-20125.713	    15.888	  -104.407	   168.291
-20130.814	    15.633	  -121.660	   160.667
-20195.826	    15.322	  -111.569	   178.332
-20127.926	    15.150	  -119.216	  -166.236
-20144.420	    15.142	  -109.656	   172.605
-20293.016	    15.218	  -111.345	   165.451
-20257.854	    15.459	  -122.425	   172.713
-20202.059	    15.620	  -111.820	   174.656
-20108.400	    15.572	  -103.563	  -144.966
-20168.080	    15.383	  -141.346	  -172.621
-20120.029	    15.172	  -129.568	   160.293
-20344.328	    15.041	  -117.395	   175.989
-20429.686	    15.156	  -135.219	   179.873
-19984.635	    15.367	  -105.409	   175.259
-19888.359	    15.603	  -104.678	   170.746
-19993.201	    15.821	  -140.328	   173.154
-20156.018	    15.825	  -110.476	   176.033
-20324.199	    15.796	   -92.548	   161.248
-19963.238	    15.633	  -138.630	   171.656
-20064.650	    15.387	  -101.490	   170.781
-20370.746	    15.223	  -103.929	  -159.611
-20330.652	    15.247	   -95.226	  -175.968
-20223.900	    15.338	  -100.837	  -174.289
-20099.773	    15.348	  -116.607	   169.837
-20336.641	    15.337	  -122.065	  -178.559
-20332.734	    15.425	  -103.167	  -177.398
-20373.195	    15.498	  -120.549	   169.219
-20119.648	    15.584	  -110.633	   170.032
-20077.320	    15.579	  -121.275	   165.410
-20083.293	    15.497	  -102.599	  -156.841
-20273.656	    15.412	  -110.113	  -175.869
-20191.854	    15.428	  -127.108	  -170.383
-20068.939	    15.368	  -109.703	   176.074
-20033.463	    15.294	  -139.659	  -170.995
-20143.121	    15.249	  -134.394	   168.522
-20335.381	    15.118	  -134.145	   170.987
-20272.652	    15.144	  -117.415	   176.817
-20206.582	    15.307	  -106.706	   179.868
-20304.326	    15.456	  -121.297	  -170.143
-20255.873	    15.489	  -114.992	  -176.023
-20168.332	    15.475	   -93.195	   160.266
-20161.219	    15.503	   -95.177	  -168.441
-20253.791	    15.528	  -100.413	   168.108
-20213.650	    15.574	   -99.165	   166.319
-20137.293	    15.567	  -114.230	   168.598
-20239.312	    15.597	  -117.101	   172.876
-20249.264	    15.713	  -122.036	   155.730
-20367.303	    15.631	  -106.283	   168.421
-20296.311	    15.326	  -129.688	   166.011
-20281.637	    15.142	  -140.550	   165.073
-20260.406	    15.194	  -129.207	   174.200
-20498.766	    15.314	  -107.389	   178.291
-20036.416	    15.479	  -115.494	   165.164
-20236.291	    15.626	  -121.457	   179.956
-20166.219	    15.744	  -112.398	   174.244
-20345.158	    15.741	  -103.548	   177.465
-20102.559	    15.606	  -125.452	   178.560
-20008.824	    15.409	  -106.636	   168.007
-20535.637	    15.270	  -119.889	  -176.196
-20191.365	    15.255	  -117.613	   162.625
-20195.377	    15.384	   -83.558	   178.972
-20177.641	    15.500	  -102.961	   177.715
-20184.332	    15.536	  -119.169	   177.118
-20383.959	    15.401	  -130.269	   163.560
-20232.277	    15.366	  -108.067	   166.985
-20177.174	    15.429	  -106.210	   169.410
-20096.482	    15.523	   -98.043	   168.696
-20086.494	    15.545	   -93.312	   175.944
-20202.996	    15.549	  -135.440	   176.513
-20126.016	    15.596	  -122.637	  -177.910
-20252.250	    15.577	  -109.553	  -179.682
-20042.824	    15.581	   -96.843	  -174.096
-20250.250	    15.424	   -88.103	  -166.128
-20119.141	    15.335	   -97.632	   176.881
-20113.518	    15.403	  -124.491	  -179.302
-20224.152	    15.496	  -127.367	   170.468
-20107.365	    15.513	  -142.789	  -173.455
-20075.506	    15.558	  -131.083	   179.993
-20161.754	    15.583	  -114.528	   156.026
-20073.010	    15.515	  -115.812	   160.104
-19965.348	    15.326	  -124.640	   160.355
-20340.984	    15.130	  -123.162	   171.411
-20350.801	    15.130	  -149.799	   167.836
-20230.658	    15.251	  -130.211	   160.867
-20459.373	    15.375	  -137.983	   177.102
-20085.820	    15.470	  -112.952	   178.124
-20090.590	    15.559	  -114.853	   166.183
-20242.213	    15.620	  -101.497	   168.013
-19933.959	    15.552	  -112.531	  -175.764
-19993.592	    15.470	  -103.366	  -178.400
-20236.760	    15.459	   -95.503	  -169.571
-20221.729	    15.435	  -143.375	   177.150
-20176.721	    15.330	  -115.778	   155.851
-20212.990	    15.118	  -119.511	   166.943
-20280.828	    15.132	  -107.166	   172.358
-20196.100	    15.238	  -122.861	   165.279
-20549.025	    15.308	  -132.426	   159.260
-20385.957	    15.396	  -109.888	   170.365
-20299.221	    15.493	  -102.032	   173.814
-19874.916	    15.591	   -88.362	   173.050
-20195.154	    15.588	  -114.495	   174.033
-20268.879	    15.373	   -87.688	   177.229
-20503.338	    15.232	   -94.709	   173.206
-20307.785	    15.134	  -114.852	  -173.047
-20362.053	    15.016	  -129.715	  -176.889
-20186.455	    15.135	   -91.660	   179.899
-20159.420	    15.416	  -140.083	   176.520
-19943.275	    15.758	   -97.769	   174.807
-20231.607	    15.945	   -81.684	   161.398
-20151.215	    15.906	   -96.661	   161.294
-19919.406	    15.695	   -82.984	   162.697
-20182.768	    15.385	  -116.742	   160.503
-20389.672	    15.123	  -119.431	   168.560
-20166.527	    15.009	   -83.539	   163.909
-20321.527	    15.038	   -95.096	   165.837
-20298.129	    15.122	   -87.730	  -178.882
-20460.732	    15.176	  -100.296	   168.340
-20529.812	    15.175	  -109.927	  -176.538
-20358.760	    15.299	  -114.126	   179.746
-20385.266	    15.353	   -99.118	  -174.540
-20184.129	    15.283	  -111.026	  -159.185
-19957.900	    15.283	   -93.944	   179.724
-20082.865	    15.432	  -111.136	   179.944
-20348.385	    15.584	  -100.036	  -173.254
-19932.711	    15.633	  -108.588	   157.403
-20117.996	    15.555	  -116.201	   161.983
-19949.020	    15.511	  -102.152	   168.395
-20015.771	    15.479	   -81.302	   173.465
-20097.652	    15.531	  -110.539	  -174.913
-20234.070	    15.567	   -80.560	   179.661
-20252.832	    15.549	   -89.404	   163.820
-20427.428	    15.433	   -89.003	  -178.195
-20341.066	    15.401	  -106.193	  -178.124
-19993.627	    15.461	  -107.210	  -176.764
-20190.047	    15.521	  -106.070	   162.219
-19986.236	    15.554	   -96.135	   178.796
-20226.951	    15.454	  -122.507	   173.151
-20172.965	    15.200	   -90.697	  -172.858
-20206.730	    15.211	  -105.393	   170.837
-20112.219	    15.499	   -98.639	   168.100
-20095.693	    15.701	  -118.274	   161.968
-20087.076	    15.619	  -109.438	   168.141
-20250.699	    15.348	  -124.678	  -175.693
-20364.441	    15.214	  -123.569	   161.096
-20460.445	    15.321	  -131.035	  -168.732
-20072.057	    15.513	  -111.137	   176.047
-20177.146	    15.671	  -116.856	  -172.189
-20138.350	    15.754	  -132.371	   173.933
-20000.408	    15.709	  -122.336	  -178.898
-20250.990	    15.587	   -72.453	  -178.058
-20211.500	    15.532	  -102.159	   166.197
-20086.912	    15.495	   -98.267	   171.003
-20453.510	    15.526	  -101.968	   157.387
-20081.453	    15.502	  -121.211	   170.524
-20037.676	    15.579	  -105.562	   159.620
-20067.941	    15.662	  -117.377	   167.383
-20327.068	    15.544	  -105.957	   154.415
-20170.029	    15.256	  -105.736	   177.952
-20257.340	    15.083	  -118.331	  -176.385
-20252.158	    14.978	  -100.974	   160.150
-20231.588	    15.084	  -125.987	  -173.296
-20397.539	    15.390	   -87.046	   171.094
-20329.441	    15.693	   -94.647	   166.627
-20025.447	    15.956	   -93.803	   179.087
-20060.469	    15.924	  -109.140	   157.343
-19945.006	    15.757	  -114.507	  -178.710
-20031.137	    15.387	  -106.822	  -173.370
-20329.150	    15.008	  -100.913	   167.337
-19985.678	    15.074	   -87.899	  -178.017
-20437.883	    15.322	  -133.747	  -156.770
-19909.074	    15.668	  -138.185	  -164.738
-19959.180	    15.893	   -86.354	   179.782
-20086.482	    15.822	   -82.241	   167.240
-20018.424	    15.547	   -77.345	   159.748
-20292.369	    15.255	   -75.614	   173.859
-20126.982	    15.241	   -98.717	  -179.495
-20229.795	    15.410	  -108.677	   172.969
