-20079.275	    15.334	   -92.310	   122.143
-20207.232	    15.374	  -119.982	    74.464
-20035.896	    15.322	  -120.612	    85.323
-20242.615	    15.240	   -84.996	    55.442
-20337.916	    15.388	   -95.953	   104.480
-20114.672	    15.597	   -99.884	    93.211
-20292.039	    15.794	   -78.317	    78.224
-19953.496	    15.886	  -102.527	   100.621
-19955.678	    15.728	  -100.641	    81.849
-20057.227	    15.399	   -91.970	    71.348
-20236.107	    15.145	   -94.692	    86.046
-20274.229	    15.183	   -85.749	    56.810
-20185.242	    15.534	   -99.187	    59.149
-19981.574	    15.798	  -104.385	    48.316
-19923.404	    15.845	  -102.272	    50.656
-20218.561	    15.661	  -120.729	    64.205
-20208.340	    15.481	  -135.684	    42.366
-20447.438	    15.403	  -113.619	    53.840
-20240.977	    15.457	  -107.764	    82.671
-20191.822	    15.568	  -109.786	    68.237
-19977.084	    15.645	   -99.665	    62.235
-20075.762	    15.535	  -117.289	   111.950
-20368.811	    15.500	  -124.620	    65.560
-20122.918	    15.440	   -95.193	    70.527
-20117.314	    15.350	  -106.868	    65.491
-20034.268	    15.412	   -80.071	    57.344
-20123.445	    15.585	  -109.835	    47.695
-20154.766	    15.723	  -113.566	    62.088
-20030.072	    15.765	   -84.544	    66.592
-20147.814	    15.734	   -98.861	    52.071
-20328.076	    15.518	   -94.010	    55.062
-20388.439	    15.345	   -80.993	    66.932
-20325.912	    15.271	   -84.303	    64.030
-20237.428	    15.289	   -89.345	    83.639
-20000.672	    15.394	  -103.157	    63.810
-20014.693	    15.492	  -124.226	    48.087
-20162.072	    15.513	  -129.103	    66.308
-20189.494	    15.429	  -126.526	    54.288
-20232.256	    15.314	   -93.931	    69.219
-20106.322	    15.256	  -107.888	    80.391
-20139.090	    15.225	  -132.844	    78.370
-19967.383	    15.269	  -121.425	    77.124
-20527.229	    15.334	  -124.838	    67.081
-20322.131	    15.437	  -128.597	    75.343
-20053.695	    15.535	  -123.803	    70.180
-20156.752	    15.665	  -100.479	    66.046
-20252.949	    15.668	  -101.777	    76.599
-20011.246	    15.601	  -126.406	    48.973
-20210.762	    15.467	  -115.634	    33.132
-19977.051	    15.342	  -124.188	    72.250
-20289.621	    15.311	   -91.148	    78.250
-20299.252	    15.311	   -96.207	    68.108
-20513.725	    15.242	  -106.669	    74.219
-20357.676	    15.245	   -94.869	    66.637
-20228.508	    15.285	  -112.015	    60.660
-20121.283	    15.395	  -123.405	    62.100
-20095.705	    15.415	  -100.751	    71.080
-20250.354	    15.342	   -96.164	    68.322
-20077.701	    15.360	   -87.219	    70.204
-20000.781	    15.415	   -87.760	    68.184
-20154.697	    15.619	  -131.519	    74.958
-19972.838	    15.721	  -106.204	    88.433
-20248.715	    15.672	  -119.059	    63.505
-20404.006	    15.556	  -115.684	    70.064
-20348.566	    15.372	   -72.146	    58.915
-20305.746	    15.348	  -110.488	    76.089
-20049.639	    15.434	   -95.469	    68.921
-20057.688	    15.514	  -103.441	    63.041
-19944.715	    15.668	  -119.359	    64.288
-20203.789	    15.783	  -107.177	    94.895
-19963.473	    15.772	   -85.713	    58.138
-20115.344	    15.694	  -117.404	    64.937
-20106.783	    15.547	   -95.564	    76.261
-19934.053	    15.486	  -102.203	    77.986
-20355.408	    15.425	  -110.826	    71.660
-20227.301	    15.443	  -105.415	    57.741
-20165.803	    15.553	  -107.192	    68.982
-20203.949	    15.496	  -104.934	    59.058
-20368.934	    15.189	  -101.169	    37.456
-20418.068	    14.910	   -88.410	    70.680
-20110.469	    14.949	  -108.370	    75.027
-20298.547	    15.095	  -122.722	    84.227
-20375.520	    15.399	  -115.383	    67.001
-20247.574	    15.676	   -93.301	    61.710
-20014.119	    15.858	   -97.219	    61.297
-20206.096	    15.863	  -116.916	    65.195
-20053.254	    15.825	   -92.668	    57.891
-20099.834	    15.735	   -87.589	    78.506
-20289.945	    15.594	   -93.722	    56.246
-20030.994	    15.473	  -109.284	    63.523
-20286.857	    15.407	  -137.558	    86.439
-20376.566	    15.438	  -114.633	    80.189
-20202.705	    15.427	  -102.169	    72.777
-20234.605	    15.400	  -114.268	    56.393
-20040.627	    15.343	  -126.524	    76.768
-20255.645	    15.249	  -117.058	    73.211
-20305.365	    15.254	  -127.155	    78.351
-20496.266	    15.307	  -117.073	    84.467
-20090.656	    15.500	  -130.643	    57.582
-19910.096	    15.682	  -116.937	    73.098
-20181.475	    15.731	  -125.621	    59.795
-19920.555	    15.698	   -99.747	    70.123
-20164.512	    15.512	  -115.481	    74.303
-20046.953	    15.274	  -143.487	    74.583
-20313.920	    15.129	  -115.188	    94.865
-20249.104	    15.165	  -113.953	    74.802
-20224.965	    15.252	  -102.943	   102.873
-20003.406	    15.431	  -113.675	    87.651
-20080.764	    15.507	  -106.767	    69.005
-20159.406	    15.420	  -112.060	    88.885
-20032.525	    15.271	  -109.093	    87.108
-20190.893	    15.113	  -125.963	    60.333
-20393.701	    15.082	   -92.194	    72.164
-20102.934	    15.383	  -109.646	    35.371
-20152.811	    15.683	   -93.482	    66.258
-19931.773	    15.686	   -87.102	    54.599
-20235.973	    15.486	   -81.975	    70.242
-20376.684	    15.425	   -89.331	    69.656
-20143.373	    15.592	   -83.176	    62.507
-20174.475	    15.697	  -109.612	    54.474
-20136.076	    15.587	   -98.797	    35.548
-20178.316	    15.441	  -113.092	    52.315
-20108.568	    15.359	  -103.218	    69.615
-20034.566	    15.340	  -113.649	    36.060
-20271.701	    15.375	  -111.393	    34.334
-20226.461	    15.378	  -116.712	    37.166
-20177.254	    15.327	  -128.370	    60.764
-20308.441	    15.303	   -97.954	    61.641
-20216.066	    15.428	   -88.438	    55.480
-19941.807	    15.597	   -84.730	    51.733
-19963.240	    15.650	  -101.009	    63.337
-20214.686	    15.589	  -105.102	    57.924
-19911.217	    15.477	  -111.644	    57.824
-19995.109	    15.361	  -114.136	    85.509
-20133.887	    15.350	  -106.435	    58.990
-20072.564	    15.506	  -107.522	    49.834
-20099.791	    15.774	   -99.310	    48.096
-19913.383	    15.898	   -86.332	    66.373
-20118.709	    15.916	   -74.076	    74.510
-20241.562	    15.814	   -89.102	    56.669
-19864.508	    15.690	  -116.551	    48.381
-20505.416	    15.635	  -114.733	    61.483
-20354.324	    15.616	  -105.655	    61.425
-20091.578	    15.554	  -117.408	    54.362
-20189.660	    15.483	  -113.487	    51.784
-20387.033	    15.396	  -105.321	    59.290
-20282.162	    15.231	  -105.014	    55.484
-20360.584	    15.239	   -95.534	    57.196
-20029.666	    15.401	  -100.903	    44.360
-20179.529	    15.544	   -81.731	    80.354
-20411.688	    15.623	  -113.869	    57.986
-19886.322	    15.522	   -92.662	    61.032
-20389.576	    15.313	   -95.182	    67.332
-20226.838	    15.208	  -106.054	    76.589
-20344.812	    15.140	   -94.133	    76.221
-20290.795	    15.140	   -80.496	    72.196
-20173.381	    15.221	  -105.239	    51.789
-20254.119	    15.427	  -123.466	    54.003
-20131.623	    15.667	  -119.188	    72.120
-19899.482	    15.734	  -147.158	    63.733
-20193.223	    15.527	  -120.798	    96.915
-20082.594	    15.214	  -126.723	    63.269
-20448.697	    14.955	  -122.485	    53.320
-20240.205	    14.833	  -114.164	    70.495
-20252.506	    14.936	  -126.650	    62.263
-20284.246	    15.174	  -118.270	    61.808
-20123.291	    15.479	  -111.242	    67.920
-20051.850	    15.702	  -105.195	    38.920
-20053.701	    15.819	  -107.482	    68.869
-20151.354	    15.726	   -93.522	    69.095
-20274.420	    15.552	   -93.991	    63.379
-20253.951	    15.354	   -86.290	    75.217
-20218.756	    15.339	   -74.440	    61.902
-20377.156	    15.406	  -123.304	    55.906
-20101.639	    15.445	   -95.705	    63.003
-20116.385	    15.320	  -111.369	    59.980
-20322.791	    15.274	   -93.479	    62.334
-20363.250	    15.292	   -84.725	    77.481
-20282.873	    15.383	   -97.355	    66.733
-20262.674	    15.537	   -83.516	    57.543
-20158.211	    15.571	   -90.730	    59.216
-20169.996	    15.619	   -93.468	    65.023
-20235.908	    15.539	   -93.264	    53.340
-20326.375	    15.464	  -112.921	    93.758
-20126.053	    15.402	  -115.358	    67.577
-20160.410	    15.354	   -91.951	    74.896
-19979.588	    15.360	  -100.509	    40.349
-19957.219	    15.476	   -74.544	    65.276
-20196.619	    15.333	   -92.420	    60.944
-20368.014	    15.294	  -106.642	    63.196
-20191.438	    15.416	  -109.218	    74.246
-20204.365	    15.510	  -114.476	    51.973
-20219.658	    15.550	   -95.432	    70.433
-20186.770	    15.530	   -96.246	    69.764
-20094.785	    15.548	  -105.878	    73.441
-20260.674	    15.649	   -92.244	    42.871
-20139.318	    15.596	  -102.516	    43.853
-20237.723	    15.458	   -86.590	    68.185
-20284.596	    15.320	  -127.685	    45.264
-20250.170	    15.111	  -118.718	    35.513
-20484.371	    15.064	   -91.379	    43.977
-20189.219	    15.321	  -111.866	    54.805
-20159.992	    15.522	  -116.503	    45.334
-20322.621	    15.628	  -123.312	    62.326
-20362.672	    15.620	  -124.830	    72.555
-20148.381	    15.536	  -130.953	    52.436
-20173.002	    15.448	  -114.297	    52.630
-20344.770	    15.309	  -110.696	    61.798
-20138.545	    15.162	  -110.220	    79.695
-20320.605	    15.112	  -133.987	    41.287
-20309.018	    15.351	  -131.522	    74.117
-19949.379	    15.584	  -108.254	    64.055
-20060.500	    15.658	  -114.414	    51.774
-19896.439	    15.640	   -88.137	    57.751
-20014.875	    15.597	   -95.375	    47.676
-20018.324	    15.409	  -104.042	    51.973
-20392.207	    15.156	  -133.917	    73.166
-20520.789	    15.083	  -133.156	    45.371
-20137.107	    15.255	  -120.054	    60.585
-20203.096	    15.496	  -110.325	    78.320
-20120.504	    15.654	  -120.739	    52.522
-20118.074	    15.817	  -111.122	    59.476
-20018.977	    15.943	  -106.636	    59.399
-19993.455	    15.813	  -131.949	    66.242
-20200.910	    15.540	  -117.943	    68.523
-20514.678	    15.207	  -103.235	    44.288
-20313.664	    15.112	  -103.904	    68.274
-20266.982	    15.210	  -108.938	    85.986
-20180.777	    15.439	   -85.890	    65.078
-19954.637	    15.538	   -96.462	    49.747
-20308.197	    15.469	  -101.398	    78.718
-20406.482	    15.406	   -91.047	    59.306
-19922.684	    15.313	   -84.230	    74.004
-20414.084	    15.189	  -108.130	    62.947
-20243.908	    15.292	  -101.766	    73.426
-20452.275	    15.409	  -105.087	    76.236
-19977.076	    15.601	   -96.612	    64.730
-20282.229	    15.645	  -116.063	    51.335
-20106.246	    15.555	  -110.303	    68.823
-20310.711	    15.339	   -90.706	    45.796
-20165.438	    15.249	   -92.814	    67.903
-20274.162	    15.302	  -113.101	    76.028
-20303.434	    15.322	  -130.885	    84.071
-20067.947	    15.378	  -104.286	    72.501
-20021.285	    15.384	   -87.271	    76.053
-20099.650	    15.354	   -83.843	    82.816
-20425.520	    15.276	  -118.601	   104.939
-20213.492	    15.387	   -92.082	    72.357
-20004.158	    15.546	   -97.769	    48.546
-19908.184	    15.635	   -98.917	    45.318
-19879.469	    15.662	  -107.775	    61.994
-20343.885	    15.568	  -104.193	    60.017
-20240.283	    15.435	  -101.378	    50.506
-20122.838	    15.469	   -81.326	    58.288
-20189.059	    15.439	  -105.556	    65.919
-20455.814	    15.273	  -111.192	    74.294
-20071.412	    15.231	   -90.771	    50.448
-20200.184	    15.311	  -107.878	    83.636
-20333.541	    15.459	   -91.761	    52.976
-20199.541	    15.433	  -110.212	    68.682
-20087.162	    15.259	  -117.531	    69.331
-20188.188	    15.129	   -93.366	    58.530
-20188.445	    15.139	  -130.451	    73.283
-20152.133	    15.271	  -112.226	    67.959
-20134.430	    15.481	  -112.348	    58.975
-20117.209	    15.839	   -92.541	    59.516
-20103.141	    15.978	   -90.945	    51.273
-20121.059	    15.833	  -104.982	    61.866
-20114.252	    15.555	  -103.051	    58.069
-20102.377	    15.291	   -88.763	    57.596
-20373.318	    15.149	  -131.795	    64.596
-20255.170	    15.333	  -100.267	    72.145
-19999.354	    15.535	   -99.950	    37.080
-20090.209	    15.703	  -122.136	    61.533
-20121.629	    15.709	  -121.129	    70.749
-20166.984	    15.575	   -93.740	    58.676
-20129.328	    15.496	   -87.897	    78.789
-20078.537	    15.449	  -105.836	    87.050
-20274.244	    15.413	  -102.463	    73.371
-20246.939	    15.456	   -99.914	    67.544
-20126.758	    15.448	   -95.795	    92.319
-20191.158	    15.444	  -103.754	    59.030
-20134.656	    15.526	  -102.542	    80.726
-20142.129	    15.590	  -117.006	    82.372
-20203.670	    15.562	  -108.037	    80.028
-20417.420	    15.511	   -86.756	    66.693
-20273.785	    15.388	   -91.922	    51.123
-20271.119	    15.382	   -99.146	    59.388
-20077.551	    15.422	  -110.444	    64.085
-20162.426	    15.494	  -108.440	    61.558
-20357.139	    15.516	  -119.679	    69.366
-20064.631	    15.596	  -115.104	    75.113
-20178.316	    15.637	  -114.477	    73.043
-20326.062	    15.612	  -113.879	    69.522
-19986.297	    15.628	   -97.096	   107.035
-20242.385	    15.609	   -95.195	    80.251
-20224.846	    15.487	  -112.032	    75.977
-20416.885	    15.420	  -120.818	    87.367
-20109.631	    15.393	  -101.164	    66.992
-20155.199	    15.398	  -116.381	    49.286
-20112.000	    15.396	   -91.811	    45.507
-19928.359	    15.493	   -91.954	    78.271
-20094.594	    15.617	   -89.072	    65.460
-20085.873	    15.598	  -105.910	   108.325
-20200.818	    15.437	   -92.748	    62.381
-20120.168	    15.280	  -113.781	    62.845
-20168.744	    15.217	  -124.439	    56.333
-20353.422	    15.291	  -114.263	    41.435
-19955.420	    15.450	  -126.660	    69.071
-20333.432	    15.697	  -106.382	    46.911
-19873.936	    15.840	  -118.681	    48.035
-20021.818	    15.725	   -82.906	    63.703
-20105.465	    15.508	   -79.238	    71.095
-20334.922	    15.360	   -90.444	    60.960
-20153.225	    15.312	  -115.808	    53.849
-20399.518	    15.249	  -107.187	    53.996
-20182.676	    15.303	   -89.874	    74.792
-20000.775	    15.342	  -112.561	    66.799
-20313.527	    15.398	   -90.234	    60.150
-19881.330	    15.574	   -92.884	    76.702
-19944.297	    15.745	   -86.246	    87.443
-20015.854	    15.736	  -108.452	    80.726
-20107.098	    15.579	   -95.120	    79.940
-20281.615	    15.428	   -84.301	    66.463
-20495.188	    15.286	   -86.781	    67.368
-20330.127	    15.357	  -107.483	    69.613
-20236.857	    15.520	   -92.310	    82.272
-20335.443	    15.569	   -94.369	    56.201
-20157.295	    15.608	   -92.828	    71.473
-20068.520	    15.676	   -99.818	    66.758
-20185.553	    15.641	   -96.326	    60.709
-20114.246	    15.533	  -106.872	    65.056
-20187.730	    15.375	  -136.785	    67.906
-20094.500	    15.289	  -113.686	    48.517
-20546.615	    15.302	  -103.615	    83.412
-20404.658	    15.257	  -103.068	    95.482
-20221.699	    15.212	   -96.170	    72.535
-20414.344	    15.179	  -114.446	    58.586
-20275.621	    15.127	   -92.565	    57.122
-20172.424	    15.151	  -116.278	    89.323
-20226.031	    15.283	  -130.534	    80.820
-20232.299	    15.475	  -107.370	    37.985
-20193.984	    15.558	  -128.748	    89.056
-20334.641	    15.618	  -112.142	    68.680
-19987.498	    15.654	  -105.398	    74.841
-20149.463	    15.624	  -130.175	    70.080
-20170.215	    15.519	  -113.913	    35.079
-20286.777	    15.309	  -115.242	    66.339
-20269.037	    15.165	  -121.579	    71.580
-20294.635	    15.191	  -103.370	    56.875
-19947.307	    15.343	  -105.340	    63.941
-20302.730	    15.504	  -130.052	    73.884
-20286.270	    15.635	  -111.456	    76.768
-20136.443	    15.672	  -119.524	    72.242
-19869.783	    15.564	  -123.795	   101.956
-20297.088	    15.445	  -112.651	    91.522
-20314.082	    15.327	   -96.487	    76.909
-20365.396	    15.213	  -104.464	    86.937
-20521.117	    15.239	   -98.235	    71.078
-20441.158	    15.424	  -113.112	    74.984
-20150.385	    15.630	   -88.099	    75.834
-20095.266	    15.609	   -95.567	   104.173
-20126.373	    15.504	   -90.875	    56.347
-20170.986	    15.468	  -118.745	    37.804
-20235.906	    15.600	  -105.186	    48.081
-20173.840	    15.753	   -96.492	    85.698
-20062.400	    15.721	  -126.166	    71.679
-20204.729	    15.632	  -120.817	    45.024
-20068.488	    15.529	  -120.090	    46.579
-20186.000	    15.433	  -135.939	    44.490
-20531.533	    15.240	  -130.186	    56.469
-20183.895	    15.241	  -116.856	    87.129
-20360.256	    15.222	  -102.678	    64.079
-20385.094	    15.308	  -121.676	    76.139
-20380.207	    15.400	  -101.525	    50.911
-19927.521	    15.485	  -124.798	    74.775
-20150.520	    15.420	  -151.005	    78.293
-20334.635	    15.360	  -118.632	    61.593
-20093.398	    15.466	  -108.127	    88.473
-20239.707	    15.515	   -81.945	    64.903
-20217.469	    15.466	   -87.778	    69.544
-20067.656	    15.473	   -89.877	    67.107
-20126.168	    15.530	   -89.970	    87.215
-20235.590	    15.561	   -99.283	    83.579
-20234.465	    15.574	  -117.382	    94.291
-20274.363	    15.608	  -105.204	    99.136
-20043.418	    15.668	   -87.511	    70.759
-19980.027	    15.738	   -84.214	    65.368
-20150.146	    15.675	   -93.417	    84.131
-20145.859	    15.470	   -86.043	    75.009
-20273.506	    15.266	  -101.972	    67.807
-20339.826	    15.185	   -94.117	    61.861
-20220.525	    15.256	  -107.787	   100.810
-20078.600	    15.343	  -125.524	    71.739
-20352.623	    15.476	  -122.953	    48.972
-20156.770	    15.568	   -99.597	    50.667
-20046.662	    15.533	   -87.845	    64.780
-20120.260	    15.449	   -98.195	    76.741
-19926.881	    15.509	   -88.973	    72.262
-20149.758	    15.548	   -94.479	    92.269
-19986.889	    15.406	  -114.533	    41.739
-20119.930	    15.370	  -118.391	    58.864
-20139.527	    15.388	  -125.051	    65.545
-20124.445	    15.308	  -102.964	    67.266
-20353.125	    15.219	  -123.401	    52.046
-20364.064	    15.198	   -91.061	    43.163
-20244.387	    15.271	  -106.944	    72.171
-20017.422	    15.431	  -110.884	    81.609
-20241.436	    15.529	   -84.989	    61.167
-20099.797	    15.506	   -84.030	    69.647
-20108.193	    15.401	   -90.205	    60.983
-20285.709	    15.349	  -110.041	    61.331
-20313.127	    15.364	  -127.765	    72.423
-20031.445	    15.404	  -118.533	    64.137
-20257.330	    15.399	  -127.071	    51.679
-20266.980	    15.358	  -113.914	    62.455
-20457.061	    15.222	  -125.348	    62.468
-20574.799	    15.177	  -119.304	    67.979
-20396.635	    15.240	  -107.156	    71.254
-20099.133	    15.300	  -100.623	    85.919
-20196.467	    15.371	  -103.793	    63.590
-20039.814	    15.543	  -105.758	    73.242
-19961.693	    15.642	   -96.406	    80.029
-19846.320	    15.714	  -101.165	    67.538
-20184.396	    15.797	  -119.718	    69.746
-19966.193	    15.687	  -128.303	    67.294
-20118.711	    15.554	  -109.837	    75.820
-20258.170	    15.400	  -119.976	    82.412
-20225.525	    15.253	  -120.015	    65.770
-20269.805	    15.221	  -132.025	    89.294
-20273.775	    15.232	  -129.595	    60.997
-20222.750	    15.385	   -99.390	    62.267
-20458.854	    15.490	  -101.271	    74.574
-20346.752	    15.530	  -118.758	    62.894
-20199.875	    15.652	  -122.689	    67.919
-20169.625	    15.722	  -124.719	    87.196
-20220.594	    15.643	  -132.988	    69.576
-20306.510	    15.473	  -113.643	    65.715
-20017.545	    15.283	   -92.361	    67.628
-20269.514	    15.215	  -107.607	    75.562
-20134.561	    15.436	  -107.015	    52.905
-20114.969	    15.660	  -120.166	    64.402
-19737.635	    15.789	  -110.444	    64.473
-19922.219	    15.778	   -91.907	    55.984
-20013.596	    15.655	  -118.509	    71.100
-20190.887	    15.390	  -129.391	    93.621
-20416.029	    15.111	  -102.417	    65.196
-20116.600	    15.019	  -100.456	    65.217
-20261.494	    15.069	  -103.713	    92.460
-20036.727	    15.173	   -85.649	    75.395
-20031.340	    15.379	   -94.947	    81.114
-20066.213	    15.505	   -92.273	    75.277
-20345.688	    15.540	  -111.547	    65.111
-20507.492	    15.400	  -113.747	    78.606
-20221.475	    15.189	  -107.357	    37.748
-20255.066	    15.155	   -93.228	    59.361
-20250.863	    15.312	   -96.163	    41.592
-20430.723	    15.412	  -116.383	    41.544
-20297.098	    15.428	  -131.623	    51.842
-20427.490	    15.422	  -121.443	    75.133
-20338.334	    15.450	   -96.523	    39.608
-20489.195	    15.548	  -101.179	    61.236
-20206.996	    15.679	  -100.503	    72.814
-20352.764	    15.604	  -123.087	    58.501
-20181.057	    15.462	  -109.299	    53.747
-20192.385	    15.293	  -113.749	    61.560
-20615.736	    15.073	  -106.428	    77.299
-20308.488	    15.069	  -121.846	    52.294
-20104.570	    15.339	  -107.973	    76.259
-20038.719	    15.688	  -107.489	    75.174
-19921.283	    15.904	   -91.980	    50.158
-20028.605	    15.788	   -95.912	    54.384
-20115.041	    15.444	  -133.357	    75.346
-20217.080	    15.064	   -88.795	    26.474
-20242.549	    14.939	  -103.141	    71.042
-20380.879	    15.191	  -124.705	    62.822
-19868.312	    15.529	  -125.012	    79.639
-19953.053	    15.731	  -106.691	    56.184
-20175.551	    15.754	  -110.367	    73.636
-20229.822	    15.614	   -90.084	    51.173
-20232.758	    15.414	   -99.968	    53.799
-20573.617	    15.242	   -91.856	    65.871
-20262.609	    15.284	   -88.079	    92.191
-20376.164	    15.452	   -79.672	    44.109
-20080.465	    15.632	   -98.166	    79.039
-20219.916	    15.694	  -115.299	    72.925
-20202.059	    15.683	   -95.074	    68.738
-20238.334	    15.589	  -123.222	    62.926
-20153.131	    15.400	  -113.761	    40.066
-20266.084	    15.358	  -124.354	    79.738
-20098.848	    15.364	  -128.929	    95.751
-20034.150	    15.417	  -124.614	    41.262
-20257.570	    15.466	  -132.893	    76.536
-20388.562	    15.526	  -119.363	    77.946
-20259.406	    15.540	  -124.555	    50.778
-19874.572	    15.445	  -122.304	    66.641
-20385.869	    15.340	  -130.194	    47.274
-20373.418	    15.192	  -123.777	    56.947
-19926.465	    15.383	  -135.677	    56.191
-20017.686	    15.633	  -100.922	    72.845
-20243.914	    15.805	  -115.181	    62.243
-20074.354	    15.769	  -112.795	    63.219
-20354.211	    15.582	   -94.960	    57.158
-20283.773	    15.305	  -100.604	    86.129
-20303.078	    15.103	  -125.925	    69.220
-20116.926	    15.150	  -111.540	    78.244
-20100.465	    15.252	  -103.672	    74.012
-20291.828	    15.232	  -110.703	    55.123
-20428.107	    15.226	  -104.856	    79.864
-20218.850	    15.335	  -122.202	    63.954
-20006.420	    15.557	  -112.753	    64.675
-20359.035	    15.573	  -101.927	    61.506
-20129.643	    15.478	  -124.722	    38.663
-20069.912	    15.180	   -95.741	    50.933
-20193.045	    14.988	   -80.501	    60.030
-20307.652	    15.096	  -115.742	    84.673
-20096.039	    15.366	   -98.711	    62.672
-19925.820	    15.645	   -93.212	    57.328
-19792.451	    15.752	   -85.197	    47.506
-20158.527	    15.594	  -100.352	    49.775
-20216.988	    15.354	  -100.119	    63.656
-19939.162	    15.031	  -117.044	    70.588
-20082.408	    14.945	  -105.458	    51.601
-20218.799	    15.115	  -102.825	    49.667
-20230.762	    15.272	  -102.198	    59.137
-20311.402	    15.431	   -85.893	    65.944
-20299.701	    15.504	   -86.220	    55.920
-20276.031	    15.293	   -90.335	    67.056
-20260.867	    14.977	  -112.393	    52.486
-20370.195	    14.886	  -108.303	    64.441
-20414.838	    14.988	   -99.565	    90.192
-20067.107	    15.210	  -107.438	    82.388
-20165.467	    15.359	  -117.593	    54.821
-20249.625	    15.392	   -99.774	    50.944
-20046.848	    15.521	   -90.120	    73.718
-20055.477	    15.630	  -120.037	    70.821
-20044.584	    15.496	  -121.825	    67.101
-20199.646	    15.305	  -132.213	    57.489
-20143.316	    15.335	   -99.936	    87.421
-20003.002	    15.426	   -87.326	    94.698
-20136.332	    15.471	  -106.347	    77.034
-20027.484	    15.497	  -128.997	    68.751
-19953.773	    15.575	   -87.117	    46.413
-20118.279	    15.633	  -115.520	    63.285
-20203.887	    15.628	  -105.044	    82.119
-20130.408	    15.604	  -105.772	    87.295
-20183.959	    15.593	  -122.084	    84.238
-20176.434	    15.561	   -92.670	    71.821
-20426.383	    15.490	  -101.412	    66.725
-20316.305	    15.418	   -87.900	    66.873
-20634.215	    15.357	   -95.299	    74.681
-20289.949	    15.429	   -99.263	    79.424
-20037.021	    15.516	   -97.233	    54.725
-20130.832	    15.496	   -97.292	    57.246
-19938.982	    15.336	   -90.908	    62.491
-20321.900	    15.113	   -98.791	    77.819
-20182.258	    15.083	  -144.030	    80.938
-20383.531	    15.198	  -107.381	    69.234
-20287.404	    15.419	  -132.464	    73.488
-20056.586	    15.518	  -105.815	    66.506
-20223.959	    15.609	  -130.485	    81.355
-20163.375	    15.638	   -89.597	    55.238
-20249.283	    15.501	   -91.697	    84.672
-20207.875	    15.341	   -91.653	    87.893
-20367.359	    15.240	   -84.183	    32.427
-20340.100	    15.182	   -86.203	    50.516
-20429.504	    15.247	  -100.311	    67.944
-20330.287	    15.345	   -87.011	    75.357
-20199.689	    15.455	  -103.384	    65.110
-19998.389	    15.586	   -98.652	    52.774
-19831.451	    15.684	  -107.064	    68.695
-19983.266	    15.623	  -123.818	    70.562
-20002.016	    15.598	  -101.466	    64.429
-20271.279	    15.446	   -98.099	    58.677
-20379.869	    15.223	  -100.505	    55.121
-20351.977	    15.178	   -95.636	    62.955
-20207.586	    15.355	   -85.815	    63.438
-20401.957	    15.402	  -108.836	    66.494
-20212.410	    15.536	   -92.274	    60.351
-20098.080	    15.618	  -133.370	    35.521
-20160.219	    15.563	  -112.215	    50.339
-20013.271	    15.512	  -107.687	    53.659
-20187.086	    15.478	   -94.025	    61.985
-20121.354	    15.416	   -85.150	    48.555
-20239.117	    15.431	   -82.351	    64.540
-20288.273	    15.376	   -86.020	    85.444
-20352.559	    15.245	   -88.974	    87.777
-20367.088	    15.144	   -94.501	    72.836
-20160.018	    15.151	   -99.663	    58.237
-20386.027	    15.240	  -121.633	    74.862
-20267.785	    15.365	  -107.485	    81.510
-20201.010	    15.499	  -100.224	    44.121
-19976.797	    15.584	   -80.921	    65.692
-20048.133	    15.598	  -121.877	    71.674
-20255.918	    15.522	  -109.021	    58.453
-20152.479	    15.349	   -92.154	    69.153
-20265.746	    15.266	  -128.283	    79.380
-20245.629	    15.339	   -98.412	    78.435
-20049.168	    15.406	  -123.604	    75.471
-20006.010	    15.427	  -115.316	    71.711
-20218.316	    15.418	  -111.648	    65.922
-20318.238	    15.568	  -128.939	    42.432
-20346.441	    15.622	  -133.476	    67.707
-20079.176	    15.632	  -130.808	    83.579
-20017.643	    15.551	   -82.299	    63.777
-20433.016	    15.489	  -105.011	    68.692
-20203.211	    15.392	  -119.112	    56.872
-20446.855	    15.357	  -128.808	    56.244
-20147.193	    15.319	  -114.959	    57.726
-20153.068	    15.253	  -118.169	    52.279
-20339.816	    15.327	  -126.438	    65.225
-20452.393	    15.415	  -114.075	   123.735
-20053.883	    15.539	  -130.807	    71.020
-20186.631	    15.659	  -115.308	    70.948
-19830.053	    15.799	  -131.881	    82.642
-20102.375	    15.861	   -97.791	   106.599
-19875.906	    15.803	  -119.337	    80.403
-20256.170	    15.598	  -101.570	    48.889
-20348.998	    15.426	   -99.838	    56.191
-20338.604	    15.374	   -99.857	    39.462
-20358.777	    15.389	  -108.476	    48.229
-20170.545	    15.498	  -106.812	    38.695
-19873.697	    15.642	   -98.388	    27.871
-20035.691	    15.685	  -121.842	    51.310
-19871.537	    15.677	  -111.031	    58.679
-20207.992	    15.640	   -93.045	    78.126
-20055.586	    15.575	  -123.155	    71.318
-20210.082	    15.518	  -123.625	    50.230
-20271.768	    15.312	  -126.646	    70.495
-20224.406	    15.087	  -120.649	    70.026
-20454.416	    15.077	  -122.461	    52.813
-20364.359	    15.336	  -115.621	    55.368
-20372.125	    15.523	  -105.265	    55.496
-20136.305	    15.622	   -86.696	    62.584
-20025.596	    15.649	  -105.261	    72.362
-20058.021	    15.614	  -100.814	    66.635
-20018.852	    15.479	   -87.910	    91.172
-20102.568	    15.310	   -70.066	    57.706
-20193.283	    15.286	  -124.916	    57.815
-20160.152	    15.297	  -112.893	    52.727
-20343.100	    15.243	   -89.009	   101.023
-19992.420	    15.281	  -119.703	    61.887
-20245.352	    15.316	  -131.200	    82.378
-20180.418	    15.449	   -81.236	    59.835
-20097.264	    15.693	   -97.367	    54.878
-20156.430	    15.792	   -96.060	    89.733
-20029.215	    15.795	  -106.752	    65.093
-20192.461	    15.652	  -129.235	    57.939
-20322.207	    15.486	  -116.906	    65.290
-19984.318	    15.407	   -91.295	    71.293
-20065.131	    15.290	   -96.857	    73.533
-20186.930	    15.314	   -89.620	    75.365
-20154.998	    15.292	   -88.795	    72.148
-20265.268	    15.176	  -112.228	    78.432
-20167.027	    15.239	  -110.103	    61.856
-19876.783	    15.436	   -96.480	    64.750
-20179.754	    15.507	   -83.962	    75.669
-20321.750	    15.521	   -91.620	    91.667
-20261.648	    15.505	   -94.801	    52.347
-20291.520	    15.416	   -80.387	    69.439
-20348.180	    15.285	  -120.897	    76.768
-20165.271	    15.194	   -90.710	    62.119
-20239.559	    15.202	   -86.294	    50.753
-20109.510	    15.423	   -89.436	    83.960
-20170.701	    15.625	   -87.817	    66.092
-19876.895	    15.613	   -89.754	    51.515
-20119.227	    15.541	  -104.889	    35.688
-20430.225	    15.425	   -97.676	    33.944
-20212.287	    15.376	  -105.653	    57.548
-20050.602	    15.301	  -111.218	    68.594
-20362.928	    15.268	  -106.699	    68.903
-20263.865	    15.296	   -94.717	    60.491
-20354.740	    15.471	  -133.277	    78.112
-20044.758	    15.680	  -109.885	    85.741
-20145.834	    15.631	  -114.161	    60.827
-20220.529	    15.536	   -85.901	    60.552
-20103.402	    15.443	  -117.363	    69.132
-20283.459	    15.388	   -92.237	    63.475
-20418.547	    15.309	   -91.937	    57.822
-20133.555	    15.223	  -133.616	    68.435
-20108.562	    15.305	  -115.765	    62.082
-20111.365	    15.439	   -96.616	    83.673
-20241.859	    15.480	  -109.819	    67.157
-20155.941	    15.382	   -88.922	    59.753
-20244.820	    15.270	  -117.825	    64.345
-20196.324	    15.249	  -138.956	    81.850
-20258.521	    15.375	  -111.603	    73.909
-20060.904	    15.601	  -106.099	    80.579
-20191.926	    15.649	   -95.708	    60.674
-20027.055	    15.518	   -86.369	    53.061
-20116.941	    15.357	   -95.956	    72.158
-20234.404	    15.217	  -124.759	    91.370
-20435.854	    15.138	  -123.645	    82.938
-20383.654	    15.213	  -124.684	    84.931
-20387.297	    15.326	   -90.106	    51.020
-20269.914	    15.442	   -81.503	    80.549
-20110.859	    15.454	  -137.326	    60.019
-20323.125	    15.560	   -89.024	    40.948
-20181.037	    15.721	   -97.306	    64.199
-19927.627	    15.815	   -89.725	    65.285
-20114.146	    15.737	  -102.580	    50.715
-20154.293	    15.546	   -98.405	    75.186
-20185.979	    15.324	  -100.339	    48.033
-20260.900	    15.184	  -113.987	    56.864
-20183.535	    15.173	   -98.422	    59.438
-20104.260	    15.267	   -78.898	    59.027
-20219.785	    15.246	   -99.270	    74.122
-20282.518	    15.374	   -94.430	    68.754
-20226.584	    15.561	   -97.662	    55.705
-20167.488	    15.578	   -84.579	    49.679
-20216.529	    15.435	   -96.443	    81.970
-20252.498	    15.341	  -104.444	    87.158
-20205.730	    15.264	   -80.887	    67.913
-20442.211	    15.223	  -121.130	    66.501
-20087.344	    15.385	   -98.243	    36.436
-20270.148	    15.603	  -106.841	    71.208
-20212.688	    15.680	   -96.379	    69.071
-20307.426	    15.515	  -106.576	    69.857
-20017.164	    15.388	  -109.368	    44.793
-20221.482	    15.349	  -109.193	    86.993
-20357.461	    15.377	  -116.726	    91.894
-20255.801	    15.497	  -115.201	    78.522
-20100.619	    15.620	  -110.685	    58.803
-19877.713	    15.676	  -109.125	    44.797
-20276.893	    15.670	   -97.909	    59.328
-20161.229	    15.562	  -110.035	    65.536
-20104.121	    15.503	  -112.683	    88.902
-20145.422	    15.434	  -108.215	    78.491
-20103.670	    15.384	   -85.638	    61.927
-20160.062	    15.356	   -89.388	    79.155
-20445.768	    15.336	  -103.618	    35.586
-20503.906	    15.355	  -100.833	    54.132
-20484.840	    15.491	   -96.829	    67.056
-20089.578	    15.712	  -117.462	    50.069
-19869.740	    15.768	  -111.666	    56.722
-20136.295	    15.528	  -118.748	    59.329
-20177.266	    15.321	  -114.193	    39.266
-20158.051	    15.286	   -99.604	    29.536
-20136.463	    15.272	  -132.097	    47.391
-20441.828	    15.267	  -108.900	    87.970
-20344.215	    15.293	  -133.811	    88.245
-20038.111	    15.372	  -118.662	    63.839
-20137.152	    15.438	  -123.405	    57.897
-20318.410	    15.498	  -110.897	    68.915
-20144.701	    15.459	   -92.127	    87.059
-20286.883	    15.248	  -120.962	    81.422
-20619.271	    15.155	   -96.314	    91.728
-20269.316	    15.280	   -99.758	    80.675
-20122.084	    15.518	   -91.577	    75.969
-20235.096	    15.696	  -106.147	    97.876
-19951.898	    15.753	  -100.888	    65.777
-20077.326	    15.599	  -110.822	    47.991
-20112.594	    15.531	   -89.168	    73.418
-20159.412	    15.397	   -99.066	    60.256
-20374.070	    15.191	   -89.289	    61.465
-20230.746	    15.025	  -112.553	    92.706
-20335.621	    15.023	   -81.593	    69.467
-20102.092	    15.126	  -115.146	    58.047
-20204.672	    15.275	  -108.592	    54.840
-20032.359	    15.419	  -100.871	    64.665
-20064.191	    15.516	   -95.997	    55.196
-20025.217	    15.606	   -80.426	    58.337
-20153.680	    15.496	   -79.659	    60.249
-20233.840	    15.349	   -93.683	    54.369
-20438.328	    15.349	   -92.652	    51.643
-20284.998	    15.384	  -104.939	    62.054
-20325.957	    15.510	  -125.190	    56.739
-20208.629	    15.618	  -134.891	    56.600
-20394.523	    15.582	  -103.595	    85.581
-20056.338	    15.446	  -101.169	    69.423
-20392.973	    15.262	  -127.248	    60.804
-20335.646	    15.191	  -131.050	    39.091
-20452.645	    15.199	   -91.114	    57.490
-20171.238	    15.358	   -95.467	    25.002
-20356.633	    15.594	   -95.750	    66.445
-20187.951	    15.673	   -94.544	    60.240
-20134.152	    15.708	   -86.553	    53.678
-20475.045	    15.623	   -78.070	    64.783
-20204.492	    15.579	   -84.949	    64.248
-20195.688	    15.597	   -86.837	    65.430
-20171.330	    15.643	  -105.773	    56.819
-20243.701	    15.655	   -91.031	    58.514
-20314.387	    15.619	   -94.484	    79.642
-20028.609	    15.539	  -100.115	    58.801
-20246.660	    15.416	   -80.269	    65.360
-20148.326	    15.315	   -92.508	    70.673
-20371.791	    15.177	  -114.098	    68.054
-20191.412	    15.183	   -88.609	    64.869
-20025.504	    15.392	   -95.081	    54.898
-19889.865	    15.662	  -104.845	    59.696
-19953.361	    15.726	   -93.865	    60.183
-20142.264	    15.669	   -99.767	    61.307
-20015.100	    15.500	  -110.323	    60.412
-20225.564	    15.242	   -98.987	    72.037
-20379.559	    15.028	   -92.349	    77.169
-20467.549	    14.963	   -83.933	    68.546
-20302.160	    15.005	   -74.766	    83.202
-20239.379	    15.224	   -99.038	    99.268
-20036.932	    15.498	  -113.351	    78.916
-19878.123	    15.711	  -104.223	    85.356
-19992.586	    15.801	  -110.820	    36.840
-19940.346	    15.778	  -106.606	    36.319
-20134.727	    15.613	  -119.100	    65.378
-20069.582	    15.425	  -118.356	    48.508
-20526.570	    15.244	  -130.481	    45.267
-20240.281	    15.164	  -102.072	    52.329
-20292.600	    15.311	  -100.290	    71.678
-20307.662	    15.604	  -119.622	    49.410
-20234.561	    15.757	  -140.864	    68.511
-20011.082	    15.652	  -103.630	    70.814
-20169.568	    15.534	  -120.473	    63.473
-20248.029	    15.344	  -112.641	    36.193
-20347.332	    15.133	   -95.822	    70.717
-20183.035	    15.057	   -98.570	    87.219
-20293.885	    15.127	   -84.769	    74.028
-20325.373	    15.208	   -99.438	    65.024
-20324.514	    15.276	  -119.990	    66.875
-20364.281	    15.496	   -99.415	    75.705
-20162.619	    15.665	   -91.368	    84.620
-20230.111	    15.598	   -80.981	    61.460
-20033.090	    15.545	   -90.115	    66.242
-20239.066	    15.566	   -90.717	    58.831
-20244.635	    15.604	   -77.494	    59.856
-20145.928	    15.724	   -84.131	    63.305
-20495.162	    15.646	  -105.823	    89.093
-20256.846	    15.375	  -109.220	    70.079
-20432.781	    15.224	  -107.600	    42.244
-20054.787	    15.273	  -123.765	    50.702
-20158.816	    15.200	   -97.890	    57.470
-20264.322	    15.127	  -128.270	    36.126
-20185.951	    15.185	  -111.370	    51.549
-20353.176	    15.316	   -80.683	    84.994
-20103.270	    15.433	   -85.054	   107.740
-20364.176	    15.466	  -100.064	    81.491
-20225.834	    15.550	   -72.250	    68.437
-20126.521	    15.676	   -99.181	    64.744
-20036.852	    15.702	   -94.817	    81.719
-19975.629	    15.542	   -91.786	    65.177
-20050.734	    15.414	   -93.536	    72.094
-20348.061	    15.296	  -105.768	    62.576
-20041.578	    15.225	   -93.085	    71.413
-20111.578	    15.311	  -104.430	    80.775
-19998.250	    15.564	   -94.654	    59.199
-19739.209	    15.809	  -100.971	    65.074
-19784.627	    15.968	   -97.901	    57.640
-19902.768	    15.892	  -118.041	    82.239
-19991.441	    15.644	   -93.507	    66.325
-20451.008	    15.360	   -94.813	    68.341
-20451.002	    15.202	  -110.136	    77.373
-20230.986	    15.330	  -109.761	    59.497
-20092.463	    15.442	  -117.614	    70.962
-20227.363	    15.456	  -105.103	    72.698
-20483.299	    15.294	  -114.711	    63.041
-20294.779	    15.147	  -132.919	    45.691
-20235.107	    15.082	  -106.468	    70.952
-20271.799	    15.156	  -137.565	    56.377
-19998.246	    15.461	  -104.686	    40.079
-20002.426	    15.632	  -120.621	    57.892
-20044.609	    15.627	  -128.351	    74.859
-20123.934	    15.532	  -115.273	    84.576
-20245.588	    15.554	  -116.781	    89.662
-20386.551	    15.586	  -112.496	    89.157
-20056.781	    15.517	  -119.574	    84.082
-20136.896	    15.378	  -117.787	    84.590
-20240.543	    15.361	   -88.179	    50.210
-20337.176	    15.469	  -112.954	    61.982
-19918.916	    15.659	  -107.497	    50.614
-19875.414	    15.655	  -103.554	    41.699
-20172.447	    15.457	  -129.089	    42.554
-20426.691	    15.244	  -114.179	    48.820
-20476.236	    15.227	  -114.092	    53.033
-20131.350	    15.465	  -120.274	    43.618
-20108.049	    15.702	  -118.364	    44.021
-20045.246	    15.758	   -82.934	    58.248
-20047.562	    15.702	  -102.539	    74.764
-20162.703	    15.594	  -110.297	    89.795
-20241.512	    15.471	  -107.581	    75.864
-20318.836	    15.435	   -85.822	    68.191
-19901.977	    15.481	   -99.998	    82.250
-20376.537	    15.517	   -77.504	    75.744
-20127.650	    15.538	   -95.940	    77.652
-20038.984	    15.474	   -87.453	    58.025
-20262.256	    15.347	  -110.517	    78.802
-20296.480	    15.280	  -110.826	    94.324
-20278.240	    15.307	  -130.501	    81.643
-20266.635	    15.329	  -119.057	    77.425
-20474.826	    15.398	   -93.132	    87.979
-20008.551	    15.491	  -101.080	    89.832
-20074.879	    15.554	   -95.226	    67.559
-20250.762	    15.420	  -131.315	    89.235
-20360.549	    15.218	  -119.132	    85.507
-20497.176	    15.041	  -117.439	    75.458
-20214.154	    15.088	  -123.821	    58.736
-19972.955	    15.468	  -135.101	    72.158
-19967.795	    15.881	  -120.666	    56.861
-20096.740	    16.063	  -101.623	    73.318
-19927.719	    15.971	  -121.926	    54.986
-20129.740	    15.648	  -107.237	    79.506
-20301.605	    15.304	  -112.307	    81.634
-20230.613	    15.179	   -85.605	    69.509
-20156.664	    15.289	  -111.457	    67.704
-20185.363	    15.413	  -102.027	    49.381
-20063.734	    15.544	  -114.827	    30.512
-20070.422	    15.606	  -121.135	    78.381
-20120.771	    15.521	   -96.909	    98.168
-20156.240	    15.414	  -104.319	    98.808
-20386.961	    15.339	   -99.035	    72.256
-20380.334	    15.255	  -105.114	    75.132
-20115.895	    15.198	   -86.973	    82.757
-20181.422	    15.226	   -94.880	    88.826
-20190.500	    15.224	   -94.590	    62.490
-20266.402	    15.254	  -115.263	    55.921
-20271.004	    15.318	  -115.428	    61.239
-20300.018	    15.406	   -86.415	    81.777
-20077.160	    15.516	   -76.281	    57.937
-20319.182	    15.508	   -95.718	    43.880
-20051.113	    15.416	   -86.955	    70.252
-20116.867	    15.180	  -100.299	    62.376
-20222.117	    15.105	   -90.579	    51.949
-20051.002	    15.272	   -92.447	    55.580
-20054.850	    15.545	  -111.439	    58.271
-20061.043	    15.545	   -82.685	    81.012
-20231.738	    15.355	   -85.693	    68.905
-20356.766	    15.310	   -82.950	    80.929
-20453.889	    15.324	   -74.635	    56.949
-20240.256	    15.387	  -143.300	    63.786
-20116.365	    15.546	  -100.789	    87.666
-20036.822	    15.668	  -124.105	    79.239
-19942.773	    15.658	  -112.867	    40.247
-20093.787	    15.548	  -102.354	    75.819
-20250.816	    15.506	  -140.656	    48.047
-20172.096	    15.479	  -111.954	    70.885
-20106.088	    15.548	  -126.254	    39.069
-20131.842	    15.549	  -111.336	    61.444
-20161.305	    15.482	   -98.620	    66.455
-19852.777	    15.473	  -107.803	    60.674
-20458.311	    15.423	   -96.841	    70.035
-20338.980	    15.389	   -90.417	    95.823
-20370.912	    15.353	  -104.192	    84.943
-20187.887	    15.344	   -94.170	    80.892
-20204.355	    15.475	   -98.293	    81.124
-20119.414	    15.607	   -91.770	    70.093
-20151.225	    15.695	  -104.278	   107.954
-20221.314	    15.769	   -80.675	    75.390
-20261.082	    15.733	  -130.606	    66.959
-20170.438	    15.606	   -84.464	    82.342
-20209.770	    15.433	  -102.614	    69.669
-20069.025	    15.451	   -86.478	    46.718
-20339.205	    15.572	  -127.708	    63.985
-20287.100	    15.712	  -125.595	    60.586
-20091.506	    15.751	  -123.805	    64.889
-19877.889	    15.623	  -127.389	    48.345
-20196.104	    15.279	  -123.862	    74.815
-20229.652	    15.014	  -123.384	    60.672
-20298.793	    14.968	   -92.462	    73.946
-20263.873	    15.184	   -89.775	    77.350
-20344.490	    15.490	   -93.136	    66.782
-19818.953	    15.716	  -129.868	    64.902
-19916.477	    15.722	  -110.460	    67.465
-20187.305	    15.582	   -98.026	    80.827
-20156.084	    15.472	   -87.557	    77.517
-20166.002	    15.424	  -108.221	    89.144
-20222.438	    15.408	  -122.032	    73.660
-20289.307	    15.409	  -118.568	    81.828
-20314.264	    15.276	  -111.968	    95.427
-20237.570	    15.154	  -107.616	    63.473
-20343.725	    15.183	  -118.556	    65.411
-20299.254	    15.325	  -136.064	    57.993
-20003.076	    15.440	  -138.152	    54.183
-20087.760	    15.346	  -126.376	    52.414
-20063.889	    15.113	  -127.803	    68.421
-20148.439	    15.002	  -119.535	    49.085
-20153.877	    14.993	  -120.160	    58.627
-20152.445	    15.307	  -108.250	    73.676
-19977.357	    15.774	  -103.008	    81.031
-20223.719	    16.007	   -97.685	    54.086
-20107.609	    16.005	   -94.832	    50.963
-20140.898	    15.833	  -121.627	    67.040
-20015.902	    15.436	   -92.357	    60.689
-20454.764	    15.182	   -88.442	    61.829
-20036.100	    14.994	  -100.407	    56.815
-20464.229	    14.898	  -128.211	    65.919
-20154.430	    15.098	  -111.768	    59.767
-20055.646	    15.334	  -106.611	    81.572
-20160.510	    15.481	  -125.068	    45.194
-20255.143	    15.465	  -107.870	    67.577
-20000.701	    15.435	  -121.898	    69.860
-20163.732	    15.366	  -126.804	    43.731
-20209.605	    15.443	  -109.303	    51.718
-20127.139	    15.475	   -98.676	    58.629
-20219.785	    15.441	   -89.993	    42.053
-20135.789	    15.331	  -116.294	    52.449
-20104.580	    15.344	  -111.573	    54.312
-20021.250	    15.459	  -117.432	    47.398
-19869.949	    15.583	  -122.333	    47.180
-20256.236	    15.589	  -108.860	    42.519
-20359.215	    15.476	  -104.683	    70.281
-20111.877	    15.384	  -107.600	    56.119
-20272.078	    15.315	  -111.260	    48.030
-20264.406	    15.281	  -113.084	    62.102
-20268.562	    15.395	  -122.564	    69.779
