-19964.459	    15.334	   -92.310	   122.143
-20287.645	    15.364	   -73.071	  -160.600
-20165.330	    15.407	   -89.340	  -136.135
-20269.525	    15.519	   -76.242	  -136.971
-20120.195	    15.710	   -60.497	   -76.502
-20064.807	    15.833	   -56.789	   -84.163
-20096.547	    15.860	   -60.474	   -89.622
-20255.662	    15.747	   -56.746	   -96.290
-20142.713	    15.553	   -53.690	   -87.640
-20306.119	    15.313	   -57.658	  -120.231
-20248.205	    15.147	   -56.704	   -72.624
-20078.596	    15.222	   -73.119	  -104.466
-19970.291	    15.351	   -63.247	  -103.192
-20454.422	    15.255	   -67.203	  -110.652
-20117.822	    15.314	   -66.686	   -66.326
-19821.832	    15.448	   -64.033	   -97.265
-20261.467	    15.487	   -70.381	   -93.493
-19991.320	    15.485	   -51.512	   -73.172
-19865.740	    15.573	   -66.949	   -93.068
-19849.170	    15.705	   -58.019	   -78.445
-20189.254	    15.749	   -54.781	   -70.517
-20221.674	    15.588	   -52.294	   -90.301
-20377.484	    15.350	   -66.017	   -72.051
-20466.246	    15.195	   -50.587	   -61.612
-20359.164	    15.172	   -72.359	   -72.544
-20163.635	    15.210	   -38.949	   -87.442
-20178.393	    15.260	   -35.187	   -77.850
-20055.598	    15.328	   -67.711	   -77.026
-20168.000	    15.342	   -60.830	  -104.175
-19925.572	    15.298	   -81.158	   -83.632
-20081.789	    15.236	   -57.585	  -106.639
-20033.090	    15.290	   -66.625	   -99.777
-20089.365	    15.398	   -59.787	   -98.310
-20250.840	    15.413	   -61.234	  -123.486
-19905.459	    15.438	   -77.655	   -69.000
-19999.002	    15.508	   -48.404	  -120.282
-20047.053	    15.547	   -62.323	  -128.215
-20057.693	    15.503	   -59.981	   -81.365
-20193.951	    15.485	   -50.897	   -84.062
-20174.902	    15.427	   -78.387	   -90.441
-20306.434	    15.443	   -67.139	   -93.503
-20168.338	    15.489	   -56.258	   -96.273
-20012.385	    15.438	   -70.403	   -89.269
-20232.383	    15.361	   -59.291	   -98.834
-20157.670	    15.335	   -80.035	  -120.368
-20322.521	    15.341	   -66.287	  -106.005
-20013.072	    15.484	   -75.335	  -109.169
-20341.951	    15.636	   -64.704	   -96.776
-19931.855	    15.669	   -58.195	  -107.080
-19885.387	    15.687	   -75.400	   -96.562
-20101.730	    15.684	   -67.219	  -105.641
-20096.389	    15.529	   -69.719	   -84.784
-20062.854	    15.284	   -72.667	  -103.028
-20072.998	    15.159	   -72.984	   -96.913
-20170.070	    15.335	   -64.083	   -83.544
-19848.322	    15.594	   -72.243	   -75.857
-20183.430	    15.704	   -68.803	   -90.317
-19970.697	    15.644	   -59.452	   -81.484
-20317.383	    15.498	   -63.662	   -89.538
-20201.480	    15.454	   -44.535	   -94.105
-20231.578	    15.485	   -64.245	   -74.823
-20109.326	    15.424	   -72.316	   -96.722
-20115.117	    15.331	   -70.155	   -78.789
-20015.605	    15.324	   -68.626	   -64.407
-20304.363	    15.473	   -63.429	   -51.063
-19952.400	    15.654	   -69.856	   -75.324
-19880.135	    15.768	   -44.938	   -78.323
-19962.217	    15.653	   -67.987	   -86.576
-20044.686	    15.439	   -63.840	   -70.034
-20348.332	    15.420	   -67.418	   -71.445
-20260.496	    15.477	   -64.700	   -82.009
-20177.666	    15.518	   -65.885	  -133.506
-20091.320	    15.318	   -57.807	  -113.270
-20317.916	    15.107	   -58.428	   -83.261
-20141.463	    15.091	   -60.559	   -80.466
-19915.938	    15.329	   -46.575	   -71.797
-20018.039	    15.723	   -48.071	   -86.341
-19759.658	    15.915	   -71.752	   -70.146
-19819.963	    15.978	   -63.817	   -76.682
-20040.826	    15.890	   -59.871	   -93.119
-20142.836	    15.681	   -49.248	   -81.167
-19989.543	    15.449	   -53.368	   -53.974
-20091.756	    15.275	   -66.931	   -67.856
-20155.520	    15.139	   -56.864	   -70.860
-20114.467	    15.177	   -70.181	   -76.649
-19878.508	    15.405	   -72.237	   -85.094
-20303.615	    15.429	   -68.390	   -92.905
-19955.174	    15.486	   -52.865	   -72.483
-20270.156	    15.496	   -66.256	   -58.480
-20123.998	    15.516	   -63.167	   -51.759
-20082.902	    15.490	   -75.418	   -88.944
-20142.436	    15.438	   -52.637	   -88.907
-20132.498	    15.432	   -41.446	   -60.156
-20077.668	    15.697	   -72.383	   -80.371
-19975.453	    15.846	   -56.337	   -74.811
-19709.176	    15.987	   -54.774	   -72.984
-19932.568	    15.906	   -58.328	   -69.041
-20133.131	    15.514	   -57.144	   -63.769
-20108.426	    15.199	   -54.134	   -96.770
-20316.443	    15.132	   -66.217	   -69.658
-19953.242	    15.187	   -39.096	   -86.896
-19968.998	    15.218	   -76.283	   -83.535
-19813.496	    15.324	   -73.514	  -134.851
-20040.635	    15.412	   -69.283	  -159.658
-20102.604	    15.580	   -78.809	  -151.576
-19840.770	    15.752	   -72.918	  -124.094
-19973.629	    15.814	   -68.131	  -136.786
-20006.881	    15.689	   -71.662	  -134.677
-20174.428	    15.494	   -87.625	  -126.094
-20318.510	    15.350	   -76.592	  -135.083
-20091.723	    15.257	   -70.662	  -143.314
-20200.500	    15.357	   -79.534	  -101.765
-20285.146	    15.530	   -76.218	   -86.491
-20196.922	    15.616	   -75.281	   -71.029
-20243.766	    15.546	   -59.659	   -75.001
-20134.072	    15.386	   -59.187	   -62.960
-20458.090	    15.348	   -44.743	   -90.976
-20096.312	    15.415	   -79.227	   -93.429
-20043.816	    15.455	   -67.401	   -80.488
-20167.297	    15.480	   -74.764	   -99.880
-19943.523	    15.472	   -75.272	  -106.146
-19899.691	    15.515	   -69.422	   -85.444
-20081.051	    15.601	   -81.309	   -99.721
-20033.027	    15.518	   -62.546	   -76.841
-20179.482	    15.387	   -68.502	   -85.056
-20216.801	    15.463	   -69.247	   -92.956
-20146.152	    15.541	   -75.235	  -115.865
-20219.406	    15.676	   -74.299	  -159.590
-20104.859	    15.736	   -88.784	  -135.256
-20254.852	    15.624	   -86.010	  -131.116
-20113.330	    15.449	   -74.925	  -139.607
-20282.477	    15.352	   -75.495	  -141.767
-20409.527	    15.358	   -72.413	  -154.741
-20092.943	    15.439	   -79.520	  -139.054
-20009.824	    15.423	   -73.801	  -115.557
-20360.348	    15.414	   -78.219	  -164.745
-20182.584	    15.537	   -53.695	   -90.473
-20097.311	    15.603	   -71.083	   -74.833
-20160.764	    15.564	   -62.843	   -57.635
-20164.404	    15.400	   -42.645	   -62.096
-20233.146	    15.241	   -47.614	   -62.783
-19984.559	    15.206	   -39.965	   -85.289
-20103.801	    15.359	   -57.304	   -81.622
-20321.248	    15.466	   -61.790	   -72.029
-19929.166	    15.501	   -50.482	   -63.497
-20289.721	    15.434	   -57.995	   -79.518
-20279.926	    15.572	   -76.245	   -74.748
-20268.836	    15.716	   -64.222	   -81.603
-19973.213	    15.816	   -74.958	  -116.256
-20095.033	    15.763	   -66.013	  -127.913
-20069.982	    15.551	   -67.998	   -97.036
-20344.641	    15.376	   -60.122	   -99.577
-20395.020	    15.318	   -66.518	  -106.532
-20107.537	    15.407	   -70.643	   -88.464
-20119.725	    15.551	   -69.456	   -85.449
-20365.125	    15.597	   -51.472	   -49.410
-19948.098	    15.607	   -57.047	   -90.590
-20033.131	    15.709	   -73.203	   -97.819
-20083.012	    15.919	   -73.711	  -117.339
-19994.400	    16.055	   -52.507	  -107.699
-20248.553	    15.873	   -80.301	  -110.460
-20319.678	    15.619	   -47.777	   -88.870
-20421.141	    15.336	   -60.438	  -104.461
-20175.617	    15.158	   -68.622	   -92.776
-20206.547	    15.062	   -76.426	  -103.382
-20235.613	    15.090	   -79.308	  -113.588
-20161.988	    15.297	   -71.760	  -147.983
-20349.148	    15.552	   -73.894	  -121.966
-19943.596	    15.664	   -62.538	  -110.044
-20123.373	    15.622	   -67.644	   -96.602
-19992.484	    15.495	   -68.409	   -92.052
-19844.273	    15.331	   -75.651	  -108.647
-20452.936	    15.170	   -71.736	   -88.715
-20165.662	    15.226	   -59.379	   -76.251
-20288.021	    15.329	   -72.406	   -95.622
-20138.377	    15.326	   -65.217	   -82.355
-20150.797	    15.386	   -54.905	   -63.939
-20116.439	    15.520	   -57.287	   -81.789
-19880.170	    15.609	   -58.318	   -92.915
-19976.727	    15.607	   -74.133	   -67.798
-20149.848	    15.619	   -72.106	  -119.068
-20085.805	    15.458	   -70.633	  -112.993
-20431.135	    15.197	   -61.773	   -91.833
-20144.076	    15.064	   -64.415	   -94.444
-20098.182	    15.143	   -59.815	  -116.429
-20091.730	    15.290	   -81.544	   -97.367
-20157.195	    15.399	   -76.913	   -97.690
-19961.617	    15.366	   -73.072	   -77.080
-20229.123	    15.377	   -49.889	   -78.846
-20115.686	    15.565	   -65.799	   -83.188
-19836.398	    15.761	   -66.674	   -81.941
-19926.170	    15.868	   -58.462	   -85.426
-19965.459	    15.788	   -52.842	   -96.613
-20094.518	    15.652	   -81.110	  -126.527
-20164.539	    15.454	   -86.996	  -137.126
-20292.410	    15.289	   -80.607	  -140.365
-20354.590	    15.137	   -73.783	   -82.272
-20307.396	    15.004	   -67.118	  -114.892
-20423.479	    15.059	   -67.045	   -90.097
-20095.314	    15.255	   -77.488	  -137.075
-20197.387	    15.442	   -65.602	  -103.114
-20202.193	    15.557	   -67.106	   -90.331
-20059.770	    15.505	   -43.724	   -77.501
-20220.822	    15.469	   -63.557	   -94.593
-20302.709	    15.393	   -83.721	  -116.772
-20475.664	    15.331	   -35.909	  -101.353
-20273.838	    15.357	   -75.636	   -82.985
-19997.951	    15.491	   -58.591	   -88.238
-20043.207	    15.505	   -55.662	   -91.085
-19765.076	    15.397	   -47.237	   -77.695
-20275.553	    15.309	   -44.289	  -103.060
-20010.143	    15.297	   -68.822	   -73.276
-19706.475	    15.296	   -65.728	  -101.791
-20142.285	    15.256	   -84.937	   -88.129
-20124.094	    15.291	   -72.139	  -114.419
-19989.031	    15.459	   -58.571	  -119.011
-20113.490	    15.618	   -65.083	   -99.213
-19967.912	    15.683	   -69.284	   -55.251
-19876.689	    15.616	   -58.984	   -77.629
-19890.498	    15.568	   -64.927	   -99.070
-19912.611	    15.388	   -62.965	   -83.929
-20080.621	    15.184	   -64.942	   -62.334
-20452.033	    15.180	   -44.209	   -82.148
-19965.500	    15.314	   -62.936	   -69.095
-20256.188	    15.387	   -76.470	   -91.645
-20417.318	    15.424	   -56.369	  -108.830
-20040.893	    15.446	   -71.759	   -70.928
-20231.334	    15.456	   -83.188	  -110.289
-20289.781	    15.353	   -73.541	  -107.993
-20104.703	    15.210	   -59.742	   -85.543
-20318.344	    15.166	   -70.997	   -88.342
-19928.250	    15.342	   -49.242	   -92.477
-20165.838	    15.528	   -74.436	  -120.326
-19927.330	    15.604	   -76.708	   -72.883
-19962.074	    15.659	   -58.294	   -63.324
-20040.156	    15.636	   -72.338	   -99.577
-19990.002	    15.537	   -54.580	  -100.046
-20257.670	    15.374	   -58.782	   -78.893
-20338.926	    15.316	   -60.868	   -90.855
-19908.861	    15.347	   -65.314	   -96.033
-20304.555	    15.285	   -67.312	   -94.951
-19990.312	    15.289	   -66.981	   -86.102
-20246.246	    15.295	   -65.774	   -82.424
-20263.109	    15.309	   -74.640	   -72.215
-20338.486	    15.474	   -69.811	   -72.829
-20273.402	    15.648	   -62.499	   -89.865
-20225.492	    15.729	   -64.307	   -89.169
-20104.217	    15.595	   -62.779	   -81.020
-20380.154	    15.439	   -79.169	   -94.988
-20122.641	    15.403	   -75.855	  -109.827
-20272.352	    15.456	   -56.758	   -80.645
-20223.461	    15.416	   -76.226	  -110.236
-20331.312	    15.384	   -65.953	   -91.411
-20223.891	    15.380	   -59.409	  -116.474
-20269.309	    15.439	   -72.106	  -135.747
-20161.879	    15.400	   -67.966	   -93.845
-20285.016	    15.374	   -74.934	  -140.889
-20214.275	    15.316	   -40.393	  -105.718
-20117.207	    15.284	   -68.549	  -107.223
-20237.328	    15.275	   -83.100	  -147.597
-20181.605	    15.333	   -76.202	  -106.169
-20071.254	    15.602	   -66.785	   -83.797
-20168.551	    15.729	   -71.130	  -103.397
-20155.275	    15.696	   -81.810	   -91.840
-20137.170	    15.538	   -74.058	   -92.093
-20012.930	    15.241	   -65.593	   -85.141
-20405.816	    15.108	   -59.498	   -80.319
-20179.414	    15.088	   -79.685	  -100.306
-20280.535	    15.157	   -62.879	   -93.103
-20113.051	    15.285	   -51.475	   -77.064
-20366.002	    15.313	   -61.521	   -62.370
-20425.371	    15.431	   -56.634	   -68.407
-20023.400	    15.573	   -71.824	  -124.907
-20425.592	    15.631	   -64.100	   -91.149
-20103.635	    15.601	   -64.887	   -80.798
-20247.904	    15.367	   -71.928	   -77.647
-20301.225	    15.158	   -65.988	  -114.683
-20250.271	    15.075	   -67.886	  -127.228
-20203.955	    15.096	   -64.951	  -122.000
-20187.992	    15.184	   -48.243	  -103.109
-20178.939	    15.340	   -69.207	   -83.291
-20102.895	    15.401	   -90.279	   -91.184
-20109.215	    15.452	   -79.213	  -111.036
-20118.037	    15.436	   -73.587	   -85.434
-20164.943	    15.457	   -68.747	   -61.717
-20182.369	    15.535	   -55.065	   -77.076
-20220.607	    15.537	   -43.804	   -87.093
-20209.176	    15.504	   -70.726	  -127.454
-20059.838	    15.467	   -76.519	  -126.326
-20364.080	    15.442	   -77.494	  -150.493
-20362.988	    15.438	   -64.961	  -109.545
-20195.652	    15.445	   -55.600	   -75.391
-20208.391	    15.446	   -50.657	   -70.735
-19971.711	    15.498	   -57.997	   -76.358
-20405.898	    15.361	   -65.464	   -91.312
-20420.852	    15.330	   -70.190	   -92.161
-20102.445	    15.327	   -71.282	  -131.846
-20318.629	    15.297	   -75.414	  -156.814
-20305.498	    15.280	   -68.231	  -118.687
-20262.898	    15.274	   -70.443	  -104.511
-19961.477	    15.434	   -77.025	   -75.720
-19985.469	    15.475	   -42.295	   -89.798
-19979.439	    15.382	   -67.406	   -76.581
-19967.455	    15.234	   -52.148	   -82.409
-20197.639	    15.217	   -65.191	  -113.209
-20039.660	    15.318	   -65.724	  -103.274
-20135.299	    15.508	   -82.262	   -98.525
-20136.635	    15.639	   -73.675	   -74.966
-20139.453	    15.558	   -78.359	  -101.106
-20189.627	    15.446	   -87.209	   -94.772
-20376.215	    15.285	   -77.535	   -83.429
-20153.621	    15.334	   -70.230	   -95.148
-19948.828	    15.471	   -68.220	   -97.966
-20187.441	    15.597	   -74.555	   -86.917
-20172.707	    15.703	   -52.179	   -78.863
-20219.826	    15.705	   -41.826	   -75.353
-20190.520	    15.670	   -88.105	   -94.176
-20271.320	    15.563	   -51.590	   -74.342
-20064.205	    15.486	   -58.057	   -82.689
-20266.793	    15.382	   -66.376	   -78.561
-20480.660	    15.239	   -52.716	   -86.844
-20361.645	    15.113	   -66.260	   -70.101
-19999.664	    15.110	   -68.069	   -81.063
-20230.291	    15.340	   -51.687	   -63.312
-20053.705	    15.611	   -71.082	   -73.242
-20105.783	    15.625	   -74.439	   -66.340
-20256.768	    15.532	   -46.591	   -60.430
-20035.875	    15.388	   -64.126	   -65.233
-20102.906	    15.226	   -60.577	   -94.864
-20224.547	    15.282	   -80.281	   -77.378
-20086.246	    15.465	   -73.074	   -96.374
-20108.850	    15.548	   -54.068	   -65.198
-19984.740	    15.417	   -73.549	   -89.634
-20237.951	    15.187	   -62.059	   -96.834
-20222.146	    15.165	   -59.446	   -72.666
-20332.246	    15.330	   -62.178	   -85.726
-20013.012	    15.587	   -69.939	   -76.159
-20111.746	    15.688	   -69.962	  -112.732
-20025.143	    15.586	   -84.052	  -116.885
-20383.865	    15.391	   -83.276	  -129.142
-20111.570	    15.238	   -76.363	  -126.331
-20383.512	    15.284	   -50.403	   -82.859
-19991.545	    15.482	   -66.653	   -72.831
-20231.605	    15.674	   -76.305	   -83.330
-20360.113	    15.734	   -66.419	   -71.630
-20153.840	    15.720	   -63.819	   -65.320
-19796.863	    15.601	   -76.474	  -107.778
-20230.436	    15.391	   -77.212	  -101.246
-20280.037	    15.180	   -68.078	   -71.439
-20397.484	    15.154	   -61.510	   -78.140
-20261.623	    15.370	   -70.040	   -96.252
-20001.508	    15.540	   -67.525	   -74.010
-20039.875	    15.543	   -68.148	   -80.245
-20082.826	    15.462	   -66.872	   -84.528
-20180.023	    15.388	   -80.304	   -84.194
-20052.152	    15.444	   -53.806	   -66.591
-20008.504	    15.538	   -59.140	   -73.324
-20318.107	    15.575	   -66.043	   -83.760
-20227.602	    15.634	   -48.826	   -85.496
-20127.930	    15.661	   -68.312	   -83.506
-20077.734	    15.494	   -68.750	   -53.430
-20011.732	    15.335	   -64.569	   -79.128
-20349.492	    15.277	   -70.110	   -59.341
-20267.760	    15.393	   -71.871	  -116.262
-19969.324	    15.631	   -91.206	  -105.377
-19595.426	    15.829	   -60.142	   -80.654
-20112.135	    15.786	   -59.617	   -67.314
-20027.029	    15.645	   -69.041	   -94.626
-20188.859	    15.585	   -57.017	   -81.564
-20250.580	    15.483	   -79.152	  -104.317
-20293.109	    15.315	   -73.724	   -93.815
-20515.639	    15.281	   -73.999	  -108.277
-20164.002	    15.440	   -47.957	   -86.512
-20143.264	    15.591	   -69.964	  -122.043
-20092.699	    15.602	   -56.780	  -108.448
-20166.773	    15.494	   -65.999	   -64.919
-20381.391	    15.452	   -61.529	   -70.280
-19969.113	    15.386	   -47.189	   -88.714
-20275.328	    15.183	   -73.989	  -124.973
-20482.727	    15.122	   -85.400	  -110.280
-20216.166	    15.392	   -72.255	  -116.529
-20113.373	    15.680	   -54.868	   -75.063
-20029.195	    15.768	   -60.328	   -95.744
-20090.877	    15.658	   -49.628	   -68.154
-20171.672	    15.442	   -75.797	   -84.215
-20304.895	    15.267	   -66.564	   -63.915
-19952.586	    15.089	   -56.826	   -72.162
-20380.701	    14.963	   -76.585	   -98.652
-20276.117	    14.924	   -82.266	  -132.340
-20133.676	    15.057	   -56.760	   -92.622
-20076.338	    15.293	   -52.949	   -93.356
-20198.082	    15.423	   -65.211	   -79.197
-20356.484	    15.524	   -65.911	   -61.754
-20195.703	    15.593	   -48.950	   -65.718
-20219.631	    15.665	   -62.382	   -58.252
-19956.027	    15.601	   -69.693	   -74.579
-20221.537	    15.368	   -64.967	   -91.496
-20332.932	    15.133	   -85.986	  -101.311
-20496.404	    15.034	   -57.657	   -75.483
-20356.092	    15.178	   -83.554	  -103.717
-20290.695	    15.437	   -69.829	   -80.642
-20152.762	    15.629	   -65.552	   -80.070
-20127.131	    15.710	   -64.555	   -80.150
-20072.602	    15.626	   -80.618	   -79.649
-20025.205	    15.455	   -62.609	   -98.437
-20100.998	    15.282	   -71.946	  -114.587
-20128.770	    15.134	   -78.958	   -87.563
-20321.410	    14.970	   -75.302	   -68.728
-20241.832	    14.974	   -70.703	   -87.714
-20209.953	    15.180	   -75.054	   -86.242
-20211.846	    15.430	   -69.165	   -89.202
-20217.521	    15.639	   -49.951	   -60.425
-19917.240	    15.651	   -65.420	   -70.000
-20166.844	    15.507	   -56.430	   -81.366
-19971.639	    15.406	   -52.048	   -82.233
-20032.863	    15.416	   -66.331	   -76.218
-20051.877	    15.322	   -60.301	   -82.418
-20253.396	    15.208	   -70.271	  -111.496
-20159.324	    15.221	   -77.697	  -116.439
-19922.924	    15.233	   -77.951	  -104.072
-20313.621	    15.258	   -69.232	   -98.603
-20400.887	    15.258	   -71.432	  -120.904
-20240.646	    15.296	   -73.004	  -134.846
-20237.260	    15.469	   -65.109	   -98.742
-20015.787	    15.565	   -73.901	   -97.862
-20058.021	    15.668	   -46.230	  -109.357
-19975.047	    15.788	   -60.788	   -97.303
-19915.564	    15.845	   -84.324	  -105.612
-20198.271	    15.641	   -54.841	   -81.320
-20036.242	    15.358	   -79.669	   -94.886
-20365.527	    15.025	   -66.616	   -78.679
-20355.293	    14.853	   -42.386	   -71.901
-20272.723	    15.011	   -54.939	   -61.735
-19908.426	    15.283	   -66.833	   -51.356
-20236.709	    15.515	   -54.810	   -71.051
-20053.533	    15.703	   -55.160	   -70.609
-19972.318	    15.746	   -63.114	   -82.071
-20343.906	    15.721	   -60.369	   -88.167
-20084.703	    15.608	   -50.723	   -79.850
-20209.479	    15.485	   -46.297	   -63.474
-20226.445	    15.293	   -54.651	   -76.627
-20018.123	    15.308	   -67.768	   -76.089
-20161.570	    15.326	   -71.687	   -79.087
-20273.393	    15.321	   -76.285	   -97.386
-20185.449	    15.277	   -67.011	  -108.625
-19944.449	    15.437	   -75.205	  -110.627
-20205.807	    15.574	   -69.035	  -107.618
-20245.863	    15.618	   -74.276	  -135.602
-20138.193	    15.635	   -69.311	  -105.660
-20147.973	    15.674	   -57.642	   -93.220
-20004.391	    15.686	   -50.094	   -76.783
-20228.139	    15.621	   -59.755	   -87.333
-20143.809	    15.478	   -60.670	   -84.047
-20092.719	    15.376	   -90.814	   -83.881
-20176.766	    15.405	   -65.366	  -114.233
-20019.838	    15.391	   -70.921	  -114.163
-20166.234	    15.365	   -63.923	   -99.670
-20303.387	    15.398	   -67.617	  -110.725
-19965.018	    15.365	   -86.101	  -127.167
-20186.992	    15.330	   -57.235	  -117.654
-20345.354	    15.320	   -57.530	   -82.390
-19930.131	    15.432	   -57.943	  -104.954
-19898.441	    15.469	   -62.830	   -87.766
-20199.402	    15.419	   -56.297	   -64.372
-20223.326	    15.389	   -79.955	   -78.352
-20070.818	    15.413	   -65.786	  -100.405
-20454.900	    15.468	   -67.678	  -106.581
-20013.455	    15.620	   -80.456	  -100.765
-20355.936	    15.679	   -75.024	  -115.854
-20188.953	    15.700	   -72.014	   -95.471
-20090.715	    15.680	   -42.706	   -77.160
-20203.713	    15.605	   -74.355	   -91.253
-20039.930	    15.477	   -91.497	  -121.660
-20244.629	    15.287	   -59.270	  -108.664
-20234.643	    15.186	   -66.409	   -83.168
-20317.773	    15.156	   -68.538	  -104.865
-20192.070	    15.162	   -54.683	   -90.677
-20225.430	    15.305	   -88.084	  -116.839
-20179.227	    15.528	   -78.740	  -105.881
-20079.254	    15.771	   -68.461	  -118.433
-20061.871	    15.831	   -67.990	  -102.291
-19960.658	    15.751	   -58.953	   -96.894
-20300.002	    15.490	   -61.514	   -79.965
-20227.582	    15.172	   -79.238	  -128.013
-20344.283	    15.017	   -71.585	  -124.893
-20111.764	    15.027	   -66.536	   -78.827
-20361.904	    15.135	   -51.423	   -60.445
-20278.783	    15.240	   -64.723	   -87.130
-19996.502	    15.488	   -52.242	   -60.345
-19985.201	    15.657	   -52.412	   -56.046
-20224.932	    15.725	   -67.342	   -75.908
-20313.578	    15.705	   -65.063	   -75.132
-20114.299	    15.493	   -56.161	   -72.555
-20231.646	    15.365	   -60.047	   -66.329
-20279.240	    15.433	   -65.030	   -88.002
-20117.516	    15.547	   -75.568	  -105.620
-20413.566	    15.595	   -78.398	   -90.687
-19969.904	    15.657	   -85.181	  -107.310
-20303.395	    15.552	   -71.677	  -125.299
-20113.023	    15.420	   -83.628	  -157.655
-20387.123	    15.286	   -78.351	  -165.385
-20017.682	    15.322	   -72.453	  -158.768
-20323.402	    15.447	   -67.261	  -124.333
-20235.145	    15.409	   -66.504	  -148.216
-19976.836	    15.177	   -70.300	  -117.498
-20356.566	    15.037	   -74.771	  -115.804
-20438.832	    15.103	   -77.859	  -103.502
-20024.031	    15.322	   -70.901	   -98.575
-20189.816	    15.488	   -66.047	  -104.390
-20033.377	    15.641	   -80.618	   -94.201
-20087.002	    15.648	   -67.561	   -84.717
-20118.717	    15.584	   -50.243	   -76.670
-20231.932	    15.470	   -79.753	   -84.951
-20128.498	    15.355	   -74.152	  -124.223
-20366.604	    15.269	   -73.189	  -109.342
-20150.031	    15.211	   -70.398	  -119.072
-20109.596	    15.213	   -68.555	  -131.952
-19991.623	    15.143	   -69.869	  -105.731
-20388.801	    15.108	   -88.517	  -112.497
-20255.268	    15.143	   -64.342	   -85.947
-20311.268	    15.252	   -51.269	   -96.758
-20101.908	    15.288	   -68.609	   -95.909
-20179.074	    15.255	   -55.826	  -111.039
-20299.979	    15.315	   -78.815	   -91.514
-20350.625	    15.393	   -56.192	   -93.248
-20034.064	    15.544	   -48.341	   -67.784
-19968.582	    15.726	   -47.762	   -73.688
-19947.250	    15.873	   -35.050	   -59.534
-20142.168	    15.763	   -48.469	   -69.966
-20106.273	    15.568	   -56.826	   -95.376
-20037.545	    15.495	   -55.371	   -74.330
-20272.086	    15.574	   -51.482	   -79.702
-20172.307	    15.641	   -50.636	  -132.106
-20025.617	    15.657	   -59.708	  -115.163
-19990.188	    15.611	   -71.574	   -89.568
-20267.646	    15.389	   -56.502	   -92.433
-20305.865	    15.272	   -58.049	   -90.198
-20386.943	    15.320	   -53.879	   -80.473
-20166.781	    15.374	   -57.179	   -85.115
-20511.479	    15.335	   -73.289	   -79.580
-20305.465	    15.279	   -56.850	   -91.042
-20162.135	    15.310	   -60.371	  -114.607
-20434.863	    15.343	   -57.507	   -82.597
-20210.117	    15.388	   -60.713	   -88.411
-20178.510	    15.488	   -74.513	   -90.312
-20052.869	    15.587	   -66.784	   -82.698
-20201.426	    15.512	   -45.585	   -54.862
-19861.668	    15.353	   -79.580	   -84.053
-20332.535	    15.252	   -67.465	   -93.995
-20245.738	    15.253	   -73.287	  -116.551
-20286.746	    15.221	   -72.147	   -99.779
-20194.002	    15.336	   -57.363	   -92.893
-19967.811	    15.509	   -48.973	   -73.846
-20165.059	    15.716	   -68.749	  -115.917
-20101.459	    15.770	   -61.878	   -90.269
-20004.756	    15.677	   -56.174	   -93.040
-20286.871	    15.523	   -52.993	   -68.642
-20114.244	    15.325	   -51.580	   -81.193
-20132.283	    15.078	   -65.766	   -74.113
-20481.555	    14.934	   -51.387	   -81.052
-20316.293	    15.123	   -52.402	   -99.007
-20167.184	    15.422	   -62.601	  -116.080
-20297.383	    15.547	   -56.493	  -101.115
-20103.340	    15.641	   -53.818	  -120.133
-20033.055	    15.487	   -75.954	  -130.111
-20337.152	    15.309	   -68.401	  -128.956
-20039.268	    15.226	   -72.260	   -86.395
-20154.527	    15.262	   -55.622	   -80.297
-20079.750	    15.383	   -64.260	  -102.002
-20078.346	    15.611	   -48.482	   -92.428
-20196.611	    15.666	   -72.774	  -117.873
-20369.254	    15.456	   -74.382	  -121.308
-20496.590	    15.148	   -82.291	  -130.934
-20167.232	    15.005	   -78.940	  -119.378
-20377.654	    15.058	   -74.141	  -116.442
-20156.045	    15.208	   -69.388	  -120.337
-20037.271	    15.382	   -77.554	  -104.359
-20193.439	    15.645	   -79.141	  -136.839
-19834.762	    15.743	   -69.215	  -146.441
-20059.367	    15.734	   -61.091	  -134.937
-20076.295	    15.675	   -73.349	  -135.047
-20353.957	    15.578	   -68.527	  -118.372
-20473.557	    15.419	   -72.954	  -128.895
-20103.465	    15.328	   -59.645	   -81.532
-20161.896	    15.317	   -52.298	   -75.655
-20069.662	    15.419	   -56.329	   -73.937
-19971.232	    15.545	   -68.370	   -86.433
-19980.668	    15.647	   -77.097	   -78.612
-20122.424	    15.699	   -56.603	   -71.765
-19988.379	    15.500	   -71.861	   -91.048
-20108.684	    15.220	   -54.818	   -84.431
-20044.777	    15.076	   -79.857	   -74.115
-20263.773	    15.118	   -65.250	   -69.469
-20363.133	    15.413	   -60.353	   -80.098
-19983.961	    15.667	   -46.825	   -80.758
-20159.234	    15.681	  -106.044	  -113.730
-20020.822	    15.578	   -82.939	   -81.660
-20153.359	    15.326	   -83.240	   -98.976
-20282.797	    14.990	   -55.381	   -76.574
-20273.006	    14.905	   -50.886	   -92.997
-20277.953	    15.050	   -61.989	   -80.343
-20089.105	    15.237	   -71.519	   -64.014
-20192.795	    15.411	   -74.208	  -101.523
-19934.020	    15.602	   -66.839	   -88.946
-19941.986	    15.690	   -54.202	   -79.461
-20110.342	    15.581	   -62.444	  -100.700
-20148.586	    15.309	   -73.885	  -103.696
-20349.502	    15.135	   -63.758	   -91.929
-20190.342	    15.172	   -74.226	   -94.235
-20183.205	    15.316	   -68.983	   -80.546
-20155.070	    15.502	   -57.947	   -89.754
-19833.867	    15.558	   -49.376	  -107.429
-20075.793	    15.466	   -41.794	   -83.502
-20317.125	    15.346	   -61.384	   -87.677
-19993.869	    15.311	   -71.847	   -93.085
-20181.633	    15.421	   -72.114	   -81.638
-20332.859	    15.662	   -65.488	   -82.009
-20298.260	    15.727	   -66.330	   -82.308
-19976.500	    15.631	   -70.622	   -59.298
-20507.844	    15.405	   -71.206	   -76.693
-20336.932	    15.134	   -60.327	   -89.965
-20265.766	    15.055	   -82.033	   -88.314
-20039.396	    15.185	   -68.659	   -82.564
-20026.076	    15.428	   -56.373	   -79.996
-20303.865	    15.551	   -77.688	   -90.508
-20274.064	    15.597	   -74.670	   -82.334
-19926.270	    15.537	   -74.119	  -114.893
-20098.312	    15.312	   -74.240	   -84.470
-20201.541	    15.078	   -81.164	   -90.220
-20095.613	    15.107	   -65.186	   -91.639
-20373.889	    15.310	   -71.932	  -106.435
-20241.293	    15.510	   -50.081	   -86.037
-20169.809	    15.581	   -70.093	  -118.120
-20230.496	    15.458	   -53.370	   -85.756
-20258.074	    15.327	   -70.040	  -105.872
-20128.738	    15.269	   -67.115	   -79.930
-20324.902	    15.315	   -57.564	   -68.130
-20199.391	    15.434	   -59.243	   -65.662
-20019.688	    15.393	   -54.148	   -72.394
-20213.375	    15.245	   -61.486	   -64.738
-20512.885	    15.099	   -53.690	   -61.816
-20323.771	    15.144	   -63.207	   -72.283
-20124.791	    15.246	   -51.300	   -85.616
-19983.184	    15.410	   -58.251	   -69.872
-20062.533	    15.426	   -54.316	   -66.172
-20083.938	    15.452	   -55.041	   -48.593
-20343.168	    15.403	   -64.932	   -78.406
-20113.404	    15.400	   -50.441	   -65.579
-20334.969	    15.378	   -64.065	   -90.945
-20194.643	    15.306	   -76.850	   -76.844
-20127.287	    15.181	   -78.117	  -126.867
-20195.051	    15.185	   -75.917	   -91.217
-20349.479	    15.260	   -80.856	   -89.727
-20136.375	    15.456	   -71.196	   -91.829
-20415.502	    15.620	   -81.474	  -104.393
-19915.861	    15.669	   -63.819	  -101.951
-20094.678	    15.550	   -71.760	  -126.919
-20396.467	    15.364	   -62.297	  -110.665
-20221.170	    15.254	   -95.153	  -116.672
-20245.363	    15.190	   -87.797	  -134.113
-20201.402	    15.205	   -78.715	  -114.783
-20166.016	    15.293	   -70.691	   -90.231
-20157.740	    15.337	   -41.315	   -67.072
-20276.221	    15.378	   -64.421	   -91.577
-20236.564	    15.427	   -65.355	  -111.963
-20046.158	    15.414	   -74.603	  -136.164
-20074.658	    15.315	   -67.928	  -109.137
-20119.270	    15.335	   -59.965	   -93.662
-19755.377	    15.462	   -58.483	   -88.723
-19901.781	    15.608	   -40.239	  -100.114
-20109.236	    15.616	   -46.489	   -86.660
-20142.984	    15.506	   -71.793	   -93.047
-20026.607	    15.361	   -63.069	   -74.258
-20128.389	    15.257	   -59.161	   -64.492
-20459.936	    15.110	   -63.612	   -76.123
-20319.848	    15.220	   -69.347	  -110.786
-20386.627	    15.549	   -84.550	  -101.054
-20125.947	    15.818	   -45.627	   -75.922
-19967.979	    15.852	   -69.156	   -77.667
-20295.424	    15.745	   -62.527	   -73.823
-20209.893	    15.565	   -58.521	   -91.522
-20311.820	    15.291	   -67.696	   -85.744
-20309.086	    15.036	   -73.218	  -113.412
-20429.750	    15.047	   -55.565	   -76.099
-20394.619	    15.316	   -44.920	   -88.722
-20232.928	    15.578	   -75.320	  -109.718
-20095.914	    15.704	   -77.071	   -89.933
-20046.590	    15.557	   -72.705	  -102.073
-20169.463	    15.368	   -73.529	   -92.746
-20483.701	    15.290	   -88.011	  -131.296
-20236.141	    15.304	   -68.715	  -135.854
-20210.100	    15.336	   -74.126	  -121.904
-20199.240	    15.431	   -80.333	  -111.234
-19968.701	    15.503	   -61.144	   -72.016
-20227.715	    15.483	   -62.306	   -82.872
-20010.180	    15.440	   -65.882	   -66.723
-20120.387	    15.322	   -34.841	   -69.676
-20184.322	    15.177	   -57.019	   -93.654
-20362.225	    15.130	   -56.870	   -78.615
-20024.695	    15.264	   -60.599	   -89.782
-19840.562	    15.448	   -89.610	  -125.380
-20179.549	    15.554	   -67.194	  -105.766
-20191.018	    15.552	   -60.021	   -92.388
-20116.977	    15.470	   -62.755	   -88.577
-20088.980	    15.365	   -65.732	  -110.475
-20016.803	    15.228	   -76.777	  -112.876
-20366.912	    15.031	   -65.699	  -135.515
-20065.734	    15.205	   -79.233	  -126.424
-20114.902	    15.352	   -76.306	  -146.806
-20151.922	    15.444	   -93.683	  -124.669
-20004.211	    15.499	   -41.261	   -64.138
-20159.744	    15.422	   -74.433	   -86.213
-19887.785	    15.405	   -54.867	   -69.036
-20155.459	    15.258	   -69.005	   -66.196
-20122.170	    15.064	   -62.599	   -81.104
-20372.469	    14.950	   -54.954	   -79.413
-20079.586	    15.075	   -53.406	   -75.439
-20305.402	    15.235	   -44.225	   -73.269
-20221.994	    15.395	   -69.188	   -71.323
-20136.115	    15.502	   -64.882	   -86.740
-20117.896	    15.645	   -74.231	   -85.055
-20199.104	    15.627	   -49.919	   -76.933
-20256.602	    15.546	   -65.996	   -66.813
-20083.787	    15.469	   -65.636	   -77.895
-20317.584	    15.442	   -69.742	   -88.332
-20328.268	    15.461	   -53.083	   -78.551
-19948.400	    15.642	   -70.721	   -72.718
-20181.709	    15.743	   -57.110	   -77.021
-20247.518	    15.736	   -56.604	   -73.749
-20043.396	    15.697	   -71.621	   -89.500
-20234.859	    15.574	   -67.698	  -107.424
-20058.311	    15.412	   -59.570	   -80.500
-20255.359	    15.369	   -63.200	   -89.942
-20351.988	    15.417	   -65.169	  -133.263
-20009.922	    15.408	   -74.060	  -132.939
-20482.260	    15.362	   -81.272	  -131.433
-20339.322	    15.384	   -75.095	  -127.098
-20220.992	    15.530	   -67.307	  -142.846
-20244.352	    15.611	   -78.320	  -108.023
-20240.523	    15.649	   -67.593	  -116.619
-20112.504	    15.582	   -68.467	   -89.288
-20048.715	    15.516	   -63.814	  -104.952
-20046.162	    15.383	   -56.821	  -100.143
-20271.814	    15.389	   -70.423	   -96.741
-19976.928	    15.427	   -84.969	   -83.528
-20334.283	    15.375	   -58.465	   -83.694
-20292.229	    15.356	   -57.288	   -74.257
-20370.902	    15.419	   -66.039	   -84.336
-20128.418	    15.569	   -66.124	  -100.483
-20195.348	    15.698	   -69.136	   -95.130
-20031.879	    15.755	   -64.189	   -92.754
-20458.393	    15.607	   -54.690	   -81.171
-20224.904	    15.418	   -58.517	   -78.040
-20269.594	    15.227	   -79.191	  -101.042
-20169.326	    15.248	   -68.751	   -97.064
-20290.688	    15.329	   -70.706	   -81.575
-20116.996	    15.397	   -53.006	   -91.042
-20246.002	    15.363	   -52.247	   -95.287
-20322.705	    15.310	   -64.279	  -103.413
-20161.533	    15.400	   -66.913	   -89.036
-20031.361	    15.578	   -34.476	   -74.134
-20092.525	    15.751	   -66.219	   -64.511
-19972.994	    15.695	   -90.465	   -78.734
-20123.949	    15.487	   -50.495	   -73.773
-20364.359	    15.253	   -50.423	   -88.072
-20583.912	    15.183	   -68.322	   -90.171
-20143.490	    15.270	   -71.430	   -69.818
-20626.096	    15.418	   -50.257	   -75.710
-20253.842	    15.644	   -64.179	   -55.810
-20026.914	    15.767	   -60.315	   -85.446
-20312.766	    15.682	   -65.108	   -71.557
-20178.713	    15.500	   -59.322	   -73.587
-20024.838	    15.359	   -65.974	   -78.610
-20315.342	    15.174	   -57.562	   -85.655
-20300.650	    15.014	   -46.877	   -72.979
-20309.041	    15.034	   -60.430	   -88.727
-20086.719	    15.172	   -44.091	   -72.942
-20251.414	    15.319	   -66.817	   -95.504
-20371.797	    15.463	   -70.177	  -101.612
-20263.152	    15.600	   -48.093	   -81.047
-20347.514	    15.662	   -56.893	   -64.802
-20195.018	    15.695	   -64.119	  -100.109
-20020.955	    15.658	   -72.944	   -92.658
-20280.133	    15.542	   -89.134	   -98.978
-20013.840	    15.477	   -72.975	  -130.142
-20317.818	    15.393	   -64.693	   -98.027
-20196.965	    15.260	   -88.369	  -114.099
-20300.014	    15.239	   -64.716	   -56.085
-20328.129	    15.357	   -67.864	  -104.109
-20248.676	    15.467	   -71.867	   -74.682
-20026.721	    15.568	   -65.796	   -76.966
-20149.467	    15.473	   -53.253	   -93.282
-20124.428	    15.334	   -66.328	   -77.907
-20445.439	    15.364	   -57.988	   -99.188
-20181.881	    15.495	   -66.767	   -92.407
-20230.023	    15.568	   -40.451	   -86.654
-20249.582	    15.730	   -60.133	   -96.994
-20089.902	    15.755	   -68.472	   -80.693
-19986.232	    15.747	   -74.505	   -92.971
-19861.322	    15.787	   -59.967	   -93.954
-20110.680	    15.753	   -65.989	   -83.315
-19918.691	    15.715	   -53.759	   -73.064
-20092.998	    15.589	   -67.640	  -115.520
-20224.082	    15.509	   -75.910	  -121.861
-20140.180	    15.447	   -69.226	   -97.275
-20270.725	    15.292	   -79.540	  -111.460
-20233.441	    15.235	   -72.256	  -102.805
-20037.023	    15.311	   -65.733	  -102.883
-20414.803	    15.532	   -68.329	  -126.667
-20123.762	    15.687	   -65.407	  -103.012
-19834.031	    15.740	   -71.236	  -121.750
-20114.328	    15.605	   -72.918	  -125.956
-20042.479	    15.392	   -70.179	  -111.292
-20208.604	    15.169	   -89.784	  -130.753
-20224.203	    15.012	   -83.060	  -101.901
-20421.461	    14.973	   -65.571	  -136.112
-20304.020	    15.072	   -71.897	  -118.693
-20404.578	    15.261	   -46.447	  -102.159
-20123.027	    15.547	   -57.641	   -92.203
-19897.336	    15.643	   -60.083	   -96.698
-20317.318	    15.572	   -46.598	  -104.559
-20134.641	    15.432	   -73.887	  -101.580
-20212.604	    15.274	   -71.719	   -77.695
-20577.498	    15.178	   -62.502	   -62.310
-20553.881	    15.257	   -78.322	   -95.507
-20284.723	    15.455	   -61.020	   -94.667
-20261.865	    15.573	   -58.892	  -105.155
-20476.914	    15.604	   -60.802	   -85.370
-20164.193	    15.566	   -69.514	   -73.194
-20201.281	    15.407	   -59.519	   -99.989
-20315.885	    15.179	   -57.139	   -80.829
-20235.316	    15.076	   -47.190	   -92.801
-20340.514	    15.088	   -55.053	  -100.688
-20100.805	    15.189	   -49.941	   -72.848
-19960.693	    15.336	   -59.805	  -104.282
-20411.203	    15.454	   -73.562	   -92.293
-20217.330	    15.635	   -54.138	   -83.649
-20160.848	    15.707	   -66.480	   -93.419
-20047.826	    15.670	   -46.986	   -79.883
-20137.193	    15.575	   -41.031	  -101.997
-20141.197	    15.520	   -69.537	   -80.135
-20082.504	    15.517	   -43.767	   -73.692
-20138.816	    15.370	   -58.307	   -79.825
-19992.812	    15.331	   -56.082	   -99.169
-20171.893	    15.363	   -56.997	   -82.865
-20334.832	    15.380	   -66.448	   -79.948
-20166.213	    15.361	   -58.457	   -68.583
-20137.859	    15.414	   -58.922	  -101.687
-20215.219	    15.559	   -81.137	  -102.183
-20151.406	    15.690	   -65.517	   -93.759
-20353.553	    15.734	   -58.427	   -96.064
-20306.902	    15.654	   -58.899	   -85.216
-20055.418	    15.435	   -52.590	   -77.264
-20066.844	    15.180	   -75.590	   -80.391
-20364.529	    15.001	   -74.244	   -85.478
-20381.359	    15.053	   -70.038	   -86.927
-20123.430	    15.236	   -68.442	  -106.397
-19926.793	    15.492	   -71.848	  -143.026
-20256.092	    15.497	   -74.967	   -93.627
-20312.664	    15.423	   -48.976	   -81.661
-20187.895	    15.461	   -57.788	   -89.488
-20113.049	    15.676	   -87.974	  -106.958
-19807.414	    15.840	   -59.233	  -101.071
-20132.535	    15.828	   -58.866	   -94.464
-19845.947	    15.699	   -44.873	   -79.162
-19879.334	    15.534	   -48.195	   -74.920
-20115.252	    15.440	   -85.104	  -101.401
-20310.322	    15.338	   -70.382	   -77.278
-20164.900	    15.138	   -76.372	   -86.209
-20217.486	    15.032	   -75.048	   -99.590
-20287.977	    15.161	   -58.136	   -92.802
-20174.602	    15.405	   -67.286	   -76.867
-20344.232	    15.512	   -76.094	   -83.599
-20184.979	    15.553	   -64.792	   -76.465
-20176.469	    15.482	   -59.090	   -82.399
-20073.508	    15.349	   -50.374	  -104.559
-19893.814	    15.397	   -63.596	   -99.221
-20212.631	    15.526	   -60.664	  -106.112
-20053.098	    15.649	   -65.115	   -99.841
-20062.240	    15.583	   -74.536	   -79.769
-20221.715	    15.424	   -61.995	   -75.498
-20294.885	    15.356	   -61.767	   -74.989
-19766.674	    15.297	   -74.794	  -104.594
-20300.145	    15.278	   -69.309	   -92.250
-20375.197	    15.356	   -67.605	   -88.823
-20146.838	    15.354	   -78.962	   -97.665
-20233.822	    15.385	   -52.873	  -102.143
-20228.145	    15.409	   -60.707	   -71.042
-20063.518	    15.368	   -55.643	   -77.493
-20161.605	    15.445	   -66.793	  -104.073
-20070.156	    15.567	   -48.268	   -63.112
-20211.156	    15.613	   -61.590	   -84.914
-20075.988	    15.545	   -58.935	   -76.553
-20226.047	    15.572	   -55.395	   -80.528
-20144.402	    15.501	   -51.606	   -74.111
-20590.775	    15.234	   -61.360	   -82.906
-20503.186	    15.167	   -53.132	   -74.508
-20315.061	    15.191	   -55.032	   -73.413
-20225.590	    15.262	   -56.268	   -78.047
-20175.453	    15.384	   -76.176	   -88.758
-20275.838	    15.542	   -73.331	  -102.421
-20254.271	    15.608	   -64.638	   -92.306
-20111.412	    15.593	   -56.075	   -93.291
-20374.582	    15.425	   -84.129	   -89.883
-20140.400	    15.254	   -64.752	  -119.200
-20080.533	    15.328	   -70.942	   -98.199
-20005.998	    15.552	   -57.777	   -76.852
-20093.326	    15.663	   -65.020	   -84.743
-20031.037	    15.670	   -59.858	   -73.248
-20068.998	    15.466	   -66.732	   -94.791
-20019.666	    15.211	   -58.856	   -73.883
-20380.834	    15.095	   -73.235	   -71.274
-20230.146	    15.121	   -73.343	   -78.043
-20148.197	    15.224	   -65.521	   -89.462
-20225.838	    15.111	   -57.349	   -77.353
-20401.326	    15.053	   -67.443	  -102.951
-20379.297	    15.069	   -75.303	   -89.311
-20478.879	    15.226	   -76.820	  -103.707
-20369.307	    15.399	   -72.746	  -117.572
-20104.902	    15.527	   -62.287	   -95.603
-20259.609	    15.471	   -75.689	   -85.950
-20117.855	    15.435	   -61.311	   -99.941
-20186.611	    15.437	   -61.199	   -95.565
-20360.826	    15.507	   -79.630	   -97.275
-20081.137	    15.699	   -73.786	   -80.084
-20255.711	    15.759	   -48.389	   -97.541
-20123.559	    15.676	   -78.772	  -104.710
-20362.068	    15.668	   -75.450	  -115.144
-20405.344	    15.592	   -69.610	  -111.755
-20268.219	    15.437	   -74.427	  -115.860
-20121.393	    15.297	   -40.795	   -93.775
-20260.381	    15.289	   -73.197	  -104.982
-20241.525	    15.250	   -59.026	  -114.120
-20311.467	    15.194	   -60.464	   -68.275
-20070.328	    15.277	   -44.792	   -61.609
-20225.135	    15.334	   -64.803	   -76.771
-20517.859	    15.298	   -64.199	   -82.519
-20063.951	    15.373	   -62.340	   -74.849
-20297.379	    15.511	   -55.707	   -91.192
-20201.766	    15.492	   -47.149	   -66.617
-20110.346	    15.396	   -66.450	   -78.107
-20144.621	    15.385	   -84.213	   -88.546
-19984.225	    15.481	   -70.241	   -75.711
-19982.822	    15.419	   -41.023	   -74.846
-20184.285	    15.360	   -72.061	  -112.127
-20195.656	    15.453	   -58.777	   -96.352
-20210.385	    15.462	   -73.673	  -124.464
-20390.695	    15.297	   -76.065	   -88.581
-20232.355	    15.048	   -72.808	  -112.867
-20363.193	    14.973	   -64.919	  -125.494
-20309.811	    15.091	   -76.624	  -113.323
-20163.480	    15.299	   -71.003	   -98.030
-20158.664	    15.495	   -63.938	   -59.727
-19830.875	    15.629	   -58.703	   -73.343
-19961.141	    15.678	   -49.891	   -69.512
-19865.777	    15.593	   -56.501	   -73.519
-20051.326	    15.556	   -47.577	   -63.552
-20279.557	    15.473	   -68.409	   -72.369
-20047.459	    15.515	   -63.036	   -80.408
-19818.920	    15.637	   -82.515	   -76.218
-19917.775	    15.666	   -79.310	   -93.967
-19875.254	    15.602	   -46.846	   -84.909
-20087.805	    15.450	   -61.436	   -76.481
-20368.508	    15.319	   -69.951	   -94.897
-20176.992	    15.305	   -77.746	   -78.333
-20183.865	    15.460	   -46.867	   -82.317
-19784.375	    15.623	   -77.192	   -85.581
-20146.689	    15.581	   -46.960	   -73.742
-20148.205	    15.473	   -52.187	   -72.462
-20272.990	    15.377	   -58.791	   -62.842
-19964.020	    15.303	   -47.525	   -91.574
-20118.914	    15.324	   -58.187	   -65.914
-20185.693	    15.410	   -68.666	   -70.151
-20129.234	    15.390	   -49.330	   -69.713
-20187.230	    15.271	   -52.546	   -65.240
-20264.441	    15.183	   -60.663	   -77.460
-20466.723	    15.154	   -61.583	   -96.270
-20233.213	    15.387	   -69.871	  -128.073
-20120.572	    15.612	   -71.641	   -73.108
-20206.957	    15.745	   -71.034	  -101.534
-20149.484	    15.685	   -56.836	   -85.318
-20141.918	    15.551	   -57.873	   -73.549
-20103.912	    15.440	   -58.078	   -85.703
-20075.068	    15.536	   -59.722	   -70.378
-20109.268	    15.603	   -65.796	   -65.065
-20168.258	    15.430	   -57.697	   -68.717
-20319.004	    15.226	   -56.054	   -58.566
-20133.082	    15.317	   -69.253	  -107.484
-20094.520	    15.471	   -75.047	   -94.003
-20017.605	    15.509	   -72.775	   -97.589
-20089.961	    15.439	   -71.351	   -92.200
-20187.086	    15.439	   -49.276	   -85.514
-20166.289	    15.369	   -61.119	   -89.059
-20104.270	    15.411	   -69.649	   -61.863
-19813.029	    15.613	   -69.226	   -89.247
-19980.936	    15.721	   -62.159	   -89.943
-20019.023	    15.696	   -64.215	  -100.952
-19855.221	    15.679	   -58.090	   -84.124
-19878.963	    15.474	   -68.063	   -68.186
-20174.051	    15.215	   -64.069	   -62.387
-20397.730	    15.040	   -50.115	   -68.163
