-19833.965	    15.334	   -92.310	   122.143
-20022.193	    15.389	   178.381	  -103.844
-20064.557	    15.428	   172.306	  -124.217
-20249.584	    15.399	  -171.340	  -118.445
-20003.529	    15.458	  -174.433	  -108.868
-19714.684	    15.532	   172.186	  -125.323
-20081.564	    15.503	  -159.132	  -108.018
-20058.096	    15.448	   172.543	  -117.846
-19994.328	    15.359	   176.659	  -157.051
-19952.047	    15.319	   173.846	  -157.247
-20114.299	    15.343	   176.777	  -171.155
-19991.184	    15.464	  -179.519	  -143.375
-20138.865	    15.427	  -171.331	  -173.160
-20108.041	    15.337	  -176.993	  -108.565
-20325.135	    15.230	  -179.544	   -81.483
-20191.105	    15.264	  -177.272	  -114.734
-20072.629	    15.438	   150.357	  -105.774
-20198.844	    15.551	  -173.651	  -117.306
-20278.521	    15.571	  -165.573	  -141.689
-19933.809	    15.599	  -167.452	  -115.641
-19923.646	    15.551	  -174.240	  -107.147
-20046.947	    15.507	   164.104	   -74.691
-20105.576	    15.429	  -172.659	   -88.365
-20231.506	    15.390	  -163.431	   -80.964
-20030.762	    15.402	  -178.642	  -111.522
-20185.881	    15.416	  -171.315	  -105.694
-19976.402	    15.676	   161.281	   -54.467
-19958.809	    15.877	  -179.963	   -82.718
-20008.789	    15.829	  -178.970	   -85.230
-19888.711	    15.642	   176.009	  -111.445
-19887.764	    15.331	   179.057	  -100.483
-20056.625	    15.081	   169.691	   -96.016
-20104.574	    15.048	  -166.499	  -121.850
-20362.896	    15.098	  -175.267	  -130.137
-20221.006	    15.253	  -172.939	   -81.546
-20256.383	    15.483	   173.854	  -126.308
-20331.865	    15.570	   179.593	  -116.095
-20320.133	    15.504	  -169.427	  -128.650
-20108.490	    15.348	   172.342	  -106.112
-20108.262	    15.358	  -173.515	   -86.347
-20132.797	    15.542	   176.276	   -86.572
-19924.436	    15.732	  -173.807	  -103.383
-20014.430	    15.736	   175.754	  -111.598
-20179.238	    15.575	   175.785	  -120.126
-20013.096	    15.320	   178.527	  -142.305
-20271.609	    15.034	   172.812	  -108.557
-20251.213	    14.925	  -179.990	  -130.780
-20028.158	    15.026	  -171.235	  -144.414
-20039.984	    15.197	  -157.801	  -125.232
-19925.285	    15.301	   171.711	   -90.039
-20310.385	    15.314	   174.505	   -95.719
-20174.754	    15.393	   152.407	  -115.904
-20261.596	    15.514	  -167.244	  -118.816
-19969.014	    15.520	   169.206	  -106.042
-20186.113	    15.421	  -162.548	   -87.032
-20236.795	    15.357	  -166.052	  -125.373
-20249.805	    15.496	  -174.892	  -144.041
-20255.898	    15.718	  -162.153	  -158.299
-19932.518	    15.933	   174.936	  -132.220
-19990.076	    15.920	  -156.184	  -166.480
-19965.348	    15.742	  -168.892	  -138.046
-20311.236	    15.474	  -174.405	  -126.800
-20326.852	    15.287	  -170.379	  -140.897
-20085.510	    15.353	   175.557	  -120.856
-20142.984	    15.398	   173.181	  -121.128
-19993.953	    15.410	   178.215	  -161.256
-20237.027	    15.451	   177.275	  -128.413
-20037.416	    15.535	   157.443	   -94.864
-20181.285	    15.519	   178.695	   -87.125
-20147.908	    15.515	  -174.194	   -92.565
-20050.906	    15.467	  -177.651	   -84.325
-20173.936	    15.386	   162.759	   -89.978
-20128.695	    15.480	  -171.681	   -94.700
-20266.469	    15.536	   169.840	   -91.714
-20130.035	    15.473	   177.721	   -73.559
-20355.490	    15.487	  -171.520	   -91.977
-20063.482	    15.537	   179.260	   -71.899
-19994.152	    15.530	  -164.591	   -97.477
-20082.043	    15.439	  -166.585	  -136.291
-20093.410	    15.382	   174.890	  -143.289
-20296.209	    15.320	  -166.833	   -62.824
-20019.414	    15.298	   173.514	   -90.742
-20303.064	    15.319	   157.185	  -109.403
-20187.051	    15.277	   158.522	  -114.781
-19816.689	    15.309	   179.377	   -80.890
-20195.395	    15.363	   176.678	   -71.863
-20272.861	    15.479	   179.258	   -77.233
-20201.764	    15.502	  -175.087	  -102.680
-20037.469	    15.518	   171.251	  -100.836
-20218.123	    15.495	   171.959	  -103.310
-20221.531	    15.425	  -174.867	   -92.317
-20131.201	    15.429	  -178.015	  -114.526
-20121.621	    15.411	   179.034	   -97.608
-20208.385	    15.394	   173.168	   -97.717
-20102.350	    15.266	  -168.179	  -112.905
-20404.023	    15.177	   176.686	  -124.824
-20321.408	    15.247	   158.645	  -104.855
-19926.098	    15.393	   169.875	  -103.948
-20424.646	    15.415	  -173.983	  -103.655
-20208.686	    15.420	  -176.188	  -101.044
-20409.957	    15.424	  -173.391	  -133.731
-20284.807	    15.442	  -172.151	   -97.097
-20044.639	    15.519	  -158.235	  -117.353
-20102.697	    15.514	  -176.042	  -117.142
-19905.260	    15.603	  -177.490	  -112.313
-20285.205	    15.677	   178.853	  -110.433
-20056.340	    15.657	  -166.529	  -104.607
-20152.762	    15.483	  -167.015	   -94.237
-20117.650	    15.213	   177.664	  -105.417
-20386.098	    14.835	   170.087	   -70.270
-20278.680	    14.809	  -179.332	   -71.729
-20051.217	    15.144	   168.252	  -113.899
-19907.377	    15.588	   177.152	  -115.785
-19688.145	    15.904	   162.587	  -116.060
-19889.020	    15.965	  -173.747	  -112.547
-19931.223	    15.764	   179.202	  -111.106
-20260.141	    15.541	   179.181	  -109.885
-20113.131	    15.360	   174.228	  -126.939
-20283.049	    15.244	  -166.576	  -117.866
-20245.330	    15.151	   172.574	  -127.136
-20098.232	    15.191	  -167.657	   -86.279
-20088.939	    15.293	   171.012	   -76.712
-20129.775	    15.421	   178.220	   -79.638
-19839.131	    15.540	  -175.463	   -82.719
-20170.125	    15.360	   164.576	   -87.231
-20594.410	    15.139	  -177.220	   -87.585
-20343.285	    15.152	   138.684	  -109.705
-20186.934	    15.335	   179.484	  -105.500
-20011.730	    15.446	  -176.352	  -138.499
-20002.531	    15.464	  -170.924	  -130.410
-20186.438	    15.408	  -169.361	  -124.236
-20177.967	    15.516	  -171.914	  -125.495
-20114.848	    15.597	  -170.529	  -118.195
-19845.316	    15.680	   175.250	  -126.568
-20109.883	    15.659	  -174.937	  -128.031
-20045.441	    15.579	  -170.926	   -99.242
-20366.604	    15.547	   172.475	  -117.065
-20082.900	    15.554	  -163.196	   -87.209
-20200.660	    15.413	   169.756	  -105.988
-20324.416	    15.254	  -177.952	   -85.647
-20301.477	    15.133	   178.869	   -80.661
-20193.543	    15.229	   175.288	   -81.105
-19918.002	    15.410	   176.965	   -83.952
-19978.766	    15.554	  -176.671	  -104.335
-20087.797	    15.747	   176.562	  -102.528
-20130.578	    15.873	   176.579	   -83.530
-20072.730	    15.704	  -179.050	   -86.667
-20038.131	    15.456	  -176.156	   -93.156
-19964.709	    15.339	   170.526	   -70.522
-20118.178	    15.341	  -179.468	  -116.033
-20012.111	    15.441	  -177.516	  -100.830
-20143.412	    15.629	   172.647	  -110.754
-20255.713	    15.787	  -177.410	   -75.376
-19965.494	    15.846	   176.872	   -66.566
-19966.760	    15.738	   163.407	   -88.133
-20209.338	    15.503	   158.195	  -121.432
-20141.176	    15.277	   175.231	   -71.871
-20170.066	    15.228	   168.585	   -89.480
-20211.506	    15.140	   165.616	   -81.066
-20374.068	    15.171	   174.901	   -73.418
-20244.742	    15.345	  -177.771	  -121.391
-20391.402	    15.508	  -163.063	  -115.994
-20102.902	    15.632	   179.633	  -111.968
-19972.811	    15.678	  -172.206	   -88.493
-20122.236	    15.726	  -171.126	  -138.444
-20020.754	    15.652	  -179.244	  -160.738
-20136.131	    15.541	  -176.437	  -137.803
-20084.688	    15.398	   177.591	  -122.639
-20112.656	    15.277	  -172.623	  -115.313
-20301.756	    15.406	  -174.977	  -122.085
-20235.555	    15.465	  -170.235	   -89.513
-19834.260	    15.425	   176.809	  -110.973
-20092.600	    15.279	  -175.114	   -97.997
-20259.586	    15.228	  -168.925	  -115.108
-20236.873	    15.293	  -167.221	  -108.138
-20082.512	    15.434	  -165.563	  -129.526
-20188.879	    15.546	   177.265	  -132.080
-20194.379	    15.642	   169.991	  -117.224
-20114.047	    15.607	   176.750	  -134.713
-20283.359	    15.535	  -178.411	  -109.393
-20156.213	    15.566	   174.955	   -99.856
-20173.002	    15.582	   171.672	  -105.783
-20048.379	    15.589	  -175.902	   -88.089
-20112.797	    15.698	   177.680	   -91.532
-20226.770	    15.689	  -176.192	   -92.678
-20214.223	    15.554	   177.984	   -69.547
-20381.395	    15.310	   179.021	   -90.472
-20163.555	    15.132	   179.119	  -124.688
-20383.145	    15.046	  -178.193	   -71.922
-20018.551	    15.121	   174.058	   -99.012
-20165.391	    15.433	  -177.576	  -105.882
-20024.777	    15.825	   178.679	   -91.111
-20006.537	    15.985	   172.906	   -89.044
-20036.996	    15.881	  -177.165	   -94.452
-20090.072	    15.638	   178.400	  -137.957
-20112.691	    15.559	  -169.402	  -111.046
-19961.635	    15.551	  -169.683	  -144.074
-20006.232	    15.471	  -173.235	  -142.217
-20055.176	    15.339	  -165.519	  -134.164
-20193.502	    15.268	   168.034	  -110.740
-20290.701	    15.343	  -165.793	  -125.758
-19976.842	    15.560	   176.542	  -150.310
-20133.000	    15.718	  -178.469	  -102.662
-20021.021	    15.713	  -174.252	  -122.739
-19994.414	    15.609	   177.494	  -115.051
-20231.746	    15.418	  -165.758	  -101.547
-19996.740	    15.192	  -172.062	  -116.044
-20507.547	    15.144	  -161.403	  -113.897
-20470.256	    15.236	   170.815	   -89.575
-20209.553	    15.487	   177.094	   -74.486
-19964.729	    15.713	  -168.279	  -102.645
-20151.412	    15.755	   176.600	  -111.876
-20020.908	    15.671	  -163.828	   -92.066
-20405.096	    15.569	  -173.119	   -94.546
-20151.080	    15.454	   167.009	   -86.866
-20118.289	    15.353	  -178.963	  -107.104
-20205.266	    15.319	  -178.228	   -89.582
-20145.453	    15.318	  -165.562	   -77.682
-20028.020	    15.469	  -168.719	   -79.896
-20081.943	    15.631	  -166.220	   -95.085
-20063.205	    15.625	   178.675	   -77.071
-19918.701	    15.665	  -173.566	  -157.742
-20004.064	    15.655	  -164.880	   -85.814
-20049.650	    15.515	   171.368	   -84.010
-19916.957	    15.336	  -170.934	  -107.614
-20194.982	    15.261	  -169.238	  -133.454
-20333.674	    15.190	  -166.836	   -91.539
-19914.947	    15.217	  -159.584	  -120.068
-19954.395	    15.348	  -174.449	  -100.900
-20095.414	    15.348	  -176.956	  -102.838
-20097.889	    15.348	   173.397	  -121.517
-20329.391	    15.377	  -157.167	  -101.882
-20251.805	    15.384	  -173.509	  -117.319
-20158.205	    15.280	  -167.239	  -140.922
-20180.281	    15.174	   176.886	  -140.239
-20139.941	    15.133	   170.293	  -130.410
-20286.902	    15.196	  -170.973	  -137.245
-20157.703	    15.338	   176.633	  -118.986
-20195.232	    15.493	  -178.670	  -133.366
-20100.607	    15.689	  -171.315	  -117.506
-19853.693	    15.812	  -177.317	  -130.420
-19964.664	    15.769	   170.570	  -103.433
-20229.344	    15.500	  -162.959	  -123.417
-20094.279	    15.190	   170.320	  -146.708
-20251.527	    14.934	  -168.393	  -112.673
-20443.414	    15.018	   177.418	   -53.741
-20260.840	    15.254	  -160.886	   -95.890
-20081.725	    15.412	  -177.216	  -131.626
-20122.039	    15.513	  -176.969	  -111.285
-19686.391	    15.658	   173.308	  -128.037
-19799.010	    15.633	  -178.236	   -97.374
-20207.113	    15.520	  -179.169	  -125.436
-20398.832	    15.299	  -174.476	  -122.607
-20050.008	    15.124	  -173.178	   -87.570
-19998.883	    15.185	  -179.897	  -126.653
-20058.449	    15.532	   179.315	  -128.924
-20173.504	    15.855	  -164.433	  -106.555
-20191.160	    15.910	  -162.267	  -106.762
-20139.230	    15.808	  -170.939	  -141.928
-20204.467	    15.539	  -164.801	  -132.882
-20065.426	    15.309	  -174.052	   -81.225
-20264.238	    15.242	  -175.036	  -129.956
-19955.230	    15.373	  -179.956	  -128.104
-20092.490	    15.679	  -167.596	  -106.235
-20130.535	    15.933	  -175.266	   -84.857
-19929.027	    15.939	   160.845	  -103.571
-19815.979	    15.693	   170.739	  -143.863
-20141.396	    15.291	   177.409	   -97.145
-20373.330	    15.049	  -171.710	  -100.905
-20237.215	    15.118	  -173.838	  -116.880
-20168.520	    15.253	  -169.524	  -117.990
-20307.572	    15.348	  -176.125	  -120.199
-20065.090	    15.422	   179.515	  -124.998
-19971.061	    15.451	   172.268	   -82.174
-20119.043	    15.421	   174.156	   -98.498
-20388.957	    15.360	   166.545	   -85.881
-20135.426	    15.297	   157.640	   -89.906
-20193.334	    15.260	   173.106	   -85.022
-20542.426	    15.367	   169.403	  -105.262
-20197.914	    15.528	   174.313	   -80.239
-20290.352	    15.605	   176.841	   -69.359
-20185.551	    15.519	   175.058	  -117.004
-20191.330	    15.380	   179.154	  -106.912
-20143.861	    15.209	  -179.235	  -104.873
-20054.318	    15.188	  -173.235	  -121.665
-20018.414	    15.349	   174.940	  -112.697
-20157.273	    15.516	   162.734	  -111.271
-20432.715	    15.644	   177.958	   -76.436
-20142.021	    15.780	  -175.364	   -90.365
-20039.820	    15.735	   172.671	   -85.155
-20010.723	    15.717	  -162.582	  -115.684
-19900.043	    15.669	  -167.110	  -110.078
-19812.877	    15.571	  -150.432	  -109.128
-20073.799	    15.361	  -158.993	   -74.862
-20521.963	    15.123	  -164.419	  -104.409
-20259.373	    15.127	   177.615	   -75.330
-19996.963	    15.164	  -179.924	   -95.612
-20379.570	    15.345	  -175.213	   -93.797
-19908.793	    15.601	  -170.719	  -118.684
-20264.176	    15.744	  -165.918	  -108.627
-20002.908	    15.719	   162.947	   -92.239
-20067.369	    15.741	  -173.816	  -106.345
-20008.004	    15.740	  -171.693	  -152.222
-20286.906	    15.608	  -179.880	  -127.332
-19964.783	    15.439	  -174.716	  -101.901
-20005.596	    15.314	   178.234	  -100.573
-20202.643	    15.274	   159.195	  -104.934
-20189.889	    15.319	   176.596	   -66.125
-20270.674	    15.283	   164.945	   -80.504
-20043.000	    15.174	  -179.752	   -71.727
-20135.682	    15.117	  -174.864	   -90.915
-20081.691	    15.228	  -176.994	   -99.599
-20153.689	    15.437	  -175.052	   -89.412
-20210.834	    15.610	  -172.595	  -108.759
-20155.266	    15.600	  -173.689	  -129.412
-20099.184	    15.354	  -169.071	  -110.685
-20160.072	    15.178	   167.108	  -127.560
-20275.998	    15.309	  -170.277	   -99.025
-20084.004	    15.604	   176.144	   -97.032
-20053.676	    15.807	   169.530	   -81.478
-19910.584	    15.758	   169.016	   -90.351
-19953.590	    15.519	  -173.117	  -114.851
-20127.824	    15.251	   175.915	  -125.869
-20068.438	    15.137	   178.832	  -103.959
-20085.371	    15.171	  -175.580	  -108.596
-19993.223	    15.494	   177.731	  -134.911
-20120.664	    15.812	   179.687	  -130.369
-20048.613	    15.950	  -163.706	  -126.220
-20027.943	    15.921	   169.624	  -106.392
-20162.922	    15.805	  -171.660	   -89.674
-20108.029	    15.554	   160.477	   -98.235
-20271.984	    15.271	  -168.570	   -77.791
-20249.338	    15.110	  -175.888	   -80.981
-20285.080	    15.144	  -173.492	   -98.996
-20172.910	    15.313	   173.340	  -134.814
-20109.611	    15.425	  -177.972	  -120.189
-19885.576	    15.498	  -178.104	   -87.470
-20286.818	    15.569	  -179.303	  -100.333
-20021.113	    15.628	  -177.023	  -113.315
-20072.016	    15.681	   168.917	  -164.440
-20512.807	    15.525	  -177.052	  -119.742
-20070.406	    15.388	  -177.719	   -79.294
-20045.410	    15.272	  -158.004	   -76.871
-20088.562	    15.186	  -176.481	   -76.108
-20118.949	    15.237	  -160.470	   -87.478
-20005.666	    15.380	   168.492	   -80.553
-20075.025	    15.402	   172.180	   -98.628
-20156.811	    15.450	  -160.789	  -100.784
-20189.766	    15.561	   166.672	  -145.518
-20458.422	    15.699	  -176.400	  -114.130
-20059.295	    15.764	  -166.655	   -90.665
-19757.324	    15.705	  -177.893	  -150.700
-20313.615	    15.479	   168.849	  -132.621
-20140.121	    15.300	  -174.095	  -151.877
-20227.137	    15.178	   175.557	  -145.130
-19970.334	    15.127	  -178.768	  -150.705
-20230.533	    15.346	  -177.732	   -88.871
-20161.758	    15.625	  -175.479	  -104.810
-20004.707	    15.930	   175.065	  -130.085
-20093.506	    16.120	  -179.845	  -126.717
-19938.121	    15.990	  -164.547	  -130.130
-20229.455	    15.630	  -165.992	  -121.180
-20081.596	    15.203	  -169.636	  -134.760
-20280.568	    15.087	   179.222	  -119.595
-20160.955	    15.229	  -176.453	  -122.380
-20089.752	    15.388	  -164.928	  -150.681
-19961.529	    15.604	  -164.727	  -105.222
-19976.510	    15.712	  -173.522	  -118.092
-20053.018	    15.678	   176.691	   -88.087
-20057.486	    15.554	  -176.797	   -90.379
-19924.650	    15.422	  -171.488	   -87.267
-19917.791	    15.292	   173.420	   -96.914
-20047.553	    15.280	   173.648	   -82.869
-20315.629	    15.322	   177.799	   -75.088
-20204.193	    15.405	  -174.004	   -89.071
-19954.357	    15.509	  -170.507	   -89.700
-20335.994	    15.497	  -170.154	   -97.358
-19971.664	    15.528	   173.924	   -80.183
-19884.461	    15.681	  -179.435	   -90.629
-19983.957	    15.730	   173.670	  -100.576
-20139.729	    15.741	   170.741	   -80.779
-20170.664	    15.662	  -164.754	  -121.112
-19715.537	    15.567	   165.435	   -93.480
-20053.479	    15.299	  -175.024	  -110.299
-20344.742	    15.089	  -165.852	  -108.844
-20428.469	    15.034	  -175.383	   -93.064
-20203.469	    15.111	  -178.308	   -91.118
-20127.811	    15.387	  -174.749	  -118.908
-20258.361	    15.612	  -176.251	  -101.895
-20110.398	    15.681	   178.622	  -143.003
-20244.143	    15.530	  -171.297	  -134.877
-20211.857	    15.318	  -177.452	  -120.549
-19973.199	    15.342	  -175.736	  -112.471
-20192.518	    15.343	  -169.507	  -111.173
-20131.600	    15.401	  -171.739	   -72.885
-20219.600	    15.519	  -155.321	  -106.517
-20367.547	    15.534	  -176.443	   -94.927
-19953.146	    15.512	   178.180	  -102.149
-20106.713	    15.430	   173.873	  -108.628
-20017.797	    15.336	  -175.485	   -96.162
-19910.004	    15.174	  -165.830	  -104.217
-20141.477	    15.208	  -175.679	   -93.427
-20089.885	    15.360	  -174.646	   -84.837
-19918.852	    15.601	  -177.256	   -84.461
-20040.975	    15.808	   169.565	  -142.804
-19903.965	    15.923	  -170.586	  -100.053
-20108.264	    15.795	   175.633	  -135.691
-20095.900	    15.570	  -178.199	  -142.139
-20220.828	    15.293	  -171.913	  -107.842
-20100.271	    15.188	  -166.866	   -92.713
-20073.033	    15.271	  -172.371	  -102.410
-20274.697	    15.371	  -175.259	   -91.143
-20125.594	    15.466	  -169.609	   -97.777
-20336.863	    15.401	  -167.116	  -108.511
-19982.373	    15.232	  -171.831	   -95.785
-20193.412	    15.092	   165.126	   -94.049
-20315.473	    15.156	  -172.848	   -98.485
-20213.426	    15.408	  -165.641	   -98.476
-20250.041	    15.517	   179.757	   -77.831
-20371.139	    15.475	   173.744	  -101.356
-20187.109	    15.391	  -175.124	   -77.984
-20042.584	    15.348	   173.689	   -93.390
-20172.127	    15.335	  -177.222	   -87.484
-20211.494	    15.268	  -178.890	   -86.650
-20305.812	    15.199	   177.567	   -88.373
-20300.873	    15.293	  -175.642	   -98.792
-20125.855	    15.387	   173.728	   -77.681
-20149.137	    15.529	  -170.739	   -97.703
-20202.719	    15.669	   177.270	   -91.407
-20106.219	    15.642	  -179.049	  -118.391
-20088.742	    15.531	   170.907	  -105.829
-20223.402	    15.324	  -172.028	   -95.518
-20364.412	    15.135	   178.118	  -107.026
-20329.088	    15.110	  -166.861	  -142.104
-20322.463	    15.241	  -174.713	  -105.003
-20176.201	    15.379	  -178.879	  -118.157
-20243.686	    15.486	   178.681	   -74.977
-20219.820	    15.587	   176.384	   -74.489
-19950.871	    15.737	  -172.958	   -64.804
-19874.334	    15.837	  -177.413	   -90.066
-20083.637	    15.762	  -179.493	   -79.575
-20168.719	    15.666	  -173.994	  -103.351
-19920.156	    15.581	   179.059	  -104.380
-20065.686	    15.499	  -179.619	  -107.237
-20104.393	    15.478	  -175.290	  -153.491
-20216.127	    15.525	   176.599	  -128.528
-20354.736	    15.520	  -156.586	  -113.448
-20132.475	    15.426	   164.174	  -140.391
-20237.350	    15.340	   165.834	  -139.723
-20107.607	    15.312	  -172.704	  -151.159
-20147.480	    15.312	  -170.908	  -132.770
-20224.109	    15.295	  -176.092	  -111.397
-20087.377	    15.229	   179.274	  -109.726
-20317.600	    15.228	  -170.568	  -115.755
-20299.166	    15.301	   176.067	  -132.553
-20255.193	    15.465	   165.163	   -96.415
-20228.615	    15.675	  -171.704	   -78.040
-19895.006	    15.692	   173.790	  -112.283
-20079.801	    15.512	   166.809	   -91.034
-20209.568	    15.305	  -166.121	   -82.193
-20063.477	    15.162	  -176.519	  -110.158
-20288.916	    15.168	   179.827	  -119.237
-20246.916	    15.318	  -168.441	  -115.525
-20150.012	    15.531	   178.326	   -98.718
-19875.641	    15.703	   179.179	   -92.065
-20100.732	    15.779	  -173.943	   -89.073
-20221.141	    15.639	   175.100	  -131.814
-20062.965	    15.393	  -179.282	  -109.847
-20192.037	    15.289	   179.180	  -136.331
-20373.188	    15.217	  -173.690	  -128.024
-20457.715	    15.314	  -169.527	  -132.197
-20222.324	    15.470	   172.875	  -118.797
-20288.789	    15.694	  -175.819	   -86.089
-20094.639	    15.929	  -177.260	  -119.100
-20225.705	    15.803	   169.891	   -74.513
-20035.945	    15.549	   172.334	   -84.033
-20219.121	    15.271	  -178.717	  -113.771
-20142.832	    15.094	  -165.459	   -96.011
-20289.691	    15.056	   178.728	   -98.709
-20379.549	    15.135	   179.342	   -93.054
-20444.102	    15.338	   169.104	  -103.907
-20193.883	    15.548	   164.471	  -103.886
-20260.449	    15.604	   175.268	  -136.993
-20245.555	    15.502	  -175.477	  -107.582
-20089.480	    15.391	   166.443	   -80.655
-20062.439	    15.363	   178.079	   -92.895
-20175.291	    15.364	   174.233	  -109.088
-19937.586	    15.381	  -174.619	   -80.750
-20263.846	    15.223	  -173.828	   -87.685
-20193.822	    15.016	   178.145	  -102.437
-20173.619	    14.942	  -175.832	   -81.337
-20371.221	    15.045	   155.323	  -106.260
-20036.773	    15.256	  -166.679	   -74.676
-20103.879	    15.546	   176.158	  -104.538
-20123.238	    15.636	   169.275	  -100.768
-20076.506	    15.543	  -163.263	  -131.650
-20068.898	    15.451	  -179.905	  -126.927
-20213.092	    15.364	   173.433	   -96.071
-20202.719	    15.242	  -172.497	  -123.125
-20056.855	    15.319	  -176.640	   -93.445
-19999.686	    15.397	   176.379	  -114.712
-20134.479	    15.460	  -176.164	  -124.194
-19966.158	    15.452	  -176.482	  -117.381
-20070.180	    15.453	   167.704	   -79.435
-20290.570	    15.383	  -167.297	  -102.227
-20103.129	    15.253	  -178.967	  -132.292
-20303.977	    15.034	  -174.374	   -68.019
-20312.566	    14.990	  -172.723	   -82.285
-20150.785	    15.265	   179.211	   -86.392
-19889.336	    15.595	   173.526	  -133.716
-19996.062	    15.801	   175.810	   -93.037
-20045.121	    15.832	  -177.187	   -84.703
-20390.367	    15.586	  -161.197	   -93.990
-20189.307	    15.219	  -165.817	  -121.719
-19971.570	    15.033	  -174.378	  -113.441
-20022.066	    15.035	  -172.479	  -126.290
-19805.695	    15.151	  -176.801	  -118.851
-20179.287	    15.248	  -166.135	  -119.022
-20198.754	    15.330	   170.533	  -140.133
-20027.305	    15.461	   178.304	  -138.401
-20277.809	    15.525	  -170.764	  -153.886
-19892.713	    15.623	   179.694	  -103.492
-20145.047	    15.840	   177.299	   -94.225
-19954.904	    15.977	   155.519	   -86.815
-20153.113	    15.991	  -173.688	   -76.343
-20165.732	    15.908	  -177.481	   -73.646
-19631.660	    15.602	  -173.745	   -83.115
-20170.848	    15.174	   166.427	  -108.328
-20138.316	    14.985	   174.526	  -108.996
-20147.793	    15.074	  -176.832	   -91.919
-20193.607	    15.398	   177.123	  -117.651
-20166.150	    15.702	   174.418	   -92.028
-20032.434	    15.772	  -179.324	  -119.764
-20210.740	    15.590	  -159.003	  -120.224
-20568.945	    15.312	  -165.017	  -109.215
-20251.594	    15.141	  -174.409	  -103.266
-20187.443	    15.160	  -168.843	  -126.388
-20075.232	    15.371	   171.495	  -102.091
-20044.572	    15.559	  -174.544	  -130.463
-20139.990	    15.635	  -175.580	  -140.582
-19877.475	    15.572	   175.037	  -131.665
-20114.752	    15.493	   169.735	  -125.699
-20311.410	    15.468	   170.900	  -116.151
-20147.268	    15.455	  -172.387	   -87.540
-20150.561	    15.515	  -177.145	   -91.324
-20018.635	    15.594	   166.210	   -98.425
-20047.418	    15.631	  -178.432	   -84.811
-20088.316	    15.665	  -175.796	   -78.154
-20149.373	    15.555	  -177.962	   -61.757
-20029.672	    15.361	  -170.346	   -83.412
-20258.404	    15.289	  -173.343	   -91.816
-20193.188	    15.248	  -177.541	   -99.638
-19997.057	    15.298	  -167.500	   -98.996
-20081.969	    15.460	  -175.353	   -65.442
-20157.105	    15.538	  -176.961	   -73.825
-20134.678	    15.460	   175.990	   -85.758
-20186.502	    15.239	  -167.629	   -86.843
-20302.621	    15.082	  -160.904	   -79.454
-20422.287	    15.097	   169.197	  -104.330
-20255.426	    15.230	  -169.451	   -93.546
-20394.717	    15.378	  -164.385	  -102.253
-20110.930	    15.469	  -162.346	  -104.602
-20225.646	    15.467	  -168.860	  -132.845
-19916.795	    15.440	  -179.915	   -69.744
-20039.131	    15.433	  -175.697	   -80.148
-20358.299	    15.549	  -173.575	   -80.128
-20139.092	    15.649	  -174.000	  -101.011
-20056.043	    15.558	  -175.689	  -107.127
-20325.232	    15.540	   173.932	   -72.626
-20188.525	    15.575	  -179.627	  -119.846
-20210.906	    15.477	   157.201	   -98.576
-20089.365	    15.349	   158.690	   -62.531
-20245.951	    15.261	   179.872	   -81.184
-19937.516	    15.328	   174.406	   -78.442
-20240.172	    15.450	  -171.200	   -96.116
-20283.943	    15.586	  -167.199	  -140.770
-20039.799	    15.729	  -173.529	  -142.549
-20082.406	    15.766	  -176.982	  -121.670
-20125.254	    15.667	  -163.494	  -105.100
-19983.664	    15.456	  -166.099	  -115.964
-20289.480	    15.202	  -176.365	  -127.141
-20499.299	    15.099	  -179.824	   -96.714
-20096.348	    15.423	   166.463	   -97.113
-20030.670	    15.811	   169.376	  -142.679
-20021.525	    15.931	   178.385	  -106.532
-19994.424	    15.856	   170.413	  -145.803
-20381.303	    15.431	   177.771	  -102.484
-20423.057	    15.230	  -174.289	   -71.042
-20201.168	    15.313	  -173.662	   -93.728
-20160.855	    15.520	  -172.235	  -110.835
-19999.387	    15.695	  -165.840	   -90.672
-19965.518	    15.737	  -171.269	   -88.157
-20153.203	    15.592	   177.594	  -109.164
-19904.336	    15.426	  -175.096	   -91.982
-19951.111	    15.259	  -172.002	   -78.791
-20184.611	    15.157	  -179.958	  -103.938
-20318.689	    15.087	  -175.240	  -113.402
-20016.680	    15.158	  -165.735	   -87.507
-20249.377	    15.225	  -173.115	   -90.279
-20111.180	    15.250	   178.225	  -102.414
-19890.588	    15.387	  -173.773	   -99.725
-20167.160	    15.476	  -172.538	   -94.207
-20323.758	    15.447	   172.494	  -105.204
-20109.998	    15.407	  -167.616	   -99.778
-20204.184	    15.352	  -177.786	   -92.760
-20260.436	    15.342	   177.717	   -90.914
-20056.727	    15.412	  -160.885	  -105.243
-19962.922	    15.464	  -177.612	  -120.377
-19999.455	    15.341	  -175.851	   -93.106
-20098.852	    15.172	  -169.207	  -128.434
-20011.311	    15.101	  -170.053	   -98.166
-20168.822	    15.102	  -168.038	  -123.754
-20276.092	    15.162	  -175.902	   -99.659
-20394.203	    15.350	  -168.719	   -96.044
-20108.459	    15.448	  -176.525	   -83.978
-20158.906	    15.440	   174.652	   -67.577
-20054.758	    15.554	  -176.991	  -132.530
-20115.135	    15.520	  -171.599	  -116.612
-20283.729	    15.532	   169.692	  -100.889
-20047.930	    15.469	   151.212	   -97.315
-19975.354	    15.279	  -165.135	  -106.002
-20105.465	    15.170	  -175.396	  -128.684
-20135.992	    15.209	  -169.780	   -98.249
-20094.541	    15.372	  -171.472	   -84.991
-20215.229	    15.520	  -176.112	   -75.418
-20076.609	    15.639	  -159.180	  -131.180
-20246.527	    15.568	  -179.787	  -131.842
-20011.025	    15.397	  -160.595	  -145.671
-20204.855	    15.224	   169.837	  -127.376
-20279.160	    15.140	   177.587	  -128.597
-20132.025	    15.180	  -177.720	  -120.537
-20230.580	    15.274	  -179.269	  -110.416
-20195.264	    15.427	  -177.900	  -104.572
-19982.020	    15.541	   175.927	   -96.599
-20200.348	    15.558	   175.850	   -95.915
-20012.568	    15.440	  -177.740	   -87.980
-20268.076	    15.316	  -174.638	  -107.240
-20130.008	    15.229	  -165.495	  -107.321
-20195.900	    15.186	  -161.362	  -101.828
-20214.381	    15.127	  -168.152	  -105.763
-20114.529	    15.119	   175.589	   -78.825
-19937.445	    15.244	  -175.071	  -100.713
-20175.826	    15.368	  -179.851	  -108.517
-19826.957	    15.500	  -174.264	  -105.092
-19957.758	    15.590	  -174.357	  -101.279
-20001.783	    15.530	   174.264	   -90.066
-20304.682	    15.470	  -178.976	   -93.459
-20187.754	    15.366	  -170.365	  -127.799
-20050.344	    15.269	   146.107	  -112.239
-20344.777	    15.101	   152.988	   -98.357
-20071.994	    15.197	  -174.940	  -137.228
-19801.100	    15.487	   171.114	  -108.542
-20094.998	    15.658	   170.913	  -101.733
-19913.699	    15.619	   179.211	   -87.636
-20160.062	    15.547	  -176.318	  -116.701
-20016.248	    15.427	  -173.159	   -94.207
-20077.158	    15.275	  -170.422	  -114.511
-20090.412	    15.219	   179.744	  -140.343
-19964.486	    15.325	  -166.510	  -138.272
-20314.725	    15.572	  -168.206	  -103.711
-19933.586	    15.773	  -172.671	   -99.014
-20128.361	    15.759	  -171.301	   -92.217
-20131.949	    15.597	  -178.053	   -88.112
-20067.453	    15.317	   175.995	   -72.278
-20150.504	    15.162	   151.351	   -99.767
-20151.943	    15.252	  -164.609	  -110.133
-20421.709	    15.485	  -177.766	  -110.919
-19980.691	    15.718	  -179.986	  -107.719
-19889.400	    15.846	   177.960	  -105.978
-19771.959	    15.745	  -176.471	  -118.022
-20232.611	    15.583	  -170.330	   -77.488
-20220.146	    15.375	  -164.092	  -103.820
-20462.740	    15.266	  -178.815	  -111.642
-20047.637	    15.407	  -168.369	   -86.629
-20186.561	    15.594	   175.996	  -108.673
-20065.729	    15.705	  -175.563	   -94.293
-20050.941	    15.853	  -164.901	  -105.602
-19882.652	    16.009	  -177.127	   -82.243
-19936.354	    16.014	   174.189	  -126.632
-19965.748	    15.900	   177.204	  -104.160
-19871.660	    15.687	   179.743	  -109.731
-20150.070	    15.341	  -172.765	  -113.046
-20317.090	    15.175	   179.696	  -127.443
-20113.479	    15.201	   165.274	  -120.395
-20347.832	    15.253	   164.949	  -104.627
-20017.150	    15.343	   178.844	   -74.493
-20157.205	    15.429	  -175.631	   -92.064
-20031.186	    15.453	  -161.130	   -95.081
-19928.711	    15.432	  -171.741	  -127.322
-20179.867	    15.408	  -172.868	  -107.944
-20205.705	    15.416	  -157.805	  -137.600
-20236.523	    15.392	   178.353	  -128.226
-19997.648	    15.289	  -176.442	  -102.660
-20189.371	    15.189	   169.635	   -83.282
-20232.193	    15.326	  -173.619	   -76.834
-20271.615	    15.477	   173.083	   -73.335
-20129.299	    15.544	  -179.034	   -91.198
-20028.732	    15.601	  -170.386	   -57.674
-19912.186	    15.503	  -162.816	   -70.561
-20235.568	    15.309	  -178.536	  -102.224
-19976.520	    15.242	   162.340	   -86.832
-20039.295	    15.262	  -174.324	   -73.914
-20110.930	    15.319	  -159.747	   -89.934
-20099.873	    15.254	   178.616	  -110.181
-20385.135	    15.180	  -178.049	  -131.462
-20332.559	    15.241	   175.943	  -103.779
-20177.855	    15.380	   178.419	  -115.457
-20184.475	    15.463	  -172.482	   -81.477
-20227.670	    15.496	  -177.387	  -104.139
-20222.055	    15.457	  -171.455	  -106.802
-20183.199	    15.390	   174.274	  -115.745
-20096.064	    15.398	   177.501	   -97.427
-20326.877	    15.314	  -168.170	  -113.565
-20038.523	    15.188	   174.290	  -133.399
-20422.088	    15.179	  -176.747	  -128.243
-20109.812	    15.325	  -179.228	  -114.900
-20206.068	    15.470	  -163.675	  -123.149
-20219.996	    15.602	   171.407	  -107.976
-20113.174	    15.595	  -170.713	  -123.241
-20384.113	    15.502	  -171.126	  -142.726
-20229.213	    15.312	  -169.477	  -117.087
-20242.955	    15.236	   178.495	  -143.007
-20533.668	    15.253	   168.589	  -140.519
-20176.203	    15.330	  -169.522	  -131.083
-20068.965	    15.405	  -166.635	   -99.178
-19863.762	    15.430	  -171.721	   -89.863
-20297.791	    15.449	  -178.109	  -127.830
-19866.996	    15.598	   172.727	  -140.056
-19872.916	    15.748	   179.303	  -142.119
-20158.045	    15.786	  -176.344	  -111.572
-20109.865	    15.721	   173.335	   -80.854
-20107.305	    15.574	  -178.718	   -86.982
-20062.055	    15.482	   168.495	   -77.879
-19970.104	    15.493	  -170.349	   -93.881
-20377.131	    15.535	  -175.052	   -99.224
-20063.100	    15.539	   167.317	   -80.369
-20257.160	    15.628	   179.836	  -128.843
-20233.771	    15.660	  -172.320	  -130.140
-20169.918	    15.671	   158.371	   -75.546
-19761.561	    15.637	  -172.683	  -126.062
-19876.342	    15.582	  -174.957	  -100.823
-20040.236	    15.471	   177.511	   -89.136
-20115.033	    15.301	   159.742	  -111.291
-20132.053	    15.218	   178.423	   -90.356
-20062.240	    15.306	  -173.535	   -88.033
-19971.215	    15.426	  -177.769	   -93.555
-20036.338	    15.511	   179.797	   -69.694
-20299.889	    15.392	   176.691	   -82.862
-20316.840	    15.307	  -176.103	   -69.264
-20069.680	    15.275	   173.126	   -83.393
-20030.863	    15.216	  -176.189	  -109.358
-20332.668	    15.171	   177.160	   -98.953
-19949.074	    15.237	  -174.469	   -89.792
-19885.348	    15.292	   178.637	  -115.543
-19978.047	    15.372	   177.022	  -109.639
-20140.572	    15.387	   173.626	   -83.635
-20022.982	    15.392	  -179.597	   -96.319
-20166.443	    15.354	   173.248	  -118.716
-20065.123	    15.299	   166.231	   -95.946
-19774.545	    15.309	   168.060	   -80.587
-20403.430	    15.330	  -176.768	   -97.036
-20324.268	    15.448	   171.421	   -90.783
-20087.020	    15.489	   171.127	  -119.433
-20056.729	    15.595	  -178.408	  -113.916
-20054.787	    15.755	  -175.573	  -134.812
-19742.604	    15.835	  -174.432	  -134.677
-20105.359	    15.751	   179.950	  -100.381
-20253.283	    15.619	   176.347	   -76.527
-20099.469	    15.413	  -178.243	   -88.708
-20231.508	    15.245	   177.758	   -83.248
-20236.156	    15.249	  -164.581	   -86.316
-20124.789	    15.483	  -168.739	   -81.760
-20138.168	    15.600	  -173.455	   -66.141
-20238.379	    15.529	  -168.755	  -117.709
-20267.271	    15.424	  -174.930	  -125.271
-20073.408	    15.186	  -178.762	  -102.294
-20084.123	    15.130	  -178.660	   -85.054
-20037.113	    15.305	   169.937	   -85.178
-20125.199	    15.518	   169.274	   -87.712
-19946.883	    15.606	   173.888	   -91.167
-20123.309	    15.657	   168.203	  -106.595
-19975.412	    15.707	   178.059	   -91.987
-19823.713	    15.730	   172.698	   -80.817
-20060.312	    15.672	  -179.210	   -69.119
-19944.834	    15.490	  -177.922	   -86.560
-20016.186	    15.277	  -174.917	   -93.486
-20353.123	    15.084	  -163.175	   -75.836
-19945.277	    15.041	  -166.125	  -124.296
-20195.428	    15.083	  -165.350	  -100.692
-20387.756	    15.043	  -178.870	  -101.668
-20161.957	    15.135	  -174.802	  -122.359
-20004.799	    15.335	  -168.496	  -112.079
-20277.377	    15.528	  -167.966	  -108.195
-20082.447	    15.661	   177.548	  -120.274
-19892.324	    15.635	   176.927	  -128.419
-19936.029	    15.493	  -161.237	  -114.292
-20216.822	    15.307	  -175.138	  -114.837
-20150.764	    15.080	   174.840	   -98.457
-20185.113	    15.102	   174.799	  -103.786
-20049.840	    15.269	  -171.215	  -128.010
-20261.842	    15.496	  -170.843	   -99.408
-19879.449	    15.712	   173.057	  -109.120
-20003.801	    15.720	   169.085	   -96.772
-20199.553	    15.608	  -163.732	   -81.619
-20209.803	    15.507	  -171.569	   -91.928
-20093.740	    15.408	   173.396	   -82.040
-20095.094	    15.371	  -174.498	  -101.806
-20069.803	    15.434	  -168.486	   -75.563
-20096.127	    15.442	   179.358	   -71.512
-20126.307	    15.439	   179.044	   -72.118
-20122.764	    15.521	  -175.548	  -105.024
-20304.221	    15.569	   171.564	   -96.297
-20358.125	    15.508	   171.258	   -89.240
-20215.320	    15.389	  -170.795	  -113.599
-20252.834	    15.213	  -165.507	  -109.251
-20430.283	    15.245	   168.452	  -137.563
-20200.328	    15.426	  -171.191	  -107.560
-20217.564	    15.581	  -168.682	  -122.609
-20295.785	    15.646	   176.229	  -127.620
-19879.664	    15.665	   175.737	  -102.182
-19965.744	    15.695	   175.552	  -104.718
-20335.043	    15.720	  -169.627	  -105.610
-20027.473	    15.717	  -168.652	  -117.126
-19979.445	    15.614	   173.716	   -93.515
-20098.244	    15.461	  -178.670	  -100.016
-20207.727	    15.540	  -165.668	  -135.519
-20143.203	    15.581	  -167.653	  -121.877
-20159.574	    15.581	  -173.902	   -93.791
-19976.434	    15.448	  -169.590	   -98.268
-20150.688	    15.273	  -171.334	  -118.960
-19989.322	    15.092	  -179.070	   -95.316
-20114.080	    15.020	   174.974	   -90.405
-20125.193	    15.151	   144.377	   -75.023
-20254.021	    15.341	   167.519	   -92.802
-20277.812	    15.485	  -177.210	   -91.276
-19957.781	    15.711	  -168.982	   -74.038
-19959.236	    15.857	   168.507	   -95.374
-20023.162	    15.828	  -171.838	   -62.156
-20038.812	    15.595	  -170.616	   -81.737
-20305.242	    15.389	   177.514	  -117.352
-20404.463	    15.332	  -165.171	  -135.285
-20201.549	    15.218	  -168.409	  -121.176
-20143.395	    15.132	  -174.564	  -124.525
-20125.746	    15.180	   164.885	  -130.565
-20242.906	    15.284	   168.366	   -95.023
-20125.402	    15.389	  -169.408	  -142.177
-20161.674	    15.479	  -175.233	  -143.693
-20436.951	    15.577	   178.606	  -114.050
-20209.648	    15.500	  -177.246	  -111.285
-20040.691	    15.373	  -178.022	  -136.553
-20271.170	    15.523	  -169.822	   -74.123
-20075.604	    15.585	  -176.377	   -88.453
-20293.518	    15.525	  -173.384	  -105.929
-20211.441	    15.453	   169.483	   -96.680
-20131.889	    15.376	   179.782	  -105.433
-20346.049	    15.278	  -171.860	  -102.946
-20145.441	    15.232	   176.404	  -107.150
-20042.275	    15.272	  -162.430	  -109.840
-20159.863	    15.277	  -173.232	  -141.526
-20025.268	    15.510	   179.658	  -130.194
-20136.406	    15.746	   178.463	  -121.758
-20028.570	    15.669	  -169.243	  -124.060
-20121.795	    15.503	  -172.397	  -135.700
-20044.436	    15.308	  -168.752	  -104.990
-20343.490	    15.091	   178.211	   -86.439
-20107.643	    14.988	  -165.383	  -118.955
-20368.188	    15.142	  -178.411	  -104.187
-20015.439	    15.375	  -168.495	  -110.575
-20231.957	    15.548	  -162.658	  -105.750
-20407.791	    15.614	   174.806	  -147.160
-20077.256	    15.624	  -169.017	  -148.162
-20168.133	    15.495	  -164.776	  -105.431
-20182.365	    15.424	  -177.679	  -117.183
-19994.664	    15.349	  -166.476	  -124.734
-20198.596	    15.373	  -173.978	  -101.918
-20151.154	    15.444	  -175.109	  -111.302
-20154.043	    15.447	  -168.604	  -133.285
-20025.529	    15.371	  -165.641	  -126.520
-20244.613	    15.352	  -177.826	  -102.864
-19889.115	    15.411	   178.667	  -116.073
-20194.146	    15.421	  -175.497	  -140.727
-20124.570	    15.239	  -174.363	  -139.103
-20048.986	    15.066	  -178.964	  -170.746
-20231.281	    15.059	  -166.145	  -150.046
-20258.029	    15.253	  -170.698	  -130.033
-19994.439	    15.481	  -169.243	  -135.556
-20178.709	    15.669	   178.163	  -138.218
-20002.859	    15.712	  -165.585	  -103.873
-20188.461	    15.617	  -177.647	   -83.918
-20218.814	    15.520	   164.415	  -100.325
-20070.977	    15.428	   175.017	  -105.367
-20014.119	    15.433	  -168.868	   -96.655
-20181.635	    15.547	   179.282	   -94.786
-20185.986	    15.670	  -168.720	   -75.739
-20223.014	    15.562	  -177.879	   -90.596
-20214.498	    15.421	   178.386	  -102.990
-20087.252	    15.466	  -167.124	  -113.286
-20229.172	    15.443	  -168.189	  -117.401
-20017.559	    15.377	  -167.500	  -117.813
-20440.928	    15.387	  -177.261	   -98.922
-19849.951	    15.506	  -172.285	  -102.324
-19820.049	    15.494	  -174.483	  -110.732
-20076.383	    15.275	  -174.454	  -119.614
-20304.588	    15.150	  -168.482	  -114.601
-20379.703	    15.216	   179.900	  -133.460
-20182.848	    15.411	  -173.047	  -150.627
-20181.309	    15.503	   179.174	  -122.009
-20281.000	    15.488	  -163.931	  -102.229
-20003.840	    15.496	  -178.130	  -100.311
-20310.771	    15.541	  -175.875	   -84.337
-20051.836	    15.477	  -179.780	  -111.784
-20271.219	    15.388	  -177.367	  -121.136
-19995.990	    15.344	  -173.174	  -131.734
-19931.361	    15.315	   179.179	   -96.180
-20049.143	    15.266	  -170.943	  -105.503
-20067.875	    15.294	  -177.223	   -98.285
-20114.738	    15.329	  -170.352	   -98.003
-19948.279	    15.352	  -176.902	  -112.010
-20186.555	    15.270	  -174.747	  -108.647
-20317.906	    15.278	  -175.302	  -129.606
-20024.848	    15.467	  -166.420	  -108.391
-20131.455	    15.563	  -178.904	  -107.209
-20180.877	    15.537	  -161.095	  -108.641
-20275.688	    15.506	  -166.929	  -122.367
-20226.076	    15.510	  -172.322	  -127.206
-19861.355	    15.579	   177.221	  -107.502
-19926.467	    15.656	  -174.627	  -111.348
-20175.547	    15.651	   167.802	  -111.979
-19929.496	    15.559	  -170.451	  -107.420
-20133.238	    15.505	  -175.809	  -132.606
-20167.914	    15.451	   176.964	  -117.899
-19998.600	    15.508	  -171.414	  -115.846
-20156.316	    15.585	  -175.267	   -85.125
-19839.717	    15.712	   175.907	   -71.911
-20095.578	    15.722	  -179.377	  -116.417
-19768.162	    15.574	  -175.817	  -107.673
-20060.393	    15.355	  -165.546	  -118.362
-20022.500	    15.223	   171.005	  -112.160
-20116.463	    15.226	  -168.893	  -108.263
-20160.984	    15.260	  -169.477	  -122.995
-20067.969	    15.429	  -164.492	  -132.184
-20159.580	    15.752	  -151.104	  -124.818
-19719.461	    15.916	  -160.958	   -76.445
-19995.740	    15.823	  -169.477	  -153.333
-20028.180	    15.530	   174.128	   -85.196
-20317.932	    15.243	   175.484	  -124.194
-20097.113	    15.059	  -177.244	  -138.642
-20319.211	    15.055	   172.197	  -118.172
-20177.252	    15.216	  -167.819	  -112.846
-20036.600	    15.497	   175.745	  -128.135
-20072.576	    15.629	   177.087	   -94.898
-19924.359	    15.594	  -168.102	  -104.417
-19997.023	    15.431	   164.284	   -89.941
-20215.174	    15.191	   123.016	  -102.031
-20280.898	    15.200	    75.743	  -105.243
-20211.844	    15.297	    81.878	  -104.340
-20132.424	    15.450	   109.025	  -122.054
-20033.982	    15.617	    78.281	   -87.390
-20141.117	    15.571	    52.858	   -98.212
-19904.512	    15.561	    73.157	  -135.044
-20392.926	    15.443	    78.235	  -118.593
-20244.041	    15.276	    81.575	  -103.126
-20135.057	    15.108	    76.057	   -92.918
-20170.381	    15.179	    74.032	  -147.283
-20441.898	    15.322	    74.547	  -101.125
-20202.375	    15.381	    77.729	   -77.830
-20278.762	    15.515	    86.454	  -115.538
-20112.725	    15.626	    93.792	  -100.035
-20202.641	    15.596	    90.409	   -91.396
-19990.738	    15.538	    80.854	   -93.985
-20093.992	    15.322	    84.383	   -70.217
-20348.701	    15.063	    79.076	  -105.193
-20367.652	    14.937	    79.843	  -121.212
-20538.961	    15.078	    73.403	  -110.460
-20366.344	    15.387	    72.629	  -102.328
-20105.312	    15.583	    78.814	   -95.850
-20228.926	    15.615	    83.475	  -122.355
-20106.740	    15.576	    75.512	   -94.365
-20244.488	    15.620	    72.780	   -97.143
-20050.338	    15.639	    68.416	  -109.907
-20071.867	    15.596	    71.701	  -112.634
-20221.014	    15.553	    82.176	  -118.199
-20247.371	    15.433	    85.482	  -102.745
-20108.664	    15.432	    73.726	   -82.551
-20187.432	    15.524	    87.377	   -99.397
-20091.012	    15.578	    79.734	  -110.227
-19936.107	    15.488	    76.779	  -102.193
-20254.002	    15.431	    74.683	  -112.904
-20207.398	    15.384	    69.251	  -107.816
-20197.840	    15.339	    72.847	  -107.049
-20121.846	    15.351	    76.307	  -100.821
-20196.646	    15.341	    82.245	  -104.063
-20217.826	    15.261	    83.281	  -115.621
-20290.508	    15.149	    81.815	   -84.200
-20237.352	    15.026	    84.285	  -123.860
-20453.590	    15.042	    87.370	   -96.691
-20054.967	    15.141	    72.513	  -120.606
-20083.650	    15.385	    77.578	  -110.140
-20121.760	    15.614	    74.790	  -114.627
-20110.414	    15.595	    72.756	  -119.318
-20085.645	    15.479	    69.177	  -122.369
