-19901.119	    15.334	   -92.310	   122.143
-20039.221	    15.373	    62.804	   112.169
-20220.125	    15.375	    66.553	   121.394
-20171.602	    15.408	    66.178	   119.759
-20391.576	    15.265	    58.930	   131.611
-20343.088	    15.185	    67.052	   133.310
-20271.869	    15.270	    59.757	   135.833
-20283.016	    15.392	    67.691	   139.642
-20006.805	    15.574	    60.936	   138.137
-20096.848	    15.604	    59.132	   140.054
-20212.129	    15.481	    71.738	   142.424
-20000.098	    15.238	    55.492	   125.217
-20178.646	    14.950	    66.647	   143.820
-20283.826	    14.939	    65.446	   164.879
-20145.648	    15.233	    70.909	   146.327
-20069.203	    15.578	    65.078	   146.313
-19982.975	    15.808	    58.556	   122.572
-20024.129	    15.791	    74.117	   136.925
-20289.697	    15.588	    62.651	   148.106
-20107.996	    15.271	    56.131	   152.973
-20124.869	    15.071	    60.862	   152.562
-20259.365	    15.066	    61.375	   149.073
-20124.768	    15.220	    68.489	   155.346
-20231.172	    15.429	    62.150	   134.404
-20065.943	    15.598	    74.295	   143.532
-20238.785	    15.674	    54.906	   130.947
-20127.271	    15.645	    59.540	    88.546
-20220.801	    15.557	    63.361	   149.179
-20394.445	    15.371	    65.221	   143.421
-20067.506	    15.201	    50.484	   120.693
-20359.748	    15.106	    52.806	   136.789
-20177.680	    15.136	    74.182	   133.691
-20412.287	    15.250	    61.334	   139.910
-20305.355	    15.456	    53.740	   151.843
-19981.678	    15.724	    62.490	   150.185
-20064.652	    15.862	    61.392	   156.371
-20256.494	    15.774	    61.622	   128.123
-19949.160	    15.638	    60.731	   154.723
-20134.826	    15.439	    59.276	   104.628
-20373.432	    15.350	    63.607	   126.538
-20266.742	    15.252	    57.447	   145.397
-20223.904	    15.198	    62.496	   117.510
-20305.777	    15.191	    59.123	   145.167
-20274.354	    15.213	    57.503	   132.351
-20403.211	    15.210	    69.141	   145.150
-20262.865	    15.238	    71.606	   127.164
-20081.459	    15.313	    69.279	   130.143
-20047.941	    15.383	    64.268	   132.192
-20083.303	    15.458	    64.884	   121.848
-20152.482	    15.395	    57.777	   109.195
-20260.744	    15.321	    74.458	   116.304
-20353.658	    15.218	    71.860	   141.837
-20203.648	    15.378	    59.982	   114.416
-20148.461	    15.674	    58.387	   149.847
-20168.230	    15.814	    65.981	   146.027
-20192.615	    15.832	    63.237	   140.650
-20223.846	    15.698	    70.798	   138.771
-20149.363	    15.583	    59.947	   145.086
-20274.041	    15.425	    72.475	   133.135
-20456.006	    15.289	    60.248	   125.292
-20268.680	    15.288	    70.549	   147.615
-19958.633	    15.381	    78.303	   140.176
-20104.520	    15.447	    65.049	   146.428
-19972.852	    15.459	    53.807	   152.848
-20281.830	    15.549	    60.431	   144.539
-20218.920	    15.560	    67.716	   157.351
-20037.898	    15.531	    62.375	   126.822
-20020.637	    15.619	    57.855	   136.422
-20093.533	    15.703	    63.290	   151.286
-19964.754	    15.677	    62.889	   139.915
-20274.018	    15.531	    62.040	   138.819
-20156.326	    15.458	    67.375	   132.019
-20161.232	    15.504	    49.371	   146.221
-20376.900	    15.524	    69.733	   141.901
-19979.088	    15.574	    58.834	   135.899
-20060.730	    15.629	    58.205	   143.568
-19948.611	    15.648	    61.785	   118.508
-20225.500	    15.612	    62.673	   142.274
-19989.779	    15.554	    65.780	   131.465
-20194.729	    15.439	    68.540	   136.819
-19961.715	    15.450	    61.540	   142.970
-20120.090	    15.612	    67.361	   136.484
-20197.744	    15.636	    67.932	   159.671
-20314.062	    15.488	    68.761	   137.295
-20240.260	    15.325	    71.665	   135.519
-20269.904	    15.283	    67.634	   143.679
-20158.172	    15.326	    69.809	   151.809
-19993.854	    15.550	    52.619	   134.815
-20235.656	    15.768	    63.058	   124.006
-20016.064	    15.807	    79.899	   130.494
-20026.930	    15.811	    63.612	   147.740
-20205.250	    15.733	    71.246	   116.786
-20142.068	    15.546	    68.345	   138.730
-20252.123	    15.294	    62.500	   121.842
-20394.627	    15.091	    57.217	   142.951
-20356.863	    15.035	    55.122	   124.193
-20220.039	    15.251	    61.382	   160.789
-20135.463	    15.484	    69.673	   144.990
-19819.459	    15.638	    54.521	   125.780
-20147.500	    15.646	    59.089	   140.918
-20243.771	    15.405	    60.283	   126.063
-20350.799	    15.333	    55.272	   135.067
-20296.793	    15.285	    61.933	   152.077
-20360.178	    15.334	    64.245	   136.569
-20217.088	    15.485	    67.374	   133.985
-19916.430	    15.571	    64.586	   142.309
-19974.279	    15.619	    61.489	   158.444
-20075.666	    15.605	    58.430	   149.941
-19843.430	    15.566	    65.025	   155.243
-20119.090	    15.570	    65.484	   150.256
-20372.441	    15.487	    58.395	   118.313
-20320.506	    15.463	    56.787	   126.699
-19931.928	    15.531	    65.436	   140.201
-20320.393	    15.452	    53.269	   152.860
-20144.615	    15.314	    61.253	   135.872
-20268.434	    15.240	    46.037	   134.773
-20237.637	    15.281	    56.904	   148.260
-20045.328	    15.374	    71.937	   142.576
-20127.992	    15.432	    74.197	   137.924
-20223.770	    15.523	    65.645	   145.545
-20004.494	    15.700	    67.008	   134.861
-20120.023	    15.737	    69.701	   146.321
-19996.531	    15.605	    69.796	   154.221
-20207.920	    15.434	    63.000	   159.389
-20226.154	    15.306	    59.877	   151.010
-20408.660	    15.175	    63.339	   151.242
-20222.223	    15.244	    58.867	   129.192
-20171.873	    15.371	    63.162	   141.049
-20295.441	    15.278	    64.148	   146.960
-20194.316	    15.151	    57.881	   157.270
-20305.145	    15.232	    72.623	   127.487
-20099.562	    15.362	    63.642	   131.420
-20123.943	    15.347	    65.069	   160.238
-20227.037	    15.425	    52.244	   134.660
-20020.652	    15.487	    60.024	   139.638
-20149.334	    15.451	    72.000	   126.887
-20046.434	    15.304	    68.846	   130.305
-20168.199	    15.214	    71.978	   139.432
-20456.979	    15.127	    63.605	   156.240
-20438.178	    15.120	    72.965	   141.284
-20217.268	    15.184	    69.229	   137.343
-20186.002	    15.397	    62.907	   156.419
-20064.141	    15.573	    72.427	   155.241
-20353.377	    15.681	    69.909	   139.823
-20237.918	    15.496	    73.296	   150.543
-20155.229	    15.196	    61.026	   155.910
-20294.094	    15.124	    71.323	   148.332
-20399.727	    15.301	    62.331	   160.248
-20204.088	    15.494	    61.733	   143.020
-20017.363	    15.595	    60.918	   135.542
-20027.145	    15.666	    72.615	   123.664
-20138.287	    15.647	    47.472	   119.745
-19810.479	    15.537	    56.994	   141.021
-20127.246	    15.440	    55.350	   138.945
-19882.984	    15.386	    67.183	   163.056
-20193.516	    15.362	    64.617	   152.907
-19999.549	    15.422	    51.056	   152.658
-20272.941	    15.470	    71.420	   156.086
-20190.492	    15.385	    71.996	   159.182
-20074.209	    15.274	    62.388	   153.062
-20293.848	    15.214	    72.417	   135.745
-20465.395	    15.249	    62.736	   141.995
-20187.191	    15.358	    67.023	   122.896
-20325.902	    15.475	    71.947	   145.520
-20344.238	    15.620	    62.863	   143.914
-20150.115	    15.675	    62.615	   133.876
-20048.594	    15.683	    65.353	   146.697
-20067.105	    15.529	    71.994	   147.700
-20325.139	    15.391	    75.521	   129.116
-20218.691	    15.550	    48.460	   133.759
-20228.395	    15.756	    61.754	   139.438
-20045.779	    15.792	    54.924	   133.559
-20402.684	    15.714	    61.799	   134.571
-20111.266	    15.554	    68.229	   131.830
-20229.039	    15.390	    59.131	   127.381
-20365.605	    15.249	    71.354	   149.131
-20273.240	    15.305	    72.818	   146.909
-20285.191	    15.418	    65.947	   128.905
-20441.936	    15.525	    64.327	   136.924
-20053.711	    15.567	    70.722	   117.752
-20343.279	    15.438	    74.978	   118.761
-20135.221	    15.320	    56.195	   128.228
-20181.621	    15.421	    75.331	   134.022
-20221.764	    15.525	    77.203	   152.592
-20041.367	    15.617	    57.118	   133.427
-20087.182	    15.666	    50.111	   157.381
-20020.488	    15.636	    58.083	   152.343
-20191.203	    15.648	    53.739	   153.945
-20294.080	    15.631	    66.170	   138.182
-20102.082	    15.346	    58.287	   141.400
-20389.713	    14.955	    50.907	   138.056
-20606.127	    14.835	    63.480	   138.497
-20186.186	    15.194	    57.891	   135.109
-20281.152	    15.690	    74.670	   123.345
-20217.838	    15.989	    57.064	   121.492
-19933.256	    15.917	    60.847	   123.126
-20052.873	    15.619	    50.611	   133.172
-20314.359	    15.335	    69.486	   144.129
-19876.391	    15.218	    58.578	   125.438
-20222.250	    15.209	    66.330	   129.684
-20205.830	    15.308	    64.421	   140.376
-20303.545	    15.333	    71.767	   154.673
-20221.432	    15.448	    66.236	   149.805
-20208.920	    15.455	    77.663	   138.519
-20205.818	    15.382	    79.743	   159.551
-20103.459	    15.284	    61.816	   130.472
-20249.062	    15.324	    76.132	   133.679
-20286.275	    15.424	    70.965	   139.781
-20178.648	    15.547	    70.821	   138.053
-20226.072	    15.609	    70.686	   123.471
-20409.764	    15.549	    53.641	   133.295
-20318.234	    15.444	    65.483	   128.292
-19922.297	    15.254	    76.638	   135.431
-20117.596	    14.975	    75.419	   157.737
-20258.762	    14.953	    65.208	   138.897
-20215.975	    15.173	    50.385	   115.965
-20067.348	    15.569	    53.289	   106.085
-19984.104	    15.717	    65.462	   137.613
-20043.305	    15.558	    71.707	   127.267
-20131.986	    15.393	    54.750	   143.208
-20384.355	    15.264	    68.385	   141.171
-20159.439	    15.331	    67.014	   133.456
-20266.752	    15.436	    67.387	   136.300
-20136.287	    15.514	    66.889	   134.567
-19989.711	    15.644	    66.968	   129.580
-19838.480	    15.814	    66.335	   123.699
-20246.186	    15.816	    66.084	   129.366
-20398.982	    15.688	    68.956	   154.448
-20181.561	    15.542	    60.400	   127.721
-20271.982	    15.297	    61.442	   106.647
-20107.105	    15.229	    71.137	   112.824
-20503.719	    15.145	    65.111	   133.986
-20084.857	    15.172	    55.649	   155.799
-19958.646	    15.376	    73.158	   131.102
-20078.586	    15.538	    67.573	   146.237
-19887.199	    15.582	    53.672	   123.212
-20000.096	    15.501	    54.889	   109.093
-19956.227	    15.380	    66.673	   163.018
-20082.234	    15.378	    69.671	   141.063
-20256.076	    15.502	    59.550	   134.479
-20085.068	    15.599	    59.644	   143.622
-20158.611	    15.502	    58.719	   126.123
-20008.977	    15.288	    58.507	   128.903
-20462.752	    15.137	    74.002	   136.607
-20209.416	    15.150	    72.091	   127.866
-20167.002	    15.346	    67.886	   134.549
-20163.934	    15.552	    57.712	   137.837
-20079.377	    15.557	    55.828	   108.706
-19818.994	    15.498	    72.681	   144.549
-20126.332	    15.391	    64.325	   129.925
-20001.367	    15.267	    74.645	   142.217
-20362.375	    15.220	    61.041	   143.220
-20371.443	    15.267	    57.884	   157.657
-20200.010	    15.369	    73.203	   153.303
-20034.504	    15.559	    67.908	   146.645
-19830.369	    15.763	    59.583	   127.996
-20224.887	    15.840	    48.808	   127.139
-20298.992	    15.680	    45.172	   120.297
-20218.895	    15.523	    64.134	   134.896
-20122.611	    15.401	    64.305	   143.614
-20166.631	    15.311	    56.372	   168.691
-20099.287	    15.253	    61.379	   158.300
-20278.387	    15.171	    69.715	   131.053
-20062.617	    15.227	    70.387	   149.252
-20382.652	    15.309	    79.410	   139.095
-20111.605	    15.329	    60.851	   153.885
-19927.377	    15.463	    67.659	   141.833
-20249.598	    15.658	    64.071	   130.044
-20110.051	    15.744	    71.486	   147.892
-20314.801	    15.707	    75.337	   147.082
-20379.277	    15.551	    61.312	   140.708
-20374.143	    15.393	    62.947	   156.311
-20061.576	    15.335	    70.432	   143.300
-20235.414	    15.302	    63.982	   161.492
-20108.994	    15.172	    61.589	   168.507
-20168.604	    15.226	    67.678	   161.705
-20200.551	    15.350	    69.792	   123.201
-20432.691	    15.473	    63.472	   132.305
-20254.830	    15.531	    46.980	   148.982
-20142.438	    15.596	    75.298	   155.851
-20265.926	    15.631	    73.132	   145.949
-20216.467	    15.536	    64.496	   135.861
-20231.400	    15.357	    61.372	   142.074
-20164.430	    15.304	    64.592	   144.751
-20150.322	    15.296	    61.132	   128.560
-20231.945	    15.334	    67.623	   157.397
-20334.814	    15.390	    60.800	   159.617
-20052.502	    15.362	    67.320	   134.331
-20336.309	    15.289	    73.441	   131.171
-20426.055	    15.218	    60.289	   121.133
-20520.730	    15.140	    57.093	   130.642
-20117.295	    15.191	    53.593	   136.668
-20123.445	    15.324	    68.819	   153.626
-20133.141	    15.372	    83.203	   137.390
-20175.285	    15.502	    66.238	   157.115
-20032.436	    15.517	    62.700	   148.063
-20258.809	    15.405	    72.655	   131.465
-20147.555	    15.257	    74.516	   143.344
-20207.486	    15.234	    68.742	   158.108
-20011.029	    15.425	    58.345	   152.133
-20188.238	    15.626	    68.956	   130.906
-20072.521	    15.653	    56.838	   129.690
-20290.562	    15.651	    69.267	   162.789
-20116.484	    15.672	    53.237	   142.743
-20177.283	    15.596	    49.974	   147.180
-20205.918	    15.382	    41.691	   150.680
-20228.561	    15.104	    69.367	   127.407
-20234.797	    14.991	    57.894	   146.119
-20016.176	    15.054	    64.405	   147.351
-20094.867	    15.298	    62.168	   153.153
-20052.639	    15.509	    66.488	   142.313
-20318.391	    15.505	    69.842	   140.757
-20495.902	    15.391	    67.728	   153.900
-20302.768	    15.308	    60.899	   152.115
-20253.244	    15.315	    72.124	   140.912
-20077.166	    15.350	    70.267	   147.986
-19823.600	    15.390	    74.357	   154.044
-20134.467	    15.393	    62.754	   100.423
-19769.643	    15.406	    66.431	   144.927
-20128.590	    15.342	    67.625	   166.231
-20295.133	    15.270	    62.056	   143.647
-20183.293	    15.250	    71.848	   152.546
-20142.930	    15.240	    61.468	   156.977
-20114.678	    15.343	    71.190	   147.369
-20030.682	    15.491	    74.326	   125.658
-20126.350	    15.474	    61.149	   133.259
-20342.809	    15.348	    77.467	   121.303
-20168.102	    15.214	    72.746	   126.737
-20343.682	    15.196	    54.742	   131.351
-20170.506	    15.191	    65.339	   138.597
-20214.002	    15.240	    67.755	   145.017
-20129.787	    15.297	    63.625	   149.256
-20311.922	    15.300	    66.529	   155.997
-20187.947	    15.297	    59.766	   141.851
-20153.881	    15.340	    71.740	   136.177
-20067.197	    15.364	    75.631	   138.186
-20362.488	    15.349	    74.823	   136.565
-20262.068	    15.242	    55.653	   148.212
-20160.459	    15.235	    71.723	   134.238
-20153.885	    15.317	    69.071	   143.284
-20222.098	    15.379	    73.719	   137.667
-20185.049	    15.443	    60.032	   134.518
-20007.232	    15.536	    56.081	   145.322
-20401.699	    15.534	    73.740	   122.762
-19926.988	    15.515	    64.257	   139.794
-20384.367	    15.455	    63.699	   137.368
-20135.656	    15.376	    75.399	   143.021
-20379.289	    15.268	    56.123	   138.549
-20080.748	    15.211	    74.510	   142.236
-20104.117	    15.342	    48.440	   155.133
-20036.594	    15.411	    65.193	   158.726
-20070.631	    15.421	    65.645	   141.589
-20040.254	    15.541	    65.226	   159.466
-20196.594	    15.496	    66.567	   149.666
-20073.311	    15.375	    67.840	   141.805
-20204.732	    15.257	    69.997	   136.402
-20344.395	    15.138	    73.892	   144.685
-20365.773	    15.219	    70.554	   160.393
-20102.605	    15.552	    67.463	   138.947
-20240.117	    15.668	    72.399	   148.186
-20151.764	    15.520	    55.292	   155.383
-20242.688	    15.332	    58.898	   130.272
-20331.859	    15.224	    54.026	   143.691
-20181.980	    15.120	    72.599	   143.611
-20362.650	    15.243	    54.419	   153.520
-20325.459	    15.473	    67.001	   165.025
-20264.852	    15.642	    63.105	   135.601
-20357.291	    15.670	    60.077	   147.412
-20271.650	    15.566	    57.703	   161.186
-20378.977	    15.373	    72.921	   159.763
-20280.141	    15.210	    66.939	   153.077
-20515.562	    15.258	    71.343	   150.263
-20228.082	    15.427	    68.426	   142.952
-20286.230	    15.544	    72.426	   139.590
-20246.889	    15.532	    69.564	   137.029
-20213.916	    15.568	    61.905	   148.058
-20215.701	    15.517	    64.577	   119.805
-20401.588	    15.498	    61.869	   126.622
-20094.547	    15.530	    66.547	   133.848
-20107.266	    15.599	    62.887	   146.264
-19808.926	    15.693	    67.158	   147.304
-20201.133	    15.652	    67.200	   117.369
-20067.447	    15.382	    70.923	   117.349
-20348.348	    15.236	    62.466	   144.544
-20405.930	    15.174	    54.474	   147.478
-20354.156	    15.265	    62.355	   133.546
-20147.525	    15.412	    65.095	   155.129
-20056.816	    15.403	    65.602	   134.771
-20376.232	    15.238	    60.231	   145.150
-20154.033	    15.065	    63.958	   147.898
-20136.891	    15.164	    78.102	   130.943
-20312.455	    15.380	    52.039	   141.774
-20192.543	    15.625	    54.665	   109.142
-20017.666	    15.770	    63.911	   144.567
-20143.904	    15.835	    70.313	   141.746
-20212.316	    15.735	    64.130	   160.484
-20083.150	    15.490	    60.366	   144.493
-20286.506	    15.259	    65.307	   137.383
-20394.830	    15.227	    71.966	   127.445
-20360.178	    15.368	    47.745	   149.901
-19999.633	    15.535	    67.837	   143.754
-19880.986	    15.570	    63.072	   145.326
-20088.771	    15.583	    65.923	   135.638
-20208.463	    15.448	    54.623	   130.751
-20405.039	    15.333	    63.669	   140.251
-20277.762	    15.265	    57.576	   135.531
-20129.955	    15.349	    63.951	   142.447
-20169.439	    15.429	    63.077	   129.422
-20154.277	    15.523	    65.477	   144.641
-20039.344	    15.409	    55.820	   131.790
-20295.586	    15.323	    72.831	   135.144
-20113.398	    15.359	    69.917	   133.598
-19902.045	    15.470	    60.839	   154.282
-19968.529	    15.541	    49.800	   139.113
-19991.258	    15.523	    62.672	   137.783
-19928.557	    15.452	    71.066	   143.919
-19993.492	    15.419	    56.378	   138.770
-20114.508	    15.368	    70.421	   141.859
-20206.547	    15.478	    75.778	   121.785
-20156.740	    15.621	    57.023	   124.804
-20164.723	    15.632	    53.726	   140.923
-20291.975	    15.541	    57.859	   138.626
-20115.381	    15.419	    69.814	   137.550
-20071.195	    15.302	    63.458	   125.377
-20228.000	    15.333	    66.485	   147.109
-20101.250	    15.451	    62.364	   162.250
-20238.980	    15.479	    55.866	   176.182
-20184.080	    15.494	    64.945	   140.860
-20249.516	    15.435	    51.594	   125.534
-19935.232	    15.422	    58.684	   130.492
-20138.471	    15.449	    71.947	   102.236
-20210.324	    15.495	    66.627	   146.741
-20172.391	    15.503	    79.511	   120.387
-20517.242	    15.466	    57.157	   140.999
-20151.303	    15.506	    69.047	   136.740
-20295.154	    15.583	    52.601	   111.755
-20100.742	    15.543	    70.407	   135.510
-20123.592	    15.390	    55.727	   134.761
-20093.607	    15.275	    66.928	   127.440
-20121.131	    15.283	    58.779	   121.438
-20198.463	    15.428	    55.061	   135.552
-20236.762	    15.479	    63.620	   147.286
-20148.416	    15.441	    59.207	   143.817
-20270.006	    15.438	    58.786	   152.128
-20334.004	    15.445	    66.072	   121.813
-20145.547	    15.534	    62.206	   127.534
-20131.092	    15.553	    71.226	   145.198
-20049.777	    15.522	    79.810	   158.560
-20498.078	    15.318	    72.720	   132.723
-20451.945	    15.206	    60.497	   121.563
-20217.770	    15.228	    70.894	   137.377
-20171.666	    15.192	    69.263	   152.994
-20240.965	    15.405	    53.580	   142.319
-20135.289	    15.662	    62.870	   124.729
-20226.803	    15.863	    69.463	   146.104
-20272.656	    15.840	    59.503	   162.592
-20200.109	    15.606	    57.073	   144.245
-20160.822	    15.433	    63.176	   144.873
-20340.805	    15.369	    56.041	   135.895
-20233.191	    15.249	    79.467	   143.943
-20316.008	    15.137	    66.122	   151.127
-20541.389	    15.201	    68.238	   110.675
-19938.756	    15.419	    60.166	   145.546
-20239.219	    15.669	    53.915	   153.665
-19997.713	    15.743	    67.950	   124.098
-20033.514	    15.615	    65.802	   129.728
-20234.984	    15.388	    64.589	   125.721
-20182.420	    15.243	    62.374	   129.757
-20187.850	    15.218	    63.662	   149.976
-20133.711	    15.252	    63.453	   144.947
-19948.686	    15.345	    63.936	   145.312
-20203.432	    15.359	    64.417	   139.849
-20254.322	    15.491	    61.774	   146.658
-19914.271	    15.649	    60.851	   144.092
-20336.693	    15.736	    61.301	   162.195
-19952.904	    15.863	    68.084	   165.904
-19977.174	    15.790	    82.387	   139.989
-20254.010	    15.517	    68.626	   141.835
-20170.285	    15.323	    61.390	   137.794
-20117.928	    15.220	    76.204	   154.300
-20429.355	    15.190	    65.220	   130.807
-20328.904	    15.333	    65.658	   122.915
-19926.336	    15.524	    60.037	   151.364
-20025.166	    15.558	    55.841	   136.377
-20259.834	    15.379	    53.335	   139.187
-20146.912	    15.160	    68.590	   147.437
-20177.562	    15.103	    59.840	   137.363
-20269.193	    15.250	    64.179	   143.165
-20169.227	    15.395	    64.877	   135.369
-20072.955	    15.418	    63.111	   105.588
-20275.123	    15.416	    63.224	   110.222
-20216.176	    15.462	    60.708	   146.999
-20240.666	    15.389	    52.082	   145.140
-20256.055	    15.217	    64.081	   123.959
-20399.684	    15.121	    57.382	   133.204
-20262.025	    15.181	    71.987	   131.648
-20482.854	    15.298	    55.628	   149.040
-20038.639	    15.424	    66.965	   117.369
-19994.453	    15.468	    66.787	   108.832
-20056.416	    15.505	    69.903	   149.731
-20082.143	    15.603	    64.076	   144.794
-20061.615	    15.735	    70.808	   151.458
-20053.730	    15.674	    66.437	   148.972
-20137.873	    15.459	    61.311	   131.715
-20188.869	    15.270	    56.570	   139.614
-20419.971	    15.077	    72.175	   146.115
-20533.600	    15.088	    70.808	   146.259
-20167.250	    15.379	    77.157	   155.678
-19984.914	    15.666	    61.768	   154.071
-20199.834	    15.826	    70.682	   144.714
-20270.311	    15.849	    53.629	   134.592
-20177.410	    15.749	    61.003	   145.176
-20481.754	    15.469	    57.688	   119.574
-20260.168	    15.198	    62.016	   126.040
-20315.811	    15.053	    65.052	   138.752
-19975.506	    15.193	    70.980	   128.664
-20317.449	    15.377	    67.395	   152.391
-20018.273	    15.506	    73.112	   143.054
-20288.496	    15.601	    50.541	   123.243
-20393.295	    15.608	    71.895	   136.776
-20271.430	    15.546	    66.768	   112.140
-20231.705	    15.442	    48.063	   105.567
-20070.268	    15.394	    71.367	   134.538
-20026.473	    15.480	    74.051	   151.539
-19863.850	    15.511	    64.992	   141.728
-20085.197	    15.481	    76.984	   147.152
-20105.939	    15.519	    61.663	   142.549
-20249.928	    15.581	    64.288	   137.088
-19931.432	    15.708	    59.204	   137.190
-19867.701	    15.722	    69.325	   152.846
-19895.469	    15.664	    76.430	   145.103
-20172.891	    15.521	    60.068	   156.039
-20175.697	    15.378	    56.034	   153.096
-20396.875	    15.441	    65.998	   141.265
-20106.971	    15.467	    75.285	   128.454
-20152.461	    15.375	    57.016	   137.902
-20239.826	    15.262	    59.540	   155.272
-20469.979	    15.064	    60.885	   157.349
-20374.840	    15.006	    57.595	   150.494
-20386.863	    15.045	    60.795	   142.315
-20087.729	    15.192	    63.450	   121.746
-20196.711	    15.471	    66.125	   121.002
-20238.410	    15.721	    66.655	   135.489
-20099.490	    15.784	    61.548	   123.987
-20216.055	    15.724	    59.842	   135.013
-20037.875	    15.611	    67.901	   126.450
-20011.664	    15.469	    77.222	   159.683
-19948.000	    15.384	    56.578	   141.881
-20192.682	    15.269	    69.987	   143.309
-20049.193	    15.200	    57.127	   131.260
-19988.602	    15.238	    59.352	   146.507
-19956.348	    15.334	    70.406	   135.324
-20258.180	    15.495	    63.468	   139.885
-20268.975	    15.565	    61.835	   120.897
-20325.104	    15.592	    62.777	   127.279
-20249.387	    15.625	    56.074	   118.431
-20380.266	    15.602	    61.432	   131.956
-20189.836	    15.501	    53.021	   149.248
-20042.730	    15.455	    64.200	   131.561
-20217.148	    15.424	    54.384	   149.450
-20054.160	    15.409	    67.651	   138.154
-20037.434	    15.285	    55.696	   122.614
-20439.568	    15.081	    64.696	   144.842
-19947.453	    14.941	    58.967	   120.398
-20448.430	    15.041	    67.777	   144.115
-20401.236	    15.245	    64.651	   146.301
-20241.941	    15.410	    56.519	   140.644
-20266.973	    15.539	    66.301	   157.071
-20310.443	    15.583	    57.137	   139.349
-20224.684	    15.523	    72.503	   156.009
-20315.287	    15.516	    69.578	   149.682
-20146.898	    15.532	    66.069	   144.479
-20236.818	    15.525	    68.753	   150.581
-20257.514	    15.480	    65.560	   154.465
-20270.641	    15.340	    61.903	   138.859
-20401.957	    15.326	    65.115	   127.102
-20207.574	    15.569	    57.259	   107.052
-20069.416	    15.816	    65.861	   120.474
-20236.951	    15.739	    64.711	   139.038
-20190.346	    15.480	    65.811	   149.475
-20076.922	    15.128	    69.284	   146.016
-20028.127	    15.001	    58.718	   132.248
-20341.627	    14.993	    66.739	   136.976
-20339.742	    15.134	    62.865	   125.860
-20239.566	    15.550	    61.080	   125.413
-19890.062	    15.874	    70.143	   131.919
-20228.986	    15.969	    56.888	   121.281
-20157.996	    15.739	    68.562	   146.130
-19969.115	    15.388	    58.339	   140.907
-20177.230	    15.077	    68.789	   143.222
-20080.762	    15.057	    72.195	   155.741
-20342.975	    15.348	    52.528	   145.983
-20035.914	    15.823	    64.139	   126.814
-20161.654	    16.206	    50.706	   136.957
-19860.549	    16.260	    79.779	   129.657
-19861.854	    16.019	    67.780	   151.291
-20123.037	    15.675	    70.557	   145.511
-20301.518	    15.544	    66.081	   133.650
-20213.559	    15.482	    57.624	   155.696
-19807.404	    15.475	    66.585	   154.688
-20144.225	    15.432	    73.796	   154.837
-20171.686	    15.412	    61.803	   134.101
-20335.697	    15.426	    71.581	   142.506
-20138.553	    15.477	    62.162	   128.291
-20148.574	    15.620	    54.185	   129.011
-20195.264	    15.670	    64.983	   105.771
-19837.215	    15.524	    63.037	   137.502
-20127.656	    15.388	    75.315	   125.521
-20077.902	    15.218	    72.075	   135.749
-20226.021	    15.180	    68.864	   130.100
-20145.047	    15.313	    68.620	   146.714
-20135.611	    15.448	    65.573	   140.030
-20141.129	    15.555	    60.462	   148.354
-20169.621	    15.604	    72.302	   126.030
-19806.340	    15.620	    58.606	   152.577
-20082.992	    15.519	    64.868	   149.472
-20235.863	    15.355	    62.352	   134.465
-20231.307	    15.288	    56.428	   139.538
-20185.381	    15.291	    63.883	   140.706
-20279.463	    15.485	    61.929	   143.471
-20169.883	    15.749	    65.704	   143.177
-20085.740	    15.901	    57.830	   148.083
-20178.676	    15.780	    72.934	   153.967
-20224.514	    15.492	    67.655	   120.042
-20125.105	    15.225	    70.760	   141.066
-20254.414	    15.104	    62.715	   142.100
-20631.658	    15.037	    59.032	   108.867
-20382.891	    15.059	    67.369	   117.610
-20346.426	    15.190	    75.463	   147.468
-20263.963	    15.192	    62.246	   164.262
-20332.908	    15.144	    65.183	   141.911
-20375.703	    15.065	    66.875	   134.016
-20257.785	    15.130	    49.130	   147.751
-20134.545	    15.278	    72.526	   132.871
-20249.105	    15.382	    50.084	   149.190
-20211.471	    15.412	    67.790	   148.411
-20049.594	    15.334	    64.185	   136.163
-19959.814	    15.328	    59.642	   130.009
-19914.689	    15.421	    39.561	   101.277
-20387.787	    15.341	    75.319	   139.919
-20151.365	    15.258	    56.425	   135.581
-20266.543	    15.424	    58.615	   148.338
-20301.820	    15.663	    73.008	   123.263
-20180.262	    15.804	    65.453	   168.479
-20115.262	    15.777	    57.898	   125.689
-20204.357	    15.595	    60.024	   146.950
-20058.205	    15.557	    57.728	   151.741
-20044.818	    15.533	    66.086	   149.575
-19888.740	    15.570	    62.296	   143.485
-20297.953	    15.461	    69.689	   152.859
-20057.088	    15.467	    53.962	   119.541
-20013.271	    15.459	    62.575	   102.408
-20060.932	    15.399	    57.179	   132.537
-19949.879	    15.353	    55.350	   131.231
-20221.059	    15.315	    74.835	   132.635
-20141.914	    15.207	    80.476	   145.016
-20115.125	    15.308	    63.114	   169.726
-20372.193	    15.449	    62.040	   134.528
-20256.408	    15.519	    62.289	   141.769
-20275.877	    15.540	    67.677	   125.773
-20426.039	    15.447	    81.562	   132.356
-20377.072	    15.327	    57.424	   137.396
-19953.621	    15.212	    58.533	   130.156
-20303.699	    15.269	    44.175	   133.251
-19911.639	    15.321	    61.215	   148.889
-20082.760	    15.353	    80.307	   124.677
-20155.006	    15.330	    62.869	   119.669
-20266.738	    15.367	    69.818	   142.072
-20199.326	    15.439	    66.257	   143.742
-20023.088	    15.464	    63.859	   142.957
-20006.748	    15.570	    57.680	   145.904
-20098.369	    15.643	    56.801	   158.813
-19952.766	    15.541	    76.725	   155.369
-20223.670	    15.327	    60.119	   150.263
-20150.086	    15.272	    68.060	   137.315
-20084.361	    15.198	    63.123	   115.250
-20049.504	    15.216	    74.538	   136.457
-20320.289	    15.261	    59.850	   135.274
-20398.031	    15.439	    65.981	   128.042
-20059.346	    15.588	    65.466	   139.565
-20418.424	    15.488	    61.429	   147.532
-20156.811	    15.390	    71.395	   144.114
-20141.453	    15.341	    59.522	   146.085
-20192.439	    15.441	    72.868	   151.725
-19952.844	    15.478	    66.933	   154.926
-20202.176	    15.496	    53.005	   148.123
-20315.100	    15.597	    72.487	   152.293
-19969.158	    15.638	    58.637	   152.906
-20451.818	    15.523	    71.293	   150.500
-20268.969	    15.411	    71.122	   147.776
-20148.100	    15.277	    64.343	   130.561
-20378.406	    15.320	    60.017	   127.755
-20252.066	    15.386	    62.294	   147.525
-20195.258	    15.488	    72.710	   146.875
-20095.125	    15.531	    68.082	   158.056
-20054.545	    15.517	    61.861	   131.247
-20472.250	    15.512	    56.680	   145.318
-20171.186	    15.532	    69.709	   138.773
-20016.266	    15.652	    66.161	   131.287
-19959.246	    15.711	    73.490	   142.306
-20154.188	    15.668	    62.652	   137.321
-20185.137	    15.633	    61.450	   140.391
-19934.270	    15.510	    66.967	   133.746
-20255.775	    15.428	    68.809	   111.188
-19908.408	    15.380	    59.114	   128.453
-20022.213	    15.458	    59.179	   114.584
-19865.609	    15.514	    58.491	   100.586
-20034.527	    15.530	    56.759	   144.235
-20078.250	    15.445	    67.116	   118.559
-20013.338	    15.418	    51.873	   133.936
-19998.338	    15.537	    51.624	   111.921
-20024.617	    15.621	    57.774	   135.219
-20010.754	    15.592	    53.830	   158.581
-20098.895	    15.536	    71.520	   146.250
-20045.457	    15.539	    63.705	   109.408
-20308.404	    15.572	    55.887	   124.402
-19973.961	    15.655	    68.349	   142.207
-20092.281	    15.626	    70.964	   144.587
-20201.549	    15.407	    69.268	   145.213
-20510.398	    15.036	    67.612	   131.935
-20273.514	    14.895	    57.972	   127.538
-20187.459	    15.079	    62.516	   133.607
-19893.658	    15.377	    61.127	   115.579
-20029.045	    15.586	    56.597	   130.662
-20117.004	    15.582	    63.083	   120.843
-20104.402	    15.468	    68.432	   135.428
-20269.188	    15.269	    53.949	   128.136
-20131.406	    15.212	    57.341	   144.929
-20507.154	    15.215	    67.408	   143.240
-20270.646	    15.341	    72.828	   154.598
-20107.727	    15.519	    70.699	   128.760
-20258.389	    15.670	    73.615	   127.417
-20143.213	    15.658	    60.655	   148.017
-20228.309	    15.505	    46.950	   114.949
-20289.447	    15.334	    63.801	   157.008
-20320.047	    15.310	    54.816	   148.523
-20110.021	    15.556	    59.316	   150.050
-20014.539	    15.719	    61.710	   150.966
-20210.564	    15.729	    61.384	   132.471
-19919.521	    15.694	    70.680	   158.049
-20092.473	    15.577	    58.170	   126.725
-20191.199	    15.307	    61.929	   143.923
-20157.041	    15.072	    58.404	   120.754
-20099.986	    14.980	    55.280	   139.966
-20217.711	    15.035	    68.163	   136.441
-20329.338	    15.196	    58.902	   149.802
-20153.100	    15.422	    77.190	   149.075
-20117.021	    15.414	    62.429	   152.607
-20200.523	    15.439	    66.050	   151.039
-20202.803	    15.477	    64.298	   146.219
-20436.277	    15.432	    77.087	   158.623
-20116.758	    15.474	    59.276	   154.906
-20320.895	    15.495	    72.189	   151.056
-20332.328	    15.631	    67.202	   157.790
-20314.391	    15.682	    72.978	   146.673
-20145.850	    15.614	    66.324	   138.419
-20138.633	    15.527	    71.646	   137.992
-20373.998	    15.500	    70.957	   147.011
-20295.535	    15.599	    63.481	   141.980
-19967.154	    15.797	    81.733	   146.925
-20065.514	    15.833	    80.014	   158.440
-20219.207	    15.716	    60.540	   144.026
-20302.908	    15.625	    62.716	   134.337
-20192.213	    15.594	    64.866	   147.098
-20041.078	    15.500	    65.529	   132.498
-20190.059	    15.276	    58.722	   137.713
-20170.828	    15.035	    61.745	   134.577
-20220.318	    15.004	    52.471	   153.771
-20341.148	    15.225	    61.258	   142.369
-20136.971	    15.471	    61.691	   153.510
-19770.406	    15.500	    65.111	   151.610
-20226.742	    15.423	    60.128	   153.641
-20426.707	    15.405	    70.321	   125.577
-20124.115	    15.464	    75.110	   144.369
-20200.141	    15.414	    71.592	   142.601
-20290.596	    15.315	    63.707	   125.162
-20193.359	    15.177	    65.787	   140.016
-20160.523	    15.091	    52.225	   154.051
-20275.156	    15.214	    63.032	   137.686
-19982.168	    15.506	    70.617	   153.089
-19919.613	    15.862	    78.827	   148.690
-19915.184	    16.052	    74.926	   152.607
-20127.189	    15.869	    55.881	   150.231
-20073.053	    15.508	    64.085	   140.761
-20146.312	    15.327	    68.388	   151.635
-20278.158	    15.267	    65.061	   159.171
-20280.873	    15.339	    59.769	   167.847
-20404.564	    15.423	    69.539	   144.980
-20289.391	    15.374	    65.374	   123.997
-20254.320	    15.193	    67.215	   144.207
-20325.266	    14.993	    64.506	   122.721
-20320.797	    15.086	    73.564	   146.409
-20267.082	    15.357	    60.843	   136.526
-20110.127	    15.583	    52.010	   140.778
-20200.072	    15.638	    61.459	   149.128
-20060.014	    15.533	    71.404	   137.061
-20218.609	    15.500	    60.293	   116.327
-20281.242	    15.486	    80.750	   151.606
-20315.785	    15.374	    59.251	   146.929
-20385.043	    15.320	    58.881	   146.464
-20033.746	    15.365	    72.518	   132.743
-19987.240	    15.369	    49.394	   147.621
-20204.195	    15.313	    59.589	   131.882
-20534.936	    15.230	    69.152	   122.812
-20367.988	    15.231	    65.558	   145.946
-20054.438	    15.431	    57.876	   142.823
-20407.385	    15.520	    63.142	   143.354
-20169.508	    15.558	    67.798	   152.864
-19964.078	    15.683	    51.629	   134.187
-20212.959	    15.704	    64.410	   130.244
-20118.869	    15.766	    67.386	   163.909
-20206.895	    15.775	    70.435	   107.935
-19924.816	    15.667	    57.422	   142.785
-20236.699	    15.439	    61.725	   137.799
-20091.891	    15.270	    66.382	   152.574
-20122.773	    15.342	    55.845	   139.589
-20111.115	    15.490	    69.876	   149.008
-20177.197	    15.542	    78.627	   146.362
-20091.178	    15.602	    74.074	   134.507
-20465.957	    15.556	    63.600	   150.119
-20277.238	    15.637	    70.966	   130.826
-20113.875	    15.587	    58.557	   122.823
-20264.576	    15.417	    58.553	   141.030
-20155.643	    15.295	    72.772	   158.848
-20288.031	    15.281	    59.168	   152.896
-20386.820	    15.370	    52.338	   142.112
-20312.625	    15.566	    64.742	   143.507
-20076.500	    15.758	    65.649	   147.104
-20175.080	    15.729	    58.609	   129.551
-20216.482	    15.454	    53.524	   137.645
-20105.879	    15.285	    54.957	   132.358
-20197.828	    15.199	    64.186	   128.959
-20273.459	    15.202	    62.799	   133.065
-20147.344	    15.309	    67.616	   144.996
-20257.717	    15.465	    54.653	   140.540
-20093.965	    15.550	    56.961	   146.851
-20181.633	    15.422	    82.578	   143.897
-20202.027	    15.291	    66.469	   139.480
-20116.600	    15.265	    78.174	   134.440
-20071.625	    15.320	    65.696	   144.075
-20193.625	    15.460	    58.450	   146.041
-20072.676	    15.587	    61.376	   123.095
-20044.869	    15.662	    58.981	   113.450
-20249.127	    15.631	    62.747	   153.180
-19908.781	    15.577	    60.350	   151.153
-20200.965	    15.513	    75.127	   143.808
-20200.557	    15.504	    66.709	   153.346
-20329.168	    15.588	    65.491	   134.829
-20139.238	    15.559	    72.442	   136.813
-20470.482	    15.410	    75.975	   152.016
-20120.340	    15.303	    67.392	   130.214
-19969.725	    15.207	    66.757	   136.600
-19983.967	    15.192	    64.542	   135.751
-20271.779	    15.218	    63.971	   149.112
-20027.504	    15.304	    63.168	   128.107
-20172.887	    15.373	    56.786	   144.545
-20079.115	    15.453	    66.325	   141.191
-20070.760	    15.504	    56.736	   136.485
-20094.000	    15.439	    59.997	   119.716
-20140.631	    15.351	    61.922	   147.112
-20176.854	    15.368	    66.567	   139.769
-20291.127	    15.464	    77.389	   141.179
-20076.014	    15.538	    51.623	   133.301
-20219.732	    15.544	    64.652	   113.109
-20445.539	    15.381	    71.683	   152.590
-20256.496	    15.259	    61.486	   142.314
-20471.479	    15.193	    62.980	   157.401
-20405.914	    15.243	    54.331	   160.468
-20363.963	    15.282	    72.660	   143.927
-20236.832	    15.429	    61.613	   139.625
-19897.422	    15.644	    62.831	   154.694
-20137.125	    15.659	    61.644	   141.633
-20091.809	    15.599	    61.017	   132.453
-20129.863	    15.429	    53.799	   163.642
-20107.352	    15.253	    67.651	   160.441
-20576.514	    15.209	    59.621	   150.962
-20292.781	    15.336	    66.322	   128.850
-20135.006	    15.430	    63.579	   141.107
-20097.537	    15.360	    75.613	   136.483
-20107.441	    15.437	    69.911	   143.754
-20259.816	    15.576	    70.996	   134.295
-20268.465	    15.582	    65.762	   155.137
-20208.330	    15.581	    60.141	   148.725
-20255.887	    15.622	    72.546	   136.759
-20169.664	    15.617	    87.177	   141.744
-20023.023	    15.488	    67.393	   135.321
-20154.795	    15.378	    66.565	   152.842
-20100.658	    15.330	    58.320	   135.301
-20011.287	    15.372	    71.323	   149.772
-20099.605	    15.512	    55.348	   142.261
-20253.914	    15.525	    57.888	   135.623
-20134.064	    15.492	    71.416	   138.219
-20177.305	    15.515	    61.105	   138.635
-20159.605	    15.686	    63.737	   129.858
-20247.193	    15.735	    58.101	   140.866
-20355.834	    15.661	    68.062	   155.085
-20248.230	    15.461	    80.089	   126.466
-20114.533	    15.314	    72.757	   138.977
-20311.988	    15.187	    70.280	   131.410
-20259.051	    15.009	    66.165	   140.995
-20356.117	    15.021	    63.347	   152.514
-20263.072	    15.243	    58.998	   133.830
-20019.955	    15.496	    61.959	   144.698
-20329.797	    15.625	    54.000	   167.274
-20337.408	    15.689	    66.355	   152.533
-20044.260	    15.768	    58.116	   136.970
-20051.205	    15.762	    71.042	   139.776
-20036.119	    15.638	    63.598	   141.382
-20447.250	    15.384	    65.165	   137.252
-20473.715	    15.193	    69.101	   130.439
-20623.668	    15.156	    55.587	   132.370
-20180.316	    15.328	    63.298	   128.242
-20046.896	    15.591	    57.253	   148.427
-20010.854	    15.757	    67.597	   155.737
-19966.994	    15.786	    54.326	   134.002
-20069.568	    15.662	    65.675	   128.138
-20150.467	    15.582	    61.301	   122.941
-20128.459	    15.507	    71.868	   125.048
-20372.094	    15.482	    65.649	   128.120
-20267.537	    15.588	    71.904	   123.364
-20202.047	    15.673	    59.573	   137.164
-20117.195	    15.726	    73.997	   160.112
-20127.527	    15.671	    59.072	   130.885
-20124.252	    15.535	    67.273	   147.876
-20154.303	    15.380	    64.275	   122.424
-20139.184	    15.116	    57.357	   142.889
-20241.594	    15.026	    70.308	   126.155
-20175.949	    15.139	    57.848	   157.341
-20187.051	    15.369	    60.198	   151.682
-19866.340	    15.649	    70.289	   137.163
-19841.574	    15.702	    64.072	   134.188
-20167.041	    15.632	    72.061	   153.299
-20259.309	    15.426	    57.322	   144.436
-20200.211	    15.292	    53.428	   141.722
-20263.293	    15.208	    50.213	   137.274
-19960.648	    15.098	    63.012	   147.499
-20144.459	    15.129	    61.689	   141.748
-20356.742	    15.273	    64.269	   134.854
-20220.801	    15.426	    56.583	   146.089
-19815.156	    15.622	    72.030	   150.236
-19706.791	    15.643	    54.098	   159.283
-20050.723	    15.538	    62.880	   129.263
-20147.008	    15.433	    57.310	   149.988
-20142.512	    15.387	    65.546	   135.463
-19932.156	    15.468	    65.856	   155.228
-20267.234	    15.488	    69.395	   152.114
-20007.355	    15.439	    63.244	   134.314
-20141.514	    15.391	    65.016	   144.284
-19951.395	    15.466	    64.900	   138.035
-20258.285	    15.471	    65.521	   136.698
-20240.400	    15.494	    52.844	   139.301
-20047.164	    15.496	    58.565	   128.326
-20187.736	    15.559	    77.688	   143.559
-20178.541	    15.505	    63.637	   118.571
-20208.355	    15.400	    65.304	   122.876
-20330.705	    15.361	    56.488	   134.150
-20295.611	    15.418	    69.270	   139.979
-20197.328	    15.491	    45.266	   154.981
-20128.100	    15.592	    67.231	   142.848
-19984.529	    15.618	    74.664	   142.813
-20507.000	    15.375	    69.894	   135.427
-20351.352	    15.157	    63.819	   147.368
-20412.984	    15.133	    59.438	   139.650
-20270.840	    15.234	    63.337	   138.121
-20275.146	    15.378	    63.034	   166.740
-20221.730	    15.500	    51.516	   145.015
-20199.693	    15.663	    57.398	   140.346
-20116.551	    15.672	    74.341	   136.975
-20336.203	    15.618	    63.060	   141.283
-20270.061	    15.366	    71.207	   144.912
-20109.260	    15.228	    68.098	   124.833
-20005.117	    15.136	    69.483	   129.608
-20183.744	    15.163	    61.620	   147.627
-20259.656	    15.386	    53.375	   131.898
-19870.037	    15.618	    70.451	   123.534
-19971.338	    15.619	    72.188	   139.108
-20126.408	    15.527	    65.279	   127.968
-20304.082	    15.412	    58.200	   106.706
-20192.961	    15.239	    59.138	    81.504
-20353.492	    15.212	    69.392	   151.279
-20138.740	    15.342	    65.091	   153.060
-20215.262	    15.510	    71.727	   141.464
-20196.125	    15.589	    50.726	   141.860
-20295.889	    15.510	    65.394	   135.449
-20228.898	    15.479	    67.736	   138.427
-20172.535	    15.439	    53.276	   140.540
-20218.438	    15.380	    68.986	   127.108
-20054.656	    15.508	    74.261	   121.853
-20236.039	    15.623	    57.927	   148.897
-20356.887	    15.740	    72.214	   136.312
-20184.953	    15.703	    72.674	   123.272
-20042.074	    15.416	    59.839	   149.271
-20415.762	    15.070	    74.176	   148.185
-20264.973	    15.055	    64.468	   139.465
-20159.898	    15.155	    63.642	   143.509
-19919.307	    15.288	    61.421	   143.375
-20080.875	    15.598	    58.897	   151.933
-20143.164	    15.833	    64.688	   161.224
-19998.775	    15.886	    66.211	   145.922
-20139.922	    15.699	    73.235	   142.580
-20134.607	    15.417	    73.866	   153.821
