-19926.611	    15.334	   -92.310	   122.143
-20080.264	    15.378	   -60.786	     4.536
-20224.262	    15.333	   -37.726	   -16.088
-20278.355	    15.399	   -29.675	   -20.683
-20224.047	    15.466	   -45.479	    -3.028
-20173.717	    15.508	   -41.029	   -24.549
-20332.500	    15.543	   -51.330	   -18.362
-20337.463	    15.503	   -38.910	   -16.640
-20206.441	    15.455	   -56.330	     8.388
-20036.004	    15.399	   -48.100	   -10.743
-20253.844	    15.289	   -46.335	    -5.180
-20257.412	    15.207	   -50.657	   -13.049
-20342.316	    15.111	   -40.882	   -11.004
-20280.186	    15.131	   -51.906	   -11.901
-20101.328	    15.383	   -50.206	    20.228
-20230.957	    15.499	   -48.287	   -26.981
-20247.924	    15.355	   -54.190	   -16.343
-20236.652	    15.117	   -40.979	   -12.352
-19944.611	    15.005	   -52.541	     5.797
-20074.770	    15.171	   -41.477	   -16.924
-20116.076	    15.453	   -51.612	    21.825
-20205.064	    15.638	   -35.024	   -11.755
-20034.434	    15.850	   -23.212	   -24.540
-20024.857	    15.868	   -47.532	   -16.814
-19928.818	    15.733	   -27.726	   -34.508
-19936.896	    15.539	   -51.648	   -11.443
-20079.215	    15.333	   -39.895	    11.063
-20267.258	    15.240	   -33.674	   -23.947
-20228.309	    15.213	   -27.075	   -15.707
-20203.684	    15.293	   -51.955	   -24.722
-20115.561	    15.363	   -41.499	   -13.731
-20121.014	    15.482	   -56.221	   -10.315
-19880.172	    15.538	   -52.427	   -19.863
-20232.285	    15.424	   -51.793	   -24.174
-19879.432	    15.381	   -49.451	    -8.204
-20359.631	    15.350	   -56.849	   -21.669
-20068.504	    15.195	   -51.179	   -18.062
-20167.414	    15.192	   -45.684	   -17.626
-20092.182	    15.264	   -49.278	    -1.129
-20197.455	    15.299	   -40.943	   -13.369
-20284.506	    15.577	   -42.265	   -12.836
-19927.490	    15.717	   -46.114	    -0.664
-20045.713	    15.645	   -43.736	   -11.355
-20133.926	    15.455	   -48.692	   -13.496
-20421.588	    15.204	   -31.294	   -16.017
-20460.412	    15.074	   -49.628	   -13.868
-20379.133	    15.243	   -42.394	    -4.837
-20071.244	    15.473	   -48.189	     6.630
-20044.316	    15.625	   -43.658	     9.321
-20051.865	    15.654	   -46.948	   -22.765
-20229.012	    15.563	   -47.745	   -18.630
-20351.143	    15.383	   -38.925	   -17.361
-20128.592	    15.342	   -37.921	   -11.879
-20035.273	    15.469	   -49.695	   -14.555
-20106.715	    15.529	   -43.436	   -19.565
-20272.160	    15.716	   -29.149	   -16.385
-20091.068	    15.708	   -19.414	   -16.538
-20247.164	    15.534	   -29.358	   -11.121
-20196.449	    15.468	   -44.746	   -26.521
-20400.670	    15.358	   -39.359	     4.504
-20095.479	    15.308	   -39.691	   -27.030
-20291.932	    15.394	   -34.298	   -17.972
-20300.932	    15.513	   -49.679	   -15.959
-20239.512	    15.617	   -35.735	   -16.216
-20162.924	    15.638	   -56.678	   -14.163
-20059.057	    15.550	   -39.867	   -11.831
-19979.244	    15.487	   -39.757	   -23.929
-19910.805	    15.513	   -46.338	   -21.483
-20063.936	    15.568	   -53.326	     7.188
-20024.666	    15.642	   -48.259	   -15.628
-20153.145	    15.747	   -37.251	   -13.219
-20123.080	    15.970	   -32.662	    -2.078
-19934.645	    15.934	   -51.516	   -12.859
-19950.359	    15.760	   -44.612	    -6.223
-20082.150	    15.539	   -41.009	   -16.018
-20216.691	    15.474	   -46.221	   -15.060
-20085.775	    15.513	   -42.894	   -11.199
-20242.064	    15.455	   -50.598	   -15.193
-19874.008	    15.326	   -39.993	   -12.698
-20209.146	    15.230	   -42.402	   -13.767
-20296.379	    15.090	   -45.674	    -6.096
-20282.646	    15.190	   -50.498	     7.401
-20325.195	    15.411	   -38.913	   -19.400
-20091.205	    15.577	   -27.973	   -37.519
-19880.092	    15.595	   -26.895	   -12.054
-19912.096	    15.507	   -39.702	   -21.879
-19952.316	    15.490	   -52.358	    -9.569
-20078.801	    15.417	   -32.667	   -15.265
-20199.008	    15.398	   -30.065	   -10.188
-20100.539	    15.425	   -55.224	    -7.787
-20262.895	    15.473	   -47.445	   -20.125
-19837.844	    15.486	   -44.727	    -2.132
-20273.121	    15.383	   -43.101	    -7.104
-20139.506	    15.271	   -51.062	     4.602
-20477.705	    15.150	   -52.548	     6.975
-20358.623	    15.234	   -26.949	   -15.389
-20316.029	    15.318	   -21.454	    -5.119
-20031.684	    15.457	   -43.424	    11.857
-20367.326	    15.510	   -45.247	    -8.398
-20110.506	    15.643	   -37.729	   -15.826
-20206.914	    15.713	   -29.645	   -15.910
-20108.334	    15.668	   -20.931	    -5.233
-20197.979	    15.563	   -31.704	   -26.632
-20121.748	    15.400	   -40.455	   -34.457
-20256.283	    15.341	   -43.189	    -7.617
-20243.352	    15.394	   -49.856	   -16.100
-20323.352	    15.453	   -42.962	   -19.579
-20145.584	    15.455	   -24.717	   -11.338
-20115.479	    15.488	   -50.968	     1.135
-20106.666	    15.652	   -44.876	    -6.136
-20207.949	    15.709	   -36.902	    -1.232
-20247.027	    15.630	   -39.697	    -4.790
-20332.857	    15.476	   -39.815	    -3.437
-20309.529	    15.271	   -28.087	   -14.088
-20282.168	    15.169	   -31.326	    -6.730
-20243.912	    15.172	   -36.059	   -10.638
-20204.932	    15.358	   -51.946	    -0.008
-20307.074	    15.564	   -28.208	     7.995
-20305.707	    15.749	   -44.752	   -34.170
-20153.859	    15.696	   -49.411	   -19.141
-20114.500	    15.590	   -47.958	   -19.091
-20115.320	    15.556	   -40.613	   -14.320
-20156.037	    15.466	   -47.465	    -9.543
-20059.566	    15.406	   -28.437	    -8.667
-20010.475	    15.415	   -45.204	     4.623
-20111.439	    15.399	   -42.140	   -31.559
-20191.070	    15.353	   -42.706	   -12.221
-20043.314	    15.405	   -47.704	   -24.492
-19941.766	    15.402	   -34.835	   -14.218
-20119.877	    15.401	   -36.384	   -16.078
-20413.789	    15.384	   -34.186	    -9.764
-20289.174	    15.354	   -50.532	    -2.306
-20181.545	    15.454	   -45.575	     1.367
-19971.469	    15.552	   -18.603	    -7.918
-20079.426	    15.532	   -52.710	   -13.396
-20158.645	    15.479	   -26.282	   -19.658
-20121.434	    15.397	   -49.987	     6.317
-20258.510	    15.450	   -45.957	     1.549
-19959.979	    15.574	   -57.635	     2.307
-20163.201	    15.570	   -46.498	     5.181
-20190.955	    15.459	   -29.920	     5.298
-19985.416	    15.379	   -45.162	     7.641
-20130.713	    15.215	   -30.220	   -14.644
-20439.047	    15.162	   -57.455	    -5.742
-20135.436	    15.353	   -68.352	     1.491
-19888.555	    15.551	   -43.961	    13.641
-20298.309	    15.732	   -24.809	     0.820
-19936.902	    15.872	   -46.971	     4.353
-19886.752	    15.883	   -48.070	    15.311
-20089.207	    15.785	   -41.663	    -4.968
-20256.385	    15.559	   -46.163	   -12.581
-20123.076	    15.379	   -29.184	    -5.650
-20259.943	    15.251	   -39.408	    -3.433
-20061.627	    15.170	   -58.267	    21.751
-19970.100	    15.160	   -26.727	    12.030
-19912.346	    15.256	   -41.147	    17.431
-19861.027	    15.324	   -62.242	    25.127
-20081.748	    15.362	   -50.733	    12.457
-20178.428	    15.377	   -56.620	   -23.763
-20134.438	    15.436	   -48.715	   -17.857
-20110.932	    15.429	   -44.980	     3.982
-20157.920	    15.401	   -21.937	   -15.024
-20081.594	    15.349	   -37.120	     3.882
-20168.725	    15.368	   -29.799	   -30.508
-20226.740	    15.384	   -32.069	   -12.786
-20358.564	    15.297	   -56.045	    -7.854
-19756.584	    15.239	   -52.435	   -16.831
-20277.316	    15.208	   -48.380	   -39.747
-19988.922	    15.299	   -31.946	   -24.839
-20147.080	    15.411	   -41.421	   -35.076
-20260.045	    15.539	   -45.516	   -23.852
-20046.426	    15.557	   -31.625	   -17.226
-20173.750	    15.518	   -51.603	    -1.853
-20193.725	    15.443	   -46.203	    -1.808
-20459.734	    15.442	   -22.858	   -27.440
-20471.855	    15.401	   -50.730	    -2.828
-20176.586	    15.397	   -32.299	   -19.006
-20330.592	    15.398	   -51.847	   -11.465
-19965.396	    15.405	   -44.044	   -27.866
-20193.115	    15.372	   -41.623	   -29.456
-20092.510	    15.471	   -33.822	   -17.676
-20000.279	    15.503	   -51.172	   -13.923
-20255.945	    15.515	   -43.515	     1.387
-20095.377	    15.547	   -51.733	   -11.591
-20134.922	    15.599	   -25.571	    -2.134
-20067.555	    15.582	   -47.375	   -14.791
-20053.945	    15.423	   -53.611	   -15.042
-20262.684	    15.155	   -46.076	   -24.506
-20225.582	    15.062	   -45.755	    -2.754
-20038.244	    15.269	   -34.452	   -48.049
-20135.373	    15.445	   -29.118	   -25.612
-20190.984	    15.513	   -47.904	   -17.177
-20182.354	    15.534	   -43.429	   -15.349
-20118.922	    15.574	   -39.262	   -27.069
-20250.205	    15.546	   -59.435	     0.728
-19980.492	    15.482	   -51.411	    -8.806
-20148.463	    15.290	   -18.350	   -35.908
-20136.129	    15.060	   -31.622	   -28.300
-20233.006	    15.015	   -53.004	   -11.907
-20355.680	    15.136	   -39.481	   -15.535
-20187.090	    15.368	   -38.246	   -23.358
-20021.230	    15.537	   -44.104	     4.553
-20022.453	    15.629	   -40.665	   -17.185
-20339.205	    15.644	   -57.784	   -13.621
-20233.236	    15.505	   -34.407	    -7.830
-20535.871	    15.443	   -41.253	   -20.917
-20312.090	    15.492	   -20.024	   -30.885
-20450.672	    15.518	   -37.311	    -2.641
-20199.732	    15.567	   -52.263	   -17.935
-20315.615	    15.482	   -41.190	   -27.292
-20035.328	    15.374	   -45.344	   -17.186
-20125.506	    15.272	   -41.503	   -28.791
-20265.934	    15.279	   -43.762	    -6.592
-20160.936	    15.293	   -59.387	     2.761
-20157.164	    15.399	   -56.828	    -5.774
-20096.414	    15.558	   -49.950	   -14.591
-20077.957	    15.649	   -50.171	   -12.169
-20212.809	    15.688	   -42.489	   -22.622
-20286.018	    15.589	   -41.427	   -24.577
-20187.031	    15.435	   -43.431	    -2.169
-20429.275	    15.344	   -59.519	     9.451
-20292.639	    15.255	   -34.034	   -14.256
-20408.865	    15.127	   -63.254	   -10.290
-20166.611	    15.132	   -56.621	     6.687
-20465.590	    15.261	   -56.266	    -5.582
-20295.678	    15.397	   -51.271	   -14.737
-20275.246	    15.559	   -57.940	    -2.820
-20236.344	    15.748	   -51.841	    -0.249
-20120.541	    15.718	   -40.960	   -10.659
-20214.514	    15.516	   -42.840	   -24.690
-20041.252	    15.308	   -60.547	    -1.153
-20398.752	    15.129	   -33.785	   -33.547
-20211.910	    15.069	   -33.792	   -30.187
-20115.574	    15.065	   -46.476	    -2.791
-20345.121	    15.211	   -58.403	     1.786
-20198.699	    15.419	   -60.852	   -22.090
-20157.137	    15.608	   -50.319	    -0.701
-20318.291	    15.701	   -43.200	   -21.363
-20107.688	    15.587	   -53.107	     3.210
-20081.367	    15.470	   -15.248	   -17.472
-20166.135	    15.388	   -49.255	     7.956
-20214.236	    15.304	   -33.195	   -19.322
-20076.682	    15.410	   -54.596	   -18.618
-19940.246	    15.572	   -49.475	    -1.683
-20243.232	    15.644	   -43.746	    17.050
-20264.109	    15.612	   -48.613	   -26.871
-20236.191	    15.581	   -40.518	   -28.945
-20134.734	    15.576	   -55.240	   -16.181
-20159.895	    15.501	   -41.209	   -23.858
-20166.623	    15.281	   -52.651	     9.234
-20543.955	    15.130	   -40.869	   -15.035
-20306.371	    15.028	   -51.046	   -12.445
-20038.795	    15.000	   -31.878	   -18.919
-20205.395	    15.161	   -49.889	   -16.862
-20141.107	    15.412	   -52.545	     1.736
-20174.816	    15.607	   -43.136	   -20.372
-19933.766	    15.696	   -38.979	   -19.612
-20098.791	    15.719	   -15.356	   -16.244
-20188.324	    15.679	   -41.366	   -35.509
-19970.230	    15.601	   -47.626	   -10.718
-20105.047	    15.731	   -29.233	    -5.006
-20073.920	    15.803	   -36.839	   -13.359
-20146.426	    15.711	   -50.296	   -19.477
-20043.432	    15.545	   -30.200	   -15.836
-20057.289	    15.462	   -34.174	    19.873
-20083.270	    15.439	   -36.469	   -13.495
-20100.469	    15.308	   -19.609	    -8.805
-20283.750	    15.152	   -56.639	   -13.504
-20073.697	    15.212	   -42.360	   -10.241
-20138.723	    15.435	   -46.650	    -0.507
-19991.771	    15.634	   -32.520	    -0.922
-20010.338	    15.684	   -52.522	   -11.742
-19851.432	    15.651	   -42.210	    -9.498
-20202.916	    15.565	   -39.901	   -18.160
-20309.023	    15.470	   -28.443	   -22.381
-20172.594	    15.454	   -43.079	   -19.253
-20270.115	    15.395	    29.973	     0.392
-20266.727	    15.384	    36.081	    36.585
-20074.012	    15.347	    35.209	    37.897
-20106.197	    15.349	    38.643	    48.427
-20314.434	    15.443	    48.780	    20.199
-20137.088	    15.532	    42.060	    12.457
-20106.043	    15.673	    42.286	    28.481
-20156.090	    15.762	    45.720	    17.681
-19950.379	    15.739	    46.320	    11.710
-19971.439	    15.614	    37.840	    27.070
-20004.002	    15.453	    40.916	    17.448
-20400.838	    15.458	    39.790	     5.103
-20229.799	    15.443	    50.885	    26.331
-20126.508	    15.459	    35.558	    24.948
-20267.682	    15.615	    55.056	    13.686
-20070.479	    15.613	    40.671	    21.473
-19950.082	    15.614	    43.428	    25.171
-19864.574	    15.626	    38.540	    27.465
-20042.922	    15.665	    60.745	    34.711
-20130.916	    15.626	    44.161	    39.305
-19997.279	    15.582	    48.585	    14.092
-20050.734	    15.468	    49.946	    24.370
-19980.873	    15.424	    45.646	    33.976
-20107.578	    15.397	    50.359	    16.659
-20140.152	    15.423	    36.724	    28.096
-20199.775	    15.428	    40.839	    29.498
-20134.500	    15.355	    36.834	    28.504
-20138.492	    15.364	    39.918	    26.036
-20081.443	    15.335	    40.795	    22.572
-19899.053	    15.348	    53.134	     5.894
-20064.453	    15.401	    52.309	    20.812
-20142.773	    15.460	    41.470	    14.958
-20040.789	    15.535	    33.681	    17.631
-20069.232	    15.504	    39.074	    38.254
-20229.510	    15.425	    47.344	    43.695
-20334.576	    15.534	    55.262	    18.930
-20019.010	    15.722	    31.914	    48.909
-20092.637	    15.719	    44.767	    39.991
-20367.051	    15.450	    43.271	    26.157
-20149.852	    15.226	    50.675	    23.768
-20315.164	    15.191	    48.570	    47.308
-20256.613	    15.234	    61.389	    27.250
-20219.324	    15.408	    38.955	    16.677
-20130.604	    15.547	    43.443	    21.496
-19928.654	    15.595	    39.545	    32.475
-20105.609	    15.610	    52.002	    13.748
-20169.852	    15.564	    57.582	    10.862
-20036.830	    15.504	    45.411	    -2.916
-20075.539	    15.438	    50.175	     8.284
-20080.211	    15.456	    40.709	    21.253
-20321.139	    15.446	    58.918	    13.928
-20473.887	    15.413	    36.941	    23.548
-20359.504	    15.384	    33.957	    21.818
-20174.609	    15.246	    43.121	    19.688
-20294.154	    15.132	    46.238	    19.101
-20155.596	    15.131	    44.843	    21.798
-20416.045	    15.296	    37.516	    43.639
-20067.809	    15.561	    57.934	    25.118
-20043.721	    15.699	    43.877	    18.518
-20242.350	    15.565	    46.835	    11.439
-20316.525	    15.364	    42.707	    23.096
-20297.551	    15.153	    45.708	    29.746
-20168.510	    15.100	    45.951	    13.117
-20055.346	    15.223	    48.849	    31.380
-20046.293	    15.454	    32.320	    31.349
-20108.969	    15.557	    55.589	     6.240
-20241.893	    15.568	    48.066	    -9.811
-20103.703	    15.540	    35.589	     2.703
-20150.461	    15.615	    40.692	    18.940
-20112.084	    15.715	    37.633	    35.858
-20204.307	    15.738	    46.142	    41.839
-19911.619	    15.630	    61.313	    18.319
-20174.363	    15.482	    38.123	    30.508
-20137.312	    15.470	    41.460	    34.382
-20358.875	    15.622	    44.251	    11.439
-19930.449	    15.651	    44.207	    30.008
-20091.535	    15.592	    50.711	    36.864
-20236.449	    15.450	    48.391	     9.745
-20211.863	    15.265	    49.688	    12.198
-20455.357	    15.076	    40.530	    14.516
-20183.541	    15.088	    45.357	    15.753
-19977.420	    15.193	    43.593	    40.572
-20060.559	    15.377	    31.688	    38.043
-20084.168	    15.544	    52.950	    21.536
-20255.803	    15.552	    51.030	    26.526
-20041.672	    15.522	    36.641	    34.205
-20181.979	    15.561	    51.305	    29.498
-19846.098	    15.592	    30.597	    35.848
-19995.688	    15.403	    44.196	    41.014
-20277.584	    15.209	    39.337	    28.289
-20351.363	    15.144	    42.652	    15.612
-20235.910	    15.185	    49.609	    55.408
-20329.305	    15.343	    46.469	    15.528
-19920.941	    15.528	    34.902	    15.483
-19767.316	    15.631	    42.922	    33.628
-20008.418	    15.667	    45.677	    39.700
-20150.361	    15.697	    47.449	    27.971
-19878.521	    15.567	    33.985	    26.813
-20244.832	    15.422	    53.577	    34.053
-20203.688	    15.246	    50.788	    21.796
-20278.488	    15.040	    40.440	    23.281
-20318.727	    14.968	    37.233	     8.755
-20185.852	    15.197	    48.880	    25.560
-19881.670	    15.544	    36.220	    32.877
-20419.201	    15.675	    40.404	     1.552
-19976.920	    15.560	    40.559	    11.832
-20189.293	    15.287	    47.628	    10.896
-20143.525	    15.102	    32.383	     8.011
-20200.070	    15.257	    43.182	     9.964
-20005.951	    15.501	    48.962	    12.000
-19867.955	    15.713	    36.305	    36.529
-20036.340	    15.719	    35.524	    40.154
-19916.574	    15.650	    49.605	    18.060
-20176.609	    15.523	    40.947	    46.817
-20093.787	    15.412	    48.459	    28.859
-20163.508	    15.295	    37.669	    37.504
-20281.562	    15.137	    48.481	    13.418
-20140.768	    14.961	    40.162	    17.161
-20409.996	    14.997	    28.208	    32.748
-20173.707	    15.205	    39.063	    26.901
-20248.893	    15.301	    40.203	    20.558
-20080.295	    15.309	    34.213	    41.626
-20144.057	    15.369	    52.398	    22.797
-20175.369	    15.383	    50.282	    29.455
-20128.035	    15.356	    51.340	    26.199
-20278.535	    15.485	    34.332	    26.895
-20192.082	    15.562	    44.959	    29.802
-20155.148	    15.516	    34.173	    40.286
-20173.178	    15.384	    45.428	    25.624
-20583.439	    15.339	    41.584	    27.401
-20410.799	    15.438	    39.917	    19.412
-20327.641	    15.444	    41.831	    32.493
-20489.256	    15.354	    45.755	    27.414
-20328.982	    15.290	    44.293	    15.749
-20226.359	    15.198	    54.675	    18.418
-20452.746	    15.196	    34.503	    31.554
-20294.732	    15.320	    42.812	    30.518
-20162.559	    15.541	    45.512	    22.033
-19843.588	    15.830	    45.618	     8.018
-19984.299	    15.833	    45.596	     4.326
-19929.129	    15.572	    41.716	    15.307
-20158.312	    15.322	    54.909	    17.791
-20276.818	    15.114	    46.342	    24.809
-20383.799	    14.931	    42.601	    33.306
-20338.514	    15.039	    42.676	    29.540
-20015.346	    15.339	    49.820	     7.756
-19945.562	    15.543	    45.843	    18.879
-20074.924	    15.646	    43.633	    16.430
-20269.064	    15.707	    39.512	    24.263
-20312.857	    15.674	    52.594	    23.022
-20184.678	    15.479	    52.249	    10.872
-20363.939	    15.307	    37.676	    31.256
-20280.861	    15.252	    35.838	    30.906
-20381.199	    15.299	    41.045	    15.605
-20106.139	    15.376	    41.032	    23.914
-20143.141	    15.507	    49.892	    23.365
-19861.186	    15.658	    58.743	    11.038
-20199.533	    15.667	    36.922	    37.480
-20062.408	    15.543	    46.557	    28.796
-20095.928	    15.327	    50.992	     5.777
-20311.834	    15.213	    27.364	    30.384
-20446.711	    15.233	    50.332	    37.884
-20199.738	    15.416	    54.513	    23.335
-20122.203	    15.661	    38.222	    46.550
-20036.068	    15.835	    56.430	    24.663
-20243.184	    15.832	    41.612	    36.550
-19967.256	    15.748	    39.849	    39.795
-20301.969	    15.509	    38.724	    14.324
-20338.555	    15.337	    44.562	    25.536
-20275.107	    15.285	    48.819	     4.709
-20485.012	    15.251	    37.511	     8.144
-20081.896	    15.447	    54.432	    32.261
-20059.342	    15.515	    41.813	    24.708
-20353.752	    15.383	    39.694	    37.084
-20178.234	    15.289	    41.951	    23.391
-20138.455	    15.319	    41.455	    44.363
-19887.299	    15.285	    36.785	    44.420
-20084.125	    15.360	    38.266	    36.287
-20298.234	    15.389	    43.248	    23.981
-20101.162	    15.240	    34.541	    45.686
-20205.941	    15.269	    47.829	    38.059
-20079.371	    15.293	    39.478	    27.779
-19930.459	    15.436	    26.704	    37.670
-19934.600	    15.488	    38.750	    19.087
-20306.887	    15.400	    43.686	    14.509
-20374.918	    15.282	    52.297	    10.167
-20169.203	    15.266	    35.909	    15.293
-20273.053	    15.365	    39.990	     6.575
-20130.613	    15.452	    57.968	    22.414
-20072.074	    15.517	    29.319	    37.566
-19886.826	    15.537	    42.634	    15.328
-20077.557	    15.458	    38.082	    22.021
-20228.641	    15.372	    40.577	    39.112
-20194.824	    15.371	    52.960	    24.148
-20137.502	    15.261	    40.490	    28.501
-20118.447	    15.283	    45.304	    26.181
-20207.240	    15.364	    40.242	    34.209
-20230.391	    15.442	    36.540	    35.525
-20141.320	    15.456	    47.357	    27.163
-19689.826	    15.461	    45.742	    31.471
-20081.473	    15.377	    42.968	    34.070
-19871.631	    15.507	    38.381	    38.479
-20012.094	    15.551	    40.419	     3.806
-19997.658	    15.524	    48.382	    24.659
-20192.008	    15.497	    40.249	    17.216
-20227.100	    15.570	    53.409	     8.981
-20109.445	    15.594	    46.497	    23.280
-20191.186	    15.471	    45.108	    23.143
-20312.100	    15.276	    35.384	    38.441
-20281.330	    15.146	    45.949	    22.359
-20375.969	    15.195	    29.755	    37.620
-20134.785	    15.436	    48.481	    34.637
-20180.430	    15.608	    35.417	    27.037
-20077.457	    15.686	    35.853	    41.941
-19989.812	    15.648	    53.722	     9.697
-19940.799	    15.658	    48.158	    14.722
-20214.732	    15.563	    46.888	     3.804
-20044.359	    15.421	    37.607	    29.860
-20320.971	    15.352	    50.131	     5.482
-20186.129	    15.332	    45.698	    19.521
-20344.141	    15.263	    33.007	    23.416
-20103.979	    15.317	    36.158	    20.419
-20389.160	    15.398	    50.189	    29.824
-20290.793	    15.509	    39.376	    20.362
-20090.303	    15.566	    39.176	    26.533
-20053.891	    15.483	    43.861	    23.938
-20130.436	    15.365	    42.728	    29.472
-20123.754	    15.300	    25.341	    16.781
-20145.350	    15.354	    45.742	    33.205
-20064.568	    15.432	    44.668	    26.770
-20153.496	    15.560	    54.411	    28.845
-20252.146	    15.579	    48.844	    18.241
-20064.074	    15.569	    47.313	    14.347
-20075.508	    15.394	    56.758	     3.089
-20314.658	    15.218	    40.382	    23.867
-20186.264	    15.156	    45.510	    30.443
-20193.547	    15.206	    38.180	    37.396
-20245.463	    15.349	    50.928	    21.806
-20157.846	    15.504	    44.777	    15.529
-20118.096	    15.515	    52.012	    15.054
-20121.775	    15.468	    40.107	    49.886
-20268.520	    15.390	    28.614	    11.803
-20303.553	    15.260	    48.483	    20.412
-20118.848	    15.293	    29.013	    33.069
-20291.346	    15.426	    38.207	    34.047
-20010.613	    15.524	    51.566	    22.076
-20131.391	    15.460	    33.764	    35.794
-20286.379	    15.296	    32.069	    46.313
-20368.574	    15.365	    22.093	    19.340
-20067.436	    15.596	    52.047	    -5.784
-19994.838	    15.783	    42.275	    26.261
-20195.762	    15.796	    37.502	    22.495
-20129.529	    15.681	    45.093	    31.313
-20105.748	    15.532	    31.412	    55.972
-20251.141	    15.407	    40.132	    35.350
-20227.410	    15.369	    44.751	    29.157
-20096.197	    15.405	    39.416	    33.988
-20044.162	    15.453	    51.225	    31.372
-20315.170	    15.310	    44.017	    34.153
-20118.973	    15.203	    45.093	    34.287
-20061.344	    15.241	    41.540	    21.999
-20010.053	    15.509	    50.738	    25.096
-20001.193	    15.703	    36.020	    28.283
-20138.301	    15.726	    40.873	   -10.209
-20046.025	    15.627	    58.934	     9.056
-20133.520	    15.502	    39.380	    33.446
-20033.012	    15.360	    44.147	    30.066
-20137.186	    15.412	    46.155	    21.952
-20065.082	    15.517	    40.682	    56.967
-20127.303	    15.542	    41.020	     2.252
-20083.584	    15.544	    48.048	     1.716
-20308.480	    15.547	    38.504	    32.334
-20146.396	    15.483	    48.831	    16.251
-20134.740	    15.408	    37.927	    41.365
-20233.555	    15.284	    44.483	    33.133
-19958.990	    15.303	    35.598	    18.736
-20268.359	    15.283	    49.964	    29.650
-20271.170	    15.405	    42.891	    23.555
-19965.088	    15.575	    47.432	    25.102
-20229.086	    15.622	    44.428	    36.045
-20130.068	    15.577	    35.695	    22.010
-20405.242	    15.615	    44.596	    23.705
-20132.107	    15.725	    55.066	    13.186
-20153.748	    15.749	    46.639	    46.540
-20004.072	    15.698	    35.949	    43.376
-20167.875	    15.596	    40.597	    22.924
-20292.697	    15.415	    52.519	    17.125
-20094.738	    15.326	    36.026	    29.954
-19889.824	    15.335	    41.212	    22.128
-20071.580	    15.382	    42.373	    23.366
-20281.504	    15.449	    52.646	    19.825
-20157.074	    15.609	    51.091	    29.957
-19859.725	    15.600	    36.166	    31.750
-20034.943	    15.550	    46.392	     9.173
-19997.717	    15.583	    53.007	    32.443
-20189.643	    15.628	    50.479	    29.569
-20071.014	    15.630	    40.521	    34.438
-20060.172	    15.510	    40.218	    28.557
-20268.059	    15.324	    41.682	    24.356
-20150.562	    15.323	    43.804	    13.426
-20145.414	    15.324	    59.532	    26.611
-20202.771	    15.226	    55.164	    33.165
-20122.811	    15.231	    38.032	     7.632
-20183.117	    15.294	    32.337	    30.028
-20416.760	    15.395	    46.190	    25.097
-20125.732	    15.511	    36.580	    26.168
-20225.256	    15.617	    48.625	    32.660
-20148.840	    15.667	    29.650	    35.176
-20154.795	    15.542	    36.827	    37.525
-20231.164	    15.308	    46.829	    22.346
-20377.494	    15.094	    52.291	     7.332
-20358.943	    15.124	    46.845	    19.025
-19942.607	    15.455	    47.760	    48.239
-20075.510	    15.681	    36.227	    25.924
-20093.020	    15.737	    48.690	    36.995
-20176.250	    15.642	    47.656	    13.934
-20011.387	    15.553	    44.529	    30.340
-20254.650	    15.398	    46.276	    28.752
-20146.846	    15.244	    45.393	    15.659
-20326.439	    15.132	    43.778	    21.785
-20314.172	    15.130	    47.821	    30.322
-19940.875	    15.285	    36.065	    22.645
-20085.234	    15.469	    52.307	    16.055
-19986.887	    15.583	    40.583	    31.896
-20055.992	    15.610	    42.609	    24.977
-20298.021	    15.554	    37.357	    34.983
-20019.963	    15.467	    34.878	    51.829
-20211.809	    15.297	    51.831	    33.206
-20044.301	    15.122	    46.367	    -2.109
-20166.688	    15.087	    45.707	    16.399
-20158.875	    15.308	    42.882	     1.299
-19923.484	    15.564	    36.352	    42.128
-20130.881	    15.782	    44.459	    30.000
-19965.076	    15.784	    57.362	    25.499
-20178.631	    15.712	    44.622	    32.113
-20349.262	    15.569	    32.543	    34.798
-20120.553	    15.413	    48.515	    27.698
-20281.553	    15.278	    52.475	    15.607
-20262.562	    15.269	    34.130	    17.209
-20222.162	    15.352	    44.438	    15.708
-20252.707	    15.429	    34.319	    32.672
-20292.844	    15.437	    49.704	    24.809
-20265.658	    15.473	    39.333	    24.756
-20041.143	    15.566	    44.774	    34.353
-19995.908	    15.590	    47.525	    26.259
-20186.770	    15.614	    40.662	    34.828
-20165.975	    15.521	    40.495	    10.219
-20283.215	    15.372	    36.411	    17.588
-20220.873	    15.226	    55.817	    21.023
-20234.264	    15.165	    42.354	    26.721
-20119.922	    15.337	    44.368	    16.370
-20266.916	    15.459	    45.360	    29.440
-20201.752	    15.511	    49.128	    37.306
-20298.275	    15.493	    37.009	    22.735
-20359.896	    15.425	    22.593	    34.855
-20282.379	    15.517	    39.010	    31.638
-20047.033	    15.704	    48.461	    37.636
-20002.979	    15.729	    38.901	    34.922
-20306.385	    15.557	    44.236	    35.088
-20304.771	    15.357	    38.737	     8.359
-20322.863	    15.219	    44.192	    37.771
-20263.598	    15.258	    47.930	    11.243
-20193.828	    15.364	    47.161	    29.984
-20266.398	    15.328	    47.378	    14.234
-20123.631	    15.304	    45.878	    17.952
-20057.596	    15.252	    58.305	     6.579
-20138.338	    15.229	    34.953	    27.785
-20117.709	    15.297	    49.196	    41.716
-20089.969	    15.410	    38.740	    25.648
-20099.699	    15.447	    49.196	    33.588
-19897.186	    15.454	    43.952	    27.011
-20192.518	    15.482	    49.793	     3.652
-20302.811	    15.471	    40.481	    40.242
-20064.137	    15.452	    42.989	    30.334
-20405.141	    15.341	    46.594	    14.405
-20424.250	    15.321	    37.647	    29.821
-20366.980	    15.442	    36.981	    15.921
-20163.158	    15.576	    37.065	    15.271
-20089.301	    15.618	    59.707	    12.045
-20247.350	    15.474	    43.827	     4.277
-20177.586	    15.234	    45.873	    34.607
-20271.170	    15.156	    43.433	    23.138
-20248.576	    15.214	    40.758	    32.453
-20302.486	    15.335	    58.248	    12.077
-20021.654	    15.488	    49.347	    26.147
-20110.137	    15.656	    28.865	    40.218
-20236.000	    15.785	    42.692	    37.568
-19894.887	    15.794	    27.431	    33.470
-20366.650	    15.664	    36.670	    19.273
-20074.875	    15.439	    45.081	    29.375
-20058.629	    15.305	    37.016	    13.077
-20261.271	    15.333	    56.296	    17.896
-19954.895	    15.401	    48.508	    16.627
-20193.238	    15.532	    38.335	    29.942
-20324.115	    15.679	    50.089	    14.868
-20047.830	    15.798	    32.429	    49.531
-20224.250	    15.800	    44.354	    37.565
-19841.719	    15.657	    37.892	    26.264
-20113.701	    15.541	    48.227	    28.423
-20122.918	    15.471	    58.238	    29.324
-20148.912	    15.518	    40.920	    43.343
-20224.346	    15.505	    51.220	    25.219
-20205.732	    15.479	    43.595	    31.477
-20202.973	    15.511	    46.374	    26.501
-19954.053	    15.542	    38.630	     7.795
-20345.783	    15.476	    42.365	    34.752
-20397.457	    15.381	    41.829	    23.954
-20116.406	    15.357	    27.760	    29.009
-20103.457	    15.258	    29.935	    34.289
-20298.938	    15.192	    38.861	    41.847
-20338.623	    15.342	    44.831	    42.397
-20083.076	    15.692	    45.832	    24.788
-20410.211	    15.870	    46.429	    36.913
-19905.537	    15.818	    47.675	    21.928
-20227.990	    15.540	    47.521	    32.433
-20033.371	    15.340	    44.063	    25.632
-20206.248	    15.182	    41.500	    19.060
-20155.754	    15.238	    44.019	    16.903
-19980.914	    15.464	    49.070	     9.944
-20067.285	    15.494	    39.039	    12.159
-20177.836	    15.490	    44.163	    16.846
-19989.902	    15.510	    48.428	    25.481
-20086.195	    15.477	    44.709	    32.036
-20008.066	    15.439	    49.872	    41.148
-20166.820	    15.378	    35.449	    14.997
-20401.098	    15.303	    38.607	    17.351
-20209.422	    15.298	    46.363	    31.980
-20280.480	    15.311	    43.855	    20.925
-20361.549	    15.231	    33.279	    30.159
-20313.732	    15.183	    49.531	    22.165
-20102.008	    15.275	    31.131	    36.526
-19969.822	    15.333	    52.293	    43.647
-20150.273	    15.424	    35.755	    26.180
-20510.100	    15.494	    41.807	     4.298
-20404.586	    15.513	    55.395	    21.066
-20189.748	    15.501	    41.851	    10.939
-20183.734	    15.519	    37.663	    31.055
-20298.119	    15.526	    42.382	    18.145
-20179.541	    15.574	    38.083	     5.086
-20201.086	    15.653	    32.633	    37.790
-19992.193	    15.664	    43.577	    20.909
-20024.516	    15.612	    47.509	    20.616
-20094.270	    15.480	    42.247	    16.620
-20044.799	    15.450	    46.057	    23.692
-20061.248	    15.457	    35.675	    29.667
-19936.404	    15.365	    38.481	    32.324
-20587.068	    15.098	    34.527	    29.584
-20247.666	    14.953	    44.037	    27.830
-20277.762	    15.067	    45.587	    13.597
-20173.078	    15.433	    37.274	    12.562
-19851.289	    15.735	    59.128	     9.311
-20202.865	    15.782	    43.746	    14.198
-20234.770	    15.721	    47.722	    -5.838
-19877.598	    15.485	    52.813	     1.829
-20147.436	    15.282	    49.803	    12.486
-20332.051	    15.170	    46.802	    34.024
-20310.707	    15.133	    44.642	    15.019
-20413.867	    15.120	    38.077	    40.448
-20267.869	    15.220	    45.687	    35.747
-20348.289	    15.300	    54.709	    26.507
-20095.668	    15.429	    38.327	    25.979
-19953.453	    15.447	    47.469	    29.024
-20263.971	    15.371	    43.904	    35.837
-20265.703	    15.272	    40.612	    47.729
-20320.410	    15.275	    39.880	    34.722
-20220.475	    15.533	    45.477	    18.268
-20015.928	    15.718	    43.528	    34.688
-20336.283	    15.705	    44.526	    20.734
-20386.682	    15.542	    37.325	    35.822
-20248.762	    15.197	    61.656	    17.237
-20368.670	    14.951	    43.634	    46.509
-20189.227	    15.088	    44.433	    41.213
-20253.631	    15.389	    38.948	    36.690
-20178.443	    15.637	    39.407	    31.936
-20086.428	    15.689	    48.762	     6.515
-20301.398	    15.502	    43.844	    40.465
-20261.215	    15.403	    42.968	     6.407
-20091.254	    15.449	    52.587	    35.371
-20052.570	    15.480	    46.689	    23.913
-20128.625	    15.422	    50.169	    10.112
-20333.676	    15.406	    39.984	    20.981
-20229.010	    15.293	    55.297	    10.475
-20131.109	    15.334	    52.396	    14.633
-20072.391	    15.497	    47.046	    18.939
-20157.141	    15.559	    49.464	    17.799
-20143.645	    15.694	    42.852	    24.431
-19973.820	    15.765	    38.984	    17.208
-19963.098	    15.638	    54.002	    35.270
-20376.488	    15.417	    37.258	    29.312
-20240.395	    15.165	    47.676	    22.058
-20505.402	    15.037	    47.577	    20.363
-20271.186	    15.106	    49.271	     8.116
-19999.346	    15.305	    46.974	    22.841
-20063.971	    15.443	    32.327	    39.998
-20138.123	    15.492	    40.329	    26.098
-19942.322	    15.399	    45.624	     5.534
-20082.973	    15.343	    45.788	    22.969
-20288.504	    15.403	    30.230	    23.106
-20021.334	    15.496	    41.420	     6.161
-20180.396	    15.498	    48.813	    27.943
-20139.135	    15.514	    33.954	    40.548
-20268.734	    15.485	    51.112	    38.764
-20249.963	    15.310	    37.569	    32.995
-20257.545	    15.292	    39.652	    36.301
-20246.396	    15.466	    44.381	    24.200
-20001.158	    15.662	    56.944	    17.229
-20042.646	    15.769	    37.638	    24.893
-20197.812	    15.704	    33.714	    43.883
-20086.076	    15.597	    33.866	    32.829
-20006.697	    15.468	    43.862	    24.420
-20017.158	    15.326	    50.023	    36.728
-20468.133	    15.232	    43.124	    36.646
-20142.592	    15.404	    45.526	    47.571
-19816.463	    15.640	    44.626	    24.258
-20020.570	    15.832	    39.692	    24.963
-20207.994	    15.772	    49.940	    19.084
-20119.281	    15.585	    38.404	    28.403
-20071.531	    15.408	    52.185	     0.889
-20248.756	    15.300	    36.127	    17.806
-19900.973	    15.330	    50.351	    14.812
-20193.609	    15.442	    42.065	    20.509
-19895.641	    15.632	    48.886	    25.890
-19903.301	    15.763	    49.384	     6.809
-20052.336	    15.681	    47.647	    20.576
-19994.236	    15.452	    52.956	    18.261
-20376.047	    15.299	    34.286	    22.320
-20240.078	    15.464	    53.767	    39.595
-20122.357	    15.582	    44.127	    30.271
-20246.998	    15.562	    47.708	    31.923
-20039.570	    15.594	    50.330	    38.493
-20060.268	    15.416	    41.740	    50.651
-20144.025	    15.072	    43.924	    23.824
-20206.928	    15.054	    49.521	    26.089
-20012.832	    15.255	    41.793	    28.138
-20276.516	    15.515	    50.411	    42.720
-19794.049	    15.783	    38.582	    29.329
-19811.014	    15.893	    47.519	    41.025
-20143.314	    15.705	    45.980	    21.703
-20198.518	    15.320	    42.733	    37.320
-20244.531	    15.089	    32.489	    45.916
-19811.328	    15.049	    46.025	    27.281
-20238.508	    15.105	    35.223	    29.149
-20135.426	    15.178	    50.498	    34.095
-20097.205	    15.320	    50.057	    26.334
-20169.609	    15.357	    43.700	    42.807
-20215.523	    15.335	    35.690	    34.526
-20279.779	    15.337	    50.515	     2.033
-20044.807	    15.362	    35.313	    37.897
-20396.275	    15.330	    39.540	    22.518
-20178.758	    15.346	    33.881	    49.834
-20142.406	    15.285	    49.623	    33.864
-20136.432	    15.311	    48.692	    24.425
-20052.445	    15.462	    32.633	    21.910
-20077.918	    15.457	    51.332	     5.965
-20066.811	    15.326	    42.124	    29.782
-20293.668	    15.336	    53.269	    13.315
-20205.205	    15.381	    36.738	    14.029
-20076.525	    15.336	    25.823	    23.623
-20225.984	    15.389	    36.474	    21.221
-20378.291	    15.441	    45.878	    24.438
-20386.447	    15.559	    40.866	    49.060
-20273.260	    15.530	    44.199	    16.271
-20214.697	    15.590	    34.434	    32.200
-20038.201	    15.721	    41.613	    24.652
-20149.352	    15.652	    51.522	    37.736
-20387.061	    15.512	    51.578	     4.413
-20096.422	    15.453	    43.408	    33.516
-20158.451	    15.492	    36.136	    33.451
-20284.381	    15.444	    53.598	    28.503
-20198.869	    15.413	    44.137	    22.284
-20257.654	    15.512	    40.735	    28.070
-20108.045	    15.449	    37.432	    10.751
-20152.006	    15.287	    37.176	    31.531
-20493.596	    15.146	    42.704	    15.844
-20324.980	    15.136	    52.083	    22.926
-20222.000	    15.191	    40.244	    39.084
-19962.453	    15.225	    28.955	    26.844
-20300.949	    15.303	    43.001	    35.092
-20238.152	    15.420	    58.890	     9.387
-20415.188	    15.477	    40.008	    10.396
-20201.350	    15.457	    31.146	    27.865
-20425.445	    15.369	    31.241	    11.619
-20197.805	    15.306	    51.590	    21.619
-20113.205	    15.347	    44.215	    13.892
-20056.830	    15.413	    41.874	    28.340
-20061.346	    15.445	    36.663	    25.988
-19993.822	    15.577	    38.525	     6.001
-19984.086	    15.570	    54.115	    28.049
-20249.982	    15.457	    54.068	    26.504
-20221.980	    15.384	    45.753	    18.596
-20217.592	    15.329	    40.009	    15.739
-20216.223	    15.286	    48.703	    29.965
-20150.051	    15.294	    39.972	     7.700
-20091.547	    15.351	    35.246	    14.705
-20090.312	    15.518	    49.361	    11.106
-20322.443	    15.706	    28.167	     3.508
-20006.131	    15.816	    38.985	    12.180
-19999.463	    15.765	    37.905	    21.295
-20210.012	    15.649	    53.154	    20.681
-20349.756	    15.396	    50.468	    24.425
-20455.904	    15.240	    50.975	    23.699
-20243.291	    15.272	    52.037	    23.258
-20276.496	    15.457	    46.861	     9.761
-20190.955	    15.582	    58.315	    17.314
-20180.773	    15.633	    57.016	     9.988
-19890.334	    15.655	    50.550	    32.303
-19834.791	    15.591	    40.382	    32.756
-19993.258	    15.513	    46.460	    30.341
-20483.520	    15.333	    43.360	     9.805
-20381.449	    15.258	    51.461	    26.660
-20284.137	    15.356	    51.627	    16.716
-19951.324	    15.506	    37.017	    25.154
-20184.354	    15.516	    39.128	    21.905
-20369.006	    15.424	    40.432	    32.726
-20257.006	    15.515	    27.140	    32.659
-20186.664	    15.585	    57.823	    19.613
-20050.990	    15.495	    34.467	    36.013
-19896.562	    15.397	    32.482	    28.584
-20125.496	    15.295	    57.400	    17.591
-20162.990	    15.270	    47.893	    23.660
-20267.719	    15.376	    38.643	    25.178
-20259.988	    15.507	    34.777	    44.723
-20091.131	    15.604	    37.680	    30.623
-20105.092	    15.630	    48.002	    27.718
-19958.875	    15.666	    27.969	    29.124
-20117.514	    15.596	    42.286	    21.589
-20458.541	    15.462	    48.713	    22.699
-20365.988	    15.452	    48.456	    17.790
-20183.531	    15.415	    41.571	    16.543
-19924.461	    15.399	    39.299	    18.532
-20217.209	    15.334	    50.381	    17.534
-20105.164	    15.306	    41.900	    25.592
-20138.473	    15.429	    48.275	    23.581
-20229.297	    15.514	    54.581	    37.319
-20380.711	    15.571	    36.552	    33.943
-20157.219	    15.509	    42.569	    41.010
-20432.973	    15.431	    36.520	    34.329
-20197.500	    15.335	    51.350	    14.447
-20133.516	    15.377	    40.624	    20.168
-20297.885	    15.323	    51.727	     7.492
-20177.047	    15.252	    44.545	    35.262
-20211.742	    15.325	    50.503	    28.230
-20278.500	    15.467	    48.835	    20.353
-20112.820	    15.576	    28.768	     0.573
-20121.811	    15.474	    48.104	    20.557
-20150.594	    15.367	    32.070	    -3.687
-20219.586	    15.367	    60.089	    22.610
-20117.098	    15.383	    43.296	    13.473
-20317.691	    15.467	    64.727	    11.157
-20444.098	    15.618	    52.450	     8.046
-20405.434	    15.711	    27.229	    15.572
-20280.615	    15.705	    45.487	    10.958
-20042.623	    15.580	    38.547	    22.383
-20380.316	    15.421	    37.392	    19.986
-20471.697	    15.258	    35.985	    32.032
-20433.531	    15.218	    22.565	    43.523
-20146.664	    15.351	    46.142	     4.799
-19962.037	    15.499	    43.236	    22.917
-20065.699	    15.597	    46.838	    21.226
-20366.260	    15.459	    37.609	    35.477
-19981.412	    15.255	    44.430	    19.155
-20253.002	    15.209	    37.681	    30.590
-20212.854	    15.269	    37.253	    21.983
-20274.129	    15.434	    50.579	    13.425
-20077.365	    15.559	    41.859	    -7.514
-19909.443	    15.531	    54.721	     4.103
-20112.438	    15.525	    47.920	    18.950
-20407.547	    15.413	    35.307	    40.152
-20202.980	    15.374	    46.554	    35.069
-20148.389	    15.404	    33.419	    28.120
-20247.783	    15.494	    47.741	    13.428
-20132.826	    15.477	    46.378	    23.996
-20199.480	    15.338	    36.037	    27.722
-20158.998	    15.289	    39.946	    28.342
-20266.316	    15.366	    41.053	    23.838
-20273.926	    15.560	    55.196	    26.293
-19976.277	    15.688	    28.858	    15.959
-20147.922	    15.663	    55.015	    25.568
-20178.549	    15.390	    47.519	    28.253
-20229.967	    15.205	    32.261	    33.769
-20038.479	    15.222	    41.200	    30.032
-20273.504	    15.268	    43.559	    23.826
-20083.146	    15.408	    50.679	    23.613
-20186.590	    15.570	    50.261	     4.932
-20194.500	    15.700	    40.941	    10.316
-20033.297	    15.658	    43.731	    23.099
-20226.264	    15.433	    51.016	    17.183
-20270.986	    15.199	    43.445	    26.160
-20351.312	    15.106	    34.550	    22.735
-20401.092	    15.290	    47.725	     5.989
-20117.930	    15.620	    44.549	     5.487
-19962.420	    15.845	    56.782	    30.325
-20082.799	    15.777	    41.035	     8.698
-20204.873	    15.541	    52.790	    -5.501
-20208.307	    15.295	    51.662	    20.005
-20236.211	    15.358	    45.070	    37.772
-20373.027	    15.490	    54.439	    16.535
-20017.643	    15.447	    41.781	    36.574
-20229.010	    15.308	    51.531	    36.307
-20133.490	    15.193	    49.118	    21.430
-20185.246	    15.334	    50.749	    13.654
-20234.277	    15.516	    50.105	    18.438
-20011.398	    15.601	    46.841	    27.850
-20196.566	    15.623	    35.833	     7.175
-20277.242	    15.614	    38.695	    20.380
-20166.221	    15.541	    47.073	    22.850
-20133.279	    15.330	    32.059	    33.598
-20415.531	    15.161	    41.622	    30.859
-20374.480	    15.116	    41.061	    14.799
-19927.346	    15.304	    38.679	    16.002
-20240.582	    15.554	    34.741	    36.575
-20195.311	    15.791	    58.004	    37.778
-20207.281	    15.832	    47.931	    35.433
-20208.750	    15.736	    29.801	    23.530
-20260.021	    15.621	    54.336	     9.927
-20206.312	    15.491	    38.716	    18.776
-20300.068	    15.359	    41.106	    22.672
-20411.357	    15.413	    47.619	    37.823
-20137.207	    15.518	    57.280	     7.970
-19955.719	    15.430	    42.416	    23.935
-20123.520	    15.277	    36.756	    34.000
-20097.555	    15.515	    55.623	    18.059
-20056.463	    15.741	    60.616	    26.200
-20336.094	    15.711	    42.220	    25.448
-20132.682	    15.565	    51.930	    23.072
