-19992.775	    15.334	   -92.310	   122.143
-20012.881	    15.381	   -68.173	     4.094
-20130.680	    15.378	   -42.973	    25.321
-20286.902	    15.291	   -63.494	   -10.534
-20151.555	    15.337	   -56.611	    -7.117
-20167.186	    15.441	   -76.405	    -6.813
-20200.648	    15.469	   -59.823	     4.396
-20117.482	    15.504	   -79.987	    -7.904
-20162.139	    15.522	   -73.241	     1.462
-20291.711	    15.482	   -69.445	     0.758
-20323.711	    15.474	   -63.558	     1.056
-20489.523	    15.506	   -71.689	    -5.513
-20076.771	    15.483	   -63.191	    -7.248
-20294.990	    15.415	   -71.480	    10.138
-20587.855	    15.449	   -66.976	    -3.612
-20069.201	    15.529	   -81.488	    12.131
-20066.697	    15.544	   -77.009	     5.630
-20250.479	    15.565	   -63.562	    -5.950
-20129.119	    15.415	   -70.999	    -0.740
-20364.100	    15.283	   -66.701	    -5.159
-20053.443	    15.258	   -66.866	   -14.216
-20214.855	    15.252	   -68.066	     6.215
-20301.219	    15.296	   -75.181	     3.753
-20298.455	    15.363	   -67.102	    -5.962
-20285.428	    15.397	   -79.720	   -20.210
-20125.754	    15.520	   -73.084	    -4.281
-20094.457	    15.761	   -70.613	    -9.612
-20031.543	    15.851	   -72.936	     9.403
-20069.078	    15.661	   -65.394	   -13.700
-20016.553	    15.493	   -64.947	   -10.815
-20382.570	    15.292	   -67.968	   -11.702
-20038.418	    15.196	   -76.887	   -11.037
-20131.158	    15.189	   -68.529	    -4.389
-20304.734	    15.331	   -60.077	   -10.148
-20398.469	    15.571	   -69.336	    -1.937
-20009.100	    15.668	   -71.484	   -16.373
-20124.104	    15.680	   -79.443	   -19.610
-20134.867	    15.657	   -66.624	   -14.857
-20114.268	    15.461	   -57.237	   -11.745
-20410.693	    15.229	   -65.369	    -6.611
-20147.004	    15.224	   -67.101	     8.438
-20143.375	    15.326	   -75.473	     7.195
-20191.852	    15.443	   -74.589	    17.463
-20118.598	    15.525	   -64.301	     0.046
-20385.363	    15.469	   -59.047	    -9.235
-20404.129	    15.407	   -70.851	    -4.707
-20274.023	    15.251	   -56.458	    -5.101
-20251.309	    15.282	   -76.752	   -17.051
-20273.113	    15.419	   -61.656	   -14.702
-20326.963	    15.476	   -82.450	    17.665
-20162.773	    15.400	   -72.652	    -6.439
-20317.500	    15.273	   -62.742	     2.790
-20282.096	    15.185	   -87.407	    -5.097
-20198.584	    15.207	   -70.810	    -6.783
-20532.734	    15.352	   -70.737	     0.820
-20130.504	    15.569	   -75.140	    -7.199
-20212.922	    15.658	   -66.165	     0.247
-20145.215	    15.525	   -71.739	     1.210
-20121.051	    15.438	   -74.871	   -15.084
-20067.686	    15.412	   -61.369	   -18.249
-19959.916	    15.455	   -74.427	   -11.699
-19985.637	    15.448	   -70.178	     0.610
-20081.641	    15.497	   -74.182	    -5.073
-20214.746	    15.565	   -75.957	    -3.453
-20096.381	    15.538	   -86.280	    -5.017
-20161.963	    15.501	   -74.274	    -7.456
-20240.832	    15.622	   -77.604	   -13.174
-19922.406	    15.730	   -73.100	    -6.966
-20105.768	    15.745	   -69.990	   -13.282
-20111.875	    15.592	   -76.516	   -16.030
-20099.629	    15.434	   -59.059	     3.268
-20403.109	    15.331	   -61.627	     8.591
-20072.516	    15.325	   -76.875	    -0.003
-19896.449	    15.392	   -63.452	    10.558
-20351.027	    15.416	   -66.823	     6.355
-20502.441	    15.452	   -73.529	    16.819
-20342.133	    15.463	   -76.820	    14.584
-20246.654	    15.484	   -79.498	   -14.983
-20089.846	    15.457	   -63.355	     2.900
-20376.156	    15.209	   -69.938	     0.587
-20225.604	    15.027	   -69.206	    -3.933
-20224.838	    15.041	   -68.246	    22.456
-20111.020	    15.289	   -58.649	     1.738
-20112.980	    15.448	   -74.282	    -3.228
-19998.150	    15.602	   -67.590	    15.343
-20043.410	    15.625	   -61.110	   -11.765
-20340.236	    15.566	   -71.065	     2.079
-20297.109	    15.408	   -63.568	   -11.042
-20176.092	    15.268	   -64.921	    -3.841
-20017.465	    15.273	   -67.838	    13.606
-20204.842	    15.439	   -69.443	    11.091
-20209.918	    15.516	   -74.595	    14.372
-20145.922	    15.560	   -58.023	     0.790
-20273.992	    15.636	   -67.172	    -7.625
-20169.805	    15.598	   -69.946	    -6.327
-20149.812	    15.525	   -57.363	   -21.830
-20178.514	    15.374	   -72.673	     9.831
-20129.656	    15.313	   -72.052	     0.364
-20435.570	    15.268	   -60.771	    -2.768
-20321.979	    15.290	   -67.762	   -18.454
-20348.379	    15.416	   -73.569	     4.757
-20071.959	    15.470	   -79.719	     5.159
-20114.330	    15.512	   -78.792	    14.253
-20201.068	    15.545	   -61.990	   -20.639
-20192.082	    15.568	   -52.875	    -7.444
-20154.260	    15.580	   -52.260	     3.223
-20050.525	    15.499	   -66.427	    -5.733
-20060.979	    15.359	   -71.181	    10.777
-20275.068	    15.137	   -65.168	   -12.332
-20186.734	    15.044	   -64.366	    11.519
-19997.557	    15.293	   -65.136	     0.631
-20020.328	    15.632	   -70.064	    12.135
-19815.383	    15.950	   -67.301	    -3.907
-19873.305	    16.045	   -72.021	    16.625
-19755.742	    15.886	   -68.280	    -8.847
-20107.143	    15.427	   -66.624	    -2.604
-20123.965	    15.123	   -83.803	    12.901
-20350.148	    15.115	   -75.599	    17.164
-20098.396	    15.214	   -59.717	    19.828
-20356.320	    15.274	   -88.674	    -2.173
-20019.598	    15.339	   -71.286	     4.403
-20151.818	    15.370	   -72.969	     0.080
-20022.854	    15.422	   -68.502	    21.810
-19896.215	    15.456	   -69.085	    -0.766
-20116.133	    15.494	   -68.720	     0.132
-20169.314	    15.460	   -81.644	    -1.902
-20061.656	    15.466	   -65.208	     6.644
-20342.775	    15.497	   -67.802	   -11.008
-20285.645	    15.517	   -72.253	   -14.239
-20188.955	    15.494	   -75.483	     0.622
-20087.408	    15.392	   -71.791	     5.069
-20404.252	    15.317	   -67.270	     8.866
-20180.801	    15.340	   -58.679	     6.397
-20358.955	    15.314	   -69.308	    -1.489
-20255.586	    15.339	   -58.786	   -16.113
-20264.492	    15.438	   -69.414	    -5.473
-20290.037	    15.491	   -58.308	   -12.705
-20157.412	    15.501	   -71.616	    -3.869
-20166.670	    15.373	   -67.428	   -17.382
-20541.197	    15.275	   -67.819	    -4.243
-20115.838	    15.324	   -64.654	   -22.507
-20353.840	    15.400	   -75.059	     2.532
-20216.729	    15.533	   -71.155	     1.791
-20080.912	    15.617	   -66.176	     3.886
-19944.908	    15.671	   -71.115	    -5.719
-19906.635	    15.616	   -71.172	    -3.459
-20027.955	    15.388	   -71.590	    -7.142
-20336.713	    15.167	   -65.068	    -8.307
-20112.830	    15.208	   -65.736	    20.276
-20125.738	    15.250	   -73.184	    14.067
-20254.600	    15.344	   -66.850	    -0.131
-20225.590	    15.333	   -55.555	     5.042
-20099.605	    15.268	   -72.283	    16.141
-20168.602	    15.231	   -70.752	    16.554
-20298.047	    15.236	   -65.818	    -9.909
-20176.182	    15.316	   -64.835	   -13.762
-20227.998	    15.465	   -62.204	    -8.866
-20148.236	    15.607	   -72.635	    -7.984
-20021.727	    15.629	   -67.898	   -13.323
-19990.932	    15.535	   -62.870	    -0.139
-20214.639	    15.351	   -66.910	    -5.019
-20450.145	    15.056	   -53.472	   -10.557
-20479.428	    14.978	   -74.809	   -10.480
-20420.758	    15.134	   -54.995	   -11.536
-19955.434	    15.377	   -77.604	   -10.386
-20122.176	    15.590	   -56.533	    -8.052
-20149.479	    15.647	   -70.110	   -13.300
-20107.037	    15.703	   -61.667	     0.467
-20084.117	    15.643	   -64.204	    -1.950
-20203.861	    15.535	   -63.888	   -16.737
-20293.947	    15.374	   -70.419	     3.656
-20342.256	    15.359	   -70.147	   -20.577
-20397.568	    15.325	   -63.936	    -6.292
-20087.801	    15.458	   -70.767	    -2.719
-20072.367	    15.568	   -64.310	    -2.396
-20245.484	    15.538	   -83.631	    17.264
-20178.707	    15.586	   -78.107	    -0.773
-20081.139	    15.646	   -67.245	    11.040
-20162.271	    15.565	   -74.680	    12.940
-20075.697	    15.373	   -65.843	    -3.581
-20210.779	    15.248	   -83.466	    17.864
-19998.088	    15.176	   -58.345	    13.293
-20319.484	    15.221	   -73.745	     7.439
-20114.141	    15.394	   -64.358	   -20.234
-19985.408	    15.604	   -61.896	    12.214
-20306.842	    15.682	   -64.199	    -7.686
-20290.982	    15.663	   -66.978	   -22.890
-20239.633	    15.520	   -77.083	    -6.165
-20199.797	    15.451	   -61.586	    -9.348
-20309.033	    15.504	   -57.371	   -11.077
-20170.039	    15.463	   -72.018	    -1.086
-20223.912	    15.548	   -70.632	    -7.924
-20022.590	    15.640	   -60.196	    -5.316
-20051.803	    15.561	   -66.720	    12.715
-20282.416	    15.509	   -79.511	    -5.154
-20309.869	    15.463	   -69.771	    -3.957
-20015.992	    15.463	   -51.150	   -12.395
-20382.523	    15.278	   -71.347	   -11.415
-20515.779	    15.145	   -69.224	    -7.322
-20522.307	    15.188	   -72.746	    -0.988
-20257.590	    15.312	   -63.794	    -3.385
-20155.545	    15.278	   -64.812	   -17.790
-20098.385	    15.288	   -87.736	    -6.780
-19986.576	    15.376	   -57.554	    14.724
-20294.410	    15.437	   -74.185	   -15.317
-19995.561	    15.608	   -74.730	    -7.763
-20076.576	    15.644	   -63.686	    -4.935
-20287.107	    15.534	   -68.649	   -28.322
-20366.045	    15.414	   -58.509	    31.903
-20218.102	    15.368	   -60.783	     7.182
-20135.783	    15.322	   -69.875	   -11.543
-20273.305	    15.219	   -80.968	     9.273
-19952.568	    15.183	   -58.664	   -11.660
-20389.627	    15.171	   -72.664	    -0.271
-20163.949	    15.288	   -63.155	     1.502
-20171.340	    15.344	   -60.726	   -10.554
-20288.162	    15.371	   -65.772	    -7.533
-20389.732	    15.458	   -77.660	   -22.890
-20254.115	    15.575	   -71.877	   -16.623
-20140.393	    15.674	   -79.427	     8.246
-19972.904	    15.512	   -72.145	    20.903
-20031.963	    15.232	   -75.466	     8.967
-20079.793	    15.103	   -73.448	    15.410
-20159.398	    15.159	   -70.694	     0.287
-20037.221	    15.315	   -75.084	    -8.765
-20330.627	    15.516	   -85.595	    13.088
-20115.893	    15.686	   -77.460	    -7.050
-20236.201	    15.742	   -59.942	     6.886
-20061.537	    15.580	   -74.495	     5.723
-20398.775	    15.416	   -71.639	     0.510
-20243.922	    15.376	   -79.280	    -1.662
-20335.178	    15.330	   -65.132	   -18.441
-20210.607	    15.356	   -71.335	    13.539
-20235.223	    15.322	   -60.484	   -16.522
-20272.885	    15.322	   -69.057	     3.954
-20117.398	    15.458	   -65.077	     4.795
-20373.340	    15.509	   -79.663	    -6.465
-20182.258	    15.450	   -60.855	     8.520
-19921.135	    15.381	   -73.701	   -10.813
-20056.682	    15.276	   -52.034	    -7.602
-20332.967	    15.130	   -75.083	     4.513
-20569.039	    15.186	   -69.147	    -6.155
-20234.486	    15.293	   -75.014	   -10.212
-20215.377	    15.432	   -59.674	    -8.335
-20039.207	    15.579	   -51.902	   -21.938
-19812.449	    15.718	   -73.604	     4.864
-20200.199	    15.748	   -73.433	    -3.532
-20376.447	    15.735	   -69.966	    -7.449
-20012.838	    15.626	   -73.443	    -0.792
-20004.846	    15.600	   -63.851	    -2.775
-20132.873	    15.560	   -61.320	   -15.192
-20189.533	    15.562	   -73.401	   -13.645
-20286.562	    15.570	   -66.574	   -13.174
-20318.768	    15.513	   -73.487	     3.883
-20454.252	    15.332	   -67.439	    -2.329
-20281.730	    15.221	   -67.549	    10.676
-20134.355	    15.230	   -78.626	    18.626
-20252.020	    15.304	   -85.121	    -7.682
-20064.107	    15.521	   -68.910	   -14.323
-20103.998	    15.703	   -63.586	    -7.969
-20227.982	    15.884	   -82.431	     3.392
-20174.617	    15.882	   -67.076	   -10.229
-20112.795	    15.661	   -54.711	   -31.096
-20219.023	    15.510	   -62.655	    -9.624
-19957.244	    15.413	   -64.980	   -17.532
-20058.234	    15.349	   -64.627	   -14.563
-20057.914	    15.262	   -63.004	    -8.086
-20190.002	    15.259	   -74.715	   -10.018
-20074.119	    15.368	   -64.788	    -0.956
-19972.795	    15.444	   -84.863	    12.787
-19955.217	    15.592	   -78.513	     4.378
-19904.469	    15.665	   -65.508	    14.515
-19988.191	    15.510	   -72.010	     6.167
-20162.844	    15.414	   -68.261	     0.333
-20256.076	    15.268	   -77.613	   -10.209
-20436.518	    15.186	   -67.905	    -7.703
-20024.008	    15.296	   -74.189	    15.923
-20132.678	    15.415	   -76.946	    13.757
-20110.844	    15.490	   -76.159	   -14.716
-20109.283	    15.647	   -55.386	   -11.149
-19887.957	    15.821	   -72.422	     0.514
-19947.727	    15.731	   -78.659	     6.392
-20197.545	    15.582	   -87.066	   -10.393
-20211.799	    15.486	   -62.619	    -9.609
-19968.062	    15.415	   -74.412	    -3.172
-20024.986	    15.281	   -69.454	    -4.622
-20160.404	    15.306	   -76.135	   -12.132
-20060.445	    15.453	   -73.787	    -4.128
-20209.314	    15.451	   -74.791	     6.785
-20181.654	    15.373	   -70.879	    -7.117
-20212.055	    15.310	   -65.699	   -22.327
-20391.779	    15.327	   -69.709	   -15.788
-20295.752	    15.477	   -75.099	   -16.945
-20149.033	    15.426	   -63.445	   -13.202
-20087.885	    15.353	   -73.493	    -1.262
-20182.844	    15.328	   -67.221	     4.499
-20283.023	    15.453	   -69.171	   -17.526
-19949.041	    15.694	   -48.356	   -17.745
-19905.654	    15.773	   -78.255	    -4.779
-20144.617	    15.687	   -77.760	    -2.892
-20068.600	    15.547	   -74.729	   -11.388
-20305.902	    15.346	   -65.143	    -8.601
-20206.516	    15.272	   -74.597	    12.110
-19912.561	    15.278	   -69.291	   -12.855
-20010.477	    15.377	   -71.622	     0.203
-19875.516	    15.602	   -74.367	     3.630
-19857.328	    15.797	   -80.926	    11.171
-20378.246	    15.828	   -69.408	    10.931
-20102.328	    15.603	   -70.043	   -20.372
-19962.492	    15.337	   -72.793	     8.940
-20185.373	    15.184	   -85.825	    13.866
-19917.471	    15.329	   -59.614	    -3.818
-19889.340	    15.388	   -78.691	     3.296
-20157.098	    15.419	   -59.960	    14.770
-20472.805	    15.384	   -79.373	     9.073
-20386.922	    15.356	   -76.626	     4.776
-20402.680	    15.401	   -62.112	    -5.999
-19897.842	    15.422	   -75.731	   -14.599
-20079.814	    15.377	   -63.030	    -4.762
-20358.311	    15.153	   -55.629	     3.606
-20501.104	    15.010	   -63.575	    -5.981
-20230.922	    15.042	   -83.941	     0.428
-20051.039	    15.264	   -68.913	     7.742
-20184.482	    15.527	   -73.872	    27.972
-20061.348	    15.715	   -67.075	    22.497
-20020.018	    15.763	   -66.880	   -16.935
-19880.445	    15.690	   -71.372	    12.695
-20125.225	    15.478	   -58.334	     5.094
-20291.188	    15.383	   -67.275	    -3.767
-20270.984	    15.258	   -63.395	     0.029
-19949.398	    15.199	   -56.725	   -10.497
-20456.521	    15.198	   -69.054	    -1.598
-20193.430	    15.274	   -64.178	    -3.081
-20066.777	    15.410	   -64.107	     0.762
-20387.246	    15.488	   -61.325	   -15.209
-20385.424	    15.395	   -70.595	     8.045
-20230.547	    15.394	   -58.841	    -6.791
-20422.979	    15.476	   -60.467	   -24.321
-20071.693	    15.369	   -75.826	    -8.696
-20138.035	    15.207	   -60.360	    -1.241
-20221.469	    15.142	   -54.302	   -13.954
-20331.033	    15.163	   -75.422	    -2.448
-20049.436	    15.367	   -73.421	     8.457
-20469.455	    15.564	   -64.952	    -4.812
-20000.635	    15.679	   -83.257	   -13.474
-20219.758	    15.663	   -80.005	     2.502
-20263.916	    15.546	   -68.978	    -5.901
-20019.984	    15.443	   -76.732	    -0.857
-20087.363	    15.401	   -78.566	     9.548
-20419.590	    15.243	   -66.699	   -23.408
-20232.230	    15.236	   -61.529	     6.923
-20112.412	    15.336	   -71.017	    -1.258
-19895.736	    15.560	   -69.954	    -5.316
-20066.512	    15.750	   -72.499	     6.645
-19797.525	    15.725	   -71.390	    10.067
-20355.654	    15.629	   -71.839	     6.849
-20177.104	    15.441	   -60.879	     9.925
-20253.129	    15.259	   -73.296	    -9.930
-20244.469	    15.214	   -71.768	   -13.058
-20075.516	    15.224	   -85.339	    25.857
-20192.150	    15.272	   -68.688	    11.497
-20417.910	    15.322	   -73.470	   -18.519
-20330.664	    15.490	   -78.530	    -6.869
-19992.852	    15.746	   -72.001	    -1.664
-20005.619	    15.885	   -60.474	    -0.967
-20067.062	    15.873	   -74.948	     3.270
-20225.418	    15.584	   -55.504	   -21.901
-20208.799	    15.356	   -78.821	    -0.553
-20131.104	    15.215	   -58.017	    -9.786
-20444.848	    15.212	   -60.054	    -8.501
-20281.145	    15.272	   -67.707	   -12.019
-20014.668	    15.263	   -63.735	     1.751
-20083.209	    15.329	   -45.740	   -19.155
-20075.143	    15.477	   -71.531	    -8.028
-19967.469	    15.611	   -68.427	    10.392
-20012.656	    15.639	   -76.065	   -13.349
-20135.195	    15.546	   -67.973	   -19.632
-20245.494	    15.402	   -65.131	     3.683
-20076.596	    15.364	   -75.002	   -10.389
-20058.502	    15.392	   -79.473	    18.931
-20268.043	    15.363	   -61.651	    11.241
-19935.344	    15.301	   -64.304	     6.760
-20287.289	    15.324	   -79.566	     5.952
-19894.117	    15.378	   -69.972	   -13.589
-19855.900	    15.355	   -79.345	     0.270
-19904.885	    15.376	   -76.292	    -0.070
-20306.564	    15.432	   -57.401	    16.386
-20217.742	    15.437	   -70.537	    -8.427
-20271.266	    15.322	   -71.100	   -14.664
-20195.189	    15.205	   -56.893	   -13.534
-20018.797	    15.262	   -58.520	    -9.331
-20022.633	    15.490	   -85.562	    15.275
-19949.482	    15.646	   -68.449	    19.811
-20280.143	    15.654	   -69.174	    -8.063
-20095.881	    15.502	   -72.681	    -6.376
-20206.545	    15.388	   -73.445	    -6.976
-20256.041	    15.306	   -69.132	    -4.072
-20161.508	    15.349	   -62.553	    -4.320
-20219.986	    15.371	   -66.594	   -13.934
-20186.406	    15.319	   -54.713	   -13.826
-20210.986	    15.346	   -61.890	    -1.732
-20030.080	    15.381	   -58.683	    -2.835
-20541.895	    15.310	   -57.508	   -12.474
-20249.633	    15.349	   -69.850	    -1.217
-20365.209	    15.438	   -58.064	     1.704
-20112.912	    15.442	   -68.083	    -4.522
-20247.074	    15.307	   -85.780	   -15.271
-19980.688	    15.268	   -72.496	    17.250
-20022.350	    15.399	   -76.782	     6.092
-20130.895	    15.586	   -76.197	    36.288
-20200.637	    15.511	   -66.923	     1.590
-20024.459	    15.349	   -67.857	     6.432
-20205.568	    15.272	   -78.846	    27.528
-20434.963	    15.325	   -68.922	    -4.456
-20263.033	    15.309	   -62.491	   -15.061
-20315.691	    15.316	   -66.547	   -22.355
-20340.861	    15.393	   -77.429	    -9.057
-19842.422	    15.561	   -74.113	   -10.998
-20132.883	    15.686	   -73.688	   -17.037
-20143.201	    15.703	   -83.864	    -1.021
-20223.436	    15.728	   -55.850	   -25.022
-20202.510	    15.797	   -62.043	    -9.705
-20114.262	    15.789	   -64.941	   -23.996
-19724.365	    15.731	   -58.863	   -13.444
-20381.850	    15.631	   -74.578	    -8.915
-20391.910	    15.515	   -82.551	   -26.929
-20345.332	    15.377	   -59.697	   -30.715
-20252.420	    15.280	   -73.647	   -12.192
-20029.986	    15.314	   -66.971	   -13.559
-20077.951	    15.306	   -67.183	    -8.852
-20116.162	    15.407	   -72.793	    -7.269
-20268.326	    15.528	   -70.560	    -3.493
-19974.178	    15.583	   -60.973	    -6.384
-19851.223	    15.662	   -72.759	   -26.110
-20205.807	    15.624	   -80.677	    13.525
-20115.279	    15.437	   -54.385	   -18.537
-20383.840	    15.286	   -69.964	    -1.171
-20438.555	    15.232	   -65.196	   -14.863
-20155.449	    15.437	   -55.438	   -11.862
-19986.881	    15.609	   -55.460	   -16.324
-20171.770	    15.711	   -70.477	    -4.228
-20091.500	    15.586	   -83.431	     4.078
-20188.434	    15.466	   -64.723	     6.843
-20111.375	    15.530	   -64.808	     1.788
-20084.936	    15.664	   -55.882	   -13.170
-20159.689	    15.677	   -61.001	   -19.766
-19996.127	    15.502	   -63.109	    -1.772
-20170.475	    15.335	   -66.550	    -8.722
-20318.471	    15.220	   -62.943	    -2.852
-20105.277	    15.251	   -63.083	    -5.105
-20273.531	    15.336	   -62.687	     6.570
-20105.012	    15.564	   -61.213	    16.376
-20063.971	    15.750	   -74.260	    17.560
-20079.117	    15.724	   -85.317	     4.993
-20201.688	    15.523	   -81.190	     1.424
-20393.195	    15.232	   -71.307	     2.273
-20089.506	    15.061	   -66.940	     1.733
-20282.055	    15.022	   -79.201	     5.365
-20416.012	    14.924	   -67.109	     0.841
-20249.102	    15.145	   -50.629	   -13.710
-20122.566	    15.514	   -66.172	     0.953
-20080.523	    15.729	   -68.135	    13.922
-20225.211	    15.700	   -58.753	    -3.485
-20289.152	    15.615	   -81.422	    -1.142
-20111.824	    15.641	   -62.811	    12.950
-20349.787	    15.664	   -58.013	     2.101
-20062.967	    15.615	   -69.749	     7.921
-20161.396	    15.526	   -78.628	     8.152
-20349.654	    15.398	   -73.770	     7.848
-19975.605	    15.336	   -63.595	    -7.168
-20202.031	    15.240	   -65.566	    -6.584
-20269.660	    15.252	   -59.705	   -17.444
-20190.963	    15.541	   -52.868	    -3.535
-19855.533	    15.742	   -80.738	     7.614
-20064.713	    15.673	   -63.751	    -7.099
-20205.707	    15.556	   -80.276	    -9.777
-20303.348	    15.513	   -74.820	     4.679
-19984.211	    15.486	   -77.082	     3.880
-19955.320	    15.480	   -64.111	    -7.750
-20195.395	    15.510	   -57.112	   -11.948
-20088.469	    15.552	   -75.031	    25.523
-20139.227	    15.436	   -79.269	    15.637
-20360.857	    15.333	   -71.011	     4.697
-20214.656	    15.180	   -70.276	    -4.944
-20484.674	    15.217	   -62.218	    -6.714
-20181.449	    15.279	   -74.206	    17.426
-19928.545	    15.221	   -77.016	    12.732
-20067.967	    15.271	   -79.024	     1.028
-20134.631	    15.419	   -70.554	   -10.436
-20334.711	    15.592	   -58.847	     1.469
-20275.869	    15.736	   -65.118	    -7.685
-19978.277	    15.685	   -73.984	    -1.599
-19999.748	    15.546	   -65.740	    10.461
-20510.865	    15.446	   -62.722	    -3.649
-20040.404	    15.537	   -69.705	   -10.823
-20120.797	    15.608	   -57.342	    -3.564
-20001.947	    15.562	   -55.386	   -12.507
-20168.857	    15.534	   -76.854	     2.787
-19963.850	    15.425	   -75.548	    -5.140
-19955.316	    15.299	   -70.823	    -9.459
-20244.674	    15.192	   -81.736	     5.792
-20189.076	    15.279	   -65.632	   -14.604
-20262.791	    15.436	   -74.416	   -10.313
-20231.979	    15.676	   -72.145	     1.852
-20174.049	    15.836	   -59.606	    -5.065
-20016.438	    15.837	   -64.064	   -24.752
-20068.645	    15.677	   -74.154	    -7.412
-19968.492	    15.590	   -70.846	    -3.976
-20099.271	    15.407	   -63.279	    13.034
-20332.520	    15.384	   -57.820	   -38.295
-20114.299	    15.373	   -70.947	     8.103
-20150.439	    15.362	   -73.451	    -0.805
-19980.922	    15.586	   -67.876	   -13.859
-20179.756	    15.815	   -63.479	    -2.420
-20312.596	    15.877	   -84.020	    -4.126
-20271.170	    15.910	   -76.796	    -0.493
-20113.396	    15.867	   -69.223	    13.840
-20082.078	    15.648	   -67.638	    -8.946
-20150.709	    15.484	   -57.647	     1.737
-20162.219	    15.385	   -67.790	    13.415
-20098.016	    15.325	   -61.825	    -0.763
-20207.053	    15.204	   -65.204	    -9.963
-20412.029	    14.995	   -71.823	   -17.740
-20136.102	    15.066	   -78.590	   -18.720
-20129.838	    15.241	   -76.291	    -2.890
-20327.918	    15.416	   -63.112	    -8.075
-20196.143	    15.484	   -74.506	    18.701
-20291.170	    15.473	   -71.915	    16.453
-20326.322	    15.515	   -64.193	    22.195
-20277.797	    15.544	   -72.199	    -7.257
-20018.984	    15.539	   -72.696	     7.403
-19923.793	    15.580	   -71.638	   -13.656
-19979.875	    15.592	   -81.697	    13.478
-20104.932	    15.539	   -82.637	    13.145
-20155.996	    15.417	   -79.236	    24.368
-20323.338	    15.396	   -63.564	    21.151
-20260.143	    15.413	   -68.587	    -2.042
-20310.623	    15.479	   -58.114	    -1.997
-20160.135	    15.529	   -69.211	    10.162
-20080.174	    15.570	   -57.104	    -4.442
-20409.160	    15.591	   -50.298	    -4.155
-19958.336	    15.664	   -90.250	    -3.765
-20270.854	    15.561	   -79.569	     1.096
-20356.078	    15.417	   -75.973	    -6.908
-20276.803	    15.341	   -74.835	    -6.151
-20228.230	    15.372	   -65.212	    -6.604
-20396.711	    15.433	   -69.473	    -7.951
-20110.428	    15.438	   -72.467	   -13.152
-19973.008	    15.317	   -76.764	    -5.387
-20342.086	    15.194	   -75.034	     2.706
-20360.939	    15.193	   -75.770	     3.878
-20215.119	    15.293	   -58.240	    10.602
-20124.898	    15.457	   -76.073	    27.976
-20168.264	    15.535	   -69.850	    17.917
-19716.262	    15.583	   -71.721	    -0.176
-20152.955	    15.475	   -67.324	   -12.709
-20238.693	    15.439	   -65.388	   -16.982
-19953.312	    15.541	   -65.865	   -11.018
-20006.262	    15.554	   -86.388	     3.557
-20163.486	    15.501	   -70.000	   -12.367
-20288.176	    15.404	   -64.566	   -14.480
-20088.672	    15.290	   -52.856	   -17.325
-20216.895	    15.255	   -69.424	    -4.017
-20202.225	    15.240	   -69.508	   -12.637
-20231.930	    15.245	   -71.781	   -10.157
-20435.025	    15.198	   -64.530	   -10.471
-19929.002	    15.307	   -72.375	     7.263
-20116.324	    15.467	   -77.080	     0.455
-19950.867	    15.520	   -83.018	    22.510
-20240.643	    15.417	   -69.771	    -9.760
-19980.580	    15.360	   -96.270	    15.182
-20113.998	    15.388	   -51.648	    -0.423
-20242.914	    15.451	   -71.752	    -1.922
-20056.031	    15.536	   -73.526	    -1.495
-19974.461	    15.542	   -71.465	   -22.547
-20079.078	    15.583	   -69.501	   -20.062
-20140.244	    15.631	   -65.124	    -6.798
-20173.656	    15.557	   -75.265	   -15.060
-20289.861	    15.505	   -67.649	   -11.827
-20402.803	    15.385	   -77.940	    -7.111
-20390.316	    15.356	   -55.144	    -1.441
-20136.051	    15.393	   -69.427	    26.148
-19911.059	    15.357	   -58.416	    27.977
-20121.994	    15.281	   -74.197	     9.838
-20274.799	    15.203	   -91.172	     1.930
-20110.555	    15.255	   -64.836	    -1.392
-20170.650	    15.402	   -62.219	    -3.161
-20257.199	    15.528	   -68.798	    -7.549
-20184.719	    15.570	   -80.021	     7.039
-20538.609	    15.430	   -87.172	     9.304
-20169.076	    15.324	   -69.181	     6.729
-20212.301	    15.376	   -63.169	     7.172
-19997.287	    15.456	   -68.427	    22.335
-20483.865	    15.419	   -72.785	    13.844
-20327.238	    15.465	   -73.627	    -6.864
-20124.428	    15.468	   -76.784	    -2.528
-20243.617	    15.493	   -74.048	     8.454
-20216.086	    15.448	   -65.478	     6.862
-20394.672	    15.329	   -62.297	     4.002
-20250.318	    15.312	   -61.456	     9.018
-20356.635	    15.350	   -69.413	    -0.941
-20201.301	    15.427	   -75.254	    -7.964
-20057.074	    15.476	   -56.233	    -5.532
-20090.117	    15.494	   -71.632	   -15.940
-20305.486	    15.462	   -67.969	     3.425
-20088.494	    15.342	   -73.876	    17.960
-20248.148	    15.191	   -72.182	    11.666
-20274.602	    15.197	   -72.072	     9.319
-20160.389	    15.288	   -68.162	    -3.349
-20312.971	    15.325	   -80.016	    28.236
-20270.367	    15.358	   -77.878	     5.490
-20188.131	    15.385	   -76.306	     3.138
-20027.301	    15.412	   -72.194	    32.355
-20246.395	    15.383	   -57.436	    -4.886
-20190.844	    15.390	   -73.728	    14.823
-20072.895	    15.446	   -80.234	    12.328
-20167.477	    15.435	   -60.356	     7.981
-20314.312	    15.420	   -64.554	    35.129
-20131.711	    15.364	   -66.784	    -6.314
-19956.420	    15.301	   -66.642	    10.797
-19920.312	    15.363	   -79.080	    -6.099
-19981.797	    15.370	   -73.192	   -12.310
-20298.951	    15.374	   -59.997	   -25.577
-20331.748	    15.429	   -69.375	    -3.355
-20371.701	    15.550	   -80.549	    -6.812
-20148.477	    15.584	   -79.889	   -10.088
-20148.443	    15.669	   -76.126	    -7.836
-20194.291	    15.722	   -53.530	   -21.083
-20076.646	    15.715	   -70.211	     6.881
-20240.627	    15.550	   -73.685	     2.478
-20225.926	    15.254	   -52.561	   -12.538
-20396.371	    15.168	   -71.331	    -1.025
-20275.695	    15.423	   -67.586	    11.803
-20148.807	    15.718	   -62.435	   -15.903
-20038.744	    15.881	   -67.033	    -9.164
-19899.533	    15.715	   -66.146	    -1.368
-20218.492	    15.380	   -56.934	    28.324
-20071.646	    15.188	   -79.470	     5.634
-20185.926	    15.145	   -55.426	   -30.610
-19961.236	    15.184	   -64.295	   -18.195
-20255.992	    15.247	   -58.536	   -22.219
-20144.713	    15.332	   -78.147	    -4.905
-20276.975	    15.481	   -57.592	   -11.673
-20168.330	    15.651	   -63.327	    -1.691
-20182.408	    15.837	   -67.196	     8.048
-20329.283	    15.972	   -55.895	   -13.631
-20275.254	    15.962	   -78.089	     1.356
-19869.820	    15.787	   -78.287	     4.561
-20280.393	    15.483	   -77.011	    -2.013
-20110.529	    15.187	   -58.955	   -15.179
-20000.242	    15.142	   -62.750	    -4.549
-20257.299	    15.285	   -79.112	     7.319
-20160.357	    15.435	   -73.694	     1.894
-20209.836	    15.523	   -68.262	    -3.665
-20332.551	    15.466	   -62.920	    -2.927
-20255.393	    15.418	   -59.823	   -14.701
-20356.969	    15.398	   -57.779	   -11.077
-20237.416	    15.436	   -73.131	    -4.613
-20073.840	    15.512	   -62.661	   -12.254
-20169.717	    15.617	   -66.706	    -6.847
-20023.031	    15.610	   -67.161	     5.550
-20234.936	    15.423	   -82.752	    -4.491
-20242.920	    15.176	   -70.919	    -5.132
-20285.260	    15.212	   -77.418	    23.198
-20358.941	    15.417	   -86.732	    14.585
-20159.480	    15.539	   -67.638	     8.061
-19987.980	    15.435	   -70.432	    -7.632
-20298.479	    15.303	   -79.666	    -6.994
-20356.412	    15.303	   -65.860	     5.763
-20172.889	    15.463	   -78.131	    -2.018
-20129.057	    15.610	   -62.606	    12.372
-20359.758	    15.651	   -62.671	   -17.137
-20166.387	    15.590	   -62.521	    -9.691
-20060.531	    15.500	   -61.400	    -7.572
-19953.445	    15.452	   -74.742	    14.689
-20280.807	    15.446	   -56.698	    -6.112
-20203.943	    15.536	   -54.616	   -10.788
-20159.125	    15.499	   -70.243	     3.821
-20294.129	    15.431	   -64.843	   -19.791
-20135.246	    15.415	   -53.353	    -5.344
-20143.678	    15.407	   -75.927	    16.260
-20195.625	    15.420	   -72.582	    28.077
-20129.777	    15.439	   -65.882	    16.023
-20294.527	    15.411	   -73.221	    14.640
-20317.203	    15.384	   -71.395	     3.611
-20317.477	    15.363	   -55.028	    -9.296
-20147.584	    15.324	   -67.976	     0.494
-20168.949	    15.285	   -65.626	     6.741
-20074.949	    15.219	   -73.542	    15.481
-20196.779	    15.071	   -56.870	     0.394
-20269.490	    14.972	   -56.209	    -0.110
-20448.311	    15.072	   -63.498	    16.482
-20486.070	    15.289	   -67.347	     6.874
-20454.574	    15.551	   -59.259	     2.488
-20001.295	    15.755	   -63.594	   -10.858
-20070.920	    15.719	   -62.663	   -11.365
-20112.279	    15.438	   -84.860	    15.374
-20272.275	    15.236	   -77.108	    -9.372
-20155.857	    15.228	   -76.672	    -3.924
-20394.033	    15.362	   -70.640	     3.468
-20124.096	    15.568	   -68.005	   -22.866
-20036.012	    15.829	   -54.260	   -10.855
-19978.162	    15.970	   -84.270	     8.354
-20218.957	    15.906	   -72.595	   -16.870
-20034.555	    15.567	   -74.516	    -1.482
-20571.543	    15.238	   -72.420	    -1.283
-20149.322	    15.144	   -55.290	    -7.015
-20105.324	    15.154	   -67.100	     8.761
-20156.951	    15.252	   -78.320	    -6.775
-19996.484	    15.386	   -64.370	    -3.810
-20137.354	    15.624	   -70.272	     2.663
-20040.826	    15.648	   -76.988	    -7.023
-20290.285	    15.553	   -46.599	   -14.418
-20037.902	    15.559	   -73.719	    -6.736
-20071.799	    15.562	   -66.291	    -1.990
-20073.990	    15.618	   -80.572	     4.452
-20061.818	    15.705	   -58.474	    -6.812
-20183.723	    15.538	   -71.592	    10.744
-20164.176	    15.284	   -46.500	    -3.125
-20144.029	    15.028	   -69.742	    -6.961
-20404.812	    15.001	   -57.944	   -10.996
-20317.125	    15.158	   -56.821	    13.652
-20402.324	    15.233	   -70.099	    19.773
-20276.299	    15.349	   -71.553	     9.529
-20330.391	    15.392	   -69.701	     3.235
-20199.771	    15.369	   -77.677	    -4.597
-20330.500	    15.494	   -48.596	    -7.880
-20305.682	    15.596	   -72.434	     5.885
-20088.250	    15.639	   -57.361	    -3.679
-20173.953	    15.537	   -64.995	    11.800
-20505.941	    15.542	   -62.422	    10.294
-20222.932	    15.599	   -68.923	     3.303
-20315.244	    15.611	   -58.627	     0.057
-20185.977	    15.579	   -59.866	     2.986
-20327.381	    15.445	   -55.082	     7.369
-20371.545	    15.304	   -71.782	     6.409
-20246.559	    15.232	   -70.039	   -11.246
-19973.898	    15.323	   -67.333	    -7.124
-20249.695	    15.424	   -70.302	   -21.074
-20462.779	    15.468	   -80.891	   -15.307
-20183.793	    15.469	   -70.119	    -9.550
-20168.992	    15.478	   -52.275	   -21.022
-20237.879	    15.498	   -69.369	   -17.920
-20036.916	    15.512	   -70.254	    -7.206
-20377.121	    15.539	   -67.270	   -13.099
-20179.209	    15.473	   -74.458	    -9.263
-20016.932	    15.438	   -63.137	   -17.695
-20236.914	    15.332	   -65.739	     1.121
-20147.293	    15.275	   -62.052	   -17.689
-20125.395	    15.275	   -73.869	     6.083
-20318.928	    15.232	   -54.840	   -17.597
-20446.879	    15.094	   -56.972	    10.005
-20199.506	    15.140	   -63.896	    21.363
-20271.842	    15.328	   -68.209	    16.605
-19913.043	    15.417	   -80.058	     2.609
-20275.518	    15.406	   -69.373	   -21.471
-20209.486	    15.475	   -78.765	    -8.299
-20071.574	    15.742	   -73.739	   -12.475
-20153.414	    15.826	   -69.504	   -15.728
-20055.555	    15.770	   -80.766	   -11.145
-20130.611	    15.645	   -60.316	   -20.837
-20003.865	    15.419	   -64.097	    -7.410
-20267.432	    15.233	   -74.389	     1.294
-20397.912	    15.215	   -78.107	     1.614
-20413.711	    15.347	   -49.887	   -18.810
-20235.006	    15.408	   -88.430	    -7.099
-20539.709	    15.354	   -81.867	     1.780
-20089.135	    15.312	   -70.052	    -4.193
-20221.781	    15.340	   -78.109	    -5.136
-20092.977	    15.324	   -73.622	    19.984
-20187.910	    15.345	   -74.814	    -3.147
-19744.344	    15.489	   -62.049	     0.028
-20020.277	    15.591	   -64.698	    13.442
-20423.482	    15.622	   -63.948	   -14.546
-20318.064	    15.637	   -68.442	    -1.577
-20271.896	    15.510	   -73.815	   -15.442
-20193.295	    15.356	   -57.613	    -2.131
-20278.680	    15.334	   -80.168	     8.191
-20059.436	    15.373	   -65.694	    -0.582
-20116.729	    15.358	   -65.300	   -19.384
-20294.154	    15.379	   -62.865	    -5.237
-19973.584	    15.517	   -59.379	     4.838
-20087.186	    15.745	   -44.697	   -21.872
-20082.963	    16.008	   -72.310	     6.871
-20173.299	    16.076	   -79.867	     1.307
-20181.004	    15.989	   -80.170	    -5.469
-19968.512	    15.849	   -76.327	   -16.585
-20118.574	    15.641	   -69.568	    -4.058
-20145.855	    15.350	   -59.560	   -18.589
-20373.711	    15.122	   -69.354	     1.339
-20138.982	    15.226	   -76.822	     3.970
-20210.988	    15.370	   -73.447	     3.294
-20187.912	    15.573	   -53.801	    -4.430
-20160.986	    15.658	   -70.715	   -17.313
-20217.631	    15.566	   -65.957	    13.740
-20170.717	    15.444	   -66.143	    -8.821
-20351.975	    15.350	   -69.855	    -9.720
-20194.992	    15.235	   -68.661	    10.473
-20244.904	    15.304	   -75.281	    -5.724
-19829.109	    15.398	   -80.083	     8.357
-20178.084	    15.465	   -74.146	    -3.823
-20142.529	    15.642	   -63.362	    -7.989
-19956.766	    15.702	   -77.861	    20.062
-20114.852	    15.654	   -77.851	    17.904
-20257.674	    15.527	   -63.550	   -12.852
-20198.084	    15.376	   -84.925	    10.255
-19998.645	    15.246	   -58.965	    -4.748
-20399.895	    15.283	   -71.423	    -8.189
-20299.240	    15.413	   -82.425	    -1.523
-20222.145	    15.595	   -66.405	    -8.659
-20266.654	    15.708	   -80.524	     7.012
-19985.318	    15.681	   -74.477	    10.976
-19855.684	    15.602	   -63.471	    13.891
-20004.699	    15.510	   -64.675	    -5.562
-20183.602	    15.329	   -83.079	    -3.150
-20456.057	    15.164	   -70.346	    15.484
-20096.762	    15.046	   -97.318	    37.348
-20099.113	    15.142	   -74.001	     1.262
-20221.320	    15.316	   -58.373	    -3.698
-20095.379	    15.508	   -76.894	    10.804
-20064.850	    15.685	   -68.149	   -10.731
-20104.949	    15.582	   -59.298	    -2.869
-20211.307	    15.311	   -73.217	   -23.124
-20162.381	    15.029	   -75.630	    14.642
-20304.559	    14.959	   -66.733	   -15.561
-20171.887	    14.993	   -69.846	   -15.459
-20375.461	    15.063	   -80.607	   -10.614
-19970.469	    15.238	   -83.886	     9.306
-19979.951	    15.560	   -68.157	    -2.930
-20079.906	    15.710	   -73.496	    19.241
-19949.312	    15.627	   -56.190	    -0.920
-20122.531	    15.393	   -70.460	     1.511
-20176.779	    15.236	   -63.081	   -11.948
-20524.986	    15.194	   -74.720	   -16.495
-20507.629	    15.247	   -60.701	     5.431
-20110.330	    15.381	   -63.188	     2.473
-20041.307	    15.641	   -63.552	    -6.594
-19951.057	    15.799	   -74.132	   -26.806
-20090.617	    15.707	   -70.898	   -17.280
-20022.039	    15.496	   -85.143	     1.931
-20108.723	    15.316	   -64.681	    -8.635
-20104.102	    15.172	   -60.302	   -16.843
-20163.086	    15.068	   -66.946	    -4.374
-20285.307	    15.132	   -68.723	     0.956
-20296.252	    15.264	   -63.000	    14.461
-20147.100	    15.423	   -93.369	    -0.152
-19957.406	    15.601	   -68.838	   -12.584
-20028.232	    15.703	   -63.675	     8.006
-19833.338	    15.709	   -80.056	     8.344
-20219.180	    15.613	   -70.302	     7.609
-20364.102	    15.407	   -76.354	    12.322
-20118.998	    15.248	   -72.139	     6.637
-20093.865	    15.142	   -72.031	     3.504
-20087.215	    15.226	   -69.859	   -12.270
-19768.256	    15.318	   -64.106	     4.873
-20263.941	    15.280	   -73.477	     9.913
-20144.678	    15.251	   -79.438	    16.997
-20145.525	    15.325	   -68.058	    16.003
-20027.768	    15.466	   -66.969	     0.437
-20282.572	    15.495	   -65.703	    13.793
-20040.271	    15.442	   -73.802	     8.101
-19998.438	    15.385	   -62.473	    -8.640
-20107.748	    15.319	   -55.481	   -19.890
-20123.963	    15.441	   -66.609	    17.530
-20189.781	    15.610	   -68.363	     0.439
-19939.133	    15.720	   -73.478	   -14.613
-20149.305	    15.650	   -64.258	    -2.132
-20270.406	    15.582	   -76.777	     9.207
-20175.512	    15.475	   -60.536	   -14.079
-20007.123	    15.318	   -48.594	     8.049
-20179.311	    15.218	   -67.804	     4.158
-20132.346	    15.173	   -59.567	     5.372
-20276.885	    15.091	   -83.212	     3.902
-20116.654	    15.112	   -73.100	    11.524
-20055.674	    15.325	   -57.957	   -15.950
-20282.168	    15.418	   -65.425	   -14.498
-20166.906	    15.453	   -67.561	    -5.230
-19920.232	    15.410	   -67.339	    -4.557
-20324.342	    15.467	   -77.670	    -2.965
-20188.035	    15.642	   -81.925	     1.279
-19915.525	    15.648	   -71.947	   -16.581
-20330.537	    15.417	   -61.661	     4.237
-20448.141	    15.150	   -77.664	    22.006
-20478.299	    15.045	   -62.957	    22.657
-20232.021	    15.082	   -61.726	     9.290
-20104.816	    15.228	   -63.688	     1.553
-20235.455	    15.444	   -86.872	     4.455
-20120.031	    15.575	   -64.750	     1.895
-20062.488	    15.514	   -76.225	    14.891
-20181.447	    15.328	   -67.742	   -21.206
-20237.650	    15.203	   -58.215	   -26.541
-20503.854	    15.005	   -75.468	   -10.021
-20278.830	    15.057	   -72.135	     2.829
-20147.461	    15.244	   -76.552	    11.818
-20177.656	    15.437	   -77.061	     7.435
-20140.955	    15.599	   -78.197	    -4.207
-20121.998	    15.613	   -79.032	    10.535
-20025.457	    15.493	   -69.032	    -4.287
-20214.764	    15.396	   -58.136	    -2.593
-20055.096	    15.416	   -68.934	     2.057
-20225.559	    15.516	   -74.474	     7.455
-20222.158	    15.489	   -75.564	    -8.082
-20304.082	    15.287	   -64.002	     7.878
-20213.682	    15.169	   -57.925	    -8.964
-20501.410	    15.126	   -68.022	   -15.172
-20048.543	    15.238	   -72.571	     4.889
-20200.420	    15.298	   -68.121	    -7.906
-20319.514	    15.295	   -72.269	     0.303
-20357.047	    15.400	   -71.564	    20.723
-20326.064	    15.467	   -62.573	   -13.216
-20353.682	    15.397	   -75.988	   -12.895
-20148.988	    15.490	   -83.590	    14.356
-19854.514	    15.634	   -58.925	    20.800
-20075.252	    15.615	   -78.735	     5.504
-20043.086	    15.434	   -77.000	     1.219
-20227.551	    15.280	   -75.689	   -19.526
-20387.615	    15.215	   -76.736	     3.971
-20340.793	    15.146	   -69.573	    -3.970
-20384.852	    15.165	   -54.988	   -17.349
-20184.869	    15.179	   -72.215	   -22.339
-20265.699	    15.133	   -64.675	   -21.593
-20366.555	    15.099	   -59.941	    -2.110
-20036.490	    15.171	   -73.958	    -2.094
-20102.607	    15.398	   -55.136	   -18.977
-20069.818	    15.622	   -61.821	     6.583
-20223.699	    15.640	   -77.363	    -7.899
-20239.709	    15.476	   -66.150	    14.179
-19940.938	    15.317	   -67.017	   -10.114
-20079.373	    15.138	   -65.609	   -22.340
-20434.982	    15.178	   -66.933	     3.112
-20212.750	    15.368	   -71.678	     1.524
-20384.195	    15.553	   -77.775	   -14.063
-20149.107	    15.594	   -65.045	    -3.443
-20175.957	    15.556	   -57.476	   -13.662
-20076.592	    15.485	   -58.400	    -1.927
-20464.127	    15.372	   -65.326	    12.618
-20102.686	    15.300	   -69.596	    20.116
-20433.875	    15.308	   -59.265	    32.763
-20192.207	    15.395	   -64.476	    15.016
-20265.359	    15.519	   -64.962	   -10.770
-20039.014	    15.707	   -67.676	   -21.626
-19918.201	    15.922	   -70.502	    -8.316
-20241.965	    15.840	   -65.927	     8.280
-20204.115	    15.630	   -61.295	    -3.224
-20352.275	    15.399	   -71.261	    -1.954
-20389.826	    15.425	   -64.600	    -7.127
-20295.555	    15.521	   -65.771	    -1.421
-20030.766	    15.580	   -66.468	   -10.919
-19964.627	    15.634	   -77.838	   -12.342
-20134.914	    15.560	   -66.186	    -7.594
-20084.879	    15.496	   -63.003	    13.767
-19985.648	    15.400	   -69.109	    12.389
-20247.377	    15.222	   -65.009	    12.314
-20198.018	    15.224	   -73.248	    36.148
-20049.588	    15.448	   -71.756	    -6.898
-19932.424	    15.711	   -55.597	   -10.310
-19981.926	    15.751	   -66.668	    -7.707
-20181.527	    15.615	   -60.482	   -14.239
-20013.139	    15.456	   -71.223	     9.399
-20134.789	    15.418	   -66.689	   -15.928
-20160.604	    15.415	   -77.745	    -3.330
-20036.023	    15.315	   -73.409	    19.837
-20249.180	    15.199	   -80.603	    -7.934
-20393.748	    15.112	   -65.349	   -18.132
-20518.223	    15.138	   -66.883	     0.061
-20299.268	    15.301	   -70.218	    -5.635
-20011.932	    15.573	   -72.725	     2.676
-20175.074	    15.789	   -66.716	     2.793
-20305.348	    15.852	   -74.090	     2.403
-20019.943	    15.856	   -66.487	   -11.977
-20162.428	    15.725	   -81.217	    -4.954
-20047.482	    15.490	   -66.909	    -5.122
-20039.447	    15.391	   -66.806	    -0.183
-20524.137	    15.422	   -64.283	     3.466
-20170.783	    15.572	   -53.030	   -11.411
-20181.281	    15.743	   -74.334	    14.739
-20142.803	    15.693	   -66.696	    -2.359
-20163.670	    15.543	   -56.954	     0.428
-19935.461	    15.519	   -63.020	   -21.015
-19970.070	    15.496	   -61.068	    -6.317
-20077.412	    15.373	   -67.272	     6.539
-20160.062	    15.342	   -65.489	   -17.889
-20304.633	    15.411	   -60.433	    10.310
-19898.520	    15.426	   -60.397	   -14.617
-20233.568	    15.323	   -71.423	   -16.238
-20188.531	    15.318	   -76.185	     6.515
-20071.615	    15.416	   -78.622	    -3.066
-20120.236	    15.517	   -53.387	     0.513
-20022.570	    15.533	   -73.075	     0.152
-20161.611	    15.401	   -66.536	    -2.911
-19872.938	    15.254	   -67.887	     9.344
-19981.889	    15.155	   -72.878	     6.490
-20132.316	    15.216	   -77.486	    -7.037
-20454.023	    15.429	   -67.316	     0.438
-20109.656	    15.608	   -71.496	    18.826
-20121.574	    15.641	   -68.480	    34.576
-20273.451	    15.588	   -86.517	   -18.596
-20461.012	    15.478	   -81.648	    -6.116
-20034.463	    15.371	   -71.658	   -15.885
-20327.662	    15.240	   -72.270	    -0.129
-20100.465	    15.232	   -62.382	   -14.510
