-19896.166	    15.334	   -92.310	   122.143
-19799.463	    15.406	   -32.273	  -174.397
-19893.264	    15.410	    50.751	  -141.354
-20068.354	    15.434	    41.205	  -161.381
-19993.359	    15.566	    48.822	  -146.275
-20064.457	    15.703	    49.029	  -163.369
-19797.557	    15.675	    50.383	  -142.321
-20165.275	    15.502	    48.978	  -131.261
-19913.555	    15.371	    43.642	  -140.360
-19816.439	    15.398	    33.413	  -148.744
-19905.297	    15.514	    46.005	  -171.179
-19747.955	    15.667	    36.175	  -130.557
-20154.928	    15.687	    59.657	  -155.240
-19970.434	    15.627	    42.819	  -158.523
-19867.738	    15.472	    54.708	  -145.579
-19936.355	    15.332	    42.970	  -134.335
-19966.410	    15.318	    47.924	  -137.523
-19904.508	    15.407	    41.586	  -127.246
-20214.463	    15.553	    51.809	  -142.037
-19836.893	    15.730	    48.285	  -159.126
-19770.074	    15.856	    35.827	  -149.791
-19711.699	    15.743	    45.320	  -136.803
-19992.162	    15.648	    40.711	  -152.422
-19990.561	    15.455	    48.583	  -161.345
-20087.092	    15.317	    43.775	  -151.084
-19955.281	    15.202	    46.724	  -144.253
-20039.434	    15.204	    47.055	  -136.039
-19881.234	    15.409	    39.280	  -173.934
-19797.480	    15.616	    50.477	  -148.159
-19878.191	    15.672	    45.495	  -156.234
-20031.139	    15.456	    61.607	  -157.340
-20086.795	    15.292	    47.218	  -163.614
-19869.275	    15.290	    61.472	  -122.198
-19776.916	    15.327	    42.471	  -127.820
-19646.375	    15.388	    54.776	  -135.871
-19912.801	    15.494	    60.473	  -151.540
-19867.666	    15.568	    59.819	  -137.833
-20101.564	    15.472	    55.234	  -131.107
-19937.660	    15.358	    51.952	  -148.446
-19952.623	    15.241	    40.893	  -169.629
-20074.309	    15.317	    32.227	  -150.534
-19697.506	    15.504	    46.814	  -155.567
-19820.184	    15.684	    48.709	  -148.983
-19834.453	    15.744	    51.297	  -145.866
-19897.371	    15.618	    50.863	  -162.743
-19965.770	    15.389	    61.191	  -145.916
-19877.945	    15.365	    49.828	  -166.613
-19699.596	    15.475	    65.295	  -145.758
-19747.949	    15.586	    50.068	  -142.671
-19671.756	    15.644	    57.842	  -165.595
-19754.803	    15.615	    42.430	  -145.490
-20083.982	    15.580	    58.298	  -175.083
-19859.320	    15.545	    56.558	  -152.786
-19819.326	    15.501	    63.628	  -151.090
-19995.254	    15.411	    47.626	  -149.963
-20047.736	    15.381	    51.600	  -125.462
-19976.777	    15.408	    47.980	  -111.871
-19818.861	    15.478	    49.085	  -130.138
-19964.514	    15.616	    50.252	  -136.664
-19729.213	    15.744	    38.682	  -131.291
-19927.389	    15.675	    42.257	  -143.996
-20066.377	    15.491	    43.499	  -151.052
-19865.086	    15.379	    50.117	  -153.624
-19968.361	    15.309	    56.445	  -157.492
-19961.969	    15.327	    61.500	  -157.675
-20224.318	    15.449	    53.442	  -147.603
-19782.490	    15.720	    52.617	  -152.850
-19723.643	    15.896	    46.308	  -163.031
-19910.961	    15.860	    61.590	  -158.544
-20013.795	    15.754	    54.966	  -163.341
-19782.105	    15.652	    48.608	  -164.833
-19927.182	    15.624	    39.432	  -142.824
-19915.621	    15.585	    47.392	  -164.309
-19890.701	    15.503	    40.681	  -136.366
-19841.586	    15.608	    63.651	  -125.730
-19870.283	    15.739	    56.427	  -126.442
-19547.801	    15.869	    57.177	  -154.217
-19689.914	    15.732	    46.294	  -130.714
-19849.486	    15.366	    44.895	  -131.969
-20034.301	    15.137	    50.244	  -132.534
-20021.016	    15.118	    53.225	  -142.145
-19883.998	    15.234	    37.429	  -132.765
-20115.891	    15.362	    49.410	  -154.751
-20110.334	    15.480	    52.614	  -155.929
-20096.098	    15.478	    50.591	  -120.660
-19912.953	    15.597	    36.052	  -118.296
-19946.885	    15.712	    45.629	  -120.628
-19847.480	    15.628	    50.570	  -136.998
-19980.490	    15.444	    45.272	  -162.265
-19971.832	    15.395	    51.388	  -141.256
-20188.861	    15.358	    37.827	  -143.227
-19862.479	    15.395	    59.683	  -155.003
-19911.723	    15.414	    41.068	  -141.949
-20040.715	    15.397	    47.608	  -161.551
-20052.832	    15.393	    41.805	  -128.487
-19927.441	    15.388	    49.574	  -133.697
-19904.518	    15.392	    52.064	  -127.272
-19957.879	    15.366	    48.344	  -142.649
-19896.361	    15.364	    49.982	  -151.700
-19905.189	    15.548	    50.572	  -157.682
-19932.004	    15.711	    42.411	  -140.230
-19696.820	    15.862	    48.073	  -144.610
-19848.387	    15.886	    44.409	  -158.732
-19770.408	    15.789	    54.733	  -147.662
-19885.242	    15.510	    49.398	  -144.317
-19856.990	    15.298	    39.860	  -168.966
-19903.527	    15.352	    52.330	  -149.984
-19980.338	    15.438	    49.584	  -153.457
-20000.303	    15.493	    38.225	  -154.418
-19872.604	    15.494	    43.058	  -153.780
-20018.477	    15.420	    55.587	  -150.711
-19711.486	    15.438	    52.432	  -164.900
-19943.268	    15.576	    56.737	  -154.576
-19974.488	    15.642	    48.941	  -162.464
-19797.193	    15.633	    60.851	  -160.822
-19893.627	    15.659	    43.121	  -151.252
-19754.934	    15.677	    54.562	  -141.789
-19948.219	    15.484	    44.138	  -135.878
-20041.186	    15.380	    51.583	  -132.949
-19935.920	    15.380	    43.368	  -134.150
-19989.836	    15.390	    48.498	  -143.589
-19938.666	    15.286	    55.887	  -147.545
-19913.225	    15.178	    40.701	  -147.031
-19879.361	    15.202	    54.200	  -163.950
-19891.158	    15.212	    59.044	  -147.674
-19751.869	    15.268	    41.126	  -145.965
-19803.771	    15.381	    53.998	  -157.377
-19903.537	    15.496	    49.610	  -146.380
-19816.723	    15.523	    47.704	  -130.537
-19834.646	    15.436	    39.794	  -145.087
-19571.443	    15.273	    43.252	  -161.102
-19998.832	    15.046	    45.578	  -124.508
-19980.906	    14.921	    50.723	  -126.675
-19998.498	    15.046	    58.704	  -119.845
-19963.838	    15.341	    45.193	  -145.430
-20158.143	    15.529	    55.795	  -141.150
-19923.674	    15.658	    54.118	  -132.895
-20046.846	    15.752	    41.477	  -140.754
-19742.389	    15.709	    52.896	  -157.800
-19880.156	    15.493	    49.605	  -122.913
-19847.406	    15.370	    49.277	  -157.835
-19702.482	    15.350	    56.418	  -145.258
-19842.070	    15.362	    61.473	  -147.112
-20063.316	    15.428	    45.043	  -132.391
-19959.365	    15.592	    48.171	  -147.575
-19864.480	    15.795	    43.602	  -150.972
-19959.881	    15.868	    56.760	  -143.634
-19784.111	    15.846	    46.843	  -128.974
-20175.492	    15.582	    54.701	  -150.514
-19715.051	    15.231	    42.208	  -152.916
-19797.047	    15.009	    37.665	  -149.194
-19917.285	    15.051	    50.686	  -141.168
-19996.668	    15.208	    40.942	  -157.304
-19869.949	    15.371	    44.425	  -151.709
-20014.832	    15.419	    52.513	  -145.527
-20239.764	    15.383	    50.270	  -161.174
-20034.900	    15.333	    55.059	  -148.515
-19859.807	    15.227	    37.258	  -157.029
-20039.324	    15.186	    35.003	  -132.829
-20057.771	    15.220	    43.415	  -144.332
-19965.326	    15.355	    39.811	  -127.478
-20065.092	    15.564	    38.134	  -133.584
-19779.910	    15.796	    45.504	  -135.241
-19726.617	    15.873	    50.837	  -148.065
-19722.420	    15.687	    63.428	  -151.100
-19765.348	    15.479	    41.142	  -146.009
-19689.051	    15.360	    48.352	  -150.302
-19952.994	    15.365	    40.041	  -149.413
-20280.145	    15.476	    38.577	  -139.750
-19981.994	    15.749	    46.025	  -151.705
-19711.342	    15.900	    57.434	  -153.171
-19978.520	    15.929	    45.815	  -139.927
-20080.041	    15.843	    55.540	  -131.493
-19882.891	    15.680	    38.534	  -128.223
-20178.357	    15.489	    47.419	  -116.560
-19903.475	    15.518	    55.958	  -156.283
-19800.756	    15.617	    50.356	  -127.427
-20103.346	    15.641	    47.867	  -133.512
-20088.615	    15.615	    46.169	  -137.643
-19851.426	    15.594	    56.378	  -142.905
-19731.367	    15.652	    38.182	  -141.122
-19675.346	    15.586	    49.245	  -145.215
-19977.248	    15.480	    36.174	  -148.259
-19746.377	    15.381	    47.396	  -134.063
-20054.367	    15.346	    51.184	  -156.996
-20133.188	    15.388	    45.191	  -140.846
-19966.594	    15.523	    42.299	  -141.412
-19743.678	    15.776	    38.202	  -161.244
-19912.457	    15.922	    55.833	  -167.306
-19797.443	    15.973	    44.902	  -161.222
-19757.033	    15.892	    46.421	  -164.756
-19634.129	    15.703	    49.201	  -152.626
-20344.787	    15.491	    47.518	  -173.996
-19967.957	    15.482	    41.792	  -151.374
-19864.229	    15.497	    49.113	  -172.516
-20026.783	    15.572	    38.747	  -122.050
-19961.547	    15.640	    55.163	  -121.832
-19758.537	    15.676	    30.963	  -128.029
-19758.182	    15.618	    52.712	  -134.453
-19841.605	    15.495	    36.476	  -136.923
-19944.873	    15.376	    63.690	  -160.060
-19965.525	    15.237	    38.885	  -133.846
-19936.592	    15.226	    44.722	  -132.855
-20046.930	    15.237	    63.394	  -133.876
-19907.381	    15.199	    40.204	  -135.047
-20010.783	    15.242	    40.050	  -143.754
-20018.428	    15.425	    44.558	  -124.377
-19954.561	    15.591	    58.868	  -147.288
-19924.600	    15.814	    28.408	  -119.489
-19942.660	    15.941	    51.429	  -144.582
-19810.662	    15.812	    48.331	  -154.080
-20074.812	    15.605	    39.485	  -139.147
-20214.057	    15.403	    45.461	  -143.282
-20067.027	    15.248	    44.685	  -150.267
-20191.389	    15.293	    38.330	  -147.411
-20096.785	    15.422	    55.426	  -142.433
-19969.068	    15.520	    49.506	  -134.381
-19801.832	    15.493	    43.618	  -153.314
-19967.938	    15.360	    49.556	  -145.712
-20049.193	    15.234	    42.543	  -150.215
-20087.631	    15.240	    50.698	  -147.075
-20016.129	    15.392	    37.718	  -132.166
-20013.188	    15.524	    51.521	  -163.127
-19864.062	    15.706	    51.377	  -137.719
-19862.188	    15.733	    47.448	  -146.625
-20042.555	    15.593	    49.319	  -146.776
-19763.480	    15.391	    44.097	  -129.780
-20249.004	    15.295	    47.619	  -142.579
-19938.602	    15.474	    45.392	  -124.706
-19932.141	    15.637	    42.770	  -129.902
-19974.756	    15.684	    55.445	  -134.229
-20126.990	    15.680	    41.056	  -137.130
-19958.273	    15.562	    47.174	  -137.683
-20049.803	    15.463	    42.579	  -125.225
-19891.566	    15.458	    43.705	  -129.480
-20059.279	    15.511	    51.979	  -142.241
-19844.074	    15.455	    52.771	  -144.254
-20117.277	    15.317	    46.663	  -157.700
-19970.348	    15.215	    47.529	  -169.094
-19860.732	    15.147	    62.266	  -152.596
-19853.006	    15.193	    40.162	  -128.038
-19881.094	    15.344	    41.690	  -142.033
-19810.729	    15.645	    49.096	  -144.401
-19854.668	    15.698	    58.253	  -122.258
-20031.271	    15.586	    45.119	  -144.192
-20053.465	    15.491	    45.955	  -142.593
-19946.828	    15.482	    52.077	  -147.098
-19766.320	    15.482	    57.404	  -151.203
-19791.123	    15.436	    57.035	  -160.968
-19807.363	    15.401	    48.270	  -133.121
-19818.248	    15.279	    57.271	  -151.789
-20039.725	    15.289	    43.809	  -141.800
-20107.420	    15.370	    51.442	  -166.418
-19867.395	    15.451	    57.836	  -177.325
-19868.961	    15.482	    41.905	  -138.570
-19899.484	    15.371	    52.413	  -164.066
-20174.590	    15.252	    44.975	  -148.359
-20341.150	    15.292	    48.602	  -173.895
-19796.559	    15.616	    54.205	  -138.385
-19623.615	    15.865	    53.405	  -126.000
-19663.113	    15.744	    56.179	  -133.329
-19882.963	    15.456	    48.998	  -155.255
-19997.252	    15.317	    50.515	  -144.501
-19839.191	    15.416	    46.608	  -142.949
-19747.514	    15.522	    46.218	  -149.720
-19751.848	    15.465	    38.282	  -150.207
-19973.023	    15.540	    53.545	  -165.243
-19865.566	    15.485	    53.930	  -144.359
-19954.080	    15.426	    40.412	  -153.892
-20093.672	    15.432	    50.453	  -162.361
-20235.504	    15.538	    48.087	  -156.884
-19999.004	    15.704	    45.782	  -150.407
-19956.047	    15.725	    38.042	  -122.542
-19897.678	    15.682	    45.887	  -157.349
-19893.115	    15.591	    46.222	  -145.821
-20073.387	    15.467	    44.348	  -141.188
-19859.305	    15.405	    51.239	  -124.123
-20066.941	    15.249	    54.442	  -136.485
-20039.326	    15.192	    46.929	  -116.704
-19924.248	    15.248	    49.424	  -130.220
-19956.789	    15.362	    53.487	  -147.552
-19731.480	    15.505	    55.851	  -148.549
-19650.002	    15.630	    49.477	  -148.968
-19683.338	    15.702	    56.821	  -147.424
-19675.324	    15.683	    56.636	  -144.391
-19873.596	    15.596	    46.166	  -151.973
-20152.096	    15.494	    42.731	  -127.117
-19933.512	    15.450	    48.251	  -139.265
-20024.744	    15.450	    47.762	  -149.126
-20111.326	    15.401	    53.391	  -139.503
-20016.057	    15.305	    53.467	  -149.964
-19800.250	    15.184	    52.938	  -137.863
-20150.910	    15.160	    54.483	  -151.837
-19938.381	    15.277	    58.669	  -145.324
-19805.682	    15.440	    45.547	  -161.421
-19865.564	    15.510	    49.173	  -149.170
-19953.514	    15.459	    43.710	  -156.706
-20116.162	    15.357	    52.148	  -149.320
-19961.480	    15.378	    56.108	  -144.645
-19922.727	    15.435	    58.473	  -139.833
-19924.850	    15.406	    52.333	  -140.611
-19825.924	    15.431	    34.291	  -131.082
-19860.771	    15.419	    51.042	  -126.174
-19996.568	    15.319	    53.618	  -144.922
-19831.572	    15.173	    43.175	  -141.840
-20056.078	    15.162	    53.581	  -143.116
-20048.535	    15.300	    51.963	  -139.910
-19885.154	    15.487	    54.788	  -157.453
-19721.658	    15.653	    48.838	  -145.675
-20009.033	    15.634	    49.468	  -151.555
-19918.893	    15.613	    53.355	  -146.624
-19669.463	    15.623	    39.209	  -146.017
-19913.113	    15.487	    57.822	  -111.072
-20116.779	    15.379	    53.467	  -147.358
-19959.391	    15.312	    44.217	  -124.040
-20127.137	    15.360	    55.507	  -137.996
-19956.906	    15.545	    60.817	  -136.681
-19719.240	    15.783	    47.303	  -142.885
-19613.215	    15.888	    45.915	  -159.462
-19976.742	    15.834	    55.131	  -146.828
-19843.264	    15.604	    42.990	  -146.773
-19972.736	    15.380	    39.013	  -149.792
-19968.621	    15.332	    56.318	  -148.663
-19939.375	    15.463	    55.572	  -135.300
-19973.492	    15.640	    53.757	  -140.200
-19954.826	    15.627	    36.005	  -157.435
-20195.955	    15.606	    46.400	  -154.201
-19849.096	    15.563	    51.757	  -130.984
-19862.195	    15.531	    51.630	  -139.773
-19928.416	    15.523	    57.700	  -154.518
-19744.178	    15.535	    45.633	  -125.920
-20069.213	    15.445	    51.461	  -143.299
-19709.613	    15.419	    45.292	  -151.483
-19870.801	    15.468	    56.771	  -151.683
-19859.008	    15.439	    43.721	  -144.298
-19551.666	    15.311	    51.295	  -136.478
-20224.330	    15.275	    49.778	  -151.140
-19844.289	    15.431	    43.275	  -141.046
-19950.191	    15.578	    60.056	  -148.623
-19851.902	    15.651	    53.273	  -149.680
-19923.695	    15.594	    59.522	  -148.395
-20161.074	    15.415	    53.265	  -177.045
-20193.031	    15.342	    32.954	  -145.946
-19928.221	    15.343	    55.349	  -177.040
-20041.174	    15.404	    54.755	   173.846
-20006.924	    15.534	    60.650	  -151.139
-19904.338	    15.724	    51.831	  -164.962
-19941.709	    15.833	    35.106	  -121.812
-20093.379	    15.718	    67.503	  -149.405
-19931.561	    15.624	    49.582	  -116.373
-19939.057	    15.502	    54.015	  -132.455
-19933.391	    15.414	    38.885	  -142.495
-19855.930	    15.442	    55.615	  -157.571
-19838.264	    15.478	    48.839	  -143.142
-20036.289	    15.508	    48.149	  -130.615
-19768.961	    15.532	    48.840	  -138.243
-19952.631	    15.542	    45.759	  -140.094
-19883.395	    15.531	    56.515	  -146.598
-19920.059	    15.490	    40.093	  -147.956
-19623.430	    15.556	    49.313	  -145.504
-19795.086	    15.688	    48.391	  -142.622
-19555.680	    15.743	    58.599	  -156.284
-19823.826	    15.668	    42.095	  -148.161
-19962.912	    15.548	    38.908	  -142.567
-20062.525	    15.446	    55.851	  -156.705
-20193.312	    15.340	    34.346	  -138.205
-19902.088	    15.284	    52.476	  -145.633
-20259.643	    15.359	    54.379	  -140.902
-20014.682	    15.527	    41.600	  -154.022
-19946.992	    15.592	    61.374	  -154.758
-20026.445	    15.593	    42.236	  -136.908
-20111.893	    15.553	    47.368	  -171.349
-19933.697	    15.572	    47.335	  -150.532
-19838.406	    15.572	    46.109	  -138.329
-19921.264	    15.570	    48.423	  -159.484
-19805.486	    15.451	    44.895	  -139.715
-20131.197	    15.299	    37.746	  -135.363
-19637.631	    15.380	    47.907	  -154.285
-19704.334	    15.527	    43.948	  -138.036
-19946.076	    15.616	    58.981	  -150.147
-19896.033	    15.633	    51.438	  -158.873
-19831.852	    15.628	    37.916	  -134.542
-20138.906	    15.601	    60.114	  -168.705
-19859.285	    15.546	    49.490	  -158.258
-19833.555	    15.421	    53.443	  -166.356
-20048.777	    15.361	    52.963	  -171.522
-19836.408	    15.336	    67.796	  -148.628
-19810.707	    15.364	    45.290	  -157.139
-19868.852	    15.267	    51.907	  -128.786
-19864.020	    15.223	    41.739	  -130.051
-19993.303	    15.318	    50.392	  -112.615
-19622.951	    15.425	    34.825	  -134.113
-19815.121	    15.544	    41.105	  -125.492
-19961.941	    15.675	    50.770	  -170.750
-19994.719	    15.732	    53.150	  -139.572
-19679.371	    15.718	    48.331	  -136.891
-19958.725	    15.529	    49.572	  -148.630
-19871.846	    15.525	    43.096	  -130.202
-19823.752	    15.562	    45.705	  -154.077
-19831.469	    15.538	    47.417	  -139.001
-20036.801	    15.601	    62.026	  -156.997
-19919.914	    15.647	    42.055	  -142.496
-20138.982	    15.517	    40.861	  -129.012
-19930.113	    15.321	    43.775	  -158.261
-20194.021	    15.120	    44.892	  -139.192
-19842.895	    15.045	    44.877	  -150.911
-20219.461	    15.077	    55.594	  -127.804
-19838.158	    15.200	    46.033	  -150.308
-19878.930	    15.299	    61.136	  -153.587
-20010.428	    15.454	    58.838	  -157.240
-19899.105	    15.610	    47.707	  -150.685
-19812.393	    15.715	    48.596	  -149.581
-19910.533	    15.725	    58.073	  -111.692
-19931.053	    15.707	    54.038	  -119.946
-19773.229	    15.699	    48.984	  -139.882
-19959.875	    15.676	    41.505	  -141.936
-19687.176	    15.650	    51.247	  -133.528
-19893.240	    15.545	    54.330	  -137.575
-19888.283	    15.456	    42.695	  -160.035
-19893.562	    15.384	    55.953	  -157.766
-19873.756	    15.429	    54.961	  -141.511
-19826.570	    15.491	    40.487	  -134.906
-19858.396	    15.494	    60.844	  -136.654
-19905.689	    15.554	    50.711	  -164.021
-19943.408	    15.547	    54.240	  -129.058
-19843.018	    15.632	    44.154	  -117.078
-19926.611	    15.715	    49.042	  -146.919
-20046.770	    15.777	    39.033	  -142.781
-19891.072	    15.769	    33.808	  -142.478
-20146.676	    15.735	    53.364	  -143.631
-19885.803	    15.584	    61.066	  -144.517
-19785.803	    15.451	    46.851	  -134.898
-20194.271	    15.392	    48.984	  -145.624
-20038.711	    15.401	    46.904	  -151.414
-20182.539	    15.468	    41.378	  -133.693
-19798.561	    15.558	    54.129	  -139.450
-19826.516	    15.775	    45.117	  -133.407
-19629.701	    15.903	    50.931	  -141.657
-20010.535	    15.786	    46.991	  -149.109
-19932.033	    15.608	    53.800	  -161.205
-19780.305	    15.493	    44.921	  -136.981
-19936.236	    15.392	    42.282	  -139.680
-19892.502	    15.345	    61.467	  -153.794
-19897.049	    15.416	    50.319	  -131.128
-19970.721	    15.399	    44.560	  -123.036
-20063.270	    15.376	    42.902	  -132.312
-20145.092	    15.436	    45.694	  -138.185
-19942.354	    15.369	    42.214	  -135.260
-20251.033	    15.342	    63.382	  -160.691
-20177.521	    15.395	    46.677	  -150.508
-19775.754	    15.477	    41.475	  -136.727
-19763.225	    15.631	    53.654	  -143.540
-19773.879	    15.711	    34.240	  -126.830
-19956.518	    15.702	    43.588	  -129.020
-19873.535	    15.662	    46.791	  -140.198
-19946.111	    15.532	    52.884	  -133.002
-20015.492	    15.431	    52.203	  -127.514
-19903.355	    15.507	    41.916	  -166.061
-20005.307	    15.645	    50.788	  -149.401
-19971.426	    15.610	    57.465	  -115.305
-20015.902	    15.528	    47.571	  -111.685
-20096.498	    15.516	    41.441	  -121.706
-19823.238	    15.471	    52.575	  -139.089
-20002.496	    15.474	    56.092	  -124.466
-19807.471	    15.484	    58.340	  -147.537
-20070.379	    15.455	    52.602	  -154.952
-20088.928	    15.398	    41.413	  -149.032
-19865.207	    15.416	    52.206	  -143.605
-20219.424	    15.353	    50.293	  -139.517
-19984.459	    15.401	    56.495	  -143.347
-19718.355	    15.566	    54.544	  -120.442
-19852.586	    15.622	    45.548	  -127.297
-19729.539	    15.550	    46.938	  -133.947
-20210.480	    15.398	    36.913	  -132.558
-19734.863	    15.472	    46.056	  -119.016
-19783.586	    15.628	    51.762	  -154.536
-19885.602	    15.632	    37.847	  -129.157
-19992.246	    15.409	    40.940	  -127.420
-19732.928	    15.199	    52.300	  -129.384
-19992.961	    15.146	    52.631	  -147.849
-19910.240	    15.314	    51.939	  -132.478
-19883.201	    15.573	    48.717	  -142.807
-19843.158	    15.737	    48.660	  -138.392
-19820.160	    15.765	    51.003	  -139.396
-20136.719	    15.419	    43.582	  -119.150
-19971.896	    15.244	    46.736	  -149.393
-20070.820	    15.284	    49.188	  -148.287
-19883.525	    15.414	    48.609	  -157.840
-19666.221	    15.528	    54.807	  -155.297
-19885.695	    15.583	    47.311	  -158.536
-19985.713	    15.719	    51.815	  -147.029
-20133.330	    15.836	    46.303	  -123.261
-19865.359	    15.866	    39.471	  -131.768
-19803.219	    15.811	    60.234	  -163.491
-19617.111	    15.756	    56.196	  -142.228
-20029.008	    15.609	    49.653	  -143.402
-20080.035	    15.550	    50.070	  -151.036
-19876.754	    15.506	    50.262	  -131.716
-20154.287	    15.566	    48.385	  -157.052
-20126.053	    15.712	    56.907	  -147.214
-19800.504	    15.780	    51.886	  -148.026
-19963.914	    15.714	    55.745	  -127.626
-19896.375	    15.651	    43.336	  -133.155
-20002.744	    15.680	    44.126	  -139.723
-19978.756	    15.700	    41.186	  -156.252
-19748.309	    15.706	    49.972	  -148.462
-19898.268	    15.725	    52.937	  -148.270
-19858.129	    15.759	    49.393	  -129.155
-19857.057	    15.712	    50.567	  -155.091
-19773.609	    15.516	    50.874	  -157.437
-20198.154	    15.310	    45.547	  -118.582
-19759.025	    15.328	    45.653	  -121.377
-19760.283	    15.521	    38.896	  -142.991
-19880.695	    15.826	    51.157	  -144.479
-19706.637	    16.115	    54.132	  -128.702
-19764.361	    16.099	    53.250	  -156.008
-19798.107	    15.965	    44.543	  -139.942
-19857.154	    15.809	    49.066	  -141.697
-19897.791	    15.634	    53.366	  -109.706
-19780.203	    15.464	    48.382	  -161.090
-20110.262	    15.271	    56.300	  -152.768
-20150.941	    15.287	    43.438	  -112.601
-20083.312	    15.369	    47.945	  -136.394
-19877.459	    15.414	    42.975	  -137.766
-19984.076	    15.563	    49.010	  -165.913
-19840.611	    15.752	    54.096	  -129.713
-19709.025	    15.856	    55.494	  -162.746
-19936.061	    15.715	    64.856	  -142.529
-19913.877	    15.558	    42.750	  -169.841
-19968.404	    15.385	    55.992	  -145.267
-19891.846	    15.243	    48.047	  -137.709
-19972.162	    15.256	    52.553	  -153.505
-19698.881	    15.525	    61.405	  -147.726
-19906.973	    15.830	    61.253	  -129.033
-19831.324	    15.910	    50.259	  -148.248
-19808.359	    15.744	    51.234	  -138.654
-19899.857	    15.544	    54.603	  -148.342
-19829.869	    15.377	    48.747	  -155.046
-20079.242	    15.343	    50.105	  -132.484
-19826.609	    15.491	    40.412	  -113.466
-20120.230	    15.421	    53.777	  -154.924
-20216.346	    15.401	    48.266	  -133.525
-19760.400	    15.429	    57.314	  -156.254
-19845.719	    15.488	    44.208	  -135.234
-19905.332	    15.692	    46.368	  -149.622
-19781.256	    15.918	    51.427	  -139.006
-19916.371	    15.918	    53.537	  -165.656
-19923.150	    15.788	    54.250	  -144.816
-19967.422	    15.503	    53.690	  -145.882
-19809.227	    15.306	    58.848	  -164.358
-19985.770	    15.160	    41.503	  -150.154
-20061.141	    15.093	    51.635	  -138.842
-19715.201	    15.145	    40.868	  -147.003
-20007.561	    15.213	    47.521	  -137.841
-19770.025	    15.325	    50.340	  -119.972
-19985.117	    15.426	    39.500	  -114.011
-19942.367	    15.504	    49.325	  -132.759
-19830.113	    15.591	    43.247	  -131.802
-19529.871	    15.576	    42.293	  -127.452
-20284.238	    15.517	    69.233	  -161.829
-19844.283	    15.628	    39.754	  -145.999
-19927.125	    15.637	    60.239	  -137.510
-19728.771	    15.612	    45.191	  -144.514
-19993.422	    15.600	    46.059	  -168.028
-19575.908	    15.672	    52.493	  -156.909
-19921.764	    15.772	    60.501	  -144.218
-19924.271	    15.823	    51.448	  -156.350
-20075.270	    15.735	    43.027	  -135.995
-19856.814	    15.567	    55.573	  -149.305
-20031.271	    15.447	    49.848	  -155.068
-19673.363	    15.312	    45.842	  -154.367
-20018.172	    15.124	    45.244	  -137.444
-20014.684	    15.176	    62.598	  -136.381
-19848.027	    15.537	    42.430	  -149.408
-19889.736	    15.919	    47.380	  -142.495
-19612.289	    16.048	    39.897	  -128.149
-19655.479	    15.906	    62.441	  -175.174
-19897.885	    15.599	    48.528	  -134.814
-19842.172	    15.326	    44.558	  -142.122
-19908.293	    15.183	    49.388	  -154.658
-19621.844	    15.202	    51.497	  -128.148
-20005.484	    15.338	    44.433	  -155.471
-19899.217	    15.562	    37.694	  -145.942
-19932.203	    15.772	    49.104	  -137.759
-19774.150	    15.744	    55.250	  -143.880
-19730.908	    15.591	    55.451	  -146.164
-19996.039	    15.482	    53.680	  -153.812
-19778.012	    15.465	    42.400	  -123.457
-20182.977	    15.412	    63.828	  -144.960
-19946.135	    15.438	    46.564	  -135.309
-19873.465	    15.514	    48.909	  -122.374
-19829.787	    15.802	    45.587	  -139.558
-19696.900	    16.042	    53.723	  -146.455
-19878.857	    15.980	    37.590	  -145.734
-19892.381	    15.762	    46.103	  -136.155
-19929.965	    15.589	    55.329	  -161.232
-19907.428	    15.563	    52.402	  -117.051
-19985.951	    15.578	    39.235	  -121.492
-19864.400	    15.601	    48.528	  -143.894
-19846.506	    15.613	    54.162	  -176.959
-20063.803	    15.564	    43.071	  -103.616
-19819.340	    15.481	    43.157	  -132.486
-19748.023	    15.419	    46.325	  -131.419
-20070.184	    15.271	    47.609	  -113.473
-19867.939	    15.222	    51.436	  -129.246
-20055.291	    15.278	    37.831	  -142.960
-19890.301	    15.500	    47.080	  -138.909
-19747.127	    15.669	    48.698	  -123.801
-19764.613	    15.572	    42.726	  -131.833
-19750.805	    15.469	    37.898	  -119.192
-20039.842	    15.354	    41.442	  -154.439
-20094.424	    15.402	    49.226	  -127.058
-19924.338	    15.568	    46.578	  -150.441
-19925.188	    15.664	    47.654	  -134.625
-19880.920	    15.755	    51.018	  -125.851
-19930.102	    15.715	    58.621	  -147.686
-19892.656	    15.693	    50.377	  -147.380
-20051.635	    15.593	    52.582	  -148.076
-19921.637	    15.613	    53.725	  -169.984
-19785.861	    15.769	    39.785	  -144.339
-19956.092	    15.855	    61.807	  -160.437
-20031.916	    15.714	    44.139	  -134.245
-19788.318	    15.517	    64.638	  -174.171
-19870.600	    15.491	    59.349	   173.021
-20047.264	    15.621	    48.669	  -134.307
-19851.346	    15.829	    45.863	  -152.975
-19760.230	    15.936	    45.339	  -153.496
-19740.607	    15.772	    57.843	  -143.845
-19821.881	    15.454	    58.880	  -118.836
-20042.725	    15.155	    45.595	  -141.175
-20095.307	    14.966	    46.499	  -113.678
-20109.250	    15.084	    42.392	  -148.089
-19924.469	    15.263	    50.701	  -152.439
-19675.773	    15.626	    55.575	  -152.649
-19940.760	    15.909	    48.492	  -153.355
-19521.150	    16.039	    46.734	  -133.429
-19484.305	    15.915	    48.974	  -142.096
-20112.244	    15.550	    56.178	  -162.419
-19915.432	    15.133	    54.613	  -145.819
-19922.617	    14.876	    47.937	  -158.705
-20149.732	    14.960	    49.918	  -149.838
-19983.883	    15.204	    66.660	  -162.038
-20046.227	    15.410	    50.142	  -144.710
-20041.100	    15.480	    54.311	  -161.328
-19963.221	    15.537	    48.167	  -171.415
-19972.094	    15.434	    39.030	  -153.859
-20098.158	    15.290	    50.326	  -133.154
-20078.801	    15.194	    46.008	  -117.818
-20103.516	    15.209	    44.546	  -137.978
-20072.109	    15.360	    46.832	  -133.281
-19996.164	    15.522	    49.324	  -131.641
-19881.246	    15.634	    52.583	  -153.956
-19618.762	    15.729	    44.918	  -125.979
-20038.283	    15.703	    48.035	  -141.243
-19947.037	    15.684	    56.606	  -137.113
-19978.314	    15.660	    31.964	  -133.059
-19845.414	    15.703	    53.962	  -124.409
-19894.439	    15.669	    56.688	  -132.836
-19900.553	    15.570	    43.235	  -158.861
-20035.863	    15.567	    42.447	  -140.610
-20020.664	    15.657	    48.318	  -152.473
-19540.215	    15.719	    67.431	  -158.622
-19952.014	    15.804	    36.815	  -121.600
-19671.322	    15.846	    48.362	  -152.753
-19759.926	    15.824	    52.518	  -153.455
-19901.340	    15.687	    57.289	  -158.794
-19864.156	    15.636	    43.044	  -145.913
-19868.645	    15.593	    36.733	  -139.367
-19896.887	    15.610	    43.822	  -147.386
-19976.012	    15.512	    53.342	  -123.468
-19901.957	    15.454	    49.023	  -164.935
-20185.646	    15.493	    49.563	  -134.942
-19725.953	    15.599	    44.376	  -158.573
-19913.322	    15.578	    40.348	  -128.807
-20067.900	    15.504	    46.741	  -149.690
-19849.787	    15.505	    44.159	  -115.521
-20044.697	    15.440	    46.585	  -160.459
-20038.107	    15.413	    37.430	  -136.877
-20022.002	    15.431	    48.054	  -153.646
-19789.291	    15.442	    50.412	  -119.187
-19792.447	    15.373	    44.534	  -137.809
-19893.723	    15.265	    53.119	  -143.363
-20016.428	    15.141	    58.946	  -143.177
-20111.053	    15.194	    40.142	  -139.500
-19900.709	    15.385	    48.014	  -136.781
-19617.641	    15.576	    58.353	  -158.129
-19825.756	    15.733	    47.486	  -143.131
-19735.023	    15.734	    47.124	  -144.061
-19856.312	    15.566	    47.507	  -145.594
-19889.734	    15.319	    55.044	  -150.760
-19890.115	    15.237	    54.853	  -150.752
-20086.447	    15.366	    41.229	  -132.032
-19768.570	    15.543	    53.912	  -136.843
-19702.775	    15.572	    38.800	  -136.493
-20119.656	    15.428	    39.473	  -136.903
-20084.570	    15.399	    47.881	  -141.354
-19865.594	    15.394	    52.535	  -146.900
-20027.271	    15.436	    49.432	  -143.211
-19979.557	    15.521	    41.361	  -131.924
-20000.039	    15.530	    48.262	  -161.618
-19865.027	    15.505	    58.777	  -138.044
-19793.561	    15.672	    57.241	  -147.055
-19907.482	    15.762	    51.179	  -152.036
-19751.203	    15.722	    57.206	  -167.733
-19874.068	    15.586	    47.518	  -159.474
-19776.857	    15.516	    41.872	  -139.503
-19895.385	    15.447	    25.264	  -131.211
-19948.516	    15.459	    58.109	  -140.379
-19903.271	    15.540	    45.914	  -129.905
-19918.541	    15.559	    44.032	  -136.259
-19738.332	    15.609	    50.621	  -142.421
-19876.920	    15.648	    47.958	  -146.039
-19844.752	    15.661	    37.941	  -137.852
-20253.273	    15.567	    45.723	  -117.714
-20139.684	    15.472	    47.318	  -129.084
-20047.293	    15.510	    49.161	  -140.191
-19902.264	    15.539	    46.374	  -133.165
-19766.602	    15.422	    52.207	  -147.422
-20159.402	    15.370	    46.539	  -124.729
-19970.553	    15.220	    48.065	  -136.074
-20140.416	    15.074	    50.003	  -130.854
-19999.043	    15.091	    41.976	  -150.501
-19873.770	    15.209	    43.147	  -152.362
-19914.770	    15.352	    31.757	  -137.940
-19966.033	    15.442	    43.421	  -148.287
-19706.834	    15.452	    47.004	  -140.555
-20093.430	    15.516	    48.543	  -144.137
-19881.754	    15.601	    39.114	  -153.504
-19784.600	    15.653	    45.620	  -131.136
-19735.244	    15.603	    49.643	  -136.902
-19943.701	    15.612	    49.681	  -150.915
-20056.686	    15.532	    51.384	  -126.060
-20032.555	    15.482	    45.445	  -124.777
-19666.844	    15.604	    54.391	  -136.890
-19666.135	    15.727	    45.231	  -160.132
-19723.873	    15.736	    56.464	  -138.137
-19958.340	    15.647	    53.655	  -150.729
-19787.672	    15.576	    53.976	  -154.532
-19937.381	    15.420	    57.738	  -146.563
-19972.074	    15.189	    51.958	  -125.986
-20122.238	    15.173	    54.110	  -174.610
-19840.539	    15.279	    39.061	  -153.271
-19836.645	    15.540	    57.598	  -165.291
-19607.770	    15.775	    56.545	  -139.330
-19866.000	    15.953	    57.249	  -145.091
-19847.926	    16.017	    52.567	  -137.514
-20044.590	    15.836	    45.257	  -136.806
-20219.316	    15.538	    59.758	  -144.067
-20101.686	    15.402	    34.666	  -134.792
-19854.461	    15.263	    47.755	  -138.451
-19878.037	    15.212	    48.063	  -141.765
-19852.334	    15.329	    39.252	  -157.598
-20054.250	    15.553	    58.611	  -142.794
-19839.080	    15.810	    53.549	  -147.142
-19900.514	    15.878	    50.599	  -144.846
-19755.248	    15.826	    38.342	  -140.113
-19816.416	    15.762	    50.549	  -164.370
-19712.543	    15.717	    36.037	  -137.982
-19544.217	    15.619	    59.054	  -148.024
-20053.895	    15.341	    45.525	  -128.409
-20021.801	    15.198	    42.814	  -146.184
-19970.045	    15.247	    55.741	  -149.088
-19908.824	    15.433	    49.362	  -133.827
-19981.010	    15.675	    50.912	  -139.714
-19800.557	    15.905	    30.422	  -133.240
-19805.406	    16.034	    53.064	  -143.391
-19837.354	    16.000	    57.959	  -155.021
-19790.424	    15.790	    47.001	  -142.716
-19705.957	    15.553	    41.991	  -124.937
-19931.818	    15.441	    55.854	  -146.997
-19862.186	    15.401	    56.317	  -116.121
-20179.941	    15.528	    61.074	  -118.775
-19597.191	    15.833	    41.049	  -119.237
-19808.539	    16.066	    60.196	  -146.157
-19640.512	    16.068	    47.277	  -136.450
-19798.648	    15.830	    62.029	  -121.599
-19902.660	    15.495	    51.178	  -154.557
-19930.260	    15.315	    57.167	  -172.199
-19825.727	    15.229	    44.976	  -140.977
-19939.613	    15.294	    57.307	  -131.142
-20063.615	    15.335	    59.098	  -138.654
-20055.637	    15.426	    52.681	  -127.034
-19980.889	    15.584	    49.215	  -161.886
-19814.170	    15.710	    47.851	  -171.743
-19887.348	    15.687	    54.318	  -149.711
-19864.695	    15.665	    50.601	  -155.244
-19825.824	    15.589	    46.375	  -120.578
-19986.225	    15.448	    46.255	  -125.059
-19995.410	    15.411	    55.913	  -167.110
-19726.730	    15.335	    47.510	  -144.156
-20107.662	    15.312	    46.182	  -126.217
-19916.814	    15.347	    52.727	  -129.874
-20167.344	    15.435	    54.030	  -164.826
-19946.912	    15.575	    53.912	  -138.472
-19823.109	    15.605	    40.802	  -135.448
-19860.076	    15.643	    52.365	  -141.771
-20185.801	    15.635	    65.035	  -139.555
-19822.922	    15.603	    51.756	  -152.466
-19894.861	    15.479	    50.831	  -152.027
-19962.285	    15.361	    56.455	  -138.018
-19749.945	    15.285	    46.579	  -134.741
-19862.453	    15.303	    54.915	  -136.615
-19620.648	    15.388	    57.938	  -141.613
-19934.055	    15.610	    52.839	  -159.932
-19915.668	    15.771	    61.956	  -150.922
-20078.188	    15.709	    41.039	  -128.288
-19927.350	    15.672	    52.602	  -139.051
-20001.898	    15.587	    41.093	  -146.456
-19733.385	    15.577	    44.371	  -142.915
-19885.479	    15.608	    45.792	  -146.245
-19784.447	    15.538	    37.078	  -146.894
-19963.588	    15.360	    50.463	  -159.257
-19938.223	    15.239	    45.425	  -145.680
-20004.662	    15.229	    52.155	  -144.204
-19805.877	    15.240	    53.784	  -131.214
-20072.600	    15.321	    49.808	  -155.304
-20040.256	    15.456	    40.418	  -148.276
-19955.453	    15.539	    48.780	  -159.772
-19621.887	    15.509	    62.693	  -161.222
-19880.811	    15.456	    43.660	  -155.204
-19907.531	    15.408	    52.503	  -158.419
-20024.539	    15.366	    39.049	  -144.682
-19893.303	    15.394	    46.484	  -134.158
-20040.668	    15.472	    48.664	  -128.493
-19820.477	    15.570	    39.751	  -126.308
-19687.908	    15.633	    50.739	  -140.863
-19922.246	    15.707	    51.180	  -125.925
-19880.953	    15.692	    49.241	  -156.150
-19746.418	    15.542	    44.223	  -129.513
-19907.820	    15.405	    51.573	  -133.253
-20003.422	    15.344	    43.508	  -132.204
-20266.871	    15.131	    49.041	  -150.566
-19856.910	    15.211	    44.572	  -136.022
-20211.590	    15.384	    58.912	  -147.023
-20118.719	    15.575	    45.643	  -159.791
-19931.459	    15.682	    63.328	  -177.454
-20019.100	    15.638	    46.118	  -124.518
-19828.861	    15.567	    57.910	  -150.650
-19880.447	    15.456	    54.168	  -143.981
-19830.771	    15.283	    47.435	  -131.982
-20188.088	    15.165	    55.691	  -137.881
-20124.551	    15.127	    55.202	  -148.860
-20084.270	    15.220	    40.984	  -148.465
-19749.262	    15.353	    55.016	  -142.290
-20062.207	    15.632	    51.855	  -166.926
-19627.059	    15.910	    56.057	  -167.687
-19740.605	    15.930	    57.278	  -165.750
-19863.330	    15.914	    46.748	  -157.908
-19866.039	    15.800	    49.133	  -134.558
-19936.547	    15.522	    53.185	  -152.331
-19971.727	    15.339	    46.823	  -162.193
-20173.055	    15.201	    54.244	  -153.988
-20018.453	    15.329	    56.243	  -133.516
-19728.680	    15.482	    42.522	  -165.216
-19710.492	    15.681	    50.907	  -139.309
-19906.670	    15.784	    36.331	  -156.413
-19703.031	    15.836	    62.550	  -153.465
-19900.961	    15.748	    41.706	  -157.335
-19798.359	    15.677	    45.493	  -159.936
-19880.463	    15.711	    57.212	  -146.409
-19829.830	    15.704	    47.375	  -171.667
-19762.615	    15.692	    37.218	  -143.566
-19693.318	    15.685	    48.796	  -143.366
-19724.824	    15.631	    51.448	  -143.578
-19929.117	    15.568	    48.650	  -120.322
-19984.857	    15.301	    57.518	  -144.067
-19958.221	    15.228	    54.372	  -143.503
-19940.141	    15.356	    35.424	  -161.829
-19998.955	    15.588	    53.515	  -153.145
-19769.229	    15.706	    55.690	  -174.133
-19965.297	    15.640	    50.832	  -154.417
-19936.584	    15.639	    47.381	  -142.983
-20062.490	    15.579	    46.154	  -141.845
-20154.447	    15.513	    54.383	  -153.570
-19778.754	    15.573	    48.289	  -164.797
-19658.857	    15.672	    47.390	  -145.291
-19726.963	    15.737	    43.070	  -130.866
-19666.510	    15.654	    45.017	  -153.579
-19924.977	    15.450	    61.333	  -155.344
-20017.605	    15.228	    54.794	  -154.345
-20294.514	    15.128	    47.316	  -141.149
-20013.631	    15.284	    47.300	  -149.700
-19576.793	    15.625	    56.458	  -151.461
-19579.695	    15.812	    42.796	  -148.372
-19753.090	    15.881	    45.213	  -157.079
-19623.424	    15.713	    46.052	  -132.160
-19787.518	    15.561	    46.161	  -143.817
-19819.422	    15.554	    44.907	  -122.867
-19783.453	    15.596	    56.541	  -133.926
-19768.918	    15.687	    46.561	  -108.398
-20058.521	    15.661	    50.354	  -140.754
-19765.955	    15.627	    50.747	  -136.373
-19803.195	    15.603	    46.488	  -147.477
-19939.596	    15.531	    62.456	  -145.312
-19894.812	    15.343	    56.369	  -144.973
-19823.883	    15.210	    38.639	  -153.138
-20080.734	    15.142	    60.579	  -148.900
-19935.432	    15.283	    53.938	  -152.810
-19667.896	    15.546	    63.643	  -148.858
-19758.227	    15.655	    47.326	  -155.522
-19970.584	    15.716	    45.759	  -152.930
-19719.031	    15.750	    56.036	  -164.996
-20110.203	    15.583	    53.832	  -154.912
-20292.180	    15.461	    48.586	  -156.102
-19870.393	    15.511	    42.567	  -147.037
-19851.908	    15.617	    40.772	  -139.431
-19848.178	    15.736	    57.992	  -158.789
-19525.703	    15.853	    34.298	  -146.567
-19735.090	    15.802	    54.473	  -127.805
-19744.234	    15.616	    41.207	  -136.715
-19939.969	    15.426	    61.465	  -133.781
-19802.305	    15.247	    14.181	  -122.536
-19860.598	    15.205	    48.307	  -146.769
-20056.188	    15.370	    52.852	  -151.005
-20120.291	    15.538	    43.705	  -128.415
-19757.025	    15.553	    45.529	  -145.110
-19474.014	    15.501	    49.145	  -133.586
-20029.389	    15.387	    62.228	  -128.947
-19873.605	    15.257	    48.453	  -141.300
-19958.924	    15.283	    44.119	  -150.873
-20128.064	    15.368	    53.712	  -159.594
-19916.680	    15.468	    49.003	  -142.118
-19798.613	    15.400	    43.119	  -125.363
-19910.496	    15.392	    42.400	  -138.176
-19857.738	    15.478	    56.921	  -147.827
-19719.412	    15.618	    56.663	  -174.060
-19905.729	    15.673	    52.978	  -157.885
-19893.484	    15.619	    45.895	  -137.026
-20108.324	    15.582	    54.932	  -156.874
-19866.980	    15.551	    49.588	  -130.067
-19914.168	    15.450	    46.718	  -134.360
-19733.549	    15.518	    44.188	  -165.602
-19985.299	    15.684	    58.982	  -174.848
-19821.512	    15.681	    49.322	  -161.551
-20010.178	    15.545	    46.922	  -148.757
-20080.197	    15.456	    50.938	  -121.483
-19916.635	    15.395	    45.780	  -139.111
-20051.963	    15.307	    60.482	  -148.719
-19833.873	    15.278	    45.849	  -146.843
-19860.684	    15.427	    48.377	  -142.227
-19779.375	    15.643	    51.646	  -167.042
-19764.068	    15.664	    52.529	  -165.701
-19812.752	    15.494	    52.402	  -155.930
-19833.584	    15.285	    45.926	  -115.952
-19914.639	    15.259	    36.291	  -136.466
-20070.920	    15.308	    46.223	  -131.466
-19835.580	    15.337	    45.882	  -159.698
-19900.170	    15.520	    52.557	  -147.678
-19682.934	    15.723	    44.289	  -146.445
-19707.787	    15.801	    51.494	  -129.914
-19889.521	    15.688	    53.404	  -147.348
-19954.926	    15.558	    38.721	  -112.649
-20104.146	    15.424	    51.772	  -155.192
-20161.549	    15.418	    50.835	  -153.139
-19816.980	    15.358	    55.946	  -158.555
-19908.711	    15.343	    37.700	  -139.719
-19936.891	    15.333	    38.906	  -156.005
-19869.197	    15.356	    38.131	  -161.109
-19752.109	    15.471	    52.587	  -170.523
-20144.945	    15.576	    49.924	  -152.575
-19933.859	    15.683	    51.047	  -150.975
-19818.633	    15.752	    58.029	  -158.208
-19656.707	    15.812	    49.948	  -135.195
-19615.088	    15.788	    50.851	  -148.315
-19859.525	    15.634	    67.949	  -131.038
-20094.354	    15.475	    55.864	  -118.940
-20000.383	    15.385	    52.157	  -139.508
-19907.051	    15.302	    53.579	  -135.931
-19988.814	    15.209	    61.300	  -145.098
-19860.463	    15.151	    43.944	  -133.012
-19921.385	    15.266	    52.899	  -126.794
-19896.340	    15.599	    51.749	  -141.019
-19744.439	    15.814	    57.997	  -140.014
-19951.717	    15.872	    40.010	  -135.174
-20129.156	    15.840	    48.239	  -143.835
-20057.666	    15.601	    49.905	  -146.181
-19924.500	    15.380	    56.741	  -147.414
-19904.605	    15.237	    43.459	  -138.501
-19987.828	    15.267	    44.731	  -149.769
-19973.752	    15.425	    53.382	  -161.943
-19790.930	    15.626	    59.041	  -155.166
-19808.135	    15.768	    61.106	  -154.929
-19926.910	    15.753	    48.783	  -159.142
-19798.971	    15.814	    57.624	  -146.198
-19908.662	    15.813	    65.433	  -155.741
-19941.213	    15.732	    49.895	  -147.549
-19988.748	    15.677	    47.523	  -174.359
-19727.986	    15.680	    45.581	  -147.704
-19825.762	    15.724	    42.335	  -151.121
-19830.742	    15.615	    52.067	  -139.103
-19884.863	    15.399	    59.748	  -101.369
-19759.844	    15.264	    42.412	  -122.861
-19979.361	    15.354	    48.798	  -147.939
-19773.766	    15.484	    41.341	  -137.784
-19566.111	    15.626	    57.425	  -143.032
-19700.240	    15.624	    42.749	  -130.893
-19728.898	    15.572	    45.590	  -175.509
-19822.195	    15.471	    52.704	  -141.688
-19968.436	    15.381	    53.388	  -152.406
-19948.070	    15.304	    40.333	  -121.822
-19988.939	    15.368	    54.435	  -145.908
