-19898.293	    15.334	   -92.310	   122.143
-20181.402	    15.365	   -47.076	  -162.638
-20129.141	    15.346	   -35.366	  -119.655
-20294.596	    15.397	    23.717	  -115.437
-19917.527	    15.508	    34.662	  -117.371
-20119.098	    15.553	    22.134	  -116.437
-20158.881	    15.527	    33.543	  -110.912
-20122.232	    15.439	    29.102	  -105.323
-20045.469	    15.334	    46.233	  -124.999
-20197.832	    15.291	    44.192	   -81.757
-20285.898	    15.354	    32.350	  -118.236
-20130.436	    15.500	    39.994	  -121.799
-19963.068	    15.625	    29.949	  -118.007
-20014.252	    15.648	    33.081	   -98.189
-20141.982	    15.583	    38.734	  -126.546
-20201.520	    15.525	    48.160	  -117.422
-20353.141	    15.619	    14.597	  -109.625
-19648.189	    15.648	    19.601	  -117.946
-20187.322	    15.572	    40.870	  -138.447
-20385.129	    15.455	    36.058	  -131.568
-20156.010	    15.399	    31.897	  -140.743
-20233.908	    15.386	    41.551	  -119.910
-20214.598	    15.409	    30.459	  -120.086
-20020.650	    15.471	    20.625	   -91.989
-20095.023	    15.498	    47.405	  -109.375
-20263.844	    15.422	    11.564	  -114.871
-20513.652	    15.274	    15.073	  -114.148
-20402.822	    15.120	    41.848	   -97.957
-20159.398	    15.218	    36.140	  -111.251
-20266.832	    15.397	    27.056	  -107.245
-20133.697	    15.558	    22.470	  -111.411
-20178.602	    15.684	    41.365	  -122.075
-19979.094	    15.736	    38.593	  -142.700
-20189.766	    15.552	    41.391	  -116.744
-20487.443	    15.298	    20.810	  -117.497
-20323.256	    15.084	    34.368	  -110.086
-20136.092	    15.080	    21.144	  -115.483
-20111.449	    15.214	    26.821	   -98.481
-19811.186	    15.463	    18.819	  -112.214
-20044.156	    15.755	    26.460	  -109.598
-19804.504	    15.916	    40.410	  -114.910
-20109.002	    15.903	    45.507	  -120.843
-20094.836	    15.555	    33.194	  -123.955
-20167.926	    15.182	    33.606	  -112.584
-20388.777	    15.093	    44.996	  -116.879
-20413.312	    15.076	    41.000	  -102.377
-20187.475	    15.167	    43.668	  -133.692
-20161.633	    15.309	    20.153	   -96.336
-20285.182	    15.424	    23.034	   -96.957
-20086.848	    15.542	    43.900	  -113.815
-19886.715	    15.530	    14.450	  -123.923
-20192.674	    15.495	    20.808	  -108.111
-20232.189	    15.414	    31.597	  -111.907
-19999.543	    15.313	    28.585	  -123.783
-20137.977	    15.297	    42.080	  -100.471
-20173.160	    15.172	    36.571	  -100.214
-20194.922	    15.210	    39.943	  -110.440
-20077.867	    15.437	    33.860	  -108.448
-20138.682	    15.705	    40.648	  -114.592
-20036.607	    15.818	    36.693	  -118.502
-20089.180	    15.801	    42.689	  -108.095
-20094.059	    15.664	    21.824	  -106.636
-20182.426	    15.583	    27.701	   -98.980
-20241.303	    15.532	    15.724	  -106.253
-20134.520	    15.478	    30.468	  -111.267
-19972.533	    15.378	    18.218	  -112.654
-20204.973	    15.360	    44.053	  -113.022
-20186.088	    15.391	    29.789	  -106.411
-20107.082	    15.340	    46.004	  -136.320
-20260.695	    15.280	    32.159	  -124.065
-20379.730	    15.223	    17.653	  -126.529
-20229.404	    15.343	    35.743	  -125.958
-19975.908	    15.579	    13.549	  -104.072
-20226.922	    15.716	    36.980	  -125.350
-20352.146	    15.621	    28.025	  -101.797
-20214.820	    15.422	    33.979	  -119.922
-19933.400	    15.311	    38.056	   -92.208
-20210.094	    15.299	    34.969	  -103.976
-20389.613	    15.187	    32.243	  -108.913
-20190.176	    15.095	    41.740	  -127.054
-20106.109	    15.112	    41.798	  -129.880
-20219.137	    15.293	    39.372	  -129.958
-20139.346	    15.445	    36.428	  -125.803
-20368.330	    15.380	    39.342	  -115.343
-20106.939	    15.241	    35.520	  -111.927
-20115.174	    15.089	    11.467	   -96.952
-20241.570	    15.116	    33.419	  -130.827
-20051.939	    15.361	    37.159	  -139.689
-20266.328	    15.558	    27.447	  -100.859
-20125.139	    15.609	    20.654	  -102.084
-20236.979	    15.480	    38.247	  -118.431
-20252.521	    15.390	    29.994	  -111.039
-20171.117	    15.339	    38.259	  -116.446
-20154.615	    15.300	    13.761	   -94.444
-20365.799	    15.308	    30.908	  -114.104
-20127.420	    15.429	    39.200	  -108.477
-20127.859	    15.493	    35.479	   -99.646
-20379.693	    15.395	    48.846	   -87.374
-20119.064	    15.195	    23.952	   -99.771
-20188.318	    15.163	    37.899	  -101.988
-20181.588	    15.416	    34.892	  -110.912
-19917.193	    15.656	    40.939	  -102.563
-20103.377	    15.597	    14.559	  -113.013
-20200.578	    15.450	    39.427	  -113.052
-20269.770	    15.293	    19.335	  -122.771
-20363.227	    15.255	    22.521	  -112.481
-20179.535	    15.278	    41.992	  -116.765
-20164.629	    15.449	    46.117	  -107.792
-20181.971	    15.698	    40.109	  -113.950
-20090.664	    15.758	    34.944	  -135.586
-20261.201	    15.645	    40.375	  -116.784
-20218.873	    15.520	    28.499	  -115.270
-20136.072	    15.425	    19.489	   -92.772
-20287.156	    15.383	    48.371	  -101.963
-20179.436	    15.289	    22.373	  -128.594
-20603.416	    15.131	    11.395	  -111.529
-20553.080	    15.025	    46.245	  -105.273
-20014.449	    15.181	    39.281	  -103.534
-20317.580	    15.428	    21.952	   -94.572
-20129.543	    15.596	    29.451	  -108.024
-20024.809	    15.625	    42.188	  -119.128
-20126.885	    15.559	    34.430	  -103.322
-20123.398	    15.538	    52.285	  -129.021
-20108.443	    15.450	    31.929	  -119.769
-20488.262	    15.357	    40.719	  -136.927
-20209.697	    15.294	    34.243	  -118.476
-20194.039	    15.246	    26.762	  -125.709
-20222.619	    15.248	    16.349	  -127.162
-19948.695	    15.280	    30.147	  -116.974
-20340.420	    15.323	    32.907	  -121.763
-20070.445	    15.367	    34.149	  -108.678
-20258.029	    15.435	    38.179	  -137.199
-20168.736	    15.461	    38.167	  -112.240
-20181.725	    15.450	    31.152	   -93.562
-20225.379	    15.443	     9.394	   -94.445
-20060.080	    15.566	    29.043	   -97.354
-20384.746	    15.798	    33.032	  -115.429
-19953.838	    15.886	    37.467	   -94.188
-20022.523	    15.791	    46.269	   -97.026
-20186.836	    15.604	    17.841	  -105.518
-19999.178	    15.434	    47.821	  -121.589
-20479.670	    15.300	    30.080	  -107.278
-20219.473	    15.148	    39.500	  -130.887
-20448.945	    15.084	    41.419	  -102.652
-20077.516	    15.279	    34.571	  -108.991
-19993.844	    15.472	     7.481	  -112.502
-20217.688	    15.537	    29.106	  -113.723
-20057.182	    15.436	    30.245	  -112.701
-20348.645	    15.255	    36.829	  -124.989
-20051.365	    15.236	    48.013	  -117.195
-20280.883	    15.328	    33.423	  -126.117
-20416.254	    15.433	    31.421	  -118.684
-20199.574	    15.574	    40.529	   -95.811
-19956.945	    15.593	    28.188	  -100.445
-20091.105	    15.460	    38.223	  -118.742
-19999.746	    15.282	    37.697	   -96.101
-20326.439	    15.228	    51.145	  -118.137
-20217.328	    15.276	    33.148	  -117.679
-20218.051	    15.375	    59.325	   -94.757
-19919.668	    15.464	    27.594	  -112.851
-20390.738	    15.456	     4.503	  -100.636
-20271.076	    15.429	    28.559	  -107.292
-20107.176	    15.419	    42.282	  -115.916
-20132.811	    15.367	    21.210	  -112.049
-20170.119	    15.320	    43.179	  -107.012
-20412.648	    15.281	    28.913	  -106.382
-20295.625	    15.238	    13.789	   -97.029
-20391.557	    15.365	    43.758	  -114.586
-20016.693	    15.632	    37.373	  -127.997
-19931.463	    15.770	    42.359	  -120.340
-19872.801	    15.769	    32.619	  -106.425
-20081.711	    15.589	    44.259	  -109.171
-20100.143	    15.367	    38.014	  -119.492
-20139.510	    15.165	    31.062	  -110.325
-20085.938	    15.091	    42.632	  -101.809
-20107.193	    15.181	    42.644	  -119.237
-20489.998	    15.296	    39.348	  -137.383
-19983.936	    15.446	    22.164	  -111.263
-20205.375	    15.453	    21.789	  -119.297
-20099.244	    15.418	    30.524	  -116.133
-20170.869	    15.402	    11.403	  -106.004
-20159.537	    15.267	    23.428	   -89.240
-20203.438	    15.187	    36.765	   -97.247
-20194.234	    15.203	    31.538	  -100.721
-20233.227	    15.312	    21.145	  -101.791
-20109.570	    15.488	    40.724	  -105.418
-19897.367	    15.586	    30.926	  -109.037
-20133.229	    15.500	    39.873	  -106.002
-20061.521	    15.400	    30.226	  -101.796
-20243.332	    15.313	    23.821	  -107.892
-20145.758	    15.242	    30.384	  -127.064
-20071.029	    15.347	    34.455	   -99.298
-20209.242	    15.407	    23.229	  -126.758
-20200.775	    15.371	    25.317	   -99.914
-20095.148	    15.194	    32.224	  -111.420
-20372.383	    15.173	    25.359	  -110.615
-20341.072	    15.300	    30.248	   -88.363
-20166.352	    15.503	    46.036	  -118.761
-19989.547	    15.517	    44.017	  -116.401
-20169.551	    15.415	    34.812	  -122.173
-20235.828	    15.364	    29.392	  -126.291
-20140.035	    15.304	    35.443	   -98.560
-20183.561	    15.314	    22.615	  -111.850
-20193.281	    15.315	    39.377	  -113.658
-20124.760	    15.369	    24.703	  -112.503
-20196.146	    15.347	    33.773	  -114.868
-20211.877	    15.445	    35.526	  -127.557
-19877.025	    15.727	    41.358	  -115.381
-20027.422	    15.849	    34.115	   -96.502
-19981.643	    15.699	    22.049	  -107.967
-20190.352	    15.376	    42.658	  -120.147
-20374.207	    15.157	    34.287	  -123.183
-20197.820	    15.350	    44.187	   -90.028
-20284.732	    15.553	    40.250	   -89.094
-20124.502	    15.646	    32.963	  -103.103
-20218.961	    15.570	    28.505	  -112.256
-20152.424	    15.408	    35.472	  -113.415
-20247.648	    15.252	    46.401	   -92.681
-20370.564	    15.151	    41.804	  -117.006
-20179.943	    15.128	    38.467	  -107.492
-20433.674	    15.347	    49.291	  -100.180
-20211.367	    15.516	    51.250	   -98.906
-20376.154	    15.437	    38.613	   -96.159
-20302.904	    15.407	    38.090	  -105.153
-20224.084	    15.501	    41.718	  -112.987
-20120.156	    15.454	    44.347	   -96.874
-20183.121	    15.368	    41.923	   -93.373
-20099.994	    15.263	    41.628	  -108.351
-20147.900	    15.265	    22.877	   -99.106
-20288.352	    15.364	    30.816	  -107.327
-19920.152	    15.481	    22.473	  -115.239
-20173.793	    15.563	    31.238	  -105.315
-20080.285	    15.649	    30.661	  -103.556
-19911.479	    15.799	    35.289	  -105.189
-20022.674	    15.802	    45.400	  -115.191
-19834.793	    15.759	    17.535	   -95.878
-19966.264	    15.704	    32.683	  -113.217
-19986.566	    15.542	    40.285	  -126.171
-20148.303	    15.352	    46.661	  -118.977
-20097.594	    15.328	    33.992	  -125.192
-19897.576	    15.414	    41.812	  -101.347
-19952.373	    15.339	    35.923	  -123.686
-20121.793	    15.265	    36.955	  -103.827
-19935.365	    15.280	    33.209	  -107.517
-20319.545	    15.312	    36.816	  -113.511
-20280.752	    15.462	    38.148	  -120.861
-20218.959	    15.664	    31.855	  -119.805
-19759.475	    15.781	    31.373	  -106.679
-20060.812	    15.727	    35.625	  -101.276
-20199.301	    15.636	    34.787	   -99.023
-20133.441	    15.576	    37.524	  -129.047
-20048.834	    15.532	    24.859	  -110.656
-20068.717	    15.633	    31.321	  -111.176
-19907.648	    15.745	    31.705	  -111.111
-20105.529	    15.748	    47.078	  -120.551
-20206.480	    15.654	    20.959	  -118.278
-20432.543	    15.454	    36.897	  -109.616
-20346.807	    15.307	    45.242	  -137.251
-20402.309	    15.335	    29.281	  -104.967
-20227.611	    15.399	    44.881	  -101.806
-20293.045	    15.523	    23.393	   -95.179
-20119.461	    15.509	    26.341	  -100.145
-20280.475	    15.398	    25.085	  -110.713
-20268.576	    15.368	    21.522	  -106.551
-20303.332	    15.463	    33.690	  -115.609
-20160.779	    15.465	    37.139	   -96.611
-20282.158	    15.402	    16.292	   -95.435
-20242.406	    15.373	    39.498	  -112.209
-20217.666	    15.415	    19.707	  -111.071
-19879.699	    15.547	    38.538	  -100.600
-20036.217	    15.696	    36.589	  -121.589
-19759.496	    15.747	    29.087	  -107.676
-20039.221	    15.720	   -10.725	   -92.271
-19915.955	    15.531	    33.948	  -103.083
-19968.100	    15.418	    48.817	  -117.199
-19953.242	    15.297	    37.309	  -122.928
-20193.484	    15.152	    32.320	  -125.111
-20123.889	    14.976	    21.341	  -110.704
-20200.812	    14.935	    15.673	  -114.039
-20370.625	    15.107	    36.784	  -117.266
-20209.453	    15.373	    38.161	  -111.060
-20018.268	    15.655	    43.020	  -114.632
-20165.289	    15.754	    44.784	  -116.882
-19929.646	    15.664	    35.487	  -119.170
-19886.477	    15.564	    36.066	  -122.304
-20267.381	    15.550	    35.140	  -124.976
-20158.811	    15.706	    36.679	  -106.652
-19742.473	    15.814	    15.844	   -92.782
-20129.840	    15.795	    33.990	  -118.626
-20081.252	    15.690	    45.813	  -116.401
-20167.068	    15.521	    39.993	  -122.775
-20108.693	    15.348	    34.884	  -112.324
-20360.801	    15.275	    26.446	   -97.017
-20253.014	    15.236	    24.967	  -103.701
-20332.676	    15.223	    34.006	  -100.800
-20122.551	    15.178	    26.883	   -82.107
-20399.885	    15.255	    46.532	  -124.301
-20003.516	    15.454	    34.994	  -100.499
-20138.010	    15.454	    50.943	  -119.043
-20219.607	    15.278	    32.682	  -116.413
-20302.920	    15.148	    29.641	   -93.863
-20391.393	    15.127	    30.006	  -103.699
-20198.295	    15.317	    22.411	  -108.890
-20143.586	    15.567	    40.611	  -105.467
-19987.814	    15.627	    30.779	  -109.511
-20229.656	    15.717	    37.381	  -102.284
-20159.578	    15.786	    23.408	  -104.175
-20132.154	    15.776	    32.386	  -124.405
-20264.459	    15.617	    32.851	  -121.577
-20214.596	    15.352	    34.148	  -119.074
-20326.432	    15.107	    35.355	   -97.229
-20372.148	    14.982	    38.014	  -111.924
-20100.090	    15.042	    32.552	  -110.637
-20071.061	    15.223	    13.141	  -107.128
-20037.238	    15.495	    36.424	  -109.413
-20114.332	    15.659	    18.939	  -107.253
-20097.395	    15.621	    36.793	   -90.488
-20122.852	    15.516	    50.202	  -127.608
-20340.811	    15.291	    37.995	   -88.833
-20387.881	    15.082	    34.011	  -125.681
-20237.053	    15.067	    12.757	  -110.905
-20186.951	    15.206	    28.812	  -119.964
-20198.312	    15.404	    27.808	  -122.126
-19888.887	    15.573	    32.832	  -114.735
-19978.814	    15.692	    24.752	  -109.089
-19989.111	    15.773	    28.330	  -116.075
-20107.711	    15.725	    32.259	  -110.797
-20367.473	    15.589	    33.073	  -111.433
-20154.904	    15.388	    36.511	  -116.979
-20196.645	    15.225	    31.442	  -102.269
-20339.449	    15.142	    32.331	  -121.099
-20245.461	    15.245	    27.162	  -115.399
-20339.561	    15.425	    48.519	  -109.071
-20253.346	    15.573	    19.058	  -115.598
-20132.551	    15.639	    42.280	  -129.882
-19867.002	    15.744	    34.033	   -99.700
-20304.996	    15.670	    35.661	  -119.016
-20162.053	    15.591	    36.069	  -112.092
-20274.148	    15.464	    34.765	  -111.604
-20251.555	    15.374	    40.269	  -120.269
-20215.104	    15.362	    38.100	  -129.143
-20072.445	    15.306	    34.326	  -103.364
-20408.562	    15.329	    27.495	  -109.776
-20305.455	    15.261	    28.805	  -117.749
-20053.516	    15.101	    46.845	  -110.958
-20150.379	    15.010	    18.985	   -95.086
-20230.730	    15.076	    32.961	  -102.493
-20116.346	    15.233	    38.612	  -126.278
-19764.270	    15.487	    43.687	  -119.207
-20204.148	    15.653	    44.004	  -130.030
-19910.662	    15.835	    46.094	  -120.451
-19927.547	    15.849	    27.776	   -99.860
-20097.051	    15.583	    35.415	  -121.470
-20156.957	    15.307	    29.820	  -137.449
-20193.156	    15.313	    35.752	  -139.154
-20121.529	    15.437	    34.055	  -111.057
-20151.326	    15.630	    23.643	  -118.696
-20143.740	    15.642	    41.771	   -98.844
-20109.660	    15.501	    26.690	  -122.360
-20135.980	    15.339	    40.037	  -104.131
-20339.002	    15.311	    38.722	  -146.530
-20134.736	    15.396	    50.451	  -125.823
-20323.396	    15.430	    49.655	  -119.652
-20337.297	    15.470	    31.977	  -123.806
-20124.873	    15.572	    33.838	  -121.544
-20200.084	    15.706	    14.379	  -106.387
-19973.447	    15.632	    36.561	  -120.376
-20134.988	    15.433	    41.770	  -122.591
-20583.316	    15.274	    42.495	  -127.757
-20138.012	    15.277	    39.784	  -117.934
-20385.125	    15.342	    24.238	  -104.067
-20121.979	    15.463	    33.220	  -115.882
-20036.158	    15.529	    21.809	   -89.735
-20313.273	    15.440	    47.410	   -97.756
-20068.402	    15.458	    26.747	  -114.115
-20084.090	    15.356	    30.392	  -108.789
-20166.174	    15.342	    39.318	   -99.672
-20380.678	    15.322	    26.442	  -120.714
-20394.275	    15.310	    40.025	  -107.929
-20161.100	    15.416	    38.021	  -126.775
-20255.705	    15.519	    35.409	  -118.348
-20202.514	    15.589	    15.366	  -104.789
-20116.689	    15.580	    33.443	  -102.547
-20541.988	    15.549	    35.856	   -95.830
-20334.588	    15.455	    24.044	  -104.305
-20162.131	    15.326	    36.284	  -115.191
-20090.230	    15.390	    29.930	  -111.897
-20137.623	    15.517	    30.871	  -102.000
-20120.072	    15.541	    25.476	  -104.593
-20117.555	    15.515	    31.577	  -111.619
-20143.230	    15.446	    27.543	  -119.365
-20133.281	    15.348	    30.309	   -99.838
-20184.863	    15.298	    36.213	  -121.954
-20401.068	    15.216	    47.316	  -110.326
-20126.115	    15.190	    38.770	  -115.695
-19924.146	    15.195	    36.779	  -125.594
-20016.211	    15.338	    26.606	  -122.227
-19928.346	    15.457	    47.262	  -130.851
-19923.057	    15.555	    42.742	  -104.323
-20060.734	    15.552	    36.366	  -127.754
-20159.295	    15.584	    41.981	  -124.097
-20110.035	    15.397	    41.707	  -115.183
-20226.018	    15.157	    40.929	  -119.884
-20198.977	    15.091	    36.199	  -123.804
-20206.715	    15.129	    38.592	  -105.310
-20117.146	    15.275	    35.967	  -129.705
-19778.512	    15.489	    45.669	  -109.970
-19899.680	    15.595	    42.480	  -122.622
-20056.730	    15.517	    35.650	  -101.088
-20175.711	    15.314	    33.054	  -104.754
-20274.590	    15.198	    41.721	  -126.666
-20394.355	    15.130	    40.601	  -118.975
-20395.232	    15.179	    38.216	  -107.627
-20171.629	    15.327	    39.438	  -125.796
-19861.365	    15.509	    28.403	  -117.271
-20232.199	    15.451	    37.890	  -111.872
-20421.660	    15.350	    30.300	  -113.415
-19914.873	    15.446	    21.259	  -122.470
-19909.426	    15.613	    32.042	  -135.013
-20180.465	    15.648	    26.356	  -130.022
-20016.391	    15.674	    45.555	  -123.958
-20165.449	    15.548	    35.559	  -114.884
-19909.578	    15.495	    39.125	  -117.955
-19973.873	    15.370	    32.354	   -97.527
-20257.562	    15.207	    28.350	  -110.768
-20408.902	    15.112	    36.173	  -100.188
-20413.820	    15.151	    41.377	  -100.687
-20417.537	    15.326	    22.554	  -107.460
-20044.609	    15.573	    46.188	  -116.644
-20016.264	    15.723	    32.370	  -127.064
-19966.977	    15.656	    39.146	  -118.702
-20216.322	    15.515	    38.915	  -112.839
-20321.680	    15.446	    21.358	   -91.761
-20254.629	    15.408	    23.264	  -123.277
-20144.396	    15.393	    48.076	  -109.067
-20274.914	    15.462	    31.747	  -102.338
-19835.133	    15.517	    40.178	  -113.892
-20448.562	    15.512	    23.565	  -118.511
-20161.131	    15.492	    34.370	  -119.269
-20043.906	    15.381	    29.958	  -105.052
-20116.068	    15.283	    50.359	  -117.785
-20192.441	    15.269	    42.182	  -118.830
-20332.010	    15.414	    44.138	  -105.486
-20087.961	    15.525	    37.135	  -136.745
-20161.271	    15.433	    37.238	  -133.176
-20526.643	    15.354	    37.345	  -129.012
-20304.244	    15.487	    31.990	  -127.464
-20134.285	    15.546	    50.026	  -115.962
-20187.709	    15.540	    29.404	  -114.905
-20067.549	    15.438	    56.575	   -96.266
-19973.967	    15.298	    43.651	   -92.590
-20227.443	    15.182	    44.144	  -109.183
-20199.697	    15.191	    25.567	  -105.964
-20239.336	    15.300	    51.319	  -116.141
-20372.971	    15.400	    33.185	  -107.404
-20260.146	    15.445	    27.064	  -120.595
-20267.781	    15.436	    13.234	  -117.714
-20093.814	    15.460	    10.611	   -93.751
-19764.473	    15.502	    26.439	  -112.976
-20089.311	    15.516	    43.037	  -113.282
-20440.842	    15.563	    29.231	  -126.667
-20275.252	    15.516	    28.945	  -121.538
-20108.205	    15.511	    36.672	  -118.800
-20002.877	    15.508	    42.052	  -122.936
-20436.658	    15.381	    24.574	  -113.442
-20396.441	    15.277	    20.222	  -101.438
-20467.908	    15.157	    45.314	  -108.471
-20490.639	    15.053	    44.943	  -116.112
-20521.186	    15.202	    35.611	   -95.945
-20205.824	    15.474	    18.742	  -111.626
-20202.990	    15.671	    21.539	  -105.059
-20156.279	    15.815	    23.357	   -95.785
-20088.965	    15.757	    10.903	   -96.286
-20096.686	    15.567	    22.953	  -120.645
-20250.590	    15.355	    36.803	  -100.152
-20298.062	    15.138	    32.714	  -104.219
-20390.688	    15.185	    31.864	  -111.432
-20377.049	    15.400	     1.092	  -103.248
-19990.018	    15.593	    41.805	  -110.242
-20022.611	    15.596	    43.203	  -102.361
-20601.297	    15.502	    39.157	  -119.042
-20262.775	    15.428	    27.125	  -100.291
-20282.877	    15.309	    37.030	  -121.600
-20328.514	    15.294	    26.891	  -121.039
-20166.113	    15.389	    24.738	  -112.948
-20230.086	    15.480	    35.001	  -126.408
-20122.678	    15.599	    24.328	  -107.264
-20226.346	    15.591	    32.919	  -105.608
-20057.732	    15.492	    36.686	  -101.176
-20177.482	    15.363	    35.095	  -128.714
-20155.781	    15.251	    42.394	   -93.976
-20573.027	    15.284	    33.998	  -120.563
-20117.197	    15.401	    39.901	  -132.279
-19954.834	    15.704	    39.184	  -130.460
-19883.670	    15.807	    26.337	  -126.565
-20242.328	    15.719	    39.104	  -102.155
-20052.773	    15.560	    38.842	  -108.463
-19996.475	    15.422	    24.281	  -100.414
-20161.260	    15.323	    47.274	  -104.793
-20204.135	    15.312	    19.046	   -85.567
-20170.525	    15.271	    38.874	  -113.496
-20361.785	    15.232	    22.701	   -87.023
-20044.016	    15.239	    48.759	   -99.571
-20145.006	    15.309	    20.769	   -90.605
-19917.787	    15.526	    42.561	  -128.406
-19985.809	    15.718	    43.462	  -116.344
-19882.730	    15.899	    30.309	  -101.497
-19957.182	    16.023	    34.885	   -86.797
-19903.016	    16.083	    43.516	  -124.447
-20269.363	    15.981	    54.240	  -109.344
-20140.838	    15.745	    40.871	  -111.631
-20451.594	    15.363	    38.570	  -124.705
-20298.027	    14.921	    43.138	  -137.015
-20334.455	    14.782	    27.958	  -114.717
-20226.572	    15.018	    34.276	  -104.119
-20227.797	    15.426	    22.344	  -115.107
-20264.590	    15.824	    47.353	  -119.528
-20077.846	    15.869	    32.461	   -92.483
-20050.895	    15.711	    33.866	  -124.108
-20035.766	    15.477	    35.967	   -93.295
-20149.771	    15.254	    35.943	  -110.926
-20271.250	    15.045	    17.672	  -103.730
-20598.822	    15.007	    40.304	  -111.678
-20356.031	    15.211	    33.673	  -113.065
-20101.105	    15.566	    37.206	  -102.146
-20134.541	    15.889	    34.836	  -103.233
-19825.982	    16.003	    44.382	  -113.300
-19868.998	    15.919	    47.922	  -104.913
-19873.537	    15.688	    31.689	   -91.051
-20203.400	    15.427	    20.526	  -101.093
-20150.611	    15.224	    19.634	   -98.855
-20099.346	    15.186	     7.315	   -97.999
-20157.562	    15.218	    53.211	   -82.282
-20078.869	    15.283	    19.273	  -102.858
-20323.053	    15.370	    22.312	  -109.525
-20098.527	    15.560	    24.967	  -116.801
-20335.664	    15.755	    33.297	  -121.235
-20253.174	    15.828	    27.176	  -124.271
-20304.361	    15.687	     6.531	   -95.574
-20203.689	    15.444	    29.882	  -110.484
-20131.088	    15.280	    43.924	  -125.231
-20012.770	    15.204	    30.590	  -113.567
-20297.910	    15.372	    33.217	  -109.521
-20066.738	    15.617	    30.240	  -110.821
-20145.967	    15.629	    18.186	  -102.185
-20182.576	    15.548	    39.611	  -115.012
-20213.027	    15.569	    38.772	  -111.316
-20042.309	    15.533	    39.591	  -117.357
-20327.932	    15.427	    47.955	   -97.827
-20060.043	    15.347	    28.225	  -134.784
-20156.457	    15.222	    22.517	  -119.898
-20196.539	    15.256	    46.579	  -108.813
-19990.602	    15.446	    29.168	  -103.733
-20031.188	    15.667	    18.835	  -107.561
-20058.578	    15.763	    40.781	  -124.103
-19849.307	    15.669	    41.160	  -115.577
-20039.016	    15.462	    36.012	  -112.372
-20130.607	    15.237	    35.090	   -96.584
-19949.551	    15.086	    29.661	   -96.128
-20232.014	    15.131	    23.307	   -94.423
-20066.527	    15.194	    21.162	  -113.446
-20258.963	    15.286	    34.532	  -109.049
-20321.600	    15.338	    26.865	  -119.257
-20204.080	    15.518	    32.127	  -112.683
-20084.547	    15.719	    31.312	  -113.969
-20214.105	    15.820	    18.297	  -103.576
-19912.461	    15.733	    24.235	  -129.018
-20343.607	    15.507	    45.562	  -119.724
-20467.936	    15.293	    38.160	  -114.848
-20230.697	    15.243	    29.594	  -121.322
-20206.166	    15.278	    26.735	  -103.577
-20243.137	    15.445	    31.544	  -131.197
-20245.842	    15.611	    36.960	  -124.497
-20100.254	    15.741	    16.115	   -97.009
-20079.053	    15.846	    30.241	  -114.903
-20074.432	    15.874	    32.965	  -115.011
-20117.004	    15.802	    44.068	  -120.461
-20257.232	    15.571	    39.017	  -118.569
-20171.070	    15.384	     9.003	   -87.155
-20160.371	    15.457	    20.383	   -92.911
-20125.365	    15.573	    45.585	  -116.396
-19875.029	    15.580	    45.605	  -131.109
-20233.984	    15.551	    40.880	  -131.846
-20040.979	    15.562	    16.970	   -98.096
-20105.439	    15.483	    42.071	  -134.044
-19990.412	    15.390	    32.660	  -120.419
-20164.746	    15.251	    24.985	  -118.378
-20204.947	    15.251	    17.595	  -100.203
-20305.146	    15.284	    46.956	  -127.889
-20366.908	    15.392	    41.964	  -107.516
-20129.582	    15.615	    63.935	  -112.193
-20054.016	    15.705	    31.365	   -94.945
-20102.453	    15.714	    49.956	   -92.095
-19942.295	    15.628	    24.920	  -109.306
-20104.660	    15.440	    35.152	  -118.512
-19920.377	    15.279	    31.761	  -118.199
-20046.453	    15.284	    47.866	  -106.847
-19948.984	    15.418	    38.449	  -123.442
-20063.424	    15.434	    33.842	  -112.865
-20066.301	    15.402	    36.723	  -117.025
-20179.531	    15.333	    44.095	  -113.446
-20269.127	    15.302	    54.204	   -98.381
-20214.559	    15.355	    35.935	  -110.265
-20135.793	    15.430	    52.956	  -157.181
-20178.029	    15.510	    21.017	   -86.073
-19783.467	    15.471	    51.310	  -111.835
-19868.105	    15.367	    30.365	  -127.384
-20161.729	    15.343	    38.193	  -123.050
-20129.682	    15.322	    21.855	  -113.593
-20421.383	    15.354	    39.884	  -108.371
-20191.150	    15.456	    29.138	  -107.755
-19886.039	    15.480	    31.154	  -113.000
-20142.500	    15.460	    28.377	  -122.481
-20196.439	    15.447	    30.003	  -108.330
-20074.848	    15.429	    37.282	  -120.937
-20310.025	    15.392	    37.885	  -107.348
-20183.197	    15.327	    41.271	  -103.182
-20057.658	    15.280	    36.585	  -106.037
-20091.922	    15.363	    42.032	   -90.916
-19949.764	    15.352	    30.860	  -104.200
-20339.314	    15.354	    36.376	  -110.243
-20515.879	    15.395	    39.159	  -110.802
-20204.541	    15.467	    26.654	  -110.446
-20320.252	    15.485	    36.495	  -121.024
-20124.750	    15.416	    32.959	   -94.794
-20288.494	    15.316	    27.959	  -106.139
-20129.074	    15.351	    16.538	  -101.207
-20211.531	    15.479	    49.258	  -123.120
-20230.756	    15.656	    23.777	  -102.125
-20141.693	    15.637	    32.306	   -92.620
-20458.104	    15.416	    32.583	   -98.047
-20194.162	    15.241	    39.021	  -105.169
-20092.025	    15.157	    30.576	  -116.405
-20259.156	    15.085	    26.242	  -123.440
-20464.777	    15.239	    42.853	  -108.252
-20333.721	    15.358	    38.053	  -134.282
-19948.479	    15.446	    40.122	  -139.369
-20427.080	    15.473	    42.766	  -141.185
-20320.711	    15.547	    27.050	  -128.846
-20195.145	    15.629	    34.607	  -120.344
-19969.568	    15.532	    39.182	  -135.357
-20102.791	    15.387	    33.189	  -128.403
-20251.391	    15.215	    30.907	  -101.501
-20173.838	    15.175	    43.668	  -115.214
-20179.301	    15.314	    30.918	   -88.774
-20207.344	    15.446	    18.660	   -87.604
-20177.361	    15.471	    28.364	  -102.910
-20247.242	    15.465	    38.559	   -97.967
-20176.213	    15.478	    42.624	   -97.299
-20153.740	    15.546	    38.145	  -113.444
-20138.863	    15.709	    23.950	  -100.821
-19956.521	    15.949	    27.518	   -95.676
-19940.557	    16.085	    35.376	   -97.586
-19746.691	    16.077	    36.098	  -107.204
-20002.799	    15.865	    38.203	  -101.146
-20143.539	    15.477	    27.950	   -91.922
-20345.773	    15.141	    33.175	   -96.289
-20268.787	    14.984	    36.425	  -106.453
-20321.482	    15.036	    32.362	  -118.159
-20248.793	    15.150	    27.212	  -115.505
-20248.184	    15.308	    21.289	  -122.794
-19921.891	    15.553	    42.468	  -135.721
-19997.061	    15.610	    10.686	   -74.606
-20202.969	    15.472	    45.600	  -118.466
-19935.400	    15.343	    26.372	  -105.743
-20434.227	    15.260	    37.538	  -114.850
-20194.238	    15.337	    33.040	  -111.600
-20465.701	    15.460	    41.101	  -122.965
-20187.250	    15.406	    33.619	  -115.662
-20338.379	    15.359	    33.275	  -102.389
-20178.654	    15.462	    20.039	  -123.077
-20328.330	    15.496	    39.216	   -89.519
-20182.951	    15.395	    19.269	   -97.312
-20347.062	    15.241	    29.743	  -105.858
-20075.678	    15.239	    38.677	   -94.313
-20254.799	    15.313	    38.908	  -123.210
-20325.287	    15.341	    42.212	  -122.317
-20114.602	    15.470	    39.195	  -110.549
-19953.748	    15.647	    46.054	  -117.452
-20046.031	    15.530	    45.431	  -106.770
-19941.838	    15.245	    46.555	  -123.701
-20499.131	    14.924	    41.969	  -120.957
-20474.148	    14.891	    39.465	  -105.282
-20315.672	    15.116	    25.510	   -96.378
-20139.883	    15.369	    42.368	  -122.860
-20095.584	    15.440	    19.815	  -123.239
-20252.389	    15.361	    33.061	  -121.500
-20147.051	    15.281	    26.593	  -120.549
-20207.000	    15.189	    44.109	  -124.870
-20138.496	    15.218	    21.247	  -102.254
-20083.465	    15.399	    30.048	   -88.268
-19884.145	    15.662	    44.592	  -123.145
-20104.678	    15.747	    35.948	  -119.655
-20159.246	    15.606	    31.473	  -120.965
-20202.254	    15.481	    21.640	  -104.273
-20025.023	    15.450	    20.995	  -103.556
-20014.072	    15.410	    18.409	  -122.417
-19884.592	    15.442	    34.947	   -93.396
-20079.521	    15.488	    35.576	  -106.693
-20245.156	    15.427	    43.988	  -126.079
-20149.381	    15.341	    21.306	  -111.255
-20257.744	    15.203	    40.860	  -124.413
-20115.348	    15.148	    36.629	   -87.310
-20292.023	    15.120	    25.010	  -121.693
-20141.004	    15.136	    37.415	  -124.450
-20204.746	    15.131	    23.299	  -112.167
-20173.668	    15.243	    37.592	  -128.372
-20145.393	    15.450	    27.293	  -105.718
-20136.744	    15.471	    37.885	  -113.692
-20278.785	    15.408	    29.446	  -105.663
-20031.057	    15.253	    44.500	  -125.664
-20318.234	    15.095	    29.978	  -107.673
-20132.674	    15.095	    24.607	  -110.169
-20029.426	    15.226	    23.659	  -111.348
-19888.461	    15.452	    43.037	  -109.187
-19878.379	    15.531	    32.282	  -109.333
-19965.301	    15.542	    45.343	   -88.118
-20260.527	    15.519	    27.579	  -110.578
-20133.211	    15.509	    40.112	   -86.412
-20195.408	    15.490	    42.348	  -113.830
-20248.795	    15.406	    23.072	   -93.506
-20260.006	    15.175	    45.825	  -118.189
-20455.762	    14.917	    28.551	   -92.543
-20176.613	    14.925	    28.272	  -107.742
-20093.379	    15.130	    30.038	  -106.000
-20311.758	    15.433	    32.599	  -102.679
-20147.447	    15.620	    47.480	   -97.548
-20149.867	    15.643	    22.564	  -106.935
-19998.975	    15.545	    45.518	  -135.699
-20079.973	    15.529	    42.312	  -145.191
-20302.498	    15.536	    31.008	  -140.358
-20185.428	    15.507	    39.951	  -107.856
-20185.451	    15.432	    38.677	   -90.277
-20005.438	    15.390	    40.337	  -120.706
-20019.043	    15.419	    28.148	  -113.336
-20236.584	    15.457	    32.406	  -103.882
-20080.619	    15.407	    40.984	   -92.622
-20148.703	    15.281	    18.327	  -115.527
-20115.283	    15.203	    32.021	  -111.783
-20368.934	    15.270	    29.082	  -113.565
-20080.697	    15.381	    25.718	  -111.458
-19961.945	    15.570	    28.102	   -98.229
-20232.277	    15.635	    40.627	  -123.195
-19987.107	    15.695	    40.421	  -117.196
-20156.139	    15.640	    36.486	  -104.157
-20402.268	    15.617	    30.594	  -118.700
-20081.068	    15.713	    52.574	  -110.528
-20065.832	    15.753	    42.525	  -121.566
-20189.520	    15.703	    33.923	  -119.193
-20164.893	    15.538	    36.601	   -95.206
-20199.754	    15.459	    52.135	  -110.790
-20010.432	    15.484	    26.419	  -107.381
-20221.268	    15.494	    34.212	  -123.303
-19984.826	    15.480	    49.731	  -107.618
-20069.918	    15.533	     9.306	   -95.425
-20077.803	    15.640	    50.342	  -119.570
-20343.971	    15.830	    40.859	  -108.438
-19983.844	    15.918	    36.310	  -100.291
-19921.711	    15.854	    42.760	  -118.625
-20113.754	    15.714	    38.815	  -127.618
-20082.902	    15.460	    37.051	  -107.667
-20376.973	    15.089	    41.877	  -107.198
-20263.662	    14.870	    40.224	  -109.016
-20452.799	    14.927	    30.407	   -94.330
-20211.150	    15.061	    20.041	  -107.454
-20024.355	    15.154	    37.190	  -104.789
-20333.727	    15.334	    25.099	  -119.655
-20146.967	    15.452	    26.474	  -128.254
-20146.385	    15.459	    31.606	  -124.136
-20118.639	    15.310	    33.635	  -119.327
-20280.010	    15.242	    32.014	  -104.267
-20148.469	    15.298	    -7.387	   -51.407
-19944.701	    15.362	    19.914	   -82.659
-20333.166	    15.323	    22.018	   -86.322
-20346.100	    15.331	    28.201	  -115.305
-20057.107	    15.448	    26.475	  -111.233
-20333.760	    15.548	    37.514	  -119.560
-20068.010	    15.645	    33.646	  -120.463
-20139.555	    15.671	    18.233	  -112.275
-20265.559	    15.574	    38.525	  -129.752
-20168.332	    15.448	    29.810	  -117.871
-20270.188	    15.343	    35.986	  -120.395
-20110.145	    15.332	    36.718	  -104.079
-20140.465	    15.331	    31.614	  -125.371
-20419.031	    15.366	    28.386	  -102.914
-20382.449	    15.391	     7.723	  -107.572
-20099.990	    15.407	    33.219	  -102.814
-20212.188	    15.442	    32.781	  -112.654
-20033.973	    15.494	    10.752	  -106.908
-20296.057	    15.518	    33.970	   -86.558
-20176.520	    15.400	    28.077	   -99.512
-20370.246	    15.241	    20.774	   -76.528
-20315.920	    15.147	    16.821	  -101.969
-20346.830	    15.149	    46.681	   -98.894
-20133.195	    15.337	    45.290	  -101.744
-19904.324	    15.567	    25.921	  -114.082
-19947.426	    15.647	    49.638	  -122.231
-20328.598	    15.593	    34.604	  -136.306
-20005.180	    15.482	    28.479	  -113.068
-20370.590	    15.319	    45.687	  -122.757
-20190.711	    15.218	    22.392	  -114.395
-20144.791	    15.317	    38.337	  -134.820
-20199.867	    15.478	    40.276	  -122.457
-20028.438	    15.595	    34.019	  -101.636
-20030.502	    15.670	    19.434	   -98.473
-19929.387	    15.643	    31.593	   -98.982
-20166.010	    15.525	    52.029	  -111.713
-20135.572	    15.369	    37.408	   -98.998
-20275.348	    15.209	    31.949	  -117.226
-20122.576	    15.219	    34.138	   -84.661
-20234.424	    15.390	    28.099	   -99.610
-20124.268	    15.442	    42.643	  -109.831
-20467.674	    15.367	    32.662	  -132.188
-20510.598	    15.340	    47.902	  -139.014
-20245.234	    15.261	    33.103	  -144.615
-20197.578	    15.238	    52.895	  -115.119
-20131.455	    15.195	    41.705	   -94.375
-19916.973	    15.184	    32.089	  -111.067
-20178.498	    15.144	    41.684	  -152.999
-20035.688	    15.261	    52.310	  -136.391
-20252.164	    15.539	    32.112	   -90.606
-19995.430	    15.772	    43.444	  -132.486
-20026.322	    15.898	    40.346	  -106.935
-20122.898	    15.788	    33.125	  -108.124
-20203.443	    15.427	    36.568	   -99.459
-20246.805	    15.119	    21.811	   -76.841
-20670.764	    14.873	     4.478	  -101.860
-20349.549	    14.847	    -1.308	   -84.654
-20295.779	    15.134	    35.612	  -108.543
-20060.537	    15.537	    39.333	  -107.920
-20030.496	    15.705	     8.665	   -88.932
-20112.252	    15.717	    39.488	  -120.044
-20211.557	    15.612	    28.354	  -109.005
-20148.262	    15.408	    37.838	   -98.072
-20365.633	    15.150	    11.999	  -102.498
-20256.400	    15.141	    24.801	  -101.830
-20167.318	    15.249	    38.601	  -117.665
-20331.211	    15.424	    35.632	  -100.397
-19955.783	    15.620	    41.175	  -143.634
-19867.342	    15.848	    48.945	  -111.316
-19949.582	    15.952	    38.627	  -107.414
-19775.518	    15.923	    32.535	  -112.771
-19951.393	    15.668	    40.897	  -102.313
-20150.018	    15.379	    26.609	   -99.408
-20117.109	    15.113	    11.507	  -106.548
-20200.018	    15.055	    49.242	   -88.457
-20190.727	    15.300	    39.357	  -130.177
-20149.551	    15.562	    30.121	  -103.508
-20027.344	    15.643	    35.820	  -110.930
-20203.129	    15.533	    33.185	  -114.977
-20089.746	    15.307	    35.405	  -135.859
-20112.123	    15.197	    24.573	  -126.231
-20340.432	    15.248	    37.477	  -122.367
-20030.191	    15.331	    34.003	  -112.910
-20069.854	    15.340	    35.858	  -122.418
-20329.910	    15.395	    35.677	  -114.177
-20039.963	    15.431	    21.928	  -115.461
-20215.814	    15.359	    50.721	  -115.090
-20144.416	    15.205	    17.720	  -110.095
-20094.223	    15.193	    11.182	   -89.405
-20387.568	    15.379	    36.298	  -116.532
-20202.432	    15.555	    36.577	   -88.398
-20223.709	    15.614	     9.011	   -99.154
-20049.393	    15.597	    29.335	  -112.242
-20106.244	    15.591	    30.024	  -128.329
-20251.668	    15.568	    34.712	  -113.839
-20105.953	    15.540	    28.398	   -98.248
-20237.029	    15.465	    37.329	  -134.064
-20073.238	    15.458	    36.819	  -110.695
-20132.479	    15.380	    38.610	  -117.206
-20424.748	    15.262	    43.577	  -116.835
-20474.359	    15.110	    41.618	  -122.458
-20253.395	    15.159	    40.767	  -141.520
-20201.451	    15.470	    36.349	   -94.782
-20064.760	    15.643	    34.620	  -115.091
-20377.355	    15.711	    26.432	  -121.298
-20251.795	    15.622	    41.833	  -115.911
-20227.139	    15.405	    34.101	  -106.427
-20349.107	    15.273	    26.263	   -99.402
-20501.092	    15.274	    47.389	  -126.898
-20050.303	    15.450	    40.823	  -122.586
-20128.410	    15.543	    25.636	  -129.968
-19931.088	    15.443	    22.004	  -111.221
-20207.723	    15.313	    47.273	  -100.379
-20187.434	    15.303	    24.974	  -109.826
-20282.377	    15.400	    46.430	  -113.532
-20175.221	    15.623	    37.020	  -115.632
-19989.373	    15.827	    27.860	  -110.027
-19999.252	    15.876	    24.321	  -120.326
-19895.014	    15.789	    42.364	  -119.783
-19960.982	    15.656	    37.749	   -97.827
-20017.650	    15.631	    45.882	   -91.420
-20118.990	    15.536	    24.594	  -112.434
-20289.195	    15.415	    40.422	  -106.825
-20254.514	    15.424	    27.841	  -114.874
-20169.393	    15.540	    35.971	  -112.841
-20036.254	    15.657	    24.208	  -107.904
-20250.158	    15.598	    33.518	  -124.042
-20165.197	    15.481	    23.549	  -112.138
-20090.502	    15.335	    21.385	  -114.199
-20114.408	    15.241	    53.819	  -114.441
-19991.518	    15.191	    34.215	   -98.079
-20356.721	    15.223	    39.253	  -123.881
-20071.117	    15.253	    31.014	  -113.495
-20133.479	    15.373	    27.312	  -110.449
-20114.537	    15.499	    36.455	  -106.411
-19994.732	    15.671	    35.132	  -117.396
-20209.781	    15.702	    29.540	  -106.829
-20059.898	    15.685	    36.360	  -104.541
-20110.777	    15.593	    53.429	  -121.206
-20038.764	    15.485	    25.253	  -118.999
-20159.893	    15.380	    30.187	  -127.820
-20039.562	    15.317	    22.050	   -94.734
-20077.252	    15.285	    35.917	  -101.693
-20081.967	    15.329	    15.755	  -107.077
-20151.795	    15.362	    40.598	  -113.962
-19820.043	    15.393	    27.958	  -104.092
-20019.826	    15.418	    25.748	  -102.414
-20247.656	    15.354	    48.573	   -93.998
-20310.311	    15.336	    35.205	  -104.924
-20114.289	    15.316	    10.759	   -99.823
-20190.391	    15.306	    38.026	  -102.885
-20142.588	    15.275	    24.997	   -92.505
-20156.291	    15.363	    44.823	  -133.778
-19999.486	    15.428	    38.125	  -108.025
-20294.873	    15.546	    30.687	  -114.222
-20285.447	    15.556	    27.624	  -113.817
-20269.373	    15.567	    29.509	  -117.486
-20062.230	    15.583	    27.951	   -90.668
-20006.229	    15.620	    26.645	   -98.764
-20090.420	    15.526	    33.105	  -101.158
-20264.688	    15.443	    26.112	  -102.469
-20112.555	    15.382	    27.782	  -115.370
-20000.855	    15.354	    32.812	  -104.241
-20236.545	    15.314	    48.121	  -103.576
-20226.014	    15.261	    36.631	  -113.038
-20250.025	    15.238	    36.791	  -128.873
-20208.857	    15.234	    34.005	  -124.387
-20323.506	    15.207	    31.416	  -109.023
-20170.613	    15.281	    28.064	  -110.441
-20161.086	    15.469	    41.599	  -103.858
-20252.812	    15.661	    41.210	  -104.632
-20419.299	    15.700	    25.843	  -106.321
-20239.457	    15.614	    46.827	  -121.329
-20337.693	    15.540	    39.772	  -116.067
-20128.262	    15.579	     1.681	   -96.771
-20019.180	    15.572	    38.423	  -101.138
-20125.035	    15.571	    34.529	   -96.470
-19980.029	    15.530	    54.748	  -131.235
-19873.477	    15.562	    24.900	  -117.060
-19886.438	    15.515	    19.143	  -108.844
-20055.912	    15.421	    12.138	   -98.404
-20000.869	    15.379	    43.019	  -113.171
-20077.889	    15.342	    34.587	  -113.392
-20231.303	    15.355	    33.777	  -114.889
-20195.816	    15.428	    43.233	  -107.624
-20157.395	    15.531	    31.368	   -98.529
-20132.703	    15.676	    47.131	  -108.925
-20113.500	    15.718	    39.985	  -102.768
-19973.771	    15.613	    40.881	  -107.202
-20087.939	    15.390	    36.157	  -101.982
-20328.543	    15.214	    27.702	  -119.939
-20201.125	    15.252	    16.747	  -105.867
-20212.697	    15.477	    38.300	  -114.868
-20013.635	    15.699	    22.009	  -118.089
-20079.279	    15.899	    25.419	  -125.714
-19862.979	    15.977	    21.930	  -118.995
-19739.131	    15.871	    35.410	  -134.663
-19882.307	    15.633	    35.266	  -130.481
-19976.533	    15.338	    34.373	  -116.747
-20209.246	    15.177	    45.101	  -129.683
-20238.969	    15.278	    35.949	  -126.602
-20113.717	    15.397	    33.976	  -126.066
-20066.244	    15.548	    43.187	  -109.397
-19829.689	    15.645	    47.742	  -115.979
-20353.188	    15.539	    42.366	  -112.821
-19893.148	    15.334	    41.532	  -126.061
-20492.242	    15.164	    16.208	  -112.626
-20083.902	    15.219	    37.404	  -111.434
-20117.697	    15.308	    37.319	  -116.770
-20217.137	    15.399	    22.921	  -115.588
-20213.064	    15.460	    33.958	  -120.678
-19898.869	    15.553	    29.478	  -117.306
-20239.670	    15.563	    39.734	  -121.061
-19888.168	    15.509	    34.624	  -119.886
-20160.889	    15.390	    26.377	  -125.971
-20198.732	    15.217	    26.065	  -116.916
-20093.752	    15.161	    37.390	  -118.572
-20262.520	    15.171	    34.450	  -129.706
-20130.992	    15.168	    47.570	  -118.872
-20137.182	    15.228	    34.937	  -113.454
-20174.600	    15.422	    38.496	  -118.720
-19785.365	    15.578	    29.267	  -105.182
-20092.729	    15.532	    53.549	  -136.583
-20219.268	    15.449	    26.646	  -111.887
-20345.766	    15.287	    35.972	  -119.136
-20022.512	    15.201	    30.080	  -106.334
-19972.889	    15.116	    37.795	  -107.787
-19913.805	    15.218	    50.686	  -123.561
-20230.973	    15.324	    31.096	  -121.093
-20094.342	    15.519	    33.715	  -109.701
