-19732.283	    15.334	   -92.310	   122.143
-20071.012	    15.380	  -167.076	   -20.805
-20271.070	    15.368	  -164.946	   -51.137
-20202.832	    15.290	   179.000	   -39.642
-20169.168	    15.145	   178.232	   -62.280
-20281.580	    15.034	  -179.373	   -46.019
-20215.215	    15.124	   176.230	   -25.039
-19889.525	    15.316	  -170.901	   -45.737
-20007.113	    15.497	   177.656	   -56.568
-20100.996	    15.673	   179.413	   -52.212
-20114.363	    15.763	  -172.156	   -41.661
-20306.268	    15.683	  -167.209	   -60.662
-20059.402	    15.536	  -175.526	   -47.910
-20334.311	    15.293	  -178.039	   -39.357
-20305.004	    15.132	   179.259	   -57.543
-20336.816	    15.088	   175.075	   -56.354
-20245.148	    15.283	   178.596	   -59.355
-20121.535	    15.562	  -166.103	   -39.950
-20054.463	    15.764	   177.293	   -38.182
-20126.812	    15.686	   170.469	   -48.838
-20269.770	    15.440	   172.113	   -40.983
-20283.170	    15.327	  -179.849	   -45.956
-20168.299	    15.269	  -168.025	   -46.445
-20019.391	    15.393	  -177.436	   -44.478
-20017.910	    15.600	  -170.231	   -25.052
-19843.514	    15.643	   167.042	   -31.304
-20235.199	    15.583	  -179.483	   -40.021
-19949.191	    15.520	  -171.250	   -56.524
-20294.031	    15.472	   169.761	   -30.444
-20054.953	    15.490	  -172.760	   -42.410
-20051.871	    15.597	  -179.877	   -30.313
-20135.186	    15.668	   149.772	   -58.792
-20060.164	    15.669	   179.188	   -29.939
-19838.721	    15.631	   171.889	   -43.690
-19939.969	    15.542	  -171.949	   -32.801
-20029.066	    15.454	   173.984	   -27.603
-20085.209	    15.377	   169.842	   -34.637
-19989.967	    15.341	   172.863	   -59.398
-20086.699	    15.325	   173.336	   -43.810
-20084.898	    15.272	  -170.555	   -39.688
-20082.857	    15.270	   166.645	   -27.046
-20417.453	    15.323	  -169.174	   -46.315
-20355.129	    15.468	  -173.221	   -38.974
-20128.305	    15.476	   178.329	   -39.760
-20133.168	    15.401	  -170.723	   -26.202
-20108.176	    15.516	   175.361	   -34.602
-19991.463	    15.592	   176.293	   -30.425
-20012.381	    15.529	   178.123	   -38.467
-20147.506	    15.515	  -175.271	   -47.393
-20283.520	    15.408	   170.270	   -40.667
-20233.885	    15.180	  -173.785	   -47.703
-20234.893	    15.135	   174.484	   -38.640
-20069.541	    15.275	   179.555	   -30.271
-20353.332	    15.385	  -179.829	   -44.699
-20147.193	    15.577	  -175.085	   -47.243
-20027.381	    15.623	   177.917	   -43.285
-20098.223	    15.491	  -167.516	   -31.202
-20052.258	    15.377	   179.872	   -50.142
-20219.348	    15.416	   179.978	   -28.789
-20069.920	    15.475	  -178.047	   -36.404
-20299.031	    15.431	  -173.925	   -51.659
-20451.986	    15.475	  -170.468	   -45.744
-20137.896	    15.675	   178.556	   -21.487
-19725.781	    15.755	  -164.909	   -49.584
-20061.062	    15.567	  -175.600	   -39.405
-20082.000	    15.292	   173.119	   -53.478
-20314.887	    15.131	  -170.053	   -37.511
-20273.953	    15.170	  -169.634	   -69.044
-20248.574	    15.384	   176.151	   -40.491
-19873.129	    15.655	  -170.389	   -37.266
-19858.516	    15.794	   169.756	   -41.616
-19940.979	    15.757	   178.678	   -41.984
-20124.832	    15.541	   177.359	   -37.372
-20068.604	    15.220	   174.161	   -46.947
-20318.086	    14.950	   174.164	   -41.461
-20139.504	    14.971	  -167.273	   -40.119
-20084.035	    15.164	  -172.506	   -40.443
-20166.215	    15.409	   179.631	   -43.719
-20196.115	    15.726	  -161.785	   -48.322
-20157.600	    15.890	   172.012	   -29.201
-19791.982	    15.790	  -163.017	   -45.565
-20010.945	    15.603	   173.676	   -32.582
-20265.160	    15.470	   177.709	   -42.693
-20203.240	    15.449	   163.785	   -38.512
-19977.783	    15.535	   178.582	   -37.362
-20028.260	    15.553	   157.790	   -30.597
-20333.770	    15.545	  -177.940	   -59.214
-20149.854	    15.576	   150.969	   -50.167
-20010.674	    15.503	  -178.820	   -31.136
-20317.791	    15.370	  -175.797	   -62.786
-20211.854	    15.368	  -175.049	   -54.865
-20545.508	    15.375	   175.222	   -44.334
-20274.094	    15.430	  -175.012	   -51.009
-20217.502	    15.484	   162.315	   -38.077
-20058.242	    15.527	   167.279	   -36.093
-20026.270	    15.481	   167.035	   -34.146
-20125.824	    15.495	  -178.501	   -44.462
-20116.912	    15.516	   173.536	   -25.674
-20334.523	    15.501	  -177.888	   -33.358
-20216.908	    15.477	  -169.122	   -43.779
-20021.574	    15.357	  -169.996	   -28.794
-20190.543	    15.357	   170.766	   -58.162
-20477.420	    15.372	   171.882	   -36.170
-20243.869	    15.345	   173.539	   -37.473
-20296.506	    15.420	   174.938	   -46.825
-20236.889	    15.613	   173.464	   -42.991
-20183.094	    15.700	   179.827	   -47.984
-19924.766	    15.713	   179.404	   -43.913
-19986.230	    15.560	   171.747	   -28.712
-20083.869	    15.366	  -169.450	   -47.605
-20368.246	    15.289	  -168.133	   -32.425
-20407.350	    15.355	  -167.383	   -32.895
-20109.225	    15.455	  -179.707	   -59.320
-20050.623	    15.584	  -173.078	   -60.574
-19714.094	    15.667	  -164.278	   -55.453
-20084.502	    15.727	  -176.438	   -32.803
-20324.754	    15.697	  -173.399	   -55.365
-20300.344	    15.552	  -177.524	   -51.883
-20265.252	    15.416	  -179.640	   -53.827
-20056.336	    15.396	   175.527	   -54.325
-20247.916	    15.272	   178.540	   -57.446
-20200.059	    15.121	  -179.867	   -42.083
-20162.893	    15.204	   171.909	   -36.471
-20007.312	    15.380	  -179.693	   -28.613
-19930.916	    15.485	   161.739	   -26.348
-20275.641	    15.500	   177.978	   -39.686
-20083.875	    15.470	   177.351	   -29.243
-19860.678	    15.305	  -165.389	   -33.852
-20028.176	    15.239	  -172.250	   -37.252
-19946.545	    15.388	  -164.326	   -40.257
-19934.414	    15.408	  -173.193	   -38.114
-20291.230	    15.311	   161.284	   -48.985
-20262.207	    15.286	  -179.856	   -31.210
-20178.094	    15.330	   171.554	   -25.418
-20069.734	    15.377	   163.834	   -37.943
-20178.160	    15.429	   177.457	   -43.080
-20119.195	    15.589	  -176.628	   -36.387
-20105.488	    15.668	   168.909	   -40.601
-19847.453	    15.691	   171.845	   -41.522
-19848.814	    15.652	  -156.994	   -30.533
-20133.113	    15.668	  -175.458	   -36.400
-19952.088	    15.766	  -174.244	   -40.892
-20103.785	    15.768	   172.930	   -38.194
-20256.281	    15.614	  -175.382	   -35.790
-20345.498	    15.349	  -168.862	   -18.622
-20303.115	    15.161	  -178.487	   -33.480
-20518.367	    15.185	  -168.511	   -46.140
-20181.021	    15.283	  -170.800	   -41.988
-20127.164	    15.405	  -179.435	   -46.477
-20049.387	    15.630	   179.948	   -45.683
-20052.428	    15.685	  -173.028	   -39.155
-20106.141	    15.644	   179.935	   -64.573
-20200.818	    15.417	   154.335	   -30.410
-20207.195	    15.122	   179.901	   -34.435
-20078.240	    15.067	  -173.433	   -20.296
-20234.535	    15.238	   179.383	   -47.544
-19930.611	    15.371	   175.951	   -39.607
-19997.688	    15.451	  -170.952	   -34.157
-19999.006	    15.449	   165.092	   -41.084
-20211.262	    15.343	   179.757	   -61.123
-20153.875	    15.324	  -172.125	   -45.977
-20061.758	    15.367	  -179.409	   -37.667
-20169.908	    15.523	  -162.090	   -42.185
-19956.367	    15.767	  -169.778	   -36.031
-19697.295	    15.784	   175.139	   -34.688
-19841.852	    15.661	  -172.878	   -46.093
-19950.043	    15.473	   168.702	   -65.519
-20366.934	    15.220	   179.825	   -30.457
-20235.127	    15.133	  -169.937	   -37.310
-20039.889	    15.307	   172.820	   -57.131
-20157.727	    15.395	   174.770	   -44.303
-20109.744	    15.397	   173.588	   -18.359
-20102.814	    15.419	   178.332	   -41.552
-20230.781	    15.447	   173.370	   -38.135
-20368.262	    15.409	  -175.378	   -30.611
-20283.990	    15.339	  -173.985	   -36.918
-20442.535	    15.390	  -170.028	   -31.046
-20103.621	    15.493	  -177.370	   -36.605
-20235.123	    15.445	   170.443	   -41.062
-20245.064	    15.334	   177.597	   -23.891
-20297.400	    15.283	  -177.341	   -43.758
-20159.988	    15.347	   166.247	   -50.720
-20120.871	    15.414	   173.952	   -45.402
-19817.299	    15.490	   165.521	   -32.622
-19935.031	    15.481	  -176.544	   -40.493
-20267.893	    15.362	  -179.508	   -45.628
-20313.334	    15.283	   169.335	   -25.018
-20050.559	    15.420	   172.913	   -51.840
-19887.455	    15.537	   169.428	   -30.126
-19916.904	    15.543	   178.880	   -40.758
-20297.637	    15.475	  -177.488	   -40.363
-20223.879	    15.422	   175.064	   -27.717
-20124.684	    15.394	  -176.070	   -37.671
-19962.141	    15.347	   178.510	   -38.144
-19928.184	    15.371	   164.510	   -43.830
-20050.891	    15.342	   179.586	   -38.091
-19977.553	    15.271	   167.924	   -48.726
-20240.080	    15.209	  -164.780	   -21.784
-20150.875	    15.204	  -163.436	   -50.257
-20262.125	    15.057	  -175.609	   -35.227
-20016.223	    15.027	   172.928	   -53.921
-20192.842	    15.139	  -176.182	   -48.300
-19938.025	    15.353	  -178.133	   -45.546
-20258.346	    15.567	  -177.431	   -29.175
-20165.992	    15.675	  -175.866	   -34.040
-19980.131	    15.621	  -173.406	   -36.545
-20080.971	    15.435	  -168.195	   -30.763
-19986.467	    15.313	  -172.727	   -48.909
-20142.451	    15.298	  -172.480	   -27.643
-19925.238	    15.329	  -164.246	   -30.512
-20123.338	    15.205	  -167.581	   -22.052
-20211.248	    15.077	  -170.710	   -54.760
-20347.469	    15.150	  -170.797	   -39.005
-20170.143	    15.287	  -172.874	   -29.030
-20324.545	    15.404	  -178.139	   -46.118
-19955.117	    15.477	  -166.200	   -23.818
-19921.564	    15.482	  -173.140	   -33.959
-20111.467	    15.518	  -177.243	   -38.344
-20072.793	    15.463	  -178.199	   -26.791
-20138.645	    15.372	  -179.254	   -50.604
-20003.812	    15.291	  -177.888	   -57.423
-20084.988	    15.240	   175.217	   -37.438
-20099.648	    15.276	  -175.179	   -37.462
-20078.756	    15.410	   161.308	   -42.734
-20178.896	    15.546	  -176.179	   -46.703
-20045.906	    15.603	  -179.159	   -52.626
-20189.236	    15.562	  -172.459	   -64.922
-20235.189	    15.432	   162.692	   -43.735
-20397.145	    15.424	   178.067	   -45.151
-20371.840	    15.552	  -172.752	   -41.881
-20162.498	    15.672	   168.320	   -28.704
-20363.371	    15.717	   176.766	   -52.975
-19966.768	    15.681	   178.760	   -28.470
-19862.668	    15.588	   176.992	   -47.333
-20214.350	    15.394	  -179.492	   -42.105
-20152.971	    15.202	  -169.886	   -28.890
-20144.326	    15.085	  -177.458	   -44.619
-20177.947	    15.282	  -174.158	   -41.528
-20029.436	    15.454	   177.156	   -45.655
-20201.535	    15.606	  -168.282	   -36.297
-20534.852	    15.729	  -163.595	   -37.498
-20079.639	    15.720	   178.408	   -27.384
-20135.242	    15.611	  -160.244	   -37.913
-20386.953	    15.528	  -167.800	   -44.138
-20072.129	    15.538	  -170.479	   -29.826
-20184.051	    15.577	   177.050	   -29.341
-20200.193	    15.449	  -178.763	   -31.622
-19681.268	    15.305	  -177.610	   -45.127
-20106.023	    15.184	   179.230	   -45.499
-20132.393	    15.226	   167.626	   -39.043
-20131.943	    15.373	   179.615	   -45.137
-19958.369	    15.406	  -169.281	   -54.311
-20137.617	    15.317	  -170.013	   -50.009
-20098.916	    15.207	  -175.287	   -26.843
-20304.660	    15.167	   179.039	   -47.670
-20266.518	    15.168	  -177.912	   -51.347
-20150.383	    15.371	  -175.008	   -30.226
-20318.521	    15.539	   170.675	   -44.159
-20179.166	    15.548	   171.718	   -33.535
-20159.570	    15.396	   175.660	   -30.607
-20069.531	    15.233	   174.452	   -49.608
-20159.393	    15.128	  -173.070	   -43.322
-20253.391	    15.144	   169.027	   -34.312
-19995.170	    15.362	   170.500	   -37.717
-20014.752	    15.505	  -175.629	   -58.796
-19950.607	    15.504	   161.218	   -46.552
-20101.328	    15.613	   179.288	   -47.791
-20203.129	    15.611	  -173.257	   -46.369
-20366.238	    15.519	  -173.161	   -39.850
-20316.566	    15.607	   164.847	   -47.656
-20245.439	    15.739	   165.120	   -39.693
-20096.682	    15.719	   161.647	   -52.516
-20115.199	    15.779	   175.860	   -48.288
-19960.414	    15.693	   159.862	   -40.046
-19912.111	    15.536	  -173.514	   -44.089
-20463.164	    15.304	  -173.914	   -41.332
-20302.701	    15.296	   179.871	   -43.342
-20088.594	    15.477	  -172.474	   -45.373
-19992.725	    15.575	   172.073	   -32.484
-20009.553	    15.472	   174.287	   -36.882
-20292.176	    15.301	  -168.344	   -48.706
-20385.348	    15.244	  -166.352	   -34.991
-20205.709	    15.192	   175.086	   -56.320
-20191.455	    15.102	  -174.576	   -46.267
-20118.094	    15.083	   173.070	   -37.587
-19924.803	    15.314	  -175.912	   -25.897
-20062.480	    15.596	  -174.185	   -27.614
-19930.250	    15.729	   174.258	   -40.801
-20022.674	    15.617	   166.192	   -48.388
-20149.311	    15.525	   165.405	   -56.325
-20128.887	    15.539	  -178.732	   -52.284
-20167.217	    15.657	   177.879	   -50.101
-20234.064	    15.684	   174.359	   -44.882
-20121.953	    15.705	   174.426	   -36.893
-20068.211	    15.612	   173.853	   -44.090
-20402.029	    15.440	  -171.661	   -50.096
-20153.744	    15.294	  -176.784	   -43.816
-20118.840	    15.122	  -177.989	   -47.241
-20186.420	    15.026	  -174.174	   -38.642
-20173.424	    15.005	  -172.226	   -47.337
-20059.318	    14.938	  -178.796	   -52.264
-20219.135	    15.010	  -172.738	   -40.060
-20082.557	    15.323	  -178.477	   -39.171
-19903.150	    15.658	  -168.218	   -45.131
-19981.088	    15.913	   172.155	   -41.354
-20189.932	    15.831	   174.042	   -42.576
-20349.920	    15.569	   168.526	   -34.453
-20189.363	    15.276	  -158.907	   -36.280
-20224.018	    15.173	  -176.619	   -22.083
-20048.777	    15.277	  -173.745	   -53.147
-20210.957	    15.345	   177.438	   -37.393
-20032.779	    15.466	  -173.709	   -27.898
-20111.035	    15.519	  -173.680	   -25.630
-20164.723	    15.450	   163.099	   -36.272
-20149.262	    15.289	  -179.324	   -34.340
-20037.764	    15.218	  -177.198	   -47.687
-20297.195	    15.209	   174.651	   -20.314
-20085.795	    15.291	  -161.018	   -41.695
-20216.166	    15.471	  -172.856	   -34.266
-19975.451	    15.604	  -178.474	   -19.053
-19970.977	    15.436	  -173.464	   -28.473
-20391.588	    15.256	   175.801	   -37.232
-20121.168	    15.280	  -176.905	   -27.990
-20263.768	    15.305	   175.877	   -27.068
-20297.455	    15.294	   170.122	   -29.758
-20296.959	    15.322	   159.723	   -33.954
-20195.244	    15.200	   178.911	   -29.302
-20400.096	    15.076	   175.118	   -36.324
-20475.447	    15.062	   159.082	   -48.594
-20462.031	    15.231	   177.423	   -60.788
-20418.928	    15.412	   168.236	   -61.177
-20029.174	    15.578	   179.862	   -51.659
-20156.816	    15.784	  -175.110	   -26.556
-20051.268	    15.801	  -175.683	   -34.759
-19977.689	    15.780	   167.075	   -44.910
-20040.717	    15.631	   177.551	   -44.844
-20295.248	    15.456	  -176.080	   -38.996
-20375.039	    15.311	  -178.334	   -46.924
-20225.660	    15.241	  -167.702	   -45.854
-20296.379	    15.289	   170.553	   -56.721
-20176.090	    15.391	  -163.269	   -27.064
-20414.697	    15.541	   168.348	   -35.062
-20341.434	    15.609	  -175.285	   -36.829
-20169.662	    15.602	   173.867	   -20.936
-19922.844	    15.647	   165.674	   -29.832
-20371.777	    15.625	  -175.735	   -32.188
-20156.191	    15.494	   176.912	   -31.751
-20352.881	    15.364	  -171.778	   -38.836
-20231.770	    15.378	   177.849	   -57.776
-20139.660	    15.452	   179.124	   -36.789
-20415.979	    15.370	  -173.669	   -36.260
-20179.420	    15.323	  -177.951	   -30.220
-20301.809	    15.328	  -171.863	   -22.446
-20023.668	    15.380	  -179.815	   -49.563
-20128.707	    15.396	   173.578	   -34.596
-20265.076	    15.477	  -179.111	   -24.524
-20057.268	    15.367	   178.541	   -22.206
-20297.205	    15.192	   173.053	   -57.728
-19964.846	    15.160	  -174.169	   -28.466
-20067.348	    15.305	   158.200	   -54.021
-20050.369	    15.400	   162.221	   -32.555
-20329.953	    15.418	   178.054	   -50.051
-20315.037	    15.476	  -161.675	   -44.538
-20087.943	    15.480	  -179.560	   -40.016
-20436.758	    15.358	   171.954	   -34.172
-20431.881	    15.333	  -173.739	   -46.350
-20204.812	    15.362	  -176.847	   -47.688
-19932.164	    15.410	  -167.414	    -7.239
-20022.906	    15.501	  -179.213	   -37.637
-20302.230	    15.590	  -169.919	   -37.597
-20155.605	    15.579	  -176.242	   -27.557
-19918.947	    15.499	   178.687	   -37.035
-20153.289	    15.344	  -179.375	   -56.815
-20004.969	    15.276	  -177.825	   -44.087
-20215.715	    15.382	   171.878	   -32.946
-20083.838	    15.561	   173.574	   -67.416
-20179.336	    15.696	   171.237	   -19.032
-20207.834	    15.573	   179.173	   -44.081
-20105.111	    15.399	   178.404	   -57.441
-20280.207	    15.289	   174.830	   -57.469
-20131.959	    15.281	  -178.027	   -31.524
-20082.145	    15.299	   165.633	   -27.959
-20105.066	    15.339	  -167.591	   -32.566
-20170.822	    15.308	   179.193	   -38.642
-19806.158	    15.289	  -179.468	   -18.695
-20092.768	    15.324	  -168.864	   -35.802
-20412.234	    15.343	  -169.015	   -16.739
-19990.531	    15.403	   176.886	   -19.721
-20065.150	    15.415	   167.951	   -38.219
-20290.000	    15.323	  -173.090	   -33.003
-20355.918	    15.281	   178.120	   -30.730
-20010.027	    15.206	  -170.574	   -47.209
-20343.674	    15.227	  -165.939	   -54.746
-19966.330	    15.371	  -175.099	   -42.881
-20119.926	    15.467	  -174.353	   -44.392
-20062.770	    15.540	  -171.769	   -48.812
-20167.281	    15.574	   177.602	   -47.272
-19947.219	    15.522	  -171.943	   -45.577
-20515.127	    15.484	   172.369	   -69.937
-19852.662	    15.563	  -176.489	   -33.157
-19848.857	    15.619	  -172.384	   -48.566
-20308.857	    15.729	  -175.695	   -39.581
-20094.475	    15.747	   178.727	   -37.503
-20217.359	    15.575	   174.423	   -38.779
-20051.865	    15.461	  -169.066	   -58.652
-20119.887	    15.456	  -176.987	   -37.666
-20428.281	    15.436	  -179.731	   -40.901
-20068.584	    15.532	  -168.304	   -39.606
-19988.756	    15.655	   161.237	   -40.877
-20289.498	    15.609	  -177.500	   -44.638
-19720.492	    15.529	  -178.620	   -31.173
-19874.812	    15.382	   177.810	   -44.655
-20170.705	    15.318	   179.626	   -46.847
-20126.789	    15.313	   178.604	   -53.199
-20361.133	    15.259	  -167.197	   -54.602
-20043.842	    15.277	   177.301	   -40.277
-20196.951	    15.472	   178.445	   -44.969
-20014.803	    15.717	  -170.149	   -34.195
-19962.379	    15.791	  -168.224	   -44.212
-20106.631	    15.737	  -166.594	   -49.316
-20406.041	    15.660	  -177.114	   -48.354
-20171.338	    15.448	   179.590	   -29.644
-20204.135	    15.327	  -166.047	   -30.375
-20037.084	    15.388	  -176.956	   -45.280
-20145.799	    15.479	   168.476	   -28.209
-20201.740	    15.509	  -168.286	   -28.625
-20213.324	    15.358	  -165.657	   -12.665
-20047.600	    15.303	  -158.851	   -57.490
-19837.340	    15.340	   173.770	   -65.693
-20000.854	    15.362	   175.003	   -65.626
-20167.381	    15.395	  -159.519	   -42.611
-20240.787	    15.477	  -168.926	   -46.193
-20232.996	    15.546	  -173.680	   -57.953
-19780.908	    15.613	  -169.773	   -16.222
-19994.842	    15.503	   163.387	   -51.486
-20049.062	    15.348	   178.336	   -41.443
-20209.684	    15.322	  -178.166	   -45.481
-20193.568	    15.434	   166.798	   -30.892
-20307.305	    15.524	   177.912	   -54.116
-20142.857	    15.509	  -179.445	   -31.131
-20195.264	    15.511	  -178.664	   -46.768
-20200.887	    15.459	   174.428	   -44.381
-20195.668	    15.287	   177.328	   -28.501
-20410.514	    15.177	  -166.501	   -67.836
-20292.387	    15.115	   161.796	   -41.464
-20303.613	    15.051	   160.849	   -53.097
-20190.201	    15.086	  -174.284	   -42.777
-20271.021	    15.268	   171.205	   -43.276
-20292.848	    15.370	   154.162	   -46.203
-19897.973	    15.447	  -177.582	   -42.069
-20077.270	    15.458	   168.818	   -49.602
-20061.438	    15.413	   176.196	   -47.242
-19934.539	    15.341	  -179.103	   -54.780
-19849.191	    15.450	  -168.158	   -18.692
-19944.023	    15.531	   167.718	   -51.681
-20113.223	    15.581	   173.820	   -50.357
-20057.334	    15.551	   176.848	   -42.961
-20403.113	    15.423	   154.128	   -52.589
-19755.340	    15.445	   167.764	   -33.337
-19893.805	    15.339	   148.687	   -41.803
-20179.391	    15.303	  -174.129	   -32.965
-20273.840	    15.338	  -172.973	   -60.366
-20119.578	    15.422	   173.306	   -46.905
-20042.445	    15.494	  -174.441	   -54.812
-20297.395	    15.452	  -178.408	   -48.415
-20194.650	    15.430	   178.063	   -41.806
-20132.488	    15.355	   177.106	   -36.894
-20197.572	    15.355	  -177.035	   -15.002
-20048.830	    15.431	  -179.769	   -46.317
-20186.900	    15.418	   168.289	   -48.172
-20067.309	    15.354	   167.510	   -44.172
-19930.430	    15.419	   179.087	   -53.573
-20180.033	    15.457	  -167.710	   -34.130
-20049.000	    15.360	   179.556	   -34.016
-20140.516	    15.240	   177.018	   -21.537
-20503.971	    15.279	   174.186	   -63.443
-20039.740	    15.390	   167.459	   -50.680
-20129.861	    15.368	  -174.639	   -47.495
-20151.020	    15.354	  -174.224	   -28.652
-20241.832	    15.321	   175.348	   -45.861
-20126.119	    15.417	   174.837	   -42.867
-20187.650	    15.454	  -176.696	   -18.994
-19951.609	    15.353	  -176.288	   -36.296
-20299.141	    15.134	  -172.019	   -33.958
-20128.477	    15.097	   166.441	   -41.147
-20075.963	    15.152	   170.808	   -45.565
-20162.564	    15.272	  -165.020	   -27.030
-20097.094	    15.439	  -178.194	   -20.277
-20063.141	    15.557	   178.698	   -56.483
-20104.744	    15.620	  -177.414	   -33.311
-19954.873	    15.626	  -174.162	   -55.943
-20161.582	    15.520	   175.863	   -52.565
-20120.971	    15.367	   162.705	   -28.109
-20182.500	    15.304	  -179.223	   -35.811
-20223.084	    15.282	  -171.431	   -30.744
-20463.604	    15.350	  -166.657	   -44.418
-20287.396	    15.451	  -167.168	   -33.111
-20113.947	    15.602	  -173.709	   -26.483
-19905.984	    15.628	   165.593	   -43.288
-20051.744	    15.499	   178.944	   -44.913
-20047.314	    15.421	   177.629	   -38.011
-20037.410	    15.381	  -178.865	   -49.231
-20044.381	    15.409	  -173.956	   -36.609
-19950.518	    15.471	   171.963	   -45.054
-19944.791	    15.508	   160.267	   -45.875
-20014.211	    15.538	   176.857	   -41.329
-20055.273	    15.494	   176.103	   -55.034
-20175.861	    15.472	  -171.859	   -48.069
-20018.920	    15.428	   175.611	   -25.002
-20290.154	    15.305	   176.980	   -43.798
-20079.652	    15.313	   165.993	   -42.554
-20208.461	    15.497	   171.990	   -44.999
-20101.863	    15.468	   177.432	   -42.812
-20357.836	    15.356	   179.125	   -31.880
-20394.555	    15.127	  -163.053	   -35.835
-20380.316	    14.974	   179.810	   -30.260
-20288.039	    15.055	   177.413	   -41.124
-20351.709	    15.258	   177.649	   -47.946
-19988.742	    15.406	  -175.213	   -42.683
-20150.051	    15.607	   176.346	   -55.993
-20197.340	    15.708	  -175.490	   -45.199
-20059.576	    15.664	  -163.417	   -26.809
-20272.947	    15.661	   177.019	   -59.250
-20013.396	    15.666	   161.861	   -36.544
-20178.826	    15.652	   171.518	   -42.280
-19864.166	    15.562	   165.222	   -45.729
-20065.330	    15.413	   162.281	   -31.638
-20228.229	    15.302	   178.279	   -48.130
-20147.871	    15.302	   179.324	   -43.308
-20110.189	    15.433	  -178.338	   -27.354
-19861.459	    15.555	  -161.809	   -57.023
-20101.277	    15.463	  -175.835	   -25.080
-19912.898	    15.302	  -177.127	   -44.051
-20198.396	    15.056	  -167.390	   -33.428
-20173.514	    15.083	  -164.865	   -25.033
-20130.191	    15.237	  -167.577	   -25.129
-20125.309	    15.503	   171.030	   -43.553
-20053.436	    15.590	   178.701	   -49.813
-20053.238	    15.571	  -179.996	   -30.223
-20366.164	    15.419	  -173.016	   -41.815
-20513.342	    15.152	  -173.509	   -29.748
-20273.600	    15.032	  -173.516	   -41.261
-20299.777	    15.035	   169.560	   -21.843
-20061.592	    15.156	  -176.324	   -39.834
-20351.049	    15.401	   168.347	   -40.536
-20301.371	    15.481	   162.925	   -41.166
-20024.117	    15.530	   177.115	   -37.034
-20179.652	    15.548	  -155.619	   -39.810
-20075.980	    15.492	  -167.629	   -39.181
-20090.109	    15.395	  -170.506	   -55.569
-20282.617	    15.359	   178.583	   -49.252
-20048.768	    15.327	   172.286	   -57.484
-20225.137	    15.238	  -172.942	   -44.077
-20459.639	    15.256	   177.870	   -42.661
-20438.879	    15.423	  -179.013	   -57.133
-20311.393	    15.607	  -178.159	   -27.460
-20147.064	    15.681	  -173.080	   -41.291
-20053.580	    15.649	  -179.119	   -52.545
-20173.549	    15.532	  -171.597	   -41.640
-20324.619	    15.289	   172.075	   -54.749
-20488.314	    15.114	  -179.872	   -35.735
-20209.594	    15.212	   174.577	   -46.063
-20398.803	    15.429	   177.629	   -35.193
-20276.926	    15.636	   166.776	   -42.967
-20180.338	    15.801	   163.475	   -46.209
-20003.002	    15.853	  -177.131	   -47.778
-20194.611	    15.808	  -171.498	   -34.750
-20143.914	    15.686	   170.799	   -52.172
-20043.338	    15.567	   171.700	   -46.189
-20281.693	    15.436	   171.058	   -50.552
-20112.656	    15.430	  -179.525	   -34.805
-20065.875	    15.559	  -169.979	   -40.399
-20249.998	    15.649	   173.371	   -34.024
-20158.434	    15.646	  -174.698	   -54.930
-20332.256	    15.511	   178.790	   -31.812
-20234.445	    15.435	  -178.661	   -41.865
-20101.957	    15.509	   178.258	   -38.392
-19765.625	    15.727	  -169.378	   -55.897
-19980.678	    15.787	   177.587	   -49.246
-20065.938	    15.649	  -176.924	   -55.591
-20047.168	    15.367	   178.862	   -38.248
-20191.557	    15.140	   179.604	   -32.284
-20219.279	    15.156	  -172.815	   -49.608
-20110.049	    15.233	   178.341	   -35.479
-20245.260	    15.347	  -167.274	   -65.606
-20127.326	    15.490	  -162.600	   -37.661
-20152.707	    15.456	   179.228	   -44.832
-20047.135	    15.342	  -175.565	   -36.695
-20062.643	    15.369	  -169.086	   -47.787
-20239.777	    15.383	   179.084	   -31.169
-19861.826	    15.477	   170.285	   -36.215
-20072.229	    15.597	   175.925	   -41.388
-20308.264	    15.567	  -174.074	   -54.372
-20216.553	    15.455	  -177.011	   -23.433
-20497.641	    15.232	   172.711	   -59.714
-20590.037	    15.097	  -176.489	   -57.796
-20148.508	    15.194	  -171.665	   -44.741
-20038.021	    15.298	   175.211	   -36.146
-20067.244	    15.407	  -176.247	   -41.248
-20050.729	    15.418	  -170.010	   -58.038
-20082.623	    15.452	   179.875	   -47.763
-20253.285	    15.533	   173.727	   -30.585
-20088.852	    15.671	  -179.276	   -42.467
-19932.928	    15.773	  -165.932	   -44.703
-20023.131	    15.827	  -177.855	   -33.512
-20090.625	    15.766	  -175.028	   -50.123
-20121.170	    15.612	  -175.583	   -33.486
-19851.529	    15.534	  -172.741	   -45.466
-20063.314	    15.519	  -168.089	   -29.138
-19984.473	    15.569	  -177.756	   -36.290
-20075.539	    15.526	  -155.451	   -40.709
-20228.779	    15.434	   173.031	   -38.832
-20269.967	    15.277	   178.302	   -45.793
-20139.475	    15.229	   178.718	   -28.658
-20488.395	    15.333	  -169.601	   -46.699
-20042.539	    15.531	  -169.573	   -45.220
-20294.844	    15.575	   175.981	   -34.258
-20239.551	    15.474	   173.818	   -49.850
-20016.355	    15.287	  -178.480	   -48.474
-20402.670	    15.116	  -168.326	   -46.379
-20322.834	    15.134	  -175.956	   -55.242
-20029.170	    15.298	  -177.031	   -59.244
-19853.438	    15.416	   178.180	   -30.270
-19821.246	    15.388	   175.354	   -20.638
-20393.910	    15.284	  -168.302	   -44.197
-20313.203	    15.306	   170.093	   -52.056
-20016.594	    15.381	  -170.377	   -39.468
-20251.113	    15.531	   177.249	   -37.887
-20445.525	    15.441	  -155.877	   -30.987
-20323.004	    15.411	   172.866	   -34.949
-20036.861	    15.589	  -179.588	   -40.846
-19907.822	    15.702	  -178.909	   -42.039
-20071.008	    15.569	  -177.867	   -32.216
-20159.346	    15.394	   179.508	   -43.051
-20206.143	    15.247	  -172.160	   -50.124
-20304.707	    15.320	   170.891	   -37.126
-20098.582	    15.550	  -178.460	   -44.169
-19869.719	    15.748	   171.474	   -31.213
-20069.475	    15.906	   171.840	   -38.228
-19794.375	    15.772	   173.789	   -61.053
-19974.594	    15.393	  -173.565	   -33.240
-20350.121	    15.198	  -168.684	   -55.557
-19939.697	    15.236	  -173.326	   -28.271
-19930.244	    15.366	   162.491	   -34.930
-20104.703	    15.512	   172.812	   -36.433
-20237.854	    15.513	   174.621	   -24.043
-19950.174	    15.351	   169.867	   -25.641
-20153.750	    15.071	   179.065	   -52.784
-20164.146	    14.989	  -176.600	   -47.734
-20247.531	    15.052	  -170.453	   -30.629
-20290.322	    15.232	   173.586	   -44.362
-20370.971	    15.409	   174.884	   -37.782
-20226.990	    15.548	   178.296	   -50.418
-20173.879	    15.610	  -166.958	   -35.735
-19974.404	    15.493	  -174.679	   -39.939
-20226.281	    15.366	   169.206	   -34.381
-20413.570	    15.331	   172.660	   -47.512
-20613.994	    15.372	   178.688	   -27.087
-20357.896	    15.459	   178.152	   -44.906
-19918.281	    15.622	   179.896	   -31.513
-20170.342	    15.805	  -168.798	   -35.263
-20005.932	    15.651	  -177.291	   -42.892
-20104.217	    15.326	  -165.222	   -28.056
-20202.430	    15.080	   174.915	   -37.752
-20166.531	    14.985	  -174.109	   -40.349
-20550.861	    15.039	  -164.532	   -35.277
-20260.967	    15.237	   170.947	   -43.463
-19868.084	    15.458	  -176.053	   -49.254
-20008.145	    15.580	  -173.525	   -43.855
-19854.828	    15.542	   177.332	   -39.788
-20054.404	    15.525	  -171.660	   -41.631
-20248.119	    15.473	   176.262	   -26.245
-20387.803	    15.492	  -170.426	   -21.114
-19954.801	    15.462	  -178.054	   -44.725
-20165.258	    15.348	  -170.782	   -21.758
-20344.684	    15.204	   172.891	   -55.914
-20333.057	    15.193	   172.166	   -43.198
-20039.691	    15.275	   171.758	   -43.501
-20191.324	    15.308	   168.878	   -42.187
-20118.242	    15.396	  -166.546	   -51.252
-20288.352	    15.561	   168.986	   -48.396
-19915.539	    15.732	  -172.005	   -30.943
-20200.266	    15.751	   175.511	   -37.521
-19855.887	    15.639	  -177.077	   -46.699
-19987.811	    15.532	  -178.974	   -47.077
-20134.725	    15.422	   173.549	   -42.090
-20226.479	    15.324	   173.966	   -36.477
-20126.279	    15.285	   179.831	   -39.067
-20136.920	    15.243	   171.491	   -41.783
-20352.594	    15.225	   155.795	   -41.967
-20340.557	    15.292	    93.214	   -10.144
-20183.514	    15.407	    92.963	   -41.398
-20373.033	    15.396	    76.635	   -49.991
-20215.824	    15.379	    76.592	   -47.801
-20407.344	    15.343	    73.181	   -33.156
-20051.010	    15.310	    90.852	   -49.872
-20150.395	    15.138	    97.088	   -51.097
-20124.176	    15.072	    86.998	   -40.753
-20332.014	    15.177	    84.248	   -37.678
-20080.180	    15.465	    84.041	   -45.613
-20218.539	    15.790	    84.033	   -59.666
-20052.412	    15.921	    67.846	   -51.891
-20028.385	    15.898	    88.215	   -56.052
-19871.410	    15.647	    67.389	   -38.490
-20311.389	    15.253	    78.841	   -37.748
-20178.508	    15.081	    76.466	   -46.455
-20341.617	    15.086	    76.909	   -45.695
-20453.693	    15.339	    82.534	   -39.001
-20067.895	    15.696	    76.265	   -41.551
-19788.070	    15.945	    81.650	   -45.818
-20029.172	    15.956	    83.648	   -49.073
-20027.848	    15.832	    79.242	   -37.532
-20481.721	    15.493	    84.416	   -23.172
-20257.141	    15.180	    77.621	   -48.880
-20374.578	    15.131	    73.189	   -52.328
-20238.609	    15.244	    89.449	   -51.033
-20203.693	    15.321	    88.407	   -49.856
-20163.254	    15.289	    80.052	   -51.963
-20091.496	    15.194	    76.710	   -30.835
-20255.818	    15.136	    77.838	   -37.474
-20323.717	    15.128	    83.962	   -15.895
-20183.100	    15.229	    80.045	   -44.051
-20321.461	    15.416	    78.671	   -40.910
-20274.023	    15.569	    87.624	   -58.661
-19953.477	    15.651	    70.725	   -46.756
-19979.162	    15.550	    81.148	   -55.342
-20331.695	    15.370	    85.280	   -46.787
-20314.670	    15.224	    66.668	    -6.390
-20256.871	    15.170	    78.810	   -41.691
-20190.785	    15.272	    72.696	   -29.323
-20368.793	    15.440	    86.167	   -40.365
-19965.734	    15.567	    77.828	   -55.455
-20165.529	    15.577	    78.125	   -65.684
-20196.424	    15.439	    80.819	   -52.232
-20365.328	    15.223	    76.861	   -39.127
-20165.479	    15.251	    78.732	   -33.975
-20051.119	    15.457	    67.851	   -37.525
-20162.986	    15.680	    80.275	   -38.922
-20167.758	    15.827	    77.646	   -44.422
-19961.723	    15.909	    84.712	   -45.072
-20059.125	    15.946	    82.159	   -31.433
-20090.023	    15.873	    75.933	   -31.884
-19993.971	    15.747	    69.330	   -35.423
-20122.582	    15.581	    72.592	   -38.171
-20155.896	    15.451	    79.570	   -47.758
-20104.174	    15.409	    79.820	   -52.993
-19856.207	    15.462	    77.641	   -54.529
-20186.439	    15.531	    86.644	   -39.576
-20043.010	    15.556	    93.984	   -50.671
-20253.672	    15.418	    81.890	   -39.277
-20074.826	    15.254	    87.097	   -13.062
-19948.998	    15.259	    89.479	   -18.882
-20139.305	    15.324	    91.050	   -46.660
-19981.943	    15.261	   109.373	   -43.939
-20210.648	    15.253	    84.288	   -50.922
-20210.236	    15.402	    98.303	   -57.732
-20140.385	    15.666	    70.540	   -49.179
-20023.943	    16.000	    82.251	   -61.388
-20024.451	    16.160	    76.711	   -64.314
-20245.912	    16.195	    68.320	   -35.039
-20146.137	    15.924	    85.871	   -34.404
-20137.527	    15.665	    86.871	   -42.785
-20124.705	    15.413	    75.187	   -38.089
-20130.807	    15.143	    76.045	   -62.866
-19914.389	    15.050	    85.267	   -47.335
-20123.807	    15.139	    81.175	   -47.698
-20261.273	    15.296	    92.660	   -58.006
-20357.338	    15.471	    81.626	   -39.147
-20036.260	    15.677	    77.274	   -50.996
-19970.832	    15.814	    80.732	   -19.317
-20063.734	    15.794	    75.469	    -8.708
-20040.188	    15.697	    77.619	   -16.429
-19907.443	    15.466	    83.092	   -30.337
-20161.184	    15.233	    69.299	   -35.798
-20238.955	    15.113	    91.339	   -11.062
-20167.631	    15.109	    78.604	   -20.069
-20027.404	    15.287	    81.685	   -54.307
-20069.023	    15.472	    71.379	   -56.500
-19949.939	    15.552	    85.314	   -43.279
-19964.979	    15.471	    73.956	   -36.823
-20280.986	    15.355	    84.843	   -18.739
-20193.109	    15.292	    81.847	   -24.288
-20045.357	    15.311	    80.581	   -32.020
-20429.998	    15.345	    68.022	   -34.889
-20285.549	    15.496	    82.098	   -29.980
-20154.000	    15.554	    81.234	   -46.384
-20434.430	    15.621	    78.496	   -50.068
-20010.090	    15.739	    91.846	   -51.715
-20162.898	    15.651	    77.172	   -39.525
-20335.049	    15.399	    72.290	   -30.069
-20256.682	    15.248	    77.168	   -30.890
-19999.906	    15.145	    80.840	   -31.568
-20360.742	    15.046	    84.791	   -41.619
-20380.203	    15.143	    77.634	   -35.600
-20223.467	    15.311	    76.329	   -28.147
-20087.289	    15.485	    95.732	   -14.941
-20036.350	    15.532	    80.455	   -40.965
-20068.354	    15.413	    78.853	   -53.574
-19946.943	    15.275	    76.955	   -43.287
-20348.359	    15.179	    78.529	   -57.281
-20233.348	    15.306	    79.292	   -54.609
-20001.523	    15.408	    69.812	   -31.544
-19947.549	    15.434	    72.687	   -27.834
-20043.916	    15.357	    78.707	   -29.436
-20172.666	    15.329	    84.562	   -36.552
-19879.137	    15.348	    77.491	   -55.973
-19842.441	    15.348	    79.213	   -39.450
-20136.521	    15.381	    84.458	   -35.593
-20308.469	    15.369	    84.685	   -32.456
-20079.857	    15.362	    71.187	   -29.656
-20018.422	    15.502	    83.676	   -33.254
-19953.236	    15.626	    76.256	   -45.245
-19900.639	    15.588	    75.054	   -55.216
-19901.494	    15.697	    71.545	   -59.385
-20021.707	    15.826	    72.504	   -38.506
-19977.611	    15.736	    73.905	   -34.538
-20029.055	    15.435	    77.291	   -36.340
-20235.160	    15.385	    71.990	   -50.292
-20176.783	    15.547	    75.997	   -47.795
-20095.348	    15.719	    74.643	   -44.144
-20251.473	    15.634	    92.945	   -33.925
-20171.557	    15.405	    98.150	   -47.161
-20189.658	    15.246	    90.666	   -59.898
-20127.697	    15.252	    82.964	   -52.139
-20082.822	    15.374	    77.045	   -40.123
-20124.816	    15.381	    80.784	   -55.683
-20358.279	    15.382	    77.585	   -51.510
-20384.607	    15.339	    86.397	   -42.676
-20188.900	    15.190	    69.274	   -40.378
-20299.549	    15.187	    75.954	   -37.141
-19970.188	    15.317	    79.220	   -41.828
-19956.711	    15.411	    92.466	   -50.196
-20017.123	    15.477	    80.421	   -43.554
-20305.328	    15.436	    89.748	   -33.308
-20174.416	    15.370	    85.931	   -30.055
-20362.818	    15.289	    71.980	   -18.193
-20310.004	    15.265	    83.137	   -23.911
-20451.689	    15.259	    78.040	   -22.774
-20057.902	    15.290	    96.443	   -43.965
-20205.303	    15.379	    77.233	   -17.255
-20268.578	    15.485	    78.528	   -48.005
-20087.535	    15.535	    82.578	   -49.438
-19925.295	    15.569	    81.439	   -23.619
-19994.832	    15.487	    70.245	   -46.604
-20152.717	    15.407	    67.799	   -38.005
-20332.787	    15.261	    80.636	   -31.626
-20198.055	    15.195	    75.321	   -38.859
-20052.502	    15.277	    78.960	   -40.270
-20164.723	    15.320	    78.344	   -45.933
-20158.383	    15.344	    71.152	   -42.339
-19960.416	    15.430	    74.227	   -43.738
-20267.916	    15.526	    79.113	   -41.045
-20021.494	    15.596	    94.798	   -34.647
-19930.127	    15.674	    79.895	   -38.368
-20245.365	    15.533	    71.335	   -26.205
-20060.172	    15.321	    77.180	   -53.780
-20283.643	    15.162	    75.511	   -35.013
-19715.533	    15.187	    85.857	   -37.962
-20155.254	    15.348	    80.558	   -33.607
-20086.986	    15.527	    92.098	   -47.776
-19948.773	    15.628	    82.395	   -43.472
-19763.121	    15.623	    80.588	   -46.934
-20072.803	    15.509	    77.642	   -54.331
-20173.221	    15.481	    81.530	   -39.131
-20200.703	    15.520	    84.756	   -44.424
-20168.854	    15.496	    77.355	   -60.349
-19858.842	    15.489	    86.218	   -53.089
-20171.883	    15.455	    80.969	   -56.349
-20243.588	    15.487	    73.875	   -41.315
-20210.867	    15.612	    78.075	   -34.987
-20028.572	    15.614	    77.238	   -49.971
-20045.225	    15.577	    77.547	   -38.261
-20234.135	    15.492	    69.071	   -28.218
-20152.160	    15.425	    76.613	   -51.542
-20175.512	    15.475	    72.250	   -46.795
-20365.779	    15.430	    76.065	   -37.892
-20355.688	    15.479	    92.028	   -27.604
-20093.877	    15.628	    74.131	   -14.338
-19920.074	    15.596	    94.641	   -35.228
-20002.205	    15.563	    79.676	   -38.790
-19930.285	    15.631	    82.774	   -28.679
-20166.807	    15.639	    83.897	   -18.573
-20052.881	    15.622	    87.682	   -20.193
-20074.021	    15.563	    90.729	   -22.770
-20131.064	    15.447	    90.343	   -16.031
-20345.807	    15.250	    86.122	   -42.973
-20347.514	    15.095	    70.720	   -33.903
-20293.963	    15.046	    77.500	   -52.902
-20161.949	    15.079	    84.435	   -39.334
-20106.662	    15.280	    75.239	   -34.572
-20072.930	    15.566	    71.440	   -64.413
-19894.545	    15.799	    79.203	   -65.588
-19885.914	    15.928	    74.249	   -61.243
-20115.631	    15.858	    76.687	   -39.067
-19970.918	    15.783	    81.528	   -52.554
-20257.053	    15.651	    75.467	   -53.186
-20060.568	    15.530	    76.927	   -49.560
-20306.004	    15.591	    82.439	   -42.940
-20118.080	    15.716	    85.426	   -42.205
-19730.361	    15.832	    83.565	   -62.635
-19880.840	    15.723	    80.456	   -45.416
-19777.508	    15.557	    81.715	   -44.342
-20100.520	    15.483	    86.401	   -51.743
-19934.141	    15.431	    62.876	   -39.502
-20363.947	    15.425	    84.376	   -33.016
-20179.551	    15.333	    90.843	   -38.708
-20148.201	    15.339	    80.039	   -36.986
-20142.105	    15.542	    76.019	   -41.245
-20127.883	    15.707	    72.212	   -40.397
-20092.848	    15.602	    83.736	   -28.991
-19988.180	    15.486	    79.205	   -31.010
-20109.459	    15.498	    83.775	   -54.053
-19947.189	    15.620	    71.776	   -31.685
-20030.230	    15.687	    76.668	   -42.197
-20081.807	    15.644	    76.768	   -54.890
-20349.936	    15.461	    94.755	   -61.114
-20258.342	    15.468	    74.963	   -35.088
-20080.594	    15.516	    59.378	   -44.499
-20204.512	    15.590	    90.557	   -56.096
-20024.506	    15.747	    80.802	   -44.207
-19963.961	    15.820	    72.487	   -19.388
-19981.104	    15.668	    81.958	   -35.477
-20136.105	    15.435	    77.445	   -64.309
-20211.221	    15.296	    89.849	   -41.342
-20224.443	    15.349	    81.339	   -42.841
-20138.633	    15.486	    79.475	   -43.212
-20104.609	    15.528	    81.213	   -50.837
-20233.910	    15.332	    90.379	   -45.436
-20145.326	    15.192	    73.428	   -29.042
-20189.484	    15.208	    76.302	   -33.983
-20376.725	    15.271	    71.247	   -46.903
-20101.301	    15.491	    84.203	   -46.227
-20113.312	    15.760	    85.373	   -36.747
-19849.732	    15.855	    93.123	   -31.141
-19919.912	    15.590	    88.739	   -47.825
-19973.354	    15.328	    74.168	   -43.817
-20021.963	    15.362	    81.099	   -42.321
-20034.553	    15.483	    72.353	   -46.819
-19912.863	    15.519	    63.115	   -30.653
-20031.932	    15.526	    85.225	   -34.229
-20092.910	    15.461	    85.954	   -32.475
-20306.996	    15.411	    79.378	   -15.897
-20142.039	    15.399	    83.297	   -45.867
-20071.383	    15.332	    77.318	   -66.670
-20198.418	    15.221	    99.838	   -39.060
-20194.146	    15.228	    87.276	   -35.706
-20266.393	    15.489	    85.368	   -47.160
-19953.660	    15.786	    87.623	   -48.441
-20056.760	    15.908	    82.564	   -47.020
-20064.770	    15.876	    72.107	   -49.870
-19956.500	    15.763	    79.933	   -38.190
-20057.449	    15.462	    89.530	   -33.549
-20230.621	    15.125	    73.426	   -41.772
-20405.322	    15.030	    78.370	   -53.181
-20215.305	    15.265	    80.682	   -44.452
-20344.420	    15.629	    84.896	   -61.566
-20096.094	    15.874	    81.060	   -58.550
-20047.391	    15.982	    80.689	   -46.934
-20064.764	    15.950	    76.925	   -45.224
-19852.885	    15.844	    81.090	   -43.583
-19700.227	    15.764	    80.295	   -35.473
-19881.588	    15.680	    72.823	   -42.616
-20072.408	    15.500	    80.987	   -69.744
-20139.061	    15.481	    78.716	   -36.660
-20297.828	    15.551	    79.548	   -42.304
-20022.141	    15.643	    84.737	   -44.309
-19986.686	    15.567	    72.059	   -48.090
-20218.330	    15.456	    81.195	   -36.135
-19999.525	    15.415	    87.563	   -42.927
-19944.977	    15.589	    68.677	   -59.730
-19924.383	    15.721	    72.448	   -41.087
-19840.301	    15.755	    74.502	   -51.450
-19782.383	    15.562	    76.493	   -50.812
-20280.805	    15.317	    78.752	   -31.981
-20268.586	    15.292	    78.030	   -30.826
-20163.332	    15.434	    91.547	   -38.737
-20095.752	    15.576	    82.937	   -41.782
-20039.191	    15.644	    74.254	   -51.380
-20247.617	    15.636	    73.228	   -42.467
-20185.934	    15.535	    75.016	   -41.105
-20124.250	    15.381	    78.150	   -51.430
-20010.650	    15.215	    75.005	   -35.755
-20369.467	    15.139	    71.254	   -59.542
-20056.014	    15.228	    86.470	   -55.120
-19916.482	    15.299	    74.087	   -41.661
-20192.201	    15.437	    82.475	   -49.874
-20072.262	    15.589	    87.728	   -29.036
-20049.613	    15.631	    86.648	   -35.744
-19951.002	    15.627	    73.747	   -30.714
-20212.701	    15.441	    83.415	   -31.915
-20019.686	    15.188	    66.251	   -17.903
-20353.586	    15.059	    66.120	   -21.809
-20306.414	    15.195	    86.102	   -44.367
-19764.170	    15.475	    75.902	   -27.726
-19845.912	    15.680	    85.303	   -37.439
-20094.064	    15.609	    75.352	   -35.735
-20149.346	    15.396	    80.326	   -26.351
-20476.252	    15.115	    78.680	   -73.686
-20067.055	    15.081	    84.146	   -33.855
-20248.156	    15.328	    77.324	   -37.823
-20118.463	    15.539	    96.244	   -51.891
