-20088.279	    15.334	   -92.310	   122.143
-20130.941	    15.385	   -64.211	   140.786
-20429.162	    15.436	   -59.488	   124.510
-20418.340	    15.576	   -58.168	   145.484
-20274.623	    15.676	   -54.510	   131.233
-19959.361	    15.739	   -61.001	   121.914
-20003.756	    15.624	   -54.491	   155.294
-20438.908	    15.394	   -68.653	   144.327
-20175.453	    15.174	   -69.386	   139.609
-20212.355	    15.039	   -72.843	   138.374
-20225.729	    15.120	   -70.706	   148.182
-20014.768	    15.351	   -54.520	   138.433
-20257.127	    15.577	   -53.154	   143.482
-20029.854	    15.663	   -73.906	   135.498
-20076.141	    15.656	   -61.115	   126.796
-20218.492	    15.477	   -68.502	   140.424
-20367.736	    15.321	   -54.088	   132.834
-20338.248	    15.324	   -68.068	   135.124
-20023.311	    15.403	   -57.370	   126.770
-20222.066	    15.324	   -57.021	   139.152
-20146.125	    15.342	   -76.845	   147.650
-20142.986	    15.440	   -52.815	   135.231
-20148.143	    15.489	   -66.208	   135.120
-20160.510	    15.465	   -66.120	   138.413
-20448.756	    15.268	   -62.652	   134.905
-20236.170	    15.155	   -75.767	   132.693
-20103.863	    15.168	   -50.793	   129.569
-20114.906	    15.206	   -62.790	   142.515
-20323.557	    15.202	   -55.460	   145.504
-20388.299	    15.205	   -59.188	   135.234
-20045.355	    15.319	   -62.106	   134.657
-19978.811	    15.418	   -57.846	   137.540
-20362.680	    15.412	   -59.395	   142.677
-20318.332	    15.406	   -70.093	   129.554
-20258.303	    15.399	   -54.758	   129.295
-20293.213	    15.490	   -61.980	   142.919
-20136.396	    15.502	   -59.166	   138.531
-19852.350	    15.487	   -70.915	   118.608
-20415.867	    15.507	   -54.133	   148.401
-20079.857	    15.576	   -68.326	   141.436
-20165.551	    15.422	   -65.148	   145.002
-20331.393	    15.184	   -70.186	   137.603
-20252.959	    15.079	   -54.573	   140.851
-20053.516	    15.207	   -62.230	   128.444
-19975.750	    15.442	   -57.280	   141.852
-20098.068	    15.664	   -62.983	   133.076
-19882.027	    15.807	   -55.598	   131.933
-20043.609	    15.801	   -52.571	   131.254
-19977.520	    15.587	   -66.912	   132.980
-19931.984	    15.352	   -69.362	   125.351
-20186.301	    15.227	   -50.542	   127.137
-20293.629	    15.320	   -34.429	   134.454
-20193.197	    15.512	   -58.972	   136.282
-19769.125	    15.508	   -52.607	   133.850
-20258.295	    15.405	   -67.500	   138.423
-20120.891	    15.287	   -47.545	   139.887
-20209.170	    15.137	   -65.355	   139.823
-20079.441	    15.126	   -41.791	   138.210
-20140.920	    15.156	   -35.273	   129.969
-20335.221	    15.186	   -62.762	   140.961
-20286.566	    15.276	   -62.221	   136.308
-20177.225	    15.371	   -59.673	   132.847
-20016.311	    15.358	   -61.653	   127.156
-20150.824	    15.468	   -79.273	   144.495
-20305.732	    15.498	   -58.200	   136.598
-20241.062	    15.486	   -67.434	   143.632
-20194.516	    15.428	   -53.524	   142.482
-20248.373	    15.342	   -72.560	   141.070
-20248.801	    15.289	   -51.879	   139.678
-20345.369	    15.332	   -47.455	   134.748
-20490.268	    15.376	   -56.325	   150.988
-20416.670	    15.325	   -58.970	   134.796
-20150.445	    15.356	   -51.651	   156.405
-20064.502	    15.455	   -54.847	   147.266
-20010.969	    15.427	   -52.338	   148.377
-20204.457	    15.398	   -71.372	   144.214
-20309.215	    15.383	   -70.378	   130.417
-20101.422	    15.350	   -84.615	   137.881
-20341.641	    15.327	   -55.905	   146.467
-20115.139	    15.319	   -60.036	   133.072
-20173.158	    15.442	   -48.353	   122.116
-20249.451	    15.666	   -76.256	   142.865
-20295.922	    15.767	   -77.897	   119.479
-20342.938	    15.782	   -67.429	   138.182
-20161.566	    15.633	   -48.661	   142.272
-20305.336	    15.426	   -65.251	   146.733
-20221.383	    15.298	   -68.838	   148.497
-20011.221	    15.241	   -64.602	   134.486
-20121.365	    15.256	   -57.488	   141.674
-20170.818	    15.290	   -63.316	   132.962
-20172.709	    15.400	   -57.488	   136.758
-20142.590	    15.403	   -55.391	   149.530
-19996.434	    15.465	   -64.424	   128.114
-20142.779	    15.545	   -57.806	   149.592
-20123.438	    15.626	   -64.932	   121.155
-20164.711	    15.751	   -51.538	   127.628
-20107.322	    15.838	   -61.784	   147.593
-19984.027	    15.668	   -71.260	   142.825
-20108.377	    15.475	   -64.064	   124.591
-20135.072	    15.345	   -54.392	   110.171
-20293.553	    15.299	   -60.880	   120.183
-20343.965	    15.361	   -61.632	   134.976
-20071.770	    15.483	   -71.622	   127.446
-20323.369	    15.470	   -47.797	   148.364
-20128.963	    15.291	   -73.384	   141.851
-20314.242	    15.139	   -61.496	   145.205
-20111.301	    15.169	   -62.289	   128.349
-20387.410	    15.245	   -58.340	   133.569
-20310.676	    15.237	   -48.247	   137.000
-20286.803	    15.325	   -64.803	   109.928
-20060.879	    15.497	   -76.528	   150.557
-20232.545	    15.723	   -66.330	   139.936
-19894.135	    15.837	   -39.455	   133.144
-19990.398	    15.743	   -62.759	   129.578
-20068.850	    15.490	   -57.396	   136.617
-19957.361	    15.211	   -53.259	   133.862
-20386.697	    15.009	   -62.884	   123.974
-20312.029	    15.010	   -51.325	   131.355
-20344.521	    15.112	   -45.646	   139.991
-20130.947	    15.330	   -59.230	   145.579
-20163.602	    15.502	   -69.632	   128.426
-20032.357	    15.616	   -58.859	   134.624
-19960.961	    15.587	   -59.365	   138.487
-19838.730	    15.570	   -43.099	   130.939
-20060.350	    15.602	   -59.554	   153.031
-20143.180	    15.574	   -53.352	   129.856
-20003.471	    15.524	   -61.583	   125.770
-20118.629	    15.338	   -71.139	   136.338
-20226.152	    15.096	   -43.831	   134.322
-20095.826	    15.027	   -52.460	   141.428
-20468.848	    15.218	   -64.502	   145.133
-20110.777	    15.471	   -44.849	   132.462
-20120.965	    15.633	   -52.032	   142.647
-19981.590	    15.735	   -69.510	   140.942
-20173.652	    15.562	   -61.150	   134.146
-20346.857	    15.350	   -60.085	   159.669
-20314.691	    15.287	   -67.213	   161.110
-20169.945	    15.316	   -52.961	   130.822
-20271.023	    15.283	   -69.648	   147.249
-20151.688	    15.211	   -57.422	   127.428
-20240.047	    15.295	   -45.850	   127.407
-20081.572	    15.413	   -57.826	   134.659
-20066.951	    15.567	   -78.052	   161.935
-20106.125	    15.635	   -71.090	   152.244
-19986.066	    15.565	   -55.989	   126.255
-20318.539	    15.465	   -54.039	   129.241
-20523.014	    15.333	   -67.017	   128.981
-20358.920	    15.253	   -55.093	   129.373
-20276.635	    15.196	   -54.539	   139.304
-20260.436	    15.309	   -51.586	   132.587
-20443.482	    15.501	   -77.618	   137.396
-20130.150	    15.648	   -84.031	   142.819
-20167.904	    15.752	   -58.386	   138.361
-20200.557	    15.690	   -65.480	   131.851
-20095.654	    15.525	   -63.398	   112.352
-20177.982	    15.324	   -57.347	   131.451
-20386.910	    15.225	   -60.076	   140.629
-20329.680	    15.309	   -64.784	   132.722
-20104.926	    15.553	   -79.081	   127.742
-20197.842	    15.744	   -68.399	   147.027
-20153.035	    15.770	   -66.717	   146.834
-19950.410	    15.562	   -60.356	   146.616
-20039.848	    15.428	   -66.548	   138.452
-20187.885	    15.237	   -62.440	   143.446
-20358.141	    15.148	   -50.412	   118.941
-20308.551	    15.262	   -70.951	   148.756
-20064.338	    15.468	   -64.890	   142.635
-20214.523	    15.603	   -70.901	   128.354
-20195.777	    15.663	   -57.924	   140.351
-20287.465	    15.461	   -50.398	   138.536
-20228.588	    15.244	   -67.896	   122.944
-20403.807	    15.208	   -61.208	   124.136
-20167.688	    15.404	   -59.528	   119.624
-19986.199	    15.528	   -54.373	   132.673
-20096.549	    15.535	   -72.340	   133.908
-19793.066	    15.609	   -59.535	   126.660
-20252.062	    15.566	   -55.163	   133.833
-20104.262	    15.542	   -53.024	   130.856
-20372.170	    15.479	   -59.560	   134.485
-20367.309	    15.291	   -60.376	   138.286
-20098.334	    15.212	   -60.316	   148.553
-20253.834	    15.210	   -67.664	   147.426
-20598.479	    15.325	   -72.352	   159.527
-20301.145	    15.445	   -66.068	   136.889
-19822.629	    15.570	   -50.930	   119.140
-20259.920	    15.558	   -60.002	   135.635
-20317.852	    15.337	   -57.991	   128.154
-20064.732	    15.181	   -70.229	   124.624
-20280.949	    15.263	   -50.771	   139.423
-20335.295	    15.429	   -52.230	   151.140
-20155.699	    15.677	   -72.720	   118.987
-19867.041	    15.920	   -49.436	   130.379
-20306.033	    15.875	   -63.728	   130.105
-19958.602	    15.699	   -55.465	   137.480
-20344.283	    15.617	   -56.299	   144.730
-20336.404	    15.491	   -61.897	   134.567
-20208.721	    15.380	   -53.896	   123.693
-19904.391	    15.384	   -55.322	   148.288
-20016.539	    15.298	   -63.603	   147.746
-20424.617	    15.280	   -73.963	   164.086
-20349.463	    15.379	   -63.010	   144.828
-20508.816	    15.503	   -58.157	   144.392
-20219.570	    15.573	   -62.963	   131.536
-20071.719	    15.569	   -77.246	   121.736
-20168.020	    15.484	   -64.796	   129.062
-20206.084	    15.367	   -67.183	   146.484
-20068.438	    15.217	   -56.386	   127.233
-20386.566	    15.159	   -64.000	   137.393
-20304.711	    15.195	   -67.446	   117.834
-20145.619	    15.278	   -54.922	   128.045
-20305.512	    15.388	   -63.086	   133.680
-20018.623	    15.479	   -66.991	   141.143
-20351.818	    15.446	   -64.851	   127.050
-20195.973	    15.421	   -57.845	   133.895
-20422.873	    15.361	   -57.132	   131.815
-20496.848	    15.358	   -49.068	   142.260
-20258.582	    15.359	   -59.257	   150.059
-20153.953	    15.307	   -42.508	   133.089
-20291.738	    15.311	   -74.473	   143.461
-20129.500	    15.478	   -57.149	   136.682
-20208.133	    15.554	   -56.202	   136.765
-20221.254	    15.541	   -58.311	   129.894
-20310.527	    15.498	   -39.080	   122.782
-20239.307	    15.595	   -51.923	   153.767
-20099.779	    15.794	   -43.176	   119.709
-20038.393	    15.844	   -64.865	   127.862
-19986.469	    15.726	   -48.260	   122.912
-20124.053	    15.467	   -64.046	   142.391
-20268.320	    15.249	   -50.736	   137.669
-20083.350	    15.199	   -49.087	   136.809
-20343.244	    15.234	   -64.656	   143.002
-20247.945	    15.365	   -64.255	   154.781
-20024.064	    15.354	   -55.798	   157.317
-20352.213	    15.247	   -63.654	   152.085
-19936.771	    15.376	   -46.104	   130.175
-20191.621	    15.452	   -58.547	   129.637
-19958.748	    15.495	   -52.917	   124.654
-20115.328	    15.515	   -61.272	   142.327
-20174.988	    15.538	   -49.373	   136.083
-19955.160	    15.497	   -60.868	   137.069
-20132.393	    15.332	   -55.014	   141.518
-20310.311	    15.135	   -65.736	   137.602
-20312.082	    15.083	   -44.644	   124.498
-20371.139	    15.242	   -57.374	   119.852
-20202.018	    15.364	   -48.981	   123.487
-20143.070	    15.464	   -78.744	   150.778
-20300.895	    15.670	   -57.828	   146.967
-20095.842	    15.763	   -66.949	   126.961
-20076.172	    15.598	   -57.089	   141.519
-20371.508	    15.344	   -63.681	   131.513
-20354.900	    15.264	   -59.665	   139.006
-20126.785	    15.211	   -62.492	   155.773
-20118.816	    15.174	   -69.598	   144.200
-20522.146	    15.313	   -70.929	   121.472
-20296.275	    15.521	   -76.473	   139.971
-20347.273	    15.746	   -63.931	   124.308
-20051.051	    15.813	   -67.252	   155.503
-20149.732	    15.661	   -61.103	   148.273
-20098.205	    15.475	   -59.219	   135.981
-20364.123	    15.289	   -58.721	   148.365
-20268.604	    15.196	   -48.274	   136.631
-20332.041	    15.259	   -55.617	   119.779
-20035.965	    15.356	   -42.752	   115.507
-20235.830	    15.492	   -66.716	   145.891
-20153.787	    15.688	   -71.159	   132.128
-20084.777	    15.786	   -70.525	   135.714
-20000.055	    15.751	   -65.997	   154.339
-20137.701	    15.676	   -43.740	   136.428
-20041.615	    15.664	   -59.776	   140.537
-20061.994	    15.635	   -59.872	   149.218
-20133.189	    15.543	   -62.536	   139.581
-20129.969	    15.372	   -67.447	   128.756
-20425.367	    15.269	   -59.039	   142.834
-20368.965	    15.303	   -43.567	   139.797
-20389.035	    15.417	   -65.446	   127.644
-20177.270	    15.582	   -74.467	   124.904
-20032.873	    15.684	   -53.174	   144.950
-19991.887	    15.564	   -81.614	   144.837
-20184.600	    15.387	   -47.467	   135.689
-20136.412	    15.210	   -61.366	   131.007
-20389.051	    15.120	   -66.598	   147.429
-20292.762	    15.050	   -53.230	   133.951
-20339.945	    15.156	   -43.416	   140.956
-20114.459	    15.388	   -48.718	   145.622
-20318.223	    15.522	   -64.660	   151.494
-20336.592	    15.719	   -62.943	   148.046
-20168.971	    15.916	   -69.612	   133.634
-20144.498	    15.922	   -65.474	   134.384
-20301.643	    15.772	   -70.626	   143.807
-20200.439	    15.491	   -64.696	   134.094
-20129.109	    15.283	   -51.874	   148.139
-20421.268	    15.135	   -67.161	   141.894
-20410.084	    15.156	   -65.618	   137.942
-20203.887	    15.242	   -66.645	   145.282
-20143.629	    15.348	   -60.704	   129.979
-20099.547	    15.469	   -51.480	   136.819
-20233.977	    15.516	   -54.125	   144.922
-20230.506	    15.555	   -54.704	   143.532
-20159.541	    15.578	   -50.008	   154.980
-20237.408	    15.418	   -55.463	   115.486
-20239.012	    15.248	   -49.900	   126.885
-20269.725	    15.252	   -60.171	   147.780
-20221.623	    15.350	   -71.631	   152.381
-20100.918	    15.479	   -35.068	   130.074
-20188.432	    15.411	   -54.967	   122.887
-20253.258	    15.320	   -82.783	   133.220
-20179.053	    15.278	   -74.216	   142.547
-20289.145	    15.335	   -61.423	   154.369
-19973.676	    15.435	   -53.186	   137.138
-20005.377	    15.594	   -54.352	   141.599
-20156.801	    15.578	   -56.631	   125.157
-20044.605	    15.487	   -64.122	   137.874
-20354.029	    15.362	   -61.036	   141.088
-20391.580	    15.257	   -62.697	   132.601
-20550.209	    15.233	   -81.473	   144.250
-20406.430	    15.388	   -48.789	   139.605
-19937.543	    15.567	   -54.402	   140.220
-20045.877	    15.600	   -54.691	   143.138
-20091.082	    15.550	   -66.000	   136.327
-20299.537	    15.524	   -54.799	   130.787
-20322.518	    15.521	   -70.017	   140.220
-20078.059	    15.511	   -66.498	   139.474
-20347.264	    15.428	   -52.584	   121.458
-20323.014	    15.329	   -42.908	   145.138
-19988.070	    15.385	   -69.810	   154.108
-20125.764	    15.509	   -53.126	   141.193
-20137.641	    15.645	   -61.657	   132.516
-20153.162	    15.733	   -63.268	   128.879
-19862.234	    15.672	   -52.968	   125.253
-20238.029	    15.570	   -58.206	   144.724
-20074.260	    15.527	   -57.063	   135.565
-20215.773	    15.427	   -60.226	   138.983
-20345.154	    15.398	   -51.574	   131.917
-20161.820	    15.533	   -59.192	   135.421
-19992.502	    15.637	   -53.818	   142.047
-20145.492	    15.610	   -64.288	   129.595
-20353.348	    15.360	   -76.725	   130.113
-20059.719	    15.210	   -61.877	   144.940
-20143.559	    15.324	   -58.545	   136.547
-20075.207	    15.573	   -69.756	   142.721
-20175.727	    15.703	   -46.760	   134.246
-20227.328	    15.657	   -53.423	   151.991
-20187.227	    15.438	   -73.489	   153.750
-20152.609	    15.159	   -63.166	   143.445
-20207.215	    15.064	   -60.536	   134.236
-20267.135	    15.180	   -50.358	   135.486
-19821.936	    15.462	   -66.082	   154.609
-20195.121	    15.661	   -72.706	   152.422
-20052.430	    15.749	   -57.577	   130.460
-19999.500	    15.743	   -62.971	   140.260
-20325.527	    15.627	   -57.353	   138.712
-20219.912	    15.407	   -65.471	   133.287
-20348.217	    15.328	   -52.550	   134.896
-20060.568	    15.330	   -56.279	   137.239
-20311.230	    15.357	   -46.026	   137.227
-20294.016	    15.346	   -66.837	   138.185
-20167.498	    15.360	   -71.597	   126.712
-20119.541	    15.442	   -55.512	   124.047
-19769.797	    15.475	   -51.825	   138.449
-19915.539	    15.471	   -48.381	   148.212
-20284.393	    15.516	   -58.395	   124.623
-19965.246	    15.602	   -49.011	   134.790
-20066.154	    15.530	   -69.254	   140.421
-20126.334	    15.491	   -68.730	   142.090
-19999.312	    15.459	   -60.160	   153.163
-20325.338	    15.372	   -59.659	   131.993
-20129.855	    15.338	   -70.376	   129.079
-19860.057	    15.405	   -58.862	   127.686
-20006.496	    15.461	   -75.568	   144.816
-20159.518	    15.400	   -74.603	   135.964
-20356.918	    15.286	   -86.717	   148.800
-20245.703	    15.263	   -52.859	   137.320
-20119.461	    15.214	   -66.470	   129.268
-20186.867	    15.218	   -48.931	   141.946
-20079.215	    15.224	   -63.066	   141.486
-20368.105	    15.304	   -53.165	   126.835
-20085.328	    15.421	   -58.560	   150.684
-20468.883	    15.612	   -57.294	   145.018
-20059.100	    15.637	   -64.595	   111.108
-20226.176	    15.520	   -76.435	   150.299
-20164.998	    15.345	   -63.633	   158.788
-20392.162	    15.269	   -61.275	   165.483
-20221.303	    15.364	   -68.342	   166.875
-19983.549	    15.435	   -56.142	   158.818
-20296.674	    15.494	   -55.152	   130.468
-20407.141	    15.571	   -66.558	   135.399
-19956.074	    15.715	   -56.281	   124.914
-20176.160	    15.745	   -78.249	   132.719
-20282.527	    15.779	   -61.074	   135.330
-20204.125	    15.785	   -77.458	   145.526
-20251.678	    15.636	   -71.944	   117.938
-20174.486	    15.396	   -73.088	   133.911
-20505.408	    15.305	   -62.723	   123.463
-20247.303	    15.424	   -77.089	   146.020
-20003.795	    15.483	   -70.043	   137.922
-20143.250	    15.552	   -48.536	   139.993
-20128.258	    15.501	   -64.182	   123.905
-20165.777	    15.478	   -67.878	   144.669
-20123.209	    15.345	   -54.761	   121.000
-20215.707	    15.200	   -57.220	   140.408
-20336.996	    15.054	   -68.888	   125.461
-20384.961	    15.053	   -70.286	   147.744
-20164.123	    15.147	   -54.932	   140.151
-20356.877	    15.225	   -38.089	   144.481
-20245.432	    15.241	   -54.855	   147.651
-20229.652	    15.302	   -74.471	   153.670
-19966.445	    15.443	   -66.783	   151.066
-19874.027	    15.541	   -34.179	   139.347
-20362.410	    15.544	   -43.988	   129.734
-19978.523	    15.523	   -54.934	   135.236
-20095.135	    15.442	   -64.633	   142.853
-20210.469	    15.386	   -67.207	   123.632
-20279.941	    15.298	   -61.762	   126.305
-20286.715	    15.285	   -70.811	   118.577
-20071.072	    15.406	   -67.595	   122.820
-20121.119	    15.529	   -53.029	   147.208
-20083.746	    15.599	   -51.165	   142.819
-20180.715	    15.566	   -73.870	   142.668
-20139.350	    15.407	   -66.372	   126.054
-20105.941	    15.340	   -66.300	   123.373
-20164.268	    15.416	   -55.045	   136.531
-20003.566	    15.407	   -67.328	   138.704
-20050.479	    15.371	   -68.449	   140.744
-20027.924	    15.279	   -58.730	   129.432
-20397.041	    15.166	   -59.048	   147.202
-20428.252	    15.180	   -52.596	   129.867
-20105.334	    15.293	   -57.518	   134.087
-20086.285	    15.373	   -54.823	   143.190
-20461.562	    15.416	   -64.870	   144.116
-20311.705	    15.542	   -48.222	   148.028
-20042.242	    15.691	   -48.345	   141.474
-20437.354	    15.758	   -62.423	   130.279
-20101.469	    15.818	   -60.398	   129.444
-20232.516	    15.748	   -37.901	   145.821
-20224.119	    15.595	   -64.646	   135.446
-20200.188	    15.393	   -66.824	   141.605
-20354.209	    15.291	   -52.080	   113.730
-20223.225	    15.227	   -77.290	   142.380
-19859.855	    15.297	   -39.171	   119.306
-20072.754	    15.309	   -69.350	   150.263
-20109.613	    15.308	   -70.924	   144.208
-20005.695	    15.450	   -78.036	   152.736
-20065.807	    15.452	   -66.648	   156.623
-20184.486	    15.515	   -56.811	   129.399
-20036.037	    15.544	   -55.856	   121.725
-20175.256	    15.444	   -61.419	   138.413
-20382.031	    15.292	   -54.167	   149.102
-20298.051	    15.208	   -61.412	   125.380
-20482.527	    15.208	   -55.082	   137.126
-20086.668	    15.322	   -75.866	   138.209
-20036.506	    15.410	   -55.423	   110.609
-20126.000	    15.455	   -58.979	   145.908
-20099.656	    15.366	   -75.254	   140.605
-20092.859	    15.278	   -45.937	   132.188
-20596.926	    15.354	   -70.634	   146.178
-19912.459	    15.502	   -57.374	   132.237
-20165.197	    15.594	   -54.379	   121.120
-20226.393	    15.534	   -62.538	   133.182
-19810.100	    15.430	   -56.660	   122.285
-20339.383	    15.381	   -42.393	   130.645
-20457.932	    15.342	   -57.130	   134.817
-20187.447	    15.331	   -60.326	   119.707
-20192.797	    15.450	   -63.879	   138.521
-20044.521	    15.541	   -56.472	   125.141
-20148.754	    15.422	   -52.708	   138.721
-20301.217	    15.269	   -69.078	   151.230
-20555.488	    15.087	   -63.781	   132.316
-20153.404	    15.110	   -52.558	   148.333
-19964.320	    15.248	   -52.979	   133.429
-20255.262	    15.509	   -61.603	   134.423
-20026.309	    15.610	   -53.522	   124.322
-20200.221	    15.565	   -68.584	   121.176
-20432.840	    15.494	   -58.207	   128.334
-20234.244	    15.464	   -66.370	   133.708
-20200.887	    15.436	   -48.238	   132.033
-20087.760	    15.492	   -55.048	   140.851
-20350.273	    15.526	   -65.600	   141.945
-20058.197	    15.497	   -57.149	   128.076
-20153.535	    15.384	   -46.195	   129.702
-20096.330	    15.330	   -86.541	   144.172
-20345.820	    15.279	   -60.143	   129.693
-20235.316	    15.238	   -67.582	   120.200
-20317.639	    15.247	   -58.017	   121.810
-20224.197	    15.284	   -59.518	   116.251
-20045.895	    15.265	   -61.415	   105.081
-20038.348	    15.378	   -60.932	   118.224
-20061.262	    15.546	   -52.305	   131.690
-19943.234	    15.555	   -65.349	   134.218
-20237.248	    15.547	   -52.115	   142.745
-20249.137	    15.592	   -63.736	   136.850
-20180.309	    15.582	   -69.464	   134.690
-20146.066	    15.402	   -66.518	   134.938
-20186.258	    15.090	   -63.718	   146.502
-20170.115	    14.918	   -61.601	   139.325
-20320.398	    14.875	   -48.390	   108.198
-20193.527	    15.138	   -57.853	   122.548
-20133.867	    15.463	   -71.108	   124.007
-19928.148	    15.609	   -55.112	   128.570
-19945.947	    15.651	   -71.443	   136.083
-19800.379	    15.760	   -66.052	   137.089
-19956.797	    15.730	   -54.347	   141.679
-20220.867	    15.582	   -57.427	   130.268
-20094.141	    15.501	   -54.685	   119.721
-20232.846	    15.325	   -77.091	   136.348
-20317.018	    15.279	   -55.364	   136.119
-20374.807	    15.364	   -67.815	   146.312
-20286.178	    15.491	   -57.948	   140.345
-20042.609	    15.528	   -66.596	   140.628
-20195.410	    15.495	   -51.688	   119.940
-20129.604	    15.315	   -44.718	   140.316
-20186.422	    15.172	   -56.310	   157.688
-19968.387	    15.247	   -56.585	   149.717
-20112.539	    15.282	   -59.347	   147.899
-20189.363	    15.289	   -47.381	   136.452
-20141.416	    15.302	   -69.659	   108.932
-20134.254	    15.378	   -66.576	   151.915
-20294.158	    15.428	   -53.176	   136.774
-20178.779	    15.394	   -57.763	   146.455
-20683.635	    15.233	   -72.193	   142.730
-20356.582	    15.181	   -59.156	   140.468
-20118.965	    15.393	   -51.238	   134.928
-20298.834	    15.531	   -56.203	   146.745
-20132.660	    15.535	   -55.352	   138.325
-20263.945	    15.403	   -64.567	   137.565
-20270.199	    15.325	   -64.653	   148.019
-20248.980	    15.306	   -56.989	   152.129
-20217.605	    15.337	   -50.856	   127.543
-20081.492	    15.364	   -65.009	   137.787
-20201.385	    15.467	   -62.503	   134.566
-20097.773	    15.603	   -57.420	   138.468
-20221.502	    15.620	   -68.452	   133.821
-20388.279	    15.494	   -49.122	   123.077
-20181.805	    15.454	   -44.729	   134.763
-20104.197	    15.459	   -52.049	   137.654
-20155.715	    15.491	   -55.840	   128.629
-20147.275	    15.440	   -58.986	   136.970
-20171.359	    15.384	   -54.739	   140.844
-20242.578	    15.352	   -66.139	   122.131
-20122.572	    15.290	   -66.083	   141.477
-20332.385	    15.308	   -58.118	   143.858
-20056.709	    15.344	   -56.553	   155.093
-20204.008	    15.347	   -66.790	   147.257
-20113.814	    15.404	   -52.517	   131.659
-20231.613	    15.363	   -67.054	   135.310
-20323.480	    15.253	   -53.181	   131.922
-20295.951	    15.138	   -54.552	   149.342
-20182.521	    15.153	   -69.405	   156.780
-20152.840	    15.329	   -59.755	   147.887
-20089.033	    15.603	   -60.541	   139.440
-20213.625	    15.780	   -53.836	   138.403
-20250.469	    15.866	   -73.990	   131.655
-20070.199	    15.817	   -55.435	   130.814
-20436.258	    15.655	   -57.309	   148.910
-20293.359	    15.478	   -47.521	   131.120
-20311.979	    15.266	   -52.342	   128.620
-20076.840	    15.223	   -61.995	   141.426
-20379.396	    15.254	   -64.603	   158.204
-20277.109	    15.249	   -63.063	   157.802
-20263.180	    15.285	   -55.530	   132.598
-20125.939	    15.389	   -58.964	   134.915
-20094.188	    15.480	   -57.360	   130.544
-20137.840	    15.629	   -58.906	   131.071
-19993.152	    15.665	   -46.278	   143.511
-20113.729	    15.642	   -46.954	   135.974
-20340.051	    15.547	   -62.571	   136.896
-20134.908	    15.356	   -37.502	   146.356
-20272.549	    15.295	   -68.075	   131.112
-20247.566	    15.320	   -45.341	   129.684
-20239.033	    15.392	   -47.999	   131.053
-20124.748	    15.531	   -73.011	   127.157
-19992.525	    15.560	   -19.210	   119.662
-20057.480	    15.498	   -59.403	   141.984
-20121.217	    15.407	   -54.910	   136.242
-20341.910	    15.403	   -34.535	   150.922
-20170.777	    15.419	   -47.764	   117.136
-19987.488	    15.401	   -76.530	   146.544
-20318.658	    15.261	   -70.389	   144.951
-20310.941	    15.218	   -63.993	   135.687
-20187.984	    15.274	   -74.343	   143.967
-20176.076	    15.328	   -59.776	   135.210
-20406.730	    15.364	   -70.050	   131.158
-20202.916	    15.405	   -70.049	   146.925
-20072.717	    15.549	   -71.435	   139.264
-20148.262	    15.663	   -54.362	   139.097
-20019.816	    15.719	   -56.428	   129.036
-20205.781	    15.828	   -58.075	   145.053
-20139.895	    15.826	   -69.930	   137.622
-20127.160	    15.752	   -58.664	   143.573
-20227.811	    15.547	   -67.167	   155.223
-20417.240	    15.389	   -60.492	   137.134
-20178.787	    15.353	   -55.466	   142.243
-20185.037	    15.234	   -46.471	   141.217
-20323.107	    15.131	   -70.317	   151.858
-20110.779	    15.147	   -44.506	   134.958
-20306.701	    15.276	   -64.626	   133.755
-20192.988	    15.522	   -47.605	   146.246
-20008.602	    15.734	   -52.033	   152.547
-20104.549	    15.725	   -58.392	   139.240
-20229.605	    15.603	   -49.083	   140.632
-19960.002	    15.601	   -58.016	   141.228
-20070.051	    15.545	   -61.184	   142.645
-20245.139	    15.367	   -62.343	   132.063
-20038.535	    15.206	   -67.974	   130.966
-20145.621	    15.233	   -56.500	   135.440
-20039.086	    15.414	   -52.445	   148.158
-20119.217	    15.567	   -63.350	   144.647
-20075.529	    15.714	   -69.962	   151.562
-20222.645	    15.656	   -65.538	   134.270
-20167.693	    15.522	   -63.044	   141.509
-20084.709	    15.370	   -66.767	   154.843
-20150.213	    15.161	   -83.357	   135.100
-20255.930	    15.003	   -59.343	   134.361
-20155.969	    14.980	   -66.720	   133.091
-20146.668	    15.195	   -55.326	   136.732
-20070.609	    15.478	   -60.899	   143.949
-20261.336	    15.627	   -64.775	   131.627
-20229.613	    15.563	   -61.738	   143.686
-20223.840	    15.479	   -45.061	   134.291
-19849.277	    15.270	   -46.605	   139.806
-20189.740	    15.055	   -69.426	   129.511
-20322.398	    14.972	   -69.962	   148.796
-20265.701	    15.129	   -49.886	   144.432
-20187.459	    15.374	   -61.914	   126.407
-20191.773	    15.578	   -75.322	   154.153
-20047.396	    15.630	   -53.976	   112.221
-20002.205	    15.548	   -70.594	   115.683
-20268.033	    15.548	   -66.790	   148.227
-20193.791	    15.541	   -64.239	   127.051
-20385.096	    15.581	   -67.260	   133.359
-20074.398	    15.663	   -62.867	   130.172
-20121.365	    15.680	   -54.249	   139.155
-20120.598	    15.767	   -59.621	   136.017
-20083.260	    15.729	   -58.873	   137.762
-20076.688	    15.727	   -55.626	   129.147
-20095.977	    15.634	   -51.605	   160.781
-20134.102	    15.500	   -54.353	   152.707
-20046.570	    15.257	   -65.232	   151.303
-20231.242	    15.062	   -71.003	   155.809
-20386.656	    15.165	   -56.310	   137.668
-20006.955	    15.382	   -80.488	   138.873
-20033.436	    15.490	   -70.670	   142.933
-19973.826	    15.464	   -54.950	   132.994
-20509.715	    15.401	   -70.192	   140.279
-20195.656	    15.289	   -87.645	   132.506
-20222.068	    15.291	   -49.594	   138.374
-20100.654	    15.369	   -59.241	   131.745
-20059.197	    15.390	   -54.818	   125.209
-20152.316	    15.362	   -62.607	   134.833
-20368.674	    15.244	   -59.385	   129.002
-20075.637	    15.193	   -53.552	   142.932
-19992.555	    15.207	   -61.180	   139.160
-20101.471	    15.253	   -63.943	   141.753
-20198.508	    15.244	   -84.653	   137.683
-20204.842	    15.276	   -64.540	   125.103
-19960.479	    15.425	   -73.411	   149.711
-20213.594	    15.495	   -53.420	   128.857
-20205.111	    15.558	   -68.753	   130.248
-20233.961	    15.541	   -54.673	   153.976
-20419.605	    15.608	   -61.717	   135.460
-19829.035	    15.756	   -59.409	   130.500
-19983.520	    15.812	   -64.153	   123.951
-20038.012	    15.787	   -42.902	   130.203
-20110.303	    15.818	   -71.736	   138.075
-20317.268	    15.775	   -59.653	   129.372
-20210.125	    15.582	   -53.380	   120.281
-20245.402	    15.478	   -61.484	   148.887
-20032.582	    15.363	   -52.197	   133.904
-20410.516	    15.215	   -62.214	   127.068
-20267.947	    15.053	   -64.721	   152.270
-20146.436	    15.170	   -48.347	   133.172
-20230.852	    15.414	   -74.128	   134.172
-20028.545	    15.647	   -51.345	   141.300
-20149.523	    15.791	   -60.927	   139.160
-20003.520	    15.699	   -64.125	   132.744
-20100.545	    15.446	   -52.850	   144.064
-20371.297	    15.346	   -67.375	   134.089
-20051.223	    15.376	   -44.175	   126.561
-20118.602	    15.394	   -59.674	   142.373
-20409.969	    15.332	   -46.618	   135.949
-20348.221	    15.340	   -52.997	   151.136
-20077.828	    15.417	   -57.256	   148.809
-20270.369	    15.507	   -71.765	   147.396
-20222.100	    15.538	   -60.797	   151.535
-20161.803	    15.442	   -57.399	   119.418
-20147.893	    15.267	   -57.846	   136.681
-20230.412	    15.074	   -61.640	   155.956
-20179.223	    15.018	   -61.622	   126.525
-20428.475	    15.212	   -48.483	   146.663
-20133.510	    15.351	   -54.550	   138.425
-20222.828	    15.347	   -53.325	   129.270
-20116.691	    15.335	   -60.186	   116.038
-20013.828	    15.397	   -70.812	   130.196
-20229.793	    15.506	   -63.168	   127.674
-19926.697	    15.725	   -65.655	   134.104
-19897.281	    15.890	   -70.833	   147.613
-20095.570	    15.817	   -64.003	   123.701
-20136.582	    15.552	   -63.228	   147.591
-20089.398	    15.321	   -64.998	   123.054
-20269.973	    15.255	   -72.413	   136.418
-20469.111	    15.232	   -50.223	   117.890
-20266.752	    15.296	   -79.433	   137.703
-20000.102	    15.289	   -55.685	   124.004
-20587.574	    15.311	   -45.114	   127.273
-20018.936	    15.484	   -61.081	   121.763
-20113.547	    15.689	   -48.308	   131.533
-20035.816	    15.851	   -56.387	   124.685
-20017.885	    15.883	   -50.592	   120.461
-20110.117	    15.680	   -69.650	   146.725
-20251.553	    15.452	   -68.390	   141.846
-20533.051	    15.263	   -59.852	   132.535
-20418.312	    15.223	   -41.214	   130.788
-20392.197	    15.259	   -72.984	   136.859
-20456.439	    15.408	   -58.714	   138.223
-20273.961	    15.475	   -72.528	   141.844
-20343.039	    15.452	   -42.288	   118.590
-20398.543	    15.424	   -50.245	   140.902
-20250.191	    15.597	   -54.157	   150.464
-19921.699	    15.729	   -58.255	   127.838
-20038.451	    15.748	   -63.209	   126.372
-20102.305	    15.741	   -78.658	   141.124
-20187.957	    15.647	   -70.168	   123.120
-20317.289	    15.600	   -82.277	   136.678
-19924.949	    15.565	   -67.266	   136.431
-20066.818	    15.455	   -73.455	   136.633
-20214.080	    15.470	   -68.411	   136.511
-20355.996	    15.585	   -76.169	   123.340
-19969.043	    15.593	   -53.313	   152.658
-20154.562	    15.607	   -62.960	   147.034
-20153.398	    15.562	   -57.905	   139.989
-20316.402	    15.508	   -61.412	   134.903
-20290.951	    15.405	   -77.322	   154.709
-20429.125	    15.354	   -54.533	   136.602
-20220.553	    15.295	   -54.720	   146.727
-20378.748	    15.139	   -87.836	   142.672
-20159.568	    15.138	   -64.481	   137.028
-20056.539	    15.219	   -48.181	   145.913
-20135.316	    15.384	   -48.895	   143.795
-20250.709	    15.565	   -55.908	   148.204
-20100.715	    15.546	   -65.251	   162.456
-20303.705	    15.461	   -89.779	   137.623
-19976.533	    15.394	   -65.518	   111.839
-20133.723	    15.227	   -66.429	   150.531
-20323.359	    15.079	   -65.215	   115.605
-20414.252	    15.114	   -70.970	   141.190
-20421.998	    15.288	   -61.940	   139.151
-20148.928	    15.462	   -76.177	   150.347
-19993.459	    15.643	   -49.662	   144.001
-20000.564	    15.682	   -59.090	   127.008
-19928.814	    15.694	   -59.047	   140.732
-20264.953	    15.575	   -53.457	   131.194
-20201.572	    15.492	   -62.216	   133.495
-19984.533	    15.402	   -54.662	   127.715
-20187.926	    15.302	   -59.267	   150.579
-20222.422	    15.221	   -54.133	   134.702
-20255.414	    15.301	   -63.185	   132.832
-20197.350	    15.354	   -66.260	   135.367
-20184.396	    15.272	   -52.407	   138.345
-20270.994	    15.299	   -71.469	   134.994
-20163.297	    15.472	   -56.743	   125.959
-20061.445	    15.501	   -65.407	   144.283
-20279.822	    15.375	   -66.671	   136.512
-20438.357	    15.165	   -72.886	   128.930
-20362.275	    15.077	   -66.157	   121.529
-20284.854	    15.226	   -54.398	   127.425
-20122.051	    15.427	   -61.380	   127.933
-20107.184	    15.596	   -50.776	   139.198
-20126.330	    15.614	   -66.658	   141.862
-20043.506	    15.448	   -69.674	   140.043
-20090.490	    15.191	   -47.897	   152.135
-20422.033	    15.131	   -67.605	   142.025
-20194.271	    15.395	   -59.533	   132.848
-20152.639	    15.675	   -74.700	   148.202
-19818.291	    15.796	   -73.630	   143.268
-20096.344	    15.812	   -60.832	   132.491
-20291.729	    15.707	   -68.452	   130.598
-20417.230	    15.455	   -48.107	   117.581
-20366.133	    15.263	   -43.934	   133.824
-20078.023	    15.220	   -52.175	   147.124
-20376.334	    15.343	   -54.293	   132.858
-20051.689	    15.522	   -55.329	   133.347
-19856.051	    15.675	   -74.416	   153.470
-19943.023	    15.769	   -57.078	   127.479
-20017.908	    15.781	   -50.062	   130.231
-20145.338	    15.561	   -67.538	   125.084
-20266.541	    15.306	   -59.676	   125.657
-20130.176	    15.143	   -53.777	   119.863
-20290.795	    15.069	   -68.074	   114.402
-20428.281	    15.084	   -61.836	   144.660
-20130.684	    15.165	   -59.670	   114.725
-20280.508	    15.345	   -52.956	   135.998
-20251.668	    15.519	   -73.659	   133.543
-20101.717	    15.542	   -62.169	   135.018
-20193.467	    15.399	   -64.433	   142.032
-20096.611	    15.229	   -73.877	   147.069
-20171.318	    15.175	   -49.776	   129.615
-20158.646	    15.374	   -58.725	   124.473
-19903.424	    15.644	   -58.598	   137.421
-20249.307	    15.696	   -89.695	   132.496
-20180.453	    15.635	   -52.928	   141.806
-20129.650	    15.555	   -53.742	   122.495
-20187.293	    15.536	   -57.973	   133.129
-20106.412	    15.556	   -87.393	   130.533
-20298.074	    15.508	   -62.686	   127.966
-20192.191	    15.480	   -62.096	   135.741
-20122.490	    15.546	   -57.079	   134.553
-20288.109	    15.727	   -60.162	   127.322
-20032.604	    15.822	   -72.044	   125.644
-20283.354	    15.673	   -64.377	   139.737
-20178.428	    15.535	   -59.079	   136.871
-20225.125	    15.512	   -69.611	   137.610
-20151.672	    15.479	   -53.053	   146.853
-20098.195	    15.397	   -64.328	   128.047
-20132.406	    15.364	   -57.500	   114.565
-19967.018	    15.396	   -69.713	   127.643
-20086.330	    15.481	   -62.210	   142.940
-20016.248	    15.614	   -72.184	   132.360
-20292.100	    15.744	   -54.495	   132.673
-20152.062	    15.657	   -62.728	   130.174
-20064.805	    15.528	   -41.018	   129.756
-20095.979	    15.352	   -57.218	   131.889
-20439.490	    15.314	   -59.315	   134.849
-20347.783	    15.408	   -67.548	   150.916
-20206.857	    15.588	   -67.312	   146.496
-20302.988	    15.710	   -70.234	   159.029
-20148.186	    15.755	   -48.980	   151.729
-20386.023	    15.615	   -64.814	   127.003
-20130.240	    15.451	   -66.569	   145.760
-20275.158	    15.386	   -54.052	   157.571
-20073.783	    15.240	   -56.678	   145.464
-20132.951	    15.238	   -69.745	   115.110
-20247.227	    15.451	   -73.208	   124.720
-20185.854	    15.684	   -39.245	   108.527
-20207.107	    15.787	   -38.840	   120.202
-20408.041	    15.674	   -59.537	   138.732
-20372.641	    15.534	   -63.646	   129.725
-20420.639	    15.385	   -68.059	   153.632
-20357.732	    15.289	   -67.423	   151.857
-20359.848	    15.400	   -55.121	   131.025
-20313.055	    15.574	   -55.723	   143.018
-19881.156	    15.678	   -54.139	   138.610
-20375.797	    15.589	   -54.792	   146.498
-20222.119	    15.368	   -61.054	   132.938
-20326.479	    15.144	   -55.649	   134.009
-20087.693	    15.069	   -56.756	   137.105
-20148.629	    15.154	   -66.054	   135.498
-20170.740	    15.444	   -68.294	   136.547
-20072.551	    15.688	   -60.101	   143.180
-19997.750	    15.825	   -62.803	   128.090
-19957.102	    15.713	   -69.560	   146.941
-20048.307	    15.514	   -66.617	   135.029
-20262.703	    15.279	   -75.751	   151.450
-20214.592	    15.143	   -66.289	   170.286
-20168.961	    15.172	   -59.153	   139.071
-20217.043	    15.258	   -58.913	   133.005
-20150.518	    15.348	   -73.728	   134.234
-19995.646	    15.519	   -78.682	   146.548
-20149.055	    15.565	   -59.719	   130.632
-20153.875	    15.486	   -48.429	   152.331
-20175.084	    15.376	   -70.404	   137.207
-20312.270	    15.421	   -56.273	   149.386
-20058.365	    15.499	   -57.100	   144.684
-20383.070	    15.614	   -69.645	   143.070
-19972.443	    15.661	   -55.901	   126.186
-20209.072	    15.375	   -63.888	   137.159
-20392.592	    15.039	   -61.495	   130.144
-20524.064	    14.949	   -58.762	   161.265
-20397.410	    15.115	   -80.134	   133.220
-20058.396	    15.265	   -66.683	   142.560
-20185.963	    15.403	   -68.258	   129.557
-20259.393	    15.584	   -73.066	   134.989
-20231.963	    15.615	   -48.844	   139.956
-20162.418	    15.490	   -59.911	   123.023
-20101.418	    15.421	   -53.638	   124.861
-19924.953	    15.366	   -50.423	   136.824
-20369.635	    15.342	   -61.362	   127.018
-20220.953	    15.340	   -54.040	   119.442
-20303.270	    15.379	   -56.350	   114.064
-20491.199	    15.485	   -64.863	   147.013
-20117.895	    15.624	   -46.238	   139.947
-20131.541	    15.607	   -52.144	   152.114
-20041.473	    15.517	   -59.098	   121.378
-20361.314	    15.414	   -48.426	   133.175
-20313.514	    15.319	   -65.910	   137.442
-20183.254	    15.345	   -69.439	   118.538
-20262.738	    15.449	   -68.627	   142.877
-20163.127	    15.529	   -47.202	   132.056
-19933.893	    15.571	   -67.656	   141.339
-20203.670	    15.490	   -43.808	   129.067
-20087.107	    15.381	   -59.381	   137.079
-20061.945	    15.169	   -68.891	   137.079
-20152.668	    15.199	   -81.247	   138.363
-20134.182	    15.425	   -69.603	   150.438
-20146.820	    15.655	   -79.703	   129.196
-20258.666	    15.783	   -45.305	   129.496
-20178.621	    15.753	   -71.226	   145.792
-20231.000	    15.623	   -54.622	   132.682
-20267.373	    15.431	   -55.724	   147.924
-20208.090	    15.365	   -72.875	   147.135
-20257.344	    15.307	   -51.715	   136.903
-20481.455	    15.342	   -72.017	   142.236
-20199.926	    15.522	   -49.151	   145.385
-20144.951	    15.673	   -67.399	   145.251
-20140.738	    15.641	   -66.323	   144.598
-20052.746	    15.517	   -63.020	   144.656
-20206.109	    15.367	   -59.628	   152.685
-20291.803	    15.257	   -65.607	   132.996
-20368.445	    15.121	   -52.845	   125.000
-20341.697	    15.083	   -60.431	   141.334
-20223.547	    15.282	   -56.635	   139.354
-20316.357	    15.512	   -53.161	   127.664
-20239.256	    15.673	   -48.815	   139.685
-19911.135	    15.627	   -52.537	   130.655
-20294.643	    15.415	   -56.294	   135.457
-20180.820	    15.279	   -73.118	   119.650
-20446.270	    15.216	   -77.144	   126.705
-20079.963	    15.244	   -53.252	   133.356
-20117.180	    15.493	   -65.808	   142.135
-20096.479	    15.720	   -55.511	   134.990
-20245.141	    15.663	   -52.137	   131.455
-20480.992	    15.485	   -69.882	   107.012
-20153.781	    15.397	   -65.266	   126.380
-20413.447	    15.252	   -59.369	   123.220
-20445.688	    15.114	   -69.385	   155.420
-20323.230	    15.122	   -48.777	   131.254
-20108.064	    15.303	   -60.350	   122.083
-20368.350	    15.434	   -58.122	   152.417
-20051.402	    15.586	   -54.228	   143.247
-20203.465	    15.634	   -62.827	   140.490
-20402.611	    15.579	   -71.995	   143.449
-19945.258	    15.479	   -63.519	   127.822
-20280.033	    15.404	   -55.207	   140.585
-20293.139	    15.451	   -60.192	   135.290
-20280.793	    15.494	   -61.521	   146.746
-20337.238	    15.632	   -66.212	   136.853
-20198.057	    15.664	   -62.036	   139.019
-20157.572	    15.598	   -65.303	   140.656
-20170.559	    15.518	   -70.184	   158.212
-20114.881	    15.508	   -67.519	   139.045
-20210.186	    15.518	   -57.034	   128.702
-20217.289	    15.432	   -56.958	   144.585
-20263.939	    15.462	   -51.433	   137.124
-20196.682	    15.528	   -63.783	   126.797
-20122.602	    15.599	   -38.054	   137.846
-20146.918	    15.644	   -64.411	   143.370
-20061.270	    15.674	   -68.819	   131.769
-20071.074	    15.631	   -58.849	   132.261
-20076.545	    15.551	   -63.776	   136.559
-20271.395	    15.379	   -70.900	   142.708
-20264.889	    15.162	   -65.694	   147.922
-20428.004	    15.117	   -62.931	   136.692
-20249.193	    15.221	   -63.498	   147.122
-20233.568	    15.302	   -54.219	   132.953
-20080.998	    15.461	   -65.217	   128.879
-20240.180	    15.512	   -45.331	   140.278
-20135.275	    15.568	   -55.730	   126.937
-19929.480	    15.532	   -70.285	   149.835
-19928.674	    15.531	   -61.701	   148.470
-20012.926	    15.528	   -66.653	   128.008
-20004.926	    15.537	   -63.224	   132.859
-20217.074	    15.472	   -61.808	   136.147
-20279.490	    15.332	   -48.267	   143.727
-20020.670	    15.140	   -52.282	   138.585
-20324.172	    15.028	   -62.702	   111.212
-19883.166	    15.055	   -56.791	   138.941
-19966.648	    15.179	   -59.351	   142.352
-20350.842	    15.333	   -71.955	   130.419
-20239.469	    15.454	   -61.594	   147.123
-20248.883	    15.605	   -50.775	   136.317
-20241.078	    15.661	   -63.955	   124.629
-20212.625	    15.645	   -45.478	   130.791
-20447.352	    15.528	   -59.229	   134.207
-20003.070	    15.568	   -62.003	   121.246
-20260.992	    15.691	   -64.419	   144.196
-20297.904	    15.720	   -68.803	   124.049
-20077.301	    15.612	   -57.073	   119.656
-20150.924	    15.466	   -54.218	   143.089
-20092.971	    15.333	   -58.859	   152.639
-19851.562	    15.308	   -55.016	   147.365
-20042.359	    15.332	   -63.104	   155.107
-20198.816	    15.402	   -49.822	   142.742
-20006.008	    15.399	   -59.035	   123.764
-20076.629	    15.337	   -45.339	   133.012
-20294.854	    15.268	   -56.005	   135.428
-20235.678	    15.215	   -70.077	   139.981
-20180.268	    15.217	   -57.947	   135.371
-20241.766	    15.273	   -47.128	   137.353
-20306.277	    15.288	   -47.938	   131.707
-20224.502	    15.259	   -53.605	   121.640
-20369.682	    15.163	   -52.634	   136.712
-20436.881	    15.243	   -57.612	   134.502
-20279.836	    15.335	   -64.816	   128.537
-20295.588	    15.447	   -69.776	   135.590
-19968.156	    15.480	   -35.125	   129.471
-19988.789	    15.457	   -45.937	   137.624
-20044.385	    15.481	   -62.974	   131.689
-19894.475	    15.498	   -58.827	   147.078
-19950.535	    15.511	   -59.588	   140.971
-19955.262	    15.526	   -58.563	   120.760
-19907.141	    15.584	   -71.691	   125.176
-20359.979	    15.603	   -71.148	   154.786
-20298.730	    15.633	   -61.715	   137.040
