-19862.777	    15.334	   -92.310	   122.143
-20212.387	    15.381	   -77.466	   -29.470
-20223.254	    15.447	   -58.708	   -56.619
-20297.385	    15.492	   -73.576	   -43.511
-20422.098	    15.551	   -61.254	   -29.354
-20193.412	    15.577	   -68.404	   -20.305
-20216.424	    15.486	   -55.267	   -29.494
-20317.742	    15.251	   -69.934	   -45.020
-19919.348	    15.112	   -50.065	   -42.537
-20264.342	    15.044	   -57.977	   -34.694
-20380.539	    15.225	   -57.229	   -31.271
-20256.459	    15.445	   -63.857	   -31.102
-20349.020	    15.537	   -65.569	   -46.268
-20070.309	    15.467	   -71.231	   -16.488
-20297.400	    15.438	   -55.923	   -30.688
-20421.363	    15.459	   -70.085	   -30.124
-20210.699	    15.501	   -53.691	   -37.417
-20133.850	    15.566	   -52.315	   -26.937
-19896.166	    15.581	   -70.464	   -34.164
-20164.027	    15.443	   -66.915	   -31.727
-20049.871	    15.417	   -52.551	   -44.093
-20131.510	    15.457	   -70.312	   -27.939
-20040.730	    15.537	   -57.546	   -30.957
-20216.887	    15.570	   -66.309	   -38.235
-20228.656	    15.567	   -69.379	   -44.852
-20439.137	    15.432	   -72.888	   -21.135
-19892.627	    15.444	   -58.191	   -47.329
-20191.645	    15.464	   -49.363	   -39.640
-20257.672	    15.479	   -63.266	   -33.029
-20063.023	    15.494	   -62.646	   -27.603
-20097.627	    15.416	   -63.544	   -12.256
-20170.793	    15.323	   -60.468	   -24.253
-20178.137	    15.310	   -62.838	   -38.306
-20175.059	    15.217	   -60.619	   -39.227
-20151.297	    15.293	   -61.512	   -33.848
-20235.664	    15.458	   -61.504	   -30.937
-20168.818	    15.529	   -60.255	   -30.478
-20154.904	    15.611	   -49.553	   -38.048
-20089.170	    15.735	   -57.306	   -57.465
-20202.393	    15.839	   -65.960	   -37.721
-20321.850	    15.803	   -58.566	   -44.559
-20297.488	    15.695	   -56.447	   -35.677
-20178.529	    15.576	   -58.745	   -49.993
-20181.512	    15.396	   -69.481	   -33.085
-20274.014	    15.243	   -70.569	   -20.288
-20259.568	    15.261	   -58.389	   -47.266
-20436.117	    15.319	   -61.771	   -31.245
-20250.768	    15.479	   -71.231	   -15.742
-20156.682	    15.645	   -64.238	   -29.058
-20358.842	    15.752	   -52.282	   -34.690
-20139.643	    15.749	   -69.368	   -47.237
-20044.662	    15.661	   -79.270	   -35.794
-20250.301	    15.489	   -66.658	   -27.137
-20320.811	    15.355	   -69.411	   -33.943
-20204.490	    15.306	   -61.923	   -32.764
-19958.359	    15.328	   -66.282	   -28.344
-20137.525	    15.313	   -65.172	   -49.525
-20019.098	    15.301	   -45.071	   -37.598
-20198.645	    15.385	   -62.158	   -45.197
-20226.559	    15.495	   -68.647	   -28.314
-20099.576	    15.589	   -58.851	   -55.310
-20328.277	    15.654	   -55.903	   -49.798
-20334.564	    15.636	   -57.701	   -47.334
-20295.943	    15.489	   -60.855	   -27.930
-20186.975	    15.310	   -64.914	   -26.702
-19726.996	    15.249	   -43.239	   -42.457
-20114.648	    15.287	   -66.931	   -42.862
-20166.533	    15.455	   -56.002	   -46.722
-20052.891	    15.479	   -70.023	   -32.449
-20083.307	    15.368	   -68.435	   -44.335
-20541.314	    15.216	   -72.165	   -33.173
-20282.838	    15.172	   -57.973	   -38.972
-20224.055	    15.218	   -60.593	   -33.131
-20065.072	    15.234	   -54.833	   -24.340
-20219.406	    15.231	   -57.899	   -32.013
-19875.770	    15.280	   -55.418	   -43.593
-20179.252	    15.347	   -76.744	   -31.604
-20052.336	    15.477	   -65.049	   -25.819
-19866.488	    15.559	   -47.976	   -26.795
-20199.332	    15.519	   -66.438	   -38.919
-20562.475	    15.356	   -60.150	   -37.570
-20139.002	    15.492	   -44.823	   -34.416
-19939.963	    15.761	   -58.316	   -54.719
-20041.229	    15.772	   -56.140	   -47.358
-20126.434	    15.617	   -54.697	   -34.515
-20213.008	    15.392	   -47.093	   -30.024
-20214.230	    15.196	   -66.227	   -47.285
-20249.355	    15.095	   -56.668	   -34.699
-20244.492	    15.097	   -68.597	   -29.446
-20120.170	    15.159	   -51.003	   -47.169
-20129.912	    15.324	   -70.007	   -54.468
-20228.455	    15.639	   -67.347	   -35.856
-20065.695	    15.839	   -78.596	   -27.416
-20201.992	    15.856	   -73.808	   -29.219
-20184.658	    15.644	   -74.681	   -28.553
-20193.199	    15.295	   -62.602	   -38.188
-20506.705	    15.115	   -59.541	   -46.514
-20178.500	    15.154	   -70.288	   -51.532
-20188.330	    15.340	   -60.046	   -25.030
-20187.773	    15.554	   -48.610	   -42.930
-20040.922	    15.725	   -61.373	   -41.618
-20024.131	    15.670	   -69.051	   -35.267
-20124.051	    15.501	   -43.197	   -48.977
-20252.945	    15.333	   -51.893	   -28.885
-20306.811	    15.240	   -43.588	   -39.726
-20310.455	    15.276	   -63.656	   -32.952
-20195.441	    15.360	   -47.261	   -44.529
-20012.680	    15.433	   -57.278	   -46.417
-20310.529	    15.388	   -62.158	   -48.237
-20025.594	    15.485	   -50.503	   -42.611
-20122.930	    15.674	   -57.336	   -31.860
-20144.029	    15.747	   -42.596	   -47.158
-20077.957	    15.745	   -73.587	   -27.583
-20271.049	    15.692	   -62.198	   -37.205
-19937.352	    15.683	   -56.249	   -44.574
-20123.291	    15.564	   -64.207	   -44.227
-20305.623	    15.432	   -52.988	   -38.961
-20213.760	    15.364	   -55.286	   -47.138
-20204.617	    15.335	   -49.556	   -35.458
-20158.006	    15.367	   -59.923	   -27.879
-20237.453	    15.335	   -51.947	   -45.378
-20189.359	    15.373	   -48.946	   -32.739
-20215.086	    15.481	   -69.664	   -49.097
-20012.936	    15.615	   -64.148	   -34.509
-20195.850	    15.589	   -58.138	   -42.119
-20153.148	    15.448	   -65.784	   -31.193
-20223.643	    15.309	   -64.169	   -28.126
-20206.445	    15.287	   -51.195	   -42.860
-19958.537	    15.262	   -72.520	   -32.862
-20208.141	    15.258	   -46.722	   -49.112
-19928.385	    15.406	   -64.948	   -48.967
-20172.783	    15.536	   -53.192	   -52.816
-19977.879	    15.557	   -55.769	   -43.750
-20221.693	    15.486	   -57.918	   -57.513
-20126.539	    15.395	   -60.254	   -37.844
-20096.861	    15.329	   -48.042	   -56.180
-20444.730	    15.326	   -57.628	   -31.398
-20051.172	    15.429	   -69.122	   -39.105
-20222.438	    15.466	   -76.642	   -39.820
-20029.199	    15.590	   -73.553	   -38.224
-20154.557	    15.604	   -71.673	   -41.005
-20091.895	    15.430	   -51.802	   -32.956
-20207.287	    15.214	   -63.060	   -39.912
-20224.479	    15.172	   -58.013	   -38.964
-19783.143	    15.249	   -66.271	   -37.287
-20187.879	    15.327	   -50.585	   -39.358
-19813.654	    15.317	   -43.265	   -38.098
-20250.766	    15.207	   -43.797	   -36.302
-20194.338	    15.259	   -53.913	   -44.604
-20272.322	    15.354	   -56.331	   -34.111
-20215.959	    15.496	   -71.628	   -47.080
-20121.123	    15.591	   -55.264	   -46.187
-20105.379	    15.599	   -53.618	   -31.533
-20135.404	    15.599	   -54.165	   -53.172
-20006.725	    15.542	   -57.232	   -37.966
-20062.582	    15.355	   -43.814	   -37.072
-20036.393	    15.262	   -58.188	   -41.967
-20240.031	    15.325	   -70.308	   -25.368
-20216.561	    15.384	   -74.351	   -52.720
-20218.736	    15.279	   -69.185	   -35.206
-20175.068	    15.250	   -56.013	   -35.226
-20431.641	    15.232	   -69.356	   -47.893
-20266.223	    15.297	   -61.316	   -33.039
-20142.982	    15.414	   -62.554	   -39.170
-19867.504	    15.507	   -65.215	   -40.339
-20275.877	    15.500	   -69.920	   -39.888
-20050.947	    15.538	   -67.831	   -49.102
-20247.275	    15.555	   -65.682	   -50.672
-20257.129	    15.525	   -62.568	   -47.638
-20247.197	    15.357	   -62.584	   -25.967
-20421.234	    15.248	   -74.831	   -35.782
-20390.611	    15.411	   -72.361	   -38.094
-20168.049	    15.656	   -77.009	   -37.364
-20075.891	    15.716	   -67.209	   -36.012
-20289.543	    15.600	   -44.771	   -63.214
-20133.197	    15.485	   -61.041	   -37.470
-20123.783	    15.497	   -46.822	   -48.514
-19791.703	    15.605	   -64.522	   -39.006
-20216.770	    15.618	   -61.994	   -39.100
-20299.957	    15.549	   -60.749	   -48.320
-20179.148	    15.545	   -60.625	   -40.612
-19931.557	    15.581	   -67.385	   -26.617
-20123.480	    15.512	   -64.223	   -31.540
-20228.223	    15.339	   -59.392	   -31.155
-20361.920	    15.338	   -54.319	   -46.757
-20543.004	    15.411	   -57.743	   -57.276
-20128.965	    15.460	   -58.888	   -51.682
-20045.014	    15.487	   -65.615	   -47.678
-20193.396	    15.475	   -89.776	   -38.120
-20189.650	    15.448	   -59.551	   -61.342
-20133.166	    15.451	   -69.829	   -37.637
-20348.412	    15.422	   -60.301	   -56.724
-20000.248	    15.498	   -67.497	   -36.301
-20090.271	    15.676	   -60.521	   -27.311
-20050.957	    15.660	   -67.677	   -26.757
-19939.381	    15.549	   -68.132	   -44.838
-20059.951	    15.494	   -53.978	   -40.193
-20090.744	    15.557	   -61.466	   -20.720
-20358.893	    15.583	   -47.678	   -29.359
-20472.127	    15.517	   -53.915	   -41.317
-20424.096	    15.659	   -63.003	   -35.771
-20029.844	    15.748	   -65.779	   -43.210
-20202.416	    15.670	   -67.307	   -45.252
-20168.449	    15.546	   -50.768	   -47.278
-20062.617	    15.433	   -75.598	   -52.994
-20152.412	    15.177	   -58.225	   -60.871
-20186.016	    15.099	   -69.866	   -34.765
-19911.164	    15.195	   -60.195	   -34.760
-20156.191	    15.266	   -52.990	   -16.961
-20375.396	    15.288	   -46.127	   -52.182
-20100.682	    15.364	   -67.291	   -34.953
-20120.914	    15.388	   -63.758	   -28.722
-20097.113	    15.363	   -65.316	   -32.223
-19937.730	    15.325	   -57.232	   -48.869
-20287.389	    15.231	   -75.602	   -41.493
-20134.189	    15.247	   -56.849	   -49.932
-20252.836	    15.270	   -61.815	   -37.456
-19974.568	    15.396	   -51.757	   -53.167
-20119.162	    15.477	   -75.801	   -46.477
-20124.500	    15.518	   -84.107	   -45.268
-20125.889	    15.589	   -64.764	   -46.047
-20136.863	    15.598	   -63.177	   -49.855
-20168.531	    15.564	   -56.123	   -48.966
-20237.889	    15.495	   -52.899	   -50.656
-20385.408	    15.437	   -72.328	   -32.747
-20128.131	    15.439	   -51.239	   -40.951
-19931.088	    15.480	   -50.896	   -53.073
-20170.348	    15.533	   -60.937	   -46.221
-20046.998	    15.399	   -54.859	   -43.116
-20095.314	    15.252	   -56.782	   -31.573
-20327.594	    15.290	   -42.758	   -36.483
-20027.986	    15.382	   -69.695	   -40.607
-20237.027	    15.464	   -68.211	   -29.354
-20289.090	    15.551	   -41.342	   -56.357
-20107.781	    15.550	   -67.453	   -35.469
-20126.836	    15.541	   -65.959	   -23.127
-20005.713	    15.582	   -60.857	   -41.560
-20166.225	    15.513	   -54.015	   -37.998
-20098.393	    15.435	   -60.504	   -45.452
-20051.658	    15.404	   -51.033	   -43.070
-20011.686	    15.439	   -58.128	   -52.414
-20241.412	    15.579	   -82.829	   -36.067
-19949.607	    15.638	   -58.806	   -30.524
-20185.100	    15.627	   -57.120	   -36.136
-20195.869	    15.558	   -46.643	   -48.257
-20172.891	    15.378	   -62.275	   -58.150
-20204.891	    15.268	   -54.619	   -40.758
-20225.211	    15.370	   -62.886	   -24.207
-20257.309	    15.653	   -51.326	   -45.550
-20019.496	    15.822	   -60.558	   -32.013
-20045.926	    15.895	   -57.320	   -24.402
-20083.648	    15.767	   -64.062	   -32.113
-20061.676	    15.596	   -68.363	   -30.591
-20229.432	    15.390	   -61.372	   -49.680
-20199.896	    15.143	   -54.608	   -33.292
-20391.854	    15.120	   -60.811	   -47.448
-20201.180	    15.200	   -57.282	   -51.494
-20306.723	    15.264	   -71.383	   -35.569
-20068.854	    15.335	   -63.225	   -42.539
-20289.072	    15.416	   -39.614	   -49.536
-20132.992	    15.520	   -58.465	   -36.995
-20461.893	    15.603	   -63.180	   -43.730
-20387.561	    15.525	   -79.526	   -32.513
-20265.977	    15.379	   -53.400	   -56.304
-19992.357	    15.309	   -43.546	   -28.928
-20120.549	    15.226	   -62.761	   -30.282
-20218.338	    15.133	   -56.080	   -52.019
-20192.154	    15.189	   -62.184	   -32.451
-20086.229	    15.343	   -50.451	   -35.147
-20237.984	    15.453	   -62.986	   -23.283
-20205.283	    15.549	   -61.851	   -51.696
-20163.312	    15.534	   -53.011	   -29.080
-20338.582	    15.490	   -49.814	   -41.073
-20300.568	    15.410	   -65.390	   -38.578
-20336.756	    15.452	   -70.139	   -36.252
-20198.207	    15.659	   -77.291	   -37.864
-20232.051	    15.777	   -59.921	   -39.585
-20129.641	    15.770	   -57.517	   -27.618
-19822.441	    15.742	   -47.839	   -42.039
-20103.158	    15.687	   -49.779	   -41.151
-20209.930	    15.535	   -53.879	   -40.028
-20254.186	    15.455	   -44.021	   -52.759
-20013.697	    15.519	   -46.466	   -43.072
-20205.836	    15.417	   -58.970	   -41.361
-20354.047	    15.132	   -65.850	   -28.624
-20532.619	    14.871	   -69.593	   -31.669
-20240.469	    14.908	   -52.039	   -44.728
-20330.680	    15.283	   -52.496	   -48.891
-19943.350	    15.764	   -62.757	   -37.703
-20010.918	    15.974	   -69.019	   -38.128
-20262.576	    15.833	   -69.191	   -51.506
-20246.549	    15.547	   -43.132	   -45.918
-20287.594	    15.356	   -64.124	   -27.852
-20221.752	    15.303	   -64.550	   -31.085
-20144.986	    15.402	   -57.467	   -54.888
-20196.877	    15.399	   -58.286	   -35.413
-20230.566	    15.427	   -57.507	   -41.072
-20414.395	    15.429	   -55.000	   -21.806
-20285.750	    15.418	   -64.126	   -41.669
-20170.500	    15.396	   -62.627	   -38.879
-20407.059	    15.316	   -50.780	   -61.124
-20321.646	    15.312	   -58.460	   -44.183
-20322.607	    15.357	   -54.314	   -42.129
-20311.986	    15.426	   -38.937	   -76.250
-20296.332	    15.489	   -59.415	   -40.437
-20083.334	    15.559	   -42.837	   -33.333
-20193.992	    15.524	   -57.714	   -42.197
-20184.406	    15.460	   -56.434	   -34.077
-20244.092	    15.423	   -59.496	   -31.016
-20035.496	    15.470	   -85.807	   -39.812
-20289.471	    15.582	   -67.161	   -47.636
-20373.521	    15.535	   -77.609	   -34.675
-20163.549	    15.482	   -68.960	   -38.218
-20063.012	    15.492	   -56.293	   -41.291
-20021.725	    15.442	   -35.408	   -47.001
-20285.705	    15.400	   -62.430	   -35.339
-19943.256	    15.389	   -56.698	   -37.094
-20383.418	    15.422	   -48.718	   -52.531
-20194.494	    15.487	   -70.278	   -38.150
-20119.750	    15.401	   -59.689	   -33.503
-20193.449	    15.301	   -63.028	   -22.989
-20394.574	    15.237	   -60.426	   -24.976
-20157.410	    15.182	   -72.555	   -38.563
-20397.162	    15.202	   -54.395	   -21.056
-20261.453	    15.347	   -74.502	   -36.793
-20268.076	    15.458	   -45.997	   -45.762
-20037.303	    15.454	   -46.231	   -45.642
-20290.773	    15.398	   -61.775	   -34.075
-19953.674	    15.476	   -53.525	   -25.450
-19999.646	    15.447	   -68.943	   -33.084
-20036.012	    15.470	   -52.281	   -32.282
-20086.961	    15.558	   -67.053	   -24.181
-20296.975	    15.475	   -64.816	   -36.040
-20147.244	    15.409	   -54.375	   -36.899
-20229.299	    15.409	   -67.728	   -62.384
-20067.377	    15.456	   -50.119	   -22.275
-20191.941	    15.519	   -51.830	   -38.536
-19998.215	    15.536	   -65.136	   -25.649
-20210.078	    15.520	   -66.173	   -40.834
-20284.029	    15.566	   -74.023	   -32.554
-20091.008	    15.660	   -65.064	   -19.880
-19872.543	    15.628	   -51.639	   -45.813
-20147.791	    15.557	   -46.725	   -61.535
-20481.383	    15.431	   -57.020	   -34.654
-19979.697	    15.293	   -63.896	   -47.761
-20250.029	    15.284	   -43.082	   -50.858
-20185.703	    15.427	   -74.681	   -46.006
-20191.297	    15.488	   -64.200	   -49.712
-20029.236	    15.389	   -51.612	   -29.719
-20128.629	    15.266	   -57.327	   -30.072
-20265.145	    15.240	   -60.973	   -40.503
-19998.473	    15.239	   -61.057	   -31.244
-20370.129	    15.313	   -69.975	   -44.050
-20327.514	    15.332	   -53.577	   -46.926
-20219.861	    15.358	   -58.675	   -45.109
-20057.795	    15.334	   -54.766	   -24.555
-20337.141	    15.355	   -62.975	   -28.614
-20014.227	    15.380	   -71.298	   -41.884
-20060.266	    15.291	   -51.359	   -24.570
-20347.264	    15.277	   -64.388	   -46.886
-20232.602	    15.419	   -65.565	   -48.942
-20491.209	    15.545	   -52.787	   -43.963
-20347.020	    15.655	   -51.898	   -36.823
-20086.551	    15.616	   -48.259	   -41.213
-20311.381	    15.489	   -55.017	   -29.722
-20067.197	    15.452	   -59.110	   -35.709
-20053.209	    15.545	   -50.372	   -31.237
-20052.049	    15.790	   -52.869	   -34.473
-20002.719	    15.877	   -47.088	   -40.615
-19890.125	    15.669	   -65.343	   -50.242
-20101.762	    15.421	   -59.521	   -40.749
-20177.605	    15.141	   -64.621	   -38.250
-20574.768	    14.959	   -58.411	   -38.287
-20364.164	    15.022	   -53.092	   -35.078
-20108.402	    15.197	   -61.196	   -45.194
-20433.000	    15.371	   -53.127	   -47.968
-20152.916	    15.575	   -58.078	   -47.562
-20034.154	    15.798	   -54.858	   -43.719
-19977.406	    15.896	   -38.190	   -38.673
-20036.643	    15.880	   -53.304	   -48.540
-20041.703	    15.748	   -52.306	   -42.195
-20196.293	    15.544	   -61.940	   -56.155
-20196.453	    15.314	   -39.194	   -36.791
-20496.188	    15.258	   -67.164	   -52.188
-20110.631	    15.361	   -73.203	   -34.361
-20400.068	    15.618	   -58.317	   -48.305
-20036.676	    15.699	   -61.634	   -36.765
-20298.840	    15.623	   -55.499	   -31.824
-20331.682	    15.463	   -60.497	   -37.199
-20246.342	    15.322	   -51.726	   -37.280
-20255.676	    15.211	   -57.025	   -31.389
-20270.209	    15.291	   -75.387	   -38.233
-20277.383	    15.393	   -37.179	   -45.758
-20142.766	    15.492	   -43.527	   -55.490
-20051.441	    15.385	   -49.075	   -56.901
-20042.721	    15.161	   -45.297	   -55.109
-20150.135	    15.085	   -65.725	   -49.982
-20303.443	    15.144	   -69.493	   -39.930
-20222.711	    15.300	   -65.218	   -30.570
-20138.451	    15.400	   -46.211	   -47.088
-20259.342	    15.403	   -61.298	   -24.997
-20374.441	    15.412	   -63.795	   -34.281
-20294.613	    15.482	   -74.495	   -33.358
-20203.729	    15.586	   -69.973	   -46.057
-20012.959	    15.546	   -52.891	   -44.836
-20383.910	    15.415	   -68.012	   -27.523
-20417.229	    15.331	   -58.327	   -47.330
-20261.062	    15.498	   -65.878	   -43.299
-20247.695	    15.693	   -73.445	   -24.651
-20175.557	    15.672	   -63.383	   -42.215
-20052.816	    15.533	   -69.059	   -41.716
-19955.980	    15.268	   -66.422	   -29.207
-20137.223	    15.049	   -66.587	   -41.136
-20247.117	    15.182	   -61.945	   -23.615
-20001.707	    15.360	   -66.643	   -37.875
-20473.180	    15.477	   -66.961	   -44.296
-19933.447	    15.590	   -69.006	   -36.635
-20333.180	    15.567	   -57.146	   -36.781
-20215.184	    15.413	   -63.840	   -25.700
-20096.979	    15.258	   -59.669	   -39.700
-20323.219	    15.136	   -53.588	   -49.600
-20108.357	    15.187	   -61.338	   -24.869
-20018.516	    15.355	   -49.949	   -47.821
-20095.334	    15.477	   -56.730	   -35.954
-20156.635	    15.512	   -46.648	   -26.641
-19677.611	    15.512	   -62.471	   -32.213
-20310.635	    15.326	   -58.982	   -34.494
-20178.754	    15.319	   -57.874	   -36.707
-20149.275	    15.390	   -52.862	   -40.063
-20105.980	    15.458	   -64.001	   -27.893
-20532.264	    15.431	   -46.360	   -41.876
-20581.414	    15.436	   -58.619	   -35.010
-20186.660	    15.622	   -64.867	   -41.093
-20196.416	    15.645	   -77.047	   -21.688
-19923.430	    15.453	   -50.700	   -35.140
-20089.855	    15.250	   -66.821	   -26.469
-20165.570	    15.172	   -60.453	   -35.962
-20165.586	    15.118	   -65.441	   -42.112
-20061.424	    15.193	   -62.815	   -33.946
-20014.672	    15.300	   -59.266	   -40.979
-20179.885	    15.355	   -63.146	   -33.191
-20339.678	    15.434	   -60.135	   -29.299
-20093.473	    15.515	   -58.027	   -36.874
-20269.402	    15.502	   -60.473	   -34.012
-20326.426	    15.436	   -55.216	   -31.525
-19860.740	    15.346	   -52.509	   -68.585
-20208.910	    15.290	   -64.787	   -55.667
-20095.926	    15.315	   -70.062	   -41.255
-20438.566	    15.267	   -62.699	   -25.744
-20202.922	    15.282	   -50.660	   -53.642
-19998.402	    15.365	   -52.316	   -45.166
-20005.611	    15.413	   -66.976	   -26.410
-20242.668	    15.408	   -54.761	   -25.913
-19970.756	    15.314	   -50.490	   -41.213
-20189.498	    15.152	   -64.006	   -39.257
-20309.240	    15.243	   -53.540	   -33.547
-20199.311	    15.432	   -54.813	   -45.822
-20162.826	    15.460	   -89.030	   -25.227
-20079.148	    15.366	   -56.303	   -46.411
-20126.229	    15.318	   -66.470	   -48.483
-20010.604	    15.267	   -80.651	   -19.778
-20165.932	    15.238	   -45.988	   -49.679
-20022.256	    15.328	   -46.389	   -33.911
-20384.701	    15.365	   -74.156	   -39.629
-20179.998	    15.440	   -57.669	   -39.027
-19996.619	    15.619	   -52.235	   -49.781
-20118.859	    15.602	   -68.402	   -39.433
-20022.184	    15.503	   -68.995	   -50.975
-20212.684	    15.370	   -59.386	   -30.663
-20169.742	    15.303	   -64.842	   -63.128
-20132.828	    15.313	   -72.569	   -44.497
-19895.174	    15.396	   -65.509	   -42.493
-20162.521	    15.397	   -64.013	   -48.393
-20202.102	    15.386	   -43.343	   -37.633
-20222.375	    15.383	   -72.958	   -24.280
-20248.129	    15.498	   -45.231	   -43.685
-20019.457	    15.655	   -42.891	   -39.930
-20156.139	    15.621	   -63.063	   -49.191
-20052.605	    15.601	   -55.822	   -63.417
-20201.623	    15.586	   -52.053	   -27.544
-20336.051	    15.505	   -73.508	   -58.399
-20271.488	    15.383	   -52.923	   -50.401
-20143.025	    15.321	   -75.644	   -32.141
-20423.180	    15.307	   -53.064	   -37.908
-20229.301	    15.386	   -59.804	   -42.119
-20136.758	    15.427	   -84.989	   -57.287
-20337.422	    15.337	   -47.516	   -50.830
-20436.188	    15.247	   -65.659	   -38.361
-20195.592	    15.296	   -53.653	   -38.877
-20165.607	    15.338	   -62.251	   -39.993
-20309.488	    15.439	   -79.272	   -59.878
-20089.137	    15.487	   -48.541	   -50.407
-20375.906	    15.517	   -67.870	   -32.671
-20030.162	    15.440	   -66.571	   -43.881
-19985.436	    15.348	   -56.099	   -35.712
-20175.609	    15.365	   -70.634	   -31.653
-20311.549	    15.413	   -57.874	   -35.862
-20094.521	    15.414	   -61.150	   -46.919
-20317.920	    15.417	   -65.470	   -49.700
-20115.877	    15.421	   -50.252	   -43.525
-20421.414	    15.266	   -64.904	   -49.562
-20229.350	    15.189	   -77.733	   -49.670
-20485.693	    15.266	   -67.385	   -57.850
-20266.764	    15.314	   -77.147	   -14.491
-20234.840	    15.355	   -45.538	   -57.831
-19982.598	    15.458	   -59.427	   -48.806
-19945.588	    15.469	   -63.865	   -38.928
-20102.553	    15.414	   -61.028	   -37.839
-20216.953	    15.330	   -63.557	   -35.298
-20036.039	    15.348	   -61.505	   -38.019
-20191.320	    15.384	   -61.400	   -38.978
-20364.148	    15.353	   -67.828	   -25.551
-19896.807	    15.346	   -61.514	   -31.810
-20306.264	    15.366	   -67.191	   -19.685
-19909.195	    15.382	   -63.967	   -29.576
-20233.090	    15.481	   -52.819	   -44.262
-20306.354	    15.574	   -49.170	   -44.734
-20449.922	    15.626	   -60.383	   -34.850
-20239.469	    15.589	   -52.504	   -39.817
-20227.605	    15.452	   -60.820	   -42.585
-20157.834	    15.320	   -61.423	   -37.920
-19984.488	    15.179	   -58.230	   -42.971
-20207.842	    15.217	   -63.003	   -49.789
-20043.301	    15.369	   -54.702	   -53.000
-19974.572	    15.486	   -51.728	   -41.500
-20178.584	    15.540	   -67.638	   -30.533
-20071.805	    15.526	   -63.462	   -31.894
-20021.172	    15.542	   -62.194	   -48.486
-20067.703	    15.570	   -37.955	   -49.644
-19971.887	    15.478	   -58.532	   -37.199
-19932.186	    15.383	   -57.599	   -32.189
-20090.830	    15.281	   -48.742	   -33.047
-19955.197	    15.363	   -61.774	   -46.906
-19932.641	    15.493	   -66.054	   -64.741
-20060.066	    15.630	   -65.657	   -44.487
-20008.732	    15.721	   -63.794	   -51.146
-20280.258	    15.704	   -61.474	   -14.405
-20133.656	    15.616	   -62.409	   -62.391
-20155.580	    15.457	   -52.284	   -45.037
-20305.934	    15.268	   -51.556	   -40.578
-20391.740	    15.221	   -70.305	   -60.957
-20116.760	    15.376	   -68.253	   -41.050
-20208.660	    15.490	   -75.440	   -48.070
-20007.059	    15.560	   -66.151	   -61.977
-20317.928	    15.577	   -59.678	   -43.413
-20030.586	    15.697	   -62.730	   -47.808
-19926.617	    15.790	   -64.441	   -29.817
-20355.438	    15.646	   -69.997	   -36.500
-20081.557	    15.526	   -60.509	   -32.476
-20087.521	    15.471	   -56.829	   -35.025
-20366.477	    15.507	   -67.000	   -27.466
-20280.361	    15.535	   -70.633	   -52.289
-19992.643	    15.527	   -49.394	   -51.377
-20136.348	    15.375	   -70.970	   -32.176
-20194.451	    15.271	   -40.532	   -32.366
-20284.564	    15.254	   -41.802	   -43.577
-20001.447	    15.405	   -60.182	   -36.561
-20099.260	    15.571	   -73.821	   -23.162
-20265.539	    15.612	   -78.565	   -32.182
-20238.273	    15.496	   -76.481	   -51.156
-20298.867	    15.332	   -66.986	   -30.750
-20147.617	    15.100	   -50.663	   -42.044
-20454.861	    15.006	   -70.337	   -41.430
-20100.137	    15.173	   -48.655	   -46.301
-20309.559	    15.300	   -38.810	   -37.706
-20152.271	    15.399	   -54.108	   -22.035
-20134.629	    15.366	   -73.018	   -50.748
-20155.914	    15.307	   -55.651	   -34.666
-20242.777	    15.251	   -73.347	   -28.619
-20286.527	    15.389	   -51.158	   -55.023
-20262.334	    15.477	   -69.838	   -44.501
-20482.943	    15.627	   -55.292	   -32.998
-20164.510	    15.732	   -55.208	   -35.752
-19948.865	    15.706	   -44.400	   -38.888
-20130.158	    15.548	   -53.939	   -44.026
-20113.811	    15.363	   -60.329	   -36.238
-19997.287	    15.287	   -71.085	   -62.738
-20430.396	    15.272	   -52.180	   -17.166
-20045.793	    15.438	   -59.390	   -47.254
-20281.807	    15.606	   -80.913	   -48.933
-20013.838	    15.653	   -49.395	   -32.902
-20239.184	    15.584	   -62.309	   -52.584
-20112.240	    15.437	   -57.464	   -35.825
-20329.469	    15.282	   -62.004	   -50.772
-20276.443	    15.187	   -52.484	   -29.523
-20217.322	    15.206	   -58.701	   -51.078
-20139.547	    15.499	   -53.167	   -47.408
-20230.527	    15.755	   -66.778	   -25.791
-20113.771	    15.835	   -66.063	   -29.086
-19959.557	    15.696	   -59.629	   -39.442
-20114.443	    15.432	   -67.200	   -30.793
-20369.629	    15.159	   -72.404	   -42.634
-20192.299	    15.135	   -68.374	   -41.357
-20034.053	    15.411	   -51.703	   -31.753
-20044.305	    15.707	   -54.406	   -62.851
-20137.783	    15.845	   -53.523	   -49.029
-19935.479	    15.794	   -67.596	   -47.549
-20122.014	    15.704	   -36.038	   -41.678
-19889.283	    15.629	   -69.952	   -41.335
-20126.820	    15.518	   -57.280	   -33.631
-20241.811	    15.491	   -51.528	   -44.187
-20282.080	    15.534	   -46.188	   -40.725
-20140.613	    15.489	   -75.021	   -29.048
-20165.125	    15.466	   -62.549	   -32.350
-20053.520	    15.531	   -74.225	   -61.992
-20057.658	    15.486	   -53.490	   -34.753
-20234.904	    15.333	   -67.612	   -25.247
-20064.576	    15.238	   -54.691	   -49.479
-20039.688	    15.226	   -58.362	   -38.820
-19963.635	    15.285	   -60.061	   -32.211
-20229.410	    15.428	   -45.462	   -39.770
-20123.059	    15.596	   -68.949	   -51.749
-20178.469	    15.652	   -69.750	   -41.579
-20307.436	    15.599	   -58.146	   -46.175
-20309.053	    15.468	   -68.378	   -50.760
-20249.430	    15.325	   -63.398	   -25.448
-20314.371	    15.309	   -67.342	   -34.108
-20267.371	    15.458	   -62.214	   -40.367
-20225.256	    15.447	   -68.548	   -33.970
-20085.363	    15.476	   -65.514	   -35.436
-20283.197	    15.422	   -67.210	   -40.384
-20226.447	    15.339	   -43.753	   -42.330
-19931.021	    15.328	   -68.424	   -38.318
-19988.018	    15.314	   -57.216	   -37.404
-20208.445	    15.256	   -60.255	   -32.495
-20394.398	    15.252	   -60.852	   -47.314
-20230.006	    15.275	   -58.226	   -38.293
-20098.588	    15.424	   -58.261	   -47.801
-20023.957	    15.453	   -59.357	   -45.610
-20057.018	    15.400	   -53.386	   -52.761
-20206.977	    15.366	   -48.901	   -45.647
-20322.168	    15.390	   -46.633	   -53.152
-20288.652	    15.561	   -61.749	   -26.988
-20001.227	    15.689	   -67.270	   -33.984
-20212.996	    15.808	   -64.693	   -36.684
-20264.420	    15.789	   -64.870	   -59.314
-20248.203	    15.589	   -59.186	   -47.212
-20218.102	    15.382	   -58.316	   -29.396
-20327.316	    15.214	   -60.912	   -53.146
-20180.355	    15.251	   -54.446	   -37.870
-20153.854	    15.378	   -75.329	   -43.599
-20332.783	    15.473	   -80.530	   -61.032
-20278.729	    15.527	   -71.774	   -20.359
-20484.471	    15.488	   -61.828	   -36.344
-20405.465	    15.623	   -57.238	   -38.139
-20035.051	    15.788	   -59.441	   -24.575
-20181.311	    15.760	   -59.652	   -26.067
-20150.734	    15.630	   -62.442	   -16.211
-20223.299	    15.531	   -50.509	   -45.533
-19884.576	    15.616	   -78.961	   -25.945
-20278.592	    15.691	   -61.979	   -49.277
-20122.746	    15.694	   -68.200	   -42.217
-20292.062	    15.653	   -44.447	   -56.283
-20114.111	    15.588	   -61.213	   -56.224
-20118.141	    15.612	   -78.279	   -46.901
-20308.820	    15.563	   -66.763	   -63.027
-20123.430	    15.504	   -52.953	   -39.342
-19933.053	    15.385	   -58.985	   -29.283
-20146.775	    15.312	   -62.521	   -25.487
-20235.273	    15.372	   -53.161	   -37.107
-19957.627	    15.482	   -53.344	   -37.017
-20242.906	    15.452	   -59.578	   -63.908
-20314.674	    15.467	   -56.200	   -33.023
-20135.885	    15.418	   -53.878	   -45.574
-20109.770	    15.297	   -52.852	   -25.873
-20242.711	    15.284	   -60.090	   -42.412
-20283.383	    15.414	   -59.489	   -40.360
-20015.740	    15.573	   -63.156	   -22.576
-20299.195	    15.521	   -71.436	   -45.896
-20163.477	    15.333	   -64.884	   -48.569
-19851.223	    15.209	   -67.955	   -21.739
-20150.795	    15.236	   -53.427	   -31.572
-20004.852	    15.533	   -67.384	   -51.996
-19991.980	    15.737	   -88.607	   -25.753
-19878.797	    15.718	   -59.305	   -42.324
-20160.035	    15.477	   -55.573	   -28.977
-20343.443	    15.098	   -53.342	   -32.576
-20466.008	    14.929	   -50.737	   -57.173
-20273.697	    14.958	   -52.124	   -34.075
-20334.330	    15.176	   -82.331	   -34.120
-20266.418	    15.453	   -61.374	   -69.027
-20127.840	    15.630	   -58.670	   -31.992
-19879.000	    15.645	   -48.168	   -57.163
-20220.867	    15.601	   -57.892	   -35.010
-20188.492	    15.513	   -57.853	   -45.828
-20510.094	    15.277	   -53.040	   -54.224
-20356.611	    15.171	   -64.722	   -37.457
-20323.330	    15.281	   -57.722	   -30.762
-20105.598	    15.465	   -63.596	   -48.998
-19951.934	    15.624	   -55.601	   -34.816
-20175.305	    15.678	   -79.726	   -32.837
-20071.887	    15.643	   -60.385	   -35.394
-20190.547	    15.552	   -51.536	   -39.382
-20055.938	    15.460	   -54.363	   -24.369
-20425.436	    15.400	   -55.429	   -29.667
-20092.592	    15.388	   -57.079	   -56.887
-20011.188	    15.359	   -55.604	   -39.037
-20271.234	    15.451	   -54.766	   -32.831
-20145.109	    15.539	   -88.471	   -42.218
-20098.312	    15.553	   -60.458	   -41.819
-19832.346	    15.501	   -49.195	   -43.230
-20044.223	    15.376	   -62.753	   -27.845
-20082.770	    15.268	   -61.502	   -26.062
-20433.812	    15.157	   -46.155	   -62.135
-20212.467	    15.063	   -51.871	   -42.897
-20239.764	    15.174	   -64.285	   -36.073
-20306.465	    15.409	   -61.561	   -44.771
-20165.066	    15.639	   -62.503	   -27.383
-20074.348	    15.699	   -45.126	   -50.702
-20295.564	    15.614	   -58.621	   -34.420
-20043.262	    15.525	   -58.690	   -33.263
-20165.752	    15.345	   -58.867	   -36.142
-20323.447	    15.249	   -63.676	   -39.607
-20096.475	    15.174	   -54.221	   -47.804
-20025.223	    15.189	   -60.857	   -10.197
-20342.924	    15.256	   -61.046	   -36.832
-20186.844	    15.341	   -64.628	   -35.285
-20278.969	    15.386	   -73.303	   -38.184
-20199.268	    15.440	   -56.020	   -29.214
-20277.891	    15.546	   -55.865	   -42.560
-20211.248	    15.554	   -54.676	   -43.439
-20099.918	    15.501	   -59.700	   -27.875
-20082.031	    15.463	   -68.168	   -35.161
-20288.186	    15.465	   -76.941	   -37.637
-20246.172	    15.411	   -48.753	   -45.741
-20152.582	    15.445	   -53.478	   -39.487
-20202.307	    15.426	   -62.033	   -38.101
-20025.859	    15.320	   -66.673	   -42.494
-20417.730	    15.283	   -80.342	   -22.963
-20272.088	    15.241	   -46.039	   -27.400
-20013.518	    15.181	   -61.499	   -29.899
-20096.465	    15.149	   -64.340	   -51.688
-20169.271	    15.218	   -76.386	   -51.291
-20297.516	    15.258	   -73.294	   -54.013
-19964.336	    15.361	   -58.668	   -62.898
-20235.486	    15.441	   -64.576	   -39.992
-20034.531	    15.500	   -70.815	    -4.969
-20114.521	    15.537	   -64.356	   -37.568
-20198.049	    15.652	   -76.280	   -40.173
-20091.385	    15.621	   -52.733	   -43.331
-20114.725	    15.489	   -53.432	   -31.855
-20007.949	    15.391	   -46.951	   -45.853
-20286.902	    15.304	   -61.495	   -32.728
-20308.543	    15.270	   -54.586	   -42.897
-20364.162	    15.331	   -56.920	   -37.697
-20143.006	    15.502	   -68.858	   -61.443
-20095.582	    15.665	   -71.438	   -42.305
-20138.037	    15.605	   -59.939	   -41.051
-20242.967	    15.529	   -65.799	   -34.229
-19957.654	    15.655	   -54.779	   -36.670
-20067.885	    15.683	   -66.063	   -29.102
-19981.893	    15.596	   -48.823	   -23.203
-20354.420	    15.323	   -40.479	   -16.325
-20402.830	    15.242	   -52.289	   -39.754
-20215.408	    15.296	   -59.935	   -39.289
-20214.508	    15.399	   -70.566	   -38.127
-19981.850	    15.418	   -70.277	   -34.528
-20136.537	    15.583	   -63.464	   -39.928
-20151.750	    15.719	   -60.874	   -39.009
-20378.676	    15.671	   -52.685	   -29.577
-20021.863	    15.518	   -63.548	   -25.195
-20218.600	    15.279	   -48.177	   -49.217
-20219.465	    15.122	   -48.603	   -17.554
-20304.709	    15.184	   -57.815	   -17.080
-20175.639	    15.506	   -48.483	   -39.739
-19916.064	    15.711	   -76.943	   -27.241
-20223.020	    15.744	   -65.437	   -42.776
-20173.482	    15.694	   -58.333	   -24.641
-19974.641	    15.589	   -64.375	   -36.055
-20053.875	    15.587	   -61.679	   -42.363
-20034.449	    15.727	   -44.919	   -40.253
-19961.611	    15.753	   -50.583	   -49.676
-19799.193	    15.531	   -55.247	   -29.101
-20199.828	    15.260	   -48.092	   -43.492
-20318.939	    15.257	   -61.383	   -40.567
-20350.146	    15.348	   -58.744	   -26.469
-20251.555	    15.340	   -53.563	   -27.820
-20211.555	    15.377	   -68.232	   -33.123
-20140.242	    15.457	   -47.408	   -63.162
-20144.889	    15.593	   -43.769	   -50.023
-20068.996	    15.587	   -53.506	   -49.310
-20339.551	    15.452	   -48.957	   -44.906
-20516.721	    15.392	   -65.340	   -25.810
-20232.559	    15.365	   -61.005	   -41.152
-20269.219	    15.356	   -58.883	   -32.540
-20338.582	    15.411	   -65.369	   -36.193
-20047.873	    15.459	   -66.194	   -38.104
-20088.426	    15.444	   -78.244	   -36.592
-20051.938	    15.439	   -68.414	   -42.121
-20114.438	    15.416	   -70.205	   -40.435
-20162.885	    15.321	   -79.661	   -28.943
-20222.857	    15.190	   -69.831	   -37.601
-20404.414	    15.140	   -83.799	   -15.784
-20221.416	    15.198	   -72.027	   -31.076
-20250.602	    15.392	   -74.413	   -45.611
-20310.006	    15.494	   -62.218	   -34.287
-20204.375	    15.464	   -59.179	   -30.502
-20106.648	    15.397	   -58.163	   -44.054
-20049.461	    15.412	   -67.147	   -37.193
-20328.625	    15.391	   -66.175	   -23.311
-20097.406	    15.429	   -55.291	   -43.700
-20174.930	    15.457	   -74.270	   -38.776
-20164.945	    15.389	   -56.170	   -41.182
-20127.615	    15.135	   -61.566	   -43.469
-20310.504	    15.023	   -62.545	   -36.471
-20360.447	    15.235	   -66.898	   -47.217
-20154.941	    15.452	   -55.477	   -27.036
-20235.344	    15.645	   -66.414	   -30.744
-20215.914	    15.703	   -75.927	   -30.691
-20263.629	    15.555	   -69.415	   -48.521
-20200.340	    15.489	   -62.200	   -38.939
-20168.963	    15.345	   -78.416	   -46.503
-20193.564	    15.219	   -53.526	   -43.276
-20598.420	    15.166	   -66.965	   -48.104
-20209.393	    15.300	   -66.004	   -28.631
-20315.564	    15.493	   -66.341	   -45.230
-19983.744	    15.551	   -44.081	   -45.901
-20210.920	    15.445	   -59.010	   -58.424
-20239.947	    15.263	   -69.475	   -59.346
-20146.533	    15.216	   -60.778	   -46.928
-20257.289	    15.303	   -71.953	   -47.156
-20255.574	    15.409	   -61.776	   -39.340
-20138.783	    15.461	   -53.991	   -20.182
-20018.217	    15.401	   -81.867	   -39.623
-20456.133	    15.301	   -64.172	   -38.881
-20283.270	    15.343	   -71.790	   -37.441
-19955.994	    15.365	   -61.374	   -57.124
-20182.488	    15.324	   -50.291	   -45.283
-20370.848	    15.388	   -55.541	   -29.716
-20127.344	    15.436	   -54.625	   -37.518
-20036.459	    15.455	   -70.025	   -38.387
-19782.244	    15.523	   -68.954	   -22.198
-20004.471	    15.584	   -56.284	   -40.576
-20134.590	    15.501	   -54.170	   -44.613
-20234.049	    15.417	   -49.624	   -32.943
-20209.205	    15.435	   -64.759	   -26.724
-20114.023	    15.368	   -64.038	   -40.632
-20355.971	    15.284	   -60.865	   -38.588
-20051.418	    15.323	   -69.066	   -45.884
-20089.148	    15.400	   -84.044	   -40.822
-20178.154	    15.549	   -61.277	   -34.850
-19973.912	    15.581	   -54.869	   -36.352
-20064.252	    15.498	   -62.684	   -40.575
-20567.072	    15.397	   -70.981	   -37.099
-20174.469	    15.392	   -49.941	   -33.850
-20148.600	    15.302	   -59.388	   -27.691
-20461.859	    15.335	   -67.034	   -26.852
-20189.357	    15.352	   -66.062	   -43.167
-20140.176	    15.363	   -70.829	   -27.951
-19813.660	    15.498	   -51.728	   -38.606
-20277.963	    15.473	   -59.805	   -38.655
-20405.631	    15.343	   -57.731	   -29.252
-20507.967	    15.200	   -57.875	   -50.345
-20338.248	    15.192	   -62.219	   -24.708
-20454.541	    15.310	   -52.299	   -45.343
-20055.812	    15.524	   -52.405	   -45.045
-19921.990	    15.685	   -58.460	   -32.953
-20000.230	    15.828	   -67.770	   -23.220
-20024.033	    15.765	   -50.696	   -37.530
-20044.947	    15.578	   -52.438	   -24.990
-20185.393	    15.355	   -60.260	   -41.096
-20158.475	    15.180	   -66.964	   -45.291
-20239.133	    15.135	   -50.329	   -61.630
-20347.070	    15.209	   -69.824	   -52.497
-20215.518	    15.346	   -79.731	   -47.886
-20246.408	    15.503	   -69.778	   -46.797
-20192.328	    15.493	   -60.855	   -41.298
-20368.078	    15.377	   -59.750	   -22.477
-20255.107	    15.188	   -56.689	   -51.855
-20338.637	    15.036	   -70.258	   -26.008
-20264.916	    15.011	   -60.352	   -42.584
-20224.732	    15.071	   -53.541	   -53.340
-20204.074	    15.137	   -63.147	   -41.687
-19983.508	    15.270	   -62.372	   -40.321
-20249.604	    15.448	   -58.812	   -25.446
-20146.492	    15.702	   -63.577	   -42.776
-20124.320	    15.813	   -58.518	   -37.308
-20113.381	    15.724	   -64.924	   -28.802
-20324.717	    15.493	   -57.566	   -54.335
-20120.764	    15.215	   -69.174	   -41.825
-20260.045	    15.074	   -59.435	   -37.624
-20207.416	    15.081	   -59.070	   -38.989
-20045.002	    15.296	   -55.850	   -35.795
-20105.465	    15.489	   -53.910	   -52.338
-20084.047	    15.486	   -69.105	   -27.773
-20383.170	    15.324	   -44.565	   -46.253
-20008.973	    15.245	   -82.531	   -44.724
-20088.863	    15.266	   -47.776	   -36.738
-20367.174	    15.309	   -62.315	   -29.037
-19967.340	    15.414	   -65.629	   -30.315
-20151.227	    15.433	   -59.923	   -53.935
-20102.652	    15.497	   -58.023	   -37.575
-20047.340	    15.547	   -60.225	   -43.327
-20348.918	    15.466	   -60.488	   -35.474
-20437.881	    15.426	   -65.511	   -41.324
-20221.771	    15.550	   -69.258	   -44.337
-20248.523	    15.696	   -68.847	   -35.830
-20168.408	    15.708	   -69.198	   -40.798
-20128.561	    15.652	   -56.856	   -30.144
-20152.178	    15.606	   -58.377	   -20.341
-20153.807	    15.420	   -57.889	   -34.810
-20431.969	    15.212	   -73.179	   -40.279
-20338.916	    15.205	   -54.880	   -50.783
-20593.297	    15.292	   -60.713	   -28.154
-20110.580	    15.416	   -79.245	   -40.476
-20061.051	    15.620	   -53.843	   -42.028
-20385.832	    15.736	   -68.219	   -54.346
-20158.756	    15.822	   -51.202	   -38.369
-20229.184	    15.752	   -69.021	   -46.126
-20176.438	    15.612	   -47.543	   -43.741
-20231.840	    15.387	   -62.768	   -33.339
-20101.146	    15.235	   -51.751	   -48.976
-20277.092	    15.326	   -74.525	   -49.596
-20215.293	    15.509	   -59.286	   -36.972
-20359.252	    15.553	   -55.305	   -55.167
-20089.297	    15.558	   -64.879	   -36.987
-20118.305	    15.486	   -61.872	   -26.468
-19986.369	    15.346	   -54.533	   -26.983
-20130.734	    15.273	   -61.313	   -35.946
-20172.738	    15.267	   -55.392	   -42.440
-20260.637	    15.179	   -42.119	   -28.737
-20487.209	    15.164	   -61.023	   -28.833
-20059.330	    15.230	   -60.644	   -38.578
-20194.783	    15.435	   -72.368	   -44.520
-20034.092	    15.535	   -65.597	   -33.575
-19854.420	    15.592	   -67.725	   -25.267
-19896.129	    15.535	   -74.797	   -34.878
-20067.664	    15.372	   -44.625	   -39.468
-20341.537	    15.282	   -63.604	   -31.692
-20351.662	    15.341	   -73.219	   -44.563
-19861.781	    15.502	   -63.704	   -50.297
-20171.361	    15.605	   -70.138	   -32.751
-20377.693	    15.621	   -61.324	   -47.063
-20509.432	    15.513	   -66.801	   -27.925
-20067.949	    15.257	   -56.757	   -39.235
-20255.592	    15.131	   -47.473	   -56.170
-20309.650	    15.251	   -55.142	   -35.451
-20050.398	    15.398	   -67.894	   -34.731
-19998.793	    15.569	   -65.451	   -14.195
-20218.402	    15.615	   -56.578	   -42.953
-19930.287	    15.668	   -77.387	   -35.315
-20094.080	    15.614	   -53.267	   -44.360
-20271.504	    15.514	   -62.898	   -25.960
-20091.467	    15.444	   -46.949	   -34.861
-20185.859	    15.421	   -66.782	   -34.357
-20231.570	    15.451	   -56.218	   -31.276
-20164.475	    15.474	   -67.717	   -19.183
-20016.312	    15.450	   -53.491	   -49.604
-20287.318	    15.498	   -60.643	   -40.276
-20329.344	    15.534	   -70.584	   -35.922
-20138.494	    15.642	   -68.121	   -32.062
-20192.045	    15.674	   -67.728	   -37.949
-20187.969	    15.671	   -60.604	   -51.807
-20072.234	    15.490	   -63.805	   -43.638
-20432.512	    15.293	   -48.670	   -45.163
-20494.273	    15.252	   -53.389	   -33.782
-20197.555	    15.177	   -62.803	   -32.873
-20472.162	    15.113	   -54.977	   -54.130
-20164.061	    15.229	   -63.053	   -30.131
-20270.008	    15.365	   -64.285	   -43.036
-20228.018	    15.430	   -61.849	   -26.699
-20133.000	    15.364	   -73.937	   -33.846
-20250.611	    15.249	   -69.495	   -24.886
-20167.893	    15.256	   -59.969	   -42.667
-20053.340	    15.341	   -57.592	   -38.369
-20269.377	    15.434	   -68.295	   -24.048
-20176.512	    15.428	   -48.333	   -25.458
-20152.461	    15.371	   -51.653	   -36.347
-20436.277	    15.395	   -57.022	   -28.999
-19893.033	    15.473	   -61.594	   -33.194
-20386.154	    15.457	   -50.024	   -53.033
-20256.955	    15.498	   -55.330	   -48.163
-20434.982	    15.496	   -77.696	   -39.523
-20175.414	    15.413	   -70.382	   -22.068
-20174.385	    15.272	   -64.348	   -45.701
-20389.832	    15.061	   -51.915	   -32.515
-20460.891	    15.125	   -55.173	   -47.607
-20178.814	    15.395	   -58.868	   -41.443
-20073.760	    15.678	   -56.484	   -24.779
-20067.812	    15.805	   -57.164	   -54.365
-20121.289	    15.734	   -67.805	   -23.180
-20238.205	    15.531	   -62.507	   -34.119
-20032.115	    15.361	   -73.176	   -52.026
-20514.602	    15.256	   -70.332	   -57.250
-20367.979	    15.151	   -56.764	   -36.971
-20056.885	    15.194	   -58.151	   -39.753
-20010.480	    15.336	   -65.699	   -19.030
-19912.594	    15.452	   -68.051	   -37.534
-20143.094	    15.584	   -65.697	   -44.694
-19979.680	    15.579	   -49.536	   -47.658
-20248.021	    15.461	   -62.115	   -46.116
-20099.160	    15.483	   -74.902	   -33.929
-20093.410	    15.532	   -50.507	   -32.967
-20084.020	    15.537	   -47.797	   -42.814
-20043.209	    15.555	   -70.625	   -40.407
-20087.650	    15.487	   -34.998	   -44.845
-20319.688	    15.378	   -70.551	   -36.664
-20233.910	    15.326	   -51.681	   -41.466
-20048.143	    15.221	   -63.386	   -42.090
-20179.752	    15.249	   -60.179	   -23.651
-20415.625	    15.372	   -75.550	   -39.200
