-19947.150	    15.334	   -92.310	   122.143
-19988.197	    15.412	   -77.875	   -30.343
-20113.477	    15.489	   -88.767	    -2.972
-19885.529	    15.545	   -72.300	    -9.712
-19743.400	    15.534	   -86.464	   -22.391
-19815.275	    15.318	   -87.833	   -15.668
-20084.318	    15.180	   -72.234	    -8.324
-19998.627	    15.330	   -72.079	   -11.910
-20074.809	    15.518	   -86.622	   -23.858
-19973.234	    15.616	   -72.413	   -17.217
-19848.223	    15.723	   -72.715	   -29.150
-19854.193	    15.887	   -61.014	   -17.562
-19580.928	    15.827	   -69.439	    -2.575
-19912.260	    15.659	   -74.662	   -27.896
-20233.273	    15.379	   -63.317	   -31.443
-20096.648	    15.293	   -82.515	   -17.670
-19856.818	    15.418	   -52.929	   -12.513
-19892.693	    15.549	   -79.425	   -29.168
-19793.256	    15.631	   -61.280	   -27.025
-19798.363	    15.718	   -83.991	   -22.257
-20002.023	    15.747	   -76.024	    -8.548
-19840.723	    15.798	   -58.522	   -11.460
-19777.477	    15.777	   -66.953	   -29.406
-19774.461	    15.702	   -80.087	   -35.965
-20098.629	    15.418	   -79.172	   -10.926
-19834.551	    15.299	   -85.747	    10.874
-19873.814	    15.276	   -94.978	     6.357
-19769.807	    15.346	   -77.385	   -11.201
-19792.559	    15.436	   -70.528	   -33.078
-19691.439	    15.534	   -83.399	   -24.843
-19899.455	    15.563	   -84.287	   -19.315
-19827.160	    15.550	   -76.766	   -18.908
-20009.135	    15.524	   -74.067	   -16.940
-19943.500	    15.582	   -73.705	   -22.860
-19679.227	    15.664	   -78.324	   -11.389
-19887.689	    15.569	   -76.740	     3.426
-20299.340	    15.385	   -75.214	   -13.401
-20120.594	    15.259	   -80.802	   -10.951
-19821.936	    15.264	   -69.152	     1.507
-19844.654	    15.367	   -83.078	    -5.786
-20179.160	    15.598	   -94.799	   -33.451
-19854.881	    15.662	   -79.803	   -34.854
-19876.449	    15.574	   -64.942	   -34.572
-19816.020	    15.506	   -93.794	   -24.400
-19987.426	    15.431	   -92.507	   -27.336
-20098.219	    15.257	   -93.854	    -7.679
-19992.195	    15.048	   -69.670	     4.423
-19925.994	    15.054	   -91.711	    -2.346
-19925.969	    15.232	   -73.868	    -8.012
-20042.600	    15.543	   -72.339	   -26.824
-19653.590	    15.775	   -62.688	   -11.747
-19737.406	    15.874	   -78.816	   -11.845
-19616.965	    15.820	   -82.325	   -29.802
-19844.473	    15.588	   -75.075	   -17.839
-20151.926	    15.390	   -88.695	   -23.145
-19846.387	    15.297	   -80.752	    -6.955
-19660.941	    15.326	   -77.235	   -22.308
-19952.324	    15.373	   -81.854	   -14.842
-20142.635	    15.357	   -79.457	   -13.574
-20188.508	    15.427	   -84.010	   -26.358
-19982.336	    15.465	   -76.297	   -14.669
-19877.436	    15.480	  -102.851	   -32.866
-19920.055	    15.610	   -76.554	   -26.921
-20123.217	    15.685	   -92.129	   -17.974
-20199.342	    15.621	  -101.099	   -10.424
-19639.316	    15.596	   -74.754	   -27.579
-19874.014	    15.616	   -70.327	   -16.859
-19877.785	    15.618	   -64.639	   -32.348
-19920.322	    15.658	   -99.125	   -12.773
-19936.420	    15.598	   -70.399	   -19.054
-20105.090	    15.463	   -70.503	   -43.039
-19964.139	    15.370	   -63.582	   -22.816
-19763.088	    15.380	   -86.073	   -22.037
-20149.012	    15.409	  -102.251	   -24.389
-19891.523	    15.480	   -94.883	     2.771
-20035.188	    15.485	   -81.163	   -20.563
-19847.521	    15.548	   -88.506	    -5.665
-20068.076	    15.582	   -80.099	   -23.478
-19909.449	    15.527	   -77.628	   -31.368
-19831.158	    15.411	   -59.772	   -21.857
-19983.793	    15.252	   -80.167	     8.313
-19862.586	    15.132	   -75.031	    -6.507
-20009.674	    15.146	   -82.728	     2.581
-20055.971	    15.229	   -85.681	   -13.635
-19976.490	    15.310	   -92.932	   -14.598
-19425.211	    15.501	   -84.324	    -1.006
-19856.025	    15.546	   -74.100	    -3.038
-19758.082	    15.593	   -80.571	    -2.531
-20038.609	    15.583	   -97.154	   -18.913
-20139.877	    15.533	   -80.836	   -13.275
-19866.568	    15.567	   -73.731	    -9.602
-19805.172	    15.572	   -73.990	   -19.926
-20022.910	    15.483	   -88.409	   -29.338
-19904.424	    15.288	   -92.084	   -16.121
-19861.777	    15.234	   -80.164	   -14.675
-19850.094	    15.296	   -74.658	   -10.112
-19724.898	    15.466	   -74.709	   -25.347
-19908.348	    15.736	   -68.730	   -17.283
-19913.508	    15.864	   -79.752	   -33.028
-19920.693	    15.785	  -102.145	     2.329
-19855.348	    15.746	   -86.481	     3.974
-19983.645	    15.724	   -82.385	     5.143
-19982.627	    15.645	   -83.056	   -18.539
-19838.408	    15.526	   -87.296	   -29.338
-20159.672	    15.439	   -66.598	   -34.339
-20134.283	    15.412	   -78.793	   -21.208
-19848.639	    15.496	   -83.569	    -9.227
-19986.002	    15.608	   -64.639	   -16.116
-19880.764	    15.689	   -79.218	    -9.127
-20023.584	    15.677	   -75.429	   -25.029
-19950.402	    15.550	   -91.895	   -28.667
-19921.068	    15.402	   -96.210	   -18.707
-19850.088	    15.394	   -79.464	   -13.349
-20131.281	    15.492	   -83.702	   -39.425
-19892.893	    15.540	   -89.492	    -5.530
-19563.160	    15.636	   -63.136	   -25.488
-19540.740	    15.718	   -77.901	   -22.898
-19582.732	    15.738	   -86.696	   -19.834
-19868.281	    15.745	   -96.562	   -28.624
-19943.561	    15.503	   -85.917	   -16.626
-20054.355	    15.287	   -88.976	    -7.759
-20120.689	    15.122	   -80.398	   -11.979
-19709.967	    15.181	   -78.670	    -9.694
-19968.379	    15.305	   -73.398	    -0.270
-19989.838	    15.386	   -89.095	   -10.149
-19903.633	    15.458	   -69.049	   -33.988
-19782.221	    15.471	   -91.327	    -4.845
-19818.588	    15.487	  -100.434	   -28.665
-20192.719	    15.564	   -80.726	   -23.735
-20094.877	    15.583	   -86.893	   -28.465
-20195.770	    15.551	  -104.034	   -23.321
-20049.129	    15.555	   -87.753	   -26.774
-19943.471	    15.581	   -96.413	   -21.720
-20026.238	    15.622	   -86.325	   -14.311
-19858.039	    15.635	  -100.392	   -15.512
-19788.621	    15.482	   -70.017	    -9.819
-19934.537	    15.260	   -79.681	    -9.703
-19932.842	    15.203	   -81.226	   -22.632
-19994.975	    15.235	   -84.412	   -12.660
-20069.729	    15.319	   -98.182	   -14.132
-20018.477	    15.490	   -95.654	    -9.475
-19627.666	    15.665	   -76.959	     2.456
-20129.197	    15.645	   -84.991	   -16.711
-19971.078	    15.603	   -79.824	   -25.518
-20236.172	    15.511	   -82.833	   -12.074
-19884.682	    15.468	   -81.448	   -29.135
-19938.650	    15.477	   -73.217	    -7.049
-19958.229	    15.514	  -102.563	   -15.800
-20167.711	    15.490	   -75.790	    -4.091
-20297.172	    15.424	   -77.246	   -11.984
-19921.508	    15.471	   -83.359	   -11.093
-20081.010	    15.579	   -77.721	     9.662
-19830.748	    15.688	   -81.609	   -10.206
-20081.277	    15.687	  -106.615	   -30.592
-19973.877	    15.593	  -103.518	   -15.060
-20048.623	    15.523	   -96.487	    -6.757
-20155.854	    15.449	   -91.120	   -18.023
-19758.975	    15.466	   -74.289	   -26.361
-19881.193	    15.572	  -100.433	    -6.545
-19623.408	    15.683	   -69.977	   -19.586
-19986.949	    15.659	   -80.719	   -20.048
-20051.014	    15.689	   -91.491	    -7.679
-19870.988	    15.828	  -107.587	   -13.173
-19688.391	    15.957	   -86.579	   -28.551
-19727.982	    15.805	   -72.392	    -6.440
-19978.086	    15.627	   -89.438	   -14.856
-20028.359	    15.522	   -84.003	    -2.929
-19968.701	    15.515	   -77.842	   -20.753
-19856.016	    15.631	   -92.769	   -17.011
-19819.570	    15.753	   -84.372	     3.364
-19774.879	    15.796	   -76.174	   -15.569
-19780.377	    15.644	   -77.583	   -13.151
-20050.896	    15.448	   -73.406	   -16.930
-19888.508	    15.413	   -77.152	     0.796
-19817.119	    15.434	   -82.596	   -21.449
-19859.033	    15.410	   -80.095	   -20.624
-19836.623	    15.419	   -70.727	   -22.395
-19796.121	    15.519	   -56.010	   -15.408
-19683.637	    15.594	   -95.283	    -2.261
-19790.449	    15.649	   -88.469	   -10.776
-19934.391	    15.604	   -71.974	   -18.519
-19962.119	    15.451	   -87.336	   -20.459
-19786.100	    15.235	   -83.886	    -2.591
-19975.818	    15.156	   -92.548	   -12.758
-19804.113	    15.320	   -72.168	   -23.323
-19835.834	    15.551	   -85.426	   -23.054
-19895.703	    15.609	   -75.381	    -8.605
-20187.332	    15.582	   -68.629	    -6.874
-19877.236	    15.528	   -74.130	   -15.996
-19905.193	    15.348	   -88.293	   -25.313
-20188.170	    15.249	   -80.570	    -9.056
-19854.771	    15.268	   -82.116	   -17.725
-20135.500	    15.266	   -78.978	   -22.992
-19837.830	    15.250	   -87.581	    -5.881
-19794.340	    15.308	   -83.310	   -11.242
-19875.248	    15.397	   -94.577	   -13.085
-19825.637	    15.482	   -78.225	   -25.175
-19955.891	    15.529	   -89.866	    -9.041
-19820.020	    15.489	   -72.416	   -16.093
-19874.645	    15.293	   -72.515	   -14.437
-20069.068	    15.155	   -98.660	   -42.997
-20084.742	    15.123	   -80.797	   -42.595
-19959.082	    15.368	   -93.794	     4.176
-19578.725	    15.677	  -114.409	    -9.916
-19845.643	    15.868	   -94.061	   -20.419
-19841.973	    15.860	   -91.086	     2.606
-19891.623	    15.734	   -87.244	   -23.440
-19893.189	    15.621	   -71.760	   -15.264
-19882.264	    15.467	   -73.357	   -20.031
-20156.428	    15.418	   -71.263	   -25.464
-20330.621	    15.395	   -86.289	     0.132
-19975.547	    15.317	   -79.129	   -27.946
-20055.133	    15.254	   -92.635	   -21.634
-19946.877	    15.348	   -82.279	   -22.472
-20091.680	    15.581	   -73.648	    -9.247
-19778.309	    15.718	   -86.123	   -35.387
-19735.219	    15.808	   -69.159	   -15.845
-19864.146	    15.768	   -81.840	   -21.701
-19838.510	    15.676	   -72.723	   -26.897
-19883.705	    15.590	   -76.164	   -31.410
-19964.480	    15.487	   -74.341	   -22.470
-20100.846	    15.407	   -84.369	   -21.545
-20078.904	    15.435	   -67.407	   -28.107
-19725.658	    15.504	   -58.488	   -24.899
-19710.145	    15.625	   -97.475	   -29.479
-20166.383	    15.556	  -100.500	   -20.713
-20066.080	    15.372	   -88.539	   -35.277
-20114.635	    15.349	   -83.308	    -7.337
-20037.979	    15.341	   -79.033	   -12.992
-20055.180	    15.403	   -75.092	   -28.478
-19932.098	    15.366	   -81.456	    -1.559
-19989.936	    15.452	   -72.719	   -11.504
-19705.984	    15.587	   -72.892	   -18.531
-19947.053	    15.650	   -68.647	   -12.411
-19987.250	    15.567	   -89.957	   -28.875
-19981.881	    15.566	   -84.232	   -33.240
-20055.621	    15.604	   -96.032	   -28.808
-20053.773	    15.602	   -73.543	   -15.739
-19926.799	    15.604	   -76.961	   -25.338
-19892.154	    15.549	   -76.579	    -3.407
-19809.145	    15.646	   -82.002	   -10.186
-19730.316	    15.782	   -54.469	   -21.897
-19979.738	    15.758	   -74.873	   -44.125
-19903.736	    15.617	   -84.255	   -29.137
-19792.105	    15.395	   -81.123	    11.402
-19754.047	    15.259	   -93.018	   -17.628
-19814.695	    15.237	   -73.407	   -10.079
-19678.670	    15.297	   -74.269	   -29.115
-19795.580	    15.497	   -84.586	   -10.428
-19921.164	    15.704	   -66.836	   -31.865
-19826.479	    15.804	   -72.951	   -24.282
-19806.316	    15.758	   -87.162	   -34.315
-19711.092	    15.608	   -75.285	   -32.966
-19999.529	    15.590	   -78.309	   -35.939
-19632.082	    15.522	   -72.613	   -17.331
-19955.463	    15.231	   -83.494	   -42.549
-19950.578	    15.073	   -70.760	   -27.411
-19785.217	    15.233	  -101.840	   -23.042
-19923.691	    15.447	   -85.128	     1.326
-19691.539	    15.534	  -109.221	   -17.096
-19923.148	    15.562	  -107.611	    -9.477
-19544.635	    15.517	   -77.287	   -28.408
-19829.086	    15.371	   -78.725	   -16.744
-19951.924	    15.339	   -85.124	   -18.748
-19914.895	    15.314	   -71.073	   -22.659
-20196.816	    15.327	   -78.017	   -19.421
-19742.018	    15.583	   -80.857	   -10.828
-19737.674	    15.761	   -85.035	   -20.510
-19716.723	    15.792	   -79.429	   -19.188
-19747.076	    15.767	   -75.667	    -9.109
-19974.955	    15.694	   -81.110	   -26.046
-20005.865	    15.639	   -73.374	   -33.183
-19815.211	    15.595	   -72.618	   -25.883
-19925.881	    15.568	   -86.080	    -9.828
-20114.168	    15.413	   -70.018	   -26.313
-19949.453	    15.415	   -87.658	   -23.384
-19855.869	    15.482	   -81.168	     9.148
-19695.316	    15.557	   -90.614	    -9.017
-20058.488	    15.603	   -83.332	     3.038
-19861.299	    15.620	   -72.101	    -6.706
-19899.861	    15.662	   -93.935	   -26.164
-19719.234	    15.650	   -78.379	   -36.756
-19911.545	    15.420	  -105.766	   -23.124
-20095.518	    15.273	  -109.231	   -37.137
-20112.232	    15.303	   -99.645	   -16.686
-19902.949	    15.455	   -92.446	   -15.883
-19584.166	    15.494	   -84.562	   -19.463
-19830.289	    15.353	   -75.548	   -22.442
-20193.762	    15.287	   -75.174	    -1.139
-19962.645	    15.375	   -79.300	   -10.258
-19902.381	    15.577	   -77.579	   -18.569
-19743.977	    15.582	   -70.099	   -31.407
-19773.625	    15.554	   -96.193	    -8.258
-19950.096	    15.548	   -86.512	   -10.646
-19866.406	    15.694	  -100.542	   -22.750
-19713.648	    15.831	   -83.137	   -28.518
-19824.238	    15.912	   -90.199	    -8.367
-20075.008	    15.862	   -89.682	    -5.898
-20036.684	    15.659	   -78.134	   -20.986
-19924.777	    15.527	   -79.326	   -14.990
-19823.412	    15.432	   -91.199	   -25.634
-19823.721	    15.440	   -78.717	   -18.265
-19916.455	    15.499	   -86.663	   -22.971
-19888.926	    15.591	   -87.316	   -22.290
-20051.334	    15.690	   -78.254	     6.339
-19912.514	    15.752	   -93.984	   -18.777
-19736.477	    15.729	   -82.779	   -21.200
-19981.742	    15.494	   -84.426	   -20.033
-19930.754	    15.186	   -67.216	   -23.205
-19973.330	    15.018	   -91.767	    -4.805
-20031.027	    15.144	   -86.132	    -4.551
-19936.594	    15.358	   -71.568	   -21.585
-19637.811	    15.477	   -67.307	   -26.051
-20080.555	    15.638	   -85.427	   -17.517
-19725.959	    15.742	  -102.948	     1.916
-19901.947	    15.673	  -100.025	    -6.408
-19966.018	    15.397	   -97.375	   -17.474
-20035.631	    15.154	   -75.142	   -10.167
-20063.307	    15.082	   -85.719	   -22.474
-19807.162	    15.288	   -74.067	    -3.879
-19950.494	    15.657	   -81.969	   -22.684
-19923.369	    15.897	   -79.007	   -23.269
-19929.627	    15.879	   -98.798	   -32.562
-20014.160	    15.741	   -73.632	   -30.189
-19941.418	    15.545	   -69.610	   -16.117
-19861.887	    15.440	   -87.452	   -25.081
-20111.387	    15.403	   -77.541	   -17.147
-19881.621	    15.458	   -74.532	   -30.959
-19841.059	    15.546	   -73.960	   -18.180
-20017.250	    15.687	   -91.778	   -17.285
-19802.920	    15.701	   -78.372	   -15.006
-19914.252	    15.510	   -85.158	    -8.533
-19694.939	    15.319	   -99.377	   -36.409
-20037.832	    15.318	   -75.163	   -33.162
-19951.928	    15.390	   -68.871	   -16.180
-20068.504	    15.537	   -82.355	   -26.680
-19762.783	    15.710	   -76.321	   -37.627
-19751.182	    15.732	   -62.135	   -21.330
-19788.355	    15.601	   -87.625	   -10.469
-19586.291	    15.468	   -75.658	   -31.197
-20062.166	    15.369	   -86.589	    -4.887
-20238.135	    15.266	   -54.112	   -32.528
-20297.141	    15.252	   -81.163	   -16.019
-19905.061	    15.365	   -79.337	   -31.266
-19798.977	    15.580	   -67.294	   -25.902
-19771.354	    15.790	   -85.474	    -5.222
-19714.482	    15.825	   -77.678	   -12.677
-19942.498	    15.685	   -91.681	   -42.610
-20097.270	    15.457	   -87.538	   -31.478
-19842.533	    15.214	   -67.927	    -6.895
-19905.514	    15.078	   -74.437	   -10.439
-20206.842	    15.175	   -80.473	   -27.189
-20124.641	    15.512	   -83.423	    -8.303
-20016.195	    15.870	   -83.207	   -15.816
-19637.623	    16.046	   -85.386	   -11.735
-19698.379	    15.916	   -68.794	   -26.674
-19611.609	    15.734	   -84.807	    -6.494
-19950.525	    15.503	   -70.892	   -10.500
-19881.850	    15.382	   -62.041	   -19.411
-20033.459	    15.306	   -63.731	   -12.571
-20189.596	    15.302	   -78.876	   -24.131
-20088.619	    15.446	   -83.513	    -8.629
-19701.652	    15.643	   -76.268	   -15.093
-19807.955	    15.742	   -88.810	   -10.552
-19820.678	    15.743	   -67.449	   -26.754
-19781.098	    15.686	   -62.613	   -30.013
-19893.939	    15.487	   -77.899	   -23.862
-19796.934	    15.251	   -86.694	   -28.360
-19973.990	    15.185	   -72.072	   -16.310
-19811.027	    15.470	   -69.302	    -8.774
-19757.703	    15.726	   -70.721	   -26.006
-19991.445	    15.684	   -86.713	     2.751
-19715.465	    15.560	   -77.333	    -8.555
-20253.818	    15.530	   -75.240	   -18.248
-19784.783	    15.568	   -65.572	   -24.934
-19863.578	    15.496	   -94.037	   -12.899
-19770.066	    15.425	   -81.542	   -13.834
-20034.586	    15.418	   -74.680	    -4.175
-19924.619	    15.377	   -81.916	   -21.613
-20394.473	    15.388	   -80.342	   -27.140
-19672.303	    15.562	   -72.072	   -25.795
-19960.904	    15.578	   -72.530	    -0.691
-19810.945	    15.579	   -80.446	   -25.300
-19860.332	    15.546	   -81.301	    -1.351
-20185.984	    15.323	   -81.541	   -15.516
-19873.857	    15.245	   -77.186	   -13.277
-20077.332	    15.300	   -77.703	   -14.258
-20000.049	    15.467	   -89.490	   -22.157
-20163.473	    15.552	   -87.842	   -11.208
-19884.289	    15.468	   -73.537	   -18.437
-19643.955	    15.572	   -85.332	    -8.912
-19850.098	    15.644	   -67.072	   -29.403
-19899.135	    15.619	   -85.591	   -12.841
-19787.498	    15.474	   -65.505	   -34.694
-19909.334	    15.348	   -87.425	   -23.617
-19948.338	    15.362	   -72.326	   -29.595
-19928.510	    15.455	   -81.721	    -8.063
-19918.920	    15.525	   -62.190	   -21.276
-20094.750	    15.559	   -83.487	   -10.679
-19853.691	    15.649	   -66.431	   -12.485
-19879.617	    15.679	   -84.860	   -16.855
-20059.607	    15.652	   -99.927	   -25.426
-19975.883	    15.532	   -79.958	   -16.486
-19879.137	    15.432	  -102.257	   -14.542
-19731.609	    15.467	   -86.397	   -24.974
-20007.225	    15.553	  -100.310	    -9.356
-19871.734	    15.652	   -88.626	   -19.517
-19879.867	    15.602	   -83.481	   -23.395
-20065.967	    15.572	   -85.284	   -18.515
-19961.461	    15.458	   -86.466	   -24.836
-20062.744	    15.280	   -68.295	   -25.732
-20174.764	    15.222	   -82.708	   -30.842
-19958.340	    15.334	   -78.447	    -1.534
-19725.602	    15.585	   -75.682	   -16.891
-19929.188	    15.828	   -91.099	   -13.838
-19629.559	    16.046	   -61.353	   -16.870
-19848.000	    16.026	   -63.336	    -6.415
-19787.043	    15.875	   -81.485	   -20.280
-20081.549	    15.688	   -77.876	   -10.679
-19941.691	    15.472	   -70.219	   -27.065
-19772.277	    15.352	   -76.731	   -28.994
-19981.789	    15.207	   -85.406	   -18.441
-19991.262	    15.233	   -76.017	   -17.789
-19995.016	    15.510	   -78.877	   -15.299
-19756.971	    15.778	   -73.961	   -29.467
-19827.518	    15.844	   -81.136	   -12.692
-19889.418	    15.927	   -61.306	   -25.435
-19842.162	    15.957	   -75.838	   -20.077
-19943.178	    15.808	   -78.123	   -28.227
-19761.121	    15.635	   -90.400	    -2.895
-19964.783	    15.420	   -84.980	   -13.399
-19938.750	    15.282	   -81.654	   -11.625
-19789.490	    15.278	   -91.042	     0.596
-19844.055	    15.363	   -93.537	   -30.758
-19853.770	    15.423	   -87.592	   -28.520
-19813.645	    15.533	   -76.907	   -15.547
-19949.525	    15.689	   -81.233	   -24.114
-19560.621	    15.762	   -79.861	   -22.897
-19874.092	    15.648	   -64.829	   -38.378
-19837.477	    15.485	   -75.112	   -29.354
-19860.297	    15.344	   -70.355	   -36.841
-20040.348	    15.199	   -69.647	   -13.763
-19978.525	    15.176	   -74.752	     4.897
-20011.979	    15.342	   -65.482	   -12.976
-19795.463	    15.545	   -82.141	    -6.371
-19770.361	    15.716	   -93.732	   -18.992
-20023.459	    15.828	   -87.165	   -20.153
-19835.012	    15.871	   -81.547	   -25.289
-19891.666	    15.803	   -65.250	   -33.208
-20131.566	    15.637	   -81.978	   -13.966
-19675.998	    15.462	   -67.128	   -12.772
-19810.309	    15.465	   -71.465	    -1.602
-19941.863	    15.512	   -57.003	   -18.802
-19912.943	    15.621	   -76.927	   -35.651
-19772.385	    15.806	   -77.325	   -18.355
-20073.111	    15.763	   -77.111	   -18.314
-19631.994	    15.512	   -84.331	   -19.084
-19956.914	    15.298	   -71.554	   -17.246
-20039.656	    15.298	   -78.371	   -28.997
-19834.434	    15.567	   -78.573	   -30.819
-19970.992	    15.746	   -72.137	    -7.490
-19990.016	    15.821	   -78.570	   -18.062
-19960.557	    15.711	   -75.695	   -12.100
-19811.758	    15.495	   -98.860	    -8.670
-19981.604	    15.203	   -82.046	   -21.413
-19950.289	    15.173	   -64.745	   -13.533
-19861.281	    15.412	   -88.602	   -15.933
-19890.891	    15.737	   -90.107	     2.052
-19814.828	    16.029	   -74.686	    -7.885
-19831.346	    16.092	   -95.791	   -15.240
-19990.607	    15.896	   -75.702	   -18.450
-20057.572	    15.777	   -61.850	   -33.492
-19734.182	    15.685	   -95.662	   -10.558
-19978.801	    15.597	   -87.109	   -26.392
-20208.139	    15.508	   -73.120	   -31.099
-19911.211	    15.570	   -75.139	   -20.472
-20122.756	    15.535	   -80.883	   -26.362
-20159.037	    15.513	  -109.644	   -13.010
-19870.109	    15.552	   -80.852	   -17.115
-20016.951	    15.455	   -80.818	   -11.951
-20142.104	    15.410	   -73.384	   -22.570
-19887.760	    15.469	   -76.411	   -15.786
-19889.871	    15.592	   -84.143	   -20.230
-19786.633	    15.675	   -73.429	   -19.236
-19947.715	    15.573	   -75.761	   -12.373
-19842.748	    15.508	   -70.360	   -30.189
-20083.861	    15.412	   -96.729	   -11.206
-19998.449	    15.248	   -68.607	   -36.966
-20132.904	    15.119	   -78.579	   -24.797
-20178.967	    15.215	   -76.644	    -7.280
-19807.084	    15.519	   -79.960	    -6.856
-19890.947	    15.835	   -89.695	    -1.018
-19686.416	    15.959	   -72.266	   -11.912
-19760.307	    15.793	   -79.091	   -28.626
-20066.984	    15.519	   -80.019	   -20.063
-19843.064	    15.281	   -73.584	    -7.122
-19962.498	    15.169	   -65.750	   -26.431
-20396.518	    15.280	   -83.206	     1.204
-19770.887	    15.537	   -89.755	   -26.837
-19793.797	    15.728	   -81.136	    -9.533
-19805.594	    15.756	   -73.531	   -28.647
-19933.914	    15.658	   -81.889	   -42.721
-19841.250	    15.592	   -86.698	   -16.559
-19910.084	    15.478	   -72.705	   -21.766
-20228.094	    15.391	   -82.246	    -2.530
-19930.889	    15.301	   -97.939	    -8.762
-19922.662	    15.279	   -95.998	    -5.921
-20001.818	    15.340	   -80.635	   -23.936
-20143.953	    15.480	  -103.674	   -11.855
-20065.955	    15.513	   -71.265	   -28.043
-20003.168	    15.519	   -71.698	   -21.791
-19864.375	    15.487	   -73.350	   -18.619
-19790.934	    15.303	   -75.441	   -32.537
-20063.756	    15.148	   -80.997	    -8.564
-20029.521	    15.318	   -67.965	    -5.604
-19982.867	    15.660	   -85.706	   -20.498
-19793.127	    15.941	   -76.131	   -21.002
-19874.857	    16.072	   -68.689	   -19.996
-20091.082	    16.036	   -98.781	   -21.229
-19839.322	    15.805	   -93.311	   -36.072
-19778.449	    15.609	   -78.549	   -14.163
-19839.516	    15.290	   -80.018	   -38.814
-19795.422	    14.989	   -67.864	   -36.819
-20176.584	    15.021	   -75.651	   -30.236
-19893.807	    15.226	   -85.999	    -9.527
-20123.471	    15.424	   -77.318	    -7.311
-20010.064	    15.534	   -87.114	     0.622
-19943.709	    15.546	   -97.852	   -31.325
-19787.631	    15.572	  -102.385	    -8.054
-19978.412	    15.707	   -65.985	   -29.368
-19982.928	    15.738	   -88.748	   -11.146
-19852.832	    15.696	   -91.636	    -9.937
-19945.496	    15.529	   -79.524	    -3.493
-20130.109	    15.314	   -81.101	   -34.785
-20133.160	    15.168	   -69.831	   -32.230
-20136.225	    15.345	   -83.980	   -26.105
-20062.451	    15.769	   -58.379	   -28.944
-20082.596	    16.110	   -84.345	     8.789
-19646.188	    16.197	   -65.293	   -19.434
-19628.594	    16.052	   -83.301	    -9.610
-19794.021	    15.736	   -77.269	   -21.903
-19923.336	    15.464	  -106.481	    -6.718
-20053.619	    15.214	   -65.893	   -37.215
-20015.102	    15.157	   -77.344	   -13.029
-19894.447	    15.175	   -79.706	   -22.935
-20011.148	    15.472	   -90.905	   -27.729
-20014.467	    15.718	   -78.079	   -16.015
-19850.279	    15.831	   -75.342	   -25.835
-19870.172	    15.693	   -89.518	   -18.865
-19901.195	    15.501	   -78.195	   -13.662
-20048.693	    15.269	   -79.703	   -12.054
-20122.711	    15.239	   -85.137	   -17.310
-20091.602	    15.553	   -89.620	   -18.584
-19917.273	    15.873	   -66.896	   -20.902
-19650.840	    16.065	   -87.373	   -16.407
-19823.271	    16.020	   -88.640	    -8.002
-19833.379	    15.783	   -80.711	   -25.241
-19946.234	    15.541	   -82.653	   -23.438
-20036.836	    15.390	   -91.367	   -36.355
-20066.844	    15.410	   -88.614	   -27.166
-19882.404	    15.456	   -74.175	   -37.398
-19907.213	    15.452	   -90.378	    -1.211
-19949.855	    15.572	   -89.646	   -29.962
-19788.256	    15.674	   -83.729	   -23.055
-19812.332	    15.719	   -90.035	   -17.071
-19783.432	    15.645	   -79.886	   -22.951
-19692.914	    15.544	   -84.407	   -16.505
-20187.691	    15.546	   -80.615	    -9.653
-20146.770	    15.550	   -76.935	   -20.152
-20154.824	    15.546	   -73.568	   -29.109
-20061.594	    15.476	   -83.293	   -16.569
-20005.512	    15.518	   -92.186	   -11.288
-19900.361	    15.581	   -85.262	   -19.596
-19813.283	    15.661	   -76.774	    -5.227
-19589.881	    15.600	  -103.437	   -13.943
-19864.510	    15.522	   -77.932	   -16.569
-19517.307	    15.440	   -56.741	    -8.162
-19775.221	    15.374	   -72.590	    -8.813
-19897.963	    15.500	   -67.794	   -12.247
-19885.951	    15.561	   -72.035	   -33.680
-19860.439	    15.615	   -75.811	   -17.665
-19745.127	    15.549	   -92.427	   -19.720
-19882.547	    15.534	   -82.545	   -19.398
-19905.586	    15.562	   -88.654	   -23.664
-20034.439	    15.605	   -94.616	   -21.570
-19820.668	    15.650	  -106.131	   -13.938
-19647.686	    15.604	   -86.572	   -10.381
-19941.215	    15.473	   -70.423	   -19.678
-20029.697	    15.469	   -92.926	   -24.507
-19952.352	    15.618	   -73.457	   -24.967
-19655.977	    15.721	   -81.453	   -17.868
-20033.764	    15.779	   -77.904	   -14.558
-20005.500	    15.785	   -78.609	   -24.500
-19761.035	    15.726	   -84.464	   -19.405
-20004.736	    15.626	   -80.099	   -37.244
-19772.119	    15.471	   -77.318	   -20.285
-19740.150	    15.579	   -65.685	   -11.031
-19549.352	    15.863	   -91.826	   -41.967
-19597.752	    16.053	   -92.776	   -19.633
-19650.508	    15.956	   -62.334	   -54.533
-19661.473	    15.581	   -90.115	   -21.084
-20118.594	    15.243	   -62.762	   -19.931
-20261.787	    15.162	   -71.104	   -16.652
-19906.553	    15.324	   -88.491	    -7.566
-19867.525	    15.649	   -89.899	   -15.985
-19770.473	    15.955	   -80.850	   -11.396
-19892.920	    15.943	   -66.585	   -19.122
-19861.061	    15.902	   -72.654	   -23.793
-19655.459	    15.839	   -81.787	   -12.681
-19852.484	    15.708	   -67.809	   -19.326
-19884.930	    15.585	   -82.983	    -7.828
-19790.883	    15.490	   -82.528	     3.425
-20092.750	    15.324	   -84.368	    -7.493
-19858.535	    15.163	   -72.891	    -5.811
-19795.590	    15.236	  -100.699	    -7.373
-20218.059	    15.446	   -81.693	   -19.397
-19880.699	    15.693	  -101.795	    -7.825
-19813.049	    15.909	   -82.109	   -17.412
-19717.525	    15.856	   -84.551	   -16.698
-19953.801	    15.647	   -91.179	   -24.934
-19898.191	    15.523	   -84.574	   -15.633
-20037.506	    15.578	  -100.551	   -26.980
-20073.953	    15.645	   -78.309	   -33.333
-19673.896	    15.742	   -88.894	    -9.862
-19673.465	    15.728	   -97.720	    -6.142
-20049.594	    15.602	   -82.440	     1.323
-19968.379	    15.476	   -71.214	   -10.335
-20299.707	    15.552	   -72.571	   -23.251
-20206.100	    15.638	   -70.185	   -31.769
-20156.078	    15.665	   -81.087	   -29.921
-19973.506	    15.611	   -83.219	   -14.244
-19900.279	    15.486	   -75.536	   -20.683
-19869.090	    15.463	   -70.939	    -9.664
-20004.812	    15.640	   -64.144	   -31.739
-19832.381	    15.770	   -88.152	   -14.824
-19865.000	    15.714	   -88.612	   -27.620
-19580.273	    15.560	   -81.915	   -16.109
-20010.324	    15.537	   -72.241	   -28.491
-19896.057	    15.638	   -74.156	   -13.691
-19886.990	    15.614	   -97.091	   -13.204
-19808.371	    15.467	   -90.480	   -20.733
-19932.430	    15.310	   -83.414	   -24.346
-20148.807	    15.276	   -66.545	   -17.088
-19874.580	    15.432	   -81.607	   -26.471
-20014.260	    15.664	   -79.084	   -12.131
-20051.355	    15.845	   -82.799	   -10.689
-19979.779	    15.815	   -89.135	     5.036
-19852.570	    15.778	   -78.376	   -11.485
-19845.295	    15.697	   -69.328	    20.712
-19942.883	    15.551	   -70.537	     6.354
-20006.379	    15.370	   -77.297	   -28.016
-20062.957	    15.237	   -77.187	    -2.649
-20284.098	    15.219	   -81.226	   -28.513
-20149.965	    15.254	   -78.204	    -7.993
-19973.609	    15.442	   -78.357	   -19.766
-19941.393	    15.607	   -88.268	    -5.138
-19961.326	    15.679	   -72.985	    -0.388
-19589.346	    15.648	   -98.850	   -11.862
-20058.064	    15.520	   -77.800	   -27.670
-20051.568	    15.429	   -73.740	   -31.252
-20058.549	    15.333	   -81.331	   -33.288
-19972.934	    15.326	   -74.396	   -17.149
-20029.592	    15.402	   -83.925	     2.556
-20114.295	    15.502	   -71.951	   -14.569
-20098.053	    15.535	   -94.555	   -33.859
-19956.146	    15.549	   -74.712	    -3.346
-19961.258	    15.604	   -66.054	   -17.476
-19664.441	    15.751	   -59.841	   -30.785
-20075.012	    15.733	   -83.394	   -14.734
-19938.332	    15.565	   -72.541	   -42.719
-19890.986	    15.358	   -87.144	    -1.212
-19969.910	    15.298	   -73.338	   -23.798
-20197.893	    15.235	   -79.842	   -12.333
-19896.691	    15.213	   -82.921	    -2.111
-20050.787	    15.328	   -70.213	   -13.444
-19832.965	    15.664	   -64.942	    -8.352
-19817.334	    15.885	   -88.517	   -20.443
-20199.758	    15.980	   -78.955	    -9.209
-19945.762	    16.044	   -64.994	    -3.546
-19526.912	    16.042	   -91.148	   -15.177
-19923.672	    15.934	   -82.527	   -25.530
-19932.189	    15.789	   -79.366	     3.155
-20036.820	    15.552	   -91.751	    -4.349
-19878.607	    15.241	   -71.100	   -14.982
-20135.514	    15.177	   -81.857	   -18.759
-20218.863	    15.345	   -73.498	   -29.853
-20067.389	    15.587	   -70.045	   -27.489
-19885.668	    15.705	   -82.113	   -24.368
-19881.180	    15.583	   -78.592	   -21.495
-19742.059	    15.420	   -95.252	   -29.481
-19908.947	    15.342	   -69.063	   -30.864
-19971.379	    15.395	   -71.113	   -25.215
-20059.980	    15.343	   -64.133	   -29.146
-19851.715	    15.327	   -90.102	     1.855
-19831.539	    15.410	   -73.167	   -30.843
-19956.498	    15.535	   -76.293	   -31.572
-19823.852	    15.639	   -73.094	   -23.022
-20060.756	    15.622	   -87.047	   -14.339
-19999.535	    15.568	   -80.103	    -2.263
-20095.424	    15.537	   -64.655	   -10.841
-19883.225	    15.462	   -78.879	    -9.628
-19886.721	    15.398	   -84.142	   -24.247
-19675.451	    15.482	   -82.719	   -16.193
-19776.822	    15.641	   -82.084	   -37.124
-19799.422	    15.696	   -72.859	   -40.399
-19870.707	    15.537	   -89.264	   -15.969
-19598.502	    15.360	   -91.891	   -30.236
-20001.758	    15.313	   -92.978	   -31.544
-20010.342	    15.459	   -71.101	   -40.040
-20138.137	    15.720	   -78.624	    -6.764
-19805.709	    15.980	   -85.943	   -23.302
-19775.256	    15.999	   -86.491	    -7.298
-19794.873	    15.734	   -73.529	   -19.309
-20186.650	    15.377	   -83.483	   -27.641
-20258.514	    15.106	   -66.490	   -14.347
-19971.867	    15.146	   -60.217	   -30.036
-19957.279	    15.459	   -62.503	   -12.681
-19922.672	    15.714	   -79.490	   -11.498
-19602.207	    15.898	   -73.842	   -22.163
-19871.807	    15.871	   -69.789	    -6.166
-19792.811	    15.691	   -74.439	    -7.309
-19984.529	    15.416	   -65.774	   -19.583
-19988.035	    15.369	   -74.264	     3.588
-19905.465	    15.528	   -72.258	   -21.752
-19821.049	    15.570	   -80.965	    -7.636
-19890.643	    15.579	   -80.170	    -1.040
-19875.570	    15.537	  -103.203	   -13.890
-19967.961	    15.379	   -96.936	   -10.129
-20085.203	    15.263	   -96.110	    -3.922
-19872.436	    15.428	   -77.627	   -20.629
-19726.127	    15.676	   -87.807	   -11.393
-19918.510	    15.922	   -87.862	   -15.583
-19800.475	    15.996	   -79.270	   -21.610
-19765.402	    15.921	   -95.255	   -21.860
-19744.289	    15.788	   -68.475	   -24.171
-19885.332	    15.612	   -75.623	    -7.715
-19769.766	    15.447	   -88.726	   -11.274
-20029.744	    15.484	   -63.638	   -36.492
-19917.943	    15.634	   -74.955	   -16.674
-19930.932	    15.715	   -99.547	   -26.639
-19565.748	    15.735	   -76.645	   -22.645
-19893.004	    15.539	   -77.879	   -14.160
-20128.975	    15.337	   -72.077	   -13.346
-19934.076	    15.213	   -81.668	    -9.702
-20068.910	    15.209	   -80.691	   -21.018
-19988.590	    15.411	   -78.467	    -0.212
-20100.410	    15.644	   -89.262	   -22.849
-19932.102	    15.914	   -77.903	    -1.798
-19675.385	    15.962	   -76.630	   -19.503
-20019.496	    15.721	   -80.449	   -40.538
-19938.225	    15.414	   -96.649	    -7.293
-19922.570	    15.232	   -78.646	    -2.576
-20039.473	    15.330	   -76.354	   -10.069
-19893.246	    15.553	   -67.362	   -31.577
-19932.709	    15.682	   -95.811	   -10.559
-19738.922	    15.696	   -95.213	   -20.685
-19834.195	    15.651	   -77.405	   -16.734
-19800.982	    15.760	  -106.153	   -22.905
-19943.211	    15.827	   -89.911	    -6.438
-19722.572	    15.821	   -68.751	   -32.897
-19954.598	    15.651	   -73.439	   -16.604
-19830.078	    15.458	   -68.426	    -9.300
-19887.389	    15.407	   -66.179	   -18.960
-20118.051	    15.372	   -76.450	   -33.411
-20053.945	    15.342	   -76.717	   -34.771
-19611.455	    15.468	   -82.065	   -18.548
-19723.139	    15.588	   -92.297	   -23.842
-19806.352	    15.610	   -84.589	   -30.840
-19938.783	    15.535	   -74.071	   -22.703
-19915.676	    15.505	   -98.377	   -22.913
-20047.975	    15.556	   -95.918	   -17.631
-19759.328	    15.512	   -65.316	   -16.795
-20150.402	    15.277	   -75.826	   -16.587
-20174.336	    15.090	  -100.863	   -24.164
-20150.203	    15.168	   -65.577	   -22.917
-19840.035	    15.474	   -69.064	    -1.982
-19649.049	    15.908	   -68.087	   -33.956
-19988.391	    16.059	   -65.662	   -22.206
-19812.533	    16.112	   -66.787	   -26.027
-19437.396	    15.950	   -79.483	   -22.158
-19795.244	    15.548	   -78.845	   -22.259
-20261.719	    15.070	   -83.113	   -30.223
-20191.850	    14.893	   -64.917	   -19.159
-19969.096	    15.099	   -66.785	   -16.254
-20024.373	    15.379	   -83.990	    -9.610
-19575.320	    15.545	   -83.509	    -9.861
-19750.240	    15.563	   -86.763	   -31.949
-20168.404	    15.516	   -70.963	   -27.297
-20189.430	    15.449	   -66.133	   -32.479
-19928.018	    15.504	   -87.698	   -21.180
-19905.350	    15.552	   -70.756	    -0.888
-19927.471	    15.540	   -69.531	   -19.969
-20001.826	    15.452	   -70.178	   -16.950
-19643.828	    15.409	   -74.098	    -5.410
-20060.111	    15.226	  -100.778	    -6.336
-19927.775	    15.162	   -83.078	    -4.018
-19863.010	    15.176	   -90.486	   -12.095
-20174.736	    15.172	   -74.251	   -16.726
-19923.881	    15.231	   -73.533	   -12.468
-20127.977	    15.324	   -67.530	   -16.094
-19901.795	    15.395	   -91.932	   -20.374
-20020.902	    15.503	   -72.669	   -25.477
-20051.551	    15.530	   -78.062	   -26.299
-19683.631	    15.534	   -80.770	   -19.901
-19684.020	    15.575	   -84.857	   -22.433
-19940.957	    15.562	   -72.703	   -28.815
-19727.438	    15.458	   -80.166	   -11.326
-19808.365	    15.376	   -71.042	    -6.221
-19741.314	    15.395	   -95.060	   -21.673
-19992.680	    15.394	   -69.572	   -18.193
-19973.801	    15.564	   -89.761	   -27.846
-19828.912	    15.696	   -77.061	   -28.727
-19936.059	    15.701	   -78.717	   -20.374
-19970.326	    15.632	   -77.792	     3.666
-19785.885	    15.526	   -67.976	   -17.368
-20034.758	    15.496	   -71.878	   -49.879
-19963.297	    15.492	   -83.111	   -23.649
-19806.049	    15.624	   -66.629	   -30.505
-20092.564	    15.658	  -104.687	   -22.548
-20167.908	    15.608	   -80.900	   -20.446
-19921.990	    15.557	   -81.202	   -27.921
-20031.826	    15.562	   -79.957	   -29.617
-19895.951	    15.725	   -78.726	   -10.370
-20020.551	    15.754	   -78.289	   -13.774
-19948.707	    15.635	   -73.497	   -21.382
-20050.865	    15.430	   -86.745	    -8.205
-20019.799	    15.336	   -81.792	   -30.326
-20167.049	    15.345	   -76.520	   -16.993
-19926.594	    15.426	   -65.294	   -19.315
-19951.236	    15.451	   -78.150	   -12.753
-20214.965	    15.453	   -71.617	   -25.351
-19913.127	    15.379	   -82.154	   -30.695
-20077.340	    15.269	   -71.520	   -37.400
-20262.135	    15.336	   -65.594	   -29.732
-19906.910	    15.495	   -67.793	    -9.467
-19805.475	    15.624	   -91.320	   -10.962
-20216.893	    15.644	   -72.614	    -3.897
-20174.750	    15.563	   -80.082	   -12.189
-20226.605	    15.534	   -84.828	   -12.007
-19775.100	    15.497	   -65.957	   -11.275
-20026.297	    15.402	   -78.896	   -13.435
-19822.945	    15.319	   -74.307	   -30.671
-19848.814	    15.360	   -71.869	   -38.730
-19877.018	    15.487	  -100.672	   -32.660
-19977.857	    15.627	   -81.157	   -33.557
-19832.543	    15.866	   -70.522	   -29.690
-19601.088	    15.903	   -63.120	    -8.578
-19671.188	    15.825	   -73.628	    -2.207
-20115.867	    15.714	   -68.636	   -21.656
-19749.510	    15.633	   -78.612	    -4.925
-19828.414	    15.610	   -65.288	   -29.936
-19889.369	    15.527	   -85.289	   -11.368
-19912.773	    15.396	   -81.301	   -12.367
-19939.105	    15.356	   -92.180	   -32.481
-20045.699	    15.320	   -75.370	   -10.173
-19950.582	    15.223	   -74.314	   -14.763
-19992.180	    15.163	   -86.382	   -26.843
-20222.277	    15.266	   -81.045	   -32.804
-20054.918	    15.472	   -70.662	   -23.452
-19798.381	    15.565	   -65.759	   -20.937
-19986.289	    15.612	   -83.204	   -17.355
-19652.566	    15.709	   -71.615	   -29.842
-19807.594	    15.743	   -65.542	   -19.668
-19812.311	    15.770	   -86.476	   -18.003
-19572.836	    15.663	   -80.472	    -7.935
-20099.018	    15.461	   -81.491	    -3.766
-19925.836	    15.330	   -67.253	   -17.293
-19896.193	    15.362	   -79.959	   -26.109
-19804.857	    15.378	   -67.559	   -19.712
-19937.967	    15.529	   -65.259	   -10.838
-19675.207	    15.735	   -64.180	    -8.098
-20074.654	    15.766	   -75.357	   -15.603
-19912.467	    15.510	   -82.002	   -12.680
-20132.389	    15.296	   -74.374	   -29.730
-19913.309	    15.148	   -86.997	    -3.748
-19849.643	    15.066	   -74.169	    -9.043
-20068.445	    15.086	   -69.771	   -27.639
-20239.889	    15.221	   -73.661	    -6.355
-19943.646	    15.407	   -73.398	    -9.282
-20032.027	    15.514	   -88.586	    -0.767
-19966.123	    15.604	   -67.248	     6.319
-19903.840	    15.742	   -72.300	     5.714
-19747.854	    15.800	   -83.247	    -8.232
-19879.197	    15.759	   -72.571	   -17.111
-19830.730	    15.597	   -68.460	   -12.609
-20192.412	    15.446	   -69.079	   -12.661
-19809.900	    15.502	   -82.964	    -8.850
-19826.018	    15.631	   -83.124	   -18.265
-19693.521	    15.699	   -80.469	   -39.192
-19935.736	    15.751	   -79.537	   -29.622
-19670.109	    15.692	   -85.295	    -5.737
-19704.676	    15.550	   -68.363	   -26.778
-19991.164	    15.415	   -74.712	   -22.992
-20115.896	    15.346	   -63.615	   -22.135
-20044.539	    15.394	   -96.695	   -20.691
-19857.139	    15.325	   -90.119	   -20.929
-19854.256	    15.290	   -91.677	   -40.690
-20030.818	    15.340	   -86.844	   -31.597
-20059.863	    15.322	   -97.110	   -32.944
-19938.258	    15.315	   -66.478	   -32.554
-20027.721	    15.352	   -77.946	   -36.311
-20049.912	    15.468	   -76.387	   -22.791
-19833.602	    15.630	   -79.548	   -19.910
-19947.037	    15.514	   -78.818	   -22.024
-19921.129	    15.283	   -81.755	   -20.961
-20126.920	    15.251	   -82.651	    -9.452
-20084.564	    15.458	   -75.188	   -29.055
-19891.094	    15.692	   -69.051	    -7.000
-19762.742	    15.934	   -78.087	   -19.625
-19664.904	    16.052	   -93.011	    -7.113
-19730.160	    15.882	   -87.414	    -3.493
-19961.189	    15.556	   -73.071	    14.796
-19967.314	    15.361	   -78.108	   -14.424
-19827.469	    15.428	   -75.609	    -8.374
-19866.984	    15.592	   -91.584	   -13.274
-19905.076	    15.655	   -95.003	   -23.530
-19749.449	    15.555	   -92.060	    -0.959
-19971.854	    15.406	   -86.034	   -16.328
-20105.404	    15.194	   -83.972	    -8.776
-20208.801	    15.196	   -82.038	   -14.699
-19912.842	    15.322	   -77.605	   -25.027
-19728.240	    15.478	   -82.763	   -16.541
-19863.723	    15.658	   -74.809	   -19.251
-19902.822	    15.688	   -74.376	   -12.973
-19905.469	    15.492	   -63.508	   -24.452
-19741.676	    15.330	   -79.789	    20.285
-19697.957	    15.471	   -85.705	   -10.483
-19813.525	    15.608	   -78.696	   -47.554
-19948.412	    15.530	   -73.716	   -18.406
-19699.459	    15.432	   -74.697	     3.671
-20244.262	    15.304	   -86.159	   -34.257
-20042.508	    15.353	   -75.675	   -32.265
-19995.396	    15.434	   -91.277	   -10.952
-19908.129	    15.514	   -63.248	   -29.148
-19863.977	    15.613	   -76.763	   -17.119
-19856.660	    15.697	   -80.574	   -17.793
-20020.893	    15.669	   -87.841	   -16.391
-19899.299	    15.586	   -86.329	   -21.375
-19995.098	    15.539	   -91.371	   -23.551
-19570.520	    15.527	   -90.176	   -21.345
-19964.443	    15.429	   -91.292	   -16.574
-20174.393	    15.387	   -75.773	   -37.029
-19855.523	    15.440	   -87.528	   -12.448
-19947.104	    15.479	   -74.905	    -5.913
-19715.373	    15.559	   -71.887	     7.373
-19898.746	    15.569	   -79.339	   -12.123
-19912.865	    15.411	   -77.052	   -22.125
-19964.520	    15.373	   -69.646	    -7.073
-19931.021	    15.412	   -84.414	    -4.881
-19919.746	    15.459	   -86.661	   -13.157
-20119.836	    15.497	   -76.304	   -21.307
-19866.555	    15.599	   -85.096	    -4.946
-19781.279	    15.621	   -79.302	   -21.311
-19866.148	    15.534	   -86.144	   -38.581
-20072.879	    15.465	   -86.940	   -15.317
-20017.414	    15.414	   -90.726	   -18.568
-19741.768	    15.545	   -96.049	   -21.225
-19987.723	    15.630	   -66.828	   -29.022
-19963.814	    15.585	   -77.497	   -12.177
-19816.508	    15.456	   -93.227	   -34.674
-20105.623	    15.343	  -104.990	   -25.191
-20286.451	    15.341	   -83.741	   -13.249
-20127.141	    15.283	  -101.480	    -2.149
-20125.645	    15.194	   -85.920	   -27.360
-19900.834	    15.262	   -81.529	   -15.070
-19887.611	    15.343	   -80.594	   -26.021
-19886.371	    15.464	   -76.370	   -38.158
-19884.004	    15.570	   -69.254	   -36.982
-19765.262	    15.703	   -76.617	    -9.968
-19566.859	    15.796	   -70.898	   -11.806
-19936.029	    15.761	   -82.540	   -14.200
-20058.379	    15.626	   -57.945	   -23.710
-19976.264	    15.380	   -75.969	    -3.074
-19857.025	    15.308	   -82.998	   -29.240
-19680.961	    15.263	   -90.277	   -29.367
-19905.607	    15.176	   -78.418	   -12.962
-20332.035	    15.113	   -82.065	   -14.281
-20028.641	    15.250	   -83.305	   -24.295
-19992.625	    15.538	   -66.038	   -22.633
-19687.285	    15.731	   -96.254	   -17.183
-19884.836	    15.800	   -90.266	   -43.337
-19721.209	    15.676	   -84.978	   -17.335
-19695.369	    15.502	   -98.378	   -30.345
-19751.834	    15.345	   -63.716	   -20.442
-19980.082	    15.325	   -88.072	   -30.995
-19973.016	    15.370	   -71.482	   -14.087
-20081.471	    15.369	   -88.908	    -7.225
-20255.984	    15.306	   -75.088	   -16.001
-19874.049	    15.392	   -91.698	   -14.377
-19922.576	    15.569	   -87.848	   -22.462
-19964.305	    15.584	   -78.560	   -31.199
-20016.158	    15.489	   -85.851	   -16.280
-20080.639	    15.356	   -79.857	   -33.546
-20067.256	    15.333	   -78.775	   -14.056
-19835.555	    15.524	   -66.441	   -28.691
-19836.246	    15.717	   -71.020	   -21.744
-19800.350	    15.689	   -77.803	   -10.213
-19686.979	    15.535	   -76.782	     5.118
-19768.549	    15.434	   -63.374	   -40.306
-19936.490	    15.548	   -82.678	    -3.012
-19910.006	    15.562	   -72.359	   -19.355
