-20097.484	    15.334	   -92.310	   122.143
-19808.688	    15.417	   -73.980	   120.669
-20019.186	    15.546	   -81.722	   125.855
-19719.479	    15.563	   -67.224	   100.951
-19910.979	    15.479	   -68.200	   133.177
-19836.586	    15.473	   -76.170	   135.571
-19766.533	    15.536	   -70.451	   115.844
-19688.533	    15.638	   -76.768	   137.404
-20154.783	    15.788	   -99.966	   101.183
-19658.920	    15.918	   -96.507	    84.620
-19787.131	    15.825	   -76.906	    70.719
-20058.256	    15.686	   -71.467	    89.259
-19919.779	    15.645	   -74.645	   103.757
-19816.352	    15.653	   -69.754	   121.546
-19961.041	    15.543	   -81.200	   116.504
-20039.361	    15.491	   -82.816	    90.678
-19765.965	    15.516	   -90.179	   117.257
-19979.670	    15.481	   -72.263	    95.933
-20024.264	    15.462	   -85.221	   124.852
-19916.434	    15.407	   -71.177	   124.995
-19779.350	    15.321	   -88.396	   110.842
-19881.768	    15.296	   -93.786	   126.720
-20251.725	    15.482	   -68.547	   124.891
-20071.711	    15.884	   -73.844	   103.817
-19641.428	    16.106	   -98.895	   109.954
-19845.930	    16.011	   -80.694	    99.950
-19866.357	    15.726	   -87.753	   128.265
-19938.340	    15.459	   -85.351	   118.293
-20006.424	    15.269	   -87.160	    72.098
-20126.969	    15.362	   -91.838	   107.095
-20068.428	    15.525	   -89.707	   101.448
-19980.025	    15.688	   -83.204	   121.532
-19608.391	    15.781	   -82.521	   133.779
-19785.371	    15.692	   -82.828	   112.610
-19998.705	    15.489	   -80.154	   123.958
-20003.117	    15.217	   -73.708	    97.668
-20141.619	    15.080	   -76.078	   133.788
-20097.426	    15.055	   -55.449	   113.360
-19969.471	    15.160	   -74.874	   112.470
-19925.076	    15.401	   -83.557	   113.612
-20257.615	    15.607	   -83.045	   105.267
-19877.979	    15.660	   -93.855	    89.786
-19766.799	    15.533	   -93.127	   119.097
-19896.107	    15.356	   -68.271	   100.402
-20028.631	    15.285	   -82.059	   125.366
-19440.305	    15.383	   -94.201	   100.477
-19736.281	    15.537	   -89.504	   116.273
-19862.201	    15.621	   -51.884	   115.595
-19940.764	    15.598	   -83.936	   126.862
-19661.676	    15.533	   -75.703	   105.867
-19816.371	    15.396	   -69.123	   102.234
-20132.486	    15.375	   -77.376	   147.511
-19936.768	    15.479	   -77.546	   138.877
-19735.881	    15.627	   -69.918	   105.983
-19900.709	    15.611	   -77.544	   121.484
-19797.137	    15.581	   -94.448	   121.118
-19831.781	    15.624	   -74.439	   116.092
-19791.361	    15.802	   -77.057	   111.109
-19974.561	    16.011	   -82.379	   106.156
-19929.639	    16.018	   -89.992	    83.766
-19890.768	    15.934	   -52.262	   103.696
-19671.131	    15.825	   -89.365	    88.010
-19851.521	    15.686	   -58.437	   104.347
-19985.367	    15.493	   -76.778	   105.364
-19790.152	    15.318	   -56.862	   127.480
-20006.340	    15.144	   -86.315	   113.750
-20073.973	    15.106	   -87.315	   128.916
-20042.918	    15.162	   -71.718	   123.179
-19892.994	    15.387	   -74.231	   117.690
-19697.471	    15.641	   -84.675	   131.747
-19752.820	    15.731	   -76.501	   100.065
-20060.887	    15.673	   -80.784	   118.970
-19832.527	    15.520	   -73.895	   106.772
-19742.795	    15.402	   -92.689	   140.522
-19996.332	    15.343	   -84.417	   120.723
-20034.961	    15.358	   -89.413	   114.353
-19972.170	    15.308	   -76.036	   132.425
-20238.992	    15.325	   -83.877	   119.911
-19690.037	    15.561	   -78.224	   117.723
-19976.402	    15.669	   -93.833	   126.169
-19713.732	    15.700	   -74.538	   112.488
-19849.605	    15.620	   -80.325	   102.625
-19895.492	    15.366	   -76.836	   125.986
-20015.600	    15.188	   -82.846	   113.626
-19968.871	    15.167	   -81.509	   129.222
-20117.021	    15.185	   -58.189	   125.985
-19968.393	    15.381	   -73.555	   130.082
-19683.617	    15.547	   -69.442	   129.560
-19930.631	    15.653	   -77.236	   109.366
-19869.746	    15.792	   -66.593	   109.782
-19946.754	    15.855	   -88.700	   122.920
-19838.160	    15.808	   -83.951	   116.680
-19811.934	    15.641	   -67.926	   121.188
-19602.701	    15.535	   -87.924	   117.279
-19892.182	    15.468	   -80.164	   100.055
-19771.676	    15.480	   -70.064	   116.178
-19903.586	    15.516	   -69.777	   118.507
-19915.949	    15.631	   -81.094	    93.803
-19982.572	    15.719	   -99.578	   125.494
-19845.883	    15.655	   -77.161	   100.010
-20175.352	    15.414	   -44.733	   111.377
-19959.008	    15.191	   -80.947	   117.969
-19925.801	    15.142	   -84.544	   114.950
-19970.592	    15.252	   -73.761	   118.483
-19592.533	    15.480	  -101.132	   118.892
-19905.391	    15.588	   -76.470	   101.292
-19800.789	    15.530	   -97.541	   103.525
-19717.543	    15.499	   -90.991	   123.688
-19813.963	    15.508	   -65.600	   109.497
-19987.201	    15.535	   -80.524	   122.518
-19962.926	    15.689	   -84.765	   145.020
-19695.947	    15.779	   -68.110	   111.118
-19506.092	    15.802	   -71.335	   130.152
-19789.725	    15.682	   -62.745	   106.658
-19738.604	    15.493	   -86.673	   129.524
-19894.531	    15.316	   -65.630	   100.917
-19876.703	    15.429	   -97.014	   108.430
-19792.055	    15.544	   -73.865	   112.420
-19665.551	    15.599	   -65.187	   123.139
-19750.256	    15.657	   -64.926	   107.373
-20099.920	    15.668	   -80.461	   106.591
-20206.705	    15.696	   -66.060	   131.450
-19932.094	    15.698	   -63.809	   118.144
-19812.422	    15.732	   -86.040	   123.061
-19938.141	    15.706	   -79.388	   103.775
-19720.000	    15.587	   -65.038	   105.653
-19874.721	    15.464	   -67.999	   110.547
-20038.453	    15.303	   -74.234	   121.614
-19771.541	    15.297	   -71.084	   110.967
-19952.221	    15.409	   -86.216	   106.066
-20173.494	    15.543	   -89.086	   127.257
-19769.375	    15.647	   -89.357	   148.380
-19962.855	    15.721	   -76.260	   109.853
-20025.691	    15.695	   -70.183	   107.318
-19897.354	    15.596	   -80.555	   118.615
-19876.768	    15.509	   -76.906	   111.227
-19746.209	    15.484	   -97.339	   129.909
-19996.537	    15.423	   -75.880	    91.704
-19954.537	    15.396	   -73.209	   114.193
-19894.881	    15.422	   -67.617	    97.861
-19910.297	    15.431	   -55.151	   114.074
-19856.758	    15.386	   -92.668	   105.400
-19769.729	    15.465	   -91.757	   109.156
-19772.365	    15.547	   -76.756	    99.311
-20081.396	    15.623	   -73.148	   116.238
-19890.650	    15.565	   -84.649	   110.047
-19942.723	    15.418	   -63.537	   104.511
-20051.160	    15.402	   -79.598	   111.562
-20069.281	    15.448	   -84.423	   100.097
-19976.529	    15.586	   -84.511	   116.538
-19788.496	    15.629	   -78.061	   114.640
-20015.307	    15.651	   -83.088	    95.532
-19749.236	    15.573	   -84.108	   104.024
-20076.682	    15.360	   -94.066	   118.378
-19942.016	    15.308	   -68.720	   113.981
-19719.791	    15.497	   -90.536	   129.568
-19647.895	    15.669	   -80.057	   114.384
-19709.090	    15.617	   -64.467	    98.950
-19958.459	    15.541	   -78.483	    99.876
-19910.924	    15.488	   -75.920	   100.400
-20047.703	    15.559	   -76.191	   109.818
-19929.955	    15.666	   -88.330	    98.051
-19827.670	    15.618	  -105.428	    92.883
-19822.791	    15.515	   -75.686	    94.017
-20029.482	    15.452	   -87.463	    92.775
-20019.533	    15.484	   -96.167	   121.943
-20001.008	    15.526	   -73.082	    88.483
-19639.420	    15.636	   -61.051	    98.768
-19765.900	    15.664	  -118.033	   135.573
-20119.449	    15.546	   -90.069	    96.738
-19756.430	    15.509	   -86.745	    87.576
-20049.504	    15.521	   -67.488	   108.291
-19930.842	    15.568	   -71.192	   133.717
-19986.773	    15.608	   -65.171	   133.431
-20071.631	    15.418	   -60.468	   119.543
-19991.787	    15.172	   -85.019	   127.092
-20226.848	    15.112	   -63.446	   100.197
-20107.768	    15.180	   -80.897	   126.569
-20085.586	    15.241	   -67.974	   116.854
-19877.363	    15.332	   -91.791	   123.840
-19836.738	    15.483	   -64.118	   118.552
-20062.590	    15.555	   -76.919	   138.259
-19832.387	    15.626	   -79.052	   127.311
-20030.922	    15.575	   -67.460	    94.461
-19735.111	    15.516	   -78.544	    99.588
-19893.008	    15.424	   -91.146	    89.115
-19960.002	    15.335	   -73.206	    95.496
-19807.896	    15.357	   -77.309	   103.570
-19815.225	    15.363	   -80.847	   105.071
-20009.666	    15.490	   -91.836	   112.331
-20026.168	    15.672	   -68.887	   104.800
-19727.264	    15.707	   -72.527	   127.926
-19536.646	    15.663	   -63.642	   134.114
-19944.041	    15.480	   -90.243	   124.868
-20043.453	    15.387	   -80.759	   116.589
-19804.625	    15.485	   -73.043	   106.925
-19942.674	    15.556	   -81.562	   133.075
-19871.820	    15.665	   -71.538	   125.067
-19803.820	    15.739	   -87.207	   117.324
-19667.719	    15.675	   -91.246	   109.344
-19940.990	    15.570	   -74.133	   103.165
-20136.029	    15.550	   -80.381	   116.438
-19923.885	    15.535	   -73.442	    98.528
-20078.256	    15.422	   -90.469	    94.114
-20071.061	    15.406	   -97.752	   109.352
-19886.516	    15.475	   -83.317	    84.682
-19811.057	    15.542	   -86.986	   117.324
-19934.996	    15.633	   -82.383	    96.094
-19840.598	    15.637	   -90.729	   100.232
-20019.479	    15.496	   -75.154	    89.111
-20033.357	    15.410	   -82.047	    95.500
-20060.379	    15.496	   -72.280	    99.528
-19802.711	    15.620	   -87.521	   101.258
-19747.791	    15.587	   -85.056	   100.161
-19913.342	    15.444	   -61.475	   110.869
-20057.160	    15.348	   -72.135	   123.483
-20065.641	    15.322	   -88.943	   132.946
-19972.725	    15.397	   -77.299	   110.026
-19693.186	    15.531	   -64.843	    94.170
-19740.719	    15.715	   -66.333	   116.070
-19589.361	    15.912	   -62.499	   117.268
-19635.330	    15.951	   -85.371	    95.332
-19645.707	    15.773	   -73.570	   103.003
-19833.045	    15.556	   -89.170	   107.297
-19898.766	    15.309	   -83.262	   103.852
-20005.723	    15.188	   -90.199	    98.987
-20010.697	    15.232	   -80.707	   125.540
-19997.309	    15.477	   -73.335	   122.065
-19906.596	    15.709	   -82.205	   109.215
-19710.025	    15.975	   -68.908	   116.025
-19684.393	    16.072	   -75.069	    96.585
-19808.789	    15.871	   -79.639	    97.436
-19966.734	    15.641	   -76.696	   104.271
-19816.418	    15.428	   -71.261	    89.525
-19943.549	    15.290	   -71.565	   112.532
-20014.691	    15.166	   -83.250	   116.633
-19731.113	    15.198	   -83.063	   119.641
-19986.467	    15.311	  -107.830	   119.181
-19844.289	    15.444	   -77.602	    78.531
-19974.510	    15.628	   -87.050	    84.952
-19884.957	    15.765	   -96.381	   120.700
-19992.076	    15.746	   -75.772	   126.130
-20006.289	    15.616	   -80.674	    96.188
-20004.201	    15.571	   -85.073	   119.380
-19925.170	    15.550	   -90.271	   109.147
-19985.139	    15.606	   -81.343	    89.960
-19888.373	    15.724	   -70.389	   114.377
-19937.045	    15.756	   -76.531	   118.469
-19792.230	    15.639	   -61.211	   141.595
-20267.609	    15.382	   -76.201	   126.269
-20230.377	    15.208	   -80.735	   106.554
-19913.812	    15.271	   -81.662	   133.290
-19659.949	    15.398	   -80.123	   135.086
-19918.359	    15.465	   -77.962	   121.448
-19804.039	    15.463	   -64.677	   114.846
-19831.912	    15.382	   -77.724	   106.510
-20316.846	    15.349	   -78.732	   130.959
-20118.355	    15.386	   -79.002	   115.016
-20003.262	    15.360	   -82.346	    87.164
-19871.305	    15.342	   -77.424	   127.173
-19904.424	    15.372	   -58.860	   110.423
-19724.973	    15.533	   -70.964	   121.291
-19986.875	    15.617	   -89.017	    89.675
-19927.623	    15.576	   -82.396	    92.702
-20009.900	    15.506	   -59.133	   128.514
-19956.092	    15.475	   -64.566	   114.567
-20039.875	    15.623	   -83.332	   116.963
-19768.992	    15.793	   -87.689	    96.343
-19714.877	    15.812	   -75.618	   111.823
-19827.801	    15.714	   -66.344	   127.020
-19929.965	    15.670	   -62.585	   130.098
-19839.152	    15.552	   -75.685	   137.783
-20163.395	    15.456	   -63.827	   133.018
-19949.930	    15.495	   -64.716	   124.357
-19912.225	    15.580	  -101.484	   124.711
-19726.666	    15.563	   -75.772	   111.950
-19794.799	    15.509	   -78.635	    98.516
-19739.178	    15.315	   -88.924	   101.209
-19475.717	    15.380	   -69.148	    90.702
-19729.102	    15.570	   -77.302	    87.289
-19999.797	    15.656	   -75.548	   102.779
-19888.893	    15.665	   -88.951	   124.583
-19875.684	    15.623	   -72.141	   109.734
-19822.496	    15.496	  -102.486	   100.517
-19935.330	    15.436	   -75.954	   109.278
-19909.297	    15.442	   -90.813	   134.682
-20129.498	    15.485	   -72.120	   131.048
-19867.949	    15.569	   -93.157	   114.093
-19861.086	    15.463	   -86.742	    96.686
-19969.586	    15.468	   -77.068	   116.532
-19942.723	    15.487	   -85.326	   134.319
-19869.104	    15.507	   -68.627	   111.496
-20087.047	    15.569	   -66.690	   110.605
-19937.217	    15.538	   -76.482	   112.309
-19974.904	    15.510	   -85.596	   114.193
-20117.840	    15.462	   -69.286	   116.720
-19954.990	    15.433	   -77.427	   118.319
-19949.350	    15.497	   -83.047	   111.352
-20000.674	    15.607	   -78.610	   140.294
-19836.975	    15.695	   -83.941	   123.191
-19929.631	    15.755	   -73.535	    80.331
-19721.678	    15.846	   -73.312	   112.445
-19556.572	    15.834	   -64.735	    98.046
-19925.914	    15.731	   -82.856	    97.958
-20207.104	    15.590	   -79.894	   115.067
-19961.096	    15.471	   -69.637	   114.509
-19923.990	    15.494	   -73.467	   119.483
-19835.721	    15.571	   -90.113	   145.747
-20084.336	    15.634	   -90.565	    93.212
-20002.314	    15.640	   -84.965	   104.805
-20036.615	    15.580	   -68.918	   110.873
-19846.141	    15.546	   -84.918	   106.908
-19871.969	    15.485	   -82.962	   111.756
-20044.156	    15.419	   -80.523	   123.278
-19992.662	    15.527	   -76.427	   109.054
-19776.291	    15.731	   -71.318	   121.969
-19666.295	    15.818	   -73.497	   113.848
-19953.559	    15.712	   -63.077	   105.907
-19769.664	    15.533	   -81.409	   112.187
-19884.514	    15.319	   -82.912	   108.576
-20095.184	    15.240	   -73.097	   120.251
-19948.979	    15.354	   -75.306	   128.578
-20213.025	    15.452	   -78.362	   131.427
-20023.715	    15.454	   -92.567	   133.772
-20010.127	    15.509	  -104.491	   126.729
-19796.301	    15.615	   -95.325	   134.336
-19953.695	    15.557	   -86.073	   140.854
-19822.354	    15.417	   -70.201	   127.782
-19999.102	    15.288	   -79.970	   115.560
-19979.033	    15.136	   -81.883	    74.412
-19784.416	    15.235	   -86.334	    95.856
-19917.115	    15.362	   -84.978	    72.916
-19928.740	    15.501	   -86.335	    88.740
-19939.096	    15.742	  -105.623	   103.340
-19982.221	    15.813	   -75.011	    93.107
-19941.482	    15.860	   -75.821	   108.989
-19981.156	    15.799	   -69.803	   102.735
-19986.203	    15.614	   -95.280	    68.914
-19913.240	    15.453	  -106.424	    93.947
-19824.465	    15.489	   -73.230	    96.141
-19717.984	    15.558	   -76.527	   120.085
-19825.830	    15.607	   -74.542	    98.586
-20103.121	    15.668	   -75.566	   122.379
-20025.625	    15.606	   -75.401	   121.689
-19981.561	    15.377	   -75.544	   137.678
-20280.605	    15.280	   -84.109	   114.904
-19897.100	    15.354	   -83.942	   109.115
-20083.484	    15.548	   -88.300	    98.155
-19956.701	    15.650	   -78.069	   116.899
-19705.842	    15.608	   -93.061	    92.190
-19898.367	    15.437	   -67.410	   120.351
-20137.668	    15.300	   -82.814	   136.433
-20091.301	    15.383	   -72.301	   122.464
-19762.320	    15.530	   -85.543	   125.380
-19711.273	    15.710	   -95.973	   129.609
-19778.578	    15.775	   -93.057	   127.835
-19664.975	    15.794	   -97.284	   115.884
-19829.971	    15.775	   -68.560	   123.706
-19853.848	    15.787	   -73.125	   133.457
-19870.742	    15.668	   -85.613	   111.730
-20052.932	    15.330	   -75.667	   105.793
-19950.609	    15.211	   -79.344	   109.482
-19976.771	    15.276	   -58.516	   131.212
-20080.762	    15.420	   -70.550	   139.648
-19896.465	    15.537	   -95.486	    98.922
-19983.580	    15.566	   -62.794	   132.149
-19926.930	    15.536	   -92.355	   121.314
-19940.242	    15.580	   -72.004	   125.876
-19812.342	    15.654	   -79.392	   120.846
-19956.014	    15.714	   -65.593	   115.422
-19772.232	    15.716	   -76.950	   110.034
-19898.330	    15.619	   -84.182	    88.646
-20147.467	    15.526	   -85.962	   105.693
-19692.838	    15.579	   -85.931	    89.115
-19801.191	    15.598	   -76.218	    84.282
-19941.039	    15.544	   -93.041	    84.719
-19861.400	    15.554	   -80.424	   115.418
-20028.695	    15.522	   -73.289	   137.262
-20109.127	    15.411	   -88.679	   118.120
-19888.402	    15.356	   -58.540	   127.131
-20113.236	    15.281	   -64.303	   128.303
-19850.408	    15.371	   -65.439	   118.787
-19794.529	    15.561	   -70.405	   109.040
-19874.160	    15.691	   -62.572	   119.673
-19978.709	    15.734	   -83.338	   119.359
-19944.775	    15.814	   -66.738	   126.546
-19723.037	    15.667	   -97.109	   114.413
-19999.072	    15.574	   -89.598	    96.529
-19899.219	    15.651	  -105.675	    80.960
-19794.064	    15.711	   -76.609	    80.953
-19785.059	    15.573	   -71.907	   108.780
-19882.748	    15.487	   -78.428	    76.646
-19989.533	    15.440	   -83.539	   110.166
-19719.172	    15.464	   -69.517	   130.112
-19873.744	    15.523	   -74.763	   110.938
-19952.652	    15.498	   -80.767	    87.436
-19791.170	    15.511	   -68.691	   111.137
-19807.865	    15.513	   -89.162	   129.599
-20032.643	    15.296	   -65.711	   120.355
-19986.229	    15.230	   -83.015	   118.079
-19727.393	    15.434	   -63.433	   134.609
-19796.479	    15.479	   -73.242	   137.788
-19870.260	    15.419	   -83.735	   106.217
-19989.176	    15.282	   -93.154	   103.074
-20017.938	    15.223	   -75.011	   112.435
-19810.713	    15.307	   -82.906	    98.995
-19783.740	    15.439	  -105.004	    80.279
-19909.498	    15.593	   -61.132	   124.640
-19906.418	    15.725	   -80.248	   111.586
-20000.686	    15.754	   -70.558	   100.402
-19868.867	    15.634	   -77.506	   108.997
-19899.557	    15.543	   -62.403	   103.236
-20001.752	    15.441	   -76.356	   112.558
-20106.219	    15.383	   -71.357	   114.326
-20138.896	    15.420	   -66.428	   109.323
-19856.160	    15.619	   -60.507	   107.992
-19807.043	    15.706	   -77.710	   115.692
-20017.859	    15.655	   -69.576	   101.098
-20170.494	    15.650	   -85.370	    93.458
-20245.613	    15.596	   -87.946	   118.576
-19734.697	    15.601	   -73.108	   109.193
-19953.961	    15.712	   -76.043	   116.235
-19591.705	    15.780	   -83.668	   112.595
-19959.072	    15.724	   -97.966	    85.736
-19984.590	    15.626	   -81.165	   120.963
-20178.564	    15.511	   -84.954	   127.651
-20191.658	    15.407	   -69.171	   128.184
-19938.756	    15.361	   -88.584	   106.907
-20069.021	    15.429	   -56.940	   119.187
-19959.955	    15.576	   -75.375	    95.282
-19962.131	    15.589	   -82.533	   114.194
-20135.104	    15.469	   -71.040	   103.259
-20058.818	    15.336	   -87.326	   125.137
-20174.340	    15.313	   -90.819	   103.087
-19990.035	    15.479	   -77.038	    91.769
-20060.369	    15.746	   -69.912	    88.605
-19786.434	    15.889	   -83.853	    85.311
-19658.504	    15.857	   -90.556	    97.965
-19655.941	    15.694	   -79.460	    91.862
-20018.973	    15.476	   -68.149	   108.999
-19971.938	    15.341	   -73.412	   123.805
-19903.264	    15.368	   -90.676	   118.930
-19954.234	    15.451	   -57.849	   101.174
-19818.574	    15.543	   -76.763	    95.470
-19714.596	    15.732	   -81.835	    77.537
-19645.756	    15.983	   -76.988	   129.201
-19762.793	    16.096	   -89.853	   121.547
-19822.406	    16.023	   -75.488	    69.687
-19691.045	    15.767	   -87.857	    91.166
-20040.301	    15.506	   -80.154	    88.472
-19852.088	    15.429	   -80.269	   111.482
-19713.488	    15.466	   -87.169	   112.251
-19956.564	    15.572	   -73.504	    78.425
-19953.959	    15.703	   -85.069	   112.317
-19893.957	    15.790	  -100.889	   129.246
-19834.486	    15.843	   -78.937	    84.960
-19898.514	    15.692	   -57.401	   139.372
-20277.053	    15.444	   -65.954	   110.630
-20030.686	    15.285	   -89.535	   123.798
-19774.027	    15.318	   -86.652	   127.194
-19981.400	    15.461	   -73.787	   134.295
-19819.531	    15.511	   -82.240	   115.648
-20100.475	    15.409	   -77.858	   135.480
-20020.459	    15.342	   -72.996	    96.916
-20305.617	    15.390	   -61.572	   108.961
-20117.115	    15.461	   -66.402	   103.119
-19803.961	    15.632	   -68.134	   105.755
-19921.156	    15.674	   -75.735	   130.345
-19788.479	    15.635	   -78.531	   101.115
-19990.621	    15.451	   -72.004	    80.719
-20107.031	    15.320	  -102.135	    84.345
-20138.584	    15.312	   -57.988	    98.344
-20093.197	    15.470	   -79.137	    98.059
-19872.150	    15.699	   -69.460	   128.237
-19839.580	    15.821	   -72.163	   118.316
-19839.648	    15.794	   -75.297	   105.528
-19847.283	    15.548	   -67.750	   125.967
-19894.953	    15.233	   -67.265	   100.996
-20007.842	    15.031	   -90.372	   100.016
-20133.980	    15.155	  -107.306	   113.156
-20093.650	    15.418	   -76.015	   104.296
-19923.184	    15.679	   -90.747	   109.979
-19562.844	    15.813	   -85.040	    97.065
-19563.449	    15.786	   -88.973	   120.516
-19620.389	    15.634	   -72.456	   117.047
-19908.146	    15.446	   -72.932	   112.816
-20038.699	    15.310	   -75.874	   106.602
-19860.641	    15.255	   -84.076	   101.225
-20093.527	    15.290	   -74.005	   104.108
-20161.799	    15.323	   -69.802	    94.650
-20177.375	    15.435	   -88.436	    97.285
-20075.469	    15.461	   -72.709	   128.487
-19997.609	    15.480	   -85.807	   107.109
-19999.188	    15.455	   -53.119	   115.667
-19972.279	    15.508	   -77.189	   107.930
-20046.352	    15.526	   -84.389	   114.279
-20320.381	    15.497	   -65.257	   113.010
-19935.607	    15.559	   -75.794	    94.033
-19795.840	    15.632	   -68.440	    91.239
-19653.869	    15.609	   -90.677	   118.524
-20213.502	    15.487	   -69.757	   109.958
-20001.777	    15.412	   -69.662	   105.225
-19900.508	    15.404	   -75.519	   124.358
-20164.074	    15.421	   -79.395	   139.398
-19729.932	    15.522	   -87.709	   121.327
-19882.318	    15.581	   -89.093	   114.502
-20049.812	    15.639	   -73.544	   125.234
-19983.344	    15.675	   -86.580	   111.048
-19897.684	    15.550	   -85.125	   115.774
-19769.666	    15.311	   -78.891	   104.607
-20119.182	    15.356	   -94.659	   105.735
-19995.498	    15.611	   -75.795	    90.853
-19909.457	    15.814	   -75.895	   105.860
-19805.320	    15.875	   -70.192	    94.668
-19937.668	    15.799	   -75.523	   115.449
-19947.969	    15.561	   -76.022	   121.798
-20074.191	    15.354	   -67.421	   110.311
-20103.676	    15.252	   -79.985	    96.276
-19950.814	    15.267	   -92.274	    90.550
-20009.041	    15.273	   -81.213	   111.766
-19938.463	    15.342	   -71.426	   124.317
-20003.750	    15.462	   -81.898	   129.878
-19906.424	    15.585	   -83.543	   128.375
-19834.350	    15.669	   -94.486	    84.014
-19760.020	    15.608	   -83.181	    69.909
-19779.961	    15.532	   -76.491	   113.142
-19605.609	    15.584	   -78.552	    97.590
-19786.291	    15.579	   -77.231	    86.936
-19826.805	    15.522	   -79.879	    84.852
-19839.445	    15.451	   -89.792	   104.587
-19811.172	    15.497	   -81.111	   120.568
-19830.953	    15.585	   -87.119	    87.735
-19825.309	    15.614	   -67.185	   128.966
-19666.926	    15.595	   -80.971	   108.162
-19843.365	    15.593	   -91.733	    98.491
-19775.062	    15.624	   -76.634	   117.742
-19781.832	    15.555	   -82.906	   115.691
-19880.797	    15.479	  -108.916	    91.842
-20086.029	    15.373	   -85.852	   122.353
-19923.041	    15.389	  -114.053	   111.371
-19898.455	    15.570	   -93.235	    87.860
-19870.367	    15.848	   -86.968	   106.755
-19682.922	    15.863	   -74.055	    75.563
-20002.510	    15.662	   -81.432	    89.331
-20003.078	    15.397	   -73.218	   119.123
-19914.268	    15.221	   -90.108	    99.974
-20007.598	    15.265	   -75.863	    78.746
-19656.963	    15.421	   -81.332	   118.100
-20064.764	    15.598	   -68.581	   100.728
-20226.670	    15.585	   -72.219	   114.004
-20141.436	    15.581	   -90.205	   109.936
-19785.424	    15.657	   -97.819	   109.299
-19722.314	    15.728	   -79.268	   110.928
-19664.109	    15.719	   -61.425	   125.842
-20132.977	    15.583	   -77.561	   117.525
-19859.043	    15.349	  -102.524	   102.244
-20141.320	    15.255	   -85.661	   101.248
-20114.639	    15.366	   -77.696	   100.081
-19848.074	    15.589	   -77.547	   106.028
-20058.621	    15.608	   -71.929	   113.985
-19936.211	    15.537	   -75.323	    98.101
-19985.170	    15.632	   -82.263	   113.304
-19713.969	    15.720	   -74.946	   105.974
-20046.912	    15.668	   -83.993	   119.894
-19881.688	    15.756	  -113.140	   108.285
-19832.889	    15.839	  -106.221	   124.049
-19912.074	    15.726	   -83.618	   125.445
-19919.111	    15.456	   -77.685	   115.912
-20033.195	    15.377	   -80.184	   108.928
-19678.436	    15.531	   -79.839	   121.424
-19777.182	    15.679	   -83.015	   118.703
-19965.412	    15.604	   -74.518	   111.393
-19917.148	    15.477	   -78.583	   101.577
-19840.170	    15.389	   -77.993	    80.804
-19873.537	    15.321	   -87.938	   115.356
-19830.639	    15.292	   -76.548	   131.613
-19882.205	    15.380	   -64.752	   101.492
-19911.695	    15.423	   -76.245	    94.986
-19964.463	    15.564	   -57.557	   121.531
-19918.691	    15.682	   -78.647	   108.534
-19665.244	    15.508	   -76.619	   103.839
-19968.238	    15.344	   -49.472	   121.727
-19951.354	    15.280	   -83.246	    92.806
-19897.432	    15.353	   -67.632	    89.747
-20039.016	    15.420	   -72.549	   123.807
-20268.691	    15.466	   -77.112	   116.039
-19982.328	    15.581	   -85.216	    88.755
-19730.859	    15.693	   -89.602	   122.126
-19910.084	    15.601	   -85.878	    98.636
-20249.039	    15.449	   -76.322	   116.101
-19965.914	    15.336	   -81.418	   110.029
-19858.420	    15.330	   -91.822	   131.633
-20048.145	    15.428	  -105.412	   126.438
-19963.061	    15.515	   -86.454	   112.590
-20065.752	    15.624	   -74.895	   117.731
-19986.268	    15.662	   -95.436	   103.963
-19890.973	    15.710	   -72.418	   102.439
-19971.824	    15.816	   -99.505	   146.966
-19831.514	    15.869	   -65.270	   140.569
-19974.586	    15.794	   -88.063	   111.324
-20211.889	    15.687	   -72.742	   105.137
-20105.094	    15.718	   -70.416	   114.163
-19878.461	    15.635	   -77.046	   117.640
-19856.674	    15.409	   -81.934	   112.726
-19975.281	    15.233	   -84.279	    97.279
-20109.979	    15.304	   -83.154	    95.624
-19871.004	    15.412	   -80.488	   127.157
-20016.494	    15.417	   -78.821	   117.687
-19976.781	    15.327	   -91.263	    97.577
-20230.727	    15.233	  -100.980	   127.348
-20238.361	    15.374	   -82.975	   124.843
-19802.094	    15.606	   -97.687	    99.304
-19922.062	    15.684	   -69.300	   110.365
-19850.635	    15.743	   -69.415	   118.141
-19639.967	    15.782	   -75.640	   110.901
-19822.867	    15.826	   -66.462	   103.906
-19805.473	    15.852	   -85.393	    90.381
-19908.572	    15.785	   -82.879	   109.850
-19937.818	    15.687	   -76.400	   123.133
-19754.904	    15.624	   -60.344	   123.131
-19990.285	    15.642	   -70.512	   126.671
-19796.545	    15.652	   -59.220	   107.851
-19899.684	    15.501	   -79.571	   120.205
-20062.447	    15.357	   -78.300	    99.514
-20114.234	    15.356	   -74.523	    97.323
-20010.789	    15.480	   -83.109	   110.293
-19821.266	    15.609	   -73.664	   103.577
-19965.592	    15.743	   -91.081	   115.569
-19720.266	    15.873	   -74.006	   122.113
-19805.004	    15.865	   -78.941	   101.704
-19959.043	    15.710	   -83.549	    91.425
-19786.355	    15.567	   -80.414	    97.897
-19880.848	    15.483	   -95.036	   107.918
-19995.680	    15.436	   -81.681	    98.875
-19877.848	    15.418	   -70.227	   108.849
-19993.500	    15.440	   -78.009	   118.174
-19791.771	    15.404	   -70.369	    93.406
-19842.932	    15.417	   -72.332	   113.034
-19922.176	    15.449	   -64.173	    91.391
-19957.314	    15.487	   -87.205	   119.167
-20103.191	    15.539	   -90.424	   126.452
-19839.086	    15.517	   -85.104	   117.842
-19934.982	    15.543	   -71.927	    94.772
-19538.977	    15.723	   -77.429	   115.756
-19771.820	    15.732	   -86.401	   128.996
-19682.926	    15.632	   -86.733	   105.862
-19958.709	    15.393	   -87.185	   111.183
-19670.994	    15.182	   -70.507	   123.963
-20034.396	    15.224	   -64.974	   114.572
-19945.545	    15.520	   -61.023	   119.348
-19907.131	    15.806	   -84.740	    94.094
-19813.510	    15.877	   -78.876	    90.256
-19827.814	    15.782	   -87.470	   102.339
-20099.836	    15.630	   -63.016	   115.435
-19935.287	    15.503	   -73.222	   130.974
-19811.584	    15.453	   -67.468	   132.429
-20013.949	    15.435	   -72.699	    92.485
-19984.012	    15.477	   -66.530	   115.045
-20108.949	    15.457	   -83.105	   124.331
-19911.740	    15.431	   -69.753	   114.860
-20056.971	    15.419	   -59.799	   117.264
-20277.270	    15.545	   -64.671	   116.759
-19954.193	    15.714	   -95.440	    91.341
-19929.424	    15.617	  -125.663	   122.504
-20050.266	    15.428	   -73.734	    95.123
-20066.938	    15.289	   -70.784	   106.230
-20219.266	    15.254	   -86.126	   123.856
-20021.777	    15.415	   -79.402	    96.636
-19669.939	    15.709	   -74.514	   106.828
-19468.254	    15.999	   -79.856	   102.008
-19873.754	    15.984	   -75.632	   113.142
-19975.545	    15.820	   -73.171	   108.408
-20046.199	    15.728	   -75.456	   136.678
-19819.117	    15.716	   -76.909	   129.933
-19748.982	    15.834	   -88.974	   126.842
-19953.646	    15.855	   -77.038	   116.961
-19896.172	    15.757	   -83.847	   105.441
-19886.307	    15.545	   -92.880	   101.834
-20071.949	    15.386	   -94.907	   141.107
-19926.152	    15.359	   -68.358	   103.851
-19825.330	    15.385	   -67.422	   117.332
-20028.047	    15.392	   -75.839	   130.537
-19782.969	    15.433	   -72.522	   109.707
-20050.684	    15.492	   -61.643	   146.333
-19787.164	    15.416	   -82.713	    95.349
-20003.080	    15.363	   -86.829	    99.232
-19992.158	    15.446	   -75.922	   118.322
-19934.648	    15.616	   -81.901	   114.204
-19826.834	    15.759	   -81.649	   115.939
-19896.455	    15.780	   -80.892	    91.276
-19992.102	    15.788	   -86.292	   112.009
-19938.391	    15.814	   -88.389	   116.646
-19974.930	    15.797	   -92.795	   116.723
-19837.244	    15.709	   -87.510	   114.858
-19771.906	    15.567	   -85.207	   118.850
-20041.627	    15.510	   -71.846	   126.238
-19905.836	    15.496	   -83.938	   110.339
-20254.498	    15.488	   -72.734	   122.904
-20228.498	    15.570	   -74.868	   122.077
-19848.994	    15.741	   -69.644	   114.382
-19910.322	    15.862	   -80.133	   109.159
-19830.664	    15.933	   -87.999	   121.795
-19923.773	    15.859	   -91.938	   118.642
-19863.223	    15.734	   -78.066	   106.403
-20098.504	    15.524	   -84.116	   111.784
-20058.223	    15.313	   -58.949	   128.498
-20025.512	    15.240	   -65.005	   121.642
-19882.674	    15.294	   -61.064	   136.524
-20066.195	    15.383	   -57.493	   122.984
-19909.016	    15.418	   -86.773	   103.940
-19892.582	    15.349	   -89.276	   113.287
-19857.221	    15.437	   -87.658	   105.877
-19810.377	    15.558	   -68.199	   132.951
-19588.852	    15.739	   -70.988	   103.769
-19588.229	    15.867	   -93.548	   112.994
-19800.902	    15.773	   -65.329	   127.638
-19939.295	    15.624	   -85.656	   113.134
-19893.254	    15.434	   -71.411	   105.511
-19690.352	    15.300	   -75.405	    95.976
-20195.020	    15.272	   -79.715	   101.655
-19832.010	    15.344	   -87.034	   117.752
-20093.816	    15.408	   -67.221	   115.524
-19900.781	    15.474	   -69.480	   124.187
-20016.299	    15.536	   -68.303	   123.802
-20014.807	    15.554	   -78.148	   104.267
-19937.588	    15.545	   -88.042	   119.053
-20036.250	    15.593	   -66.752	   132.985
-19914.943	    15.659	   -73.530	   121.964
-19743.986	    15.716	   -93.828	   132.092
-19931.020	    15.688	   -77.092	   113.624
-19766.209	    15.562	   -84.570	   107.558
-19779.617	    15.392	   -68.599	   110.514
-19865.725	    15.399	   -96.097	   100.782
-19812.219	    15.527	  -105.793	   133.178
-19814.934	    15.526	   -86.520	    67.363
-19928.520	    15.551	   -93.209	   106.778
-19970.711	    15.514	   -85.552	   103.215
-19995.990	    15.556	   -56.267	   125.707
-19920.119	    15.649	   -91.420	   110.515
-19934.617	    15.522	   -82.206	   106.339
-19958.369	    15.393	   -80.930	    95.391
-19985.588	    15.280	   -66.351	   120.122
-20191.471	    15.322	   -85.295	   116.400
-19891.459	    15.444	   -76.075	   128.315
-19936.600	    15.612	   -53.970	   120.558
-19810.285	    15.623	   -86.729	   108.593
-20015.768	    15.429	   -74.711	   115.973
-20121.957	    15.231	   -76.776	   110.975
-20060.209	    15.164	   -85.196	   104.709
-20066.254	    15.158	   -91.524	   106.098
-19987.178	    15.224	   -71.107	   113.824
-19956.127	    15.236	   -81.646	   121.973
-20074.879	    15.300	   -93.122	   105.249
-19914.156	    15.538	   -84.523	   104.856
-19736.098	    15.799	   -87.319	   103.408
-20116.621	    15.952	   -75.514	   105.438
-19902.477	    15.862	   -84.882	   101.814
-19667.166	    15.679	   -73.365	    89.834
-20041.518	    15.468	   -75.737	    96.319
-20109.512	    15.311	   -96.312	    88.530
-20145.973	    15.220	   -76.165	   115.744
-20075.711	    15.322	   -87.332	   115.123
-19869.996	    15.317	   -71.671	   102.516
-19893.189	    15.272	   -65.658	   126.180
-20060.693	    15.327	   -80.456	   123.711
-20195.691	    15.487	   -55.824	   112.315
-19955.855	    15.672	   -74.824	   111.824
-19698.389	    15.687	   -76.587	   104.189
-19994.020	    15.587	   -70.085	   130.736
-20138.699	    15.448	   -73.599	   119.970
-20040.363	    15.347	   -59.428	   118.448
-20081.678	    15.279	   -74.792	   113.003
-20024.572	    15.262	   -67.198	    95.688
-19944.953	    15.298	   -91.528	   130.125
-20060.357	    15.394	   -63.658	   113.953
-19796.398	    15.528	   -74.343	   105.445
-20091.604	    15.682	   -82.042	    68.860
-19719.154	    15.851	   -83.469	    55.706
-19999.000	    15.966	   -65.073	   114.901
-19440.441	    15.976	   -84.625	    97.611
-20120.422	    15.732	   -89.906	   110.454
-19787.297	    15.309	   -68.097	   121.296
-20027.631	    15.032	   -93.624	   113.563
-20012.082	    15.194	  -113.894	   115.289
-19803.268	    15.558	   -89.314	    80.686
-19716.350	    15.782	   -81.447	   103.535
-19772.389	    15.818	   -82.094	   109.125
-19670.717	    15.681	   -77.762	   115.847
-19740.967	    15.397	   -75.091	   110.687
-20036.654	    15.258	   -83.692	    99.414
-19982.367	    15.311	   -83.146	   106.273
-19832.576	    15.543	   -73.143	   110.372
-19800.365	    15.859	   -98.495	   118.331
-19879.008	    15.994	   -70.316	   108.953
-19801.973	    15.914	   -67.838	   113.177
-20026.250	    15.732	   -80.596	    88.921
-20057.605	    15.514	   -86.895	   103.448
-20009.500	    15.333	   -80.314	   111.388
-19955.305	    15.236	   -85.424	   111.914
-19894.244	    15.290	   -88.891	    95.072
-20003.000	    15.578	   -67.475	   138.475
-19863.412	    15.811	   -81.536	   116.843
-19847.852	    15.797	   -84.170	   106.542
-20108.389	    15.585	   -65.794	   130.850
-20023.510	    15.351	   -86.385	   124.236
-20082.029	    15.272	   -58.758	   133.406
-19871.438	    15.424	   -84.980	   100.794
-19853.324	    15.665	   -76.161	   137.998
-19774.607	    15.894	   -75.206	   107.551
-19881.438	    15.957	   -81.184	   110.331
-19724.098	    15.864	   -86.064	   124.147
-19742.578	    15.701	   -79.811	   132.953
-19836.176	    15.406	   -63.750	   117.870
-19963.797	    15.172	   -71.809	    96.080
-20091.777	    15.201	   -67.746	   128.074
-20135.500	    15.270	   -70.748	   102.309
-19943.043	    15.330	   -99.754	   128.410
-19969.791	    15.328	   -74.025	   117.564
-20054.297	    15.420	   -64.103	   114.516
-19833.246	    15.609	   -74.562	   128.368
-19764.408	    15.623	   -87.072	   115.887
-19877.773	    15.487	   -62.583	   124.048
-19963.576	    15.431	   -66.436	   138.708
-19748.809	    15.431	   -68.795	   141.262
-19915.703	    15.387	   -66.535	   126.183
-19763.629	    15.345	   -75.620	   102.014
-19872.850	    15.338	  -102.398	    88.476
-19926.146	    15.415	   -83.524	   121.053
-20017.600	    15.545	   -76.288	   117.984
-19907.535	    15.690	   -78.396	   117.128
-19848.258	    15.689	   -75.202	   107.054
-19968.619	    15.504	   -65.355	   129.447
-19961.410	    15.425	   -69.676	   112.459
-20065.541	    15.544	   -64.004	   108.967
-19547.217	    15.752	   -63.252	   121.529
-19735.174	    15.876	   -73.247	   111.657
-19870.883	    15.952	   -70.581	   111.626
-19872.928	    15.852	   -78.073	    79.640
-20046.105	    15.713	   -57.732	   113.657
-19935.064	    15.654	   -89.162	    96.726
-19931.805	    15.552	   -67.274	    87.049
-20215.670	    15.491	   -75.937	   110.496
-20039.922	    15.560	   -74.586	   112.128
-19848.490	    15.704	   -98.787	   111.101
-20120.828	    15.705	   -69.992	   115.227
-20165.010	    15.586	   -90.105	   118.574
-19844.697	    15.372	   -63.352	   103.158
-20071.309	    15.222	   -75.376	   114.497
-20034.945	    15.106	   -80.538	   126.475
-20201.445	    15.274	   -71.700	    98.087
-19833.168	    15.683	   -68.827	   118.645
-19662.484	    16.064	   -80.193	   123.374
-19821.973	    16.036	   -78.492	   124.905
-20191.551	    15.793	   -88.465	    96.525
-20068.307	    15.430	   -84.124	   105.423
-20021.926	    15.203	   -86.523	    91.687
-19929.693	    15.290	   -76.613	   122.849
-19819.646	    15.506	   -85.984	   121.550
-19858.172	    15.572	   -71.980	   104.140
-19992.914	    15.545	   -59.805	   112.071
-19982.363	    15.374	   -81.985	   133.037
-19996.137	    15.392	   -73.820	    97.592
-19888.186	    15.586	   -73.464	    97.760
-20043.254	    15.644	   -82.361	   102.441
-19981.592	    15.669	   -78.113	   111.918
-20055.699	    15.633	   -73.180	    96.585
-19894.459	    15.347	   -63.505	   113.308
-20167.412	    15.177	   -80.840	    98.388
-20002.424	    15.267	   -79.232	    93.925
-19692.426	    15.396	   -87.257	   142.401
-19953.281	    15.610	   -92.019	   117.042
-19922.957	    15.874	   -85.511	   103.859
-19818.607	    15.941	   -61.004	   113.573
-19780.822	    15.864	   -57.932	   116.438
-20005.719	    15.729	   -59.294	   120.247
-20111.869	    15.570	   -71.444	   135.251
-19967.098	    15.520	   -59.003	   127.472
-19807.109	    15.606	   -71.003	   120.545
-19913.119	    15.682	   -88.796	   103.844
-19774.961	    15.742	   -80.430	   104.225
-19841.982	    15.779	   -59.154	   117.567
-19920.922	    15.695	   -68.024	   103.219
-19624.404	    15.629	   -92.189	   120.661
-19745.803	    15.357	   -84.132	   128.931
-20125.340	    15.112	   -69.032	   114.615
-20034.611	    15.064	   -83.020	   124.892
-19886.406	    15.345	   -70.926	   121.724
-19975.039	    15.659	   -82.924	   118.008
-20090.928	    15.835	  -113.737	   125.290
-19792.307	    15.906	   -67.288	   118.000
-19770.920	    15.995	   -80.974	   105.924
-19724.834	    15.780	   -69.056	   117.464
-19922.795	    15.430	   -86.065	    72.024
-20075.564	    15.105	   -82.082	   117.676
-19964.635	    15.137	   -78.972	   121.137
-19948.910	    15.275	   -93.660	   100.063
-20136.279	    15.392	  -100.605	    94.565
-20033.301	    15.560	   -91.011	   112.057
-19702.826	    15.709	   -76.752	   108.493
-19843.623	    15.748	   -62.778	   126.223
-19866.852	    15.677	   -67.720	   114.856
-20180.709	    15.675	   -76.726	    92.972
-19976.754	    15.713	   -62.899	   114.423
-19912.461	    15.640	   -71.553	   131.869
-19973.602	    15.505	   -78.756	   106.971
-19980.033	    15.455	   -69.969	   115.676
-19914.127	    15.585	   -73.648	   105.251
-19796.164	    15.716	   -98.449	   131.089
-19982.975	    15.708	   -60.939	   126.160
-19934.658	    15.644	   -79.201	   124.116
-19986.086	    15.622	   -86.717	   100.867
-20097.260	    15.459	   -75.132	   107.136
-20098.941	    15.402	   -80.293	   126.174
-19881.535	    15.375	   -80.024	   101.152
-19939.771	    15.480	   -73.211	   128.326
-19849.451	    15.659	   -58.205	   119.075
-19996.301	    15.741	   -66.159	   115.976
-19991.281	    15.677	   -86.536	   107.324
-20050.758	    15.590	   -61.973	   115.968
-20132.490	    15.444	   -56.520	   118.790
-19984.844	    15.335	   -80.891	   101.930
-19921.320	    15.433	   -70.571	   125.639
-20006.621	    15.632	   -82.335	   115.884
-20024.146	    15.745	   -63.748	   122.085
-19686.861	    15.647	   -70.140	   100.896
-19866.576	    15.428	   -77.703	   133.065
-20214.561	    15.172	   -52.478	   115.712
-20112.664	    15.156	   -68.220	   111.469
-19748.961	    15.431	   -74.376	   110.037
-19856.131	    15.697	   -79.909	   111.001
-19865.961	    15.785	   -71.756	   118.363
-19850.633	    15.743	   -72.197	   122.404
-19881.910	    15.689	   -89.847	   100.628
-19919.637	    15.656	   -63.608	   107.019
-20007.758	    15.721	   -70.428	    96.704
-19751.881	    15.679	   -75.383	    74.572
-19663.988	    15.460	   -73.883	   104.553
-19897.980	    15.432	   -78.645	    98.232
-19911.250	    15.609	   -69.526	   120.924
-19803.299	    15.847	   -65.691	   116.190
-19624.885	    15.956	   -91.059	   108.167
-19555.619	    15.917	  -104.012	   127.433
-19768.820	    15.778	   -76.284	   124.396
-19890.322	    15.468	   -74.217	   130.585
-19885.293	    15.221	   -86.935	   133.668
-19928.254	    15.179	   -75.257	   108.919
-19760.580	    15.342	   -76.615	    99.879
-20028.840	    15.600	   -57.561	   119.753
-20013.824	    15.823	   -75.329	   113.222
-19898.473	    15.799	   -52.771	   134.063
-20029.465	    15.640	   -66.440	   111.942
-20119.137	    15.446	   -79.894	   103.947
-19871.482	    15.386	   -66.538	   129.451
-20053.002	    15.467	   -76.579	   123.212
-19769.135	    15.617	  -101.998	   124.567
-19885.340	    15.713	   -95.989	   142.165
-20025.289	    15.794	   -82.233	   117.979
-19920.725	    15.859	   -70.646	    73.680
-19732.955	    15.772	   -74.239	   114.948
-19921.111	    15.538	   -86.984	   102.751
-20071.721	    15.361	   -68.361	   121.783
-19842.707	    15.273	   -73.384	   119.082
-20038.289	    15.294	   -77.709	   118.835
-19802.721	    15.375	   -97.632	   132.377
-20058.625	    15.551	   -77.109	   108.604
-19824.188	    15.719	   -67.633	   112.095
-20095.160	    15.748	   -70.124	   111.387
-20131.266	    15.629	   -90.450	    95.451
-19917.635	    15.581	   -72.151	   109.620
-19951.410	    15.510	   -84.020	    99.294
-19927.242	    15.537	   -95.362	   108.924
-19591.174	    15.606	   -75.011	   103.223
-19745.873	    15.607	   -68.059	    99.067
-19695.492	    15.538	   -80.694	    98.562
-19843.824	    15.506	   -90.666	   117.020
-19719.859	    15.545	   -86.585	   120.150
-19819.877	    15.714	   -78.660	   131.101
-19340.037	    15.759	  -102.318	   130.692
-20056.197	    15.786	   -86.950	   105.941
-19789.807	    15.722	   -79.407	   107.024
-19861.588	    15.508	   -92.564	   109.514
-20045.871	    15.298	   -76.574	   129.882
-19474.143	    15.277	   -85.943	    82.461
-19800.221	    15.405	   -68.064	   124.113
-20232.514	    15.488	   -77.083	   129.164
-19855.486	    15.475	   -82.876	   124.717
-19659.721	    15.519	   -75.987	   125.216
-19873.496	    15.510	   -77.874	   104.505
-20014.348	    15.442	   -76.944	    90.818
-19944.123	    15.490	   -58.998	   100.331
-19775.381	    15.572	   -77.968	   113.384
-19917.879	    15.522	  -102.315	   121.287
-20184.465	    15.445	   -70.632	   114.147
-20041.832	    15.515	   -73.705	   112.651
-20037.365	    15.652	   -48.477	   101.034
-20099.771	    15.604	   -58.319	   100.467
-19621.484	    15.732	   -68.513	   110.305
-20150.438	    15.641	   -70.899	    98.857
-19970.832	    15.469	   -72.336	    96.019
-19991.691	    15.407	   -78.930	   102.118
-19863.125	    15.365	   -80.419	    78.969
