-20051.658	    15.334	   -92.310	   122.143
-19874.336	    15.405	   -59.539	   161.479
-19971.100	    15.577	   -49.358	   139.230
-19867.650	    15.647	   -65.869	   153.551
-19851.834	    15.605	   -54.377	   166.486
-19937.299	    15.539	   -52.169	   159.485
-19971.656	    15.473	   -57.667	   158.010
-20211.352	    15.480	   -65.717	   127.811
-19927.094	    15.487	   -45.573	   154.853
-19896.352	    15.450	   -62.014	   152.204
-19952.916	    15.439	   -54.768	   163.431
-19871.264	    15.451	   -57.055	   163.959
-19975.432	    15.561	   -48.362	   162.213
-19945.492	    15.632	   -46.487	   167.556
-19831.854	    15.661	   -60.289	   171.502
-19973.379	    15.732	   -54.019	   172.067
-19887.740	    15.850	   -60.189	   164.988
-19746.332	    15.777	   -45.572	   143.912
-19974.621	    15.602	   -45.033	   131.538
-20062.615	    15.306	   -52.705	   165.586
-20050.342	    15.154	   -35.671	   131.127
-20240.846	    15.128	   -39.594	   168.525
-20135.211	    15.282	   -31.307	   155.893
-19857.965	    15.606	   -45.578	   146.821
-19769.230	    15.760	   -44.892	   143.441
-19695.949	    15.799	   -46.609	   145.781
-19699.666	    15.752	   -56.677	   162.125
-19757.662	    15.622	   -49.075	   155.493
-20064.082	    15.546	   -48.265	   169.693
-19818.691	    15.567	   -62.782	   165.192
-19519.557	    15.614	   -29.633	   138.269
-19916.834	    15.557	   -47.501	   142.460
-20059.008	    15.434	   -43.371	   145.639
-19756.789	    15.366	   -62.403	   133.142
-19847.729	    15.244	   -48.569	   136.440
-20125.568	    15.313	   -49.704	   146.466
-19799.684	    15.486	   -48.747	   156.955
-20025.789	    15.588	   -48.935	   139.116
-19944.137	    15.518	   -65.240	   151.879
-20054.941	    15.422	   -42.230	   155.299
-20073.566	    15.400	   -45.566	   156.419
-19666.123	    15.518	   -45.782	   173.274
-19822.365	    15.680	   -47.692	   159.667
-19781.775	    15.624	   -43.182	   158.715
-20043.908	    15.518	   -63.629	   140.774
-20144.895	    15.454	   -48.964	   148.428
-20028.133	    15.519	   -33.361	   133.488
-20119.846	    15.513	   -54.358	   151.719
-19971.941	    15.580	   -55.671	   162.015
-19727.910	    15.614	   -54.587	   136.711
-20015.762	    15.557	   -34.103	   145.122
-19955.490	    15.541	   -47.402	   158.806
-19972.143	    15.529	   -46.999	   156.796
-19788.391	    15.637	   -42.796	   158.908
-19911.705	    15.575	   -39.506	   147.852
-19938.383	    15.600	   -49.870	   146.107
-19810.328	    15.571	   -37.556	   150.778
-19909.684	    15.463	   -30.245	   152.762
-20137.037	    15.380	   -39.507	   151.794
-20088.197	    15.327	   -41.580	   146.956
-19900.656	    15.415	   -42.859	   139.584
-20016.461	    15.618	   -46.182	   169.763
-19957.537	    15.639	   -54.711	   136.879
-20119.010	    15.516	   -28.422	   113.586
-20442.465	    15.239	   -42.824	   135.367
-20004.037	    15.155	   -27.304	   153.717
-19836.414	    15.349	   -36.565	   143.891
-19926.078	    15.598	   -56.124	   144.001
-19959.297	    15.684	   -46.370	   149.768
-19995.863	    15.729	   -37.819	   149.363
-19815.961	    15.720	   -34.893	   152.242
-19587.494	    15.605	   -60.036	   178.378
-19943.697	    15.441	   -35.156	   142.339
-20198.992	    15.499	   -49.362	   136.386
-19904.461	    15.675	   -60.090	   159.665
-19772.680	    15.737	   -56.802	   140.999
-19849.990	    15.720	   -52.207	   143.647
-19930.502	    15.548	   -51.963	   134.619
-20071.465	    15.452	   -68.247	   162.137
-20087.504	    15.521	   -40.957	   139.266
-19767.924	    15.672	   -51.313	   151.278
-19760.398	    15.724	   -34.309	   147.853
-19812.977	    15.798	   -45.738	   158.175
-19920.957	    15.827	   -33.984	   155.054
-19817.219	    15.773	   -46.178	   139.995
-19768.508	    15.663	   -59.465	   154.240
-20055.643	    15.592	   -50.330	   161.949
-20040.674	    15.515	   -47.958	   147.721
-19905.053	    15.406	   -63.757	   133.252
-20131.994	    15.483	   -55.927	   147.632
-19699.357	    15.535	   -46.951	   149.134
-19899.904	    15.519	   -41.276	   144.248
-20002.219	    15.452	   -33.028	   134.987
-20284.184	    15.384	   -50.718	   158.593
-19902.178	    15.321	   -34.350	   134.581
-20112.104	    15.287	   -37.660	   156.753
-19971.785	    15.383	   -65.032	   149.152
-20049.070	    15.417	   -44.698	   145.999
-19998.969	    15.413	   -57.537	   163.851
-19765.543	    15.473	   -54.521	   141.120
-19963.619	    15.479	   -50.350	   145.941
-20103.389	    15.455	   -67.716	   142.352
-20117.859	    15.485	   -43.059	   139.979
-20222.932	    15.518	   -52.283	   147.733
-20100.430	    15.561	   -46.098	   153.017
-19902.453	    15.498	   -46.691	   147.006
-20145.701	    15.513	   -59.010	   150.609
-20047.064	    15.517	   -45.564	   179.602
-19846.320	    15.469	   -48.031	   155.971
-19898.463	    15.315	   -45.630	   160.942
-20128.082	    15.300	   -45.979	   141.571
-19906.559	    15.367	   -40.717	   118.969
-20015.055	    15.348	   -47.041	   139.864
-19872.479	    15.281	   -44.826	   142.378
-19565.912	    15.290	   -45.721	   131.778
-19611.393	    15.520	   -57.515	   155.484
-19734.992	    15.708	   -40.373	   158.651
-19773.771	    15.757	   -54.580	   151.981
-20015.275	    15.682	   -63.222	   142.879
-19999.717	    15.485	   -60.314	   142.455
-19845.330	    15.453	   -41.142	   150.635
-19852.828	    15.489	   -68.340	   160.940
-20185.230	    15.571	   -40.871	   153.713
-19688.352	    15.671	   -38.926	   159.954
-19974.080	    15.646	   -51.874	   162.812
-19973.578	    15.520	   -56.291	   145.549
-20036.256	    15.500	   -42.357	   140.825
-20023.820	    15.357	   -37.943	   138.892
-19865.137	    15.293	   -53.398	   155.297
-20117.602	    15.309	   -52.287	   149.115
-19734.484	    15.566	   -46.663	   158.421
-19685.789	    15.860	   -45.811	   155.745
-19861.416	    15.883	   -54.099	   158.495
-19784.814	    15.737	   -54.615	   159.630
-20003.119	    15.534	   -55.129	   171.073
-20179.219	    15.491	   -62.926	   153.083
-19749.223	    15.429	   -34.606	   156.870
-19923.832	    15.363	   -43.443	   152.017
-19803.299	    15.320	   -49.678	   144.315
-19952.309	    15.306	   -51.904	   145.718
-19978.117	    15.331	   -50.296	   148.619
-20085.139	    15.368	   -46.456	   142.363
-19730.361	    15.433	   -40.279	   151.985
-19886.543	    15.558	   -62.004	   154.396
-19764.234	    15.501	   -52.070	   139.760
-20016.877	    15.441	   -44.930	   144.373
-20188.824	    15.445	   -41.105	   131.400
-19933.434	    15.442	   -48.827	   141.846
-19745.799	    15.453	   -61.419	   151.965
-20073.887	    15.560	   -48.524	   153.964
-19774.918	    15.585	   -46.295	   152.176
-20026.596	    15.522	   -55.342	   160.271
-20190.586	    15.439	   -57.352	   155.880
-20035.105	    15.468	   -39.268	   141.483
-20084.330	    15.484	   -46.747	   141.997
-19989.557	    15.344	   -43.705	   147.570
-19648.883	    15.367	   -52.080	   166.359
-19740.674	    15.431	   -44.058	   153.125
-19818.551	    15.566	   -60.630	   156.408
-19600.176	    15.651	   -50.384	   154.663
-20015.422	    15.573	   -36.782	   153.299
-19717.107	    15.514	   -52.470	   153.604
-20135.271	    15.432	   -45.742	   122.997
-19992.561	    15.383	   -35.371	   159.638
-20061.357	    15.366	   -48.245	   166.798
-19768.832	    15.309	   -39.780	   135.380
-20004.869	    15.311	   -46.584	   143.706
-20003.322	    15.333	   -48.390	   132.974
-19952.471	    15.469	   -39.957	   137.244
-19898.404	    15.561	   -57.220	   151.225
-19939.012	    15.586	   -55.552	   143.099
-19836.510	    15.484	   -59.062	   137.171
-19796.998	    15.552	   -50.443	   148.518
-19781.178	    15.687	   -45.489	   149.647
-19965.320	    15.859	   -50.214	   152.233
-19538.209	    15.797	   -55.639	   158.629
-19723.586	    15.600	   -50.545	   166.045
-19843.779	    15.438	   -50.357	   155.155
-20079.162	    15.400	   -35.697	   141.173
-19923.416	    15.394	   -40.385	   160.170
-19778.830	    15.385	   -46.091	   144.361
-19918.227	    15.427	   -62.964	   160.541
-20004.336	    15.439	   -52.398	   161.192
-20107.078	    15.387	   -46.176	   142.444
-20091.234	    15.298	   -50.473	   158.782
-20233.988	    15.385	   -50.709	   156.789
-19871.162	    15.577	   -48.990	   159.257
-19963.844	    15.686	   -44.914	   151.931
-19829.180	    15.736	   -58.467	   167.919
-19742.566	    15.673	   -79.731	   164.258
-20034.074	    15.528	   -45.156	   158.135
-19932.656	    15.475	   -63.871	   133.423
-19890.953	    15.600	   -28.716	   143.480
-19954.002	    15.781	   -53.409	   163.743
-19696.205	    15.815	   -46.198	   161.489
-19923.322	    15.664	   -60.320	   169.254
-19821.018	    15.425	   -47.255	   149.113
-20086.650	    15.173	   -69.528	   164.132
-19994.982	    15.103	   -52.642	   142.739
-20100.654	    15.199	   -57.129	   150.903
-19638.404	    15.478	   -42.963	   156.965
-19733.600	    15.831	   -53.653	   161.085
-19937.418	    15.944	   -54.639	   156.907
-19675.133	    15.918	   -48.086	   151.692
-20020.342	    15.631	   -52.883	   156.978
-19922.131	    15.288	   -45.568	   151.090
-20157.139	    15.077	   -33.706	   146.496
-19846.277	    15.159	   -50.261	   163.327
-20054.713	    15.445	   -59.587	   134.425
-19612.906	    15.796	   -43.270	   150.866
-19511.188	    15.990	   -54.900	   166.511
-19426.861	    15.912	   -56.152	   146.972
-19858.760	    15.761	   -41.405	   138.384
-19879.988	    15.581	   -42.541	   159.997
-19870.473	    15.451	   -44.223	   156.980
-20311.270	    15.395	   -47.743	   150.138
-19718.520	    15.439	   -45.626	   152.681
-19727.041	    15.470	   -57.319	   148.172
-20138.217	    15.450	   -55.223	   158.922
-19854.959	    15.428	   -60.351	   151.476
-19783.064	    15.445	   -47.688	   135.736
-20121.902	    15.417	   -51.631	   144.636
-19961.383	    15.429	   -45.607	   139.097
-19928.293	    15.431	   -48.221	   130.481
-19911.338	    15.473	   -49.766	   152.304
-19896.736	    15.517	   -47.423	   156.751
-19857.576	    15.454	   -63.383	   164.432
-20093.162	    15.423	   -52.848	   149.007
-19828.377	    15.443	   -40.010	   142.757
-19949.545	    15.574	   -48.782	   150.754
-19937.162	    15.677	   -55.394	   156.556
-19839.195	    15.641	   -54.272	   151.276
-20046.742	    15.554	   -39.076	   155.732
-19970.738	    15.607	   -47.657	   156.198
-20044.434	    15.611	   -54.855	   149.290
-19963.500	    15.671	   -61.508	   146.917
-19921.582	    15.757	   -65.663	   156.859
-19858.223	    15.781	    -9.925	   140.322
-19975.734	    15.616	   -58.042	   137.721
-19791.545	    15.431	   -53.122	   136.132
-20169.576	    15.224	   -54.970	   153.769
-20067.273	    15.142	   -43.448	   152.809
-19718.178	    15.268	   -48.591	   148.962
-19937.461	    15.518	   -52.785	   162.424
-20057.123	    15.713	   -49.444	   149.071
-19933.535	    15.845	   -49.330	   162.102
-19918.885	    15.833	   -39.436	   146.341
-19851.908	    15.761	   -47.550	   139.083
-19894.971	    15.658	   -55.983	   144.908
-19921.102	    15.479	   -34.345	   140.957
-20008.537	    15.296	   -47.263	   150.244
-19912.926	    15.236	   -54.682	   160.611
-19894.494	    15.232	   -61.791	   160.082
-20096.455	    15.399	   -37.472	   152.015
-19850.250	    15.649	   -46.658	   168.217
-19845.490	    15.810	   -57.368	   148.894
-19856.334	    15.714	   -52.926	   149.098
-19878.211	    15.510	   -51.007	   147.365
-19683.850	    15.468	   -56.096	   149.413
-20035.125	    15.424	   -44.092	   140.550
-20063.188	    15.447	   -56.773	   148.906
-20117.973	    15.526	   -48.374	   161.960
-19896.533	    15.668	   -59.325	   157.456
-19674.230	    15.681	   -45.822	   138.983
-19822.229	    15.679	   -50.715	   147.665
-20002.600	    15.723	   -38.735	   133.307
-19826.834	    15.917	   -64.597	   164.023
-19822.336	    15.900	   -43.885	   127.015
-20034.941	    15.707	   -41.252	   162.716
-20000.354	    15.562	   -33.594	   162.227
-19941.641	    15.567	   -26.539	   134.221
-20135.121	    15.594	   -53.293	   150.926
-19889.416	    15.618	   -23.481	   132.244
-19817.189	    15.679	   -48.417	   137.169
-19895.393	    15.747	   -58.700	   168.271
-19902.977	    15.766	   -59.853	   174.651
-19846.094	    15.770	   -44.801	   143.130
-19784.891	    15.736	   -41.758	   172.952
-19869.527	    15.515	   -27.761	   147.711
-19884.994	    15.389	   -46.274	   158.828
-20066.643	    15.418	   -53.057	   148.490
-19625.025	    15.430	   -68.608	   140.537
-19751.600	    15.518	   -59.226	   144.964
-19911.209	    15.569	   -47.683	   156.649
-20070.893	    15.565	   -44.071	   146.935
-19980.527	    15.498	   -44.718	   143.685
-19933.529	    15.439	   -56.183	   166.740
-20036.963	    15.445	   -44.455	   156.710
-19705.967	    15.566	   -50.261	   154.708
-19802.205	    15.615	   -49.423	   151.466
-19869.051	    15.543	   -59.567	   141.622
-20293.115	    15.380	   -57.354	   165.572
-19956.848	    15.306	   -46.957	   161.062
-19821.871	    15.356	   -52.277	   149.779
-19754.945	    15.525	   -65.745	   144.479
-19856.504	    15.705	   -66.747	   158.708
-19893.461	    15.587	   -38.494	   156.362
-19754.617	    15.437	   -43.643	   135.903
-20077.467	    15.254	   -53.940	   141.057
-20214.002	    15.132	   -52.144	   143.589
-20014.238	    15.268	   -75.403	   146.779
-19802.486	    15.426	   -39.966	   140.092
-19714.691	    15.608	   -47.333	   148.174
-19913.910	    15.762	   -63.434	   160.586
-19690.348	    15.857	   -45.707	   164.281
-19980.549	    15.787	   -41.953	   144.722
-20127.348	    15.664	   -36.979	   154.477
-19939.602	    15.557	   -55.134	   158.906
-19721.420	    15.452	   -52.521	   146.212
-19924.027	    15.412	   -42.248	   150.190
-20039.488	    15.435	   -50.076	   158.306
-20214.703	    15.496	   -47.938	   145.523
-19969.410	    15.566	   -46.436	   155.582
-19951.199	    15.518	   -67.571	   139.719
-19855.996	    15.449	   -62.312	   148.861
-19803.385	    15.354	   -57.179	   158.344
-20073.748	    15.337	   -61.478	   153.441
-20082.805	    15.388	   -44.405	   130.708
-19934.344	    15.550	   -44.167	   150.569
-19843.119	    15.626	   -45.373	   175.036
-20079.420	    15.583	   -39.884	   146.319
-20066.387	    15.576	   -57.032	   151.653
-19910.768	    15.645	   -53.788	   140.002
-20043.768	    15.731	   -54.075	   147.039
-19961.883	    15.691	   -39.383	   152.571
-19806.506	    15.603	   -46.734	   143.532
-20060.525	    15.403	   -53.829	   148.952
-20014.766	    15.313	   -51.251	   146.307
-19820.094	    15.414	   -47.380	   164.828
-19967.186	    15.543	   -60.903	   148.924
-20022.541	    15.678	   -52.676	   162.857
-19846.025	    15.674	   -49.314	   148.635
-20024.732	    15.592	   -52.095	   152.116
-20257.172	    15.519	   -59.643	   155.255
-19930.965	    15.530	   -57.355	   156.867
-19718.020	    15.497	   -54.310	   130.766
-19845.424	    15.540	   -44.416	   146.021
-19911.738	    15.670	   -54.074	   149.834
-19699.543	    15.724	   -38.835	   143.284
-19698.232	    15.649	   -70.355	   161.522
-19747.461	    15.598	   -43.789	   145.870
-19905.750	    15.384	   -48.716	   154.613
-19939.209	    15.279	   -59.081	   162.238
-19736.574	    15.347	   -56.864	   144.216
-19730.568	    15.584	   -44.270	   149.138
-19914.062	    15.712	   -42.586	   148.017
-19911.393	    15.820	   -48.522	   148.345
-19671.543	    15.944	   -54.769	   147.880
-19620.756	    16.003	   -45.383	   146.638
-19882.688	    15.997	   -51.335	   146.141
-19697.943	    15.770	   -51.456	   149.433
-20031.443	    15.474	   -37.359	   155.100
-20108.592	    15.333	   -53.283	   159.494
-19938.625	    15.299	   -38.911	   151.156
-20022.594	    15.335	   -59.714	   157.150
-19717.670	    15.338	   -47.560	   174.345
-20073.061	    15.232	   -43.287	   139.168
-19982.260	    15.387	   -51.916	   154.262
-19984.588	    15.666	   -60.135	   143.996
-19768.217	    15.906	   -47.517	   161.084
-19718.072	    15.887	   -57.466	   146.451
-19941.713	    15.821	   -40.740	   143.846
-19821.971	    15.775	   -45.134	   142.533
-19963.650	    15.776	   -40.345	   134.259
-20069.949	    15.788	   -63.320	   159.701
-20012.117	    15.740	   -55.196	   149.774
-20071.371	    15.631	   -41.493	   160.109
-19846.877	    15.583	   -53.115	   159.414
-19715.398	    15.548	   -54.955	   150.096
-19918.256	    15.501	   -58.072	   163.638
-19674.697	    15.453	   -47.426	   129.578
-19789.832	    15.490	   -56.904	   131.881
-19762.646	    15.482	   -48.495	   133.002
-19665.982	    15.567	   -40.229	   130.692
-19880.535	    15.619	   -45.966	   144.593
-19880.424	    15.623	   -58.127	   153.354
-20109.496	    15.577	   -50.330	   164.031
-20087.082	    15.528	   -43.270	   147.779
-19846.988	    15.459	   -35.817	   140.257
-20117.357	    15.338	   -66.084	   161.057
-19882.771	    15.361	   -45.531	   151.241
-19830.814	    15.346	   -31.825	   149.462
-20234.016	    15.356	   -47.432	   149.741
-19768.271	    15.503	   -54.466	   150.473
-19826.287	    15.680	   -45.754	   144.043
-19688.348	    15.705	   -34.650	   140.294
-19983.242	    15.489	   -50.248	   146.541
-19823.510	    15.311	   -56.496	   167.666
-20119.711	    15.256	   -45.754	   167.641
-19868.592	    15.453	   -38.655	   138.942
-19716.297	    15.754	   -47.650	   136.297
-19627.742	    15.848	   -59.958	   158.162
-19873.639	    15.685	   -56.130	   141.324
-19881.758	    15.584	   -55.330	   158.503
-19862.693	    15.611	   -45.980	   164.239
-20060.100	    15.586	   -45.523	   153.850
-20013.406	    15.600	   -52.640	   141.664
-19948.494	    15.527	   -56.395	   147.767
-20241.320	    15.478	   -61.352	   157.801
-20152.045	    15.495	   -40.328	   146.121
-19899.822	    15.472	   -40.516	   140.927
-19848.764	    15.498	   -53.684	   153.550
-20043.037	    15.501	   -48.462	   146.522
-19929.488	    15.412	   -50.810	   145.519
-19785.824	    15.373	   -37.505	   131.649
-20126.311	    15.413	   -50.640	   146.487
-19901.773	    15.582	   -49.696	   144.018
-19934.492	    15.709	   -41.407	   136.199
-19753.379	    15.696	   -53.117	   133.309
-19933.881	    15.458	   -55.426	   136.476
-20202.189	    15.369	   -56.895	   150.842
-19768.980	    15.334	   -51.905	   141.292
-19672.938	    15.276	   -74.896	   160.300
-20234.350	    15.380	   -52.403	   142.809
-19985.395	    15.502	   -34.030	   157.978
-19874.688	    15.591	   -37.045	   155.045
-19769.711	    15.612	   -49.495	   148.272
-19782.000	    15.607	   -42.175	   145.452
-19870.619	    15.493	   -50.026	   146.114
-19992.334	    15.437	   -54.337	   158.085
-19944.061	    15.550	   -25.649	   161.436
-19664.992	    15.685	   -50.042	   151.917
-19987.900	    15.685	   -63.463	   155.280
-20073.646	    15.691	   -59.767	   143.013
-19885.986	    15.595	   -43.600	   143.135
-19950.010	    15.502	   -51.832	   160.162
-19834.586	    15.596	   -49.469	   148.146
-19579.613	    15.674	   -56.492	   163.140
-19870.293	    15.639	   -53.616	   164.980
-19838.707	    15.547	   -49.566	   151.609
-19829.160	    15.415	   -52.792	   139.611
-19956.328	    15.344	   -79.539	   153.513
-19769.621	    15.446	   -56.231	   174.867
-19833.316	    15.562	   -41.457	   127.939
-19936.678	    15.501	   -36.529	   126.066
-20145.965	    15.415	   -44.269	   146.443
-20063.094	    15.379	   -47.399	   149.687
-19713.371	    15.492	   -57.641	   148.602
-19913.707	    15.744	   -38.055	   139.227
-20036.594	    15.788	   -47.799	   143.573
-19780.221	    15.620	   -47.355	   162.945
-20053.580	    15.380	   -42.247	   152.576
-19959.018	    15.259	   -53.853	   146.746
-20320.107	    15.255	   -49.432	   148.786
-20138.828	    15.377	   -51.433	   143.295
-20015.637	    15.529	   -51.697	   155.701
-19867.260	    15.605	   -56.612	   148.612
-19839.721	    15.640	   -39.109	   151.718
-19643.168	    15.674	   -62.413	   161.560
-19844.078	    15.781	   -37.483	   131.040
-19710.400	    15.914	   -59.014	   152.873
-19891.705	    15.845	   -48.872	   144.572
-19890.016	    15.716	   -55.806	   147.869
-20188.787	    15.479	   -65.158	   159.975
-20039.467	    15.273	   -48.265	   151.583
-20035.639	    15.199	   -44.217	   146.243
-20012.869	    15.380	   -34.947	   150.939
-20153.369	    15.568	   -44.295	   150.005
-20019.711	    15.660	   -52.335	   154.255
-19639.000	    15.688	   -62.952	   146.765
-20020.240	    15.537	   -59.111	   152.383
-19861.129	    15.386	   -33.113	   114.538
-19911.094	    15.210	   -49.177	   136.489
-19957.906	    15.258	   -36.833	   145.979
-19693.592	    15.447	   -48.201	   148.268
-19712.205	    15.677	   -49.585	   144.948
-19873.006	    15.789	   -48.273	   149.915
-19913.602	    15.761	   -50.122	   149.091
-20014.102	    15.635	   -46.842	   159.292
-19892.693	    15.680	   -46.267	   141.633
-19875.941	    15.780	   -38.546	   156.966
-19956.008	    15.708	   -43.217	   146.519
-19892.297	    15.575	   -42.337	   142.220
-19777.076	    15.490	   -50.188	   138.519
-19964.752	    15.392	   -48.207	   147.148
-19897.301	    15.400	   -39.071	   152.403
-20009.910	    15.420	   -54.046	   158.271
-20030.391	    15.580	   -53.121	   139.061
-19940.365	    15.721	   -56.982	   174.083
-19738.812	    15.741	   -59.018	   146.826
-19944.338	    15.584	   -39.242	   142.518
-19976.312	    15.506	   -42.100	   142.087
-19966.889	    15.529	   -54.091	   150.360
-19791.607	    15.562	   -46.071	   148.894
-20054.553	    15.585	   -52.200	   138.986
-20183.912	    15.502	   -32.376	   158.634
-19894.857	    15.461	   -51.655	   157.287
-20161.320	    15.397	   -43.229	   157.139
-19800.365	    15.374	   -47.138	   149.240
-19830.012	    15.338	   -57.803	   154.972
-20256.205	    15.332	   -51.038	   137.162
-19951.545	    15.465	   -48.441	   159.498
-19683.500	    15.576	   -47.876	   169.673
-19686.682	    15.675	   -48.382	   165.059
-19812.260	    15.694	   -36.491	   164.282
-20068.387	    15.661	   -51.043	   162.362
-20112.379	    15.574	   -56.876	   160.885
-19893.621	    15.541	   -66.992	   166.735
-19980.428	    15.490	   -43.447	   161.778
-19902.855	    15.488	   -68.231	   145.256
-19789.023	    15.493	   -61.266	   165.075
-19972.846	    15.393	   -57.299	   173.387
-20039.498	    15.241	   -49.437	   142.433
-20033.533	    15.215	   -59.725	   148.681
-20106.832	    15.369	   -72.891	   156.350
-20161.604	    15.514	   -39.500	   155.737
-19798.777	    15.687	   -49.566	   141.355
-19696.494	    15.900	   -50.422	   142.981
-19767.363	    15.967	   -48.890	   165.691
-19827.586	    15.861	   -40.719	   140.029
-19978.850	    15.742	   -50.980	   140.675
-19881.795	    15.643	   -53.441	   142.502
-19911.795	    15.516	   -67.404	   158.360
-19784.152	    15.405	   -50.928	   157.077
-20154.133	    15.265	   -44.790	   154.397
-19859.871	    15.279	   -52.468	   160.930
-19899.541	    15.380	   -39.394	   167.243
-19790.445	    15.497	   -54.150	   141.852
-19998.471	    15.566	   -46.250	   139.876
-20112.697	    15.568	   -52.370	   161.529
-20003.748	    15.463	   -35.324	   158.294
-19857.820	    15.266	   -51.612	   163.060
-20113.455	    15.178	   -39.285	   152.674
-20029.127	    15.196	   -55.312	   151.376
-19969.637	    15.389	   -54.474	   159.068
-19891.973	    15.686	   -43.397	   156.940
-19722.504	    15.781	   -46.357	   147.971
-19795.910	    15.627	   -56.218	   149.520
-20022.553	    15.414	   -45.100	   149.330
-19938.406	    15.286	   -26.036	   138.361
-19908.314	    15.217	   -53.764	   154.706
-19973.824	    15.278	   -44.012	   152.278
-19920.492	    15.266	   -57.645	   164.030
-19952.623	    15.223	   -52.780	   150.841
-19912.830	    15.231	   -37.892	   128.472
-19876.875	    15.312	   -56.259	   145.144
-19893.896	    15.330	   -54.487	   161.363
-19889.564	    15.387	   -54.429	   150.222
-19624.338	    15.551	   -53.271	   142.593
-19944.145	    15.684	   -45.153	   141.147
-19686.219	    15.648	   -55.944	   140.692
-19890.717	    15.519	   -52.978	   162.941
-19963.572	    15.358	   -46.359	   149.916
-19750.814	    15.319	   -54.732	   146.134
-20082.080	    15.421	   -51.108	   158.412
-19533.627	    15.545	   -37.044	   152.455
-19928.979	    15.476	   -60.966	   156.157
-19790.979	    15.261	   -36.832	   141.169
-19778.311	    15.077	   -49.409	   140.883
-20204.363	    15.156	   -43.994	   148.089
-20081.271	    15.432	   -52.161	   147.788
-20108.154	    15.745	   -38.619	   139.159
-19851.650	    15.881	   -60.831	   135.587
-19730.580	    15.939	   -68.202	   159.677
-19742.525	    15.781	   -28.841	   134.545
-20047.453	    15.414	   -52.753	   147.149
-20184.264	    15.185	   -50.849	   143.942
-20166.836	    15.109	   -50.254	   146.892
-19834.922	    15.052	   -46.236	   135.214
-20025.275	    15.129	   -42.588	   139.773
-20101.830	    15.270	   -48.052	   130.386
-19779.748	    15.583	   -63.740	   166.081
-19823.145	    15.797	   -46.600	   148.023
-19980.730	    15.781	   -57.319	   170.473
-19711.088	    15.573	   -53.731	   166.001
-19916.457	    15.416	   -44.642	   157.833
-19886.283	    15.396	   -38.835	   141.762
-19816.930	    15.467	   -55.454	   151.350
-20010.066	    15.454	   -46.422	   146.939
-20060.855	    15.439	   -51.409	   149.370
-19942.811	    15.472	   -36.944	   149.615
-19941.383	    15.613	   -49.195	   151.201
-20124.623	    15.698	   -36.629	   154.994
-19862.061	    15.632	   -44.803	   166.851
-20065.629	    15.530	   -52.446	   174.734
-19847.279	    15.477	   -47.471	   148.793
-20044.516	    15.458	   -55.075	   171.703
-20055.045	    15.392	   -49.533	   142.733
-19941.801	    15.334	   -42.281	   155.376
-20144.002	    15.319	   -52.927	   157.113
-20001.457	    15.391	   -43.433	   153.283
-20385.660	    15.451	   -44.937	   160.678
-19885.842	    15.423	   -56.031	   156.988
-19908.732	    15.330	   -57.449	   156.063
-20045.957	    15.242	   -53.244	   156.157
-20350.588	    15.209	   -55.076	   144.672
-20135.447	    15.199	   -53.157	   153.776
-19776.051	    15.286	   -49.315	   167.498
-19671.650	    15.482	   -50.864	   157.174
-19763.711	    15.546	   -47.855	   163.872
-19750.133	    15.504	   -44.498	   136.135
-20110.273	    15.394	   -55.957	   157.174
-20152.809	    15.337	   -51.018	   153.840
-19943.098	    15.466	   -57.262	   159.478
-19733.121	    15.591	   -58.683	   151.025
-19965.760	    15.668	   -61.266	   162.837
-20022.561	    15.667	   -38.639	   158.865
-19799.285	    15.609	   -47.679	   149.878
-19686.477	    15.455	   -55.355	   149.312
-20185.646	    15.434	   -58.023	   147.246
-20053.871	    15.462	   -56.295	   135.867
-19918.469	    15.513	   -44.483	   142.687
-19930.705	    15.596	   -41.406	   141.993
-19852.686	    15.638	   -35.291	   144.564
-19738.402	    15.604	   -54.701	   139.942
-20030.529	    15.489	   -47.279	   137.566
-20086.250	    15.354	   -54.741	   152.977
-20111.369	    15.337	   -15.948	   140.081
-20012.287	    15.424	   -34.761	   136.509
-19949.270	    15.474	   -52.868	   140.031
-19765.273	    15.462	   -55.994	   144.941
-19880.020	    15.439	   -50.237	   137.207
-19873.250	    15.563	   -51.786	   151.129
-19712.332	    15.825	   -52.722	   166.348
-20025.809	    15.912	   -41.963	   143.988
-20031.299	    15.805	   -58.411	   160.535
-19638.396	    15.679	   -55.603	   146.447
-19885.857	    15.560	   -59.163	   159.153
-19928.541	    15.448	   -54.249	   136.503
-20316.168	    15.206	   -46.965	   149.530
-20383.693	    15.083	   -46.229	   154.774
-20016.246	    15.231	   -41.548	   154.626
-20039.957	    15.407	   -42.982	   155.785
-20015.275	    15.653	   -68.623	   164.361
-19829.271	    15.766	   -24.039	   136.630
-19917.615	    15.766	   -75.443	   141.456
-20033.680	    15.646	   -45.939	   155.966
-19886.055	    15.528	   -40.774	   154.820
-20011.562	    15.491	   -54.201	   160.927
-19695.701	    15.426	   -40.676	   147.023
-20034.262	    15.302	   -60.148	   152.602
-20055.131	    15.185	   -55.336	   120.661
-20115.941	    15.261	   -55.322	   148.901
-19986.471	    15.447	   -50.971	   146.775
-19971.314	    15.515	   -54.959	   167.667
-19933.520	    15.400	   -52.548	   158.384
-20041.594	    15.440	   -45.290	   152.026
-19719.643	    15.699	   -43.398	   138.124
-19966.211	    15.800	   -54.089	   144.178
-19838.535	    15.909	   -46.450	   139.413
-19574.287	    15.944	   -50.825	   163.400
-19660.678	    15.660	   -65.722	   158.416
-20131.855	    15.314	   -34.467	   136.817
-20111.109	    15.159	   -48.698	   147.553
-20067.678	    15.230	   -59.621	   148.249
-19961.590	    15.315	   -53.326	   150.176
-20002.672	    15.347	   -56.538	   154.040
-20093.016	    15.326	   -29.902	   139.459
-19909.551	    15.285	   -46.510	   143.809
-20029.004	    15.256	   -52.698	   150.050
-19793.768	    15.381	   -52.597	   150.637
-19889.209	    15.551	   -48.676	   135.019
-19673.893	    15.691	   -50.416	   137.033
-19928.705	    15.633	   -49.541	   155.141
-19876.713	    15.482	   -25.545	   129.503
-20076.975	    15.454	   -46.865	   172.848
-19875.602	    15.637	   -57.189	   157.618
-19734.223	    15.724	   -57.104	   150.202
-20074.520	    15.694	   -38.194	   145.749
-20116.865	    15.650	   -54.861	   160.402
-19689.602	    15.710	   -55.549	   140.964
-19627.494	    15.711	   -34.044	   146.948
-19725.215	    15.637	   -52.206	   144.915
-19905.922	    15.493	   -55.369	   141.736
-20014.342	    15.354	   -44.495	   131.954
-20096.090	    15.333	   -50.540	   150.029
-19957.104	    15.402	   -57.246	   160.248
-19803.551	    15.550	   -52.798	   157.139
-19909.957	    15.654	   -58.110	   154.927
-20056.273	    15.658	   -47.800	   156.060
-19990.898	    15.612	   -47.240	   138.265
-19657.818	    15.567	   -53.346	   151.602
-19884.793	    15.501	   -50.450	   139.914
-19757.773	    15.351	   -64.585	   170.328
-20026.059	    15.224	   -47.518	   146.703
-19743.684	    15.155	   -50.153	   146.722
-19842.279	    15.277	   -53.182	   148.742
-20002.990	    15.557	   -51.256	   148.714
-19516.789	    15.642	   -51.989	   152.604
-19792.619	    15.579	   -42.000	   164.132
-19901.357	    15.589	   -51.964	   148.628
-20108.578	    15.534	   -59.780	   154.583
-19635.512	    15.436	   -43.380	   144.580
-19768.979	    15.412	   -53.789	   144.428
-19718.916	    15.358	   -43.878	   146.391
-19860.141	    15.262	   -53.471	   151.428
-19915.820	    15.277	   -53.640	   157.719
-19888.510	    15.545	   -42.212	   141.461
-19907.090	    15.773	   -63.258	   147.601
-19992.518	    15.873	   -47.143	   146.497
-19858.594	    15.744	   -52.782	   145.049
-19935.361	    15.528	   -63.334	   174.863
-20276.004	    15.456	   -65.129	   161.874
-19918.078	    15.467	   -61.714	   157.195
-19917.604	    15.451	   -44.018	   163.261
-20077.393	    15.465	   -59.844	   152.316
-19814.461	    15.405	   -51.085	   156.778
-19914.811	    15.317	   -38.295	   163.085
-20003.922	    15.434	   -52.929	   157.331
-19909.781	    15.614	   -53.553	   149.907
-20155.262	    15.617	   -61.131	   151.165
-19843.242	    15.512	   -51.271	   153.697
-19845.582	    15.512	   -40.271	   159.409
-20216.334	    15.446	   -56.105	   163.639
-20303.752	    15.459	   -48.052	   155.741
-19897.652	    15.574	   -48.068	   152.222
-19765.936	    15.662	   -47.520	   147.138
-19984.459	    15.653	   -65.215	   146.447
-20109.578	    15.681	   -22.345	   134.813
-19849.727	    15.706	   -55.113	   141.579
-20059.867	    15.574	   -57.329	   169.292
-19992.287	    15.372	   -31.882	   134.890
-20002.807	    15.279	   -47.647	   151.144
-19947.172	    15.284	   -45.561	   143.418
-20176.449	    15.403	   -39.253	   151.479
-19802.051	    15.501	   -47.864	   146.240
-20099.504	    15.582	   -42.318	   155.700
-19983.266	    15.636	   -56.682	   154.260
-20167.070	    15.589	   -55.310	   145.251
-19872.564	    15.463	   -51.065	   134.428
-20159.934	    15.376	   -58.169	   135.916
-19856.629	    15.396	   -67.002	   158.247
-19727.119	    15.459	   -49.106	   151.540
-19878.533	    15.555	   -63.704	   154.487
-19912.971	    15.640	   -49.056	   163.627
-20073.289	    15.654	   -37.932	   150.038
-19542.391	    15.608	   -51.368	   156.125
-19873.791	    15.375	   -62.505	   133.452
-19913.715	    15.223	   -52.322	   151.658
-19884.754	    15.222	   -47.727	   145.125
-19711.285	    15.235	   -63.635	   159.246
-20159.332	    15.246	   -31.320	   140.318
-19774.279	    15.384	   -61.510	   170.886
-19906.051	    15.483	   -49.964	   144.806
-19999.410	    15.437	   -44.049	   135.285
-20080.311	    15.432	   -42.398	   147.532
-19804.352	    15.416	   -47.964	   127.885
-20043.594	    15.421	   -55.817	   150.380
-19903.334	    15.486	   -51.659	   156.281
-19930.752	    15.528	   -59.564	   150.216
-19712.098	    15.569	   -48.903	   145.079
-19776.984	    15.683	   -49.201	   158.479
-20031.875	    15.705	   -57.401	   149.860
-19671.039	    15.684	   -50.068	   152.967
-20090.217	    15.545	   -45.401	   168.472
-19967.215	    15.540	   -54.557	   158.840
-19777.717	    15.676	   -41.706	   154.530
-19866.607	    15.708	   -58.938	   158.053
-20112.852	    15.651	   -41.489	   130.793
-19957.676	    15.581	   -58.579	   145.029
-19988.662	    15.490	   -48.178	   144.440
-20042.768	    15.454	   -59.809	   152.278
-20046.113	    15.526	   -57.577	   155.288
-19912.596	    15.602	   -43.587	   146.931
-19916.389	    15.574	   -58.102	   161.136
-19947.275	    15.463	   -24.258	   141.529
-20172.498	    15.377	   -36.052	   140.215
-19988.230	    15.447	   -48.673	   150.018
-19966.543	    15.575	   -48.651	   148.976
-19945.701	    15.656	   -51.216	   169.745
-19930.352	    15.689	   -59.128	   142.794
-19725.098	    15.649	   -49.402	   151.838
-19691.139	    15.557	   -54.970	   150.867
-19956.080	    15.404	   -62.181	   147.957
-19946.057	    15.445	   -65.935	   147.273
-19675.393	    15.695	   -71.041	   150.649
-19563.570	    15.963	   -55.194	   161.946
-19812.014	    15.949	   -50.768	   172.140
-19964.945	    15.747	   -44.272	   158.692
-19818.195	    15.525	   -63.763	   141.611
-19891.715	    15.313	   -46.859	   161.713
-20153.654	    15.180	   -56.413	   168.182
-20297.574	    15.275	   -58.528	   157.544
-20052.178	    15.444	   -44.758	   134.623
-19725.572	    15.636	   -28.941	   131.523
-19957.658	    15.657	   -31.192	   149.032
-19959.615	    15.611	   -42.454	   150.744
-19789.066	    15.529	   -47.002	   161.455
-20131.904	    15.476	   -51.078	   150.915
-19768.693	    15.486	   -47.355	   152.444
-19728.371	    15.466	   -46.638	   159.950
-19853.172	    15.393	   -41.219	   160.811
-19829.895	    15.347	   -45.612	   129.735
-19996.188	    15.307	   -60.155	   161.584
-20132.631	    15.392	   -51.088	   157.143
-20073.607	    15.472	   -44.286	   159.938
-19749.139	    15.597	   -53.210	   156.183
-19748.217	    15.748	   -41.202	   149.289
-19792.809	    15.806	   -49.300	   159.257
-19828.152	    15.739	   -45.318	   159.399
-19884.152	    15.643	   -33.219	   147.678
-20027.648	    15.497	   -44.439	   147.661
-19963.938	    15.423	   -43.763	   145.499
-19682.342	    15.543	   -35.754	   143.830
-19807.945	    15.674	   -60.700	   147.168
-19871.156	    15.842	   -46.924	   157.068
-19798.688	    15.847	   -41.104	   153.446
-19823.158	    15.612	   -43.234	   151.024
-19903.523	    15.438	   -49.751	   145.146
-19915.531	    15.286	   -29.948	   122.073
-20184.516	    15.151	   -40.010	   156.753
-19950.809	    15.145	   -54.047	   158.446
-19725.707	    15.336	   -60.198	   144.969
-19907.223	    15.499	   -56.406	   153.583
-19826.334	    15.662	   -43.877	   150.937
-19809.564	    15.648	   -46.363	   145.246
-19958.002	    15.540	   -54.956	   145.962
-19808.645	    15.540	   -40.486	   158.258
-19776.625	    15.586	   -55.087	   162.742
-20153.068	    15.622	   -57.478	   167.233
-19889.131	    15.688	   -37.844	   150.837
-20168.387	    15.679	   -54.057	   159.024
-19952.229	    15.674	   -43.342	   149.081
-20067.668	    15.646	   -43.502	   136.187
-19795.025	    15.654	   -56.342	   145.932
-19964.883	    15.587	   -27.576	   150.424
-19599.504	    15.564	   -53.728	   162.579
-19972.973	    15.515	   -31.766	   140.658
-20037.678	    15.511	   -36.930	   146.403
-19889.357	    15.544	   -53.111	   159.218
-19680.553	    15.560	   -59.271	   155.999
-19782.275	    15.475	   -53.713	   144.540
-19900.908	    15.386	   -54.239	   148.358
-20171.193	    15.311	   -36.389	   132.897
-19851.875	    15.310	   -49.191	   139.470
-19944.502	    15.431	   -54.223	   145.857
-19757.152	    15.564	   -43.710	   160.008
-19996.898	    15.622	   -57.692	   141.300
-20149.055	    15.476	   -49.433	   147.536
-19863.916	    15.382	   -67.820	   158.924
-19881.943	    15.382	   -64.054	   155.484
-19789.639	    15.453	   -66.969	   156.596
-19873.889	    15.565	   -53.636	   144.390
-19868.570	    15.550	   -45.498	   153.936
-19950.104	    15.518	   -51.697	   148.414
-20049.244	    15.501	   -49.649	   143.856
-19776.703	    15.689	   -53.899	   165.040
-19829.836	    15.898	   -40.612	   149.395
-19967.146	    15.937	   -37.897	   139.113
-19796.764	    15.894	   -44.532	   144.986
-20006.334	    15.816	   -45.114	   162.892
-19647.604	    15.745	   -21.646	   139.262
-19968.467	    15.546	   -37.573	   134.259
-20068.328	    15.324	   -25.444	   139.796
-20446.154	    15.240	   -48.575	   156.773
-19987.352	    15.347	   -45.458	   158.831
-20140.486	    15.464	   -55.271	   158.476
-19667.354	    15.687	   -58.575	   146.923
-19601.650	    15.833	   -56.404	   162.903
-19948.393	    15.821	   -49.786	   162.823
-19973.213	    15.711	   -44.393	   155.337
-19966.236	    15.582	   -46.044	   130.488
-19926.635	    15.543	   -54.403	   152.905
-19806.301	    15.613	   -47.291	   146.129
-19601.924	    15.671	   -40.625	   150.366
-19952.791	    15.460	   -37.963	   136.704
-20070.973	    15.321	   -51.007	   147.513
-20266.424	    15.347	   -43.273	   156.336
-20060.848	    15.505	   -44.328	   142.796
-19963.268	    15.611	   -42.100	   154.869
-20142.789	    15.477	   -43.137	   152.711
-19938.195	    15.397	   -38.149	   147.120
-20015.762	    15.429	   -44.548	   161.564
-19906.225	    15.436	   -35.939	   152.228
-20042.494	    15.387	   -38.979	   147.277
-19916.621	    15.303	   -58.068	   154.793
-19987.328	    15.314	   -50.798	   155.071
-20086.754	    15.331	   -44.656	   149.348
-19920.221	    15.385	   -41.398	   141.523
-20004.051	    15.462	   -40.554	   143.855
-19729.178	    15.592	   -56.991	   147.389
-20083.811	    15.640	   -59.323	   157.240
-19809.105	    15.671	   -49.260	   154.363
-19841.428	    15.620	   -47.103	   148.272
-19977.273	    15.585	   -49.215	   159.360
-20129.527	    15.568	   -38.472	   146.099
-19929.199	    15.546	   -29.304	   140.406
-20058.320	    15.523	   -50.915	   154.900
-19943.312	    15.616	   -46.103	   156.520
-19886.459	    15.685	   -42.410	   143.957
-19877.367	    15.701	   -43.994	   147.523
-19891.762	    15.702	   -41.359	   141.514
-19775.154	    15.727	   -49.657	   144.019
-19757.861	    15.742	   -61.924	   151.316
-19728.471	    15.692	   -49.592	   152.055
-20113.076	    15.545	   -57.300	   156.636
-20015.727	    15.268	   -56.288	   156.378
-20271.045	    15.091	   -48.828	   154.513
-20025.994	    15.166	   -57.094	   148.569
-19924.789	    15.322	   -57.576	   171.562
-19810.572	    15.615	   -49.166	   156.780
-19772.479	    15.810	   -67.765	   159.122
-19738.225	    15.830	   -61.263	   166.514
-19977.770	    15.654	   -46.116	   152.638
-19921.812	    15.487	   -41.813	   152.577
-19787.502	    15.528	   -51.431	   156.663
-19903.291	    15.561	   -54.225	   146.260
-20130.957	    15.635	   -46.086	   136.388
-19914.984	    15.674	   -45.221	   157.758
-19601.852	    15.658	   -49.856	   155.056
-19801.709	    15.693	   -31.217	   143.657
-19874.152	    15.705	   -35.077	   154.237
-19763.297	    15.613	   -51.058	   140.264
-19851.131	    15.548	   -38.421	   140.919
-20081.961	    15.519	   -59.899	   166.053
-19740.855	    15.414	   -47.718	   158.108
-19801.754	    15.308	   -52.180	   165.960
-19694.105	    15.424	   -41.411	   134.442
-20130.047	    15.674	   -57.359	   153.494
-19598.379	    15.950	   -49.319	   142.025
-19778.404	    15.886	   -41.118	   144.234
-20008.371	    15.602	   -52.358	   146.479
-19854.211	    15.406	   -50.366	   153.124
-20007.299	    15.307	   -32.274	   142.334
-19957.512	    15.285	   -61.097	   162.264
-19588.521	    15.345	   -49.097	   159.256
-20102.873	    15.329	   -47.800	   141.877
-20075.984	    15.369	   -31.343	   140.196
-20022.316	    15.475	   -56.264	   151.402
-19837.154	    15.633	   -46.561	   143.864
-19786.701	    15.701	   -46.308	   148.824
-19796.664	    15.657	   -50.928	   139.134
-19878.660	    15.524	   -58.381	   151.421
-20276.668	    15.407	   -49.558	   132.324
-19872.086	    15.465	   -38.035	   146.740
-19726.213	    15.702	   -56.885	   162.619
-19725.477	    15.844	   -52.046	   147.959
-19699.211	    15.666	   -56.209	   159.911
-20213.164	    15.306	   -43.560	   141.232
-19797.633	    15.254	   -52.162	   151.074
-19804.777	    15.344	   -30.362	   138.392
-19974.957	    15.505	   -36.401	   150.486
-19824.227	    15.696	   -36.262	   151.038
-19639.033	    15.784	   -47.335	   162.593
-19735.607	    15.757	   -41.114	   163.148
-19751.574	    15.691	   -49.666	   137.806
-19846.641	    15.601	   -53.892	   162.919
-20019.041	    15.569	   -53.015	   147.208
-20033.314	    15.659	   -64.021	  -177.106
-20004.658	    15.643	   -46.788	   159.584
-19729.537	    15.548	   -49.339	   154.145
-20039.254	    15.489	   -38.124	   133.470
-19857.215	    15.430	   -54.966	   156.657
-20007.521	    15.349	   -49.822	   136.166
-20022.760	    15.328	   -57.233	   165.523
-19787.355	    15.476	   -53.731	   162.349
-19965.500	    15.709	   -32.350	   132.765
-19813.760	    15.862	   -47.689	   158.675
-20031.297	    15.868	   -51.416	   149.893
-19924.248	    15.818	   -48.359	   142.060
-20148.584	    15.729	   -42.926	   147.886
-19807.527	    15.637	   -65.917	   147.932
-20065.600	    15.513	   -42.802	   156.491
-19816.586	    15.495	   -43.797	   153.924
-19965.250	    15.497	   -46.078	   166.193
-19799.213	    15.597	   -43.188	   151.309
-20092.221	    15.534	   -53.444	   137.387
-19875.227	    15.348	   -55.889	   145.891
-20014.738	    15.290	   -53.446	   142.787
-20052.227	    15.404	   -45.837	   151.469
-19901.016	    15.589	   -46.648	   166.086
-19413.908	    15.665	   -46.202	   152.281
-19882.426	    15.650	   -49.532	   137.139
-19958.896	    15.711	   -47.055	   137.386
-19795.760	    15.695	   -60.888	   152.809
-19893.809	    15.726	   -55.665	   159.212
-19826.150	    15.681	   -52.598	   135.517
-20087.916	    15.569	   -58.122	   158.372
-19805.852	    15.663	   -54.991	   133.478
-19778.172	    15.795	   -46.788	   150.809
-19905.496	    15.798	   -57.685	   150.939
-20008.078	    15.669	   -35.663	   151.528
-19924.721	    15.486	   -42.769	   149.869
-19754.340	    15.392	   -48.077	   171.298
-19830.152	    15.459	   -45.214	   167.493
-20016.316	    15.523	   -55.062	   152.925
-19953.121	    15.554	   -51.266	   147.217
-19951.639	    15.530	   -59.950	   179.037
-19709.910	    15.425	   -54.509	   165.094
-19863.498	    15.282	   -51.928	   144.482
-19812.262	    15.191	   -52.039	   148.702
-19799.154	    15.168	   -43.044	   143.049
-19956.730	    15.229	   -50.588	   159.188
-20015.893	    15.350	   -63.970	   160.078
-19959.064	    15.554	   -63.260	   148.379
-19943.256	    15.756	   -55.631	   155.010
-19764.705	    15.881	   -65.491	   150.151
-19753.197	    15.870	   -62.926	   155.130
-19881.168	    15.699	   -53.527	   159.220
-19958.992	    15.346	   -60.241	   150.442
-20044.600	    15.113	   -40.913	   151.445
-19964.686	    15.099	   -55.704	   160.103
-19684.523	    15.381	   -46.794	   145.462
-20047.900	    15.653	   -73.258	   137.179
-19822.521	    15.723	   -42.385	   142.456
-19941.133	    15.753	   -60.881	   162.765
-19922.422	    15.615	   -50.029	   143.200
-20022.027	    15.429	   -38.883	   132.198
-19559.314	    15.347	   -45.399	   150.275
-19817.557	    15.251	   -48.374	   153.472
-19980.115	    15.181	   -42.542	   152.304
