-19962.738	    15.334	   -92.310	   122.143
-19880.062	    15.401	  -159.363	    40.261
-19900.627	    15.453	  -174.261	    32.457
-19982.398	    15.418	  -160.738	    28.872
-19830.881	    15.522	  -157.754	    37.880
-19973.373	    15.522	  -155.529	    34.958
-19870.781	    15.371	  -168.158	    42.442
-20092.928	    15.301	  -158.887	    14.751
-19951.588	    15.358	  -159.712	    24.940
-20021.740	    15.494	  -154.112	    13.284
-19625.496	    15.638	  -163.985	    51.268
-20024.455	    15.656	  -172.952	    20.025
-19902.395	    15.724	  -165.966	    20.835
-19736.285	    15.809	  -163.233	    46.059
-19956.889	    15.788	  -167.261	    33.675
-19946.662	    15.799	  -165.767	    42.972
-19996.020	    15.693	  -166.809	    21.952
-19817.213	    15.451	  -159.917	    50.934
-20119.639	    15.342	  -156.786	    31.776
-19681.479	    15.419	  -171.648	    28.016
-19911.471	    15.541	  -159.564	    20.083
-19920.809	    15.618	  -156.893	    20.749
-19750.305	    15.617	  -170.778	    37.437
-19732.604	    15.567	  -168.034	    22.997
-19669.812	    15.526	  -162.685	    28.311
-19995.289	    15.505	  -171.746	    43.741
-19860.951	    15.486	  -161.737	    25.753
-19885.664	    15.520	  -153.372	    36.339
-19847.008	    15.613	  -167.354	    45.329
-20032.918	    15.629	  -167.885	    37.454
-19883.232	    15.574	  -160.756	    27.709
-19937.471	    15.521	  -156.976	    24.025
-20095.025	    15.588	  -171.009	    35.031
-19716.322	    15.782	  -164.962	    49.803
-19701.369	    15.921	  -152.258	    49.972
-19817.377	    15.946	  -165.644	    43.852
-19758.045	    15.782	  -169.996	    31.056
-19929.219	    15.530	  -162.760	    23.413
-20283.002	    15.360	  -172.000	    21.915
-19812.021	    15.388	  -174.357	    17.807
-20052.428	    15.407	  -161.257	    46.141
-19916.305	    15.348	  -177.223	    31.650
-19931.168	    15.315	  -168.594	    35.902
-19931.307	    15.393	  -177.229	    34.462
-19920.051	    15.540	  -168.193	    37.761
-19961.162	    15.688	  -172.063	    40.509
-19769.758	    15.688	  -167.446	    52.745
-19842.805	    15.551	  -158.014	    35.116
-19879.635	    15.404	  -169.294	    39.502
-20024.164	    15.283	  -172.985	    42.954
-20041.133	    15.295	  -165.583	    33.786
-20243.455	    15.412	  -172.174	    33.358
-19977.662	    15.620	  -165.646	    40.588
-19953.930	    15.837	  -177.499	    38.328
-19813.746	    15.814	  -173.263	    17.672
-19885.252	    15.630	  -151.301	    26.152
-19923.219	    15.425	  -160.114	    27.114
-19918.121	    15.414	  -172.267	    27.143
-20072.721	    15.430	  -157.022	    44.254
-20015.496	    15.443	  -178.421	    33.930
-19710.557	    15.437	  -171.198	    37.718
-19647.191	    15.396	  -163.174	    44.712
-19888.717	    15.395	  -174.282	    34.216
-20040.359	    15.375	  -156.372	    39.500
-19801.551	    15.341	  -167.007	    41.448
-19783.938	    15.314	  -166.143	    36.209
-19571.678	    15.417	  -156.596	     0.122
-19835.857	    15.490	  -160.933	     5.525
-19914.369	    15.583	  -166.044	    20.506
-19977.824	    15.536	  -156.537	    19.344
-19936.158	    15.376	  -168.822	    37.784
-20045.281	    15.351	  -164.717	    34.056
-19863.496	    15.414	  -157.297	    25.510
-19903.135	    15.506	  -171.993	    45.413
-19682.768	    15.704	  -159.756	    33.053
-19878.525	    15.849	   179.313	    55.530
-19830.602	    15.951	  -167.227	    48.930
-19794.219	    15.959	  -164.260	    28.084
-19891.619	    15.860	  -160.883	    22.027
-19819.395	    15.720	  -166.090	    21.788
-19818.047	    15.548	  -159.663	    29.545
-19822.387	    15.443	  -164.351	    41.970
-19685.373	    15.348	  -158.259	    33.630
-19781.811	    15.350	  -159.136	    23.352
-19546.080	    15.280	  -170.070	    57.397
-19768.693	    15.298	  -161.844	    58.938
-19908.641	    15.435	  -155.500	    30.984
-19875.348	    15.666	  -166.517	    36.707
-20186.943	    15.811	  -153.540	    25.659
-19713.289	    15.827	  -152.664	    37.488
-19957.170	    15.621	  -155.082	    35.603
-19913.814	    15.412	  -157.386	    47.823
-19991.920	    15.228	  -146.468	    36.023
-20002.953	    15.110	  -153.517	    35.254
-20071.930	    15.200	  -160.910	    43.782
-20042.170	    15.329	  -163.491	    42.632
-20027.654	    15.455	  -162.125	    32.913
-20254.848	    15.480	  -162.701	    23.001
-20054.793	    15.416	   178.160	    13.743
-19903.844	    15.448	  -159.638	    35.270
-19756.949	    15.489	  -147.305	    11.676
-19760.113	    15.328	  -155.836	    32.894
-20100.744	    15.274	  -172.797	    17.233
-20217.635	    15.347	  -167.833	    42.683
-19888.996	    15.540	  -161.197	    50.787
-20074.139	    15.651	  -164.250	    31.153
-19860.891	    15.757	  -173.997	    20.799
-20025.832	    15.779	  -152.813	    19.852
-19993.781	    15.739	  -155.488	    41.720
-19726.143	    15.583	  -161.301	    33.868
-19971.879	    15.330	  -174.656	    28.415
-19962.982	    15.183	  -172.252	    33.736
-20032.805	    15.193	  -178.329	    36.896
-19908.391	    15.417	  -171.808	    24.100
-19682.129	    15.735	  -160.656	    41.764
-19789.971	    15.988	  -155.691	    37.388
-19654.984	    16.080	  -154.552	    34.362
-20039.281	    16.008	  -150.626	    44.483
-19848.711	    15.848	  -148.292	    37.021
-19968.746	    15.607	  -169.938	    29.568
-19850.188	    15.435	  -152.779	    32.901
-20060.303	    15.335	  -160.945	    51.945
-20006.184	    15.434	  -163.920	    30.180
-19929.207	    15.647	  -163.778	    41.506
-19864.777	    15.816	  -165.878	    39.812
-19909.092	    15.760	  -164.301	    29.994
-19819.641	    15.611	  -164.166	    41.612
-19884.639	    15.489	  -158.699	    31.178
-19917.822	    15.315	  -166.096	    33.110
-20223.334	    15.231	  -160.306	    32.646
-20058.340	    15.177	  -161.600	    34.044
-20189.574	    15.265	  -157.381	    26.991
-19974.992	    15.511	  -152.561	    36.534
-19834.402	    15.719	  -159.285	    29.058
-19691.881	    15.883	  -155.682	    23.713
-19965.459	    15.757	  -165.076	    23.417
-20090.629	    15.529	  -170.963	    45.852
-19975.871	    15.456	  -164.142	    32.568
-19863.098	    15.469	  -165.820	    31.437
-20194.260	    15.402	  -172.954	    30.829
-20150.525	    15.439	  -164.426	    29.659
-19948.010	    15.577	  -170.685	    38.815
-19975.781	    15.602	  -152.682	    14.267
-20039.416	    15.534	  -176.216	    28.527
-19880.740	    15.417	  -157.999	    27.684
-20176.232	    15.313	  -168.730	    50.505
-19980.211	    15.402	  -153.911	    28.755
-19994.072	    15.573	  -154.033	    26.132
-19798.818	    15.695	  -155.965	    44.773
-19896.449	    15.781	  -166.611	    46.202
-19798.617	    15.750	  -170.226	    17.726
-19808.434	    15.570	  -165.464	    31.833
-20076.156	    15.491	  -156.746	    25.423
-19996.791	    15.474	  -168.974	    58.051
-19831.182	    15.523	  -155.425	    22.317
-19969.240	    15.602	  -178.123	    56.928
-19911.000	    15.565	  -161.808	    34.524
-19932.783	    15.417	  -169.358	    28.582
-20172.617	    15.224	  -161.819	    35.777
-20250.264	    14.986	  -177.891	    49.698
-20090.355	    14.930	  -157.213	    48.726
-19939.982	    15.142	  -166.844	    59.080
-20011.977	    15.432	  -165.606	    53.842
-19893.516	    15.597	  -167.882	    56.567
-19921.486	    15.734	  -152.995	    29.419
-19598.543	    15.732	  -171.867	    51.505
-19844.902	    15.480	  -151.094	    36.646
-19752.129	    15.395	  -171.554	    34.617
-19654.244	    15.489	  -164.498	    16.814
-19727.062	    15.569	  -179.438	    34.640
-19850.623	    15.580	  -173.864	    36.586
-19964.436	    15.505	  -160.824	    18.148
-19806.797	    15.449	  -162.922	    53.923
-19785.348	    15.510	  -156.970	    24.448
-20045.348	    15.572	  -146.759	    17.647
-19837.529	    15.614	  -159.318	    24.043
-19748.664	    15.491	  -149.801	    20.547
-19940.789	    15.411	  -166.845	    36.895
-19852.779	    15.457	  -166.860	    44.234
-19942.314	    15.449	  -158.276	    40.440
-20032.818	    15.502	  -152.799	    43.503
-19819.674	    15.586	  -164.235	    19.224
-19829.840	    15.581	  -161.366	    23.962
-19787.613	    15.595	  -154.798	    30.305
-19861.416	    15.572	  -165.781	    37.879
-20065.545	    15.486	  -173.231	    21.835
-20074.354	    15.359	  -151.140	    20.531
-19965.389	    15.377	  -161.351	    23.014
-20074.207	    15.396	  -146.894	    21.770
-19879.428	    15.484	  -167.967	    35.217
-20061.215	    15.577	  -160.756	    38.763
-19704.934	    15.696	  -147.574	    48.288
-19881.803	    15.692	  -163.028	    47.039
-19780.223	    15.547	  -173.652	    52.483
-19988.387	    15.511	  -148.660	    36.564
-19746.607	    15.607	  -166.297	    26.147
-19890.580	    15.833	  -158.527	    44.052
-19941.184	    16.096	  -172.454	    55.778
-19733.994	    16.138	  -168.123	    22.507
-19640.994	    15.843	  -164.582	    30.206
-19903.945	    15.510	  -170.470	    27.592
-19935.846	    15.205	  -161.825	    37.470
-20225.959	    14.988	  -167.393	    26.121
-20038.209	    14.954	  -159.642	    34.744
-20052.541	    15.133	  -151.339	    31.863
-19894.023	    15.491	  -166.637	    47.116
-19785.678	    15.878	  -165.986	    36.874
-19670.324	    16.227	   179.172	    54.868
-19854.271	    16.377	  -159.579	    45.533
-19667.176	    16.125	  -156.751	    20.936
-19856.830	    15.745	  -169.518	    45.118
-19952.412	    15.462	  -157.950	    43.545
-20016.512	    15.270	  -160.552	    30.875
-19841.400	    15.364	  -172.169	    40.537
-19552.771	    15.612	  -162.195	    23.333
-20033.840	    15.757	  -156.778	    21.843
-19987.514	    15.843	  -170.335	    16.395
-19797.584	    15.800	  -167.871	    28.437
-19780.008	    15.640	  -165.114	    26.603
-19929.738	    15.549	  -177.418	    30.933
-19912.500	    15.388	  -166.089	    37.409
-20146.223	    15.178	  -156.536	    47.352
-20194.717	    15.076	  -156.959	    36.501
-20000.832	    15.311	  -164.185	    25.993
-19987.668	    15.612	  -167.214	    46.464
-19885.295	    15.829	  -178.299	    52.272
-19712.320	    15.782	  -172.526	    41.666
-19938.969	    15.605	  -166.811	    32.098
-19781.908	    15.470	  -149.736	    27.991
-20083.688	    15.328	  -169.193	    12.255
-20050.264	    15.313	  -157.903	    44.988
-19974.854	    15.423	  -159.398	    26.818
-19724.641	    15.600	  -161.688	    52.317
-19618.990	    15.806	  -158.718	    40.957
-19773.465	    15.844	  -167.680	    45.111
-20101.926	    15.703	  -170.782	    29.777
-20157.889	    15.473	  -160.764	    43.811
-19896.121	    15.315	  -150.633	    45.263
-19766.594	    15.347	  -160.950	    43.479
-19814.250	    15.381	  -165.663	    17.566
-20057.305	    15.412	  -162.710	    38.450
-19821.307	    15.463	  -160.394	    20.029
-19886.324	    15.498	  -167.326	    36.780
-19775.264	    15.591	  -165.499	    36.676
-19829.850	    15.684	  -151.635	    37.041
-19737.994	    15.704	  -165.052	    11.050
-19894.316	    15.507	  -168.780	    46.960
-19961.822	    15.307	  -165.158	    29.763
-20016.957	    15.324	  -151.631	    49.684
-19834.367	    15.555	  -154.157	    42.946
-19949.857	    15.672	  -173.555	    33.246
-20080.115	    15.569	  -168.855	    52.542
-19985.252	    15.436	  -169.629	    32.720
-19948.078	    15.466	  -165.775	    14.658
-19770.875	    15.519	  -159.578	    53.548
-19770.572	    15.579	  -172.020	    31.344
-19840.883	    15.725	  -159.723	    38.244
-19755.941	    15.738	  -163.515	    28.078
-19845.732	    15.739	  -174.193	    60.956
-19959.668	    15.671	  -178.117	    24.526
-19940.232	    15.568	  -170.399	    38.632
-19916.223	    15.561	  -164.313	    39.299
-19942.133	    15.550	  -159.193	    40.047
-19963.516	    15.572	  -172.027	    53.929
-19964.066	    15.727	  -171.826	    60.155
-19943.688	    15.805	  -164.704	    18.025
-19712.145	    15.711	  -169.106	    34.649
-19853.172	    15.515	  -166.273	    25.307
-20181.311	    15.375	  -174.009	    27.821
-19848.615	    15.276	  -158.967	    26.330
-19824.523	    15.275	  -164.965	    32.810
-19957.637	    15.336	  -158.805	    38.494
-20229.293	    15.423	  -162.601	    35.033
-19918.336	    15.484	  -170.139	    35.761
-19937.428	    15.545	  -161.409	     5.571
-20005.492	    15.649	  -159.203	    34.015
-20021.145	    15.592	  -164.534	    38.299
-19829.344	    15.535	  -178.946	    69.052
-19896.234	    15.439	  -153.752	    32.436
-20031.207	    15.378	  -164.748	    54.304
-19832.424	    15.378	  -170.577	    40.254
-20241.297	    15.348	  -166.862	    52.569
-20151.145	    15.393	  -166.580	    46.350
-19995.615	    15.478	  -163.819	    52.991
-20031.141	    15.467	  -163.829	    39.937
-20074.133	    15.470	  -166.162	    21.367
-20001.883	    15.375	  -164.986	    40.897
-19937.785	    15.399	  -167.557	    25.820
-20170.645	    15.463	  -158.556	    38.866
-19617.756	    15.456	  -152.666	    23.647
-20041.023	    15.328	  -165.784	    28.726
-20140.096	    15.147	  -178.135	    63.175
-20045.000	    15.060	  -162.910	    45.282
-19926.086	    15.182	  -173.979	    28.482
-20045.803	    15.415	  -165.233	    27.192
-20144.379	    15.583	  -175.265	    26.932
-19923.895	    15.715	  -161.242	    34.022
-19976.279	    15.671	  -165.295	    50.619
-20169.463	    15.594	  -161.037	    25.830
-20036.189	    15.558	  -172.923	    43.519
-19644.787	    15.670	  -158.261	    31.006
-19762.316	    15.812	  -169.264	    38.515
-19906.939	    15.826	  -162.871	    70.190
-19819.322	    15.624	  -175.994	    41.626
-20032.104	    15.425	  -174.409	    42.565
-20096.480	    15.308	  -162.558	    37.383
-19926.697	    15.351	  -161.441	    50.409
-19707.453	    15.510	  -150.808	    38.595
-19879.283	    15.623	  -166.667	    44.521
-19822.578	    15.729	  -165.467	    43.957
-20170.197	    15.778	  -171.236	    33.818
-19833.797	    15.779	  -153.775	    33.232
-19556.244	    15.717	  -170.140	    42.450
-19865.494	    15.509	  -150.697	    43.892
-19913.576	    15.245	  -159.547	    51.277
-20006.137	    15.076	  -158.785	    59.428
-20181.469	    15.081	  -161.168	    33.774
-20091.736	    15.347	  -164.551	    39.554
-19946.117	    15.646	  -167.120	    37.256
-19835.934	    15.759	  -161.005	    39.082
-19899.229	    15.652	  -156.206	    28.999
-20116.354	    15.496	  -168.082	    27.508
-19935.428	    15.433	  -164.249	    24.233
-19716.328	    15.552	  -160.985	    56.791
-19813.771	    15.615	  -158.374	    32.723
-19833.447	    15.511	  -164.069	    25.188
-19814.023	    15.354	  -162.016	    32.271
-20040.607	    15.342	  -148.270	    36.955
-20306.377	    15.344	  -158.544	    41.367
-19971.367	    15.542	  -151.211	    59.686
-19681.459	    15.716	  -167.618	    51.159
-19797.529	    15.699	  -176.815	    68.184
-19945.754	    15.597	  -164.828	    37.413
-20039.020	    15.385	  -163.036	    48.100
-20192.725	    15.208	  -161.657	    26.995
-20181.393	    15.265	  -169.572	    41.560
-19816.314	    15.482	  -178.936	    31.873
-20178.031	    15.720	  -159.963	    27.378
-19720.908	    15.848	  -167.919	    52.459
-20061.824	    15.736	   177.478	    34.971
-19833.137	    15.629	  -168.950	    44.726
-19896.404	    15.617	  -155.734	     7.396
-19478.941	    15.762	  -167.049	    25.365
-19915.152	    15.675	  -178.445	    41.026
-19811.920	    15.478	  -176.631	    27.320
-20110.354	    15.204	  -156.123	    20.791
-19925.670	    15.102	  -170.714	    50.414
-19994.520	    15.306	  -158.199	    30.577
-19991.078	    15.715	  -162.530	    19.595
-19569.654	    16.046	  -159.063	    36.922
-19620.289	    16.075	  -160.726	    40.970
-20080.520	    15.835	  -156.806	    42.785
-20104.670	    15.451	  -168.604	    52.984
-19917.121	    15.248	  -167.874	    39.656
-19592.971	    15.293	  -173.000	    56.844
-19955.686	    15.485	  -166.185	    45.273
-19891.299	    15.726	  -163.193	    36.394
-19883.117	    15.896	  -166.044	    21.280
-19669.039	    15.889	  -155.052	    25.845
-19584.400	    15.800	  -169.360	    26.701
-19901.678	    15.684	  -170.444	     8.069
-19833.262	    15.598	  -157.509	    41.092
-19828.410	    15.464	  -168.354	    46.314
-19859.164	    15.317	  -151.716	    34.106
-19906.660	    15.348	  -169.485	    55.722
-19984.639	    15.485	  -162.288	    28.465
-19740.635	    15.597	  -168.005	    40.051
-19612.420	    15.601	  -157.420	    31.999
-19984.207	    15.558	  -167.385	    48.208
-20098.557	    15.511	  -155.293	    38.828
-19771.789	    15.427	   179.753	    47.840
-20044.041	    15.314	  -148.823	    32.981
-20056.811	    15.204	  -168.075	    27.278
-20036.770	    15.241	  -166.738	    23.797
-19996.719	    15.521	  -166.602	    45.349
-19783.051	    15.727	  -166.364	    34.716
-19702.846	    15.752	  -163.684	    40.568
-19858.264	    15.599	  -156.429	    38.076
-19989.305	    15.536	  -169.281	    32.978
-19818.162	    15.491	  -156.727	    36.023
-19664.463	    15.490	  -170.795	    60.569
-19811.072	    15.502	  -167.565	    33.092
-19940.719	    15.475	  -170.744	    50.856
-20016.529	    15.466	  -162.308	    38.316
-19686.154	    15.555	  -158.794	    39.306
-19936.609	    15.729	  -150.503	    12.942
-19752.451	    15.892	  -159.712	    38.805
-19786.383	    15.956	  -169.454	    23.037
-19780.100	    15.886	  -166.283	    24.916
-19891.078	    15.706	  -165.177	    30.704
-19839.301	    15.560	  -156.562	    42.247
-19704.068	    15.594	  -165.853	    16.243
-19588.475	    15.705	  -150.676	     5.013
-19727.441	    15.608	  -144.433	    23.199
-19839.135	    15.382	  -161.618	    56.868
-19887.379	    15.164	  -159.222	    43.492
-19769.570	    15.051	  -155.983	    53.019
-20123.885	    15.168	  -150.829	    50.299
-19610.410	    15.463	  -152.847	    34.152
-19774.002	    15.745	  -175.352	    39.430
-19685.320	    15.745	  -160.605	    57.220
-19837.742	    15.496	  -162.156	    38.812
-20150.146	    15.208	  -152.080	    46.333
-19692.271	    15.194	  -169.159	    73.171
-19893.082	    15.351	  -160.371	    45.859
-19919.926	    15.515	  -167.068	    28.889
-19788.369	    15.685	  -174.551	    39.572
-19589.572	    15.857	  -157.184	    54.145
-19792.205	    15.929	  -157.420	    50.425
-19720.807	    15.898	  -162.869	    37.322
-19811.326	    15.807	  -156.663	    62.949
-19912.031	    15.720	  -154.559	    24.116
-19968.334	    15.602	  -161.984	    41.521
-19803.287	    15.461	  -163.723	    41.924
-19826.615	    15.363	  -164.014	    27.795
-19990.754	    15.350	  -158.442	    23.729
-20012.738	    15.474	  -158.450	    47.384
-19689.973	    15.607	  -163.544	    25.952
-19731.832	    15.841	  -169.601	    38.547
-19666.350	    15.933	  -162.837	    32.860
-19904.666	    15.876	  -170.712	    23.624
-20030.752	    15.746	  -166.241	    14.593
-20071.914	    15.649	  -170.600	    33.972
-20099.197	    15.510	  -166.268	    32.656
-20138.115	    15.443	  -158.720	    51.855
-19956.865	    15.440	  -170.086	    29.973
-20082.461	    15.331	  -156.570	    29.674
-19944.426	    15.454	  -165.062	    25.373
-19974.242	    15.560	  -152.890	    33.472
-20073.922	    15.473	  -168.915	    22.676
-20007.668	    15.488	  -162.210	    31.877
-19943.766	    15.596	  -161.967	    22.264
-19829.793	    15.657	  -157.764	    10.529
-19816.438	    15.699	  -146.610	    25.840
-19872.809	    15.601	  -167.154	    19.246
-19922.996	    15.488	  -173.247	    32.377
-19842.400	    15.414	  -176.954	    38.775
-19949.969	    15.406	  -164.003	    16.872
-19939.699	    15.466	  -166.314	    32.828
-19794.379	    15.638	  -169.611	    55.105
-19676.309	    15.838	  -150.015	    22.360
-19494.014	    15.876	  -161.231	    41.231
-19621.086	    15.626	  -145.531	    29.992
-20270.539	    15.174	  -164.169	    62.588
-20216.049	    14.987	  -179.033	    46.691
-20047.771	    15.060	  -178.606	    40.726
-19957.820	    15.311	  -161.744	    52.394
-19747.797	    15.595	  -175.588	    59.851
-19587.885	    15.774	  -160.803	    33.811
-19697.166	    15.809	  -152.664	    67.357
-19632.258	    15.757	  -163.130	    40.711
-19736.566	    15.647	  -170.017	    32.123
-19730.023	    15.563	  -161.879	    47.858
-19787.777	    15.515	  -160.197	    30.051
-20055.100	    15.502	  -147.043	    24.272
-19992.023	    15.409	  -158.594	    23.917
-19758.402	    15.267	  -165.731	    26.651
-20145.869	    15.224	  -158.684	    47.108
-20044.951	    15.352	  -168.029	    59.095
-20073.002	    15.578	  -153.911	    23.831
-19906.447	    15.736	  -167.834	    26.586
-19817.129	    15.798	  -157.222	    28.634
-19847.875	    15.798	  -173.250	    56.462
-19939.668	    15.651	  -165.530	    40.854
-19943.131	    15.428	  -171.388	    19.696
-20065.674	    15.250	  -153.139	    28.539
-19987.082	    15.250	  -148.123	     6.399
-19980.891	    15.401	  -152.903	    22.995
-20217.641	    15.629	  -160.476	     9.176
-19985.633	    15.676	  -168.819	    30.096
-19763.783	    15.639	  -166.724	    41.289
-19876.699	    15.551	  -157.426	    62.528
-20030.359	    15.558	  -165.033	    33.625
-19952.789	    15.620	  -156.578	    23.254
-20040.637	    15.736	  -172.881	    37.322
-19664.605	    15.775	  -157.425	    41.278
-20194.789	    15.761	  -156.647	    32.369
-19632.127	    15.805	  -160.138	    29.576
-19937.129	    15.737	  -152.923	    45.512
-20145.316	    15.502	  -155.563	    46.184
-19768.877	    15.331	  -156.279	    52.153
-19923.979	    15.291	  -165.117	    35.111
-19726.715	    15.419	  -160.881	    32.246
-19772.932	    15.616	  -173.304	    44.769
-19853.439	    15.786	  -157.971	    56.407
-19630.449	    15.768	  -155.470	    29.913
-20053.451	    15.544	  -164.042	    37.105
-19976.889	    15.291	  -168.180	    37.703
-20057.879	    15.127	  -174.229	    35.204
-19976.377	    15.187	  -166.718	    44.100
-19982.816	    15.379	  -158.050	    44.695
-19845.062	    15.704	  -170.284	    52.529
-19866.707	    16.021	  -154.957	    38.205
-19599.998	    16.181	  -165.906	    50.210
-19725.551	    16.221	  -173.670	    50.011
-19887.660	    16.028	  -177.517	    51.188
-19968.900	    15.832	  -159.037	    56.774
-19756.064	    15.571	  -164.400	    36.915
-20035.910	    15.344	  -159.418	    55.260
-19798.158	    15.232	  -157.711	    28.210
-19880.305	    15.362	  -163.669	    37.396
-20021.594	    15.514	  -165.095	    18.800
-20125.592	    15.634	  -165.726	    16.385
-19649.537	    15.672	  -177.580	    74.382
-19861.104	    15.671	  -166.028	    43.669
-19991.268	    15.643	  -169.676	    33.220
-20007.217	    15.693	  -173.924	    33.812
-19891.051	    15.760	  -179.724	    49.890
-19907.162	    15.798	  -172.831	    38.844
-19699.197	    15.753	  -166.867	    39.515
-19997.910	    15.589	  -162.974	    27.082
-19736.275	    15.496	  -157.732	    48.970
-20097.410	    15.414	  -173.395	    67.630
-19889.799	    15.387	   178.427	    47.505
-20197.164	    15.365	  -168.707	    20.833
-19659.273	    15.367	  -144.187	    41.790
-19894.447	    15.369	  -177.730	    30.173
-19799.090	    15.561	  -165.359	    45.966
-19616.760	    15.710	  -164.220	    19.150
-19721.014	    15.678	  -155.678	    33.468
-19948.102	    15.569	   177.475	    58.486
-20095.877	    15.558	  -169.275	    34.909
-19954.408	    15.520	  -150.315	    17.705
-19979.355	    15.542	  -162.012	    45.526
-20142.758	    15.623	  -160.820	    35.950
-19965.672	    15.646	  -173.827	    23.557
-19619.523	    15.724	  -166.764	    41.457
-19467.637	    15.809	  -145.333	    38.128
-19724.910	    15.801	  -163.837	    53.387
-19825.615	    15.769	  -177.419	    54.751
-20185.262	    15.599	  -167.067	    53.106
-19989.422	    15.407	  -158.365	    38.862
-19863.064	    15.345	  -162.434	    18.093
-19985.258	    15.206	  -168.517	    35.467
-20067.666	    15.167	  -173.718	     8.581
-19905.783	    15.366	  -162.924	    24.425
-20087.449	    15.491	  -169.769	    10.077
-20026.623	    15.556	  -179.767	    32.494
-19802.086	    15.532	  -160.729	    37.159
-20089.004	    15.543	  -176.731	    52.289
-19842.947	    15.441	  -168.708	    44.887
-19790.896	    15.329	  -161.010	    30.776
-20032.752	    15.384	  -153.694	    37.309
-20045.119	    15.561	  -165.372	    52.557
-20060.932	    15.618	  -154.754	    42.256
-19706.785	    15.657	  -167.019	    32.962
-19852.312	    15.704	  -161.207	    38.468
-19824.070	    15.759	  -166.910	    26.583
-19821.982	    15.771	  -159.210	    29.724
-19888.764	    15.713	  -160.025	    20.759
-19900.377	    15.675	  -173.368	    32.356
-19842.000	    15.655	  -164.028	    61.574
-19737.561	    15.584	  -163.486	    56.434
-20029.480	    15.549	  -157.010	    48.308
-19996.836	    15.566	  -163.096	    46.745
-19905.115	    15.660	  -167.294	    24.963
-20065.621	    15.677	  -167.777	    39.488
-19961.768	    15.620	  -165.904	    42.178
-19954.971	    15.459	  -171.941	    27.566
-19994.924	    15.345	  -166.137	    36.296
-19988.900	    15.313	  -169.257	    44.463
-20095.865	    15.285	  -150.594	    44.002
-20153.146	    15.372	  -166.673	    36.602
-19593.857	    15.609	  -165.517	    38.422
-20010.723	    15.642	  -167.058	    36.165
-19976.930	    15.547	   175.387	    51.298
-20032.496	    15.369	  -165.679	    47.867
-20160.609	    15.169	  -164.181	    36.353
-19903.260	    15.173	  -177.183	    28.678
-20003.254	    15.329	  -159.866	    32.115
-19637.221	    15.383	  -148.480	    12.821
-19789.598	    15.364	  -163.524	    46.976
-20010.979	    15.362	  -159.786	    28.475
-19581.828	    15.469	  -169.409	    19.394
-19951.744	    15.620	  -141.314	    39.603
-19829.648	    15.747	  -167.419	    38.017
-19577.135	    15.701	  -166.189	    31.889
-19913.918	    15.582	  -160.684	    40.431
-19963.705	    15.419	  -167.366	    36.152
-20039.523	    15.286	  -169.939	    39.901
-19915.049	    15.329	  -161.986	    23.999
-20011.203	    15.332	  -162.027	    50.292
-20092.957	    15.298	  -164.509	     9.032
-19885.113	    15.373	  -171.109	    40.472
-19972.059	    15.477	  -166.528	    43.703
-20081.053	    15.542	  -166.050	    53.506
-19865.395	    15.588	  -157.076	    52.964
-19866.232	    15.535	  -164.793	    34.902
-20043.660	    15.385	  -162.493	    58.481
-19971.918	    15.341	  -167.710	    21.812
-20076.262	    15.282	  -155.383	    17.608
-20213.213	    15.374	  -151.125	    37.066
-19731.449	    15.510	  -157.467	    50.211
-19945.330	    15.735	  -144.580	    29.782
-20063.057	    15.897	  -151.302	    41.970
-19796.838	    15.824	  -155.378	    42.232
-20029.434	    15.470	  -162.514	    47.187
-19924.732	    15.157	  -161.200	    33.501
-19907.070	    15.029	  -154.047	    31.308
-19975.586	    15.192	  -159.658	    57.297
-20083.430	    15.552	  -153.579	    30.050
-19885.004	    15.873	  -157.827	    13.230
-19939.100	    15.986	  -159.842	    41.364
-20033.623	    15.987	  -167.216	    25.023
-19899.354	    15.901	  -156.264	    25.787
-19907.324	    15.660	  -158.625	    25.057
-20041.486	    15.292	  -162.947	    46.375
-19940.910	    15.073	  -172.503	    61.930
-19819.051	    15.135	  -168.797	    35.871
-19925.951	    15.351	  -157.816	    35.393
-19970.893	    15.589	  -172.334	    23.795
-19877.668	    15.710	  -156.307	     5.056
-19837.738	    15.676	  -166.415	    -1.086
-20143.943	    15.656	  -162.676	    27.729
-19942.627	    15.610	  -154.566	    48.778
-20036.332	    15.468	  -157.641	    15.327
-20100.383	    15.339	  -178.574	    40.208
-20178.246	    15.401	  -162.759	    41.843
-20090.656	    15.373	  -175.436	    38.803
-19928.932	    15.483	  -157.345	    50.569
-19812.059	    15.653	  -150.893	    42.233
-19902.285	    15.778	  -165.132	    36.203
-19753.541	    15.705	  -174.673	    40.132
-19849.375	    15.469	  -161.595	    36.680
-19945.930	    15.340	  -147.457	    40.847
-19880.873	    15.288	  -164.696	    33.514
-19949.258	    15.322	  -156.366	    34.171
-19801.799	    15.372	  -158.245	    24.497
-19979.373	    15.295	  -154.679	    28.981
-19891.555	    15.213	  -150.131	    43.008
-19783.391	    15.428	  -163.048	    41.117
-19833.668	    15.750	  -166.623	    37.867
-19729.357	    15.891	  -165.301	    47.499
-19926.717	    15.858	  -161.672	    14.119
-19865.660	    15.579	  -158.898	    28.772
-20105.773	    15.406	  -162.055	    23.897
-19996.420	    15.347	  -160.148	    48.912
-20011.113	    15.268	  -165.520	    50.576
-20170.086	    15.235	  -166.509	    45.102
-19749.020	    15.542	  -155.980	    50.305
-19671.787	    15.859	  -154.854	    42.421
-19770.408	    15.996	  -159.742	    37.752
-19719.193	    15.919	  -166.074	    32.688
-19916.221	    15.685	  -168.185	    -1.586
-19864.182	    15.441	  -166.875	    38.146
-19960.068	    15.375	  -156.014	    44.820
-19764.750	    15.431	  -168.656	    47.484
-20070.705	    15.503	  -164.154	    34.824
-20012.736	    15.653	  -172.229	    58.030
-19912.160	    15.767	  -162.035	    15.012
-19820.295	    15.828	  -154.194	    33.693
-19716.977	    15.819	  -160.241	    39.357
-19824.186	    15.740	  -160.450	    17.401
-19823.049	    15.529	  -154.005	    42.460
-19956.061	    15.343	  -174.022	    27.706
-19944.963	    15.271	  -170.493	    48.829
-20080.834	    15.291	  -170.416	    41.008
-20067.451	    15.550	  -163.913	    44.490
-19658.000	    15.767	  -175.188	    58.981
-19897.154	    15.780	  -160.323	    48.657
-19783.430	    15.688	  -155.132	    34.477
-19548.434	    15.621	  -158.787	    24.553
-19902.004	    15.625	  -157.811	    35.735
-19765.021	    15.588	  -172.442	     9.888
-19927.627	    15.538	  -159.907	    34.895
-19829.777	    15.484	  -154.582	    32.129
-19787.588	    15.546	  -172.100	    50.702
-20016.109	    15.560	  -173.088	    11.745
-19893.926	    15.610	  -153.143	    13.787
-19637.449	    15.716	  -167.384	    38.635
-19735.846	    15.701	  -170.015	    41.214
-19934.850	    15.598	  -159.850	    38.788
-19949.645	    15.469	  -157.495	    37.553
-19868.629	    15.287	  -166.073	    24.385
-20112.021	    15.150	  -165.203	    35.411
-20019.830	    15.269	  -153.230	    30.918
-20021.834	    15.471	  -162.356	    25.559
-19950.945	    15.572	  -168.657	    33.298
-19700.561	    15.521	  -170.122	    50.465
-19853.182	    15.446	  -174.768	    43.244
-19962.865	    15.532	  -170.905	    52.779
-19655.455	    15.627	  -163.102	    12.521
-19821.557	    15.627	  -166.696	    23.190
-19932.561	    15.648	  -161.426	    23.287
-19919.100	    15.580	  -175.873	    59.061
-19700.691	    15.373	  -167.082	    53.495
-19970.959	    15.214	  -171.872	    43.654
-19926.178	    15.129	  -166.080	    29.606
-20037.383	    15.164	  -151.644	    22.917
-19928.047	    15.272	   179.911	    35.203
-19950.354	    15.439	  -164.711	    57.342
-20087.359	    15.631	  -161.533	    48.430
-19906.141	    15.710	  -164.848	    41.508
-19746.662	    15.686	  -152.011	    22.787
-19918.398	    15.684	  -165.047	    44.976
-20054.297	    15.617	  -157.674	    28.518
-19765.246	    15.490	  -166.228	    39.188
-19974.248	    15.355	  -166.269	    54.393
-19737.111	    15.383	  -163.832	    31.498
-19960.277	    15.474	  -161.917	    39.153
-19684.986	    15.499	  -167.485	    40.146
-19820.031	    15.457	  -160.020	    25.966
-20179.002	    15.461	  -145.395	    34.418
-19898.074	    15.553	  -171.830	    23.475
-19619.523	    15.718	  -160.639	    48.510
-19894.189	    15.852	  -163.834	    50.293
-19718.916	    15.914	  -157.843	    33.502
-19811.500	    15.808	  -167.710	    39.275
-19952.941	    15.737	  -179.765	    29.386
-19755.244	    15.630	   176.228	    37.402
-19830.928	    15.582	  -161.322	    53.547
-20055.996	    15.482	  -159.243	    39.032
-19789.414	    15.585	  -167.403	    32.945
-19777.217	    15.626	  -168.524	    51.937
-19780.381	    15.620	  -173.271	    59.167
-19920.285	    15.580	  -159.773	    12.939
-20008.781	    15.614	  -159.713	    67.196
-19893.645	    15.627	  -165.435	    36.413
-19946.357	    15.566	  -155.380	    51.576
-19850.158	    15.488	  -164.338	    -0.812
-19931.355	    15.502	  -154.909	    50.850
-19819.443	    15.518	  -148.335	    49.601
-19890.227	    15.611	  -159.135	    41.863
-19823.111	    15.779	  -160.016	    53.379
-19895.139	    15.894	  -164.512	    60.568
-20087.621	    15.804	  -158.649	    67.786
-20019.188	    15.547	  -159.118	    41.129
-19890.129	    15.339	  -154.399	    44.702
-20053.213	    15.171	  -170.321	    31.660
-20016.102	    15.168	  -167.127	    52.332
-19821.432	    15.394	  -158.793	    41.813
-19930.145	    15.636	  -154.836	    42.294
-19964.545	    15.664	  -152.616	    42.439
-20115.523	    15.437	  -165.685	    35.318
-20125.789	    15.274	  -162.049	    38.410
-19928.598	    15.162	  -161.269	    41.622
-19675.074	    15.145	  -167.483	    51.637
-19978.625	    15.267	  -176.674	    28.772
-20045.277	    15.328	  -167.498	    20.333
-19793.301	    15.478	  -152.746	    25.213
-20106.805	    15.608	  -168.469	    29.522
-19877.617	    15.666	  -163.531	    17.061
-19734.988	    15.682	  -166.126	    41.213
-19958.600	    15.559	  -175.324	    50.407
-19875.184	    15.408	  -172.842	    33.738
-19800.527	    15.310	  -159.698	    31.220
-19953.732	    15.225	  -172.285	    30.942
-19962.557	    15.326	  -169.484	    18.771
-19722.992	    15.527	  -156.796	    22.257
-19804.799	    15.682	  -152.944	    22.446
-19863.928	    15.696	  -152.242	    34.235
-19612.961	    15.564	  -157.510	    19.181
-19932.445	    15.498	  -155.025	    51.977
-19962.879	    15.487	  -167.799	    51.433
-20098.768	    15.522	  -149.596	    43.939
-20093.336	    15.434	  -163.465	    39.916
-20322.771	    15.384	  -153.543	    24.478
-20028.998	    15.519	  -160.010	    34.805
-19904.367	    15.664	  -164.902	    28.832
-19604.293	    15.707	  -158.822	    24.111
-19827.379	    15.778	  -159.781	    37.583
-19878.436	    15.736	  -151.874	     3.894
-19863.719	    15.549	  -169.639	    13.306
-19898.809	    15.472	  -156.988	    12.040
-20057.148	    15.463	  -166.285	    25.501
-19822.080	    15.507	  -165.053	    32.264
-19845.348	    15.551	  -160.177	    37.418
-20024.287	    15.496	  -157.622	    40.468
-19752.375	    15.627	  -165.787	    41.741
-19802.533	    15.759	  -158.262	    32.124
-19892.342	    15.762	  -166.393	    36.487
-19808.564	    15.671	  -155.002	    35.796
-20036.578	    15.582	  -159.304	    30.344
-19730.611	    15.436	  -168.986	    39.082
-19791.191	    15.306	  -157.676	    13.595
-19857.857	    15.261	  -162.056	    35.149
-20079.422	    15.282	  -167.799	    36.727
-19918.877	    15.399	  -161.109	    27.338
-19745.053	    15.545	  -163.250	    13.376
-19591.508	    15.613	  -170.733	    14.064
-19727.832	    15.606	  -162.550	    22.502
-19694.900	    15.622	  -162.687	    39.582
-19867.473	    15.537	  -162.358	    34.986
-19930.084	    15.560	  -173.329	    46.161
-19826.545	    15.594	  -170.375	    26.372
-20156.619	    15.592	  -161.086	    22.447
-19714.602	    15.647	  -161.152	    20.732
-19895.035	    15.730	  -173.630	    29.457
-20054.459	    15.694	  -160.341	    45.375
-19949.512	    15.620	  -162.900	    37.130
-20052.447	    15.557	  -152.339	    35.286
-19796.471	    15.539	  -166.703	    56.287
-19983.855	    15.369	  -162.014	    54.886
-19815.023	    15.255	  -173.097	    43.399
-19993.180	    15.234	  -169.745	    72.048
-19691.332	    15.454	  -154.373	    35.235
-19974.314	    15.647	  -168.982	    28.959
-20039.553	    15.813	  -154.599	    35.518
-19697.441	    15.754	  -151.058	    34.770
-20037.207	    15.594	  -154.520	    28.345
-20070.533	    15.479	  -157.948	    43.989
-19880.393	    15.490	  -158.072	    69.553
-19794.211	    15.643	  -160.211	    46.299
-19688.279	    15.797	  -163.427	    49.242
-19923.887	    15.785	  -171.688	    47.146
-19924.732	    15.617	  -156.969	    48.827
-20069.885	    15.492	  -160.958	    46.478
-19879.779	    15.549	  -159.292	    42.079
-19623.076	    15.560	  -158.121	    30.037
-19874.637	    15.685	  -151.299	    33.401
-19759.416	    15.770	  -149.452	    47.031
-20028.082	    15.780	  -166.976	    31.927
-20022.904	    15.792	  -157.316	    37.228
-19746.145	    15.745	  -144.591	    39.186
-20180.607	    15.614	  -170.496	    49.486
-20012.650	    15.615	  -177.907	    35.791
-19848.439	    15.551	  -152.472	    19.182
-19770.557	    15.476	  -162.392	    27.715
-19876.270	    15.461	  -171.935	    25.474
-19761.830	    15.412	  -166.714	    37.662
-20133.078	    15.304	  -158.837	    27.840
-20037.766	    15.401	  -162.378	    16.488
-19835.672	    15.560	  -167.353	    19.429
-19866.078	    15.718	  -167.437	    17.894
-19581.055	    15.813	  -167.304	    45.573
-19821.002	    15.760	  -154.680	    16.703
-19809.574	    15.669	  -158.269	    27.597
-19717.967	    15.466	  -159.015	    35.795
-19991.400	    15.291	  -160.928	    40.883
-20056.012	    15.215	  -161.656	    28.944
-20041.674	    15.320	  -164.384	    29.473
-20141.979	    15.544	  -164.799	    11.545
-20071.201	    15.604	  -162.417	    43.550
-19680.381	    15.679	  -162.183	    27.414
-19931.840	    15.673	  -176.148	    29.615
-19814.277	    15.598	  -178.442	    41.212
-19678.410	    15.482	  -166.527	    30.400
-19911.020	    15.320	  -163.357	    32.389
-19989.660	    15.300	  -163.653	    37.190
-19835.529	    15.399	   176.048	    45.051
-19799.910	    15.514	   179.941	    33.725
-20059.170	    15.605	  -159.122	    37.576
-19935.291	    15.718	  -166.410	    14.823
-19796.051	    15.765	  -159.031	    35.899
-19933.049	    15.690	  -159.885	    28.067
-19985.082	    15.452	  -160.606	    51.687
-19839.008	    15.378	  -174.505	    49.824
-19825.924	    15.493	  -162.082	    49.553
-19763.555	    15.567	  -165.647	    42.727
-20055.510	    15.560	  -148.898	    48.559
-19820.234	    15.612	  -165.416	    43.477
-19951.359	    15.559	  -164.690	    47.878
-19877.037	    15.446	  -160.380	    22.998
-19806.521	    15.453	  -161.116	    51.634
-19770.939	    15.456	  -158.955	    31.667
-20006.006	    15.541	  -161.053	    36.090
-19894.527	    15.615	  -170.815	    35.861
-20027.086	    15.802	  -157.718	    18.601
-19576.070	    15.962	  -154.893	    16.078
-19879.057	    15.795	  -155.634	    16.054
-19736.346	    15.564	  -160.248	    33.681
-20002.971	    15.389	  -167.067	    39.709
-19901.846	    15.309	  -153.083	    56.722
-19822.941	    15.340	  -170.247	    45.626
-19967.496	    15.426	  -155.365	    36.402
-19641.270	    15.506	  -160.219	    68.277
-19717.160	    15.571	  -157.853	    30.074
-19934.479	    15.706	  -162.493	    48.048
-20109.668	    15.797	  -158.566	    52.676
-20253.805	    15.811	  -157.955	    60.672
-19947.834	    15.671	  -175.516	    26.211
-19872.590	    15.612	  -164.264	    21.682
-20028.764	    15.563	  -150.488	    24.690
-20075.832	    15.580	  -160.387	    39.382
-19894.375	    15.671	  -178.742	    25.026
-19888.936	    15.619	  -150.022	    26.868
-20068.688	    15.484	  -166.223	    40.701
-19885.350	    15.404	  -167.218	    44.296
-20071.014	    15.443	  -170.399	    26.343
-19697.459	    15.615	  -178.067	    33.933
-19631.510	    15.678	  -155.777	    18.084
-19633.590	    15.768	  -177.639	    23.402
-19918.109	    15.689	  -155.278	    26.875
-19907.117	    15.459	  -153.121	    13.120
-20051.596	    15.438	  -165.652	    38.122
-19776.234	    15.403	  -169.085	    19.580
-20042.012	    15.391	  -159.410	    13.047
-20042.885	    15.531	  -154.983	    29.964
-20039.449	    15.694	  -159.838	    37.935
-19902.791	    15.824	  -160.285	    31.645
-19946.791	    15.830	  -169.790	    38.547
-19907.510	    15.788	  -163.632	    39.636
-20009.428	    15.631	  -170.496	    42.891
-20098.189	    15.456	  -153.290	    38.711
-19844.479	    15.425	  -157.028	    54.917
-20110.594	    15.397	  -166.629	    24.783
-19827.471	    15.434	  -164.853	    41.775
-20089.541	    15.552	  -167.239	    27.999
-19754.656	    15.761	  -175.811	    31.467
-19967.734	    15.759	  -158.899	    23.693
-19901.279	    15.682	  -161.569	    29.592
-19842.938	    15.629	  -160.065	    39.367
-20012.041	    15.570	  -167.246	     8.216
-19978.389	    15.537	  -161.701	    30.565
-19779.885	    15.583	  -149.621	    36.084
-20103.354	    15.533	  -176.050	    29.602
-19870.025	    15.369	   178.853	    28.080
-20295.666	    15.271	  -174.156	    46.788
-20091.881	    15.361	  -172.785	    49.206
-19870.648	    15.500	  -169.781	    43.909
-19766.355	    15.660	  -156.979	    13.904
-19848.041	    15.770	  -159.129	    37.638
-19826.490	    15.815	  -176.331	    27.869
-19849.146	    15.773	  -153.392	    47.199
-19952.832	    15.624	  -176.636	    46.234
-19942.238	    15.389	  -167.086	    29.324
-19836.410	    15.288	  -168.224	    27.658
-19859.650	    15.386	  -164.652	    38.308
-19891.938	    15.509	  -168.821	    36.202
-19866.711	    15.620	  -176.529	    43.422
-19880.355	    15.564	  -160.600	    17.564
-19936.102	    15.488	  -171.209	    43.623
-19882.102	    15.513	  -167.617	    36.702
-19686.041	    15.562	  -170.304	    36.773
-19896.814	    15.509	  -154.775	     4.530
-19861.783	    15.468	  -160.976	    61.541
-19649.617	    15.370	  -167.031	    20.710
-20107.707	    15.242	  -169.773	    56.930
-19963.602	    15.153	  -161.252	    37.942
-20309.611	    15.292	  -178.153	    51.738
-20049.707	    15.548	  -160.844	    17.247
-19778.824	    15.650	  -150.526	    37.632
-19743.154	    15.655	  -164.719	    24.765
-19838.322	    15.679	  -163.526	    41.437
-19722.773	    15.616	  -156.295	    58.327
-20013.865	    15.506	  -172.296	    48.322
-19941.070	    15.471	  -164.960	    36.637
-19818.725	    15.652	  -161.464	    39.578
-19651.828	    15.806	  -170.085	    36.853
-19911.576	    15.796	  -154.039	    48.188
-19955.510	    15.567	  -169.815	    52.130
-19969.102	    15.341	  -159.558	    33.631
-20128.139	    15.235	  -164.873	    40.877
-20056.730	    15.253	  -144.417	    50.539
-20049.537	    15.322	  -167.613	    47.982
-19888.105	    15.386	  -173.780	    49.927
-19984.971	    15.399	  -168.062	    51.452
-19791.924	    15.347	  -154.282	    54.244
-20139.988	    15.356	  -156.229	    44.546
-19962.748	    15.408	  -168.757	    31.284
-19929.584	    15.587	  -162.275	    43.521
-19750.869	    15.690	  -165.971	    46.763
-19905.924	    15.666	  -163.956	    30.053
-20009.270	    15.492	  -168.459	    47.297
-20103.736	    15.328	  -174.070	    41.020
-19796.607	    15.402	  -163.030	    32.242
-20007.852	    15.441	  -157.654	    26.547
-20015.029	    15.554	  -164.070	    61.592
-19947.410	    15.697	  -154.833	    55.055
-19831.043	    15.689	  -157.072	    24.959
-19955.732	    15.528	  -171.054	    10.043
-19798.758	    15.447	  -161.056	    31.334
-19779.162	    15.418	  -149.777	    16.349
-19859.396	    15.356	  -171.821	    26.910
-19960.270	    15.364	  -173.027	    38.286
-19936.023	    15.488	  -161.795	    27.821
-19720.414	    15.628	  -155.239	    34.594
-19907.939	    15.724	  -174.041	    55.406
-19862.986	    15.667	  -156.263	    37.271
-19992.189	    15.575	  -162.504	    15.998
-19892.420	    15.549	  -158.889	    35.238
-19735.371	    15.642	  -155.763	    47.745
-20000.646	    15.624	  -161.547	    21.292
-19962.182	    15.411	  -156.155	    31.209
-19881.535	    15.317	  -172.875	    43.465
-19666.578	    15.328	  -166.469	    40.793
-19804.885	    15.361	  -178.526	    36.662
-19911.619	    15.377	  -162.013	    11.079
-19932.688	    15.389	  -164.214	    34.795
-19794.350	    15.501	  -155.931	    16.328
-19813.504	    15.591	  -167.950	    24.712
-19898.730	    15.627	  -161.469	    42.409
-19890.941	    15.700	  -172.602	    14.411
-20028.016	    15.705	  -160.449	    26.053
-19892.596	    15.558	  -159.888	    41.264
-20034.852	    15.495	  -173.383	    32.074
-19762.312	    15.500	  -165.861	    32.803
-20099.742	    15.488	   168.543	    49.093
-19898.617	    15.665	  -163.829	    43.519
-19461.123	    15.912	  -164.260	    40.735
-19829.998	    16.023	  -155.773	    24.819
-19921.150	    15.910	  -168.053	    23.112
-19973.592	    15.744	  -150.131	    17.655
-19853.293	    15.608	  -152.792	    29.487
-19836.334	    15.517	  -169.645	    22.231
-19911.074	    15.401	  -164.685	    42.830
-20107.795	    15.292	  -156.781	    27.571
-19964.758	    15.311	  -154.558	    32.746
-19621.996	    15.581	  -172.024	    48.262
-19795.600	    15.811	  -160.952	    53.315
-19862.902	    15.866	  -164.484	    35.920
