-19860.154	    15.334	   -92.310	   122.143
-19847.340	    15.408	  -158.353	    49.314
-20101.061	    15.485	  -157.287	    14.958
-19726.641	    15.657	  -158.171	    -0.019
-19916.846	    15.886	  -156.963	    -5.515
-19964.742	    16.115	  -157.851	   -13.400
-19855.709	    16.078	  -160.089	   -12.717
-19940.826	    15.846	  -155.214	    -7.209
-20042.340	    15.577	  -170.723	   -42.932
-19632.023	    15.349	  -162.160	   -18.459
-20258.557	    15.186	  -170.725	    -7.137
-19967.262	    15.257	  -164.938	    -8.853
-20003.113	    15.441	  -151.742	   -27.851
-19853.830	    15.724	  -161.157	    -6.382
-19765.494	    15.844	  -165.278	   -33.213
-19994.512	    15.828	  -167.817	   -21.541
-19865.736	    15.760	  -166.731	    -9.630
-19559.014	    15.738	  -169.024	   -27.650
-19821.820	    15.631	  -172.240	   -13.631
-19997.945	    15.571	  -166.699	    -8.602
-19944.869	    15.555	  -169.736	    -8.475
-19772.980	    15.704	  -158.234	   -24.184
-20040.590	    15.779	  -162.488	   -39.053
-19702.855	    15.847	  -166.263	   -24.058
-19804.811	    15.744	  -151.945	    13.820
-19900.102	    15.575	  -151.522	    -8.846
-20024.717	    15.353	  -172.862	   -22.530
-19675.973	    15.254	  -155.253	   -17.409
-20000.791	    15.283	  -165.481	   -21.374
-20070.004	    15.463	  -153.984	   -25.210
-19735.146	    15.640	  -175.692	   -11.705
-19997.475	    15.517	  -171.882	   -20.828
-19988.371	    15.286	  -147.152	   -10.732
-19857.758	    15.213	  -156.043	    -7.247
-20007.070	    15.296	  -166.127	    -9.418
-20115.363	    15.526	  -170.063	   -18.751
-19769.785	    15.729	  -168.964	   -17.667
-20107.449	    15.649	  -170.779	   -14.991
-19622.398	    15.530	  -161.947	   -23.144
-19708.770	    15.419	  -148.464	    -9.774
-19917.588	    15.413	  -144.820	   -13.988
-19844.883	    15.476	  -136.938	     8.565
-19804.410	    15.486	  -157.631	   -20.513
-19996.592	    15.407	  -175.372	   -27.959
-19940.279	    15.415	  -159.018	   -12.973
-19980.098	    15.435	  -166.138	   -20.798
-20028.400	    15.378	  -163.701	    -5.965
-19889.828	    15.364	  -175.165	   -31.727
-20138.623	    15.411	  -154.569	   -31.839
-19794.910	    15.498	  -172.028	   -11.733
-19471.594	    15.613	  -165.972	   -26.349
-19969.418	    15.666	  -178.506	    -5.525
-20072.480	    15.661	  -171.881	   -18.895
-19719.605	    15.535	  -163.761	   -25.446
-19507.352	    15.472	  -173.647	   -29.441
-19895.344	    15.407	  -163.873	   -33.686
-19862.904	    15.529	  -149.761	   -18.843
-19565.740	    15.708	   166.894	   -19.375
-19740.328	    15.852	  -170.449	   -22.701
-19560.961	    15.901	  -171.866	   -17.506
-19930.469	    15.657	  -173.001	   -21.725
-20058.445	    15.369	  -169.455	   -13.147
-20185.209	    15.221	  -155.635	   -27.220
-20311.607	    15.371	  -173.121	   -17.288
-19929.744	    15.596	  -170.685	   -25.817
-19595.033	    15.784	  -174.563	   -29.377
-19837.758	    15.739	  -162.865	   -15.813
-20056.574	    15.454	  -172.847	   -13.193
-20057.043	    15.220	  -169.081	    -2.388
-20227.932	    15.127	  -164.714	   -21.544
-20184.938	    15.131	  -178.666	   -38.391
-19960.574	    15.218	  -173.194	    -5.719
-19666.533	    15.415	  -174.317	   -14.706
-19885.395	    15.747	  -177.505	   -16.444
-19920.359	    15.928	  -173.365	    -2.920
-19713.990	    15.870	  -172.438	   -22.280
-20003.914	    15.746	  -172.663	   -17.166
-19817.232	    15.571	  -159.627	   -20.003
-19644.297	    15.482	  -165.580	     3.829
-19945.332	    15.417	  -166.758	   -19.707
-19556.611	    15.488	  -178.431	   -25.146
-19954.121	    15.494	  -153.203	   -15.553
-20157.053	    15.427	  -161.763	     1.643
-19929.643	    15.509	  -167.016	   -18.979
-19929.738	    15.670	  -164.153	   -36.018
-19956.402	    15.720	  -155.004	   -21.776
-19899.885	    15.704	  -155.345	   -14.931
-20015.967	    15.539	  -170.399	   -18.831
-20003.420	    15.430	  -161.805	   -13.801
-20093.695	    15.529	  -173.685	   -22.658
-20024.910	    15.715	  -168.946	   -25.710
-19667.891	    15.893	  -172.384	   -31.023
-19739.512	    15.856	  -162.992	   -37.209
-20114.623	    15.636	  -172.058	    -7.889
-19847.408	    15.360	  -166.141	   -19.765
-20130.525	    15.182	  -177.487	   -22.726
-20012.031	    15.196	  -155.766	   -27.829
-20088.316	    15.393	  -170.410	    -4.173
-19765.932	    15.632	  -166.575	   -32.940
-19832.643	    15.643	  -159.403	   -23.240
-19991.867	    15.568	  -158.718	   -17.036
-19860.359	    15.493	  -173.371	   -14.907
-19827.637	    15.449	  -165.391	   -24.493
-19830.104	    15.445	  -167.771	   -22.186
-19976.936	    15.429	  -158.867	   -32.800
-19958.838	    15.424	  -157.391	    -7.568
-19799.773	    15.519	  -167.056	   -27.578
-19964.486	    15.484	  -171.999	   -36.554
-20160.572	    15.485	  -161.787	   -12.907
-19799.418	    15.563	  -162.265	   -36.979
-19774.260	    15.605	  -176.345	   -28.408
-19935.516	    15.450	  -153.608	   -28.966
-20162.217	    15.301	  -167.371	   -18.747
-20004.832	    15.234	  -163.189	   -14.453
-20058.191	    15.352	  -158.160	   -32.046
-19740.127	    15.491	   179.704	   -31.672
-19788.316	    15.519	  -172.968	   -33.827
-19808.504	    15.567	  -163.988	     2.968
-19919.826	    15.605	  -164.295	   -33.344
-19739.734	    15.593	  -169.447	   -19.483
-20001.119	    15.698	  -173.963	   -30.037
-19785.391	    15.691	  -165.807	   -32.303
-19872.213	    15.604	  -165.215	   -26.636
-19762.887	    15.511	  -159.491	   -42.618
-20265.463	    15.516	  -163.953	   -21.172
-19920.215	    15.438	  -163.420	    11.867
-20122.811	    15.436	  -167.406	   -23.485
-20041.682	    15.543	  -166.066	     4.180
-19956.889	    15.655	  -163.305	   -12.571
-19636.760	    15.569	  -164.711	   -17.837
-20188.428	    15.401	  -163.553	   -10.256
-19876.600	    15.350	  -163.899	    -1.589
-19929.330	    15.261	  -154.688	   -18.534
-20015.943	    15.122	  -159.315	   -17.540
-20122.074	    15.141	  -167.557	     9.333
-20001.133	    15.358	  -159.739	   -17.247
-19861.262	    15.657	  -174.073	   -31.695
-19966.494	    15.715	  -166.778	   -31.377
-19795.883	    15.686	  -147.170	   -30.136
-19748.146	    15.616	  -175.984	    -9.244
-19798.496	    15.539	  -146.162	   -10.175
-19889.166	    15.515	  -151.971	   -23.091
-20076.520	    15.490	  -167.792	   -15.699
-20028.199	    15.479	  -163.358	   -24.745
-19852.098	    15.459	  -171.602	   -16.478
-19790.984	    15.446	  -153.301	   -15.316
-19902.527	    15.426	  -151.091	   -10.920
-19892.861	    15.347	  -157.672	   -14.405
-19973.355	    15.276	  -161.338	    -4.946
-19744.803	    15.337	  -176.417	     7.950
-19922.400	    15.555	  -160.419	   -12.645
-19792.488	    15.720	  -162.551	    12.158
-19721.574	    15.812	  -168.438	   -13.775
-19720.012	    15.748	  -164.132	     0.774
-20153.037	    15.531	  -162.275	   -14.032
-20048.080	    15.450	  -158.724	    -5.504
-20035.109	    15.447	  -166.935	   -17.221
-19895.527	    15.439	  -166.483	   -14.197
-19708.408	    15.513	  -168.167	    -3.468
-19912.373	    15.599	  -163.240	   -13.970
-19879.619	    15.589	  -157.689	    -2.661
-19699.891	    15.595	  -165.664	   -15.757
-19742.736	    15.485	  -161.908	   -14.691
-19801.029	    15.311	  -158.495	   -24.652
-19812.158	    15.169	  -174.295	    -3.400
-19922.605	    15.255	  -162.896	   -18.951
-19811.066	    15.487	  -173.121	   -25.368
-19710.129	    15.789	  -166.120	   -13.559
-19665.906	    16.029	  -174.433	    -4.928
-19763.400	    15.950	  -176.005	   -26.466
-19871.092	    15.615	  -168.197	   -23.392
-20157.393	    15.414	  -175.122	   -30.311
-20104.670	    15.390	  -156.430	   -16.908
-19850.590	    15.375	  -164.761	   -15.183
-20006.521	    15.423	  -161.492	   -26.579
-19837.117	    15.454	  -178.561	   -12.472
-19911.617	    15.384	  -179.482	   -18.490
-20042.164	    15.269	  -163.182	   -31.543
-19870.955	    15.261	  -160.896	   -29.678
-19910.002	    15.546	  -172.188	   -29.143
-19755.102	    15.799	  -164.857	   -36.819
-19763.727	    15.881	  -169.018	   -29.918
-19852.131	    15.717	  -163.736	   -28.951
-19947.484	    15.558	  -162.137	   -16.300
-20032.447	    15.411	  -165.970	   -25.686
-19752.129	    15.317	  -173.708	    -7.679
-20009.203	    15.332	  -165.703	   -18.827
-20144.471	    15.470	  -169.853	   -41.936
-19833.652	    15.740	  -170.057	   -42.018
-19883.955	    15.860	  -175.034	   -32.952
-19917.043	    15.978	  -165.972	   -12.650
-19634.234	    16.026	  -158.399	   -19.962
-19895.549	    15.867	  -165.289	   -21.028
-19816.855	    15.659	  -152.541	   -18.733
-19680.240	    15.481	  -171.871	   -16.425
-19822.652	    15.402	  -176.055	   -41.822
-19994.758	    15.395	  -171.661	   -20.187
-19888.639	    15.555	  -177.037	   -29.716
-19979.207	    15.780	  -164.216	   -40.474
-19880.992	    15.821	  -167.234	   -30.354
-19911.361	    15.799	  -160.224	   -29.407
-19842.449	    15.766	  -170.409	    -4.355
-19928.521	    15.671	  -159.965	    -1.416
-19759.795	    15.639	  -157.655	   -14.488
-19667.904	    15.673	  -167.729	   -26.895
-19690.105	    15.698	  -166.226	   -16.290
-19728.076	    15.656	  -165.405	   -19.964
-19981.377	    15.581	  -173.935	     4.771
-19984.570	    15.399	  -157.400	   -30.416
-20058.674	    15.310	  -171.682	   -32.969
-20050.289	    15.284	  -154.673	    -4.363
-20082.334	    15.355	  -156.031	   -13.072
-20076.641	    15.481	  -157.729	   -16.202
-19894.928	    15.554	  -160.145	   -29.948
-19830.314	    15.613	  -159.231	   -28.858
-20199.000	    15.661	  -170.482	    -3.668
-19777.207	    15.643	  -170.770	   -21.323
-20033.281	    15.731	  -160.634	   -15.820
-19829.672	    15.815	  -171.835	    -6.120
-19715.699	    15.677	  -174.525	   -20.077
-19853.896	    15.485	  -176.212	   -50.413
-19846.615	    15.382	  -171.995	   -20.225
-19941.717	    15.339	  -164.825	   -14.160
-20084.428	    15.333	  -169.680	   -19.634
-19835.256	    15.321	  -170.037	   -27.922
-19901.115	    15.406	  -166.688	   -15.316
-20095.627	    15.666	  -164.205	   -10.809
-19856.055	    15.816	  -158.332	   -10.145
-19799.906	    15.837	  -175.275	   -17.867
-19889.703	    15.581	  -151.266	   -30.795
-19994.916	    15.414	  -165.617	   -21.152
-19770.221	    15.457	  -164.715	   -15.679
-19982.955	    15.444	  -162.971	   -11.249
-20053.520	    15.377	  -160.133	   -43.133
-19871.422	    15.398	  -162.739	   -28.026
-20039.916	    15.397	  -165.956	   -34.433
-19943.473	    15.463	  -163.770	   -14.184
-19809.586	    15.601	  -168.958	   -19.884
-20019.906	    15.601	  -175.200	   -21.907
-20008.609	    15.423	  -169.945	   -15.788
-20139.408	    15.208	  -171.457	    -2.672
-19897.047	    15.054	  -155.204	   -26.648
-19878.578	    15.160	  -175.390	   -38.627
-20072.553	    15.420	  -169.080	   -12.707
-19914.492	    15.682	  -152.606	   -20.410
-19849.631	    15.833	  -163.261	   -24.303
-19667.404	    15.889	  -178.980	   -29.759
-19880.705	    15.614	  -165.113	   -30.425
-19868.883	    15.254	  -147.951	   -31.234
-20173.568	    15.058	  -158.290	   -19.045
-19966.543	    15.150	  -170.099	    -3.142
-19767.705	    15.409	  -159.453	   -19.438
-19776.398	    15.670	  -165.566	   -35.393
-19798.262	    15.744	  -173.804	    -4.382
-19756.236	    15.773	  -147.335	   -17.242
-19742.000	    15.756	  -172.961	   -15.655
-19885.518	    15.601	  -164.720	   -26.992
-19888.512	    15.415	  -163.192	    -8.627
-19991.150	    15.219	  -171.764	   -33.403
-20152.484	    15.134	  -155.568	   -23.718
-20100.203	    15.145	  -162.941	   -14.913
-20024.416	    15.297	  -169.254	   -22.587
-19596.152	    15.514	  -169.669	   -32.194
-19904.199	    15.622	  -168.074	   -20.230
-19406.689	    15.558	  -156.892	   -24.082
-19956.064	    15.527	  -177.848	   -11.446
-20204.760	    15.535	  -164.100	    -6.840
-19801.781	    15.635	  -165.062	   -25.056
-19797.549	    15.729	  -170.121	   -32.037
-19736.057	    15.716	  -149.109	   -30.808
-19988.654	    15.706	  -172.715	    -7.207
-20043.957	    15.615	  -160.104	   -23.445
-19871.512	    15.494	  -164.683	    -3.988
-20181.244	    15.447	  -166.998	   -10.983
-19974.213	    15.459	  -159.914	   -26.707
-19915.047	    15.491	  -171.425	   -19.877
-20062.375	    15.595	  -168.420	   -19.874
-19684.221	    15.695	  -151.705	   -18.146
-19951.826	    15.624	  -156.959	   -41.709
-20054.625	    15.551	  -165.208	   -19.720
-19763.850	    15.492	  -172.506	   -36.964
-19984.693	    15.549	  -156.089	   -16.467
-19787.496	    15.597	  -158.927	    -9.079
-20049.580	    15.521	  -158.630	   -20.872
-19963.084	    15.341	  -157.660	   -29.527
-20049.631	    15.176	   172.964	   -49.639
-20161.221	    15.226	  -162.076	     9.690
-19985.578	    15.379	  -162.272	   -22.007
-19809.234	    15.539	  -153.501	   -23.012
-19727.635	    15.638	  -142.050	   -19.221
-19772.346	    15.580	  -158.041	    -7.513
-19868.766	    15.409	  -176.133	   -27.682
-20104.334	    15.208	  -167.735	   -18.225
-20118.850	    15.286	  -157.159	   -11.725
-19858.420	    15.472	  -148.504	   -23.322
-19918.344	    15.625	  -167.784	    -6.367
-19947.402	    15.667	  -156.386	   -15.324
-19984.332	    15.567	  -160.836	   -20.902
-20055.730	    15.502	  -148.197	   -10.777
-20021.018	    15.434	  -152.750	   -21.623
-19938.963	    15.293	  -156.813	   -16.415
-20035.176	    15.335	  -155.406	   -21.700
-19985.752	    15.442	  -171.177	   -19.365
-19974.166	    15.454	  -173.971	   -31.858
-20231.309	    15.358	  -160.772	   -17.980
-19910.957	    15.438	  -172.312	   -29.477
-19745.975	    15.591	  -156.381	   -21.052
-19836.188	    15.661	  -166.711	   -15.059
-19909.090	    15.574	  -174.666	    -7.199
-19705.074	    15.512	  -178.228	   -20.836
-19637.816	    15.379	  -165.192	   -31.435
-20036.326	    15.212	  -165.005	   -16.359
-20017.582	    15.297	  -156.964	   -31.554
-19755.662	    15.540	  -162.317	    -6.631
-19834.266	    15.690	  -168.505	   -18.280
-19931.424	    15.781	  -148.843	   -25.274
-19777.781	    15.772	  -170.289	   -16.690
-20002.061	    15.670	  -162.273	   -11.018
-20115.703	    15.528	  -164.425	   -35.765
-20127.131	    15.493	   167.179	   -20.636
-19949.193	    15.601	  -179.964	    -6.821
-19949.096	    15.769	  -171.090	   -44.567
-19941.826	    15.909	  -163.872	   -20.115
-19844.918	    15.957	  -165.453	   -21.377
-19781.016	    15.884	  -159.639	   -25.831
-20103.998	    15.748	  -155.782	   -24.007
-19906.033	    15.550	  -164.400	   -27.122
-19972.537	    15.332	  -177.045	   -10.503
-20049.049	    15.291	  -162.204	   -40.684
-19774.922	    15.369	  -170.235	   -24.137
-19790.809	    15.484	  -157.582	   -38.216
-19815.795	    15.488	  -164.711	   -19.770
-19856.832	    15.441	  -170.995	   -32.293
-19630.682	    15.460	  -174.379	   -12.334
-19731.166	    15.491	  -165.713	   -22.941
-19943.457	    15.600	  -162.790	   -14.543
-19598.119	    15.739	  -169.422	   -33.500
-19745.818	    15.853	  -169.628	    -1.764
-20015.916	    15.853	  -149.668	   -29.981
-19962.428	    15.887	  -164.270	    -4.597
-19697.592	    15.922	   174.088	   -25.622
-19953.758	    15.981	  -159.829	    -1.101
-19677.033	    15.987	  -146.763	     2.703
-19639.148	    15.895	  -156.344	     1.778
-19862.240	    15.706	  -160.853	   -15.488
-19724.877	    15.579	  -154.236	   -18.093
-19926.037	    15.537	  -168.942	   -29.585
-19983.861	    15.447	  -165.987	    -7.009
-19811.795	    15.388	  -174.090	   -25.275
-19915.160	    15.282	  -172.581	    -9.299
-20194.879	    15.227	  -164.016	   -10.078
-19983.404	    15.277	  -163.612	   -23.040
-20030.516	    15.381	  -169.591	   -29.440
-20029.857	    15.512	  -158.669	    -0.811
-19908.129	    15.582	  -160.657	     1.916
-20091.857	    15.487	  -166.959	     5.953
-19982.680	    15.370	  -164.031	   -18.467
-20187.607	    15.434	  -166.110	   -30.413
-19890.453	    15.652	  -162.874	    -5.764
-20017.305	    15.766	  -160.808	   -12.062
-19843.471	    15.886	  -173.788	   -39.356
-19745.662	    15.973	  -155.745	   -16.284
-19816.887	    15.855	  -158.644	    -2.410
-19906.391	    15.557	  -175.914	   -21.162
-20069.201	    15.334	  -155.041	   -28.297
-19965.207	    15.225	  -164.311	   -20.505
-20102.783	    15.282	  -151.256	   -24.280
-19967.025	    15.415	  -129.143	   -22.882
-19830.391	    15.613	  -159.206	   -24.875
-19936.834	    15.727	  -152.142	   -26.763
-19784.787	    15.761	  -167.548	    -6.897
-19522.713	    15.701	  -160.860	   -14.366
-19747.662	    15.625	  -148.246	     9.971
-19901.562	    15.420	  -146.144	     0.213
-19929.443	    15.377	  -175.086	   -29.123
-20305.869	    15.448	  -171.447	   -21.522
-19693.164	    15.616	  -169.893	   -14.038
-19858.910	    15.754	  -169.908	   -32.563
-19729.514	    15.727	  -168.348	   -11.321
-19997.031	    15.703	  -165.197	   -20.606
-19888.801	    15.603	  -160.395	    -9.795
-20044.934	    15.449	  -166.794	   -29.649
-19942.490	    15.357	  -177.371	   -32.650
-19671.346	    15.340	  -159.906	    -4.039
-20109.777	    15.360	  -155.430	   -15.486
-19564.232	    15.350	  -164.787	   -13.460
-20110.141	    15.385	  -160.134	    -9.757
-20207.873	    15.305	  -178.624	   -34.627
-20314.121	    15.161	  -166.366	   -16.712
-20069.777	    15.119	  -171.266	   -15.142
-20280.193	    15.327	  -169.944	   -15.888
-19818.982	    15.561	  -167.798	   -32.183
-19913.262	    15.559	  -172.632	   -21.254
-19922.520	    15.471	  -172.443	   -12.080
-19948.082	    15.361	  -165.559	   -15.259
-20263.596	    15.243	  -165.779	   -31.034
-19884.232	    15.332	  -165.656	   -12.590
-19963.807	    15.393	  -162.401	   -19.614
-19978.080	    15.439	  -163.772	   -26.767
-19928.844	    15.470	  -171.378	   -31.167
-19847.115	    15.574	  -164.010	    -7.972
-19831.754	    15.641	  -161.019	   -37.462
-20003.818	    15.572	  -148.355	   -12.501
-20011.588	    15.446	  -163.383	   -17.681
-19906.201	    15.391	  -165.348	   -17.241
-19684.793	    15.457	  -160.116	   -31.571
-19745.561	    15.546	  -173.963	   -29.548
-20030.127	    15.527	  -154.236	   -23.476
-19837.121	    15.465	  -162.020	   -31.437
-19924.408	    15.396	  -168.048	   -11.697
-20013.641	    15.305	   179.747	   -32.202
-19881.391	    15.378	  -164.979	   -15.085
-19961.660	    15.427	  -176.475	   -18.158
-19825.031	    15.605	  -169.414	   -29.889
-19816.623	    15.654	  -171.797	   -45.207
-19618.807	    15.621	  -158.835	   -40.288
-19679.484	    15.513	  -162.539	   -12.534
-19472.170	    15.463	  -169.390	   -25.638
-19805.988	    15.452	  -166.928	   -24.506
-19789.201	    15.411	  -177.150	   -27.405
-19984.844	    15.307	  -170.980	   -24.469
-19939.656	    15.430	  -171.383	   -13.400
-19735.580	    15.625	  -168.474	     9.113
-19809.725	    15.664	  -175.590	    -7.955
-19909.672	    15.495	  -177.102	   -19.029
-20042.541	    15.336	  -169.996	     2.835
-20286.525	    15.250	  -171.036	   -16.334
-20114.066	    15.281	  -171.020	   -25.463
-19909.604	    15.512	  -172.619	   -25.174
-19762.145	    15.686	  -155.390	   -38.281
-19879.428	    15.751	  -155.575	   -31.874
-19679.887	    15.737	  -176.788	    -4.777
-19957.738	    15.552	  -147.206	   -21.776
-19805.205	    15.393	  -165.417	   -31.446
-20133.273	    15.354	  -153.180	   -11.159
-20101.693	    15.511	  -164.575	    -6.534
-19857.475	    15.695	  -165.858	   -42.889
-19937.576	    15.747	  -165.561	     4.441
-19671.223	    15.686	  -165.626	    -1.736
-19980.469	    15.559	  -161.080	    -9.057
-19844.367	    15.600	  -166.045	    -8.775
-19834.246	    15.800	  -156.894	   -24.642
-19684.227	    16.055	  -159.944	   -15.154
-19864.494	    16.056	  -167.599	   -25.958
-19686.533	    15.870	   176.290	   -27.964
-20092.715	    15.689	  -169.674	   -20.904
-19889.768	    15.595	  -172.138	   -32.710
-19710.207	    15.524	  -161.426	   -13.637
-19776.418	    15.489	  -154.198	   -16.354
-20010.855	    15.481	  -157.401	   -40.542
-19696.168	    15.626	  -171.912	    -9.199
-19829.113	    15.655	  -148.015	   -32.231
-19768.770	    15.453	  -153.643	    -6.580
-20101.121	    15.266	  -163.958	   -12.797
-20152.135	    15.263	  -161.640	   -29.941
-19985.906	    15.422	  -158.735	   -29.949
-19913.496	    15.671	  -161.023	   -21.776
-19893.973	    15.735	  -169.591	   -14.336
-19978.898	    15.666	  -179.416	   -26.478
-19968.189	    15.773	  -174.766	   -18.344
-19820.857	    15.704	   179.650	   -24.253
-19897.971	    15.507	   179.107	   -29.031
-19746.168	    15.406	  -175.171	   -16.771
-19866.201	    15.327	  -156.202	     1.951
-19943.904	    15.357	  -159.779	    -8.734
-19731.660	    15.502	  -163.888	   -36.145
-19974.123	    15.609	  -169.144	   -25.399
-19777.246	    15.680	  -156.850	   -31.385
-19744.268	    15.697	  -168.815	   -19.197
-19669.004	    15.679	  -165.738	    -1.207
-19859.996	    15.577	  -164.623	   -19.379
-19935.846	    15.480	  -171.684	   -27.639
-19995.316	    15.278	  -162.398	   -10.890
-20088.395	    15.265	  -161.801	   -32.479
-19688.006	    15.472	  -156.946	    -1.665
-19808.863	    15.739	  -168.125	   -34.040
-19591.619	    15.973	  -167.959	   -12.856
-19494.975	    16.107	   179.924	   -38.891
-19477.510	    16.047	  -171.827	   -33.152
-20021.586	    15.767	  -175.753	   -36.658
-19915.537	    15.630	  -165.945	   -26.805
-20176.051	    15.547	  -167.620	   -12.745
-20009.982	    15.514	  -159.231	   -13.411
-19759.182	    15.472	   177.271	   -22.273
-20146.926	    15.369	  -159.237	   -15.146
-19925.961	    15.378	  -161.615	    -9.929
-19936.760	    15.392	  -167.997	    -8.289
-20017.316	    15.393	  -174.790	   -15.591
-20046.311	    15.445	  -175.360	   -27.277
-19923.162	    15.574	  -168.546	   -19.302
-19643.943	    15.626	  -162.238	   -17.003
-19649.047	    15.588	  -165.646	   -10.800
-19782.598	    15.565	  -142.541	    -6.840
-19946.270	    15.468	  -160.832	   -24.040
-19931.422	    15.374	  -158.301	   -16.017
-20171.928	    15.295	  -157.268	   -14.754
-19933.672	    15.268	  -161.424	   -14.727
-19976.879	    15.404	  -171.318	   -34.141
-19740.898	    15.619	  -174.538	    10.685
-19723.652	    15.746	  -174.473	   -10.704
-19667.850	    15.806	  -151.475	    -9.688
-19864.570	    15.797	  -166.017	   -34.216
-19789.396	    15.667	  -172.067	   -27.107
-19897.400	    15.484	  -173.634	   -40.188
-19772.119	    15.504	  -163.117	   -21.516
-19766.244	    15.622	  -163.992	   -17.757
-19932.682	    15.686	  -169.369	   -22.515
-19948.615	    15.684	  -164.580	   -15.204
-20089.105	    15.720	  -162.643	   -11.257
-19799.391	    15.704	  -167.958	    -2.600
-19783.594	    15.643	  -161.263	     2.492
-19848.662	    15.468	  -161.483	     4.550
-19895.492	    15.349	  -178.817	   -41.384
-20256.277	    15.341	  -162.350	   -21.004
-20004.094	    15.207	  -167.911	     6.958
-19912.266	    15.217	  -167.980	   -15.528
-20192.025	    15.305	  -172.516	   -32.415
-19637.203	    15.494	  -164.464	   -22.927
-20176.949	    15.657	  -177.916	   -20.810
-20036.885	    15.733	  -161.319	   -25.629
-20049.545	    15.657	  -167.931	   -31.622
-19770.150	    15.545	  -169.650	    -0.220
-19939.246	    15.511	  -174.246	   -28.337
-19780.574	    15.466	  -163.154	   -10.583
-19721.002	    15.465	  -170.318	   -10.694
-19629.102	    15.516	  -169.586	   -36.061
-19795.250	    15.489	  -164.642	    -4.659
-20247.484	    15.396	  -170.685	   -46.850
-19842.322	    15.353	  -161.040	   -25.661
-19861.363	    15.503	  -165.085	   -22.228
-19852.578	    15.698	  -171.671	   -13.875
-19853.080	    15.835	  -169.285	   -30.030
-19774.549	    15.818	  -173.466	   -16.898
-19858.381	    15.692	  -159.959	   -17.218
-19818.883	    15.456	  -167.062	   -24.771
-19963.180	    15.298	  -136.666	     7.434
-20186.992	    15.321	  -162.700	     4.911
-20159.008	    15.475	  -156.173	   -24.857
-19995.131	    15.622	  -163.800	   -29.612
-19793.029	    15.724	  -164.126	    -0.555
-19972.232	    15.716	  -157.429	     0.921
-20020.891	    15.622	  -168.181	   -25.156
-19869.729	    15.480	  -159.179	   -25.977
-19839.619	    15.526	   177.970	   -11.519
-19853.238	    15.545	  -174.413	   -20.810
-19836.809	    15.484	  -174.410	   -20.979
-19771.287	    15.519	  -157.732	   -37.217
-19750.885	    15.618	  -150.631	   -28.425
-19757.648	    15.623	  -165.752	    -6.741
-19860.945	    15.598	  -173.571	     7.197
-19595.961	    15.587	  -172.874	   -26.411
-19737.412	    15.572	  -163.490	     4.470
-20062.201	    15.500	  -168.153	   -36.764
-19816.057	    15.422	  -170.614	   -19.913
-20165.422	    15.319	  -167.065	   -41.464
-20265.303	    15.296	  -153.403	    -9.383
-19963.758	    15.329	  -157.447	     1.727
-20169.027	    15.420	  -171.422	   -34.508
-20053.979	    15.513	  -163.887	   -17.694
-20113.074	    15.604	  -169.351	   -23.454
-19925.613	    15.539	  -174.944	   -32.505
-20095.795	    15.499	  -164.342	   -42.017
-20096.574	    15.531	  -159.931	     2.506
-20090.785	    15.560	  -155.723	   -29.858
-19972.193	    15.528	  -162.855	   -21.913
-20187.652	    15.391	  -177.930	    -5.683
-20005.756	    15.270	  -160.461	   -25.770
-20002.100	    15.317	  -164.469	     0.611
-19884.408	    15.335	  -158.478	    -7.765
-19913.852	    15.420	  -157.614	   -25.124
-19942.898	    15.420	  -161.344	    -8.719
-19988.266	    15.314	  -165.499	   -18.712
-20333.898	    15.247	  -168.474	   -14.151
-20142.959	    15.295	  -171.849	   -11.622
-19820.094	    15.400	  -155.648	   -17.374
-19934.785	    15.411	  -177.040	     4.002
-19975.484	    15.529	  -168.604	   -20.064
-19975.875	    15.562	  -164.179	    -2.266
-19914.307	    15.505	  -159.878	     4.995
-20143.285	    15.441	  -160.488	   -37.680
-20168.471	    15.427	  -171.510	   -29.079
-20007.006	    15.505	  -170.104	   -16.866
-19839.594	    15.692	  -177.992	    -6.460
-19713.846	    15.836	  -166.517	    -9.669
-20176.285	    15.799	  -176.284	   -22.134
-19920.818	    15.599	  -172.747	   -21.819
-20087.562	    15.350	  -170.313	   -24.948
-20003.553	    15.187	  -172.530	    -3.020
-19883.197	    15.170	  -168.199	    -4.716
-19881.039	    15.218	  -156.828	   -19.199
-20016.482	    15.360	  -173.273	   -18.803
-19867.855	    15.511	  -170.659	   -46.341
-19827.137	    15.638	  -174.573	   -38.715
-19713.293	    15.811	  -173.383	   -11.000
-19840.678	    15.874	  -177.281	   -22.241
-19768.885	    15.810	  -164.305	    -6.713
-19835.354	    15.593	  -165.052	   -13.625
-19835.473	    15.383	  -169.796	    15.308
-19945.736	    15.341	  -161.459	    -4.171
-19913.934	    15.393	  -169.821	    -1.166
-19928.842	    15.451	  -155.885	    -9.579
-19781.543	    15.460	  -168.722	   -28.164
-19721.756	    15.634	  -165.544	   -23.231
-19596.588	    15.888	  -161.789	   -13.374
-19897.898	    15.992	  -171.071	    -6.116
-19902.572	    15.783	  -167.144	   -21.766
-20155.793	    15.437	  -172.114	   -21.094
-20041.283	    15.182	  -165.616	   -13.097
-20213.352	    15.133	  -160.740	   -31.734
-20007.418	    15.175	  -179.551	   -13.710
-19862.438	    15.218	  -167.861	   -19.187
-20092.875	    15.367	  -167.706	    -8.031
-19870.477	    15.438	  -166.517	   -18.167
-19797.488	    15.400	  -158.776	   -11.383
-19821.992	    15.450	  -157.803	   -17.285
-20017.789	    15.547	  -146.020	   -28.594
-19794.139	    15.541	  -173.663	   -41.172
-19861.740	    15.372	  -167.923	   -26.765
-20049.061	    15.226	  -145.631	   -20.046
-19901.496	    15.178	  -173.222	   -30.526
-19944.045	    15.235	  -165.664	   -15.179
-20104.949	    15.397	  -170.253	   -21.634
-19875.459	    15.587	  -157.700	   -22.412
-19752.203	    15.776	  -172.553	   -15.548
-19565.703	    15.843	  -158.306	   -48.756
-19644.166	    15.923	  -170.934	   -33.910
-19783.410	    15.918	  -171.208	   -27.167
-19850.184	    15.844	  -164.424	    -5.838
-19857.311	    15.788	  -162.906	   -10.443
-19996.037	    15.760	  -165.042	   -10.999
-19635.346	    15.642	  -161.560	   -25.328
-20120.094	    15.425	  -178.617	   -19.725
-19967.260	    15.310	  -164.010	   -13.037
-19874.404	    15.346	  -167.866	   -34.780
-19886.258	    15.472	  -168.641	    -6.095
-20076.109	    15.685	  -159.839	   -14.433
-20011.076	    15.759	  -161.726	    -2.781
-19868.877	    15.656	  -165.231	    -8.697
-19872.543	    15.609	  -142.720	   -32.127
-19883.721	    15.586	   178.962	   -38.730
-19703.445	    15.715	  -164.199	   -14.632
-19931.557	    15.773	  -166.439	   -18.124
-19809.844	    15.733	  -174.765	   -38.991
-19839.953	    15.486	  -168.765	    -8.235
-19975.930	    15.255	  -172.800	   -18.957
-19883.984	    15.220	  -173.894	   -17.850
-19839.713	    15.245	  -172.741	   -16.135
-19841.572	    15.356	  -173.709	   -15.996
-19917.369	    15.428	  -172.801	   -26.024
-19929.973	    15.433	  -173.960	   -21.672
-19927.740	    15.412	  -159.431	   -41.238
-19988.174	    15.444	  -177.850	   -29.358
-19818.967	    15.588	  -147.992	   -21.549
-19726.588	    15.861	  -173.740	     1.367
-19568.869	    15.901	  -164.565	   -25.184
-20036.328	    15.800	  -167.054	   -13.036
-20086.508	    15.679	  -175.155	   -30.942
-19949.627	    15.649	  -172.260	   -37.096
-19694.707	    15.523	  -168.921	   -17.524
-19836.119	    15.434	  -165.649	   -26.184
-19833.166	    15.371	  -176.623	   -35.665
-19872.088	    15.415	  -170.449	   -20.533
-19946.350	    15.505	  -179.223	   -29.523
-19963.859	    15.548	  -170.339	   -15.506
-20245.047	    15.578	  -157.383	   -20.585
-19924.342	    15.615	   171.604	   -16.460
-19695.939	    15.566	  -165.947	    -7.547
-20237.119	    15.491	  -169.512	   -29.295
-19968.234	    15.453	  -163.828	   -10.458
-19949.908	    15.547	  -170.625	   -25.565
-19884.191	    15.618	  -163.228	    -0.812
-20072.455	    15.435	  -166.378	   -28.593
-19978.676	    15.307	  -174.557	   -29.386
-20265.117	    15.294	  -163.997	   -14.140
-19978.510	    15.415	  -166.958	   -16.535
-19765.031	    15.552	  -162.722	   -11.893
-19878.566	    15.557	  -153.204	   -28.117
-19849.469	    15.483	  -171.559	   -22.050
-19987.508	    15.306	  -162.262	    -2.466
-20056.184	    15.264	  -168.506	    -2.578
-19960.980	    15.268	  -149.852	   -20.274
-19905.023	    15.272	  -179.657	    -7.808
-20116.986	    15.380	  -164.046	   -10.635
-20017.379	    15.444	  -146.399	   -15.114
-19969.576	    15.472	  -158.430	   -24.436
-20025.178	    15.517	  -161.566	   -23.720
-20165.293	    15.609	  -155.464	   -42.783
-20135.141	    15.585	  -168.851	   -39.130
-19702.553	    15.460	  -174.308	   -24.088
-19904.838	    15.264	  -166.848	   -18.649
-19692.490	    15.280	  -170.809	   -11.933
-19901.623	    15.437	  -167.733	   -15.790
-19869.750	    15.586	  -169.755	   -20.320
-19813.232	    15.667	  -166.470	    -2.890
-20075.086	    15.484	  -173.416	   -11.590
-20128.568	    15.187	  -163.721	   -20.514
-20208.799	    15.089	  -154.883	   -41.935
-19977.307	    15.246	  -168.694	   -30.827
-19741.561	    15.387	  -160.572	    -2.197
-19810.213	    15.439	  -168.500	   -11.520
-19901.006	    15.610	  -160.898	   -32.387
-19781.756	    15.690	   172.978	   -25.112
-19916.691	    15.656	  -169.395	   -17.378
-19966.018	    15.575	  -164.588	   -20.177
-20130.227	    15.577	  -169.761	   -22.904
-20031.402	    15.596	   177.148	   -36.666
-19910.984	    15.626	  -160.459	   -37.854
-19862.914	    15.545	  -170.065	    -7.910
-19952.656	    15.351	   177.464	   -27.048
-19988.496	    15.089	  -160.204	   -35.432
-19941.312	    14.996	  -165.753	   -27.630
-19929.621	    15.218	  -163.715	   -26.430
-19857.027	    15.686	  -167.923	    -7.950
-19786.459	    15.963	  -166.831	    -4.761
-19679.303	    15.935	  -156.502	    -2.780
-19742.059	    15.761	  -153.125	   -11.292
-20169.924	    15.472	  -149.598	   -27.863
-19900.393	    15.402	  -159.714	    -1.660
-19828.141	    15.466	  -149.303	    -3.655
-20132.164	    15.435	  -163.880	   -25.621
-20270.229	    15.388	  -162.307	   -26.009
-19960.885	    15.369	  -161.912	    -0.986
-19938.357	    15.368	  -160.915	    -9.091
-20016.258	    15.365	  -177.352	   -14.025
-19938.336	    15.505	  -169.187	   -13.393
-19939.359	    15.607	  -173.169	    -8.825
-19900.846	    15.580	  -172.200	   -16.143
-20050.162	    15.539	  -176.405	    -0.436
-19748.195	    15.430	  -152.230	   -10.395
-19862.463	    15.429	  -170.861	    -9.138
-20057.484	    15.403	  -162.605	   -21.003
-20166.916	    15.363	  -163.893	   -17.695
-19951.260	    15.500	  -173.994	   -33.563
-19704.227	    15.702	   179.512	    -7.827
-19983.811	    15.640	  -168.348	   -42.630
-19813.758	    15.540	  -169.503	   -13.652
-20141.115	    15.433	  -165.060	   -39.534
-20072.553	    15.434	  -156.557	   -35.080
-20061.006	    15.556	  -163.871	   -15.641
-19802.041	    15.668	  -162.365	   -28.822
-19743.338	    15.645	  -168.154	   -32.300
-20051.195	    15.564	  -149.453	   -15.342
-20128.514	    15.446	  -164.064	   -14.779
-20179.955	    15.298	  -174.469	   -12.973
-20106.295	    15.307	  -169.976	   -28.721
-19835.963	    15.502	  -153.316	   -32.518
-19942.514	    15.731	  -162.537	   -18.206
-20054.389	    15.903	  -171.526	   -38.822
-19671.818	    15.900	  -173.205	   -20.444
-19742.562	    15.782	  -165.266	   -31.856
-19681.426	    15.692	  -164.236	   -28.157
-19764.859	    15.510	  -177.495	   -11.492
-19999.191	    15.370	  -161.312	   -13.106
-19769.426	    15.347	  -154.062	   -32.775
-19799.615	    15.395	  -158.413	   -35.954
-19778.354	    15.486	  -166.106	   -30.723
-19737.680	    15.625	  -163.535	   -16.851
-19922.910	    15.747	  -163.727	   -28.638
-19667.688	    15.688	  -149.214	   -22.952
-19717.471	    15.529	  -152.286	     1.348
-19818.539	    15.376	  -165.920	    10.831
-19742.389	    15.345	  -167.100	   -32.656
-19775.707	    15.197	  -165.215	   -16.202
-19794.020	    15.069	  -157.603	   -21.374
-19982.561	    15.195	  -173.906	   -11.368
-20045.102	    15.330	  -169.810	   -28.138
-19940.816	    15.497	  -152.306	   -17.236
-19960.328	    15.698	  -166.783	   -20.144
-19730.928	    15.730	  -164.496	   -18.449
-19978.809	    15.624	  -171.979	   -16.670
-19988.182	    15.444	  -172.379	   -35.424
-19965.221	    15.244	  -154.225	    -5.314
-20147.197	    15.110	  -175.473	   -24.732
-20088.039	    15.211	  -170.450	   -26.075
-19953.227	    15.411	  -170.182	   -20.189
-19975.758	    15.410	  -175.305	    -6.349
-20014.189	    15.344	  -179.988	   -21.855
-20003.799	    15.346	  -139.519	   -22.245
-19997.514	    15.449	  -154.831	   -17.869
-19904.088	    15.471	  -177.918	   -21.075
-20043.396	    15.605	  -178.168	   -24.468
-19869.461	    15.708	  -161.984	   -33.223
-19868.242	    15.838	  -165.046	   -43.293
-19595.762	    15.785	  -178.944	   -36.133
-19893.709	    15.503	  -170.004	   -35.637
-20112.736	    15.144	  -177.160	   -33.802
-20113.252	    14.982	  -163.674	   -39.487
-19888.836	    15.029	  -164.180	    -2.556
-20152.398	    15.225	  -161.615	   -16.135
-19946.615	    15.360	  -175.478	   -29.573
-20048.918	    15.484	  -165.035	   -43.205
-19701.656	    15.632	  -173.248	   -25.945
-20056.305	    15.669	  -175.846	   -26.768
-19854.584	    15.534	  -164.295	    -7.021
-19972.445	    15.402	  -154.355	   -23.824
-19919.270	    15.299	  -153.355	   -15.146
-20046.266	    15.241	  -159.363	   -23.219
-20146.418	    15.266	  -168.346	   -20.922
-19958.717	    15.356	  -167.994	   -12.749
-19916.154	    15.427	  -162.460	   -15.106
-19973.305	    15.436	  -161.304	   -22.129
-19872.121	    15.565	  -175.383	   -30.752
-19673.270	    15.667	  -168.898	   -31.699
-19751.861	    15.579	  -158.530	   -34.409
-19866.973	    15.371	  -151.748	   -22.157
-20015.990	    15.334	  -163.544	   -18.315
-20016.025	    15.396	  -157.877	   -18.701
-19981.230	    15.374	  -156.596	   -16.949
-19912.535	    15.428	  -170.815	   -19.859
-19673.447	    15.526	  -174.725	   -23.435
-19903.715	    15.521	  -175.220	   -34.201
-20015.188	    15.406	  -167.564	   -14.608
-19817.471	    15.342	  -162.126	   -33.145
-19952.270	    15.392	  -173.228	     2.586
-19776.877	    15.524	  -163.006	   -30.997
-19714.623	    15.646	  -150.362	   -45.469
-19901.273	    15.608	  -169.018	   -12.389
-19740.109	    15.519	  -171.280	   -20.634
-19903.789	    15.346	  -158.787	   -11.570
-19918.453	    15.273	  -169.088	   -34.372
-20127.764	    15.308	  -165.568	   -13.715
-20195.057	    15.278	  -163.243	   -26.300
-20066.293	    15.258	  -159.049	    -2.889
-19804.441	    15.374	  -168.199	   -16.650
-19907.215	    15.663	  -152.762	   -17.657
-19767.006	    15.971	  -166.271	   -27.871
-19806.928	    16.107	  -174.303	   -23.945
-19614.518	    15.972	   179.732	   -36.775
-19789.834	    15.734	  -150.532	    -9.959
-19901.193	    15.585	  -173.958	   -19.423
-19521.250	    15.525	   177.776	   -28.731
-19858.998	    15.518	  -156.394	   -13.646
-19718.596	    15.614	  -158.534	    -5.290
-19924.750	    15.577	  -153.518	   -14.000
-19971.533	    15.451	  -162.432	   -19.425
-20192.354	    15.267	  -163.397	    -5.751
-20009.861	    15.361	  -165.856	   -10.191
-20001.639	    15.579	  -159.078	   -14.237
-19740.834	    15.779	  -157.363	   -22.972
-19915.480	    15.842	  -166.087	   -27.613
-19877.928	    15.770	  -160.399	   -23.214
-19748.199	    15.646	  -163.158	   -24.292
-19998.139	    15.580	  -159.510	   -32.807
-20084.018	    15.493	  -154.543	   -12.740
-19892.500	    15.518	  -155.698	   -26.327
-19933.803	    15.540	  -167.037	    -7.958
-19978.967	    15.575	  -158.585	   -20.655
-19863.787	    15.646	  -152.005	    -4.247
-19931.605	    15.655	  -174.976	   -22.870
-19836.883	    15.518	  -171.063	   -13.022
-19759.986	    15.503	  -157.703	   -14.689
-20024.336	    15.520	  -170.134	   -18.656
-19826.393	    15.503	  -166.774	   -16.109
-19674.279	    15.539	  -178.056	   -20.579
-19876.248	    15.638	  -178.589	    -4.184
-19755.098	    15.633	  -176.015	   -21.443
-19697.014	    15.641	  -176.424	     3.500
-19699.650	    15.610	  -171.793	    -9.161
-20000.699	    15.425	  -172.294	    -8.702
-20272.900	    15.223	  -176.461	    -7.280
-20194.594	    15.244	  -168.325	   -28.468
-20016.938	    15.356	  -178.563	   -30.752
-19750.830	    15.494	  -157.261	    -6.084
-19908.643	    15.561	  -170.743	   -18.606
-19872.076	    15.622	  -143.779	    10.850
-19768.555	    15.534	  -170.905	   -14.556
-19631.154	    15.518	  -163.812	   -33.465
-20327.254	    15.487	  -155.510	     7.999
-19808.660	    15.590	  -144.857	    -8.530
-19908.891	    15.699	  -169.725	   -17.687
-19874.295	    15.750	  -166.352	   -15.234
-19790.150	    15.650	  -167.430	   -34.160
-20077.564	    15.451	  -167.939	   -16.971
-19970.582	    15.286	  -155.290	    -8.126
-20066.223	    15.327	  -159.808	   -19.731
-19669.535	    15.616	  -150.035	   -35.883
-20022.855	    15.779	  -170.709	    -1.581
-19854.084	    15.781	  -152.823	   -12.821
-19735.312	    15.579	  -152.508	   -18.744
-19895.025	    15.293	  -158.467	   -32.527
-19973.164	    15.185	  -164.149	   -28.829
-19721.109	    15.210	  -167.404	   -13.483
-19743.887	    15.311	  -170.113	   -38.170
-19779.141	    15.345	  -168.853	   -23.924
-19791.350	    15.405	   177.648	   -15.182
-19729.443	    15.490	   178.339	   -52.318
-19950.316	    15.554	  -177.305	   -22.353
-20137.525	    15.593	   178.099	   -33.032
-19908.992	    15.572	  -157.331	   -20.966
-20000.236	    15.488	  -158.542	   -24.086
-20032.775	    15.425	  -161.452	   -17.575
-19925.287	    15.382	  -169.748	    -7.985
-20109.844	    15.203	  -157.165	    -4.554
-20035.420	    15.327	  -156.879	     3.613
-19896.881	    15.471	  -173.515	   -23.491
-19836.000	    15.443	  -149.890	   -17.486
-19828.811	    15.437	  -170.174	   -10.493
-20003.715	    15.588	  -166.229	     0.421
-19859.729	    15.669	  -150.665	   -10.702
-19738.801	    15.712	  -156.616	   -15.509
-19858.674	    15.749	  -167.420	   -33.049
-19691.666	    15.819	  -170.234	   -29.373
-19953.893	    15.769	  -175.503	   -18.874
-19705.627	    15.517	   179.053	   -47.188
-20106.385	    15.280	  -163.966	   -13.683
-20028.334	    15.246	  -176.825	   -26.093
-19877.479	    15.273	  -166.942	   -13.827
-19964.793	    15.403	  -149.321	   -21.913
-19880.387	    15.539	  -175.501	   -14.052
-19915.877	    15.569	  -159.215	   -36.276
-19892.348	    15.570	  -155.488	   -28.192
-19775.680	    15.505	  -163.170	    -5.695
-19864.723	    15.421	  -165.623	   -39.251
-19914.611	    15.311	  -159.928	   -32.668
-20327.811	    15.170	  -164.429	   -16.119
-20074.574	    15.094	  -171.169	    -5.666
-19693.553	    15.149	  -165.507	    -3.245
-19965.223	    15.304	  -154.737	   -19.346
-20114.057	    15.474	  -161.481	   -17.468
-19841.031	    15.559	  -170.623	   -20.826
-20094.176	    15.581	  -155.562	   -37.456
-20064.471	    15.505	  -159.581	     9.468
-19938.508	    15.368	  -164.546	   -13.620
-19965.531	    15.396	  -163.415	    -9.446
-19813.662	    15.440	  -174.961	   -11.814
-19911.113	    15.464	  -170.482	    -9.239
-19855.477	    15.558	  -160.975	   -35.502
-19804.938	    15.582	  -162.569	   -29.569
-19907.611	    15.548	  -155.450	    -5.611
-19961.621	    15.407	  -169.908	    -5.929
-20149.963	    15.385	  -151.417	   -21.115
-19899.150	    15.548	  -165.707	   -25.135
-19757.072	    15.820	  -163.143	    -7.897
-19588.518	    15.899	  -155.549	   -23.853
-19824.293	    15.612	  -159.663	   -16.518
-20243.566	    15.345	  -166.991	    -6.170
-20044.951	    15.198	  -173.554	    -0.148
-19659.609	    15.255	  -169.139	   -28.080
-19874.602	    15.357	  -165.532	   -29.881
-19852.219	    15.508	  -166.655	   -17.485
-19744.139	    15.590	  -165.255	    -6.475
-19962.904	    15.672	  -146.560	   -30.911
-19759.754	    15.651	  -161.290	   -18.178
-19767.680	    15.594	  -153.838	    -6.899
-19842.438	    15.508	  -161.507	   -30.298
-19934.869	    15.409	  -173.688	   -19.622
-19934.914	    15.365	  -161.992	   -25.697
-20024.766	    15.517	  -171.815	   -13.029
-20207.490	    15.672	  -179.784	   -17.790
-20084.594	    15.709	  -176.696	   -19.261
-19805.549	    15.693	  -166.299	   -30.140
-19893.035	    15.637	  -170.281	   -40.464
-20206.945	    15.541	  -169.588	   -27.757
-20075.715	    15.311	  -162.291	   -28.881
-20330.543	    15.154	  -166.116	   -12.162
-20158.654	    15.254	  -169.016	   -23.250
-19823.592	    15.531	  -168.037	     1.711
-20007.654	    15.719	  -153.433	   -13.913
-19961.158	    15.653	  -153.102	   -17.772
-19794.551	    15.438	  -159.938	   -20.387
-20063.398	    15.146	  -158.331	     1.006
-20223.359	    15.072	  -169.229	   -15.284
-19882.000	    15.326	  -167.019	   -11.260
-19745.205	    15.631	  -159.348	   -23.392
-19791.896	    15.835	  -169.928	   -29.021
-19826.732	    15.789	   171.599	   -12.224
-19750.713	    15.717	  -156.454	   -14.419
-19949.428	    15.610	  -168.623	   -20.725
-19983.273	    15.479	   174.785	   -24.580
-19840.348	    15.331	  -172.944	   -24.278
-19692.707	    15.329	  -158.996	   -28.347
-19856.062	    15.412	  -161.812	   -11.663
-19800.064	    15.509	  -170.132	   -19.088
-19949.557	    15.646	  -177.765	   -17.990
-19898.373	    15.708	  -166.260	   -10.850
-19998.889	    15.811	  -157.420	   -25.728
-19641.941	    15.787	  -160.432	   -14.051
-20027.008	    15.775	  -171.648	   -44.775
-19741.443	    15.763	  -162.492	   -31.788
-19617.307	    15.601	  -173.925	   -18.079
-19999.754	    15.415	  -174.070	   -31.968
-19998.262	    15.386	  -164.207	   -21.141
-19914.982	    15.550	  -174.752	     3.719
-19729.531	    15.649	  -169.350	    -6.775
-19940.631	    15.561	  -167.924	   -18.849
-19888.930	    15.430	  -169.071	   -36.894
-20054.230	    15.392	  -156.038	   -24.484
-19826.346	    15.490	  -179.876	    -6.708
-19912.516	    15.666	  -154.729	     3.780
-19711.766	    15.732	  -176.309	   -41.332
-19748.957	    15.646	  -170.039	     8.803
-19982.141	    15.484	  -168.397	    -9.442
-20228.076	    15.371	  -164.112	   -13.043
-19995.787	    15.400	  -175.512	   -17.983
-19858.492	    15.526	  -154.762	   -30.712
-19718.396	    15.676	  -161.596	     7.650
-19924.297	    15.685	  -174.912	   -33.543
-19868.861	    15.651	  -169.577	   -15.790
-19937.840	    15.684	  -166.959	   -27.094
-19871.918	    15.785	  -168.043	   -11.106
-19789.963	    15.757	  -178.814	   -24.055
