-19836.992	    15.334	   -92.310	   122.143
-19786.223	    15.401	  -169.546	    31.687
-19818.965	    15.385	   173.020	    30.487
-19938.449	    15.469	   169.400	    66.512
-19886.584	    15.573	   142.589	    33.482
-19632.049	    15.706	   168.679	    17.523
-19987.572	    15.674	  -178.294	    29.618
-19971.879	    15.575	  -174.598	    40.527
-19955.451	    15.482	  -176.501	    11.387
-19859.012	    15.519	   168.750	    65.244
-19683.414	    15.535	   178.238	    50.186
-19725.730	    15.550	   168.249	    44.865
-19586.004	    15.510	   174.850	    36.656
-20165.752	    15.384	   175.109	    22.529
-20012.479	    15.278	   175.765	    43.312
-19936.600	    15.264	  -178.241	    25.294
-20046.148	    15.322	   170.682	    47.008
-19981.805	    15.375	  -176.571	    52.041
-19916.064	    15.449	   162.250	    92.511
-19671.951	    15.445	   168.951	    35.573
-19668.037	    15.652	   103.916	    23.438
-19916.754	    15.889	    61.801	    30.872
-19827.363	    15.982	    69.857	    28.110
-19957.797	    15.980	    65.127	    29.361
-20056.438	    15.809	    63.186	    24.919
-19955.488	    15.501	    76.476	    15.944
-19984.334	    15.183	    62.477	    33.824
-19987.541	    15.174	    66.417	    23.909
-20045.809	    15.348	    55.166	    47.779
-20135.779	    15.550	    67.513	    23.087
-19641.275	    15.821	    60.770	    49.846
-19661.354	    15.849	    61.115	    30.773
-19679.859	    15.828	    59.252	    33.389
-19789.338	    15.652	    76.788	    24.423
-19881.357	    15.340	    72.862	    33.196
-19931.711	    15.230	    66.378	    16.280
-19816.580	    15.379	    72.962	    22.345
-19651.988	    15.548	    79.418	    24.078
-19918.354	    15.603	    67.762	    38.732
-19591.283	    15.519	    59.863	    37.878
-19636.221	    15.381	    64.796	    33.939
-20045.697	    15.234	    71.746	    46.019
-19974.080	    15.229	    65.770	    43.798
-20280.045	    15.372	    76.977	    23.997
-20054.096	    15.649	    75.355	    38.389
-19426.441	    15.802	    62.279	    30.016
-19817.576	    15.811	    58.053	    30.303
-20010.346	    15.711	    71.781	    37.562
-19903.521	    15.540	    53.532	    30.446
-19998.283	    15.303	    69.364	    44.152
-19891.641	    15.264	    65.370	    30.405
-19941.537	    15.439	    67.800	    29.755
-19854.781	    15.660	    61.748	    37.771
-19719.855	    15.720	    70.535	    14.243
-19882.572	    15.690	    74.497	    43.550
-19762.092	    15.650	    71.802	    38.086
-20175.615	    15.485	    67.571	    49.226
-20022.066	    15.387	    63.538	    49.955
-19990.271	    15.370	    74.602	    26.597
-19890.672	    15.480	    60.272	    28.616
-19936.848	    15.561	    63.791	    32.628
-19925.521	    15.698	    65.082	    38.032
-19764.443	    15.768	    69.583	    27.930
-19875.682	    15.710	    62.884	    47.903
-19895.404	    15.648	    68.580	    37.447
-20010.662	    15.446	    69.171	    14.159
-19994.629	    15.209	    59.945	    22.918
-20363.729	    15.165	    57.674	    49.017
-20007.861	    15.312	    66.906	    22.219
-19630.627	    15.461	    63.745	    30.466
-19677.582	    15.648	    70.707	    33.383
-19730.570	    15.669	    58.525	    56.090
-19856.633	    15.701	    65.230	    27.971
-19894.408	    15.704	    68.084	    28.553
-19916.945	    15.573	    60.383	    35.885
-20174.312	    15.448	    72.274	    31.556
-20077.631	    15.332	    65.286	    36.466
-19964.877	    15.198	    68.898	    47.650
-19905.139	    15.243	    75.743	     9.466
-19773.953	    15.342	    59.911	    29.480
-20008.453	    15.422	    59.869	    50.261
-20033.846	    15.455	    72.234	    30.922
-20189.807	    15.485	    60.455	    41.317
-20002.250	    15.524	    70.661	    34.083
-19769.189	    15.575	    74.132	    43.410
-19927.785	    15.442	    56.596	    33.897
-20151.662	    15.404	    53.128	    41.462
-19920.248	    15.377	    67.345	    30.980
-20049.721	    15.379	    69.057	    31.114
-19820.141	    15.492	    73.121	    62.408
-19981.447	    15.630	    80.711	    32.251
-19698.146	    15.549	    63.085	    49.113
-19926.664	    15.524	    70.676	    28.819
-19737.148	    15.555	    57.369	    28.892
-20049.088	    15.813	    62.391	    40.565
-19569.795	    16.099	    56.878	    47.058
-19762.686	    16.194	    66.295	    35.315
-19865.170	    16.125	    71.056	    32.194
-19850.252	    15.905	    62.355	    48.750
-19833.762	    15.711	    67.282	    20.974
-19961.545	    15.626	    65.449	    55.935
-19910.371	    15.541	    67.855	    36.859
-19864.189	    15.364	    83.098	    31.202
-19818.795	    15.202	    63.323	    45.697
-19965.824	    15.172	    66.133	    18.670
-19815.596	    15.318	    64.321	    47.242
-19844.445	    15.597	    76.588	    38.638
-19830.426	    15.761	    69.228	    29.356
-19861.830	    15.797	    73.383	    41.681
-19938.229	    15.636	    73.897	    23.939
-19966.367	    15.475	    69.604	    20.896
-20031.490	    15.387	    62.997	    21.603
-20064.498	    15.375	    62.698	    15.280
-19831.211	    15.449	    67.831	    18.632
-19861.344	    15.582	    69.955	    21.246
-19797.506	    15.714	    56.535	    36.605
-19702.369	    15.719	    72.947	    53.311
-20165.061	    15.641	    61.458	    45.964
-19995.324	    15.534	    71.695	    29.490
-20151.863	    15.522	    63.175	    47.709
-19717.525	    15.644	    72.382	    20.965
-19951.076	    15.620	    78.407	    26.950
-20024.389	    15.429	    74.657	    10.113
-19942.289	    15.319	    64.837	    27.586
-20070.943	    15.310	    69.565	    35.428
-19906.490	    15.437	    64.519	    45.603
-20000.408	    15.507	    74.832	    36.012
-19956.385	    15.530	    68.969	    39.141
-19668.924	    15.596	    57.764	    45.381
-19898.285	    15.557	    71.936	    35.614
-19969.479	    15.470	    68.928	    32.663
-19695.518	    15.409	    69.998	    36.835
-19872.607	    15.435	    75.597	    12.390
-19712.484	    15.552	    65.438	    40.114
-19912.625	    15.559	    60.651	    32.375
-19918.650	    15.546	    54.235	    42.025
-19990.547	    15.586	    66.154	    20.940
-19759.092	    15.614	    66.365	    20.069
-19971.736	    15.672	    54.170	    20.440
-19894.146	    15.620	    62.346	     5.082
-20044.533	    15.554	    69.924	    44.728
-19988.812	    15.590	    59.603	    27.656
-19850.619	    15.581	    58.932	    45.169
-19836.334	    15.532	    63.792	    35.079
-19929.029	    15.497	    70.677	    43.399
-19688.018	    15.462	    64.274	    26.670
-20161.406	    15.410	    74.389	    32.180
-20109.766	    15.586	    61.079	    36.870
-19754.619	    15.855	    72.418	    23.401
-19825.467	    15.852	    60.898	    30.778
-19767.891	    15.739	    62.657	    35.236
-20030.910	    15.549	    74.606	    49.995
-19817.486	    15.492	    62.562	    53.403
-20279.398	    15.346	    60.652	    65.465
-19930.078	    15.233	    82.363	    43.261
-19886.387	    15.248	    68.468	    31.641
-20014.633	    15.295	    80.234	    34.442
-20101.869	    15.457	    62.573	    26.413
-20097.445	    15.598	    74.415	    33.385
-19742.746	    15.670	    65.188	    39.236
-20048.135	    15.684	    61.306	    47.606
-19802.736	    15.639	    65.237	    41.099
-20182.344	    15.557	    57.750	    41.639
-19911.418	    15.473	    62.609	    29.526
-19891.975	    15.444	    62.070	    42.086
-19629.031	    15.482	    68.566	    17.323
-19796.840	    15.459	    77.929	    21.048
-19884.418	    15.407	    80.700	    43.867
-19737.766	    15.401	    64.813	    38.827
-19978.125	    15.500	    66.574	    32.269
-19922.639	    15.641	    72.764	    24.964
-19824.516	    15.742	    73.481	    20.319
-19951.715	    15.715	    66.843	    50.251
-19964.061	    15.603	    70.185	    30.514
-20033.471	    15.505	    84.498	    34.272
-20078.289	    15.422	    66.764	    33.433
-19811.307	    15.445	    58.640	    35.255
-20081.107	    15.439	    60.655	    29.586
-20013.730	    15.449	    71.185	    43.386
-19766.977	    15.423	    55.560	    44.489
-19879.904	    15.374	    65.930	    47.686
-19990.072	    15.261	    60.001	    51.568
-19956.041	    15.207	    69.526	    53.972
-19969.461	    15.288	    69.270	    49.145
-19831.383	    15.415	    69.485	    45.998
-20007.479	    15.480	    66.718	    16.310
-19974.062	    15.375	    56.637	    38.810
-20065.598	    15.333	    75.051	    49.690
-19954.215	    15.346	    72.726	    29.390
-20018.367	    15.373	    57.842	    43.890
-19834.170	    15.520	    72.228	    17.748
-19838.502	    15.672	    62.028	    45.164
-19898.984	    15.734	    57.357	    42.251
-19877.039	    15.687	    71.844	    33.176
-20038.441	    15.512	    59.590	    43.954
-20100.459	    15.358	    74.272	    24.690
-20054.438	    15.365	    65.345	    33.100
-19842.551	    15.475	    57.358	    23.626
-19789.232	    15.648	    64.929	    37.457
-19889.277	    15.765	    58.946	     6.787
-20093.023	    15.745	    61.656	    27.833
-20041.617	    15.786	    71.725	    25.763
-19931.193	    15.770	    61.470	    46.150
-19947.115	    15.638	    65.222	    43.475
-19819.170	    15.603	    60.542	    39.064
-20012.596	    15.611	    66.116	    21.421
-19857.430	    15.497	    62.382	    39.359
-20064.361	    15.351	    62.263	    42.953
-19810.152	    15.390	    46.584	    24.951
-19480.645	    15.477	    62.797	    36.513
-19881.299	    15.525	    70.985	    20.809
-20063.393	    15.609	    75.647	    21.040
-19995.227	    15.613	    63.693	    43.185
-19878.318	    15.615	    69.054	    23.689
-20065.162	    15.531	    71.502	    32.130
-20259.703	    15.478	    59.869	    26.604
-19981.777	    15.423	    63.813	    14.272
-19845.109	    15.506	    60.856	    46.452
-19642.404	    15.604	    65.840	    24.407
-19965.734	    15.569	    60.971	    33.981
-20050.113	    15.532	    70.004	    25.919
-19855.850	    15.647	    56.167	    41.758
-19777.537	    15.648	    71.709	    19.334
-20026.434	    15.545	    68.845	    23.981
-20054.664	    15.497	    65.933	    34.423
-19930.240	    15.404	    85.108	    36.145
-19957.137	    15.370	    70.062	    35.034
-19900.285	    15.292	    67.894	    32.302
-19867.514	    15.406	    63.798	    39.273
-19783.510	    15.702	    72.920	    46.311
-19953.666	    15.840	    72.877	    21.942
-19920.514	    15.796	    62.036	    46.274
-19709.678	    15.592	    59.154	    34.935
-19931.816	    15.389	    72.764	    42.226
-20062.041	    15.235	    59.253	    34.981
-19988.234	    15.301	    66.904	    25.281
-19801.523	    15.397	    53.455	    37.071
-19886.658	    15.541	    54.520	    35.276
-19827.951	    15.558	    74.991	    41.061
-19810.969	    15.584	    66.462	    24.681
-19990.982	    15.573	    53.271	    61.797
-19705.250	    15.523	    65.996	    27.006
-19813.752	    15.449	    64.211	    43.182
-20012.191	    15.491	    63.475	    41.290
-19770.412	    15.599	    85.833	     8.982
-19606.576	    15.707	    59.214	    46.668
-19963.598	    15.746	    64.955	    34.472
-19786.225	    15.662	    55.445	    46.067
-19796.748	    15.480	    59.167	    40.420
-19979.299	    15.437	    67.354	    35.376
-19878.410	    15.536	    71.004	    41.775
-19697.486	    15.606	    66.839	    25.117
-19848.295	    15.592	    71.889	    34.224
-19855.604	    15.571	    66.071	    46.896
-19902.025	    15.732	    77.677	    43.718
-19615.150	    15.810	    60.440	    49.111
-19743.662	    15.928	    67.940	    39.916
-20034.906	    15.988	    62.242	    39.816
-19901.869	    15.843	    70.775	    28.668
-19989.619	    15.689	    63.213	    37.899
-20175.482	    15.533	    71.518	    34.854
-20007.330	    15.478	    68.380	    21.236
-19981.928	    15.498	    70.087	    31.792
-19934.469	    15.597	    69.235	    15.037
-20067.938	    15.565	    68.931	    37.660
-19560.777	    15.534	    67.112	    21.816
-19946.127	    15.585	    60.592	    35.272
-19925.990	    15.604	    61.087	    39.224
-19924.824	    15.673	    65.187	     6.576
-19601.879	    15.753	    61.260	    20.588
-19666.812	    15.760	    75.027	    37.383
-19831.816	    15.672	    62.891	    44.808
-19684.400	    15.618	    67.238	    34.651
-19811.393	    15.606	    72.843	    40.878
-19749.068	    15.604	    54.802	    35.774
-19737.422	    15.569	    67.817	    35.777
-20087.961	    15.511	    76.592	    40.171
-20063.891	    15.509	    67.655	    24.964
-20106.629	    15.765	    73.425	    19.367
-19733.672	    16.017	    58.541	    39.734
-19828.199	    16.140	    77.637	    42.860
-19801.861	    15.929	    69.642	    15.149
-19810.488	    15.621	    76.391	    25.018
-19648.838	    15.375	    48.594	    18.978
-20077.828	    15.204	    68.294	    31.074
-20086.580	    15.211	    54.061	    28.774
-20057.945	    15.305	    63.396	    25.789
-19923.969	    15.539	    64.430	    26.282
-19793.719	    15.840	    59.225	    50.333
-19793.369	    15.930	    89.602	    34.118
-19700.721	    15.865	    59.938	    24.992
-19793.096	    15.605	    57.202	    42.086
-19989.498	    15.271	    59.947	    17.529
-20067.367	    15.097	    80.926	    20.598
-19934.447	    15.163	    59.993	    36.939
-19826.070	    15.345	    65.627	    56.060
-20016.533	    15.574	    64.270	    36.652
-19745.900	    15.630	    68.185	    59.364
-20043.111	    15.480	    72.105	    34.355
-20093.492	    15.309	    74.415	    48.559
-20101.855	    15.212	    79.789	    46.993
-20220.531	    15.116	    53.005	    43.857
-20212.129	    15.200	    70.934	    11.486
-20008.539	    15.375	    43.771	    36.369
-19848.703	    15.553	    70.729	    51.910
-19992.000	    15.606	    77.437	    44.078
-19794.830	    15.585	    61.072	    32.846
-19936.699	    15.549	    60.438	    28.189
-19617.578	    15.397	    73.734	    21.935
-20098.824	    15.136	    61.829	    48.752
-20082.059	    15.058	    80.183	    10.185
-20216.852	    15.189	    61.887	    14.801
-19957.605	    15.542	    62.308	    34.327
-19992.842	    15.740	    70.003	    30.138
-19798.836	    15.786	    60.414	    38.413
-19528.203	    15.750	    58.680	    54.799
-19992.748	    15.646	    76.452	    30.993
-19989.375	    15.575	    67.682	    43.414
-19975.678	    15.463	    64.536	    43.779
-19910.553	    15.325	    69.244	    33.484
-19797.723	    15.402	    54.169	    22.999
-19719.289	    15.480	    61.901	    40.271
-19931.203	    15.557	    74.640	    47.211
-19771.619	    15.645	    66.855	    29.307
-19790.109	    15.763	    68.283	    18.679
-19747.641	    15.812	    61.102	    24.538
-19805.576	    15.651	    68.110	    27.950
-19930.000	    15.424	    74.930	    19.704
-19812.732	    15.284	    71.757	    33.383
-19879.445	    15.476	    69.602	    43.313
-19878.219	    15.582	    68.142	    29.295
-19771.648	    15.540	    60.921	    24.444
-20239.834	    15.404	    73.744	    31.858
-19781.689	    15.424	    59.366	    29.378
-19950.188	    15.507	    74.307	    18.993
-19880.666	    15.574	    62.676	    29.881
-20209.117	    15.674	    61.550	    20.882
-19845.664	    15.641	    67.458	    16.354
-20168.811	    15.463	    67.577	    27.383
-19935.490	    15.283	    70.777	    28.385
-20161.965	    15.213	    75.031	    25.495
-20141.438	    15.385	    59.311	    30.350
-19935.854	    15.519	    53.529	    43.163
-20127.254	    15.624	    62.423	    23.321
-19886.525	    15.607	    69.955	    26.167
-19963.160	    15.582	    70.439	    18.769
-19859.568	    15.449	    58.386	    48.927
-19955.219	    15.252	    68.666	    41.118
-20116.916	    15.207	    71.289	    40.910
-19975.342	    15.294	    68.838	    55.789
-19875.342	    15.407	    69.028	    13.175
-20016.637	    15.453	    55.709	    29.878
-19813.814	    15.506	    70.638	    48.233
-19952.686	    15.499	    63.378	    48.485
-19850.818	    15.417	    66.961	    35.042
-19938.496	    15.386	    56.579	    46.686
-19962.586	    15.407	    68.209	    33.277
-19840.451	    15.511	    47.660	    42.606
-20103.004	    15.589	    66.570	    36.786
-20287.398	    15.540	    64.963	    56.236
-20097.301	    15.427	    65.929	    39.373
-19986.791	    15.363	    66.500	    27.561
-19986.836	    15.555	    73.760	    42.467
-20091.846	    15.632	    64.801	    39.241
-19842.662	    15.700	    56.692	    28.360
-19891.180	    15.723	    75.909	    43.467
-20006.584	    15.684	    65.834	    29.302
-19727.928	    15.602	    65.129	    32.134
-19640.676	    15.514	    66.320	    34.204
-19735.408	    15.478	    63.941	    27.404
-19629.068	    15.581	    61.565	    24.088
-19748.891	    15.586	    61.346	    24.710
-20058.129	    15.489	    63.371	    40.176
-19960.816	    15.346	    67.999	    27.245
-19936.361	    15.372	    56.646	    45.928
-19839.443	    15.625	    77.063	    38.810
-19826.395	    15.795	    78.558	    13.684
-19873.752	    15.778	    58.401	    43.958
-19805.176	    15.548	    71.616	    18.418
-20022.527	    15.288	    68.373	    30.617
-20141.939	    15.114	    59.713	    20.514
-19963.385	    15.092	    73.110	    21.191
-20219.648	    15.199	    69.746	    52.163
-19902.428	    15.429	    68.539	    15.168
-19519.680	    15.682	    72.011	     6.254
-19608.014	    15.798	    65.021	    21.679
-19802.854	    15.783	    64.644	    24.222
-19967.141	    15.761	    67.898	    29.919
-19897.598	    15.771	    55.546	    46.872
-19741.053	    15.689	    63.712	    72.283
-19697.629	    15.414	    59.360	    27.472
-19969.275	    15.212	    80.337	    38.607
-19893.396	    15.237	    65.480	    31.049
-19650.445	    15.364	    61.025	    32.699
-19668.824	    15.552	    74.829	    44.284
-19810.271	    15.646	    69.755	    16.202
-19641.883	    15.584	    71.702	    32.280
-19805.080	    15.526	    76.213	    17.954
-19879.730	    15.467	    59.298	    20.750
-19955.211	    15.404	    58.687	    44.802
-19665.572	    15.550	    71.695	    30.895
-19901.590	    15.603	    57.369	    26.717
-19856.900	    15.562	    62.692	    33.899
-19713.523	    15.513	    61.896	    35.462
-19817.764	    15.318	    64.492	    24.775
-19830.893	    15.144	    54.935	    25.782
-20033.721	    15.166	    66.507	    25.416
-20034.156	    15.302	    74.246	    23.772
-19785.047	    15.412	    65.098	    10.045
-20138.070	    15.501	    59.147	    24.738
-20090.516	    15.597	    63.017	    45.311
-20042.652	    15.528	    58.335	    39.531
-19926.324	    15.453	    81.341	    32.284
-19904.857	    15.432	    63.855	    37.716
-19791.842	    15.487	    72.938	     7.388
-19826.895	    15.576	    70.987	    25.035
-19870.998	    15.491	    61.567	    21.474
-20033.621	    15.402	    73.138	    32.437
-19941.242	    15.319	    69.286	    39.858
-19919.836	    15.329	    59.239	    27.272
-19832.967	    15.456	    71.078	    29.269
-19961.531	    15.643	    71.771	    25.028
-19638.744	    15.798	    55.943	    56.970
-19740.424	    15.831	    63.291	    43.968
-20023.426	    15.739	    66.492	    24.760
-20026.107	    15.542	    66.722	    37.862
-19974.412	    15.341	    70.038	    25.818
-19889.633	    15.250	    72.928	    12.217
-20015.631	    15.305	    59.256	    51.282
-19770.584	    15.441	    71.068	    35.508
-19945.074	    15.479	    61.087	    36.840
-19692.945	    15.426	    64.458	    22.654
-20068.250	    15.484	    68.715	    50.095
-19906.479	    15.511	    65.628	    49.147
-19821.340	    15.571	    63.897	    45.009
-19683.891	    15.668	    59.395	    26.889
-20003.957	    15.698	    70.667	    33.722
-19741.664	    15.670	    60.929	    23.886
-19917.934	    15.635	    65.352	    41.862
-19876.902	    15.599	    67.472	    11.059
-20083.844	    15.588	    55.457	    41.251
-19794.354	    15.550	    64.195	    22.395
-19550.223	    15.588	    70.026	    33.235
-19994.844	    15.513	    69.555	    33.426
-19906.014	    15.336	    66.247	    23.893
-19996.637	    15.267	    65.015	    13.043
-19896.564	    15.400	    63.329	    46.182
-20044.736	    15.585	    54.507	    33.746
-19878.127	    15.750	    74.549	    19.338
-19643.453	    15.801	    51.553	    38.910
-19893.074	    15.761	    85.878	    44.876
-20081.309	    15.655	    72.065	    30.672
-19757.754	    15.456	    79.702	    43.685
-20051.898	    15.228	    66.289	    34.963
-19903.920	    15.248	    68.806	    17.088
-19835.098	    15.503	    50.239	    44.454
-19786.771	    15.629	    61.210	    43.866
-19745.150	    15.578	    71.940	    51.512
-19916.703	    15.543	    69.005	    29.454
-19845.908	    15.473	    69.365	    38.802
-20033.789	    15.468	    63.460	    42.376
-20021.836	    15.610	    60.622	    26.211
-19678.379	    15.684	    62.171	    60.706
-20088.727	    15.690	    62.781	    46.515
-19949.764	    15.726	    75.833	    27.958
-19713.609	    15.751	    66.059	    19.005
-20164.891	    15.622	    67.434	    43.622
-20128.756	    15.518	    66.277	    29.292
-19889.246	    15.458	    77.902	    54.203
-20100.855	    15.382	    62.712	    60.172
-19967.359	    15.329	    62.929	    56.567
-20083.555	    15.362	    69.741	    26.166
-19978.529	    15.483	    68.620	    25.444
-19718.512	    15.657	    58.069	    48.510
-19808.355	    15.677	    69.692	    12.174
-19994.695	    15.629	    70.644	    41.806
-19624.035	    15.477	    60.865	    43.584
-19904.451	    15.296	    70.124	    38.683
-20075.107	    15.183	    50.022	    45.390
-19872.049	    15.255	    71.772	    22.566
-19873.484	    15.459	    65.144	    30.429
-19898.113	    15.735	    59.241	    41.660
-20062.021	    15.766	    67.066	    26.291
-20036.256	    15.862	    76.018	    32.995
-19699.857	    15.856	    66.512	    16.183
-19939.564	    15.617	    71.051	    17.383
-19860.748	    15.362	    61.286	    36.391
-20046.887	    15.152	    75.162	    22.417
-19915.871	    15.199	    72.575	    29.141
-19725.273	    15.463	    75.216	    26.752
-19876.777	    15.669	    67.849	    44.356
-19771.514	    15.736	    74.003	    49.331
-19886.385	    15.767	    70.675	    10.931
-20068.270	    15.788	    73.351	    38.654
-20159.344	    15.607	    69.431	    32.407
-19991.309	    15.376	    57.628	    27.955
-20019.865	    15.224	    57.780	    14.487
-19787.408	    15.276	    55.030	    35.367
-19563.059	    15.575	    67.124	    45.991
-19769.873	    15.835	    62.213	    59.622
-19738.363	    15.889	    56.583	    44.163
-19701.291	    15.749	    72.399	    31.997
-19702.332	    15.579	    60.713	    24.859
-19955.578	    15.433	    74.823	    21.352
-19965.898	    15.272	    65.581	    27.377
-20058.955	    15.191	    70.640	    32.086
-20149.697	    15.308	    68.740	    57.957
-19824.096	    15.588	    67.797	    18.590
-19874.998	    15.894	    59.152	    24.664
-19749.766	    16.125	    67.567	    33.007
-19839.869	    15.988	    67.787	    35.368
-19715.744	    15.573	    65.586	    38.583
-19921.941	    15.308	    53.329	    50.199
-19947.924	    15.178	    73.209	    19.566
-19814.520	    15.224	    67.343	    30.005
-19803.951	    15.440	    51.511	    45.469
-19894.730	    15.564	    75.154	    31.513
-19842.201	    15.563	    64.968	    50.223
-19810.268	    15.520	    64.904	    30.570
-19954.602	    15.556	    67.751	    26.158
-19611.180	    15.782	    58.020	    48.642
-19659.229	    15.960	    65.735	    48.434
-19809.311	    15.778	    68.696	    31.294
-19946.088	    15.590	    69.789	    27.268
-20057.695	    15.395	    68.304	    30.908
-20020.684	    15.257	    63.922	    27.778
-20008.713	    15.341	    65.620	    37.094
-19779.936	    15.379	    77.732	    28.316
-19836.678	    15.328	    72.987	    38.522
-20043.775	    15.404	    65.961	    22.802
-19576.977	    15.583	    60.419	    46.421
-19820.902	    15.756	    64.806	    21.286
-19879.412	    15.879	    58.041	    25.813
-19889.469	    15.834	    73.301	    37.756
-19752.605	    15.652	    45.606	    48.973
-19821.133	    15.461	    73.443	    17.739
-20115.043	    15.277	    83.168	    30.105
-20090.598	    15.309	    77.115	    27.430
-20031.322	    15.520	    77.341	    35.816
-19704.633	    15.837	    69.962	    28.217
-19884.781	    15.903	    64.097	    45.436
-20055.430	    15.780	    56.147	    12.838
-20127.291	    15.568	    52.754	    43.118
-20005.369	    15.468	    56.914	    31.550
-19963.818	    15.368	    73.194	    12.753
-20299.338	    15.285	    62.482	    35.973
-19944.814	    15.387	    74.149	    37.968
-20019.439	    15.519	    57.947	    34.949
-20063.395	    15.633	    57.395	    34.848
-19848.182	    15.833	    79.899	    27.738
-19725.732	    15.910	    96.470	    40.640
-19920.170	    15.752	    87.088	    36.961
-20026.912	    15.565	    60.481	    32.607
-20032.664	    15.521	    62.204	    29.787
-20024.602	    15.379	    58.918	    33.847
-19987.645	    15.255	    68.017	    29.118
-20032.836	    15.376	    64.011	    40.880
-19968.717	    15.692	    56.202	    43.882
-20093.439	    15.775	    65.388	    23.721
-19573.592	    15.743	    74.540	    26.343
-19668.498	    15.765	    67.715	    43.356
-19751.678	    15.801	    68.790	    28.285
-19911.885	    15.749	    73.199	    30.651
-19777.998	    15.749	    66.650	    42.886
-19766.930	    15.684	    70.632	    37.038
-20054.967	    15.405	    71.751	    24.685
-19859.521	    15.236	    69.293	    54.522
-20133.195	    15.210	    66.920	    37.526
-20032.451	    15.374	    56.576	    21.776
-19458.686	    15.550	    62.846	    32.176
-19876.998	    15.650	    57.795	    41.709
-19900.820	    15.654	    60.691	    23.900
-19837.893	    15.690	    66.855	    43.757
-19906.137	    15.691	    63.300	    53.101
-19888.180	    15.558	    69.093	    32.672
-20139.537	    15.289	    41.340	    56.923
-20091.229	    15.252	    72.920	    22.445
-19953.049	    15.333	    72.999	    32.788
-20030.502	    15.504	    63.112	    61.362
-19798.412	    15.630	    67.010	    37.279
-19928.566	    15.638	    64.284	    26.750
-20018.469	    15.627	    60.946	    29.555
-19818.977	    15.520	    52.583	    33.579
-19933.045	    15.418	    59.457	    39.195
-20116.611	    15.389	    72.969	    17.809
-19904.193	    15.411	    68.743	    54.296
-20068.221	    15.482	    63.606	    47.434
-19839.793	    15.527	    63.834	    40.713
-19776.371	    15.589	    66.283	    47.152
-19821.625	    15.507	    75.101	    57.724
-20008.553	    15.396	    74.786	    32.632
-19956.396	    15.331	    52.629	    39.162
-20144.420	    15.284	    62.766	    26.634
-20052.174	    15.420	    67.962	    28.986
-20098.523	    15.677	    54.681	    36.299
-19934.996	    15.836	    87.903	    40.857
-20139.264	    15.854	    82.593	    43.541
-19919.633	    15.894	    70.801	    35.939
-19970.998	    15.821	    67.291	    27.209
-20103.209	    15.701	    69.473	    43.120
-19997.182	    15.605	    60.581	    33.391
-19715.514	    15.561	    68.278	    34.157
-19912.455	    15.483	    58.454	    22.808
-20063.580	    15.427	    70.713	    38.131
-19765.461	    15.373	    71.508	    41.055
-19937.891	    15.418	    66.314	    36.628
-19886.004	    15.556	    60.349	    34.500
-19967.986	    15.704	    67.913	    53.596
-19786.229	    15.791	    74.499	    55.199
-19931.311	    15.794	    66.988	    22.499
-19981.926	    15.595	    61.315	    28.712
-19883.652	    15.479	    89.578	    38.824
-19858.750	    15.495	    54.131	    55.482
-19950.820	    15.507	    73.740	    39.038
-19738.518	    15.539	    69.282	    35.197
-19424.416	    15.537	    64.266	    19.709
-19790.031	    15.439	    69.611	    41.751
-20321.486	    15.342	    73.968	    26.688
-20204.502	    15.463	    81.946	    40.428
-20074.252	    15.671	    71.296	    26.256
-19848.156	    15.772	    72.706	    31.664
-19738.812	    15.714	    77.928	    25.841
-19912.211	    15.699	    70.174	    48.632
-20187.889	    15.549	    78.210	    41.695
-20060.852	    15.416	    73.419	    33.003
-20049.758	    15.344	    59.664	    29.312
-20028.898	    15.243	    73.767	    38.395
-19770.438	    15.372	    59.974	    59.810
-19618.975	    15.708	    58.710	    40.137
-19524.498	    15.961	    84.586	    24.900
-19983.643	    15.926	    60.413	    41.772
-19960.582	    15.671	    51.799	    25.727
-20045.121	    15.432	    69.130	    37.059
-20140.506	    15.326	    66.750	    38.765
-19857.033	    15.375	    68.058	    32.376
-19874.721	    15.502	    62.892	    45.985
-20206.053	    15.608	    71.167	    27.195
-19990.668	    15.577	    72.106	    24.948
-20007.811	    15.576	    63.642	    25.588
-19871.750	    15.502	    69.245	    24.681
-20020.154	    15.318	    72.067	    33.346
-19984.580	    15.174	    59.005	    28.315
-19976.514	    15.151	    63.381	    18.166
-20052.375	    15.379	    58.716	    25.818
-20096.166	    15.620	    56.887	    29.197
-20113.029	    15.708	    51.651	    28.894
-19563.314	    15.740	    63.609	     4.701
-19829.287	    15.658	    56.977	    23.687
-19769.871	    15.623	    75.374	    -0.064
-19889.479	    15.474	    76.391	    11.475
-19946.238	    15.309	    58.079	    35.538
-20061.607	    15.251	    61.099	    30.620
-20007.760	    15.313	    64.306	    20.263
-19836.113	    15.413	    57.220	    29.496
-19870.510	    15.399	    68.112	     8.598
-20010.486	    15.356	    59.937	    47.033
-20048.414	    15.369	    66.597	    34.937
-19931.721	    15.390	    58.758	    35.777
-19950.418	    15.521	    61.953	    28.540
-20018.932	    15.663	    55.855	    44.459
-19840.418	    15.729	    77.885	    37.068
-19802.254	    15.799	    64.572	    29.655
-20003.543	    15.737	    56.010	    31.748
-19889.559	    15.632	    67.279	    50.249
-19879.730	    15.656	    81.826	    40.914
-19841.734	    15.629	    61.393	    34.228
-19936.650	    15.544	    66.451	    36.464
-20032.953	    15.498	    54.138	    35.669
-19958.418	    15.588	    76.500	    29.058
-20048.945	    15.601	    74.994	    24.455
-19702.926	    15.585	    73.897	    34.866
-19991.826	    15.662	    55.844	    44.269
-20222.463	    15.693	    67.552	    39.328
-19866.855	    15.637	    77.215	    28.339
-19954.010	    15.561	    66.485	    38.171
-19769.150	    15.551	    68.642	    53.398
-19653.691	    15.638	    72.581	    24.956
-19761.219	    15.769	    57.698	    27.499
-19864.553	    15.831	    73.303	    43.363
-19906.461	    15.759	    67.128	    28.023
-20084.168	    15.598	    65.755	    14.189
-19786.139	    15.446	    59.939	    26.717
-19864.039	    15.331	    67.578	    16.929
-20229.631	    15.241	    49.895	    33.649
-19951.031	    15.400	    70.857	    38.549
-19982.234	    15.505	    68.490	    25.745
-19944.506	    15.529	    77.622	    36.959
-19596.566	    15.635	    83.046	    32.538
-19997.832	    15.677	    62.693	    50.405
-19885.984	    15.586	    57.952	    28.687
-20189.195	    15.358	    70.453	    35.389
-19907.955	    15.261	    56.937	    41.025
-19910.014	    15.354	    71.841	    37.635
-20106.783	    15.575	    61.211	    32.926
-19697.127	    15.887	    69.048	    33.254
-19711.299	    15.953	    50.518	    32.920
-19775.436	    15.819	    61.879	    14.269
-19917.066	    15.593	    50.584	    35.949
-20111.508	    15.455	    52.208	    30.529
-19877.418	    15.443	    61.394	    45.002
-19723.592	    15.548	    71.544	    40.158
-19731.664	    15.623	    64.762	    37.875
-19927.730	    15.646	    82.684	    41.645
-19785.412	    15.563	    55.947	    39.232
-19509.059	    15.508	    66.816	    48.621
-19772.865	    15.500	    54.891	    47.952
-19949.664	    15.497	    67.294	    20.443
-19854.617	    15.489	    73.008	    37.459
-19871.709	    15.494	    77.705	    32.599
-19939.662	    15.590	    61.272	    21.604
-19681.793	    15.686	    59.452	    29.751
-19692.148	    15.687	    59.312	    44.505
-19598.697	    15.585	    74.808	    41.950
-19848.045	    15.483	    75.342	    16.160
-19703.621	    15.452	    71.230	    28.504
-20051.938	    15.475	    66.664	    43.374
-20078.414	    15.462	    66.926	    39.503
-19778.785	    15.580	    69.396	    27.413
-20069.145	    15.597	    70.862	    12.608
-19604.936	    15.670	    68.879	    35.021
-19730.379	    15.745	    67.289	    32.966
-19916.207	    15.824	    66.257	    20.271
-20002.025	    15.625	    62.977	    25.121
-19959.787	    15.424	    64.388	    53.334
-19762.840	    15.459	    69.878	    39.066
-19686.035	    15.583	    58.614	    55.109
-19797.477	    15.608	    68.361	    57.693
-19974.002	    15.695	    69.528	     0.519
-19791.371	    15.844	    71.193	    26.623
-20048.725	    15.823	    65.073	    25.179
-19913.770	    15.729	    62.729	    13.768
-19892.777	    15.639	    61.947	    30.871
-20170.143	    15.481	    56.219	    45.382
-19922.709	    15.377	    74.126	    22.374
-19926.180	    15.417	    60.314	    53.496
-19994.076	    15.519	    72.741	    32.856
-19710.570	    15.625	    62.326	    10.991
-20002.721	    15.584	    69.114	    33.770
-19864.211	    15.582	    81.151	    29.663
-19747.070	    15.679	    78.743	    32.463
-19965.938	    15.846	    58.255	    31.999
-19798.152	    15.880	    60.521	    36.048
-19715.207	    15.788	    68.449	    42.200
-19804.584	    15.762	    61.052	    47.521
-19956.000	    15.748	    79.948	    28.313
-19884.740	    15.661	    59.428	    25.001
-19894.602	    15.574	    71.592	    37.699
-20151.881	    15.416	    57.571	    30.358
-20292.777	    15.318	    58.471	    26.322
-19987.852	    15.341	    72.991	    49.871
-20054.100	    15.411	    69.964	    36.394
-20068.271	    15.474	    72.887	    39.608
-19745.207	    15.618	    66.287	    48.902
-19717.256	    15.671	    70.416	    40.124
-20032.141	    15.568	    64.046	    35.189
-20227.293	    15.506	    74.774	    34.790
-20093.977	    15.508	    55.446	    34.333
-20022.299	    15.462	    62.632	    19.827
-20146.832	    15.466	    78.419	    26.374
-20093.578	    15.477	    63.147	    25.803
-19979.139	    15.425	    71.281	    31.783
-19999.914	    15.440	    74.036	    38.401
-19713.990	    15.438	    80.296	    54.018
-19794.826	    15.497	    70.173	    27.002
-19956.182	    15.580	    66.464	    39.703
-19753.848	    15.622	    64.654	    37.263
-19721.314	    15.654	    58.797	    34.396
-19883.652	    15.582	    67.339	    32.685
-19787.301	    15.582	    57.954	    31.533
-19935.332	    15.705	    59.988	    32.301
-19928.906	    15.732	    69.319	    44.361
-19938.410	    15.627	    65.775	    36.769
-20003.969	    15.521	    65.372	    36.701
-19966.252	    15.431	    65.931	    17.702
-20073.006	    15.464	    58.082	    50.225
-20115.164	    15.569	    69.429	    38.542
-19889.242	    15.625	    61.437	    64.946
-19621.137	    15.697	    72.550	    34.462
-19805.508	    15.681	    68.386	    26.213
-19887.240	    15.607	    53.696	    35.144
-19620.869	    15.475	    72.022	    46.800
-19876.811	    15.303	    79.197	    33.667
-19910.609	    15.270	    76.188	    24.665
-20008.752	    15.334	    62.175	    42.960
-20056.275	    15.338	    49.853	    40.022
-20007.242	    15.355	    74.797	    35.441
-19844.697	    15.433	    73.311	    53.011
-19803.576	    15.482	    70.686	    33.260
-19937.494	    15.539	    57.370	    42.126
-19959.270	    15.537	    69.362	    42.014
-19928.020	    15.589	    62.439	    32.969
-20104.484	    15.549	    68.372	    40.943
-19991.424	    15.487	    68.438	    46.544
-20103.285	    15.431	    64.503	    28.832
-19897.775	    15.465	    55.760	    33.662
-19681.959	    15.348	    89.036	    28.390
-19921.746	    15.294	    61.394	    46.303
-20012.920	    15.316	    61.859	    30.806
-19913.809	    15.389	    70.735	    33.043
-19867.939	    15.491	    85.603	    42.165
-19894.217	    15.599	    59.965	    57.088
-19787.725	    15.623	    62.551	    24.655
-19800.137	    15.512	    67.083	    37.043
-19734.514	    15.456	    49.480	    40.437
-20133.750	    15.460	    71.606	    48.072
-20031.709	    15.468	    61.026	    54.947
-20014.516	    15.379	    63.138	    42.927
-19802.463	    15.408	    73.443	    37.292
-19891.893	    15.559	    68.957	    34.406
-20009.406	    15.721	    63.613	    40.586
-19847.352	    15.768	    71.746	    44.998
-20084.234	    15.716	    67.523	    30.931
-19982.307	    15.546	    69.101	    26.960
-20007.941	    15.412	    73.812	    51.992
-20009.850	    15.282	    60.685	    24.629
-19984.193	    15.218	    81.780	    25.615
-20056.850	    15.227	    66.229	    43.141
-20065.332	    15.286	    65.781	    46.408
-20045.771	    15.393	    61.202	    34.869
-19887.002	    15.559	    65.522	    39.339
-20135.260	    15.737	    62.216	    50.593
-19771.543	    15.809	    62.392	    22.440
-19847.338	    15.859	    74.619	    28.610
-19865.936	    15.738	    74.354	    33.195
-19987.184	    15.534	    65.897	    28.144
-19847.637	    15.534	    64.497	    39.300
-19743.660	    15.581	    63.141	    38.528
-19859.998	    15.526	    63.493	    44.168
-19993.908	    15.410	    66.262	    40.657
-19982.221	    15.230	    56.629	    25.817
-19900.975	    15.236	    78.322	    22.758
-20014.436	    15.320	    75.268	    35.017
-19843.633	    15.529	    64.124	    16.786
-19715.359	    15.633	    74.280	    36.400
-19951.523	    15.606	    75.343	    31.283
-19975.643	    15.546	    77.262	    18.738
-19968.068	    15.484	    55.723	    22.069
-19827.570	    15.625	    65.272	    17.813
-19638.398	    15.658	    78.231	    22.674
-19878.289	    15.412	    63.625	    68.171
-20240.666	    15.177	    68.747	     5.860
-19967.428	    15.080	    55.421	    33.237
-20052.301	    15.114	    65.299	    23.934
-20020.236	    15.309	    64.409	    33.765
-19831.332	    15.618	    70.486	    44.267
-19628.504	    15.748	    70.158	    29.542
-19818.961	    15.653	    70.696	    37.204
-20072.299	    15.518	    62.683	    44.228
-19733.127	    15.445	    69.081	    44.361
-19866.541	    15.383	    69.556	    47.234
-19962.391	    15.444	    73.761	    15.638
-20107.582	    15.531	    79.487	    35.538
-19953.664	    15.582	    59.420	    42.846
-19968.527	    15.718	    79.356	    39.398
-19532.809	    15.843	    68.570	    25.654
-19719.666	    15.827	    72.238	    29.411
-19820.568	    15.669	    59.383	    55.249
-19919.807	    15.506	    76.143	    25.195
-20183.123	    15.456	    83.289	    21.359
-20016.645	    15.402	    61.267	    29.470
-19899.490	    15.392	    67.522	    38.476
-19785.180	    15.456	    79.101	     6.729
-19588.393	    15.553	    66.958	    32.243
-19837.471	    15.631	    50.498	    28.487
-19943.924	    15.561	    61.969	    40.135
-20091.758	    15.483	    61.105	    51.105
-20106.359	    15.421	    69.957	    38.490
-19717.059	    15.346	    61.372	    47.209
-19832.941	    15.346	    61.267	    32.970
-20010.682	    15.407	    67.456	    29.804
-19741.736	    15.557	    64.269	    36.955
-19789.230	    15.624	    67.022	    21.878
-20013.609	    15.636	    55.381	    40.953
-19992.385	    15.596	    59.311	    32.028
-19871.906	    15.481	    66.725	    20.186
-20017.674	    15.378	    60.090	    39.396
-20012.916	    15.280	    67.918	    20.713
-20043.174	    15.307	    73.272	    24.559
-19933.967	    15.420	    63.994	    30.549
-19913.002	    15.503	    76.339	    46.113
-19907.100	    15.514	    72.869	    44.169
-19917.305	    15.483	    76.697	    47.742
-20194.791	    15.508	    71.905	    42.192
-20111.896	    15.562	    67.768	    49.998
-19637.990	    15.660	    63.741	    37.367
-19835.004	    15.699	    65.350	    22.637
-20049.111	    15.620	    69.810	    42.464
-19993.217	    15.404	    76.360	    29.912
-20111.973	    15.123	    60.038	    34.749
-20061.654	    15.097	    56.637	    21.834
-20300.973	    15.237	    73.434	    24.158
-20191.863	    15.443	    47.841	    43.418
-19772.207	    15.667	    71.994	    62.260
-19835.135	    15.890	    60.661	    26.037
-19786.062	    16.051	    60.893	    28.755
-19960.482	    16.052	    67.700	    41.510
-19822.238	    15.866	    75.697	    25.142
-20104.912	    15.644	    71.798	    18.094
-19793.896	    15.581	    61.594	    49.750
-19781.203	    15.577	    56.729	    32.416
-19940.504	    15.545	    62.740	    13.675
-19963.154	    15.528	    65.904	    37.695
-19818.906	    15.615	    77.041	    21.614
-19980.857	    15.682	    54.811	    24.069
-19852.268	    15.668	    62.516	    46.608
-20005.328	    15.677	    74.961	    55.239
-19682.035	    15.652	    58.419	    50.046
-20043.686	    15.588	    55.753	    45.849
-20061.141	    15.497	    80.552	    43.374
-19931.904	    15.351	    54.431	    52.753
-20027.518	    15.251	    56.972	    35.760
-19992.314	    15.300	    59.493	    49.268
-19878.816	    15.397	    62.731	    39.073
-19866.320	    15.428	    73.590	    27.335
-19815.615	    15.522	    62.186	    12.386
-19756.053	    15.509	    66.811	    39.962
-19660.779	    15.561	    72.106	    20.174
-19749.932	    15.578	    62.727	    41.877
-19657.258	    15.634	    68.032	    29.072
-19807.932	    15.656	    79.646	    46.669
-19549.605	    15.667	    74.970	    35.522
-20119.857	    15.633	    66.314	    32.680
-19933.393	    15.642	    70.654	    31.297
-19807.262	    15.653	    57.702	    39.440
-19970.150	    15.505	    64.063	    18.213
-20003.670	    15.353	    72.000	    37.982
-19959.006	    15.335	    68.248	    29.111
-19996.305	    15.357	    60.212	    46.196
-20042.320	    15.453	    62.851	    46.192
-19847.307	    15.614	    66.381	    48.878
-19707.150	    15.784	    71.496	    40.836
-19742.605	    15.852	    71.458	    43.441
-19769.496	    15.872	    63.692	    38.128
-19955.684	    15.892	    56.463	    34.672
-20018.959	    15.781	    58.929	    37.401
-19949.959	    15.579	    69.869	    25.310
-19863.305	    15.315	    66.930	    30.920
-19955.461	    15.291	    71.232	    19.833
-19962.346	    15.367	    75.836	    35.422
-19798.279	    15.402	    65.767	    21.507
-19800.170	    15.364	    67.702	    30.356
-20086.209	    15.379	    64.183	    29.334
-20073.980	    15.415	    71.051	    22.066
-20032.590	    15.408	    78.032	     2.551
-19885.201	    15.465	    70.835	    30.737
-19883.920	    15.507	    53.700	    36.595
-19900.420	    15.486	    65.872	    28.703
-20055.014	    15.444	    63.513	    27.823
-19993.826	    15.320	    72.553	    27.439
-19802.029	    15.383	    78.625	    26.834
-19561.434	    15.528	    67.700	    44.026
-19960.260	    15.637	    70.531	    40.816
-19796.611	    15.757	    70.671	    31.607
-19924.008	    15.670	    60.782	    43.905
-20006.748	    15.506	    61.381	    63.454
-20066.229	    15.386	    82.270	    20.037
-20061.309	    15.319	    64.882	    27.831
-20003.771	    15.343	    54.299	    30.357
-19940.918	    15.427	    61.782	    29.302
-20089.939	    15.526	    84.360	    46.327
-19808.480	    15.528	    68.279	    47.343
-19987.146	    15.428	    71.213	    32.126
-20034.963	    15.299	    72.126	    39.056
-20080.617	    15.331	    60.188	    29.381
-20011.238	    15.371	    59.573	    28.914
-19947.244	    15.435	    66.187	    28.337
-19861.211	    15.575	    57.534	    35.452
-19824.289	    15.685	    52.134	    33.882
-19785.084	    15.498	    55.732	    32.706
-20163.178	    15.289	    60.596	    28.279
-20078.277	    15.202	    78.573	    31.735
-20027.746	    15.434	    71.560	    19.131
-19870.613	    15.822	    70.696	    21.101
-19705.455	    15.990	    54.342	    37.392
-19688.027	    15.824	    70.299	    48.716
-19910.125	    15.537	    62.919	    40.465
-20034.777	    15.305	    70.591	    24.486
-19746.982	    15.376	    63.901	    15.533
-19934.859	    15.475	    66.573	    45.721
-19855.986	    15.557	    81.270	    42.809
-20000.061	    15.601	    56.965	    54.734
-19763.947	    15.532	    78.760	    38.059
-20069.514	    15.326	    65.757	    34.612
-20224.535	    15.239	    62.606	    32.892
-19882.848	    15.313	    69.587	    39.715
-20103.383	    15.472	    65.008	    35.479
-20073.660	    15.628	    64.362	    35.185
-19678.168	    15.725	    75.248	    39.607
-19844.602	    15.700	    60.578	    22.294
-19770.291	    15.709	    65.295	    27.165
-20149.697	    15.601	    68.696	    33.666
-19840.516	    15.381	    61.126	    42.546
-19814.082	    15.268	    69.287	    10.788
-19808.314	    15.194	    72.445	    30.767
-19972.482	    15.261	    73.741	    20.553
-19819.596	    15.378	    68.317	    51.156
-19789.922	    15.472	    58.777	    36.724
-19814.936	    15.617	    71.991	    45.168
-19862.945	    15.749	    63.363	    22.175
-20115.498	    15.776	    67.569	    15.686
-19788.512	    15.813	    63.609	    34.245
