-19880.783	    15.334	   -92.310	   122.143
-19970.596	    15.374	    55.860	    49.412
-20169.293	    15.423	    60.397	    67.545
-20223.854	    15.532	    61.769	    69.779
-20276.672	    15.588	    67.561	    28.842
-20133.748	    15.610	    65.519	    49.707
-20283.904	    15.536	    60.547	    68.021
-20225.066	    15.410	    57.240	    33.243
-20346.615	    15.318	    63.057	    39.105
-20254.797	    15.331	    57.252	    62.338
-20187.012	    15.415	    63.971	    46.485
-20078.783	    15.497	    66.527	    30.762
-20220.000	    15.375	    50.466	    45.105
-20360.350	    15.191	    45.717	    47.455
-20164.602	    15.178	    47.459	    58.843
-20311.209	    15.289	    36.933	    49.764
-20211.068	    15.439	    52.702	    53.967
-19999.213	    15.488	    59.092	    63.668
-20297.926	    15.467	    46.107	    47.369
-20103.199	    15.383	    36.748	    66.886
-20156.537	    15.353	    51.859	    50.632
-20390.799	    15.384	    58.480	    77.084
-20029.920	    15.491	    53.897	    74.424
-20117.930	    15.489	    55.211	    66.014
-19920.244	    15.520	    54.469	    56.249
-20163.541	    15.449	    55.807	    58.718
-20080.959	    15.328	    64.186	    55.301
-19954.727	    15.402	    50.856	    64.832
-20054.061	    15.591	    55.159	    50.108
-20010.439	    15.555	    54.287	    57.409
-20303.367	    15.408	    57.376	    48.914
-19936.582	    15.387	    52.228	    54.027
-20326.738	    15.383	    64.563	    45.262
-20520.521	    15.360	    56.401	    46.846
-20319.068	    15.396	    55.815	    43.683
-20387.516	    15.571	    48.733	    43.335
-20253.689	    15.668	    71.513	    68.518
-20271.961	    15.636	    56.814	    59.962
-20205.107	    15.656	    39.241	    43.542
-20339.404	    15.542	    55.605	    38.547
-20241.777	    15.354	    61.372	    53.340
-20485.297	    15.190	    59.059	    47.003
-20338.586	    15.250	    61.910	    44.547
-20278.762	    15.499	    51.928	    52.380
-20170.104	    15.716	    54.166	    64.360
-20127.486	    15.800	    44.771	    66.878
-20414.639	    15.730	    55.812	    72.589
-20023.590	    15.572	    58.020	    37.683
-20169.301	    15.380	    52.039	    30.887
-20236.684	    15.324	    56.440	    64.294
-20127.943	    15.407	    60.864	    75.124
-20111.783	    15.470	    57.395	    35.432
-20154.049	    15.508	    57.826	    57.501
-20464.660	    15.423	    57.805	    34.669
-20172.875	    15.440	    44.553	    53.700
-20055.877	    15.516	    59.928	    32.526
-19970.551	    15.581	    48.130	    59.894
-20140.961	    15.546	    67.932	    50.224
-19982.213	    15.441	    51.250	    49.507
-20410.062	    15.383	    53.063	    60.375
-20354.697	    15.352	    59.326	    37.722
-20283.074	    15.393	    58.865	    55.373
-20202.855	    15.349	    68.043	    59.752
-20418.910	    15.364	    69.492	    61.072
-20295.369	    15.508	    49.814	    65.660
-20040.324	    15.633	    51.480	    51.867
-19993.443	    15.605	    61.708	    55.623
-20235.916	    15.403	    63.314	    42.641
-20263.930	    15.362	    43.997	    61.565
-20143.318	    15.390	    52.788	    36.835
-20087.168	    15.438	    52.972	    63.174
-20419.352	    15.541	    54.004	    58.601
-20333.301	    15.660	    47.849	    39.014
-20141.145	    15.763	    54.264	    47.115
-20227.508	    15.816	    50.033	    54.710
-20228.129	    15.893	    56.409	    53.724
-19844.992	    15.945	    56.785	    46.336
-20100.117	    15.772	    61.396	    75.808
-20033.283	    15.548	    64.578	    59.705
-20390.230	    15.373	    55.433	    97.593
-20318.484	    15.296	    52.967	    68.796
-20210.252	    15.258	    55.981	    52.835
-20071.145	    15.363	    61.382	    64.328
-19879.918	    15.481	    62.335	    50.671
-20317.012	    15.420	    58.277	    41.214
-20285.742	    15.330	    43.396	    54.594
-20342.305	    15.242	    58.057	    39.625
-20594.369	    15.098	    56.926	    51.507
-20331.561	    15.006	    44.827	    85.607
-20262.121	    15.187	    59.660	    77.333
-20116.777	    15.535	    58.443	    71.096
-19970.561	    15.769	    71.437	    57.402
-19617.420	    15.817	    53.345	    52.020
-20050.947	    15.578	    60.114	    55.274
-20111.746	    15.383	    46.316	    83.249
-20129.602	    15.278	    53.103	    60.400
-19993.564	    15.145	    49.013	    65.824
-20365.975	    15.160	    58.853	    47.480
-20551.459	    15.234	    56.846	    56.985
-20468.477	    15.359	    46.514	    58.852
-20104.059	    15.538	    59.896	    52.053
-20131.773	    15.631	    54.414	    57.252
-20188.699	    15.599	    58.486	    38.305
-20163.635	    15.492	    52.078	    62.113
-20301.525	    15.451	    54.581	    64.290
-20284.346	    15.510	    62.472	    68.240
-19981.463	    15.569	    50.140	    82.183
-20356.783	    15.564	    69.070	    57.669
-19885.291	    15.546	    58.345	    47.599
-19924.092	    15.419	    51.114	    69.953
-20173.061	    15.369	    55.942	    66.281
-19978.939	    15.313	    54.153	    57.232
-20182.162	    15.312	    48.614	    63.610
-20446.568	    15.417	    49.851	    42.476
-20096.521	    15.538	    55.638	    40.248
-20119.684	    15.565	    50.103	    50.428
-20217.494	    15.485	    49.900	    51.437
-19992.080	    15.279	    58.602	    54.226
-20292.453	    15.289	    57.638	    51.291
-19968.949	    15.523	    55.130	    47.819
-20044.391	    15.719	    47.676	    72.167
-20033.557	    15.779	    50.942	    49.365
-20124.000	    15.717	    54.511	    45.480
-20419.580	    15.541	    50.229	    49.115
-19870.256	    15.385	    64.455	    71.892
-20149.359	    15.348	    62.326	    29.770
-20252.523	    15.476	    38.686	    79.206
-20113.994	    15.520	    53.754	    58.209
-20473.756	    15.440	    57.667	    62.723
-20193.422	    15.360	    71.818	    62.473
-20103.416	    15.278	    44.982	    65.377
-20270.387	    15.377	    66.584	    58.809
-20098.135	    15.604	    59.558	    63.917
-19814.920	    15.761	    47.147	    72.087
-20351.148	    15.654	    48.136	    57.930
-20148.146	    15.389	    36.617	    70.654
-20074.752	    15.161	    49.431	    60.550
-20404.195	    15.082	    50.696	    47.034
-20433.172	    15.070	    45.028	    71.724
-20385.631	    15.258	    57.358	    70.041
-20357.838	    15.378	    61.077	   100.717
-20142.277	    15.471	    52.586	    94.372
-19924.361	    15.558	    69.051	    88.590
-20134.012	    15.547	    71.382	    42.991
-20265.828	    15.577	    43.959	    54.409
-20102.775	    15.679	    46.099	    49.236
-20005.729	    15.760	    60.744	    53.454
-19976.439	    15.743	    58.055	    71.522
-20189.488	    15.603	    53.071	    71.921
-20166.480	    15.456	    51.303	    51.283
-20182.338	    15.306	    59.286	    45.091
-20510.338	    15.126	    50.662	    87.270
-20379.205	    15.090	    63.875	    78.611
-20323.541	    15.277	    60.308	    64.748
-20388.508	    15.565	    47.003	    50.432
-20120.863	    15.661	    50.985	    53.549
-20089.070	    15.656	    54.888	    69.666
-20204.770	    15.576	    41.804	    62.800
-20270.510	    15.462	    60.789	    58.699
-20367.994	    15.461	    49.512	    68.670
-20030.566	    15.524	    48.599	    75.655
-19947.988	    15.493	    50.299	    67.009
-20245.869	    15.338	    63.290	    40.679
-20268.758	    15.192	    68.997	    43.793
-20159.723	    15.209	    44.080	    40.937
-20145.510	    15.324	    45.028	    41.294
-20159.469	    15.367	    50.843	    63.595
-20055.342	    15.354	    62.028	    35.022
-20117.934	    15.335	    58.366	    60.811
-19952.359	    15.360	    49.932	    51.577
-20124.750	    15.472	    67.674	    45.672
-19784.740	    15.599	    46.280	    62.872
-19975.797	    15.606	    58.788	    55.265
-20265.605	    15.519	    54.259	    75.203
-20385.082	    15.341	    46.418	    38.768
-20377.123	    15.189	    53.883	    49.390
-20531.305	    15.098	    51.637	    66.936
-20553.047	    15.099	    61.886	    67.147
-20159.945	    15.238	    57.694	    83.074
-20250.684	    15.427	    53.710	    46.998
-20230.049	    15.581	    52.172	    46.289
-20132.988	    15.606	    51.775	    45.708
-20013.781	    15.580	    55.443	    41.525
-20201.547	    15.633	    44.972	    54.572
-20090.459	    15.599	    50.537	    61.824
-20162.955	    15.439	    63.238	    51.749
-20093.672	    15.292	    58.077	    30.507
-20158.105	    15.207	    45.974	    45.975
-20232.770	    15.192	    61.945	    85.766
-20214.982	    15.291	    58.200	    62.005
-20356.588	    15.454	    57.811	    68.513
-20030.932	    15.633	    60.207	    47.862
-20203.195	    15.699	    61.727	    63.832
-20090.725	    15.572	    57.551	    43.933
-20424.619	    15.397	    55.938	    59.806
-20228.242	    15.395	    57.044	    51.208
-20331.158	    15.449	    59.883	    21.999
-20026.900	    15.486	    57.985	    61.607
-20229.469	    15.446	    57.114	    32.352
-20157.832	    15.406	    58.870	    49.596
-20181.387	    15.593	    47.982	    53.112
-19971.240	    15.705	    64.292	    59.266
-20272.033	    15.742	    61.615	    61.882
-20373.875	    15.542	    61.529	    41.906
-20238.166	    15.422	    54.833	    46.878
-20165.447	    15.388	    62.044	    47.821
-20034.287	    15.410	    63.538	    63.942
-20001.980	    15.377	    56.945	    73.128
-20409.734	    15.302	    57.576	    53.742
-20207.502	    15.211	    70.471	    38.320
-20095.854	    15.254	    48.769	    48.549
-20289.016	    15.292	    64.720	    63.021
-19965.299	    15.463	    48.141	    77.537
-20154.848	    15.521	    55.597	    39.967
-20208.354	    15.478	    62.023	    52.808
-20196.686	    15.352	    56.810	    50.293
-20381.002	    15.130	    46.890	    43.829
-20295.072	    15.056	    50.293	    35.779
-20174.102	    15.177	    50.146	    47.357
-20160.881	    15.171	    36.978	    47.597
-20538.508	    15.271	    51.805	    63.362
-20207.504	    15.454	    44.562	    58.301
-19949.504	    15.492	    38.273	    63.194
-20027.645	    15.444	    66.633	    48.529
-20306.211	    15.361	    66.116	    76.467
-20438.203	    15.192	    52.053	    63.272
-20152.703	    15.080	    60.122	    62.098
-20166.082	    15.169	    67.332	    75.161
-20075.725	    15.461	    51.797	    50.879
-20056.203	    15.644	    61.605	    63.833
-20107.566	    15.574	    53.272	    48.005
-20261.744	    15.415	    56.441	    49.877
-20414.334	    15.140	    46.692	    54.785
-20243.789	    14.990	    44.702	    57.822
-20322.695	    15.076	    58.021	    60.186
-20362.621	    15.310	    63.809	    47.757
-20202.012	    15.629	    58.991	    50.278
-20010.064	    16.004	    50.197	    82.532
-20017.422	    16.040	    52.960	    64.241
-19722.107	    15.825	    59.354	    85.773
-20390.465	    15.465	    57.876	    95.049
-20431.785	    15.244	    58.822	    64.651
-20076.660	    15.190	    54.678	    41.992
-20431.156	    15.207	    43.270	    57.008
-20061.592	    15.376	    56.733	    31.452
-20142.160	    15.485	    52.940	    44.359
-20091.262	    15.476	    51.057	    40.595
-20297.301	    15.455	    54.108	    42.115
-19936.072	    15.377	    58.338	    61.522
-20273.770	    15.280	    63.049	    53.014
-20170.246	    15.290	    50.559	    45.891
-20404.381	    15.249	    57.956	    68.490
-20239.164	    15.143	    53.376	    73.034
-20238.285	    15.094	    53.857	    71.824
-20137.615	    15.264	    66.453	    60.219
-20161.426	    15.377	    49.345	    61.307
-20127.090	    15.215	    54.021	    43.694
-20209.719	    15.102	    54.869	    71.584
-20247.432	    15.162	    58.326	    45.243
-20315.314	    15.363	    49.655	    51.413
-20201.229	    15.607	    53.330	    48.264
-19823.299	    15.910	    48.433	    63.633
-20107.518	    15.885	    43.657	    30.321
-20361.674	    15.727	    58.247	    37.872
-20215.156	    15.644	    54.546	    37.115
-20112.623	    15.520	    53.667	    57.897
-20066.830	    15.364	    49.227	    74.252
-20109.221	    15.187	    62.551	    55.284
-20058.393	    15.113	    63.984	    62.232
-20196.883	    15.146	    67.903	    54.967
-20356.014	    15.274	    51.933	    44.588
-20180.367	    15.536	    63.228	    41.718
-19887.693	    15.808	    52.284	    42.952
-20106.064	    15.823	    66.659	    49.044
-20320.549	    15.589	    49.685	    61.167
-20612.029	    15.265	    54.602	    72.163
-20398.082	    15.000	    59.492	    50.360
-20389.807	    14.975	    51.339	    65.220
-20183.920	    15.074	    56.067	    51.207
-20367.752	    15.175	    68.040	    31.816
-20081.861	    15.380	    60.410	    43.281
-20266.133	    15.518	    54.773	    52.718
-20303.395	    15.517	    46.061	    49.451
-20137.854	    15.412	    60.323	    54.956
-20270.287	    15.338	    60.235	    52.236
-20202.639	    15.362	    57.423	    43.896
-20295.051	    15.450	    48.508	    43.484
-20108.602	    15.543	    65.882	    64.852
-20293.828	    15.449	    54.468	    89.590
-20144.977	    15.300	    44.625	    51.845
-20375.643	    15.254	    62.076	    51.507
-20344.227	    15.302	    45.096	    56.826
-19969.719	    15.454	    50.637	    44.423
-20163.041	    15.508	    54.222	    39.685
-20475.428	    15.494	    59.249	    37.236
-20203.197	    15.371	    54.446	    43.467
-20128.527	    15.241	    51.504	    54.784
-20282.719	    15.252	    53.739	    57.434
-20391.098	    15.390	    63.515	    57.418
-19918.361	    15.510	    64.563	    50.109
-20255.193	    15.621	    68.286	    72.517
-20221.852	    15.803	    66.148	    53.403
-20046.621	    15.848	    47.330	    54.809
-20256.877	    15.691	    56.470	    76.202
-20201.053	    15.519	    59.033	    49.048
-20143.922	    15.488	    65.989	    58.969
-20186.176	    15.487	    55.044	    58.586
-20103.738	    15.519	    63.501	    55.348
-20080.439	    15.574	    46.982	    49.900
-19959.010	    15.561	    61.506	    66.883
-20072.223	    15.298	    42.873	    68.085
-20245.834	    15.165	    57.243	    64.980
-20300.098	    15.213	    65.759	    47.445
-20344.863	    15.265	    45.089	    37.984
-20356.703	    15.284	    54.001	    45.165
-20607.979	    15.174	    56.389	    41.705
-20428.531	    15.130	    42.181	    43.862
-20070.135	    15.229	    52.621	    49.869
-20008.822	    15.345	    59.995	    39.722
-20256.012	    15.481	    74.141	    36.051
-20005.402	    15.569	    56.125	    53.311
-20243.248	    15.531	    56.291	    52.789
-20099.756	    15.444	    53.158	    46.493
-19949.100	    15.426	    44.104	    59.279
-20248.492	    15.377	    51.984	    67.169
-20133.912	    15.254	    54.982	    70.212
-20485.605	    15.140	    59.068	    74.724
-20318.988	    15.188	    63.542	    36.805
-20179.158	    15.404	    57.134	    57.662
-20229.221	    15.619	    64.094	    51.101
-20113.242	    15.825	    52.060	    67.028
-20251.895	    15.865	    54.732	    70.736
-19839.652	    15.745	    64.865	    63.534
-20344.373	    15.594	    58.725	    57.624
-20333.178	    15.390	    46.849	    63.343
-20323.865	    15.210	    58.198	    66.916
-20135.328	    15.278	    53.473	    86.319
-20251.639	    15.502	    62.547	    91.925
-20270.863	    15.628	    60.727	    83.485
-20046.443	    15.741	    56.253	    47.767
-20276.287	    15.765	    66.125	    60.441
-20162.865	    15.532	    49.202	    73.046
-20184.068	    15.254	    56.566	    52.316
-20153.084	    15.142	    60.777	    45.420
-20059.033	    15.096	    62.134	    56.636
-19950.596	    15.265	    63.442	    58.559
-20402.682	    15.455	    57.999	    74.278
-20109.777	    15.537	    59.923	    67.619
-20101.348	    15.662	    62.703	    58.844
-20165.312	    15.733	    61.906	    51.644
-20169.912	    15.667	    62.104	    44.891
-20196.680	    15.503	    45.456	    76.457
-20290.328	    15.393	    64.988	    82.151
-20305.391	    15.388	    51.880	    69.588
-20055.887	    15.477	    58.008	    71.377
-19948.254	    15.519	    60.595	    63.239
-19960.715	    15.553	    45.138	    63.085
-20176.473	    15.500	    58.921	    69.974
-20015.395	    15.486	    54.008	    50.006
-20021.322	    15.566	    61.625	    53.290
-19998.137	    15.574	    52.553	    55.351
-20297.439	    15.362	    57.083	    70.356
-20404.559	    15.116	    58.703	    44.856
-20481.080	    15.018	    53.405	    45.055
-20141.721	    15.178	    63.774	    56.906
-20142.613	    15.318	    59.413	    51.170
-20141.264	    15.467	    48.207	    70.192
-20100.615	    15.537	    47.672	    65.983
-20117.211	    15.544	    52.434	    75.500
-20126.268	    15.447	    59.755	    65.232
-20131.594	    15.269	    55.351	    78.240
-20229.012	    15.225	    62.729	    73.004
-20081.213	    15.199	    54.294	    57.547
-20371.322	    15.185	    64.391	    70.555
-20251.863	    15.284	    55.489	    61.740
-20176.459	    15.284	    51.753	    41.421
-20269.270	    15.264	    44.862	    29.375
-20382.205	    15.246	    51.308	    59.637
-20168.145	    15.305	    56.463	    41.346
-20232.006	    15.404	    62.936	    64.830
-20252.771	    15.526	    57.270	    40.061
-20022.709	    15.569	    44.545	    63.326
-20208.078	    15.352	    56.277	    45.525
-20474.406	    15.085	    44.893	    34.343
-20247.986	    15.015	    47.054	    39.393
-20208.912	    15.196	    40.868	    82.549
-19934.498	    15.528	    63.707	    81.533
-20070.521	    15.807	    61.148	    67.436
-20008.281	    15.849	    59.730	    56.448
-19924.299	    15.729	    76.528	    60.997
-20023.488	    15.445	    39.065	    70.884
-20070.754	    15.225	    52.125	    55.404
-20125.857	    15.269	    59.236	    55.372
-20096.865	    15.421	    55.001	    64.962
-20083.332	    15.528	    55.222	    58.889
-20260.490	    15.561	    53.040	    52.206
-20302.084	    15.633	    59.135	    59.391
-19978.166	    15.678	    67.058	    44.365
-19958.047	    15.687	    50.044	    80.838
-20104.342	    15.548	    55.874	    48.063
-20186.254	    15.459	    55.860	    57.893
-20108.357	    15.554	    51.292	    57.358
-20223.334	    15.670	    44.574	    42.118
-19984.131	    15.595	    53.324	    61.390
-20342.994	    15.423	    61.583	    52.489
-20418.602	    15.281	    48.772	    60.153
-20397.369	    15.324	    61.407	    54.936
-20210.352	    15.464	    48.049	    62.914
-20274.451	    15.429	    56.584	    57.039
-20059.680	    15.356	    56.326	    40.313
-20149.545	    15.197	    58.201	    52.980
-20106.584	    15.176	    68.686	    61.797
-20075.424	    15.275	    62.015	    49.144
-20192.877	    15.374	    47.946	    57.812
-19907.605	    15.451	    55.656	    75.485
-20008.869	    15.552	    50.879	    69.658
-20060.715	    15.649	    71.243	    60.847
-20037.707	    15.683	    54.741	    64.407
-20282.799	    15.678	    64.865	    58.620
-20274.322	    15.715	    62.010	    62.456
-20335.320	    15.611	    52.327	    33.575
-19989.264	    15.368	    59.787	    51.014
-20371.613	    15.151	    41.527	    48.257
-20264.875	    15.020	    58.216	    65.178
-20280.438	    15.006	    57.238	    57.261
-20034.268	    15.074	    68.735	    54.994
-20099.113	    15.255	    49.760	    46.538
-19890.654	    15.397	    67.710	    46.488
-20027.854	    15.463	    52.687	    53.718
-20105.830	    15.454	    56.016	    52.904
-20143.824	    15.497	    49.113	    54.893
-20151.973	    15.685	    54.416	    32.122
-20057.029	    15.764	    57.324	    72.624
-19817.090	    15.597	    44.862	    39.039
-20332.906	    15.297	    53.777	    38.002
-20123.797	    15.029	    55.438	    55.118
-20244.070	    15.147	    54.310	    65.820
-20063.930	    15.284	    54.516	    62.993
-20075.855	    15.315	    71.779	    54.630
-20011.311	    15.370	    53.377	    57.315
-20056.926	    15.481	    49.928	    43.347
-20187.748	    15.678	    51.357	    50.320
-19838.658	    15.768	    56.295	    53.224
-20284.051	    15.748	    62.389	    64.454
-20225.029	    15.573	    58.273	    42.178
-20037.020	    15.476	    56.171	    35.427
-20305.285	    15.568	    66.580	    38.963
-20104.062	    15.698	    55.579	    45.371
-20041.176	    15.848	    50.434	    62.595
-20343.086	    15.834	    59.361	    49.407
-20171.867	    15.705	    50.477	    49.893
-20162.762	    15.589	    58.858	    57.060
-20141.746	    15.509	    51.789	    52.407
-20202.811	    15.322	    56.936	    56.767
-20240.986	    15.116	    54.909	    47.533
-20195.322	    15.055	    58.669	    68.464
-20277.723	    15.157	    61.527	    78.718
-20142.801	    15.373	    64.045	    36.462
-20234.699	    15.557	    45.066	    32.868
-20096.584	    15.666	    39.723	    44.380
-19811.223	    15.608	    42.512	    73.046
-20171.617	    15.454	    55.384	    60.219
-20299.609	    15.373	    74.783	    60.103
-20209.711	    15.363	    58.690	    45.428
-20515.441	    15.528	    72.361	    49.257
-19803.750	    15.753	    64.896	    47.517
-19984.182	    15.891	    65.643	    69.255
-19994.105	    15.791	    54.182	    34.148
-20270.238	    15.486	    42.970	    57.430
-20289.684	    15.261	    45.242	    61.160
-19998.061	    15.219	    59.766	    47.825
-19948.346	    15.205	    62.977	    43.729
-20286.328	    15.351	    62.661	    32.241
-20049.695	    15.493	    58.490	    57.194
-19930.705	    15.563	    58.461	    48.307
-20099.754	    15.582	    68.596	    61.393
-20227.492	    15.507	    51.103	    56.579
-19914.312	    15.545	    65.451	    68.932
-20245.139	    15.603	    57.835	    66.580
-20061.744	    15.616	    54.677	    65.795
-20141.979	    15.490	    52.712	    60.600
-20340.891	    15.392	    58.223	    64.116
-20139.812	    15.348	    65.871	    58.194
-20218.641	    15.391	    64.248	    79.661
-20238.008	    15.419	    49.344	    55.707
-19922.236	    15.505	    52.081	    59.027
-20087.619	    15.585	    59.209	    39.725
-20061.816	    15.612	    50.816	    53.554
-20006.262	    15.563	    51.324	    50.268
-19977.312	    15.430	    53.586	    62.109
-20306.943	    15.385	    59.697	    47.957
-20198.562	    15.402	    43.025	    57.901
-20120.170	    15.522	    59.140	    41.657
-20163.424	    15.712	    55.457	    62.210
-20162.557	    15.735	    47.224	    51.492
-20052.824	    15.671	    61.609	    37.546
-20318.363	    15.420	    66.058	    45.160
-20340.195	    15.286	    51.189	    62.934
-20315.619	    15.305	    53.984	    41.553
-20255.744	    15.390	    56.742	    63.831
-19930.580	    15.504	    57.923	    50.725
-20225.455	    15.521	    49.906	    48.499
-20183.768	    15.451	    66.335	    66.323
-20217.381	    15.312	    49.244	    54.814
-20093.783	    15.233	    62.946	    72.298
-20197.797	    15.268	    45.207	    42.558
-19998.096	    15.373	    55.444	    76.551
-20112.994	    15.506	    60.063	    69.850
-20283.590	    15.541	    53.513	    75.769
-20028.182	    15.572	    58.756	    36.297
-20327.406	    15.657	    52.510	    34.399
-19974.662	    15.650	    62.425	    67.558
-20199.092	    15.574	    55.421	    55.692
-20367.016	    15.441	    60.060	    56.017
-20397.486	    15.265	    51.279	    47.199
-20312.408	    15.292	    46.467	    59.065
-20322.787	    15.329	    57.421	    59.799
-20269.816	    15.388	    58.517	    43.540
-20152.756	    15.354	    66.847	    53.522
-20156.807	    15.302	    64.189	    56.474
-20085.527	    15.364	    49.872	    46.262
-20048.480	    15.439	    57.877	    58.640
-19915.545	    15.414	    62.933	    58.681
-20148.230	    15.424	    48.241	    63.552
-20184.500	    15.460	    48.324	    58.834
-20090.078	    15.319	    56.118	    77.597
-20244.010	    15.127	    56.811	    50.918
-20320.590	    15.093	    63.448	    59.723
-20446.477	    15.117	    47.858	    52.476
-20254.254	    15.339	    51.678	    43.211
-20059.459	    15.625	    67.624	    53.547
-20306.943	    15.716	    47.940	    54.957
-20173.770	    15.657	    57.979	    57.352
-20029.096	    15.464	    68.532	    44.878
-20128.775	    15.185	    60.230	    48.708
-20108.107	    15.043	    56.569	    60.380
-20314.807	    15.049	    34.204	    48.323
-20076.461	    15.208	    62.721	    30.776
-20492.068	    15.410	    72.397	    58.701
-20230.412	    15.577	    58.233	    52.469
-20203.771	    15.664	    57.648	    54.407
-19886.143	    15.708	    48.851	    52.285
-20218.650	    15.582	    54.811	    53.157
-20252.705	    15.399	    44.922	    76.431
-20523.088	    15.260	    52.886	    63.478
-20242.908	    15.455	    58.649	    53.048
-20140.039	    15.615	    57.107	    61.278
-20081.896	    15.658	    49.277	    63.485
-20218.859	    15.515	    56.301	    54.307
-20136.512	    15.250	    50.188	    52.976
-20476.916	    14.921	    59.893	    70.241
-20304.398	    14.752	    62.361	    46.937
-20228.988	    14.897	    59.311	    63.752
-20373.467	    15.203	    49.122	    46.906
-20205.881	    15.489	    61.399	    51.976
-20086.113	    15.644	    52.550	    52.646
-20272.812	    15.636	    45.323	    76.518
-20181.611	    15.554	    54.565	    78.845
-20300.148	    15.425	    52.488	    62.365
-20285.346	    15.358	    54.936	    54.282
-20555.822	    15.182	    53.912	    40.945
-20389.625	    15.080	    39.666	    64.335
-20206.611	    15.236	    65.070	    54.019
-19996.107	    15.403	    61.475	    32.383
-19930.156	    15.736	    44.366	    53.396
-19869.236	    16.038	    78.695	    60.012
-19620.973	    16.129	    53.034	    40.438
-19761.113	    15.974	    48.110	    66.751
-19895.320	    15.604	    60.871	    60.258
-20230.699	    15.083	    60.661	    49.750
-20148.070	    14.729	    56.361	    53.042
-20103.779	    14.817	    63.043	    66.580
-20127.977	    15.143	    56.084	    41.538
-20164.586	    15.387	    54.145	    61.874
-20488.617	    15.474	    35.905	    54.341
-20208.465	    15.437	    61.749	    45.398
-20409.170	    15.347	    45.593	    57.872
-20291.848	    15.317	    50.852	    60.485
-20291.646	    15.329	    53.948	    60.506
-20476.648	    15.440	    44.939	    46.695
-20106.814	    15.582	    49.072	    68.688
-20198.338	    15.694	    53.874	    46.200
-20122.783	    15.602	    62.288	    45.949
-20342.297	    15.425	    53.492	    49.190
-20093.070	    15.314	    55.009	    66.001
-20109.115	    15.340	    63.574	    41.613
-20299.658	    15.457	    57.659	    47.904
-20297.008	    15.580	    57.420	    44.445
-20292.219	    15.499	    50.881	    34.226
-20474.020	    15.241	    60.850	    51.231
-20537.137	    14.985	    53.942	    41.188
-20204.504	    14.956	    57.573	    45.528
-20384.936	    15.177	    60.909	    43.215
-20224.484	    15.527	    62.053	    40.945
-20015.838	    15.742	    52.255	    41.867
-20259.623	    15.746	    51.916	    63.409
-20364.854	    15.712	    52.765	    54.855
-20010.578	    15.635	    56.189	    60.337
-19895.514	    15.377	    65.103	    43.494
-20193.248	    15.181	    57.186	    60.310
-20428.121	    15.111	    59.502	    49.922
-20187.752	    15.172	    58.591	    51.087
-20125.340	    15.292	    58.111	    72.773
-20101.971	    15.379	    56.923	    58.560
-20228.443	    15.421	    61.227	    63.967
-20235.355	    15.465	    49.971	    58.848
-20068.078	    15.456	    58.026	    49.866
-20283.775	    15.426	    47.925	    36.581
-20254.129	    15.422	    65.697	    35.417
-20329.299	    15.299	    63.531	    49.027
-20404.797	    15.141	    46.943	    49.441
-20426.162	    15.144	    56.738	    65.112
-20207.195	    15.339	    58.210	    60.973
-20088.738	    15.666	    47.266	    65.183
-19935.664	    15.833	    56.965	    55.178
-20152.332	    15.677	    57.758	    42.967
-19962.508	    15.383	    57.263	    60.320
-20247.947	    15.112	    61.733	    67.780
-20485.156	    15.061	    66.252	    53.061
-19933.020	    15.160	    56.796	    53.046
-20261.246	    15.322	    52.698	    39.578
-20268.762	    15.312	    49.875	    54.893
-19963.730	    15.252	    43.601	    35.990
-20129.035	    15.200	    50.940	    49.288
-20381.662	    15.347	    57.602	    36.431
-20121.865	    15.549	    53.632	    53.188
-20320.311	    15.653	    53.921	    43.145
-20078.377	    15.619	    62.806	    37.846
-20232.191	    15.651	    55.774	    56.535
-19984.324	    15.711	    54.477	    66.832
-19878.559	    15.683	    47.124	    61.380
-19976.332	    15.586	    66.047	    59.554
-20047.297	    15.507	    54.143	    62.178
-20117.904	    15.514	    60.259	    77.317
-20042.449	    15.594	    51.499	    67.810
-20010.900	    15.645	    47.260	    64.086
-20032.238	    15.725	    47.387	    64.905
-20077.584	    15.800	    66.684	    51.218
-19984.109	    15.780	    57.319	    43.905
-20022.225	    15.791	    50.466	    47.293
-19939.777	    15.779	    66.081	    58.901
-20169.926	    15.643	    61.749	    72.956
-19956.434	    15.513	    65.798	    57.608
-20066.859	    15.453	    65.824	    46.584
-20416.486	    15.389	    67.197	    72.815
-20019.941	    15.374	    61.904	    70.953
-20278.766	    15.476	    49.556	    38.018
-20215.068	    15.509	    52.852	    81.233
-20205.428	    15.516	    51.124	    58.366
-20063.938	    15.484	    61.063	    67.041
-20221.867	    15.459	    50.590	    50.950
-19716.217	    15.450	    59.916	    67.373
-20185.641	    15.477	    51.409	    60.390
-20281.178	    15.514	    59.085	    49.866
-20244.611	    15.536	    63.844	    57.013
-20146.617	    15.478	    48.946	    51.565
-20291.625	    15.481	    69.761	    70.043
-20082.346	    15.460	    42.183	    57.963
-20145.344	    15.255	    49.686	    58.483
-20359.492	    15.171	    43.125	    54.205
-20496.914	    15.276	    59.574	    55.126
-20378.990	    15.283	    72.131	    55.552
-20399.092	    15.335	    52.213	    64.296
-20380.645	    15.399	    41.672	    57.477
-20362.291	    15.437	    59.450	    50.612
-19922.463	    15.546	    60.948	    54.218
-20144.277	    15.601	    49.807	    56.392
-20183.305	    15.515	    52.304	    61.134
-20190.883	    15.369	    56.814	    50.651
-20318.662	    15.318	    57.211	    55.339
-20060.660	    15.357	    56.446	    71.934
-20199.945	    15.341	    55.162	    40.433
-20279.617	    15.266	    69.638	    38.067
-20234.445	    15.267	    44.719	    47.241
-20288.676	    15.297	    48.669	    62.666
-20122.938	    15.280	    58.886	    38.196
-20340.201	    15.226	    54.300	    51.183
-20148.994	    15.210	    60.651	    49.363
-20135.438	    15.167	    56.062	    65.917
-20362.254	    15.186	    56.259	    63.025
-20259.254	    15.253	    57.620	    63.446
-20094.545	    15.238	    56.862	    47.773
-20138.096	    15.261	    55.164	    61.757
-20204.408	    15.514	    46.921	    50.538
-20015.102	    15.616	    50.923	    66.769
-19901.742	    15.514	    61.881	    58.314
-20316.783	    15.371	    59.427	    57.759
-20232.932	    15.313	    50.546	    55.068
-20406.191	    15.418	    50.216	    64.011
-20236.684	    15.519	    64.232	    52.933
-20114.916	    15.636	    55.712	    60.746
-20134.195	    15.688	    46.491	    72.727
-20071.764	    15.574	    55.706	    62.888
-20062.986	    15.438	    51.953	    67.082
-20088.895	    15.382	    66.345	    69.278
-20289.801	    15.320	    62.741	    67.104
-20269.990	    15.285	    44.288	    55.587
-20016.146	    15.430	    56.017	    67.661
-20413.516	    15.540	    45.741	    64.630
-20311.574	    15.661	    63.235	    72.341
-19833.877	    15.778	    54.868	    53.832
-19941.350	    15.751	    49.089	    58.967
-20238.547	    15.600	    54.338	    66.363
-20102.871	    15.489	    46.769	    57.063
-20415.869	    15.427	    58.458	    52.922
-20311.982	    15.448	    54.608	    51.901
-20148.672	    15.489	    56.210	    51.978
-20156.939	    15.443	    58.468	    36.945
-20169.125	    15.334	    63.630	    43.688
-20332.701	    15.199	    45.768	    66.815
-20111.354	    15.266	    45.555	    59.556
-20153.246	    15.583	    41.735	    64.262
-20189.068	    15.839	    57.811	    51.111
-19912.662	    15.805	    50.542	    55.690
-19920.361	    15.536	    54.413	    49.119
-20024.496	    15.281	    45.101	    46.200
-20422.160	    15.174	    58.512	    46.841
-20100.994	    15.338	    43.523	    47.842
-20188.547	    15.594	    55.930	    40.550
-20087.818	    15.701	    58.557	    61.781
-20079.693	    15.696	    59.513	    62.325
-20175.230	    15.674	    60.860	    73.040
-20140.865	    15.635	    43.347	    56.323
-20179.469	    15.567	    46.536	    77.088
-20174.170	    15.551	    46.616	    61.868
-20008.234	    15.417	    51.924	    65.047
-20314.488	    15.326	    57.149	    44.177
-20230.916	    15.275	    57.348	    61.551
-20267.842	    15.249	    67.963	    57.982
-20229.521	    15.420	    48.494	    56.823
-20099.500	    15.618	    58.764	    41.774
-20224.963	    15.711	    41.262	    40.300
-20244.242	    15.729	    46.973	    43.639
-20030.855	    15.620	    46.260	    40.758
-19856.900	    15.573	    53.948	    49.007
-20165.994	    15.518	    62.248	    37.564
-19993.559	    15.558	    55.638	    53.041
-20082.740	    15.641	    52.535	    43.032
-19960.887	    15.646	    63.519	    57.488
-20054.736	    15.625	    62.221	    68.452
-20013.814	    15.575	    51.195	    54.369
-19997.051	    15.484	    58.040	    53.304
-20488.070	    15.373	    61.658	    43.693
-20249.312	    15.340	    53.042	    65.922
-20238.865	    15.230	    59.623	    64.119
-20393.213	    15.112	    50.014	    44.796
-20451.371	    15.032	    55.550	    48.281
-20234.682	    15.108	    48.505	    52.286
-20147.959	    15.202	    48.461	    53.428
-20127.816	    15.346	    61.383	    57.604
-20342.309	    15.597	    53.522	    60.115
-19765.891	    15.736	    57.126	    49.276
-20098.039	    15.614	    58.289	    55.506
-20194.293	    15.361	    52.988	    82.786
-20120.703	    15.207	    46.543	    70.184
-20241.711	    15.216	    43.162	    61.477
-20049.979	    15.363	    56.573	    66.535
-20185.891	    15.347	    44.149	    64.159
-20287.635	    15.349	    47.335	    53.181
-20319.088	    15.404	    52.082	    34.637
-20078.836	    15.472	    58.733	    27.360
-19791.660	    15.510	    57.565	    52.389
-20104.867	    15.444	    40.850	    77.931
-20236.254	    15.369	    57.643	    56.646
-20289.930	    15.335	    51.575	    52.501
-20076.078	    15.315	    66.190	    65.238
-20051.113	    15.406	    59.708	    69.285
-20148.574	    15.491	    55.897	    47.338
-20049.486	    15.382	    51.276	    56.077
-20124.742	    15.328	    66.247	    57.093
-20108.822	    15.384	    57.289	    58.149
-20068.619	    15.331	    56.885	    55.550
-20233.770	    15.172	    65.543	    52.425
-20316.461	    15.096	    57.165	    45.904
-20415.660	    15.281	    58.023	    51.792
-20182.891	    15.631	    49.230	    45.664
-19829.742	    15.804	    54.834	    45.650
-19930.129	    15.722	    54.937	    53.180
-20666.631	    15.530	    50.693	    63.079
-20142.072	    15.424	    57.128	    49.577
-20167.318	    15.473	    58.483	    55.881
-20005.697	    15.434	    42.052	    38.557
-20211.584	    15.296	    58.143	    57.530
-20171.336	    15.274	    48.780	    47.722
-20189.707	    15.336	    46.742	    44.207
-20164.072	    15.424	    58.671	    50.589
-20138.623	    15.528	    50.079	    65.437
-20049.771	    15.573	    56.039	    48.698
-20309.105	    15.488	    58.236	    43.902
-20130.047	    15.393	    66.803	    52.182
-20259.643	    15.409	    60.554	    51.642
-20075.031	    15.464	    48.492	    59.154
-20090.248	    15.505	    61.440	    61.147
-20262.557	    15.646	    50.438	    61.933
-20246.064	    15.550	    58.481	    68.869
-20218.178	    15.378	    52.895	    56.795
-20273.914	    15.101	    58.260	    56.687
-20559.572	    14.993	    60.842	    64.814
-20212.254	    15.213	    54.957	    48.037
-20239.939	    15.479	    78.229	    53.345
-20229.830	    15.708	    59.749	    56.541
-19993.447	    15.770	    55.226	    58.381
-20220.080	    15.783	    71.599	    58.262
-20169.598	    15.750	    52.218	    66.192
-20159.803	    15.584	    61.092	    49.383
-20113.607	    15.301	    61.466	    68.002
-20091.898	    15.046	    40.764	    52.063
-20140.053	    14.973	    46.741	    74.435
-20249.023	    15.229	    56.991	    67.881
-20112.283	    15.443	    48.384	    70.462
-20221.439	    15.610	    51.280	    57.629
-20002.211	    15.641	    60.133	    60.181
-20497.102	    15.577	    65.762	    54.052
-19974.566	    15.547	    67.294	    58.020
-20134.428	    15.438	    57.284	    76.705
-20286.182	    15.215	    57.914	    61.501
-20088.711	    15.080	    62.250	    51.616
-20472.367	    15.091	    52.199	    53.575
-20288.980	    15.235	    55.164	    62.293
-20119.137	    15.429	    55.422	    66.873
-20128.143	    15.517	    63.991	    36.546
-20051.264	    15.534	    60.257	    44.578
-20238.941	    15.445	    63.495	    49.496
-20247.469	    15.333	    50.441	    31.553
-20186.352	    15.383	    61.748	    54.003
-20232.777	    15.428	    52.414	    79.822
-20069.023	    15.476	    52.373	    70.216
-20168.244	    15.405	    35.273	    62.407
-20240.377	    15.301	    51.940	    56.249
-20185.719	    15.271	    40.855	    62.922
-20084.004	    15.277	    55.224	    40.196
-19950.584	    15.324	    62.257	    54.272
-19998.475	    15.544	    54.303	    53.135
-20029.832	    15.711	    64.051	    77.063
-19926.166	    15.712	    60.071	    43.001
-19926.039	    15.518	    43.216	    48.880
-20183.975	    15.321	    50.822	    64.048
-20305.059	    15.251	    53.906	    59.867
-20002.234	    15.382	    63.195	    47.290
-20073.832	    15.695	    58.873	    71.565
-20033.092	    15.816	    52.094	    72.920
-20157.795	    15.614	    63.123	    72.333
-20157.203	    15.335	    53.167	    71.151
-20307.137	    15.168	    42.962	    57.885
-20621.463	    15.136	    50.559	    55.934
-20350.846	    15.093	    63.972	    50.651
-20146.453	    15.133	    52.917	    51.538
-20308.277	    15.270	    42.842	    60.428
-20135.395	    15.290	    56.169	    71.003
-20204.717	    15.373	    68.984	    77.567
-20119.883	    15.518	    60.790	    47.622
-20106.553	    15.577	    56.512	    57.601
-20278.646	    15.565	    60.018	    43.770
-20171.357	    15.507	    46.053	    58.757
-19989.387	    15.358	    52.816	    33.704
-20383.695	    15.236	    62.518	    47.378
-20155.854	    15.242	    58.299	    46.727
-20168.477	    15.376	    49.507	    61.755
-20397.836	    15.470	    51.549	    59.232
-20236.211	    15.675	    59.190	    56.642
-19961.922	    15.884	    53.439	    40.476
-19753.523	    15.853	    56.879	    41.514
-19944.805	    15.588	    55.083	    28.734
-20232.199	    15.256	    35.611	    64.335
-20403.098	    15.113	    46.944	    66.347
-20520.951	    15.207	    60.691	    58.653
-20106.646	    15.428	    51.126	    66.455
-20181.502	    15.566	    55.449	    67.244
-20241.869	    15.604	    68.136	    61.359
-20306.611	    15.608	    55.449	    62.159
-20430.449	    15.527	    43.806	    41.693
-20274.125	    15.456	    47.184	    70.471
-20048.223	    15.418	    41.226	    80.507
-20201.365	    15.396	    63.242	    61.768
-20370.439	    15.378	    50.044	    55.534
-20458.059	    15.356	    44.835	    51.743
-20263.051	    15.401	    61.959	    67.056
-20125.449	    15.396	    44.868	    62.780
-20012.303	    15.376	    63.726	    59.286
-20059.965	    15.295	    61.435	    46.149
-20027.307	    15.381	    55.136	    71.882
-20110.824	    15.468	    53.393	    59.321
-20130.180	    15.391	    54.253	    47.886
-20438.436	    15.206	    51.456	    67.112
-20347.928	    15.143	    58.154	    48.481
-20298.523	    15.286	    55.239	    62.938
-20107.533	    15.454	    61.507	    40.590
-20371.135	    15.384	    47.957	    73.768
-20361.250	    15.338	    56.940	    45.768
-20090.168	    15.418	    48.533	    52.216
-20056.766	    15.430	    59.827	    51.015
-20504.234	    15.427	    44.580	    50.534
-20134.344	    15.549	    56.382	    40.426
-20043.748	    15.723	    48.107	    67.592
-20069.850	    15.778	    57.538	    60.131
-20083.488	    15.636	    61.882	    59.197
-20324.465	    15.452	    64.944	    61.461
-20191.914	    15.302	    61.327	    60.186
-20182.871	    15.249	    55.699	    61.747
-20078.449	    15.320	    58.330	    45.714
-20142.479	    15.385	    62.344	    80.073
-20090.006	    15.341	    48.153	    58.256
-20011.170	    15.234	    50.770	    58.924
-20318.926	    15.104	    65.637	    51.836
-20510.264	    15.084	    61.521	    64.135
-20235.818	    15.201	    53.723	    67.500
-20131.463	    15.339	    61.179	    73.768
-20117.352	    15.541	    65.679	    70.263
-20112.592	    15.578	    58.473	    72.721
-20351.340	    15.541	    62.882	    70.189
-19970.775	    15.530	    55.026	    54.115
-20347.387	    15.442	    44.136	    78.353
-20385.789	    15.368	    52.971	    43.715
-19951.980	    15.331	    56.338	    73.819
-19952.812	    15.442	    48.177	    73.256
-20509.814	    15.454	    61.613	    63.910
-20195.670	    15.412	    61.250	    43.954
-20074.549	    15.502	    49.472	    64.705
-20044.117	    15.616	    54.681	    72.029
-20283.602	    15.535	    54.417	    48.181
-20125.008	    15.522	    49.894	    46.120
-20333.256	    15.366	    64.986	    46.469
-20312.369	    15.211	    50.143	    33.584
-20344.949	    15.257	    56.564	    44.917
-20006.611	    15.383	    60.870	    27.189
-20108.859	    15.450	    61.352	    73.449
-20248.619	    15.459	    54.447	    71.452
-20176.451	    15.605	    56.473	    53.831
-20115.104	    15.760	    65.782	    44.559
-20145.186	    15.797	    50.072	    61.643
-20265.252	    15.571	    40.087	    61.504
-20353.301	    15.283	    52.160	    71.347
-20265.818	    15.260	    46.840	    65.845
-20141.605	    15.417	    55.610	    64.434
-20045.053	    15.597	    36.695	    60.676
-20399.758	    15.678	    51.711	    63.703
-20336.428	    15.597	    44.247	    55.847
-20334.131	    15.504	    68.832	    60.315
-19863.939	    15.520	    44.075	    72.009
-20215.408	    15.529	    64.001	    65.893
-20196.066	    15.437	    59.731	    55.644
-20013.619	    15.426	    57.135	    96.607
-20196.350	    15.349	    60.759	    81.568
-20154.338	    15.316	    49.026	    68.935
-20256.648	    15.440	    56.570	    73.302
-19936.547	    15.628	    63.349	    59.180
-20104.654	    15.732	    49.811	    87.526
-20217.771	    15.629	    55.339	    53.311
-20123.373	    15.551	    56.612	    73.770
-20236.779	    15.502	    53.324	    77.006
-20020.459	    15.401	    68.770	    59.778
-20377.129	    15.268	    61.330	    42.220
-20193.846	    15.338	    48.254	    39.869
-20445.662	    15.444	    36.937	    59.374
-20045.250	    15.557	    62.266	    59.953
-20228.107	    15.554	    47.840	    64.073
-20110.146	    15.481	    55.322	    46.583
-20100.025	    15.544	    48.288	    50.477
-20060.010	    15.520	    44.449	    50.359
-19961.053	    15.446	    57.428	    70.463
-20211.650	    15.364	    62.763	    56.453
-20262.676	    15.303	    58.005	    40.233
-20100.988	    15.358	    49.779	    51.122
-20208.232	    15.462	    74.431	    48.251
-20086.637	    15.551	    52.132	    66.820
-20286.229	    15.641	    45.963	    73.072
-20185.045	    15.746	    58.456	    38.683
-20177.434	    15.592	    55.014	    57.378
-20310.682	    15.285	    44.877	    58.060
-20549.471	    15.165	    58.573	    55.336
-20343.174	    15.270	    45.451	    64.157
-20229.684	    15.488	    51.888	    65.165
-20278.648	    15.707	    58.854	    33.254
-20270.373	    15.773	    48.626	    62.344
-19909.434	    15.653	    65.438	    60.116
-20206.707	    15.502	    63.932	    69.096
-20332.312	    15.417	    63.822	    56.166
-20126.770	    15.409	    73.940	    50.446
-20188.150	    15.514	    79.604	    60.037
-20272.988	    15.596	    57.217	    47.508
-20006.266	    15.660	    63.596	    65.162
-20279.705	    15.622	    73.517	    62.255
-20200.789	    15.538	    55.561	    86.015
-20072.148	    15.479	    52.536	    51.255
-20322.482	    15.343	    75.416	    47.369
-20496.395	    15.169	    39.311	    76.622
-20276.838	    15.200	    52.673	    73.197
-20198.512	    15.257	    55.801	    70.359
-20241.033	    15.347	    45.943	    68.675
-20251.873	    15.520	    64.251	    79.875
-20200.023	    15.630	    55.325	    59.556
-20090.742	    15.608	    48.733	    64.963
-20307.498	    15.498	    59.155	    82.311
-20176.301	    15.240	    65.246	    58.924
-20439.744	    15.075	    48.136	    65.452
-20055.930	    15.119	    62.134	    53.943
-20280.383	    15.361	    52.494	    67.693
-20229.043	    15.662	    54.943	    50.381
-20165.586	    15.752	    52.221	    50.916
-19960.332	    15.669	    60.071	    66.632
-20035.594	    15.440	    59.242	    74.903
