-19931.068	    15.334	   -92.310	   122.143
-19922.520	    15.415	  -134.893	    -7.222
-20000.561	    15.528	  -125.996	     0.922
-19928.047	    15.550	  -125.665	   -32.808
-20001.627	    15.625	  -140.955	   -23.217
-19944.256	    15.598	  -155.316	    -6.929
-19855.406	    15.439	  -142.650	   -26.537
-20074.602	    15.292	  -155.400	   -24.975
-20278.922	    15.310	  -153.531	   -41.946
-19720.355	    15.525	  -147.604	    -9.895
-19903.199	    15.801	  -145.914	   -21.960
-19671.570	    15.975	  -128.233	   -31.039
-19631.529	    16.000	  -145.947	   -21.589
-19839.885	    15.918	  -125.530	   -16.437
-19731.777	    15.733	  -130.223	   -11.726
-19767.090	    15.472	  -112.524	   -21.792
-19995.137	    15.418	  -142.468	    -9.389
-20396.830	    15.380	  -138.292	   -16.241
-20019.232	    15.309	  -152.965	   -40.934
-20105.162	    15.302	  -125.174	   -17.723
-19906.615	    15.529	  -139.845	   -23.193
-19979.994	    15.631	  -125.001	   -38.829
-19860.705	    15.688	  -137.012	   -10.813
-19722.334	    15.694	  -123.831	   -11.902
-19741.957	    15.578	  -130.879	   -18.128
-19709.801	    15.414	  -116.288	    -8.151
-20240.135	    15.291	  -135.931	   -22.646
-19789.041	    15.359	  -149.311	    -4.502
-19882.949	    15.576	  -140.025	   -10.863
-19725.857	    15.699	  -129.521	   -10.955
-20011.951	    15.559	  -127.176	   -21.964
-20053.598	    15.376	  -138.287	   -12.158
-19939.580	    15.401	  -142.031	    -6.979
-19822.156	    15.462	  -120.727	    -1.634
-20055.289	    15.344	  -123.962	   -30.877
-19995.307	    15.290	  -136.548	   -27.362
-20242.549	    15.345	  -129.709	    -8.878
-20089.547	    15.375	  -148.018	    -9.604
-19938.916	    15.401	  -139.275	   -24.012
-19998.643	    15.359	  -140.401	   -11.272
-19976.123	    15.313	  -138.706	   -19.411
-19695.559	    15.433	  -139.979	   -12.129
-19970.541	    15.587	  -140.328	   -19.368
-20046.512	    15.703	  -144.105	    -4.773
-19770.334	    15.748	  -119.886	   -18.591
-19630.623	    15.761	  -150.284	   -20.982
-19874.076	    15.655	  -127.861	   -12.853
-19769.076	    15.551	  -124.316	   -29.915
-19983.957	    15.549	  -140.100	    -9.374
-19900.291	    15.735	  -119.023	    -6.287
-19725.521	    15.977	  -130.605	     8.458
-19739.977	    16.101	  -128.213	    -9.617
-19767.920	    16.049	  -132.765	   -12.604
-19678.123	    15.665	  -134.037	   -28.920
-20155.850	    15.265	  -142.853	    -8.977
-20079.822	    15.130	  -132.768	   -19.200
-19872.570	    15.278	  -123.771	   -10.186
-19801.080	    15.509	  -126.071	   -14.913
-20081.662	    15.606	  -113.752	   -27.787
-19805.412	    15.719	  -153.767	    -1.135
-19730.400	    15.848	  -122.709	   -26.469
-19781.203	    15.875	  -121.957	   -34.189
-19999.828	    15.715	  -133.544	     0.225
-19871.658	    15.528	  -126.620	    11.882
-19728.984	    15.484	  -119.320	   -16.744
-20071.170	    15.464	  -127.778	    -5.205
-19954.025	    15.478	  -119.814	   -19.866
-19851.361	    15.574	  -125.878	   -17.233
-19800.662	    15.507	  -128.143	    -9.791
-19993.725	    15.323	  -138.087	   -12.158
-20029.840	    15.270	  -143.722	   -35.994
-19584.467	    15.252	  -128.960	   -26.860
-19952.346	    15.256	  -124.620	   -31.743
-20046.334	    15.363	  -126.892	    10.773
-19760.463	    15.565	  -119.121	    -8.019
-19793.725	    15.677	  -130.563	   -34.781
-19935.791	    15.686	  -135.698	   -39.049
-20239.531	    15.569	  -148.914	   -19.548
-19937.861	    15.465	  -120.175	   -18.381
-19975.775	    15.471	  -150.308	    -7.868
-20029.840	    15.466	  -147.477	   -14.606
-19921.021	    15.598	  -131.954	   -14.806
-19742.977	    15.755	  -136.926	   -23.888
-19903.668	    15.777	  -132.945	    -2.858
-19871.162	    15.558	  -117.242	   -19.657
-20057.693	    15.263	  -139.297	   -13.397
-20223.324	    15.000	  -115.313	   -29.907
-20065.203	    15.038	  -148.949	   -25.613
-19971.188	    15.390	  -142.430	   -12.364
-19935.377	    15.697	  -155.209	   -22.439
-19556.037	    15.959	  -130.232	    -3.378
-19752.746	    15.998	  -124.841	    -2.823
-19721.941	    15.996	  -129.715	   -18.219
-19636.791	    15.948	  -112.097	   -12.672
-19941.023	    15.761	  -100.439	   -10.445
-19751.084	    15.590	  -144.764	   -18.462
-19713.158	    15.346	  -145.976	   -21.608
-20174.258	    15.161	  -156.084	    -6.084
-20224.578	    15.167	  -122.694	    -2.274
-19786.828	    15.306	  -150.570	   -26.223
-19793.881	    15.507	  -144.277	   -17.189
-19720.432	    15.751	  -133.413	   -18.449
-19779.373	    15.804	  -114.544	   -17.134
-19891.414	    15.750	  -144.645	   -19.782
-20033.912	    15.759	  -126.973	   -20.417
-19885.684	    15.639	  -143.215	     2.069
-19824.527	    15.370	  -120.139	     6.431
-19978.850	    15.234	  -128.283	     1.143
-20209.182	    15.221	  -152.419	   -10.031
-19773.059	    15.273	  -141.443	   -23.026
-20021.533	    15.475	  -122.100	   -24.917
-19930.775	    15.635	  -142.285	   -26.945
-19944.912	    15.703	  -136.687	   -28.497
-19951.201	    15.819	  -131.294	   -21.598
-19898.775	    15.720	  -127.352	   -28.464
-19988.373	    15.527	  -132.790	   -18.512
-19844.836	    15.377	  -129.468	   -15.348
-19988.648	    15.376	  -135.895	    -3.280
-19783.074	    15.535	  -139.034	   -26.341
-19748.463	    15.678	  -135.430	   -20.917
-19791.080	    15.700	  -130.713	    -8.983
-20018.348	    15.653	  -117.069	     0.800
-19802.318	    15.676	  -150.227	   -13.106
-19690.324	    15.627	  -127.603	    -9.777
-19992.514	    15.506	  -145.506	   -13.681
-19904.512	    15.435	  -132.374	    -7.477
-19864.393	    15.287	  -134.848	   -17.931
-19977.393	    15.334	  -145.052	   -26.498
-20056.156	    15.633	  -124.756	     5.686
-19744.875	    15.987	  -129.236	   -11.244
-19861.023	    16.018	  -130.975	     3.502
-19872.152	    15.768	  -144.082	   -11.401
-20038.100	    15.468	  -127.107	   -21.535
-20018.902	    15.234	  -142.670	   -11.519
-19886.979	    15.266	  -137.767	   -31.078
-19813.627	    15.466	  -145.661	   -12.213
-19633.295	    15.668	  -150.925	   -45.592
-19809.164	    15.759	  -134.438	   -12.646
-19760.424	    15.795	  -157.090	   -16.661
-19774.602	    15.825	  -147.532	   -23.062
-19953.518	    15.742	  -151.802	   -20.383
-19893.670	    15.679	  -125.024	    -1.096
-19945.340	    15.598	  -139.673	   -12.525
-19930.287	    15.469	  -161.227	     2.438
-19945.738	    15.337	  -142.637	    -4.289
-19861.492	    15.259	  -116.558	   -19.849
-20031.037	    15.202	  -137.387	   -20.131
-20037.523	    15.262	  -140.205	   -19.606
-19882.346	    15.331	  -146.437	    -8.154
-19956.834	    15.390	  -137.557	   -43.453
-19650.311	    15.472	  -134.741	   -11.093
-19550.402	    15.500	  -147.162	    -1.763
-19805.822	    15.567	  -110.744	    -9.513
-19941.123	    15.543	  -132.630	     5.087
-19917.814	    15.530	  -135.117	   -10.426
-20003.107	    15.621	  -145.491	    -0.038
-19739.479	    15.742	  -152.669	   -16.626
-19950.389	    15.662	  -144.899	    -2.327
-19891.695	    15.509	  -125.224	   -35.440
-19764.156	    15.360	  -135.844	    -3.610
-19900.988	    15.277	  -135.825	   -15.600
-19952.391	    15.259	  -158.227	   -19.303
-20086.336	    15.309	  -153.732	   -20.753
-19971.186	    15.376	  -122.004	    -6.253
-19871.318	    15.431	  -142.905	    -1.512
-19877.715	    15.550	  -154.322	   -11.490
-19602.193	    15.611	  -152.589	   -10.660
-19757.773	    15.760	  -131.286	    -9.039
-20182.262	    15.770	  -117.056	    -6.872
-20049.328	    15.586	  -133.564	   -11.960
-20105.449	    15.350	  -112.876	   -33.860
-19829.236	    15.236	  -144.516	    -2.478
-20084.156	    15.391	  -129.736	     3.381
-19811.371	    15.575	  -128.430	    -8.505
-19951.404	    15.610	  -141.212	   -22.211
-19706.049	    15.632	  -136.172	   -10.960
-19728.709	    15.678	  -144.637	   -36.388
-19736.127	    15.717	  -139.232	    -9.521
-19576.266	    15.630	  -135.690	   -19.368
-19800.777	    15.530	  -136.133	   -17.991
-19926.748	    15.355	  -132.356	    -7.965
-20222.773	    15.257	  -123.857	   -23.650
-19933.953	    15.299	  -103.543	    -4.382
-19912.529	    15.339	  -122.738	   -19.272
-19920.486	    15.430	  -121.057	    -9.682
-20026.922	    15.556	  -129.140	   -31.374
-19843.482	    15.656	  -133.964	   -17.825
-19955.508	    15.683	  -138.967	   -30.067
-20014.074	    15.599	  -153.808	   -26.544
-19811.699	    15.492	  -148.973	    -9.097
-19768.219	    15.338	  -146.232	   -31.268
-20209.369	    15.314	  -126.945	   -20.287
-19945.514	    15.338	  -127.685	   -25.600
-19608.998	    15.503	  -142.038	   -21.787
-19796.303	    15.685	  -150.570	    -4.236
-20074.148	    15.878	  -141.040	    18.932
-19757.307	    15.991	  -127.379	    -8.312
-19852.641	    15.992	  -157.136	    -2.931
-19850.326	    15.819	  -147.590	   -31.994
-19903.516	    15.590	  -128.311	   -16.238
-19847.082	    15.507	  -134.626	    -2.608
-19926.928	    15.512	  -130.836	   -20.691
-20053.738	    15.479	  -121.551	   -23.723
-19754.203	    15.551	  -132.577	   -25.580
-19752.162	    15.648	  -120.954	   -23.711
-20029.783	    15.584	  -121.862	    -4.721
-19776.139	    15.548	  -141.733	   -22.091
-20096.898	    15.492	  -133.409	   -17.618
-20363.875	    15.493	  -141.905	   -14.873
-20063.520	    15.539	  -138.947	   -16.129
-20040.424	    15.531	  -143.356	    -1.244
-20051.578	    15.532	  -126.762	   -19.482
-19885.777	    15.579	  -146.901	   -10.882
-19949.580	    15.630	  -152.353	   -15.861
-19732.057	    15.704	  -136.872	    -6.051
-19928.477	    15.664	  -137.807	     5.793
-20027.695	    15.473	  -132.724	   -24.687
-19981.771	    15.313	  -136.023	   -36.660
-20178.396	    15.201	  -142.367	   -28.059
-19893.637	    15.257	  -153.244	   -41.143
-20002.459	    15.446	  -136.134	   -24.453
-19703.627	    15.670	  -116.525	     4.767
-19680.330	    15.733	  -141.402	   -11.437
-19811.449	    15.645	  -124.831	   -30.037
-19849.711	    15.451	  -148.519	   -28.639
-20130.576	    15.362	  -136.069	     6.033
-20001.482	    15.493	  -142.265	   -10.155
-19949.809	    15.635	  -116.313	   -16.557
-19856.402	    15.698	  -121.673	   -25.609
-19995.611	    15.605	  -145.602	     2.610
-19842.021	    15.506	  -123.546	   -22.481
-19971.541	    15.515	  -139.275	    -8.804
-19887.270	    15.733	  -135.725	   -28.803
-19586.393	    15.983	  -146.382	   -12.805
-19729.990	    16.125	  -124.360	    -1.806
-19726.861	    16.108	  -114.834	   -17.831
-19696.775	    15.963	  -125.561	   -11.282
-19990.607	    15.784	  -141.436	    -1.921
-19886.984	    15.717	  -128.840	    -1.796
-19929.719	    15.761	  -105.849	   -10.836
-19841.922	    15.771	  -120.780	     1.155
-19706.568	    15.705	  -162.392	   -11.782
-19967.021	    15.583	  -126.938	    -3.653
-20044.068	    15.473	  -139.373	   -29.507
-19777.139	    15.369	  -134.246	   -15.900
-20074.613	    15.294	  -140.183	     6.444
-19876.592	    15.397	  -133.952	    10.734
-19893.842	    15.626	  -140.038	   -16.271
-19647.129	    15.882	  -116.196	   -12.656
-19905.637	    15.913	  -142.065	    -3.888
-19758.064	    15.791	  -137.269	   -13.210
-19586.955	    15.585	  -155.670	   -18.428
-19695.533	    15.495	  -151.455	   -18.079
-19744.746	    15.632	  -153.082	   -14.391
-19749.756	    15.864	  -139.901	    -2.560
-19842.320	    16.037	  -128.369	    -9.090
-19775.635	    15.975	  -130.437	   -21.792
-19988.273	    15.760	  -140.706	    -3.099
-19541.162	    15.544	  -131.733	   -26.370
-19955.660	    15.405	  -158.817	    -7.806
-19952.395	    15.336	  -156.495	   -18.681
-19955.582	    15.456	  -134.611	   -24.939
-19945.438	    15.644	  -139.645	    -4.504
-19757.535	    15.739	  -138.702	    -4.356
-19757.658	    15.752	  -144.443	   -16.231
-19863.355	    15.636	  -155.313	   -19.797
-19976.949	    15.503	  -156.331	   -25.264
-19840.623	    15.496	  -129.413	   -24.399
-20123.762	    15.516	  -141.970	   -11.288
-19900.502	    15.656	  -135.515	   -22.796
-19973.453	    15.714	  -153.812	    -7.977
-19863.455	    15.694	  -130.182	    -6.973
-19920.369	    15.639	  -144.931	    -6.757
-19808.516	    15.543	  -138.478	   -20.466
-19756.131	    15.548	  -113.536	    -1.331
-20109.281	    15.544	  -131.132	    -4.627
-20075.402	    15.523	  -142.488	   -29.100
-19996.527	    15.537	  -137.369	   -22.202
-19799.549	    15.469	  -141.534	   -31.451
-19878.938	    15.496	  -138.417	   -23.396
-19770.686	    15.522	  -151.507	   -15.962
-19875.830	    15.490	  -143.156	   -13.308
-19831.449	    15.526	  -126.965	   -22.338
-19821.031	    15.509	  -141.189	    -9.848
-19803.166	    15.449	  -140.175	     0.520
-20029.215	    15.402	  -130.376	   -24.571
-20087.246	    15.474	  -130.120	   -30.140
-19849.369	    15.540	  -132.740	   -10.351
-19796.723	    15.609	  -125.879	   -23.889
-19953.621	    15.557	  -125.983	   -30.010
-20090.059	    15.411	  -136.408	   -17.267
-19936.955	    15.307	  -117.834	   -16.483
-19898.914	    15.169	  -141.338	   -17.242
-19823.977	    15.199	  -123.648	   -19.542
-19874.186	    15.415	  -131.649	   -30.303
-19815.537	    15.571	  -147.339	   -26.403
-19940.371	    15.601	  -144.297	   -35.278
-20093.105	    15.570	  -135.046	   -24.783
-19899.311	    15.566	  -113.530	   -23.059
-19895.406	    15.550	  -148.050	   -15.220
-19844.398	    15.481	  -150.579	   -30.879
-19935.508	    15.412	  -126.264	   -24.264
-19953.055	    15.464	  -150.369	    -0.844
-19961.756	    15.522	  -142.843	   -16.644
-19872.641	    15.544	  -139.911	   -12.752
-19696.107	    15.505	  -141.692	   -12.187
-19854.518	    15.495	  -141.704	   -19.411
-19920.301	    15.578	  -145.022	   -28.098
-20005.193	    15.629	  -135.911	   -32.938
-19952.553	    15.580	  -149.243	   -10.251
-19875.734	    15.534	  -125.210	    -1.913
-19926.863	    15.504	  -130.781	   -12.898
-20138.910	    15.406	  -130.935	   -24.810
-20033.781	    15.394	  -140.760	   -35.566
-19931.441	    15.384	  -141.768	   -12.656
-20000.893	    15.419	  -136.430	     2.877
-19971.080	    15.646	  -149.697	    -4.181
-19767.828	    16.013	  -138.183	   -11.700
-19551.502	    16.192	  -134.216	   -17.670
-19661.400	    16.137	   -94.363	   -21.952
-19679.053	    15.863	  -134.099	    -7.798
-19852.154	    15.575	  -122.810	   -25.764
-19966.135	    15.390	  -121.832	   -36.729
-19976.938	    15.395	  -145.229	   -21.069
-19814.703	    15.470	  -143.832	   -25.644
-19886.742	    15.510	  -141.025	    -8.973
-19948.309	    15.622	  -133.998	     0.993
-19809.338	    15.660	  -130.565	   -11.070
-19811.629	    15.680	  -135.172	   -11.790
-19819.754	    15.750	  -132.814	   -21.726
-19672.689	    15.783	  -139.759	   -22.195
-19755.766	    15.635	  -152.638	   -33.057
-20224.582	    15.381	  -123.091	   -13.204
-20239.852	    15.179	  -146.357	   -22.943
-20291.883	    15.102	  -124.478	   -31.963
-20028.107	    15.155	  -137.167	   -15.024
-19745.709	    15.281	  -150.906	    -7.386
-19936.619	    15.394	  -137.338	    -3.908
-19826.609	    15.447	  -129.952	   -27.392
-19967.129	    15.443	  -134.368	    -1.068
-19756.021	    15.402	  -142.906	   -15.847
-19962.074	    15.362	  -138.593	    -9.297
-20143.631	    15.383	  -138.471	   -26.461
-20001.229	    15.379	  -147.055	   -11.929
-20028.463	    15.426	  -111.818	    -2.737
-19930.469	    15.378	  -135.070	   -19.390
-19820.918	    15.423	  -141.354	   -26.537
-19818.086	    15.523	  -136.911	    -4.932
-19994.908	    15.621	  -135.855	   -13.574
-19943.797	    15.666	  -117.577	   -10.765
-19934.822	    15.678	  -138.449	   -23.010
-19824.016	    15.635	  -126.413	   -30.820
-19937.615	    15.518	  -138.524	   -22.080
-19796.102	    15.435	  -146.722	   -12.582
-19772.094	    15.478	  -148.823	   -20.803
-19875.625	    15.525	  -149.173	   -27.300
-19878.660	    15.512	  -141.402	   -11.253
-20128.492	    15.446	  -125.249	   -17.517
-20163.529	    15.449	  -129.753	    11.302
-19781.766	    15.496	  -130.524	    -6.266
-19929.119	    15.472	  -141.306	   -18.343
-20088.859	    15.485	  -147.072	   -11.744
-20036.887	    15.452	  -131.681	   -14.502
-20008.195	    15.532	  -140.028	   -27.888
-19969.865	    15.772	  -129.926	   -21.768
-19721.180	    15.978	  -134.013	   -26.915
-19723.062	    15.971	  -132.251	   -13.122
-19837.119	    15.849	  -142.383	   -36.658
-19780.182	    15.704	  -144.235	   -27.023
-19785.379	    15.618	  -137.966	    -7.965
-20030.451	    15.639	  -140.193	   -12.725
-19816.189	    15.770	  -148.253	   -25.066
-19756.078	    15.707	  -137.332	    -8.794
-19954.039	    15.556	  -138.919	   -13.105
-20001.627	    15.379	  -143.071	    17.845
-19762.639	    15.225	  -125.388	   -10.392
-20259.883	    15.163	  -137.602	   -12.006
-20180.787	    15.350	  -127.977	    -5.247
-19990.602	    15.676	  -146.388	    -5.868
-20087.393	    15.970	  -132.648	    -9.518
-20050.498	    15.988	  -134.285	   -17.133
-19857.182	    15.800	  -147.473	   -14.950
-20111.104	    15.427	  -144.841	   -44.829
-20318.607	    15.004	  -138.946	    -0.110
-20251.750	    14.852	  -140.395	   -43.744
-20068.385	    15.104	  -145.899	   -31.060
-19756.406	    15.509	  -137.743	   -19.525
-19649.840	    15.836	  -143.172	   -17.811
-19844.035	    15.913	  -136.550	   -22.575
-19778.926	    15.744	  -147.666	   -22.506
-20106.705	    15.463	  -154.802	    -4.933
-19996.291	    15.332	  -130.231	   -14.822
-19808.857	    15.296	  -153.686	   -12.313
-19951.547	    15.302	  -157.786	   -42.898
-20075.916	    15.236	  -150.000	   -20.943
-20007.607	    15.351	  -133.336	   -39.024
-19855.734	    15.581	  -145.635	   -23.768
-19825.697	    15.751	  -153.159	   -17.296
-19617.107	    15.710	  -144.937	     0.284
-19870.447	    15.571	  -125.915	   -12.594
-19701.406	    15.517	  -132.762	   -30.742
-19881.426	    15.511	  -136.558	   -24.648
-19995.445	    15.535	  -127.889	    -8.341
-19858.004	    15.478	  -146.745	   -17.275
-19851.488	    15.504	  -110.911	   -15.209
-19854.051	    15.675	  -131.940	    -0.835
-19604.326	    15.874	  -137.175	   -19.345
-19767.162	    15.941	  -124.491	   -12.752
-19577.828	    15.796	  -140.448	   -13.251
-19979.846	    15.594	  -146.772	   -21.848
-19846.213	    15.472	  -145.944	   -31.396
-19881.318	    15.345	  -134.070	   -22.946
-19852.709	    15.416	  -139.284	    -4.289
-19844.412	    15.573	  -139.617	     5.820
-19650.773	    15.637	  -147.554	   -35.117
-19690.730	    15.637	  -122.485	    -0.414
-19767.689	    15.632	  -122.159	   -21.866
-19899.324	    15.627	  -112.969	   -29.740
-19978.373	    15.568	  -128.316	   -12.614
-19872.258	    15.476	  -140.818	   -11.478
-20045.596	    15.484	  -155.118	   -22.071
-20264.840	    15.476	  -147.673	    22.334
-20043.453	    15.443	  -129.263	   -43.674
-20079.988	    15.436	  -148.147	   -29.539
-19851.484	    15.404	  -128.294	   -14.025
-19719.459	    15.558	  -117.963	    -6.060
-20011.613	    15.537	  -134.458	   -12.896
-19932.711	    15.543	  -143.923	   -19.060
-19884.656	    15.465	  -138.027	   -16.494
-20016.199	    15.414	  -153.159	    -5.710
-19998.902	    15.312	  -130.143	   -15.638
-19988.191	    15.189	  -131.704	    -4.786
-19822.104	    15.143	  -142.154	     0.779
-20136.404	    15.177	  -146.542	   -19.794
-19715.059	    15.412	  -122.641	   -24.723
-20116.531	    15.737	  -149.194	   -11.499
-20043.668	    15.876	  -156.355	   -16.812
-19659.949	    15.906	  -124.454	   -16.284
-19683.121	    15.994	  -122.725	   -21.651
-19659.094	    16.027	  -136.967	    -9.298
-19908.820	    15.881	  -140.794	   -22.362
-19823.912	    15.633	  -149.430	   -13.063
-19873.912	    15.571	   -98.568	   -23.418
-19825.035	    15.562	  -143.177	   -37.485
-20118.283	    15.602	  -127.204	   -31.895
-19776.100	    15.911	  -128.912	   -22.008
-19738.490	    16.099	  -121.142	   -23.704
-19933.326	    15.910	  -141.292	    -5.854
-19927.055	    15.688	  -145.393	   -10.221
-19945.230	    15.562	  -126.753	   -14.398
-19837.590	    15.441	  -129.100	   -21.098
-20003.912	    15.334	  -149.843	   -10.963
-20120.314	    15.360	  -138.431	   -38.893
-19997.410	    15.405	  -130.425	   -24.892
-19915.932	    15.498	  -133.105	    -1.428
-19786.205	    15.470	  -137.794	   -10.026
-20091.686	    15.341	  -147.142	    -8.353
-20176.943	    15.329	  -133.612	   -11.131
-20070.023	    15.371	  -130.937	     6.732
-19845.982	    15.461	  -117.602	   -19.163
-19783.773	    15.494	  -130.083	   -27.384
-19858.564	    15.439	  -122.538	   -36.729
-20307.725	    15.359	  -128.441	   -13.368
-20186.553	    15.249	  -132.141	   -34.828
-19861.844	    15.233	  -128.002	   -11.632
-20012.643	    15.292	  -146.171	   -21.417
-19965.957	    15.421	  -150.308	     1.903
-19966.182	    15.585	  -136.305	    -5.054
-19908.936	    15.703	  -125.962	    -8.677
-19960.932	    15.709	  -143.343	   -19.224
-19844.775	    15.680	  -130.702	   -38.287
-19989.436	    15.588	  -108.010	   -13.804
-20019.838	    15.438	  -100.396	    -7.496
-19884.311	    15.338	  -119.381	    -6.531
-20070.201	    15.360	  -130.381	    -4.957
-19834.422	    15.427	  -131.826	   -10.977
-20015.195	    15.413	  -128.319	   -29.940
-19892.172	    15.480	  -127.307	   -14.516
-19914.895	    15.517	  -123.953	   -30.198
-20044.035	    15.449	  -111.595	   -29.780
-19820.443	    15.498	  -147.545	   -15.873
-19834.039	    15.532	  -118.539	   -22.406
-19881.436	    15.608	  -114.994	   -29.741
-19866.799	    15.639	  -150.301	   -17.649
-20025.965	    15.567	  -153.005	   -19.885
-20187.496	    15.437	  -113.689	    -9.828
-20022.729	    15.350	  -130.689	   -25.300
-19959.252	    15.321	  -153.477	    -9.005
-20118.182	    15.470	  -139.569	   -24.797
-19929.285	    15.707	  -150.766	    -9.237
-19671.734	    15.788	  -138.572	    -9.982
-20223.271	    15.709	  -120.658	   -11.897
-19744.945	    15.649	  -132.066	   -11.283
-20001.166	    15.594	  -134.368	   -33.269
-19868.375	    15.580	  -141.026	   -37.003
-19923.066	    15.460	  -141.719	   -12.828
-20087.623	    15.239	  -121.766	   -43.523
-19782.242	    15.162	  -152.854	   -16.388
-19950.814	    15.380	  -154.623	   -34.017
-19641.006	    15.559	  -132.052	   -28.730
-19725.602	    15.587	  -129.126	    -7.444
-19962.779	    15.561	  -143.391	   -11.527
-19883.553	    15.583	  -121.887	   -11.910
-20068.938	    15.533	  -135.837	   -22.434
-19893.553	    15.487	  -138.963	     0.781
-19928.037	    15.439	  -127.037	     0.081
-19913.195	    15.459	  -140.307	   -11.813
-19941.586	    15.444	  -138.810	    -5.872
-20053.955	    15.370	  -139.108	   -15.738
-19691.967	    15.381	  -140.903	   -11.269
-19694.645	    15.620	  -140.976	   -23.816
-19775.193	    15.840	  -133.702	   -15.558
-19725.672	    15.785	  -107.994	   -21.670
-19952.555	    15.552	  -133.969	    -8.416
-19972.258	    15.403	  -143.883	    -8.613
-19837.229	    15.301	  -124.851	   -24.477
-20254.318	    15.256	  -141.072	   -17.489
-20128.041	    15.382	  -138.897	   -17.565
-19881.508	    15.626	  -141.026	   -11.849
-19837.100	    15.825	  -156.313	    -4.884
-19948.658	    15.998	  -140.887	   -15.023
-19828.559	    15.980	  -140.956	   -19.312
-19875.043	    15.732	  -153.314	   -28.428
-20071.111	    15.370	  -135.357	     5.265
-20280.391	    15.048	  -132.253	   -11.265
-20232.023	    15.028	  -142.102	     2.366
-19966.381	    15.290	  -130.619	     6.831
-19803.777	    15.576	  -139.254	    -5.723
-19835.246	    15.707	  -142.412	    -7.332
-19906.902	    15.764	  -128.145	   -22.739
-19989.990	    15.782	  -128.463	   -12.072
-19880.316	    15.783	  -135.363	    -7.631
-19634.969	    15.694	  -131.051	    -1.184
-19819.314	    15.508	  -132.423	   -15.712
-19925.656	    15.514	  -126.265	   -38.960
-19638.902	    15.713	  -126.739	   -11.707
-19833.902	    15.840	  -129.864	   -29.925
-19943.191	    15.778	  -132.858	   -10.674
-19811.033	    15.591	  -143.867	   -14.880
-20121.082	    15.412	  -123.882	   -23.827
-20222.148	    15.399	  -147.446	   -27.805
-20187.398	    15.518	  -125.594	   -14.499
-20030.188	    15.763	  -142.102	    -6.446
-19736.732	    15.826	  -142.899	    -3.568
-19864.990	    15.724	  -136.521	   -38.325
-19904.031	    15.521	  -126.258	   -15.069
-19825.332	    15.332	  -147.541	   -21.270
-20063.523	    15.299	  -145.566	   -38.325
-20009.725	    15.494	  -133.526	   -15.410
-19747.035	    15.659	  -121.516	    -8.170
-19724.932	    15.757	  -122.769	   -18.451
-19864.439	    15.661	  -130.948	   -14.404
-19701.654	    15.558	  -140.710	   -13.108
-19893.623	    15.491	  -140.915	   -14.319
-19840.998	    15.448	  -144.763	   -31.669
-19667.834	    15.286	  -153.370	   -13.422
-19856.520	    15.188	  -137.276	   -31.627
-20010.848	    15.255	  -141.980	    -6.040
-19877.350	    15.452	  -141.535	     2.173
-19991.398	    15.685	  -132.977	    -9.062
-19983.492	    15.675	  -127.367	   -12.403
-19983.910	    15.531	  -134.997	   -36.050
-19874.213	    15.402	  -136.678	   -23.468
-20079.584	    15.235	  -125.396	   -11.643
-19770.865	    15.265	  -137.682	   -17.167
-19823.572	    15.412	  -128.880	    -2.115
-20030.529	    15.492	  -133.414	   -39.686
-20111.182	    15.555	  -146.380	   -19.303
-19940.805	    15.539	  -143.508	   -23.716
-19802.533	    15.537	  -127.431	     0.447
-19917.756	    15.329	  -144.274	   -22.469
-20018.592	    15.192	  -132.718	   -23.490
-19926.738	    15.269	  -126.770	   -20.676
-19645.143	    15.504	  -141.008	   -11.770
-19653.643	    15.803	  -126.943	   -10.571
-19615.318	    15.909	  -139.044	   -11.869
-20156.521	    15.690	  -126.150	   -16.159
-19943.102	    15.419	  -140.164	    -3.832
-20088.387	    15.415	  -132.644	   -23.170
-19913.916	    15.660	  -129.395	   -16.170
-19548.734	    15.934	  -141.042	   -20.152
-19808.355	    16.074	  -141.206	   -18.741
-19667.232	    15.950	  -132.131	    -8.348
-19924.363	    15.713	  -143.264	    -9.372
-19962.973	    15.512	  -148.423	    -1.556
-20298.010	    15.239	  -139.192	   -18.557
-20090.229	    15.090	  -144.400	    -7.338
-20037.586	    15.085	  -143.126	    -8.610
-19824.660	    15.440	  -132.757	   -13.744
-19742.377	    15.859	  -125.602	   -18.720
-19811.738	    16.100	  -148.142	    -4.319
-19450.486	    16.199	  -147.940	   -28.184
-19719.084	    15.998	  -118.427	    -5.831
-19789.441	    15.620	  -149.692	   -20.719
-19663.150	    15.250	  -121.107	   -41.940
-20071.590	    15.013	  -133.253	   -13.952
-20145.402	    15.155	  -124.173	    -5.458
-20125.369	    15.382	  -137.267	   -24.655
-19586.574	    15.579	  -124.113	   -35.392
-19804.965	    15.689	  -160.423	   -22.149
-20062.516	    15.663	  -142.072	   -45.175
-19851.455	    15.590	  -141.622	   -21.439
-19775.951	    15.577	  -144.734	   -34.982
-19777.256	    15.552	  -123.315	   -27.889
-19663.680	    15.559	  -155.733	   -14.071
-19696.121	    15.699	  -152.573	     2.291
-19676.877	    15.600	  -122.424	    -7.652
-19865.648	    15.381	  -129.532	    -6.342
-19974.193	    15.244	  -138.170	   -11.216
-20034.531	    15.205	  -144.936	   -25.212
-19819.191	    15.395	  -122.390	   -23.858
-19702.535	    15.535	  -143.924	   -18.978
-19772.676	    15.373	  -146.250	   -17.312
-19792.777	    15.257	  -131.002	   -44.888
-19921.971	    15.153	  -140.704	   -16.107
-19985.428	    15.148	  -140.489	   -26.230
-19917.330	    15.196	  -136.752	   -23.031
-19858.918	    15.388	  -129.297	     1.643
-19960.766	    15.611	  -122.483	   -22.692
-19539.236	    15.721	  -138.176	   -20.508
-19755.514	    15.694	  -146.735	   -16.586
-20012.355	    15.636	  -128.876	   -34.012
-20103.969	    15.700	  -125.988	   -19.874
-20107.264	    15.813	  -132.383	    -2.250
-19794.674	    15.809	  -147.707	    -0.474
-19905.867	    15.584	  -129.756	   -31.957
-19911.123	    15.370	  -154.703	    -1.252
-19856.068	    15.303	  -133.804	   -16.204
-19924.885	    15.336	  -126.113	   -37.380
-20143.963	    15.408	  -131.969	   -10.055
-19993.148	    15.604	  -143.404	    -3.691
-19903.553	    15.746	  -137.548	   -25.758
-20211.051	    15.679	  -137.369	   -10.960
-19982.492	    15.527	  -127.876	   -14.571
-19925.525	    15.326	  -115.662	   -15.733
-20065.312	    15.222	  -132.295	   -14.125
-20098.057	    15.246	  -144.757	     4.311
-20054.592	    15.377	  -126.253	   -12.662
-19997.555	    15.662	  -127.266	   -10.815
-19825.080	    15.816	  -123.717	   -20.918
-19843.646	    15.723	  -126.955	   -30.576
-19805.514	    15.379	  -128.960	   -10.609
-19977.152	    15.171	  -118.815	   -12.758
-20137.193	    15.201	  -129.814	    -4.051
-19867.002	    15.386	  -132.391	   -11.309
-19897.193	    15.650	  -149.478	   -13.569
-19622.910	    15.846	  -142.406	   -12.680
-19880.711	    15.892	  -137.945	     1.149
-19907.609	    15.816	  -133.509	   -20.166
-19750.900	    15.673	  -116.975	   -27.432
-19967.967	    15.462	  -150.816	   -22.574
-19946.027	    15.379	  -134.150	   -14.590
-20232.316	    15.416	  -145.792	   -28.324
-19905.834	    15.558	  -143.024	   -17.913
-20084.348	    15.668	  -125.731	   -13.628
-19939.793	    15.785	  -130.431	     5.072
-19594.057	    15.785	  -137.258	     5.630
-19671.381	    15.729	  -143.727	     0.646
-20066.826	    15.589	  -146.615	   -14.777
-20273.154	    15.442	  -130.820	   -34.957
-19878.555	    15.452	  -133.714	   -26.936
-19772.668	    15.504	  -146.134	   -25.871
-19944.467	    15.534	  -107.178	   -12.293
-19867.750	    15.633	  -133.953	   -28.051
-19972.545	    15.630	  -110.789	   -19.518
-19835.051	    15.610	  -140.438	   -15.880
-20021.557	    15.714	  -135.244	   -16.557
-19984.537	    15.658	  -135.038	     5.670
-19956.740	    15.529	  -138.802	    11.262
-19968.092	    15.380	  -121.573	    -3.278
-20051.088	    15.376	  -143.506	     1.657
-20188.492	    15.383	  -135.480	   -24.082
-20002.752	    15.501	  -140.207	   -32.917
-19738.859	    15.598	  -132.073	    -7.243
-19787.469	    15.633	  -135.928	   -21.634
-20106.703	    15.610	  -149.379	   -29.840
-20067.182	    15.595	  -132.787	    -9.135
-20003.504	    15.525	  -143.933	   -13.857
-19855.471	    15.460	  -144.343	   -32.409
-19808.004	    15.439	  -145.354	   -29.374
-19835.488	    15.557	  -140.773	   -33.855
-19844.895	    15.677	  -122.979	   -33.199
-19995.303	    15.714	  -139.844	   -20.755
-19919.453	    15.811	  -128.507	    -1.689
-19903.828	    15.949	  -140.915	   -12.823
-19755.996	    16.056	  -133.832	   -30.940
-19706.656	    15.993	  -144.982	   -16.800
-19655.225	    15.720	  -133.813	   -10.810
-20000.377	    15.457	  -118.488	   -21.404
-20035.525	    15.275	  -142.560	   -16.177
-19761.678	    15.157	  -141.204	   -16.004
-20012.615	    15.200	  -145.972	   -18.293
-19922.385	    15.329	  -130.819	    13.644
-19887.002	    15.416	  -133.196	    -5.346
-19941.000	    15.533	  -132.869	    -6.488
-19915.988	    15.665	  -141.548	   -22.691
-19940.242	    15.850	  -132.924	   -21.245
-19751.869	    15.861	  -136.110	    -2.337
-19813.328	    15.868	  -120.074	   -29.472
-19810.123	    15.796	  -128.147	   -10.704
-19765.480	    15.555	  -140.892	   -25.226
-20137.355	    15.408	  -140.866	   -22.165
-19765.641	    15.358	  -157.291	   -31.598
-20049.699	    15.263	  -119.210	   -24.574
-20262.195	    15.159	  -141.948	   -15.933
-19817.129	    15.293	  -116.730	   -12.616
-19910.518	    15.591	  -138.529	   -27.312
-19688.262	    15.754	  -127.306	   -21.814
-19796.395	    15.659	  -143.854	   -29.098
-20030.328	    15.516	  -134.271	    -6.286
-20133.539	    15.403	  -139.120	   -22.317
-20032.746	    15.440	  -137.548	   -24.024
-19975.225	    15.438	  -153.408	   -31.720
-19797.035	    15.617	  -154.370	   -26.902
-19725.469	    15.855	  -144.214	   -30.460
-19939.666	    15.914	  -114.676	    -4.818
-19913.328	    15.753	  -131.139	    -8.792
-20163.115	    15.477	  -147.175	    -2.951
-19873.018	    15.256	  -120.412	     8.213
-19992.576	    15.100	  -127.544	   -20.291
-20010.178	    15.200	  -130.153	   -19.777
-19894.311	    15.432	  -135.893	    -0.973
-19675.314	    15.572	  -148.563	     2.496
-19935.018	    15.531	  -154.616	   -10.972
-19925.756	    15.379	  -131.672	   -12.655
-19818.949	    15.387	  -143.244	   -37.154
-19909.014	    15.495	  -155.429	   -17.653
-19867.855	    15.617	  -142.754	    -1.327
-19858.547	    15.548	  -135.902	    -6.399
-19783.639	    15.384	  -142.167	   -24.579
-19883.869	    15.385	  -137.521	   -14.991
-19772.395	    15.573	  -135.956	   -20.914
-20040.799	    15.668	  -144.266	    -8.648
-19881.611	    15.539	  -127.229	   -34.341
-19911.354	    15.447	  -122.975	   -38.076
-19674.752	    15.395	  -147.776	   -23.375
-19772.096	    15.388	  -139.547	   -18.788
-19760.707	    15.404	  -130.450	   -23.803
-20160.426	    15.523	  -134.311	   -17.188
-19914.479	    15.571	  -152.320	   -38.039
-19971.314	    15.502	  -144.118	   -26.402
-19928.359	    15.385	  -150.969	   -18.857
-20043.453	    15.348	  -135.154	   -19.455
-19865.432	    15.426	  -143.286	    -8.571
-19966.996	    15.480	   -99.937	   -14.784
-20169.594	    15.569	  -141.989	   -34.972
-19750.697	    15.802	  -130.282	   -40.904
-19465.160	    15.882	  -152.585	   -14.636
-19729.592	    15.833	  -139.865	   -25.984
-19810.354	    15.521	  -149.002	   -12.073
-20061.879	    15.120	  -154.605	   -34.443
-20354.777	    15.039	  -125.206	    -9.251
-19868.822	    15.237	  -158.214	   -13.942
-20013.555	    15.430	  -138.467	   -18.282
-19900.223	    15.632	  -132.592	   -13.758
-19846.963	    15.730	  -141.420	   -21.923
-19922.203	    15.720	  -118.582	   -19.797
-19781.273	    15.647	  -142.921	    -5.504
-20094.201	    15.549	  -144.017	   -28.797
-19880.924	    15.526	  -149.942	   -13.187
-20025.844	    15.647	  -139.158	   -33.154
-19840.531	    15.704	  -127.185	   -16.071
-19862.596	    15.718	  -127.160	   -14.050
-19685.777	    15.704	  -149.553	   -19.156
-19800.246	    15.564	  -128.415	   -37.375
-19950.768	    15.342	  -116.729	   -18.188
-19927.863	    15.290	  -154.278	   -28.982
-20065.873	    15.375	  -136.530	    -9.134
-19922.840	    15.435	  -134.199	   -33.312
-20156.068	    15.480	  -132.489	   -29.563
-20034.049	    15.598	  -150.446	     5.667
-20203.287	    15.732	  -138.059	   -18.295
-20002.410	    15.766	  -153.829	    -3.479
-19838.135	    15.641	  -142.414	    -2.097
-19818.176	    15.486	  -117.773	   -30.418
-19933.875	    15.468	  -146.654	   -30.535
-19828.441	    15.645	  -138.123	    -8.587
-19781.023	    15.884	  -142.551	   -23.994
-19752.664	    15.987	  -148.036	    -3.625
-19739.727	    15.955	  -137.530	   -12.674
-19923.490	    15.804	  -153.254	   -21.830
-20103.238	    15.709	  -141.648	    -1.289
-19825.234	    15.642	  -142.587	    -2.889
-19851.928	    15.656	  -143.584	    -4.827
-19712.441	    15.662	  -143.421	   -28.550
-19928.182	    15.559	  -125.907	   -11.661
-20084.898	    15.615	  -125.735	   -19.598
-19841.420	    15.714	  -146.783	   -21.880
-19980.834	    15.663	  -110.705	   -25.547
-19965.154	    15.537	  -112.804	   -17.423
-19772.338	    15.499	  -111.034	    -6.222
-19872.225	    15.566	  -138.406	   -46.762
-19982.396	    15.638	  -138.606	   -30.240
-19952.832	    15.760	  -132.461	    -1.458
-19775.002	    15.833	  -133.700	   -16.817
-19617.021	    15.916	  -137.708	   -28.860
-19714.609	    15.806	  -150.494	    11.637
-20018.051	    15.625	  -137.980	     0.215
-19918.133	    15.469	  -129.784	     1.602
-19971.701	    15.398	  -121.056	    -4.891
-19775.307	    15.391	  -120.728	    -0.392
-19990.002	    15.472	  -114.915	   -20.052
-19915.018	    15.623	  -139.042	   -15.035
-19952.830	    15.819	  -153.194	    -5.061
-19893.154	    15.832	  -158.300	   -16.420
-20190.428	    15.649	  -143.242	     0.414
-19990.527	    15.485	  -138.360	   -12.007
-19842.553	    15.503	  -133.712	    -0.866
-19922.104	    15.648	  -124.976	    -0.079
-19725.586	    15.750	  -111.418	     1.936
-19713.805	    15.661	  -145.611	   -29.460
-19704.084	    15.440	  -141.785	   -38.487
-20006.742	    15.299	  -131.440	   -25.895
-20064.502	    15.347	  -139.953	   -11.959
-19877.234	    15.377	  -135.998	    -5.914
-19789.150	    15.365	   -96.470	   -17.125
-19978.670	    15.312	  -140.366	   -15.644
-19975.801	    15.420	  -133.486	    -8.793
-19695.797	    15.597	  -134.303	    12.850
-19692.541	    15.695	  -121.708	    -3.558
-19699.008	    15.799	  -133.404	    -6.167
-19554.676	    15.843	  -148.902	   -32.504
-19836.279	    15.824	   -94.537	   -24.549
-19909.072	    15.673	  -113.083	   -14.927
-19976.408	    15.439	  -114.295	    -9.363
-19960.355	    15.320	  -123.545	     8.817
-20095.834	    15.207	  -118.353	   -21.830
-20024.205	    15.232	  -129.098	   -14.660
-19910.092	    15.414	  -140.499	   -18.659
-19880.096	    15.575	  -125.083	     1.151
-19877.873	    15.731	  -145.765	   -17.297
-19624.932	    15.775	  -138.341	   -11.152
-19981.242	    15.613	  -143.578	     4.929
-19766.672	    15.360	  -136.933	    -2.440
-19924.594	    15.282	  -147.645	   -37.144
-20003.465	    15.412	  -151.715	   -26.097
-19789.408	    15.470	  -127.748	   -11.421
-19791.637	    15.443	  -130.281	     2.731
-19786.150	    15.430	  -139.090	    -2.514
-20083.543	    15.382	  -130.719	   -19.903
-19979.250	    15.443	  -136.202	   -22.092
-19904.787	    15.529	  -153.769	   -17.212
-19877.197	    15.650	  -155.371	   -19.385
-19914.297	    15.745	  -135.444	   -19.374
-20064.791	    15.828	  -157.387	   -20.405
-20125.801	    15.840	  -153.674	   -31.211
-19886.498	    15.639	  -130.824	   -12.710
-19934.520	    15.437	  -147.101	     4.593
-20060.777	    15.288	  -121.027	   -25.034
-20139.299	    15.137	  -136.459	   -25.662
-19971.697	    15.134	  -140.125	   -32.089
-20165.852	    15.268	  -148.254	   -31.846
-19910.264	    15.553	  -136.583	   -12.301
-19706.191	    15.661	  -128.513	   -36.037
-20073.631	    15.647	  -132.589	   -21.252
-19877.621	    15.668	  -145.083	   -22.478
-19875.994	    15.623	  -157.863	   -32.448
-20183.186	    15.535	  -146.407	     5.468
-19879.031	    15.450	  -120.873	   -15.218
-19794.947	    15.464	  -125.986	     0.706
-19860.176	    15.467	  -144.450	    -3.231
-19941.264	    15.510	  -137.344	    -9.377
-19760.721	    15.568	  -128.115	    -8.035
-19829.410	    15.473	  -111.063	   -24.988
-19921.059	    15.267	  -125.100	    -6.796
-19911.498	    15.339	  -153.911	   -23.973
-19903.555	    15.494	  -144.590	   -12.811
-19687.219	    15.596	  -133.275	    -2.153
-19795.197	    15.577	  -133.693	   -24.418
-19895.520	    15.520	  -142.006	    -9.334
-20110.320	    15.504	  -138.300	   -31.792
-20168.920	    15.534	  -118.385	   -10.392
-19846.861	    15.517	  -140.518	   -15.115
-19932.918	    15.522	  -149.514	   -13.612
-19718.475	    15.469	  -140.055	   -26.471
-20102.945	    15.304	  -149.901	   -11.965
-20177.342	    15.279	  -121.522	   -16.392
-19770.855	    15.356	  -113.896	   -12.868
-19828.406	    15.388	   -96.024	   -13.278
-20138.525	    15.504	  -126.608	   -15.612
-19744.289	    15.606	  -132.374	   -12.814
-19752.699	    15.637	  -138.073	     0.661
-19952.273	    15.594	  -134.507	    -2.015
-20056.525	    15.427	  -125.599	   -29.998
-19856.809	    15.390	  -145.304	   -20.553
-20170.973	    15.415	  -132.522	    -8.199
-20103.084	    15.442	  -137.728	   -16.003
-19862.920	    15.415	  -147.956	   -41.015
-19890.965	    15.419	  -143.311	    -9.512
-20037.447	    15.491	  -137.778	    -7.156
-19926.701	    15.609	  -133.602	   -12.420
-19667.156	    15.767	  -149.715	   -18.866
-19904.357	    15.728	  -137.710	    -7.391
-19876.947	    15.581	  -130.713	     3.065
-19908.934	    15.547	  -127.691	   -16.086
-19864.051	    15.576	  -152.014	    -3.497
-19912.264	    15.698	  -130.337	    -9.567
-19816.236	    15.734	  -105.964	   -15.972
-19722.951	    15.698	  -112.507	   -10.660
-19795.074	    15.578	  -122.378	   -23.700
-20161.369	    15.398	  -124.061	   -11.960
-20216.832	    15.320	  -150.976	    -8.915
-20356.430	    15.251	  -132.228	   -16.809
-20112.473	    15.379	  -138.100	   -12.063
-20128.891	    15.517	  -109.266	   -20.195
-19816.141	    15.565	  -142.759	     1.794
-19952.254	    15.636	  -112.601	    -1.488
-19921.244	    15.683	  -139.164	    -4.875
-20159.801	    15.704	  -141.805	    -6.505
-19917.990	    15.686	  -124.123	   -14.954
-19937.518	    15.612	  -128.403	   -19.539
-20024.117	    15.547	  -117.353	    -4.186
-19890.756	    15.443	  -116.764	   -16.921
-20113.283	    15.415	  -135.167	    -8.750
-19951.227	    15.426	  -133.453	     0.900
-20044.775	    15.409	  -128.753	    -5.975
-20258.676	    15.472	  -121.856	    -8.713
-19851.111	    15.656	  -145.432	    -8.093
-19958.826	    15.837	  -137.187	   -27.275
-20125.287	    15.875	  -141.979	   -23.517
-20008.691	    15.712	   -97.644	   -17.812
-20091.887	    15.534	  -141.612	    -8.976
-19905.072	    15.388	  -136.364	   -16.534
-20034.998	    15.452	  -161.013	   -36.665
-19980.834	    15.704	  -136.474	     8.358
-19844.572	    16.002	  -138.561	     7.799
-19653.672	    16.042	  -140.244	   -12.520
-19976.420	    15.906	  -113.281	    -1.484
-19635.580	    15.774	  -152.771	   -13.080
-20124.102	    15.524	  -133.705	   -12.575
-20184.365	    15.317	  -135.600	    -0.178
-20044.713	    15.283	  -131.700	   -21.674
-19907.221	    15.372	  -139.886	   -14.976
-19761.359	    15.521	  -139.107	   -29.908
-19992.469	    15.686	  -109.714	   -20.115
-19733.809	    15.769	  -126.210	   -17.226
-20020.053	    15.701	  -140.642	   -15.565
-20103.266	    15.527	  -141.420	    -3.371
-20062.072	    15.355	  -143.413	    -5.097
-19937.799	    15.339	  -144.854	    -7.445
-19775.387	    15.471	  -138.833	   -21.193
-19985.283	    15.682	  -127.769	   -32.707
-19925.953	    15.867	  -135.916	   -17.972
-19497.328	    15.896	  -148.481	   -18.774
-19945.498	    15.814	  -150.056	   -36.291
-19782.127	    15.742	  -144.081	   -11.871
-20142.355	    15.665	  -144.557	   -30.605
-19615.480	    15.578	  -140.950	    17.975
-20039.871	    15.478	  -132.897	    -9.692
-19828.014	    15.412	  -134.100	   -20.470
-20074.156	    15.372	  -135.784	    -5.273
-20184.922	    15.353	  -126.986	   -28.374
-19736.998	    15.297	  -130.020	   -22.177
-19861.686	    15.230	  -137.023	   -16.435
-19895.359	    15.308	  -112.316	    -8.079
-19827.998	    15.466	  -131.211	   -17.192
-19662.617	    15.637	  -127.136	    -2.316
-19738.326	    15.675	  -119.402	   -19.075
-20112.801	    15.602	  -141.283	   -24.913
-20090.783	    15.529	  -133.416	   -16.155
-19776.012	    15.458	  -139.440	   -20.789
-20085.971	    15.457	  -135.623	   -25.351
-19995.264	    15.501	  -136.034	   -28.084
-19927.822	    15.639	  -132.359	   -17.567
-19942.309	    15.814	  -132.796	   -32.804
-19796.072	    15.945	  -137.969	   -17.933
-19989.750	    15.962	  -139.275	   -13.225
-19839.295	    15.748	  -121.943	   -35.142
-19955.869	    15.486	  -129.159	   -29.503
-19863.791	    15.317	  -141.714	   -10.847
-19867.771	    15.278	  -154.625	   -25.364
-20026.371	    15.357	  -146.666	   -12.729
-19944.992	    15.611	  -135.027	   -22.026
-19810.045	    15.859	  -136.882	     5.678
-19740.660	    15.971	  -132.954	   -15.956
-19828.299	    15.831	  -142.681	   -25.357
-19567.701	    15.646	  -128.336	   -13.795
-20129.031	    15.325	  -122.007	   -25.294
-19941.355	    15.034	  -133.500	    -0.609
-20036.908	    15.020	  -117.949	   -16.932
-19963.070	    15.333	  -137.375	   -21.882
-19742.459	    15.674	  -127.454	   -29.289
-19526.373	    15.896	  -118.935	   -34.835
-19813.326	    15.797	  -112.204	   -14.240
-19857.025	    15.575	  -123.094	   -29.053
-19711.494	    15.346	  -139.446	   -19.013
-19981.619	    15.309	  -134.152	   -13.691
-19945.564	    15.409	  -136.869	    -4.294
-20019.658	    15.470	  -131.390	   -20.639
-20122.789	    15.542	  -124.084	     3.417
-20063.115	    15.585	  -133.383	    -6.624
-20050.807	    15.501	  -130.818	    -8.999
-19967.879	    15.307	  -142.971	   -17.146
-19826.305	    15.304	  -117.567	   -24.323
-19803.490	    15.370	  -105.877	   -28.474
-19874.414	    15.376	  -120.282	   -15.592
-20236.863	    15.322	  -148.041	   -12.235
-19975.010	    15.298	  -135.175	   -19.104
-19868.398	    15.351	  -121.847	    -0.900
-20283.592	    15.413	  -145.781	   -18.215
-19877.281	    15.505	  -147.333	    -4.530
