-20001.779	    15.334	   -92.310	   122.143
-20015.697	    15.375	    -4.609	    67.923
-20187.521	    15.402	    25.956	    49.158
-20326.725	    15.405	    33.615	    96.776
-20378.738	    15.458	    36.683	    67.378
-20101.439	    15.540	    22.309	    59.623
-20227.311	    15.587	    39.345	    79.967
-20307.340	    15.558	    48.497	    59.445
-20270.520	    15.522	    24.819	    54.261
-20296.537	    15.518	    27.817	    68.194
-20114.516	    15.535	    25.692	    50.546
-19989.479	    15.581	    35.136	    66.142
-20437.316	    15.557	    43.400	    54.348
-20212.164	    15.530	    47.598	    56.380
-20299.475	    15.416	    18.627	    69.674
-20244.090	    15.378	    26.658	    59.180
-19978.734	    15.412	    28.815	    62.947
-20010.283	    15.453	    29.869	    65.457
-20282.473	    15.474	    20.571	    70.425
-20232.455	    15.507	    38.815	    45.551
-20326.980	    15.499	    43.622	    50.917
-20326.072	    15.546	    27.568	    70.375
-20109.814	    15.536	    40.832	    66.259
-20148.197	    15.417	    40.047	    50.293
-20121.201	    15.304	    27.179	    71.826
-20111.270	    15.238	    44.156	    74.092
-20211.443	    15.301	    37.296	    63.459
-20263.275	    15.400	    20.055	    62.779
-19913.520	    15.566	    17.182	    60.560
-19994.119	    15.687	    43.648	    54.385
-19871.221	    15.710	    35.851	    54.785
-20042.506	    15.642	    40.623	    61.685
-20135.260	    15.517	    35.726	    65.844
-20211.084	    15.487	    42.022	    66.863
-20324.053	    15.427	    24.516	    73.211
-19981.686	    15.409	    49.849	    66.168
-20125.137	    15.369	    25.289	    71.126
-20411.680	    15.354	    35.599	    52.150
-20240.426	    15.446	    33.928	    58.781
-20121.695	    15.535	    41.412	    49.150
-20237.629	    15.576	    35.319	    65.901
-20357.521	    15.544	    22.513	    62.347
-20106.387	    15.352	    23.939	    58.750
-20179.158	    15.222	    14.370	    72.038
-19896.057	    15.273	    19.283	    51.775
-20220.371	    15.182	    25.186	    68.963
-20071.170	    15.098	    24.353	    60.257
-20451.420	    15.121	    28.380	    62.767
-20260.496	    15.200	    40.366	    70.997
-20688.404	    15.278	    29.950	    71.707
-20385.039	    15.464	    44.045	    52.463
-20380.266	    15.645	    26.083	    73.395
-20150.621	    15.713	    51.225	    64.788
-20276.963	    15.554	    26.808	    57.060
-20171.959	    15.318	    37.482	    43.152
-20293.072	    15.191	    36.237	    67.570
-20313.029	    15.295	    25.019	    61.509
-20111.926	    15.413	     9.747	    76.498
-20431.033	    15.410	    31.634	    59.722
-20297.369	    15.545	    25.324	    57.532
-20322.523	    15.545	    30.802	    62.416
-20452.795	    15.397	    20.727	    66.926
-20297.240	    15.262	    40.094	    58.564
-20622.742	    15.268	    41.976	    62.247
-20104.098	    15.375	    39.954	    64.304
-20351.721	    15.404	    50.275	    63.364
-20160.469	    15.413	    45.669	    43.475
-20186.426	    15.487	    17.335	    64.427
-19923.484	    15.464	    54.165	    66.355
-20189.838	    15.309	    23.292	    68.585
-20367.875	    15.231	    34.075	    61.860
-20180.537	    15.292	    47.770	    70.997
-20050.645	    15.441	    34.026	    49.810
-20267.250	    15.530	    38.140	    49.657
-20319.469	    15.450	    41.512	    75.827
-20362.693	    15.405	    28.405	    60.684
-20222.191	    15.503	    43.234	    59.873
-20292.381	    15.576	    36.790	    66.249
-20320.791	    15.544	    40.274	    51.967
-20219.205	    15.437	    30.050	    67.009
-20230.031	    15.364	    45.405	    56.482
-20143.633	    15.281	    31.950	    46.707
-20207.625	    15.254	    47.230	    48.389
-20431.529	    15.307	    24.728	    70.341
-20490.129	    15.342	    14.140	    88.348
-20074.709	    15.423	    22.497	    68.319
-20306.145	    15.478	    35.352	    77.037
-20118.480	    15.526	    44.626	    54.350
-20059.885	    15.476	    32.128	    71.566
-20113.178	    15.334	    25.357	    57.332
-20267.393	    15.201	    28.352	    69.181
-20081.922	    15.248	    25.639	    75.341
-20289.457	    15.309	    23.331	    84.002
-20013.955	    15.342	    41.015	    74.866
-20224.803	    15.300	    24.892	    66.960
-20153.486	    15.204	    15.119	    77.762
-20000.312	    15.336	    40.343	    56.861
-19942.611	    15.517	    31.597	    60.057
-19944.355	    15.668	    28.696	    40.276
-19729.543	    15.588	    30.487	    57.132
-19926.137	    15.418	    41.433	    64.758
-20366.879	    15.185	    26.818	    72.483
-20185.221	    15.155	    47.598	    52.885
-20446.615	    15.281	    52.607	    62.792
-20094.771	    15.396	    25.668	    65.477
-20117.395	    15.578	    42.993	    57.750
-20167.426	    15.551	    33.908	    75.875
-20235.949	    15.404	    36.814	    57.954
-19951.473	    15.315	    40.955	    41.066
-20210.982	    15.269	    32.462	    73.338
-20398.059	    15.271	    23.648	    57.935
-20303.705	    15.336	    42.873	    52.501
-20317.035	    15.442	    28.922	    64.373
-20291.797	    15.350	    44.162	    56.979
-20094.826	    15.302	    51.181	    33.282
-20348.740	    15.313	    39.373	    45.371
-20106.729	    15.489	    10.113	    63.703
-20040.252	    15.540	    33.225	    61.990
-20102.311	    15.490	    33.597	    47.817
-20086.031	    15.471	    32.058	    65.973
-20275.545	    15.391	    37.700	    65.101
-20082.271	    15.308	    16.760	    61.621
-20256.311	    15.249	    51.951	    41.054
-20172.279	    15.314	    21.904	    74.881
-20431.955	    15.432	    47.313	    51.556
-20198.711	    15.481	    43.079	    58.796
-20182.125	    15.431	    31.557	    63.315
-20150.854	    15.400	    12.592	    72.456
-19845.660	    15.485	    36.669	    70.202
-20177.803	    15.706	    33.372	    56.384
-20268.936	    15.833	    26.554	    64.574
-20133.730	    15.795	    19.277	    54.711
-20105.127	    15.743	    43.411	    67.288
-20351.809	    15.630	    23.363	    60.259
-20147.098	    15.475	    34.168	    51.142
-20309.184	    15.373	    27.998	    63.958
-20307.568	    15.318	    28.125	    68.865
-20085.982	    15.226	    25.571	    60.770
-20268.477	    15.110	    42.503	    44.929
-20150.500	    15.211	     9.467	    81.599
-20170.389	    15.523	    34.761	    43.774
-20155.697	    15.696	    20.145	    64.061
-19999.414	    15.703	    40.815	    71.932
-20227.666	    15.569	    48.544	    55.432
-20171.863	    15.451	    45.530	    45.058
-20120.801	    15.423	    31.013	    52.636
-20175.785	    15.335	    27.671	    65.847
-19906.701	    15.380	    44.640	    54.880
-19911.609	    15.540	    16.959	    60.714
-19856.971	    15.585	    43.526	    70.870
-20039.660	    15.500	    40.879	    66.827
-20101.432	    15.403	    14.884	    72.227
-20129.041	    15.425	    41.531	    55.588
-19837.363	    15.446	    49.082	    52.571
-20378.859	    15.326	    17.863	    56.835
-20295.449	    15.373	    47.484	    73.254
-20116.520	    15.468	    50.286	    43.553
-20172.184	    15.539	    16.700	    44.338
-20073.357	    15.594	    47.368	    42.024
-20267.301	    15.529	    41.158	    57.930
-20317.293	    15.480	    48.150	    38.915
-20224.311	    15.551	    13.163	    73.484
-20176.586	    15.626	    32.510	    53.614
-20226.850	    15.733	    45.468	    54.714
-20206.365	    15.781	    21.052	    77.809
-20147.662	    15.550	    40.270	    64.103
-20265.373	    15.248	    38.707	    65.548
-20297.127	    15.033	    47.245	    71.368
-20416.957	    14.966	    37.324	    61.559
-20083.650	    15.095	    29.851	    63.154
-20262.957	    15.300	    40.946	    48.021
-19951.572	    15.594	    47.584	    42.698
-20057.498	    15.695	    26.067	    63.127
-20287.688	    15.508	    33.151	    55.215
-20200.738	    15.293	    37.058	    51.389
-20301.498	    15.325	    30.971	    77.912
-20134.781	    15.438	    27.244	    72.017
-20161.547	    15.474	    32.485	    54.375
-20248.002	    15.388	    16.295	    86.557
-20362.658	    15.284	    28.615	    61.965
-20319.385	    15.468	    38.446	    72.908
-19876.865	    15.738	    35.370	    57.208
-20246.293	    15.866	    40.007	    63.879
-19870.148	    15.828	    26.126	    50.900
-20207.602	    15.687	    40.958	    74.911
-20260.654	    15.429	    26.895	    58.366
-20373.266	    15.280	    29.295	    57.745
-20237.881	    15.385	    38.810	    46.661
-19970.855	    15.676	    32.352	    53.485
-19965.641	    15.708	    32.171	    72.300
-20077.494	    15.615	    23.370	    61.549
-20124.805	    15.618	    34.322	    52.239
-20390.037	    15.643	    40.993	    56.784
-20263.205	    15.782	    41.039	    48.373
-20145.104	    15.745	    19.793	    65.604
-20139.113	    15.574	    27.906	    52.970
-19972.875	    15.451	    35.303	    67.345
-20153.605	    15.366	    33.768	    60.064
-19902.240	    15.245	    44.689	    62.854
-20153.768	    15.238	    38.163	    57.890
-20152.861	    15.242	    25.640	    70.113
-20317.674	    15.311	    41.399	    61.271
-20271.336	    15.496	    47.667	    58.595
-20130.135	    15.701	    25.668	    70.930
-19961.486	    15.753	    30.222	    86.423
-20101.551	    15.594	    38.128	    45.711
-20424.205	    15.346	    30.001	    63.064
-20237.273	    15.132	    40.967	    64.667
-20354.855	    15.093	    50.477	    55.862
-20173.473	    15.213	    31.022	    60.492
-20251.068	    15.305	    20.653	    66.261
-20083.342	    15.431	    30.098	    66.517
-20188.133	    15.491	    43.045	    59.244
-20163.490	    15.471	    28.238	    63.584
-20186.289	    15.354	    26.455	    62.910
-20225.857	    15.236	    33.784	    70.059
-20185.518	    15.196	    19.607	    71.822
-20188.057	    15.171	    24.068	    50.283
-20133.701	    15.335	    42.516	    71.323
-19971.369	    15.448	    31.812	    47.163
-20194.922	    15.467	    48.343	    65.534
-20132.072	    15.415	    32.125	    65.649
-20147.197	    15.348	    28.241	    59.033
-20462.258	    15.347	    33.899	    64.234
-20061.260	    15.361	    35.451	    69.342
-20146.152	    15.339	    13.791	    75.622
-20175.262	    15.419	    26.757	    78.255
-19846.812	    15.479	    49.750	    49.555
-20139.549	    15.505	    49.532	    61.423
-20424.318	    15.509	    47.658	    67.957
-20341.885	    15.646	    40.167	    58.458
-19976.223	    15.720	    36.586	    62.585
-20152.076	    15.649	    43.894	    68.379
-19985.867	    15.534	    30.756	    43.084
-20286.600	    15.438	    22.043	    75.427
-20444.801	    15.428	    37.753	    48.795
-20261.406	    15.489	    38.466	    69.556
-20111.131	    15.540	    34.083	    71.429
-20089.455	    15.603	    28.107	    67.368
-19982.846	    15.534	    27.210	    52.637
-20121.348	    15.425	    13.119	    55.382
-20230.852	    15.355	    27.517	    66.322
-20289.250	    15.328	    34.886	    60.809
-20217.033	    15.363	    34.582	    50.030
-20219.549	    15.335	    37.603	    51.378
-20270.156	    15.404	    35.707	    56.880
-20081.426	    15.529	    27.931	    67.418
-20360.029	    15.582	    32.281	    61.634
-20245.238	    15.568	    33.982	    49.309
-20107.918	    15.513	    39.648	    54.141
-20049.445	    15.464	    43.979	    43.799
-20162.061	    15.312	    22.478	    56.351
-20433.371	    15.259	    29.464	    52.531
-20157.822	    15.319	    43.626	    65.849
-20182.955	    15.418	    22.234	    65.214
-20205.891	    15.491	    44.584	    60.834
-19947.645	    15.563	    27.009	    60.197
-19985.045	    15.669	    32.617	    57.143
-19884.533	    15.695	    31.920	    77.756
-20121.256	    15.710	    21.664	    69.356
-20213.955	    15.534	    20.494	    54.890
-20067.387	    15.177	    31.942	    59.841
-20361.051	    14.960	    35.652	    64.722
-20297.623	    15.086	    15.475	    70.529
-20340.906	    15.380	    29.955	    63.954
-20228.773	    15.495	    39.211	    54.573
-19956.668	    15.458	    33.309	    67.595
-20413.549	    15.490	    14.343	    81.674
-20336.422	    15.552	    40.288	    49.617
-20131.312	    15.622	    20.530	    59.917
-19734.150	    15.640	    46.629	    51.643
-20113.654	    15.661	     5.036	   101.179
-20162.199	    15.769	    19.323	    71.828
-20376.080	    15.626	    38.986	    65.775
-20385.102	    15.358	    46.498	    66.031
-20161.564	    15.110	    44.397	    64.287
-20179.684	    15.043	    39.955	    65.620
-20304.875	    15.301	    29.953	    65.732
-19875.574	    15.551	    27.595	    68.850
-20110.529	    15.637	    52.182	    43.681
-20407.273	    15.576	    43.709	    43.949
-20426.945	    15.411	    33.505	    53.563
-20354.420	    15.396	    46.379	    62.549
-19999.000	    15.467	    37.037	    52.960
-20060.682	    15.692	    39.371	    49.731
-19940.986	    15.751	    40.956	    41.286
-20228.291	    15.506	    28.721	    64.111
-20125.914	    15.230	    43.737	    56.157
-20151.758	    15.079	    32.518	    59.825
-20241.285	    15.334	    23.174	    62.086
-20166.418	    15.682	    42.823	    64.170
-19796.230	    15.768	    31.838	    47.974
-20074.543	    15.577	    44.253	    52.771
-20098.070	    15.364	    18.458	    50.982
-20239.070	    15.361	    29.703	    46.399
-20252.178	    15.393	    52.383	    46.055
-19969.971	    15.532	    38.709	    63.718
-20149.961	    15.633	    41.495	    54.701
-20096.574	    15.710	    36.270	    64.987
-20289.445	    15.749	    33.655	    76.398
-19995.816	    15.709	    36.936	    66.879
-20217.473	    15.496	    30.884	    75.506
-20164.029	    15.195	    30.477	    63.039
-20151.291	    15.027	    29.253	    61.364
-20100.111	    15.059	    43.792	    63.618
-20120.391	    15.354	    19.182	    71.204
-20029.531	    15.735	    34.596	    78.999
-20067.031	    15.982	    42.951	    51.292
-19936.279	    15.965	    25.769	    67.305
-20195.783	    15.726	    42.239	    74.351
-20216.844	    15.405	    48.382	    32.102
-20302.453	    15.153	    35.008	    64.777
-20276.533	    15.202	    27.872	    69.976
-20218.713	    15.391	    30.630	    62.540
-19994.398	    15.470	    39.251	    70.636
-20170.957	    15.394	    38.076	    58.858
-19917.750	    15.308	    41.195	    74.914
-20261.078	    15.264	    51.169	    46.216
-20304.725	    15.235	    17.276	    69.547
-20384.707	    15.284	    47.834	    63.173
-20304.748	    15.353	    31.154	    59.354
-20161.889	    15.398	    35.177	    63.355
-20225.721	    15.464	    15.934	    68.822
-20239.287	    15.665	    52.095	    39.791
-20266.949	    15.754	    19.593	    55.898
-20306.111	    15.696	    27.620	    56.535
-20486.113	    15.555	    31.597	    52.706
-20192.447	    15.314	    31.469	    57.124
-20236.430	    15.092	    32.064	    59.279
-20234.566	    15.004	    38.059	    63.090
-20259.615	    15.147	    35.302	    59.361
-20157.404	    15.380	    25.862	    62.945
-20125.109	    15.594	    27.619	    56.001
-20171.943	    15.681	     7.694	    68.461
-20250.016	    15.593	    18.158	    72.746
-20380.213	    15.481	    43.781	    50.077
-20114.959	    15.502	    43.306	    58.687
-20257.744	    15.395	    43.591	    46.897
-20395.578	    15.210	    34.406	    48.563
-20297.715	    15.276	    38.881	    63.897
-20151.299	    15.499	    -7.789	    74.844
-19890.152	    15.636	    -4.567	    90.449
-20216.432	    15.717	    23.813	    59.354
-20175.025	    15.630	    24.260	    80.424
-20156.693	    15.557	    39.934	    47.124
-20216.025	    15.619	    39.329	    53.257
-20053.754	    15.726	    43.340	    63.479
-19918.428	    15.664	    50.242	    48.928
-20253.137	    15.390	    31.367	    58.284
-20114.748	    15.166	    26.516	    64.036
-20350.934	    15.015	    22.986	    64.561
-20239.102	    15.065	    22.843	    58.467
-20240.523	    15.329	    31.029	    68.480
-20223.393	    15.553	    30.968	    64.266
-20030.777	    15.665	    44.258	    75.114
-20143.248	    15.551	    16.665	    81.822
-20180.428	    15.531	    37.128	    58.344
-20185.941	    15.571	    39.154	    67.699
-20266.250	    15.637	    33.078	    56.545
-20202.678	    15.550	    24.509	    77.407
-20284.586	    15.360	    11.934	    73.971
-20286.734	    15.298	    38.868	    61.501
-20037.934	    15.349	    32.017	    68.989
-20072.553	    15.357	    30.269	    64.243
-20273.637	    15.419	    35.237	    52.236
-20235.094	    15.543	    31.309	    46.828
-20099.744	    15.555	    27.832	    63.295
-20065.736	    15.481	    36.380	    69.398
-20227.080	    15.397	    31.447	    56.324
-20297.188	    15.471	    48.793	    71.883
-20062.367	    15.597	    43.951	    60.444
-20108.477	    15.592	    35.337	    45.613
-20260.986	    15.493	    35.878	    78.279
-20198.232	    15.324	    24.177	    67.798
-20116.482	    15.354	    29.990	    52.388
-20241.654	    15.496	    41.198	    59.745
-19949.189	    15.543	    33.825	    45.044
-19983.920	    15.489	    24.136	    79.499
-20235.559	    15.427	    45.167	    53.759
-20180.156	    15.400	    41.018	    47.638
-20423.824	    15.347	    35.390	    52.660
-20185.975	    15.395	    30.930	    73.179
-20419.777	    15.480	    37.832	    69.280
-20258.020	    15.499	    50.299	    54.058
-20353.273	    15.398	    38.195	    69.522
-20366.979	    15.244	    44.607	    69.858
-19918.668	    15.274	    33.693	    61.675
-20225.020	    15.428	    38.738	    73.995
-20149.529	    15.546	     8.059	    86.623
-20061.973	    15.601	    39.050	    75.053
-20162.758	    15.553	    31.418	    58.514
-20297.324	    15.415	    33.332	    61.800
-20242.045	    15.314	    37.805	    75.570
-20277.998	    15.238	    22.582	    81.435
-20290.842	    15.214	    25.206	    60.963
-20024.701	    15.276	    45.606	    56.370
-20085.918	    15.322	    16.451	    73.537
-20100.633	    15.334	    28.162	    62.047
-20244.396	    15.380	     5.333	    72.887
-20255.854	    15.453	    21.974	    54.820
-20108.070	    15.512	    43.084	    45.907
-20168.041	    15.580	    15.084	    80.975
-20183.266	    15.681	    23.559	    62.211
-20033.053	    15.668	    35.986	    72.435
-20105.814	    15.573	    34.632	    50.518
-20036.842	    15.462	    30.928	    77.208
-20124.832	    15.354	    24.052	    78.440
-20280.908	    15.284	    36.638	    56.500
-20144.928	    15.343	    45.037	    66.221
-20189.988	    15.411	    30.182	    45.684
-20236.186	    15.548	    32.309	    57.342
-20228.824	    15.639	    24.706	    58.485
-20022.516	    15.740	    46.555	    61.882
-19957.918	    15.741	    37.128	    70.115
-20103.486	    15.550	    38.424	    57.828
-20026.584	    15.267	    26.862	    78.824
-20243.814	    15.072	    32.790	    55.545
-20241.432	    15.146	    52.472	    59.629
-20022.719	    15.298	    32.485	    59.146
-20064.338	    15.329	    27.998	    90.869
-20235.393	    15.248	    34.356	    60.953
-20335.990	    15.232	    38.487	    57.569
-20189.744	    15.284	    23.320	    80.370
-20158.002	    15.390	    43.145	    63.784
-20106.049	    15.432	    39.845	    63.555
-20151.014	    15.344	    15.305	    79.493
-20297.455	    15.272	    34.807	    60.018
-20053.451	    15.327	    34.379	    43.295
-20112.998	    15.423	    39.582	    63.040
-20197.346	    15.397	    32.045	    60.454
-20140.715	    15.406	    22.674	    71.106
-20022.963	    15.352	    14.977	    79.384
-20056.045	    15.319	    39.377	    71.821
-20180.227	    15.478	    40.477	    64.570
-20016.719	    15.647	    15.094	   100.249
-19999.113	    15.593	     9.677	    67.469
-19938.891	    15.391	    26.978	    62.683
-20248.889	    15.350	    20.503	    54.765
-20230.924	    15.218	    35.469	    54.131
-20122.162	    15.131	    33.898	    63.483
-20121.660	    15.283	    38.884	    50.819
-20058.889	    15.560	    34.245	    77.732
-20205.555	    15.761	    29.358	    75.680
-20285.168	    15.813	    38.150	    52.140
-20057.951	    15.751	    36.088	    61.200
-20088.693	    15.542	    34.628	    45.558
-20389.730	    15.230	    24.167	    47.888
-20296.916	    15.074	    28.544	    66.216
-20331.629	    15.129	    28.064	    60.503
-20361.195	    15.231	    24.889	    75.681
-20134.744	    15.441	    39.267	    71.661
-20091.723	    15.480	    29.201	    61.891
-19807.684	    15.415	    28.562	    69.491
-20179.236	    15.337	    31.416	    57.039
-20310.777	    15.384	    30.848	    64.861
-20036.793	    15.473	    20.606	    69.343
-20056.688	    15.520	    42.637	    55.289
-20242.584	    15.537	    29.008	    68.198
-19922.682	    15.495	    39.426	    61.345
-20210.199	    15.451	    26.922	    41.595
-20107.721	    15.508	    23.773	    69.646
-20050.186	    15.490	    43.030	    47.841
-20070.391	    15.454	    30.504	    62.090
-20148.789	    15.477	    21.523	    80.912
-20149.166	    15.470	    34.085	    64.005
-20215.893	    15.495	    21.175	    56.824
-20282.311	    15.487	    42.016	    50.725
-20136.781	    15.440	    24.046	    71.855
-20152.477	    15.372	    36.443	    66.314
-20321.662	    15.230	    35.510	    58.216
-20501.088	    15.224	    29.671	    55.307
-20387.363	    15.307	    28.100	    74.850
-20328.135	    15.545	    41.870	    57.116
-20126.381	    15.717	    16.681	    75.019
-20054.578	    15.684	    37.108	    56.862
-20300.320	    15.415	    36.621	    71.481
-20064.018	    15.242	    49.924	    55.836
-20030.988	    15.232	    40.915	    57.394
-19997.412	    15.272	    24.886	    46.055
-19974.016	    15.403	    41.621	    56.098
-20165.070	    15.526	    31.455	    43.310
-20023.234	    15.584	    47.276	    52.632
-20082.080	    15.640	    33.353	    50.635
-20186.773	    15.602	    47.869	    45.135
-20003.930	    15.467	    38.156	    48.655
-20154.865	    15.322	    52.438	    46.765
-20348.930	    15.269	    37.133	    56.147
-20187.264	    15.365	    23.139	    64.485
-20382.684	    15.386	     9.401	    71.590
-19848.947	    15.361	    41.167	    57.308
-20065.020	    15.313	    45.422	    57.920
-20253.492	    15.395	    30.400	    62.466
-20076.969	    15.582	    33.674	    68.652
-19904.219	    15.706	    36.247	    60.747
-20260.215	    15.650	    31.667	    57.511
-20347.807	    15.570	    38.410	    62.686
-20347.098	    15.425	    25.375	    48.805
-20121.760	    15.445	    43.941	    39.792
-20365.268	    15.478	    31.525	    66.439
-20317.680	    15.446	    36.944	    58.200
-20253.223	    15.417	    33.559	    66.873
-20302.244	    15.493	    43.719	    41.469
-20198.887	    15.601	    36.821	    56.865
-20185.713	    15.541	    33.408	    57.066
-20293.143	    15.380	    40.476	    55.444
-20198.371	    15.311	    20.436	    74.247
-20348.748	    15.214	    20.619	    76.977
-20273.170	    15.225	    30.313	    65.769
-20350.129	    15.243	    36.443	    55.316
-20154.006	    15.204	    23.020	    63.632
-20107.252	    15.256	    55.219	    61.608
-20162.117	    15.376	    37.027	    55.487
-20011.809	    15.400	    20.277	    67.742
-20118.322	    15.343	    46.970	    52.221
-20259.963	    15.400	    34.854	    50.653
-19986.188	    15.556	    42.810	    60.028
-20132.650	    15.764	    22.597	    73.125
-20039.021	    15.649	    36.973	    54.915
-20164.229	    15.381	    30.476	    42.277
-20233.037	    15.216	    28.690	    67.463
-20334.186	    15.060	    43.083	    52.667
-20072.820	    15.048	    36.339	    58.711
-20300.381	    15.096	    29.113	    57.593
-20046.609	    15.197	    29.692	    58.015
-20336.053	    15.371	    36.397	    43.054
-20175.082	    15.484	    42.631	    62.144
-20286.891	    15.603	    36.511	    33.190
-20220.975	    15.695	    40.046	    58.409
-20273.229	    15.754	    34.137	    68.099
-19928.049	    15.661	    25.074	    71.554
-20235.150	    15.483	    45.793	    53.951
-20294.641	    15.365	    54.407	    63.137
-20269.451	    15.401	    25.315	    68.108
-20279.002	    15.510	    27.564	    79.042
-19932.648	    15.484	    42.402	    45.454
-20267.256	    15.376	    38.044	    65.414
-20152.582	    15.169	    34.989	    66.103
-20089.387	    15.116	    36.021	    59.137
-20012.385	    15.203	    18.814	    81.012
-20305.215	    15.309	    31.443	    89.892
-20145.162	    15.293	    32.611	    66.118
-20255.352	    15.234	    17.437	    63.533
-20401.525	    15.226	    51.861	    53.366
-20480.393	    15.332	    14.805	    76.870
-20091.605	    15.488	    33.432	    66.158
-20100.648	    15.648	    23.845	    68.280
-20151.219	    15.710	    39.578	    61.510
-20154.299	    15.546	    31.087	    52.256
-20418.477	    15.362	    50.068	    68.082
-20139.848	    15.361	    38.687	    67.368
-20261.809	    15.530	    27.014	    60.992
-20139.957	    15.636	    30.850	    58.461
-20394.215	    15.593	    27.175	    69.231
-20109.379	    15.547	    34.391	    45.784
-20298.051	    15.461	    33.916	    62.585
-20226.834	    15.341	    30.531	    70.652
-20363.033	    15.408	    39.658	    49.161
-20207.477	    15.557	    17.818	    77.611
-20196.883	    15.563	    42.310	    47.405
-20162.629	    15.421	    13.718	    73.847
-20379.828	    15.377	    59.110	    40.897
-20035.955	    15.470	    40.310	    47.947
-20194.627	    15.604	    31.225	    63.675
-20017.096	    15.596	    30.237	    66.018
-20348.242	    15.432	    21.742	    64.731
-20046.961	    15.261	    30.947	    68.158
-20011.520	    15.311	    24.541	    55.562
-19923.209	    15.299	    25.162	    71.509
-20119.875	    15.346	    24.253	    76.455
-20217.916	    15.467	    32.164	    71.892
-20325.908	    15.611	    38.548	    60.891
-19991.582	    15.711	    38.991	    60.043
-20134.205	    15.729	    34.833	    87.205
-20092.717	    15.676	    17.866	    68.321
-19947.881	    15.583	    49.881	    46.372
-20326.752	    15.383	    41.959	    56.178
-20144.152	    15.234	    17.864	    59.889
-20074.369	    15.260	    38.326	    48.261
-20464.188	    15.306	    32.705	    65.793
-20189.594	    15.364	    21.906	    66.890
-20256.264	    15.442	    25.433	    61.424
-20227.234	    15.497	    33.065	    73.717
-20297.816	    15.430	    45.728	    56.955
-20269.215	    15.376	    49.005	    71.762
-20409.602	    15.406	    32.750	    73.168
-20265.004	    15.450	    23.784	    63.448
-19954.744	    15.546	    39.394	    55.745
-19999.594	    15.709	    36.244	    57.061
-19985.184	    15.738	    22.320	    61.343
-19879.838	    15.543	    29.808	    48.445
-20141.398	    15.284	    31.336	    69.931
-20287.064	    15.184	    35.538	    50.073
-20214.930	    15.255	    24.130	    63.899
-20074.109	    15.378	    29.029	    69.683
-20202.609	    15.524	    25.448	    53.523
-20093.330	    15.570	    41.538	    62.692
-20177.527	    15.461	     6.753	    70.628
-20449.156	    15.336	    50.429	    48.794
-20092.453	    15.387	    32.275	    52.794
-20452.900	    15.483	    20.991	    68.295
-20130.227	    15.672	    32.912	    59.403
-20210.488	    15.754	    40.768	    51.076
-20225.846	    15.659	    30.393	    76.349
-19818.590	    15.400	    22.488	    58.365
-20389.115	    15.091	    40.764	    63.027
-20066.861	    15.020	    29.783	    53.100
-20382.607	    15.245	    46.184	    56.766
-20221.107	    15.557	    12.597	    67.253
-20247.680	    15.741	    45.983	    61.854
-20067.502	    15.738	    21.319	    63.222
-20256.123	    15.547	    49.208	    57.924
-19996.158	    15.284	    51.966	    59.167
-20251.811	    15.107	    37.386	    66.361
-20046.154	    15.085	    42.666	    48.862
-19979.975	    15.275	    23.217	    73.354
-19901.229	    15.499	    28.472	    34.799
-19963.545	    15.584	    25.123	    50.255
-20146.881	    15.519	    40.404	    63.457
-20509.141	    15.433	    39.078	    58.729
-20231.086	    15.497	    37.798	    63.506
-20094.221	    15.516	    36.811	    68.410
-20202.703	    15.468	    42.381	    49.468
-20472.980	    15.492	    14.467	    51.734
-19962.062	    15.634	    21.512	    61.255
-20080.744	    15.642	    21.987	    71.920
-20079.174	    15.572	    39.614	    47.566
-20139.867	    15.341	    24.309	    68.892
-20270.564	    15.180	    24.598	    73.885
-20176.576	    15.232	    35.840	    53.618
-20019.838	    15.402	    19.200	    49.172
-20136.174	    15.578	    24.587	    55.857
-20024.600	    15.717	    38.040	    44.653
-19913.199	    15.800	    16.576	    66.979
-20108.691	    15.766	    38.333	    44.400
-20065.039	    15.755	    28.337	    79.760
-19826.328	    15.657	    11.940	    69.796
-20142.291	    15.532	    42.906	    65.233
-20255.318	    15.480	    38.280	    57.229
-20379.199	    15.388	    38.125	    61.364
-20381.809	    15.358	    42.115	    61.073
-20190.309	    15.553	    38.107	    57.842
-20120.867	    15.596	    17.203	    47.418
-20022.113	    15.490	    50.013	    54.625
-20175.600	    15.291	    39.584	    59.661
-20397.521	    15.240	    47.315	    51.891
-20173.594	    15.352	    29.561	    73.968
-20297.740	    15.587	    35.762	    54.371
-20052.453	    15.587	    32.924	    65.279
-19975.020	    15.492	    15.333	    66.009
-19861.021	    15.473	    44.140	    57.790
-20022.074	    15.375	    33.642	    66.861
-20188.742	    15.266	    31.468	    74.535
-20433.691	    15.313	    39.209	    46.405
-20350.564	    15.434	    42.428	    60.650
-20245.506	    15.404	    39.376	    53.404
-20265.336	    15.304	    44.216	    61.340
-20251.332	    15.157	    50.505	    42.560
-20052.633	    15.101	    37.773	    51.284
-20136.357	    15.155	    24.485	    82.990
-20337.156	    15.340	    24.435	    80.058
-20116.428	    15.625	    41.135	    48.149
-19930.963	    15.781	    43.250	    82.153
-20104.391	    15.782	    26.163	    60.773
-20201.242	    15.614	    37.014	    59.587
-20322.404	    15.472	    34.175	    52.651
-20098.625	    15.278	    24.424	    57.656
-20416.645	    15.205	     2.156	    76.007
-20196.732	    15.295	    30.893	    68.864
-19951.912	    15.401	    42.484	    40.073
-20087.869	    15.498	    36.594	    66.706
-20253.211	    15.458	    29.416	    70.009
-20144.189	    15.306	    36.367	    82.960
-20227.258	    15.304	    22.912	    89.375
-20263.498	    15.387	    30.001	    80.879
-20110.896	    15.558	    37.171	    71.240
-20086.934	    15.579	    37.522	    68.070
-20072.488	    15.540	    19.113	    69.061
-19991.805	    15.535	    30.800	    65.522
-20076.611	    15.468	    51.000	    61.165
-20519.256	    15.301	    10.312	    74.078
-20109.346	    15.312	    35.850	    57.809
-19950.557	    15.305	    25.506	    57.152
-20239.355	    15.369	    33.452	    55.186
-20088.217	    15.487	    24.591	    54.581
-19932.158	    15.494	    40.104	    70.459
-20085.096	    15.369	    30.095	    57.033
-20267.082	    15.275	    34.512	    58.330
-20361.168	    15.186	    26.921	    69.899
-20016.129	    15.184	    31.133	    44.935
-20178.170	    15.184	    26.059	    69.236
-20254.645	    15.232	    46.168	    75.299
-20143.027	    15.242	    49.132	    69.008
-20400.873	    15.241	    24.822	    75.916
-20154.092	    15.473	    23.152	    70.371
-19969.500	    15.732	    31.279	    50.248
-20163.307	    15.814	    38.674	    63.057
-20422.646	    15.633	    31.075	    55.494
-20502.412	    15.423	    27.116	    71.927
-20262.432	    15.221	    42.353	    70.358
-20418.463	    15.104	    38.280	    62.153
-20359.082	    15.187	    38.866	    67.971
-20126.340	    15.337	    38.285	    53.044
-20286.820	    15.356	    30.667	    70.708
-20208.258	    15.374	    42.664	    50.496
-20213.625	    15.427	    25.408	    54.099
-20105.389	    15.590	    29.089	    57.599
-19853.221	    15.619	    38.961	    60.065
-20357.242	    15.445	    27.290	    58.945
-20249.607	    15.252	    30.032	    59.747
-20402.287	    15.211	    27.808	    71.256
-20293.166	    15.337	    38.151	    59.453
-20179.854	    15.462	    28.642	    60.294
-20263.736	    15.470	    33.693	    58.488
-20301.039	    15.551	    10.611	    91.344
-20063.254	    15.615	    17.056	    68.116
-19859.756	    15.619	    35.315	    65.360
-20256.807	    15.590	    40.707	    68.544
-19957.230	    15.558	    34.103	    83.119
-20171.592	    15.503	    35.058	    65.381
-20191.861	    15.342	    31.354	    60.060
-20185.188	    15.202	    31.822	    59.269
-20132.471	    15.286	    51.232	    38.404
-20188.689	    15.296	    44.347	    47.791
-20422.246	    15.194	    30.748	    56.746
-20281.385	    15.085	    29.767	    44.875
-20048.826	    15.075	    18.718	    62.719
-20248.229	    15.240	    43.245	    62.315
-20282.496	    15.476	    36.085	    57.150
-20134.504	    15.592	    23.009	    54.864
-20178.307	    15.513	    27.821	    64.425
-20165.441	    15.254	    36.919	    71.158
-20251.172	    15.230	    41.391	    63.888
-20136.275	    15.466	    26.069	    58.288
-20110.812	    15.610	    25.651	    74.265
-19950.666	    15.633	    24.322	    64.615
-20341.951	    15.553	    37.244	    63.870
-20283.143	    15.498	    44.089	    58.394
-20418.145	    15.473	    38.357	    55.629
-20096.582	    15.375	    31.201	    77.036
-20183.676	    15.276	    39.089	    64.764
-20140.975	    15.322	    47.082	    61.444
-20393.641	    15.360	    23.629	    69.152
-20255.688	    15.364	    35.894	    54.655
-20030.098	    15.382	    35.320	    55.355
-20572.678	    15.419	    29.066	    60.263
-20188.742	    15.450	    40.998	    63.070
-20231.145	    15.510	    35.247	    66.221
-20117.186	    15.365	    54.892	    85.467
-20491.461	    15.228	    34.429	    77.025
-20502.248	    15.130	    22.854	    54.173
-20096.258	    15.128	    36.824	    49.835
-20200.785	    15.309	    42.078	    46.009
-20159.699	    15.539	    37.409	    63.872
-20046.740	    15.769	    40.242	    50.826
-20082.383	    15.774	    26.419	    89.203
-20110.760	    15.624	    49.683	    80.685
-20324.270	    15.415	    36.258	    65.337
-20427.492	    15.229	    29.296	    60.683
-20036.457	    15.115	    23.173	    61.995
-20468.070	    15.182	    25.420	    68.645
-20388.699	    15.273	    17.960	    83.989
-20268.705	    15.356	    30.526	    50.214
-19968.490	    15.569	    16.106	    61.710
-20201.797	    15.704	     0.604	    92.254
-20125.691	    15.573	    33.726	    73.925
-20068.219	    15.411	    34.407	    55.905
-20168.316	    15.275	    25.489	    53.551
-20069.363	    15.113	    30.788	    73.116
-20251.676	    15.129	    34.668	    78.151
-19973.123	    15.232	    18.726	    56.477
-19910.170	    15.456	    47.084	    49.363
-20150.793	    15.556	    40.769	    44.971
-20195.775	    15.538	    28.363	    63.013
-20313.441	    15.461	    31.145	    55.232
-19960.373	    15.464	     2.316	   100.993
-20300.037	    15.586	    33.162	    77.185
-19736.725	    15.800	    36.501	    64.283
-20014.061	    15.845	    24.688	    55.221
-20189.760	    15.702	    15.403	    73.336
-20221.094	    15.438	    34.163	    46.384
-20224.967	    15.238	    42.801	    77.239
-20162.850	    15.148	    42.661	    78.357
-20128.918	    15.231	    53.327	    49.930
-20341.939	    15.441	    34.221	    82.299
-20135.691	    15.633	     4.025	    85.370
-20066.312	    15.655	    37.235	    67.331
-20381.199	    15.554	    42.495	    68.315
-20257.799	    15.405	    23.602	    64.290
-20027.104	    15.270	    24.592	    59.356
-20361.707	    15.265	    34.230	    68.301
-20171.803	    15.368	    23.435	    58.972
-20325.277	    15.411	    26.775	    67.014
-20198.650	    15.460	    34.028	    59.443
-20418.357	    15.505	    36.604	    48.680
-20110.635	    15.552	    26.982	    79.088
-20006.090	    15.620	    28.258	    71.704
-20028.256	    15.653	    47.590	    61.240
-19988.729	    15.526	    37.417	    67.886
-20073.428	    15.361	    36.448	    61.774
-20503.781	    15.138	    39.184	    48.052
-20242.523	    15.140	    50.835	    64.801
-20178.896	    15.166	    31.884	    76.815
-20277.500	    15.308	    35.785	    58.056
-19920.689	    15.558	    33.384	    61.923
-20104.826	    15.713	    37.941	    56.534
-20019.051	    15.652	    27.545	    59.115
-19941.959	    15.463	    34.739	    52.189
-20265.660	    15.306	    30.857	    59.573
-20368.842	    15.234	    36.054	    63.513
-20217.041	    15.155	    28.033	    58.007
-20420.434	    15.121	    52.551	    48.236
-20246.271	    15.145	    40.878	    64.912
-20202.340	    15.186	    36.474	    49.306
-20254.824	    15.229	    33.933	    75.485
-20208.199	    15.347	    45.965	    66.727
-19958.365	    15.355	    36.374	    68.980
-20253.113	    15.403	    30.388	    62.657
-20319.592	    15.307	    38.032	    55.552
-20068.014	    15.270	    48.128	    71.407
-20074.381	    15.367	    40.003	    61.743
-20015.506	    15.616	    44.668	    68.925
-20180.992	    15.652	    32.330	    54.824
-20153.012	    15.550	    43.138	    42.398
-20046.684	    15.474	    26.998	    77.579
-20394.010	    15.429	    41.500	    55.222
-20234.344	    15.486	    11.945	    57.417
-20088.998	    15.495	    34.778	    77.791
-20251.717	    15.379	    40.196	    61.355
-20324.480	    15.242	    39.913	    63.731
-20354.721	    15.284	    40.115	    54.765
-20192.396	    15.420	    37.137	    48.178
-20077.658	    15.495	    31.892	    44.187
-20125.234	    15.626	    42.096	    45.386
-20012.473	    15.672	    40.583	    67.177
-20238.184	    15.569	    34.578	    68.966
-20150.807	    15.492	    41.540	    72.445
-20180.793	    15.447	    -4.034	    66.835
-20081.391	    15.443	    21.614	    62.242
-20163.291	    15.391	    18.717	    66.341
-20128.771	    15.289	    35.082	    56.054
-20255.633	    15.287	    23.714	    70.404
-19913.074	    15.561	    30.327	    52.460
-20062.639	    15.856	    41.828	    54.831
-20064.707	    15.872	    28.490	    54.117
-20202.504	    15.619	    43.151	    50.654
-20405.350	    15.233	    37.905	    61.755
-20312.184	    15.003	    42.817	    45.630
-20273.293	    15.070	    25.205	    54.732
-20235.350	    15.317	    38.663	    69.268
-20251.832	    15.509	    33.067	    56.566
-20155.348	    15.601	    23.978	    67.159
-20417.516	    15.470	    21.878	    80.754
-20209.258	    15.385	    36.056	    63.616
-20289.084	    15.402	    46.872	    71.449
-20093.723	    15.369	    38.784	    57.763
-20471.443	    15.332	    27.530	    58.212
-20120.715	    15.401	    31.780	    37.646
-20170.506	    15.512	    33.727	    63.867
-20235.689	    15.601	    19.624	    65.408
-20262.779	    15.503	    43.744	    38.457
-20088.980	    15.375	    24.512	    72.550
-20160.076	    15.285	    39.172	    53.872
-20172.199	    15.217	    28.228	    87.164
-20023.885	    15.269	    33.180	    57.955
-20021.918	    15.434	    39.102	    52.919
-20090.348	    15.571	    20.621	    60.921
-20207.553	    15.519	    23.782	    76.782
-20216.938	    15.291	    39.964	    53.356
-20280.701	    15.209	    43.760	    46.460
-20302.447	    15.380	    23.125	    57.906
-20054.895	    15.586	    27.967	    57.533
-20096.818	    15.786	    24.943	    68.860
-19811.244	    15.763	    49.386	    68.889
-20361.455	    15.649	    25.359	    45.778
-20406.629	    15.619	    37.727	    69.809
-20086.666	    15.539	    42.185	    56.263
-20301.068	    15.434	    19.508	    61.253
-20165.842	    15.474	    34.660	    45.641
-20256.637	    15.649	    35.024	    54.606
-19952.494	    15.742	    38.056	    61.656
-20177.980	    15.655	    35.468	    49.559
-19847.451	    15.615	    52.414	    38.603
-20363.930	    15.428	    36.702	    43.880
-20162.678	    15.274	    29.728	    67.000
-20088.271	    15.290	    26.871	    58.616
-20067.334	    15.501	    47.872	    56.270
-19909.699	    15.746	    36.067	    58.020
-19926.887	    15.820	    40.464	    58.290
-20032.115	    15.833	    34.309	    57.376
-20248.164	    15.759	    33.161	    61.526
-20261.545	    15.531	    38.470	    59.139
-20336.244	    15.238	    26.943	    63.006
-20292.498	    15.073	    26.146	    65.977
-20283.334	    15.218	    30.741	    80.303
-20101.256	    15.435	    23.391	    62.874
-20248.328	    15.449	    22.564	    57.758
-20488.689	    15.406	    31.573	    58.723
-20287.291	    15.241	    23.319	    83.427
-20410.010	    15.118	    37.264	    66.320
-20517.428	    15.078	    30.570	    59.453
-20317.053	    15.159	    40.246	    51.521
-20339.752	    15.268	    29.709	    69.599
-20253.943	    15.460	    31.837	    57.966
-20250.229	    15.676	    32.385	    76.792
-20240.824	    15.806	    44.760	    66.516
-20126.953	    15.749	    25.648	    64.590
-19965.301	    15.575	    35.519	    52.601
-20021.857	    15.509	    31.287	    63.516
-20093.561	    15.423	    38.828	    70.242
-20529.795	    15.335	    37.261	    51.302
-20434.170	    15.363	    22.682	    63.935
-20311.924	    15.465	    35.884	    51.905
-19927.594	    15.445	    41.377	    44.208
-20126.516	    15.398	    36.520	    46.056
-19970.258	    15.336	    36.548	    54.561
-20189.182	    15.297	    29.119	    58.394
-20116.131	    15.320	    33.737	    56.441
-20242.811	    15.400	    41.584	    62.511
-20072.027	    15.538	    34.741	    63.285
-20115.127	    15.465	    16.628	    70.402
-20432.287	    15.390	    31.351	    51.884
-20198.910	    15.315	    30.563	    65.922
-20438.537	    15.260	    17.042	    62.293
-20418.721	    15.394	    44.392	    52.816
-20168.527	    15.490	    28.023	    71.545
-20216.049	    15.569	    19.721	    64.701
-20201.611	    15.626	    30.201	    41.617
-20351.109	    15.541	    16.731	    71.761
-20231.816	    15.375	    14.706	    79.783
-20433.941	    15.188	    30.739	    49.718
-20300.650	    15.055	    41.226	    53.945
-20545.084	    15.185	    15.876	    67.424
-20095.627	    15.501	    35.597	    67.198
-19975.793	    15.617	    40.368	    55.471
-20189.074	    15.490	    31.674	    57.751
-20160.664	    15.268	    25.064	    58.313
-20260.355	    15.255	    51.435	    62.507
-20216.066	    15.126	    32.546	    71.448
-20185.354	    15.069	    19.444	    90.454
-20540.947	    15.248	    32.298	    74.719
-20237.078	    15.445	    32.928	    62.177
-20221.768	    15.517	    35.431	    55.906
-20279.668	    15.573	    13.541	    65.474
-20140.445	    15.717	    30.177	    57.789
-19996.994	    15.775	    34.784	    67.997
-20115.125	    15.607	    16.578	    65.698
-20213.590	    15.340	    46.065	    47.471
-20164.250	    15.202	    28.687	    63.904
-20274.291	    15.097	    22.838	    65.349
-20113.559	    15.134	    43.982	    46.380
-19899.854	    15.202	    30.613	    72.015
-20145.639	    15.263	    40.313	    54.012
-20028.428	    15.406	    32.674	    66.915
-20033.062	    15.565	    38.931	    54.794
-20281.178	    15.559	    47.895	    45.500
-20247.320	    15.459	    29.968	    54.751
-20361.070	    15.469	    37.260	    51.086
-20184.244	    15.607	    42.728	    44.844
-20142.127	    15.527	    37.884	    48.790
-20212.727	    15.372	    28.996	    60.726
-20102.582	    15.264	    27.368	    69.856
-19985.910	    15.206	    34.658	    51.003
-20295.676	    15.185	    31.162	    62.827
-20305.299	    15.272	    45.460	    62.229
-19933.373	    15.517	    31.774	    71.165
-20098.369	    15.642	    21.985	    63.802
-20103.076	    15.764	    33.983	    55.896
-20221.514	    15.785	    29.864	    67.267
-19954.105	    15.674	    38.569	    69.672
-20146.758	    15.350	    14.540	    75.057
-20347.611	    15.038	    35.673	    57.907
-20359.914	    14.942	    39.323	    58.670
-20224.627	    15.170	    13.611	    76.757
-19932.672	    15.424	    43.890	    62.704
-19979.482	    15.588	    25.495	    70.432
-20322.641	    15.598	    37.799	    67.226
-20090.781	    15.528	    16.777	    76.492
-20069.369	    15.406	    37.951	    70.338
-20213.596	    15.335	    38.454	    53.829
-20044.268	    15.352	    43.591	    50.814
-20517.650	    15.499	    37.326	    62.907
-20171.568	    15.622	    37.673	    77.082
-20237.656	    15.645	    29.115	    64.488
-20318.600	    15.634	    22.829	    60.320
-20498.688	    15.537	    32.646	    55.557
-20395.592	    15.411	    14.830	    66.726
-19977.002	    15.221	    13.735	    91.944
-20307.109	    15.169	    30.867	    67.090
-20385.303	    15.139	    39.787	    58.178
-20074.561	    15.210	    41.265	    78.218
-20165.439	    15.235	    37.957	    61.151
-20188.467	    15.251	    47.917	    61.053
-20283.572	    15.320	    34.568	    67.715
-20284.545	    15.409	    19.405	    56.874
-20198.062	    15.496	    37.401	    43.729
-20215.988	    15.466	    31.826	    64.320
-20101.232	    15.324	    34.237	    64.458
-20304.414	    15.256	    38.575	    56.409
-20287.098	    15.238	    33.763	    61.549
-20166.391	    15.266	    32.131	    74.585
-20062.684	    15.360	    40.938	    86.807
