    1.00000e+03    1.00000e+03
    1.00000e+00    1.00000e+00
    1.00000e+01    1.00000e+01    1.00000e+01    1.00000e+01    1.00000e+01    1.00000e+01    1.00000e+01    1.00000e+01    1.00000e+01    1.00000e+01    1.00000e+01    1.00000e+01    1.00000e+01    1.00000e+01    1.00000e+01    1.00000e+01    1.00000e+01    1.00000e+01    1.00000e+01    1.00000e+01    1.00000e+01    1.00000e+01    1.00000e+01    1.00000e+01    1.00000e+01    1.00000e+01    1.00000e+01    1.00000e+01    1.00000e+01    1.00000e+01    1.00000e+01    1.00000e+01    1.00000e+01    1.00000e+01    1.00000e+01    1.00000e+01
    1.00000e+01    1.00000e+01    1.00000e+01    1.00000e+01    1.00000e+01    1.00000e+01    1.00000e+01    1.00000e+01    1.00000e+01    1.00000e+01    1.00000e+01    1.00000e+01    1.00000e+01    1.00000e+01    1.00000e+01    1.00000e+01    1.00000e+01    1.00000e+01    1.00000e+01    1.00000e+01    1.00000e+01    1.00000e+01    1.00000e+01    1.00000e+01    1.00000e+01    1.00000e+01    1.00000e+01    1.00000e+01    1.00000e+01    1.00000e+01    1.00000e+01    1.00000e+01    1.00000e+01    1.00000e+01    1.00000e+01    1.00000e+01
