    2.00000e+01    2.00000e+01    2.00000e+01    2.00000e+01    2.00000e+01    2.00000e+01    2.00000e+01    2.00000e+01    2.00000e+01    2.00000e+01    2.00000e+01    2.00000e+01    2.00000e+01    2.00000e+01    2.00000e+01    2.00000e+01    2.00000e+01    2.00000e+01
    2.00000e+01    2.00000e+01    2.00000e+01    2.00000e+01    2.00000e+01    2.00000e+01    2.00000e+01    2.00000e+01    2.00000e+01    2.00000e+01    2.00000e+01    2.00000e+01    2.00000e+01    2.00000e+01    2.00000e+01    2.00000e+01    2.00000e+01    2.00000e+01
    2.00000e+01    2.00000e+01    2.00000e+01    2.00000e+01    2.00000e+01    2.00000e+01    2.00000e+01    2.00000e+01    2.00000e+01    2.00000e+01    2.00000e+01    2.00000e+01    2.00000e+01    2.00000e+01    2.00000e+01    2.00000e+01    2.00000e+01    2.00000e+01
