   -1.70000e+02   -1.50000e+02   -1.30000e+02   -1.10000e+02   -9.00000e+01   -7.00000e+01   -5.00000e+01   -3.00000e+01   -1.00000e+01    1.00000e+01    3.00000e+01    5.00000e+01    7.00000e+01    9.00000e+01    1.10000e+02    1.30000e+02    1.50000e+02    1.70000e+02
   -1.70000e+02   -1.50000e+02   -1.30000e+02   -1.10000e+02   -9.00000e+01   -7.00000e+01   -5.00000e+01   -3.00000e+01   -1.00000e+01    1.00000e+01    3.00000e+01    5.00000e+01    7.00000e+01    9.00000e+01    1.10000e+02    1.30000e+02    1.50000e+02    1.70000e+02
   -1.70000e+02   -1.50000e+02   -1.30000e+02   -1.10000e+02   -9.00000e+01   -7.00000e+01   -5.00000e+01   -3.00000e+01   -1.00000e+01    1.00000e+01    3.00000e+01    5.00000e+01    7.00000e+01    9.00000e+01    1.10000e+02    1.30000e+02    1.50000e+02    1.70000e+02
