   -2.05000e+04   -1.95000e+04
    1.50000e+01    1.60000e+01
   -1.75000e+02   -1.65000e+02   -1.55000e+02   -1.45000e+02   -1.35000e+02   -1.25000e+02   -1.15000e+02   -1.05000e+02   -9.50000e+01   -8.50000e+01   -7.50000e+01   -6.50000e+01   -5.50000e+01   -4.50000e+01   -3.50000e+01   -2.50000e+01   -1.50000e+01   -5.00000e+00    5.00000e+00    1.50000e+01    2.50000e+01    3.50000e+01    4.50000e+01    5.50000e+01    6.50000e+01    7.50000e+01    8.50000e+01    9.50000e+01    1.05000e+02    1.15000e+02    1.25000e+02    1.35000e+02    1.45000e+02    1.55000e+02    1.65000e+02    1.75000e+02
   -1.75000e+02   -1.65000e+02   -1.55000e+02   -1.45000e+02   -1.35000e+02   -1.25000e+02   -1.15000e+02   -1.05000e+02   -9.50000e+01   -8.50000e+01   -7.50000e+01   -6.50000e+01   -5.50000e+01   -4.50000e+01   -3.50000e+01   -2.50000e+01   -1.50000e+01   -5.00000e+00    5.00000e+00    1.50000e+01    2.50000e+01    3.50000e+01    4.50000e+01    5.50000e+01    6.50000e+01    7.50000e+01    8.50000e+01    9.50000e+01    1.05000e+02    1.15000e+02    1.25000e+02    1.35000e+02    1.45000e+02    1.55000e+02    1.65000e+02    1.75000e+02
