    1	   300.00000       1.00000000
    2	   300.00000       1.00000000
    3	   300.00000       1.00000000
    4	   300.00000       1.00000000
    5	   300.00000       1.00000000
    6	   300.00000       1.00000000
    7	   300.00000       1.00000000
    8	   300.00000       1.00000000
    9	   300.00000       1.00000000
   10	   300.00000       1.00000000
   11	   300.00000       1.00000000
   12	   300.00000       1.00000000
   13	   300.00000       1.00000000
   14	   300.00000       1.00000000
   15	   300.00000       1.00000000
   16	   300.00000       1.00000000
   17	   300.00000       1.00000000
   18	   300.00000       1.00000000
   19	   300.00000       1.00000000
   20	   300.00000       1.00000000
   21	   300.00000       1.00000000
   22	   300.00000       1.00000000
   23	   300.00000       1.00000000
   24	   300.00000       1.00000000
   25	   300.00000       1.00000000
   26	   300.00000       1.00000000
   27	   300.00000       1.00000000
   28	   300.00000       1.00000000
   29	   300.00000       1.00000000
   30	   300.00000       1.00000000
   31	   300.00000       1.00000000
   32	   300.00000       1.00000000
   33	   300.00000       1.00000000
   34	   300.00000       1.00000000
   35	   300.00000       1.00000000
   36	   300.00000       1.00000000
   37	   310.00000      50.00000000
   38	   310.00000      50.00000000
   39	   310.00000      50.00000000
   40	   310.00000      50.00000000
   41	   310.00000      50.00000000
   42	   310.00000      50.00000000
   43	   310.00000      50.00000000
   44	   310.00000      50.00000000
   45	   310.00000      50.00000000
   46	   310.00000      50.00000000
   47	   310.00000      50.00000000
   48	   310.00000      50.00000000
   49	   310.00000      50.00000000
   50	   310.00000      50.00000000
   51	   310.00000      50.00000000
   52	   310.00000      50.00000000
   53	   310.00000      50.00000000
   54	   310.00000      50.00000000
   55	   310.00000      50.00000000
   56	   310.00000      50.00000000
   57	   310.00000      50.00000000
   58	   310.00000      50.00000000
   59	   310.00000      50.00000000
   60	   310.00000      50.00000000
   61	   310.00000      50.00000000
   62	   310.00000      50.00000000
   63	   310.00000      50.00000000
   64	   310.00000      50.00000000
   65	   310.00000      50.00000000
   66	   310.00000      50.00000000
   67	   310.00000      50.00000000
   68	   310.00000      50.00000000
   69	   310.00000      50.00000000
   70	   310.00000      50.00000000
   71	   310.00000      50.00000000
   72	   310.00000      50.00000000
