    1	   300.00000       1.00000000
    2	   300.00000       1.00000000
    3	   300.00000       1.00000000
    4	   300.00000       1.00000000
    5	   300.00000       1.00000000
    6	   300.00000       1.00000000
    7	   300.00000       1.00000000
    8	   300.00000       1.00000000
    9	   300.00000       1.00000000
   10	   300.00000       1.00000000
   11	   300.00000       1.00000000
   12	   300.00000       1.00000000
   13	   300.00000       1.00000000
   14	   300.00000       1.00000000
   15	   300.00000       1.00000000
   16	   300.00000       1.00000000
   17	   300.00000       1.00000000
   18	   300.00000       1.00000000
   19	   300.00000       1.00000000
   20	   300.00000       1.00000000
   21	   300.00000       1.00000000
   22	   300.00000       1.00000000
   23	   300.00000       1.00000000
   24	   300.00000       1.00000000
   25	   300.00000       1.00000000
   26	   300.00000       1.00000000
   27	   300.00000       1.00000000
   28	   300.00000       1.00000000
   29	   300.00000       1.00000000
   30	   300.00000       1.00000000
   31	   300.00000       1.00000000
   32	   300.00000       1.00000000
   33	   300.00000       1.00000000
   34	   300.00000       1.00000000
   35	   300.00000       1.00000000
   36	   300.00000       1.00000000
