   -92.310	   122.143	    -3.179
   -91.923	    -5.096	    20.061
   -85.485	     8.928	    28.085
   -88.693	    -0.755	    16.392
   -88.032	    22.186	    17.594
  -126.576	     7.869	    16.263
  -127.853	    25.229	     9.369
  -111.381	    21.018	    -3.122
  -104.177	     4.889	    13.338
  -103.180	    11.509	    -6.584
   -87.238	    -3.260	    16.233
  -102.489	    -5.114	    14.723
  -109.806	     2.863	    16.755
  -120.959	     9.453	     4.832
  -109.090	    -5.417	     2.920
  -119.329	     2.516	    -1.285
  -113.892	    -0.035	    -3.894
  -118.845	     7.041	    -0.918
  -121.380	   -11.180	    13.803
  -102.637	    -1.553	    -0.629
   -96.372	     3.899	    -3.179
  -110.206	    -1.731	    24.540
  -109.839	    13.440	    13.896
   -93.981	    15.517	     7.069
  -116.779	    14.714	    -6.319
  -108.080	    10.381	     4.096
  -112.333	    -3.106	     3.438
   -87.369	     5.400	    18.254
   -95.090	   -19.393	    18.196
  -106.152	     5.335	    10.189
   -82.777	    18.536	     1.163
  -111.732	     9.932	    16.296
  -103.665	     8.856	    -3.601
  -117.270	    11.653	   -14.781
  -110.389	    16.056	    20.891
  -109.653	    26.828	    -6.349
  -109.312	    -1.420	     6.087
  -124.247	    15.528	    -7.011
  -111.881	    19.343	     3.983
  -125.911	    27.261	     5.046
  -101.056	     4.737	    -7.508
  -126.400	    17.015	    -6.000
  -116.940	   -12.315	    -3.264
   -93.007	    -6.869	   -15.717
  -119.261	     2.781	   -12.936
  -114.382	    -3.030	    10.065
   -91.678	     0.353	    14.263
  -117.779	    -7.068	    15.349
   -78.155	    10.835	     3.405
  -109.779	    15.254	     1.274
   -98.515	     3.763	    19.587
   -84.439	     6.200	    -1.414
  -101.862	    16.562	    20.545
  -101.989	    16.392	    15.574
  -104.542	    10.442	    -0.284
  -110.012	    16.795	    12.330
  -117.315	    -0.865	     6.561
  -112.690	     2.833	    18.036
  -107.063	     0.486	    25.746
  -112.538	    -4.948	   -21.309
  -114.804	     2.129	    14.539
  -108.445	     0.876	     1.104
  -114.331	    -2.013	    -6.579
  -101.431	    -9.207	    -3.015
   -88.026	    -8.379	     5.946
  -117.150	     3.132	     3.757
  -114.948	    16.455	    -1.763
  -109.816	    -7.365	     6.488
  -113.041	     8.052	     2.523
  -103.792	   -13.087	    19.736
   -87.376	    -1.719	    15.494
   -96.434	     8.320	    29.046
   -98.206	     3.316	    12.538
  -113.225	    11.358	     3.629
  -103.223	    -0.479	     2.254
   -98.084	    15.756	    11.647
   -86.426	    24.990	    -9.033
  -112.138	    -0.715	    17.135
  -107.808	   -14.442	     9.099
   -92.192	    11.767	    11.978
   -96.642	    14.447	     2.432
  -108.116	     2.136	   -13.827
  -118.501	    10.060	   -17.481
   -84.311	     3.462	    11.331
  -101.537	     7.566	     8.376
  -113.283	     5.046	    13.714
  -100.425	    17.326	    -7.258
   -94.789	    11.738	     9.891
  -121.430	     8.404	    12.062
   -88.977	     9.204	    18.291
   -91.373	    16.209	     2.154
   -92.061	    22.843	   -21.222
   -98.845	   -28.487	    -3.369
   -96.855	    10.108	    23.281
   -99.843	    10.887	    -0.865
   -85.113	     1.073	    -3.519
  -113.404	    23.849	   -14.875
   -87.919	    -3.000	    15.471
  -120.819	    27.926	    10.295
  -127.902	     8.541	    28.248
   -84.849	     4.007	     1.439
   -83.130	     0.865	     8.720
  -110.023	     8.500	     0.367
   -95.390	    -1.757	    11.969
  -137.131	   -12.246	     5.884
  -132.343	    17.871	     7.493
  -113.491	    15.887	     5.731
  -130.712	     6.870	    -3.476
  -127.623	    14.525	     6.777
  -108.796	     0.762	    -4.026
  -110.578	     3.786	     4.382
  -111.367	     7.445	    -7.490
  -118.655	    21.621	    13.156
  -117.269	    -1.379	    13.731
  -114.573	    27.365	    12.209
  -125.508	    16.591	     2.388
   -92.905	    20.379	    11.065
   -95.808	     4.948	    -2.701
  -129.156	    17.218	    -5.207
  -119.674	     1.842	     1.556
  -119.401	     8.696	    19.027
  -110.279	    26.618	    -7.216
  -114.892	    14.354	   -15.564
  -102.778	    15.879	     3.518
  -116.334	     1.668	     3.571
  -131.502	    -1.590	    -2.067
  -131.008	    31.365	     1.647
   -94.633	     6.007	    -4.589
   -89.753	     8.571	    -3.359
  -125.146	    17.391	    -6.787
  -100.082	     5.404	     8.857
  -115.661	    15.565	     3.367
   -90.322	     3.253	     0.416
  -105.532	    -4.601	    -0.235
  -108.768	    -9.453	     4.733
  -100.686	     2.686	     3.332
  -108.678	    -1.455	     8.343
  -127.165	    -3.413	     5.344
  -117.305	     7.147	    -4.062
  -124.601	     3.878	   -13.222
  -119.541	    -7.870	    -3.320
   -95.974	    -3.223	    16.876
  -112.487	    26.778	     4.256
   -87.673	     4.624	     5.052
  -113.425	    18.665	     9.387
  -111.317	     9.811	    21.919
   -91.632	    -0.184	     2.023
   -88.230	    13.889	     3.693
  -102.710	     8.667	     9.537
  -109.095	    20.471	    11.477
   -94.727	     2.824	    18.230
   -95.832	    -4.430	     6.283
   -82.586	    -9.021	    -1.900
  -102.983	     8.926	    14.736
  -105.074	    -4.527	    -5.599
   -97.875	    -4.820	    26.737
  -115.114	    -2.903	    -0.214
  -100.703	    15.188	   -13.662
  -107.861	     7.993	    -6.939
  -119.350	    22.885	   -19.262
   -95.958	    18.154	    -1.578
  -108.048	    -4.776	    12.647
  -127.877	    -3.675	     7.685
  -120.724	    17.194	    13.252
   -96.126	    -1.532	    12.594
  -103.090	    25.220	     6.100
   -95.307	    -9.383	     1.677
   -96.541	   -12.205	     3.490
  -110.323	    11.366	    27.447
  -107.296	     6.388	    12.722
  -106.662	    13.056	     7.586
  -119.591	    11.823	    -2.023
  -127.402	    12.704	    -0.658
  -109.359	     8.552	    -6.618
  -124.195	    21.133	   -13.417
   -95.434	     6.046	     6.804
  -110.780	    12.867	    -6.258
  -114.599	    23.024	     9.104
   -95.827	    22.923	     8.635
   -88.906	    11.391	     1.569
   -97.007	    13.165	    -5.170
  -107.950	    29.448	     4.806
  -114.961	     7.276	     7.422
  -106.228	    -1.967	     4.540
  -108.564	    -9.777	     4.005
  -106.017	    -6.250	   -14.924
  -116.847	   -10.659	     8.629
  -123.948	    -0.093	    -9.247
  -118.917	    -4.806	     6.098
  -102.116	   -14.857	    12.643
  -106.317	    19.948	    26.354
  -125.332	    14.199	    14.412
  -109.472	    30.643	    15.647
   -89.582	    -2.527	     5.766
  -103.226	    14.606	     5.053
   -93.398	    19.175	     3.491
   -92.636	     9.056	     0.122
  -112.888	     9.803	     9.717
  -120.779	    21.455	    26.103
  -104.679	    -7.983	     0.452
  -113.149	    -8.801	     1.938
  -121.069	     9.941	    18.100
  -100.261	     3.585	     2.988
  -111.054	     7.163	     3.923
  -116.378	    -9.324	    -2.458
  -133.616	    15.919	     4.380
  -147.434	    13.161	     1.262
  -135.327	    14.273	     0.903
  -139.192	   -11.948	   -18.170
  -115.693	     6.075	   -11.661
  -129.528	   -12.842	     5.753
  -102.996	    -7.021	     9.823
  -128.219	     4.448	   -11.851
  -117.534	    -0.089	     7.489
  -104.629	    13.909	    15.986
   -88.693	    21.279	    -0.058
  -101.750	    13.171	     7.761
  -105.528	    -1.371	     3.815
  -107.144	    18.323	    -4.560
  -102.284	    15.026	     0.856
  -102.490	    18.017	   -23.935
  -111.833	     5.322	    18.869
  -104.720	    -2.475	     9.209
   -89.549	   -15.519	    -3.449
  -117.349	     6.770	    -6.568
  -117.048	    22.987	    14.574
   -89.144	    24.803	    14.687
   -98.879	    17.915	     9.453
  -117.478	     6.954	    -6.806
  -110.283	     2.516	     9.097
   -88.521	    10.724	   -22.580
  -111.347	    -3.704	    -2.720
  -107.134	    11.473	     7.023
   -96.907	     2.919	    12.727
  -106.606	     9.762	     8.544
  -100.613	     2.581	    -7.860
  -101.228	     6.445	    -6.300
  -105.825	     8.484	   -27.725
  -105.106	     1.679	    12.217
  -106.670	     9.260	    -9.240
  -100.142	     0.911	   -14.014
   -95.046	     9.428	     2.498
  -105.864	    24.625	     7.584
  -109.546	     3.234	     1.541
  -104.611	     3.900	     4.645
  -104.060	     6.069	     3.786
  -125.885	    11.016	     5.574
  -105.323	     8.929	    -2.208
  -116.672	     8.421	     3.190
  -100.763	     5.410	     9.237
  -105.350	     4.960	    10.861
  -103.264	    15.997	    -8.080
   -99.568	    20.309	    -4.385
  -105.272	    -3.834	    10.933
  -104.480	    11.661	    10.600
  -117.100	     9.061	     2.927
  -105.162	     9.824	     7.821
   -98.335	    -3.141	     1.998
   -98.366	     0.320	     0.243
   -94.050	    13.689	     5.382
   -96.004	    -2.216	     4.910
  -109.476	    16.026	     5.635
   -91.433	    20.427	    -0.008
   -95.986	    24.255	    -5.253
   -82.621	     0.319	    -8.746
   -93.864	    11.091	    -5.670
   -91.905	     0.152	    -4.350
  -107.657	    19.780	    10.013
  -138.687	    -6.813	    -0.001
  -112.846	   -11.497	   -29.322
   -96.479	     4.152	    17.763
  -113.958	    13.709	    27.661
  -104.831	     7.107	    12.507
  -100.735	     9.319	    -4.214
   -98.464	     5.137	     1.321
  -103.026	    11.611	    14.896
  -112.398	    -1.057	    -7.181
   -95.933	    18.182	    -0.314
  -113.011	    14.969	    10.204
  -121.389	    -4.559	     3.548
  -104.566	     5.077	     8.452
  -109.429	     6.588	    15.510
  -113.621	     9.709	    10.688
  -110.746	    -2.908	    10.019
  -107.195	   -10.244	    17.041
  -107.314	    -0.349	    -6.565
  -116.388	    11.719	     1.385
  -106.091	    -6.586	     4.033
  -119.248	     6.813	    11.317
  -122.910	     3.302	    11.127
  -109.877	     8.102	    -0.257
   -96.027	    20.362	     1.514
  -117.384	    10.408	    -3.741
   -96.171	    -1.566	     7.259
  -119.444	     2.303	    -2.393
  -124.813	    21.005	    -0.586
  -100.609	     5.076	     2.270
  -113.758	    12.642	     7.496
  -109.905	     3.919	    -4.358
  -113.551	    -5.841	     4.228
   -91.034	    -8.131	     9.435
  -117.407	    -6.078	    10.220
  -121.552	   -17.443	    29.019
   -79.026	    10.614	   -10.309
  -109.683	     9.368	    12.676
  -116.809	     3.426	    21.018
  -115.834	    -4.805	    -2.533
  -129.343	    13.521	    19.025
  -106.029	   -15.532	    13.053
  -100.688	     5.084	    -2.399
   -74.893	    11.807	     3.391
  -111.458	    -1.726	     8.043
  -128.728	   -17.526	   -16.892
   -82.418	     4.104	    -0.861
  -115.378	    -2.285	    14.200
  -118.703	     4.572	    -0.248
   -90.949	     0.668	   -10.560
  -109.783	    -2.283	     1.042
  -109.726	    -3.247	    -6.730
  -108.390	    10.097	    -9.694
  -116.997	    13.246	    10.820
  -115.746	     2.933	    18.411
   -91.754	    17.529	     1.040
  -101.598	    -8.603	     8.059
  -123.357	    -8.555	     9.489
  -109.497	     7.264	     1.301
  -100.847	     7.235	     6.742
  -107.461	     0.463	    -3.879
   -87.633	   -12.741	    19.669
   -83.456	     0.989	    16.418
  -112.097	    16.784	    30.928
   -79.473	     6.813	    -3.588
   -99.507	    -7.324	    -4.124
  -108.845	    15.328	    21.125
  -119.832	    21.162	    13.966
   -92.105	     6.779	    15.044
  -126.878	    -2.997	    15.055
  -138.581	     7.050	     8.277
  -148.558	     8.327	    18.230
  -115.733	   -15.098	     0.765
  -130.848	    10.138	     4.698
  -108.159	     8.621	    -8.423
  -124.116	    11.961	     6.247
  -117.424	     7.126	    24.691
  -103.420	    13.086	     5.892
  -109.472	    15.192	     2.046
  -120.173	     8.423	    -5.426
  -108.352	    33.373	     9.636
  -125.618	    21.402	     5.158
  -100.588	    -5.878	   -13.453
  -119.703	    -8.890	     1.306
  -112.762	    23.811	    22.621
  -110.787	     5.904	    -1.299
  -123.654	     0.523	    -0.577
  -103.506	     9.789	    -9.336
  -123.729	    -7.886	   -17.159
  -122.941	     8.212	     4.692
  -116.795	     2.178	    17.730
  -112.404	     6.712	     1.999
   -98.285	    18.976	    -2.565
  -135.414	    23.501	     3.914
   -88.956	     0.820	    -2.515
   -86.389	    -3.841	    -6.389
  -100.358	     3.733	     5.575
   -87.220	    -7.138	    -1.943
  -108.679	     2.012	    -1.899
  -113.292	     2.616	     7.952
  -109.041	    11.593	    10.191
   -97.599	    -9.297	     8.542
  -103.608	     8.213	     2.623
  -118.496	    -4.748	     3.233
  -126.808	    28.674	    13.512
   -83.158	     1.702	    -3.372
  -103.455	     1.583	     6.808
  -100.298	    14.194	    24.132
  -106.479	    15.927	     4.987
  -112.768	    -7.444	    -2.349
  -101.499	     4.818	     4.703
  -100.019	    12.530	    20.120
  -134.953	     3.842	    11.635
   -89.615	    27.495	     9.950
   -93.790	     8.079	     3.837
  -113.376	    14.942	    -8.527
  -100.960	     3.120	   -15.511
   -84.100	   -10.187	     0.095
  -125.731	    -2.135	     9.444
  -116.871	    -0.350	   -13.419
  -112.949	    -5.821	    13.140
   -93.591	    -6.916	     1.132
  -120.124	    -0.145	    16.506
   -86.872	     6.262	     0.419
   -96.511	     9.841	     9.526
  -118.724	     1.348	     2.823
  -103.937	    13.102	     7.982
  -103.364	    13.097	    -7.166
  -108.552	    30.993	    -1.403
   -99.160	    10.836	     6.655
  -108.549	    14.744	     8.733
  -103.390	     9.198	    24.252
  -117.599	     2.774	    13.609
   -98.090	    -5.421	    23.049
  -103.030	     7.920	    -0.293
  -109.243	    13.541	     1.657
  -108.463	    21.485	     2.115
  -102.523	   -14.548	     3.855
  -103.430	    12.517	    -3.408
  -113.586	    -0.919	     9.006
   -90.389	     5.002	    -4.262
  -113.758	     9.792	   -11.702
   -81.120	   -10.413	    17.801
   -88.229	    10.263	    18.675
  -109.815	   -19.225	    10.490
  -107.304	    -5.875	    16.291
  -126.578	    13.345	    22.846
   -90.623	     7.255	    19.691
  -107.920	     9.248	     6.124
   -92.783	    12.796	   -16.949
  -104.753	    13.249	     8.069
   -87.510	    13.502	    -5.549
  -135.953	    13.906	    31.901
   -97.547	    -1.971	     0.298
  -106.378	    -0.646	     0.144
  -106.280	     2.592	    -0.457
  -114.514	    12.219	     7.773
   -91.241	    -6.764	     9.764
   -83.463	    -4.791	    -2.462
  -106.829	     8.753	     0.127
   -90.141	     5.659	     3.505
  -111.439	     2.999	    -9.078
  -106.662	     7.154	    11.054
   -83.793	    25.681	    -7.869
  -100.742	    31.395	    26.895
  -111.808	     6.846	     1.409
   -94.363	     1.243	     0.975
   -99.081	   -11.318	     8.794
   -91.434	    23.877	     3.872
   -89.756	    -5.649	    -0.587
   -84.088	     9.080	     9.207
  -123.090	     8.832	     7.242
  -127.261	    -2.981	     7.744
  -103.321	    11.298	     8.880
   -84.752	     9.575	    12.262
   -86.819	    14.515	    20.879
   -94.607	    12.628	     6.988
  -100.704	     5.363	     0.019
   -99.615	    19.375	     6.264
  -113.058	    15.139	     4.456
   -95.186	    33.069	    -6.304
   -85.733	    16.291	    -3.382
   -86.335	    -1.013	    17.329
  -101.866	    -0.972	    21.692
   -91.181	     3.601	    13.892
  -104.749	     5.852	    15.103
  -106.631	    -2.156	    -5.726
  -109.139	   -14.484	    11.921
  -122.051	    18.480	     7.645
  -120.649	    14.750	     4.144
   -87.687	     2.801	     2.307
  -106.228	   -19.551	    -0.989
  -112.751	    11.359	    -0.165
   -81.135	    -8.914	    -3.105
  -102.482	     8.660	    14.540
  -112.814	    34.384	    12.283
  -107.866	    20.696	    -4.752
  -110.335	    14.038	    -0.241
  -115.582	     9.683	    22.663
  -107.584	    14.096	    -1.132
  -128.828	     4.987	     0.297
  -119.171	    -6.898	     1.156
  -108.843	    16.217	     2.626
  -106.903	     7.830	    26.337
  -102.799	    22.955	     7.112
   -95.013	    -2.291	    24.946
   -91.259	     5.709	    -0.682
   -93.035	     1.348	    15.382
   -86.824	     7.476	    23.729
   -92.716	    -1.836	    14.037
  -104.562	    11.220	     0.841
   -87.259	    -5.874	    -6.958
   -87.526	   -17.574	    16.838
   -90.595	   -11.402	    -4.147
  -123.790	    10.506	     7.638
   -91.687	     7.795	    -3.758
  -103.357	     0.192	    17.581
  -110.312	     7.512	     6.165
  -100.048	    -1.905	    -9.298
   -90.220	    12.799	   -15.717
  -104.411	    -6.824	     2.589
   -93.897	     1.908	     7.427
   -83.151	    -5.855	     6.272
  -106.291	    20.974	    -0.206
  -108.753	    13.218	    -7.087
  -105.997	    12.375	    11.433
   -84.587	   -16.315	    20.728
  -130.912	    11.619	    -4.708
  -133.560	    17.179	   -13.316
  -105.219	    21.051	    -1.069
  -130.313	    16.271	     1.147
   -92.339	     7.569	    -4.915
   -96.337	    13.294	     5.553
  -106.946	     4.648	     8.114
   -85.698	     7.719	    11.356
   -76.104	     1.265	    -0.932
   -99.525	    13.825	    16.557
   -90.972	   -10.003	    12.161
   -93.707	    11.491	    16.410
  -119.384	    15.221	    15.054
  -100.226	    20.318	    10.232
  -108.514	    22.344	    -1.666
   -97.719	     5.474	    13.662
  -105.644	    12.591	    11.907
  -134.940	    -0.032	    -0.689
  -140.964	    23.060	    18.334
  -109.951	    -2.070	    20.560
   -98.207	    -0.831	    -5.399
   -96.837	     3.697	     7.741
   -91.329	   -16.446	    18.049
   -88.250	    19.692	     2.717
   -94.717	    10.402	     8.496
  -112.250	    18.508	    23.020
  -101.698	    -0.888	    19.947
  -102.863	    16.672	    11.535
   -98.642	    15.561	     3.845
   -81.244	    -0.855	    11.556
  -103.790	    10.736	    14.642
  -113.570	     4.573	    -2.009
   -92.607	     0.255	     3.921
   -97.523	     8.736	    -0.175
  -120.787	   -18.631	    13.763
  -109.101	    -7.452	     9.355
  -101.354	     2.874	   -10.272
   -94.323	    -1.712	    -0.928
  -101.873	     6.293	    -8.706
  -121.944	     1.957	    -9.230
  -111.567	    13.564	   -16.956
  -109.382	     1.812	    -8.739
  -128.948	    19.005	     5.855
  -125.184	    -0.121	    15.256
  -115.423	    10.526	     3.385
  -130.784	    16.519	    -9.725
   -93.197	     3.417	    -6.596
  -103.403	    28.175	    -3.953
  -102.457	    19.070	    19.613
  -100.421	    -9.593	    -1.054
  -109.856	    22.245	    -4.404
   -82.387	    18.729	     7.315
   -93.894	    -3.764	     6.884
   -98.471	    -5.627	     0.954
  -103.862	    14.254	    -0.292
  -121.254	    13.890	    -0.119
   -92.983	    -9.536	     8.330
  -126.901	     0.285	     6.756
  -118.100	    -4.704	   -11.510
  -138.134	   -17.288	    13.562
  -114.964	   -10.939	    -0.997
  -116.604	    -1.258	     9.450
   -81.904	     3.281	     5.107
  -115.777	     3.670	     7.714
  -108.663	    16.185	     6.734
  -117.598	     9.215	    -0.873
  -108.446	    11.507	   -11.577
  -105.478	    31.807	    -5.758
  -114.499	    -6.133	    -9.376
  -118.724	    -5.455	    12.383
  -113.368	    21.217	     5.602
  -115.742	     5.679	     4.510
  -115.174	     6.643	     8.023
  -104.439	    -0.090	     1.759
  -101.937	     6.092	    14.778
  -106.961	     6.494	     7.462
  -106.718	     6.554	     2.853
  -121.174	    -5.081	     1.028
   -97.195	    11.323	    -3.636
   -91.661	     3.509	     5.672
   -82.062	     8.502	    22.738
  -120.439	    34.968	     1.037
   -96.509	    15.726	     8.465
  -115.482	     2.701	    10.720
  -119.496	    -3.993	    18.282
   -97.753	     8.687	     3.783
   -81.910	    -1.802	     6.239
   -87.314	   -11.200	     9.189
  -106.953	    19.948	     4.881
  -125.441	     5.964	     8.006
  -114.676	    18.496	     9.758
  -107.297	    24.571	     0.909
  -118.928	     5.681	     6.656
  -114.081	    27.401	   -12.441
  -135.364	    -2.094	    -4.281
  -111.963	     4.045	   -11.681
   -98.150	    10.259	     9.405
   -87.664	    -9.752	    15.086
  -115.525	     7.413	     3.992
   -89.952	    25.277	     4.223
  -111.284	     5.206	    12.057
   -99.069	    10.980	     1.312
  -103.897	    11.088	     1.877
  -116.330	     9.850	     3.790
  -120.229	    12.155	    16.906
  -118.866	    18.954	    -6.766
  -106.594	    -2.238	     6.342
  -121.048	    10.685	   -22.514
  -114.407	    -6.375	    -6.287
  -108.813	     5.509	     3.006
  -124.620	    17.088	     4.446
  -133.925	    23.624	    14.556
  -119.282	     9.673	     1.836
   -85.046	     7.639	     2.807
   -90.058	    -7.974	     7.851
   -99.866	     8.194	   -33.195
  -110.329	     3.131	     0.353
  -128.018	    15.363	    12.664
  -132.100	    15.258	   -17.121
  -118.597	    -9.544	     9.754
  -111.142	     5.137	    -3.708
  -147.192	    10.093	    -3.231
  -103.275	   -18.602	    19.003
  -124.958	    -7.700	    -1.215
   -84.680	   -10.814	     9.133
   -89.104	    -5.234	     2.359
  -108.947	   -16.353	     2.219
  -112.513	    -1.663	    11.660
  -118.509	     0.513	   -12.002
  -121.525	     2.477	     7.121
   -95.164	     7.614	    -0.243
   -83.389	    12.509	    -3.717
   -92.075	    27.099	    -4.499
  -124.796	     4.935	     6.538
   -78.916	     8.579	     3.907
   -80.217	     5.294	    12.003
   -77.140	    34.420	    10.523
   -84.647	    39.209	    -6.460
   -93.904	    31.778	    13.790
   -85.164	    12.529	    12.150
   -97.125	    19.628	    12.223
  -113.353	     4.184	     8.731
  -112.886	    26.799	     5.118
  -118.375	    -6.232	    -5.016
  -101.564	     7.216	    28.984
   -92.236	    29.991	     7.125
  -104.903	    14.832	    15.465
  -118.827	    22.204	    20.362
  -106.806	    15.533	     3.975
  -115.215	    19.832	     6.092
  -130.482	    13.163	    15.997
   -93.487	    10.086	    -3.461
  -115.527	    14.771	     8.490
   -96.660	    -5.711	     1.451
  -114.890	   -15.990	    -3.143
  -101.332	    -4.696	    20.261
   -76.445	    -0.998	     2.199
   -89.415	    -1.653	     6.243
   -85.932	    -3.290	    14.959
  -103.844	     5.814	     2.138
  -104.361	    -1.704	    -0.113
   -81.452	    15.777	     7.124
   -80.174	    10.720	    12.905
   -97.885	    13.963	     3.938
  -121.129	    20.426	     3.138
  -105.102	   -13.419	    -3.714
  -110.591	    -8.703	    12.141
   -88.548	     2.402	     5.380
  -110.620	    -2.910	     3.278
  -110.716	    -2.547	     1.631
  -109.995	    13.620	     9.929
  -113.088	    11.967	     1.881
  -137.378	    18.215	     3.249
  -124.830	   -12.592	     5.223
  -128.529	     6.751	   -13.121
  -114.972	    -8.859	     9.136
  -112.109	     5.212	    10.427
  -122.816	    16.804	   -12.071
   -94.036	     2.001	     4.080
  -102.940	    -5.479	     4.898
  -107.974	    32.955	     2.164
  -104.016	    25.793	     8.805
  -128.743	    15.361	     6.521
   -98.235	    12.962	     5.379
  -108.685	     5.391	     1.385
  -107.264	    13.792	   -20.689
  -132.035	     6.451	    -7.387
  -108.580	    -6.700	    10.279
  -123.266	     8.795	    -7.852
  -117.399	     5.397	    23.895
   -99.407	    11.091	    -0.708
  -106.756	    22.844	    14.308
  -104.547	    21.803	    17.399
  -127.632	    10.322	    13.645
   -98.333	    -7.373	    -1.821
  -129.278	    20.875	    23.176
  -109.765	     6.830	    -7.664
   -96.010	    -2.628	    -8.371
  -107.286	     6.715	   -13.179
  -142.476	     4.056	     3.561
   -76.952	   -20.074	   -24.761
  -139.990	    11.783	     0.039
  -121.838	    18.968	    -0.869
  -117.681	    17.554	    -5.456
  -103.248	    -9.840	    15.550
  -108.461	    23.450	    -6.318
  -107.126	    16.965	   -14.869
  -108.484	    17.497	    14.622
  -102.811	    17.202	    18.009
   -84.474	    20.609	     0.314
  -123.509	    11.827	     0.479
  -113.968	     9.111	     6.022
  -123.767	     6.830	     3.559
  -126.462	     2.076	    -7.821
  -120.246	    11.542	    15.230
   -98.954	     4.734	    11.874
  -112.126	     2.432	    -6.836
  -105.442	     5.145	     8.843
   -95.614	     0.843	     2.246
   -93.835	     2.267	    33.285
  -122.302	     1.181	    -0.548
  -125.866	    -0.436	     6.409
  -104.167	     7.268	     9.674
  -105.102	    14.078	     8.433
   -95.101	    22.567	    -8.845
  -104.595	    16.085	    -0.142
  -121.742	    -6.517	    11.715
  -102.074	    13.585	     3.998
   -86.676	    16.258	    15.725
  -102.888	    15.730	    -0.504
   -77.422	    25.480	     3.493
   -77.792	     2.657	    10.295
   -94.974	    20.854	    19.740
   -79.338	    -8.531	     8.618
  -101.204	    18.382	     8.014
   -84.264	     0.855	     2.675
  -100.313	    -0.094	    17.149
  -123.120	     0.598	     0.814
  -112.031	   -18.112	   -13.789
  -106.614	   -20.305	    16.561
  -115.319	    -9.104	     4.754
   -94.718	     3.622	    -8.353
  -121.428	   -14.399	     2.086
  -105.987	    14.650	    -7.620
  -117.919	     8.113	     8.998
  -100.648	    -0.648	    -8.438
   -88.016	    -9.511	     7.226
  -101.486	    -1.346	    14.444
  -114.269	    21.414	     3.072
  -113.955	    -3.540	     7.354
  -101.160	   -14.269	     5.343
  -102.603	    -4.400	     0.499
  -100.441	    -7.117	     6.736
  -109.775	    17.488	    -0.203
  -107.407	    21.101	    10.519
  -121.792	     8.022	    -5.153
  -116.538	     7.223	    -4.208
  -108.520	    -3.885	    22.224
  -129.998	     3.528	    -0.440
  -133.890	    20.440	    14.057
  -137.666	    10.922	   -12.755
  -119.995	    -0.204	     8.878
  -124.413	     6.444	     3.116
  -116.494	    11.555	    22.889
   -79.737	     0.014	     7.615
  -102.866	    26.115	    -3.108
   -91.209	    -1.205	    13.881
   -95.557	    10.965	    -0.354
  -118.792	    19.064	    14.853
  -118.469	     7.735	    -8.545
  -121.173	    25.865	    20.164
  -104.692	     9.754	    15.493
   -88.418	    15.750	    -1.348
  -110.284	    19.949	   -11.207
  -112.322	    -3.217	     7.370
  -122.993	    -1.761	    14.491
  -117.346	    -0.715	    -5.991
  -118.732	    12.727	     0.368
   -99.482	     5.082	     1.861
  -125.852	    16.097	     3.453
  -132.922	    18.331	    -9.841
   -94.020	    14.011	    10.461
  -110.999	    22.334	    10.426
   -92.732	     1.220	     0.058
   -90.677	     5.401	   -12.076
  -106.487	    -8.231	     8.701
   -95.962	   -10.356	    11.771
  -140.802	     4.544	    10.260
  -111.273	     1.577	     2.915
   -96.243	    14.546	     0.600
  -113.232	    -8.288	    -6.996
   -98.251	    11.718	     7.401
  -127.739	    22.404	     6.393
   -91.444	    12.805	     8.018
   -89.964	     1.535	    19.186
  -102.545	     3.265	     0.553
  -100.719	    -3.711	    -8.497
   -81.300	     5.556	   -11.964
  -100.971	    17.322	    -0.823
  -137.231	     3.142	    -5.790
   -96.293	     9.794	    -1.905
  -122.720	     0.997	     3.770
  -100.495	    -5.807	     9.719
  -105.201	     8.496	    -3.800
   -90.907	    12.331	    15.867
   -88.805	    -3.575	     7.002
   -97.857	     9.960	     8.467
  -114.354	    13.482	    -0.889
   -94.451	    10.051	    10.079
   -97.810	    10.277	    15.731
   -98.826	     5.474	   -10.851
  -109.635	     1.910	   -10.942
  -105.597	    17.507	    -6.635
  -100.061	     1.892	    -3.166
  -102.377	    21.766	     7.128
  -107.554	    -6.988	    -0.666
  -100.571	     6.307	    11.453
  -127.405	    15.771	    27.992
   -95.836	    15.802	    21.568
  -130.710	    10.238	     9.274
   -99.411	     1.439	   -18.329
  -111.965	    -0.002	     0.884
  -117.912	    -9.113	    -7.266
  -122.948	    14.072	     0.927
   -90.027	     1.534	    -2.285
  -115.540	     0.562	    -4.190
   -96.154	    11.703	    15.246
   -87.508	   -11.404	     8.256
  -111.311	    14.224	     3.713
  -116.814	    -1.887	    -6.031
  -102.297	    -2.220	    -4.794
  -120.877	    10.676	    14.411
  -110.779	     8.241	     2.521
   -78.144	     0.397	   -14.373
  -104.450	    17.182	    29.516
   -87.762	    13.936	    -3.086
   -91.590	    13.896	   -12.689
  -100.246	    -9.242	    10.288
  -134.617	    -9.776	     0.959
  -117.884	    14.528	    -2.467
  -110.980	    18.161	    -1.249
  -113.749	    -3.715	     4.810
   -87.668	    15.165	     2.431
  -117.139	   -12.868	     5.673
  -111.168	    16.905	   -18.779
  -108.720	    19.045	    17.196
  -114.858	    12.924	    15.649
  -117.695	    16.655	    -2.414
  -134.025	    -1.241	    -4.978
   -96.725	     2.660	    -2.596
  -105.395	    -4.294	     8.814
  -103.598	     3.992	     9.428
  -115.080	     8.053	     8.027
  -101.508	    14.917	    -0.738
   -92.148	    22.848	    -2.790
   -98.455	     2.695	     2.364
   -89.618	    -6.312	     1.676
  -114.016	     9.526	    -4.476
   -99.982	   -17.610	    16.036
  -115.325	   -12.744	    23.439
   -97.650	     1.848	    19.232
  -111.530	    -4.870	    13.700
   -92.765	    17.530	    -7.764
  -121.812	    -5.520	    12.220
  -138.170	    11.856	    -1.502
   -95.395	    -7.982	     8.313
  -104.527	    12.363	     5.356
  -100.878	    -1.004	    21.994
   -97.621	    10.536	    20.607
  -111.134	    21.128	     4.519
  -109.843	    10.166	     3.042
   -95.720	    20.455	     7.166
   -81.678	    -8.517	    15.629
  -112.902	    35.174	    11.009
   -96.017	    -0.621	     7.465
  -117.385	     7.092	    -2.515
  -133.363	    25.324	     4.097
  -117.133	     6.985	     0.652
  -102.387	    22.695	    22.260
  -107.379	     5.081	   -15.869
  -120.974	   -12.191	    -9.081
   -97.484	    -8.722	    -4.268
  -117.085	     0.392	     8.828
  -107.035	     4.903	     4.020
   -92.715	    14.217	    -1.501
   -94.587	    -5.263	     3.938
   -87.946	     0.184	    17.400
   -97.684	    11.966	    15.040
  -120.928	   -18.589	     5.256
  -109.944	     4.614	    11.016
   -94.424	     8.932	    21.983
  -122.196	    13.751	    14.384
  -121.351	    14.838	     7.474
   -99.387	    16.511	     8.957
  -116.732	    18.850	     9.211
  -119.137	     8.396	    22.697
  -127.038	    27.676	     4.262
   -86.224	    20.896	    -5.892
  -120.767	     3.350	    -8.965
  -115.942	   -13.008	    10.016
  -117.048	     7.957	     9.838
  -126.713	     1.619	     7.143
  -120.527	     6.671	    16.984
  -127.248	    -6.624	     8.740
   -99.153	     4.462	    -8.316
  -101.456	    23.993	    10.642
   -98.203	     3.895	     1.882
  -100.225	    -6.272	     4.737
   -98.149	    -1.028	    13.695
  -119.530	    11.083	     0.144
  -108.530	     4.116	    -8.801
  -111.728	    10.381	   -14.479
  -108.939	     1.287	    11.963
  -104.734	    15.132	    14.282
  -101.659	     3.234	    -0.969
   -88.596	    15.470	    19.783
  -102.562	    24.874	     2.373
   -99.081	    17.161	    22.514
  -115.958	    -2.258	    21.876
  -103.548	    -6.218	    10.657
  -104.941	     9.323	    22.887
  -112.232	    -8.905	     4.959
  -119.966	    -0.509	    13.341
  -109.082	     8.654	    -2.147
  -111.523	     4.441	    -1.198
  -111.890	     3.352	     7.546
   -96.050	    22.716	     9.347
   -81.357	    -0.879	    13.726
   -82.181	     9.646	     3.363
  -108.898	     4.523	     9.240
  -113.149	    -9.072	     0.769
   -96.534	    18.641	   -10.857
  -109.590	    26.968	     4.197
  -108.968	    -4.492	     8.475
   -94.825	     9.379	     2.752
   -85.608	   -13.185	    23.674
   -87.225	    16.140	    15.359
   -91.074	     4.425	     8.108
  -101.876	     3.029	    20.425
   -96.400	    24.892	     4.970
  -116.513	     8.032	    -5.283
  -106.866	     9.446	    26.261
  -134.727	    22.282	    13.817
  -110.118	    18.765	     3.963
  -115.358	    19.467	    14.270
   -93.783	    14.281	     6.126
   -93.933	    14.953	     8.732
   -96.733	    11.610	    28.993
  -104.255	     6.852	    20.366
  -101.275	    19.106	    -1.422
  -125.668	     6.472	     6.288
  -113.770	    -8.065	    10.832
  -122.933	    20.221	    13.301
  -120.275	    24.940	     8.919
  -128.782	     9.563	     6.942
  -114.662	    18.060	    15.697
  -116.972	    10.963	    -3.422
  -127.532	    -1.757	   -14.894
  -100.760	    12.484	    -6.746
   -98.019	    -4.990	    19.103
  -108.180	    -7.685	    13.034
   -80.485	     3.971	    18.359
  -107.188	    16.742	     6.745
  -105.886	     8.688	     2.018
  -117.278	   -14.952	    -5.598
  -109.553	     4.905	     1.741
  -122.618	     0.911	     2.015
  -102.102	     6.051	    10.794
  -107.059	     0.699	    -2.806
  -131.843	   -12.293	     0.588
   -98.558	     4.818	    -6.768
  -114.967	   -11.245	     9.904
  -104.302	    25.216	     5.276
  -115.027	     3.797	    16.118
   -88.239	     7.775	     3.334
  -104.336	    -4.329	   -22.019
  -104.323	    -8.665	    14.948
  -127.432	    11.354	     1.160
  -108.006	    -1.372	    -3.072
   -96.127	     3.053	    -5.688
  -120.955	   -13.581	    -5.750
  -101.073	    14.390	    15.314
  -117.103	     7.993	     0.565
  -137.967	     7.015	     0.252
  -106.200	    16.383	   -18.797
  -128.107	    10.670	    16.198
  -108.700	     3.966	   -12.070
  -104.823	    -7.168	     3.860
  -101.765	     7.606	    12.994
   -92.532	     4.517	    -6.715
  -110.280	    -6.941	    -2.088
  -123.188	     2.765	    13.565
  -102.203	     2.248	    -4.019
  -111.192	     0.104	    13.622
  -118.853	    -1.906	     7.409
   -96.755	    -0.652	    -3.731
  -131.374	     1.960	    -5.498
  -117.926	   -21.701	    -3.707
  -119.096	   -10.553	   -17.280
  -106.347	     0.041	     3.654
  -109.926	   -19.548	    -0.741
   -94.738	   -12.498	    -1.628
  -102.520	     6.186	    20.624
  -137.906	    -2.484	     4.437
  -127.716	    10.444	    -6.724
  -103.532	     8.590	    -0.187
  -105.046	    12.362	    16.461
