   -92.310	   122.143	    -3.179
   168.006	   163.587	    12.381
   160.079	   165.711	    18.516
   167.630	   172.696	     8.253
   138.663	   173.866	    -1.872
   170.195	   144.475	    -3.429
   170.029	   151.106	    15.966
   168.494	   162.149	     2.256
   168.172	   157.372	    16.141
   174.991	   151.344	    15.677
   171.381	   157.588	    -0.040
   161.103	   143.122	     0.961
   178.819	   135.492	    12.520
  -179.687	   151.933	    14.534
   165.559	   156.431	    -7.543
  -174.377	   176.824	   -13.977
   143.327	   156.307	    24.836
    84.308	   150.457	    11.494
    69.212	   153.429	    -0.201
    77.672	   151.555	     2.144
    65.798	   154.838	    -4.622
    73.809	   142.811	    13.157
    71.652	   151.263	   -11.278
    59.209	   170.386	    10.483
    73.243	  -177.145	    15.376
    72.160	   148.342	    -2.036
    66.061	   163.153	     2.357
    79.651	   155.947	    12.137
    77.413	   150.642	     1.764
    76.641	   150.597	     4.465
    68.797	   169.208	    -1.706
    68.153	   162.545	     5.177
    57.975	   162.173	     6.550
    78.828	   156.388	    -9.599
    78.360	   146.127	    -6.078
    79.871	   161.859	   -10.045
    65.948	   173.012	    13.001
    78.216	   154.951	     5.371
    81.995	   160.853	   -16.280
    71.678	   160.071	    -0.026
    59.221	   167.579	     6.089
    64.214	   171.071	    -5.870
    65.971	   162.015	    -6.915
    63.651	   164.415	    -2.245
    65.682	   173.621	     7.751
    75.861	   160.735	    -0.800
    79.272	   154.327	   -17.004
    71.138	   160.501	    -1.321
    79.190	   174.578	    -1.554
    62.715	   179.293	    -7.632
    62.112	   176.548	    -5.493
    62.112	   152.766	    20.549
    86.093	   160.212	    -6.075
    81.373	   149.951	    -1.493
    65.855	   157.174	    -3.096
    70.097	   160.347	    10.550
    76.414	   150.044	   -23.912
    91.509	   151.696	    -0.079
    74.802	   170.493	    -8.503
    81.209	   165.961	     0.430
    69.261	   154.072	    -8.929
    72.952	   168.482	    -0.026
    78.167	   169.495	    -0.848
    67.673	   163.246	    -1.863
    70.686	   171.836	    -1.371
    65.442	   153.021	     7.564
    68.453	   166.826	    -0.436
    67.342	   155.340	     3.465
    70.416	   171.967	    23.688
    78.586	   164.276	    -6.149
    72.601	   146.767	     5.243
    72.424	   156.519	     7.968
    76.843	   159.689	     3.633
    68.752	   146.732	     4.960
    72.729	   157.677	     7.124
    74.093	   143.699	    -0.607
    83.887	   156.677	    -6.943
    67.070	   154.454	     8.899
    72.809	   156.311	     3.376
    66.513	   166.193	    10.547
    85.118	   163.086	    -1.702
    79.884	   166.446	     8.646
    71.315	   165.940	     8.970
    78.232	   159.682	   -10.976
    64.492	   168.239	    12.758
    71.034	   173.305	     5.176
    75.101	   158.258	    -8.904
    69.329	   164.443	     3.427
    67.585	   159.715	    -2.354
    74.474	   144.129	    -6.608
    65.917	   168.128	    -7.873
    78.053	   137.430	     3.954
    86.027	   147.313	   -12.735
    80.848	   155.440	     2.448
    72.812	   154.123	     1.731
    60.283	   153.549	    18.211
    77.568	   138.764	    10.205
    69.975	   148.211	    10.756
    63.555	   156.293	    13.288
    64.384	   154.893	    14.617
    76.376	   151.408	     9.343
    68.573	   153.872	    -9.543
    86.651	   152.011	    -1.016
    77.293	   172.615	   -15.061
    79.693	   156.644	    -8.215
    75.416	   158.236	     5.716
    72.151	   159.460	    -1.098
    71.387	   159.503	   -10.758
    74.367	   157.922	     4.600
    72.748	   138.465	    -0.346
    70.599	   149.766	     1.145
    74.839	   168.072	    10.750
    66.899	   174.756	    -7.909
    73.123	   162.717	   -10.982
    71.076	   161.278	    -0.725
    68.311	   157.522	    -3.118
    67.355	   155.874	     2.351
    72.237	   174.213	   -17.035
    75.218	   165.074	     9.651
    68.271	   176.604	    -1.274
    82.348	   156.975	     3.154
    66.407	   169.881	     3.804
    73.048	   154.490	   -11.585
    57.746	   166.445	    -0.023
    57.887	  -169.513	     5.685
    77.873	   155.831	    -8.730
    63.487	   147.102	     6.988
    66.003	   159.635	     0.200
    69.527	   156.491	    -2.990
    74.985	   148.058	     2.659
    72.646	   152.674	     6.713
    77.504	   130.144	    29.423
    68.351	   160.711	     5.198
    74.220	   151.080	     9.806
    67.790	   157.956	    22.031
    72.524	   161.052	     6.879
    62.318	   146.001	     7.692
    78.675	   148.091	   -10.868
    77.686	   166.504	    -1.485
    65.062	   169.722	     2.090
    73.189	   158.825	   -11.699
    74.923	   177.342	     1.256
    62.289	   172.239	     3.088
    70.466	   165.643	   -11.295
    73.631	   162.670	    -7.610
    73.992	   162.646	    -5.566
    76.147	   156.282	   -27.988
    74.473	   165.086	     2.548
    68.894	   161.500	     3.218
    71.892	   167.247	     3.700
    67.494	   138.452	    -0.174
    66.198	   163.918	     6.976
    80.382	   159.348	   -17.635
    82.221	   172.080	   -12.638
    70.927	   149.256	    -1.290
    73.585	   158.079	   -17.087
    87.216	   175.633	   -17.338
    82.441	   158.538	     8.529
    64.433	   154.434	    28.665
    76.693	   161.493	    23.260
    68.483	   158.122	    -9.341
    72.395	   163.427	     4.259
    62.843	   167.692	    18.374
    65.634	   161.681	     5.089
    77.617	   150.879	     6.787
    84.736	   151.892	    -3.204
    72.064	   159.801	     0.921
    75.528	   153.525	     6.393
    71.377	   174.573	     5.698
    74.947	   138.062	   -11.121
    59.228	   163.583	     9.573
    84.609	   152.879	     1.893
    82.880	   154.121	     8.225
    66.860	   160.511	    -5.622
    74.552	   152.554	    -3.756
    85.851	   162.122	    -6.992
    72.468	   179.666	    -6.106
    76.269	   144.325	     1.962
    69.974	   149.937	   -13.497
    70.369	   169.335	    10.063
    63.764	   164.373	    -4.347
    65.467	   172.785	     0.795
    74.430	   158.042	    13.369
    66.845	   157.197	     4.573
    71.652	   155.748	    13.126
    73.650	   155.912	     5.795
    75.764	   167.634	    14.632
    73.520	   166.186	     6.203
    59.628	   162.343	    19.724
    71.842	   159.168	     8.523
    72.437	   150.782	    12.505
    68.152	   151.841	    -3.557
    59.614	  -179.989	    14.274
    71.603	   164.299	    12.445
    76.026	   177.779	     8.374
    66.564	   164.165	    -0.574
    68.276	   140.859	     6.110
    63.842	   158.143	     1.585
    71.225	   157.574	    22.992
    64.643	   162.386	     0.754
    79.804	   134.973	    -8.391
    81.584	   139.355	    -5.212
    89.622	   147.591	     8.872
    72.791	   154.617	   -12.173
    59.082	   170.681	    -1.336
    73.961	   162.130	    -4.119
    74.595	   168.717	    -1.657
    62.897	   154.807	   -15.057
    79.992	   150.387	    -9.192
    73.694	   158.288	    -0.730
    74.706	   143.263	     5.636
    66.258	   156.570	    16.611
    63.944	   154.804	     6.410
    74.096	   165.305	    -1.678
    74.790	   159.164	    -2.840
    73.952	   172.607	     3.872
    69.799	  -172.572	   -26.677
    70.961	   153.563	    -0.072
    73.356	   144.905	    39.538
    75.314	   145.076	     7.145
    78.470	   160.602	    -4.187
    70.214	   168.435	    -6.452
    63.060	   167.812	     2.863
    61.416	   166.161	    13.446
    79.347	   170.021	   -15.651
    64.735	   156.700	     2.983
    82.005	   133.654	    -7.677
    72.866	   174.378	    32.518
    75.101	   174.233	    13.204
    69.017	   178.809	    -8.285
    61.493	   177.202	     3.473
    71.752	   169.864	   -11.871
    74.897	  -178.735	     5.803
    66.217	   165.211	    -3.777
    74.902	   171.181	   -15.461
    76.989	   155.583	   -11.646
    66.611	   164.787	    -2.956
    51.933	   141.612	    13.162
    66.210	   170.891	     8.368
    74.245	   145.380	     3.623
    65.163	   152.915	    14.840
    76.223	   148.187	   -18.970
    80.199	   151.616	    -5.116
    66.622	   159.970	     8.277
    55.368	   168.595	    24.768
    71.389	   159.455	    14.609
    65.212	   147.911	    -9.910
    68.615	   161.877	    -2.202
    69.318	   161.490	   -12.366
    78.316	   162.988	    -9.146
    73.751	   154.124	     5.689
    73.741	   168.470	    -1.947
    68.617	   147.519	    -0.792
    78.954	   153.936	    -5.516
    78.649	   152.681	    -1.077
    66.700	   169.558	    25.454
    60.842	   155.326	     9.043
    68.785	   168.542	    13.074
    82.458	   151.094	   -15.977
    71.686	   175.482	   -10.919
    66.872	   165.599	   -12.520
    71.013	  -174.347	     0.730
    64.900	   175.945	    -9.125
    58.916	   168.610	     6.694
    77.212	   164.410	     2.453
    82.308	   161.125	   -19.377
    66.023	   152.385	    11.190
    67.981	   161.450	    -0.668
    74.901	   174.037	    -2.497
    74.142	   149.213	     2.166
    76.777	   164.588	     7.696
    66.578	   179.273	    -2.616
    81.715	   167.659	   -13.497
    72.562	   178.422	    -0.501
    73.001	   137.657	   -11.066
    63.097	   147.954	    17.574
    70.782	   151.345	    12.057
    66.809	   153.141	    -0.452
    87.864	  -167.599	     6.388
    72.285	   177.764	    -1.443
    61.723	   170.289	    12.630
    78.912	   163.527	   -17.477
    74.167	  -173.270	     3.308
    67.220	   162.416	    19.934
    82.629	   158.081	     6.047
    68.195	   163.376	    -2.393
    83.538	   159.834	    11.077
    73.231	   174.966	   -12.931
    69.927	   165.794	    -1.582
    65.716	   151.632	    -1.365
    70.288	   154.965	     0.174
    79.440	   156.998	    14.508
    77.616	   143.083	     1.353
    73.023	   156.294	    -9.603
    57.984	   162.821	     1.491
    71.914	   151.121	   -12.665
    63.651	   169.175	    -5.185
    79.123	   153.781	   -14.378
    86.422	   158.785	   -13.516
    74.490	  -173.215	   -14.254
    75.917	   161.301	   -11.173
    70.223	   168.578	   -12.198
    70.440	   155.060	     9.734
    71.682	   150.955	    10.929
    59.964	   162.544	    -7.772
    54.812	   176.746	     3.964
    61.755	   172.890	     7.217
    73.434	   156.192	     4.030
    69.824	   158.147	   -19.070
    73.039	   163.899	     8.630
    71.151	   149.349	    -5.794
    62.017	   161.836	     7.062
    73.909	   147.175	   -10.286
    71.706	   145.037	     0.140
    73.811	   166.241	    16.257
    53.957	   162.165	    12.034
    72.474	   155.418	   -16.019
    74.094	   173.292	    -2.804
    78.777	   112.263	     7.256
    73.578	   160.953	   -24.687
    62.150	   164.602	    13.688
    61.142	   151.428	    16.893
    65.301	   159.851	    13.520
    70.935	   164.393	    -0.801
    71.886	   155.829	     5.722
    76.676	   151.759	    -4.040
    74.985	   160.371	    -0.414
    68.925	   149.878	    -1.118
    61.088	   157.461	    -6.318
    68.464	   171.552	   -11.851
    81.899	   151.787	    22.369
    80.436	   163.982	    -7.254
    51.330	  -178.311	    24.328
    82.092	   155.350	    -0.642
    78.466	   155.626	    -9.393
    63.383	   168.442	     8.145
    74.775	   145.760	     4.537
    62.754	   173.166	     9.860
    65.873	   176.829	    -1.024
    67.357	   172.600	     9.141
    71.321	   179.856	     8.803
    70.173	   161.416	    15.850
    69.597	  -175.478	     6.276
    79.320	   158.027	     5.091
    75.325	   167.755	     8.079
    69.287	   163.872	    -9.291
    66.328	  -179.482	     3.252
    67.383	   159.866	    17.803
    66.969	   152.684	    13.299
    72.597	   163.511	     3.940
    75.040	   163.897	    11.547
    69.917	   167.857	    -5.267
    84.337	   160.495	    -9.071
    69.242	   149.201	     4.023
    79.846	   164.398	     6.607
    73.663	   163.239	    -1.443
    51.598	   155.805	    11.449
    71.416	   150.814	   -19.466
    71.172	   160.278	     8.798
    78.868	   155.283	     3.506
    83.939	   150.459	    -6.822
    81.236	   161.947	     6.702
    75.035	   154.101	     7.484
    81.202	   145.088	    -8.390
    71.198	   157.017	    -4.413
    82.821	   158.053	   -11.737
    66.798	   159.076	    -0.946
    72.922	   163.404	    -1.890
    86.032	   158.760	     9.146
    83.083	   158.316	   -12.517
    73.547	   154.439	   -13.536
    73.859	   147.328	    -5.571
    77.746	   147.231	     9.422
    65.788	   160.994	    15.164
    78.304	   165.025	    -4.341
    72.070	   152.707	     5.905
    62.086	   168.527	     7.030
    78.060	   146.367	     2.216
    65.738	   176.081	    -1.578
    71.914	   169.175	    -9.117
    76.756	   165.010	     0.189
    65.247	   164.174	    19.164
    73.578	   151.617	     8.455
    66.037	   169.838	   -18.093
    66.346	   154.187	     1.516
    73.510	   147.717	    -1.337
    74.871	   168.094	     2.811
    65.061	   165.960	    12.454
    74.809	   158.088	   -10.018
    61.677	   157.831	     2.595
    70.515	   160.328	    -5.692
    70.122	   165.786	   -11.447
    71.238	   152.322	     1.022
    69.626	   152.940	   -13.508
    76.618	   159.725	     6.760
    73.631	  -173.403	   -15.865
    74.033	   171.962	   -11.139
    72.211	   153.072	   -15.221
    70.542	   162.999	    -3.369
    69.275	   161.823	     7.744
    63.147	   168.307	    -8.542
    71.708	   157.967	     1.154
    58.345	   151.557	     6.653
    81.155	   149.664	    -2.026
    64.996	   157.079	     1.967
    70.837	   171.374	     3.207
    73.078	   142.954	     3.235
    70.133	   170.721	    12.406
    74.861	   150.056	   -13.332
    65.784	   161.497	     5.173
    59.142	   161.621	    -3.847
    76.181	   154.081	    -7.184
    72.231	   155.902	    -2.621
    72.780	   145.016	   -10.850
    67.531	   150.418	     3.575
    63.453	   159.105	     3.167
    60.655	   175.222	     4.248
    74.864	  -165.293	   -17.987
    72.217	  -162.441	    -3.068
    68.895	   152.810	    -0.359
    80.222	   158.215	    -5.218
    66.746	   156.029	    11.219
    82.022	   160.084	     0.244
    73.643	   165.253	    -5.885
    78.951	   164.214	     1.249
    78.662	   161.024	     5.818
    80.654	   142.020	     6.547
    72.701	   153.103	     0.552
    82.643	   152.056	    16.320
    66.912	   157.945	    -1.366
    72.136	   155.880	    -5.893
    77.467	   162.715	     3.074
    68.012	   157.843	     4.017
    73.753	   160.251	   -15.638
    63.382	   169.180	    11.811
    62.784	   156.822	    16.140
    69.130	   165.073	     2.762
    64.643	   154.737	     0.106
    65.306	   160.694	     5.818
    65.051	   157.886	   -10.474
    66.426	   171.483	     8.891
    66.608	   165.686	    19.864
    68.051	   161.344	    -6.444
    72.552	   157.344	   -16.137
    75.210	   145.556	    -1.049
    81.894	   162.663	    -7.062
    82.180	   150.392	   -10.646
    68.842	   176.857	    -2.990
    69.556	   166.365	     3.063
    76.652	  -179.306	    -5.210
    84.920	   141.492	    -6.371
    83.689	   166.771	     2.410
    77.065	   163.526	    12.513
    71.863	   159.094	     3.384
    61.721	   145.375	     6.132
    85.999	   148.259	    -3.446
    63.200	   158.529	     5.520
    63.899	   150.656	     6.248
    69.311	   163.460	    -5.923
    66.951	   171.238	    14.262
    70.774	  -175.769	   -14.086
    78.444	   161.276	    -2.204
    64.571	   150.141	     4.457
    63.320	   155.913	     9.435
    71.931	   162.146	     1.982
    75.880	   155.896	     6.933
    65.846	   156.172	    15.935
    61.050	   134.995	     0.399
    61.642	   150.944	    17.237
    92.629	   163.462	   -12.587
    85.022	   155.663	    -0.236
    71.829	   156.445	    -3.156
    70.449	   172.007	     7.926
    68.077	   175.725	     8.076
    65.261	   160.022	    11.109
    68.087	   167.392	    -3.096
    70.749	   164.946	     3.600
    59.354	  -176.439	    12.503
    77.385	   162.767	     6.284
    64.977	   162.589	    19.284
    77.207	   146.253	     9.254
    70.629	   168.751	    -9.825
    77.408	   161.985	    -5.587
    64.529	   157.064	    -3.795
    71.049	   166.282	   -11.661
    72.209	   160.245	    -0.776
    66.494	   166.309	    -3.314
    69.716	   150.068	   -22.910
    68.749	   144.773	    16.961
    67.759	   149.627	     9.295
    68.062	   157.505	    -8.616
    72.818	   161.768	     4.583
    83.527	   171.261	   -12.831
    74.053	   164.125	     0.014
    74.241	   174.762	    -1.972
    69.353	   175.158	     1.198
    72.972	   166.511	    11.975
    76.749	  -178.232	    -6.134
    62.316	  -169.565	    -0.040
    67.439	   171.117	    -1.839
    67.261	   165.713	    -2.154
    69.910	   153.127	    -2.157
    90.298	   161.985	   -15.233
    72.007	   169.646	     0.527
    66.496	   161.037	     2.381
    66.731	   168.563	     1.465
    69.953	   162.021	    -1.889
    67.631	   173.909	     9.613
    76.047	   160.149	    -3.788
    59.238	   154.999	    -7.741
    98.100	   156.271	   -11.392
    71.163	   167.506	    -6.890
    83.236	   156.889	     3.831
    64.297	   161.212	    10.489
    71.181	   163.956	    -6.346
    76.427	   154.241	    -7.688
    64.478	   164.930	   -10.828
    68.848	   142.553	   -12.043
    80.497	   156.411	    -6.051
    70.974	   161.313	     5.044
    63.451	  -166.798	    -4.107
    66.098	   171.496	    -9.314
    92.740	   161.772	   -30.918
    80.423	   139.476	   -17.396
    71.754	   153.719	     0.881
    59.027	   162.867	     3.680
    63.127	   158.305	    -4.306
    71.629	   169.674	     4.743
    72.748	   156.495	     3.969
    67.876	   140.281	     3.075
    80.242	   153.024	    -2.000
    66.523	   156.959	    10.217
    64.197	   168.401	    -4.896
    62.544	   175.133	     2.598
    85.281	   155.565	    10.925
    64.253	   161.329	     8.808
    70.527	   136.565	     8.409
    80.859	   151.651	    -8.999
    55.877	   160.232	    11.007
    65.336	   160.184	    -1.188
    68.844	   175.693	     5.639
    69.213	   167.463	     6.501
    70.946	   147.097	    10.830
    72.986	   155.968	    -8.898
    78.392	   164.744	     3.790
    74.074	   161.073	     2.692
    63.161	   174.263	     0.291
    81.326	   170.530	     5.493
    74.954	   167.328	     8.174
    71.300	   160.293	     9.534
    77.130	   158.359	     4.332
    70.298	   171.027	    13.687
    72.860	   141.044	     3.453
    82.517	   162.253	   -13.742
    75.474	   133.895	   -17.986
    86.067	   152.829	   -10.570
    74.964	   147.091	     6.155
    61.669	   147.603	     8.147
    62.320	   163.600	    -5.317
    75.146	   162.747	     1.230
    68.682	   158.639	     2.654
    77.957	   160.581	     1.430
    74.340	   172.434	   -15.331
    71.770	  -170.361	     4.518
    70.741	  -178.553	    -6.451
    63.611	   165.679	    17.452
    71.976	  -176.436	    -8.973
    75.216	   154.346	     5.168
    60.895	  -177.967	    -8.510
    68.944	   170.203	     4.182
    69.173	   166.752	     3.183
    69.584	   168.500	    12.548
    76.170	   153.807	     5.993
    73.714	  -177.108	    10.696
    68.203	   162.036	     3.824
    64.861	   169.664	     3.112
    71.935	   176.821	   -11.795
    75.997	   168.991	    -0.086
    73.101	   169.062	    -0.966
    76.549	   173.715	     3.304
    78.100	   160.836	   -10.690
    57.065	   171.570	    21.850
    71.207	   152.948	     8.057
    88.035	   148.680	    -2.164
    76.773	   164.151	   -12.267
    71.859	   165.696	     2.141
    71.027	   167.546	    -0.697
    72.077	   160.705	    -0.368
    63.454	   161.303	     3.390
    71.753	   161.896	    -8.039
    61.939	   153.112	    -0.987
    69.944	   165.431	     1.611
    67.050	   151.609	    -0.917
    81.540	   134.260	    -0.510
    66.473	   149.747	     1.602
    69.070	   166.366	     2.211
    80.168	  -179.945	   -14.586
    74.428	   169.076	   -12.037
    75.792	   163.792	   -11.810
    73.156	   165.578	     5.413
    60.278	   163.544	    12.338
    58.549	   158.947	    21.382
    62.131	   154.293	    -2.921
    75.486	   165.073	    15.633
    77.353	   159.763	     0.133
    87.615	   149.556	    13.352
    81.281	   166.188	     8.107
    70.637	   146.303	     4.449
    65.397	   158.935	     6.338
    88.777	   173.843	    -8.711
    75.260	   157.556	   -19.272
    68.104	   165.732	     1.299
    69.496	   165.778	    -3.181
    75.468	   152.980	    11.073
    79.944	   177.888	   -14.291
    71.761	   149.187	   -10.047
    78.653	   149.509	    21.608
    85.817	   149.198	   -12.011
    63.672	   168.519	    -4.940
    78.874	   174.952	    14.002
    67.250	   150.551	     7.294
    71.659	   159.255	     1.305
    70.064	   143.210	     0.884
    66.782	   157.608	    -9.756
    68.584	   163.216	    14.669
    72.508	   149.568	     4.616
    72.953	   168.164	   -14.803
    83.620	   173.728	    -6.979
    84.213	   154.011	    -6.380
    72.713	   153.931	    15.544
    68.469	   160.579	     8.096
    69.329	   159.196	    12.372
    75.819	   164.307	   -18.171
    74.755	   155.105	   -11.970
    65.801	   159.726	     7.081
    68.705	   168.434	   -10.534
    65.945	   164.839	     6.838
    69.890	  -178.396	     9.060
    76.539	   170.775	     4.401
    74.001	   171.083	     6.187
    62.981	   179.301	     0.989
    72.499	   166.407	    18.897
    67.802	   170.686	   -13.100
    78.160	   158.125	    -4.611
    75.734	   165.214	   -17.170
    70.448	   150.727	     4.038
    68.725	   143.684	    -3.035
    61.327	   154.612	    16.349
    67.869	   159.646	   -12.976
    77.113	   159.854	   -15.015
    76.062	   153.456	    -6.390
    65.920	   175.741	    14.710
    73.646	   161.984	   -17.256
    60.498	   161.794	    -6.756
    62.734	   147.278	     1.318
    70.576	   141.609	    11.921
    67.416	   158.192	     5.194
    70.915	   148.119	    -6.806
    78.876	   148.148	     5.148
    59.961	   162.176	     9.750
    79.583	   159.918	    12.774
    88.633	   140.886	    -1.174
    83.786	   159.569	     1.832
    70.573	   161.521	     6.960
    71.558	   150.976	     6.382
    74.778	   142.987	     2.879
    64.544	   161.858	    10.712
    72.526	   173.566	    -3.255
    84.888	   140.941	    -3.302
    92.113	   145.553	   -22.318
    70.321	  -172.834	    -9.871
    72.741	   156.194	    -1.104
    69.236	   177.418	    -2.992
    65.340	   163.116	     2.293
    73.934	   157.864	     8.557
    60.360	   168.649	     5.793
    77.242	   143.971	   -12.326
    71.517	   158.569	    -2.927
    63.867	   168.721	    20.731
    72.165	   149.664	    -1.155
    75.181	   158.710	   -16.536
    71.769	   155.084	    -6.048
    65.421	  -167.580	   -10.737
    61.657	   179.889	    -6.725
    67.296	   162.536	     1.581
    59.774	  -178.999	    -9.619
    63.970	   172.588	    14.605
    81.008	   162.302	     8.382
    81.207	   152.277	    -6.649
    72.274	   167.285	    -8.651
    60.849	   162.206	    12.823
    82.595	   156.897	    -0.647
    66.983	   176.566	    -6.156
    74.243	   169.827	     4.900
    73.851	   164.043	   -16.436
    74.150	   158.412	     7.413
    64.026	   176.574	     3.819
    65.482	   157.732	    15.502
    75.139	   176.251	    -5.638
    80.483	   164.293	   -14.976
    64.536	   158.405	     6.251
    68.219	   159.548	     4.481
    71.753	   149.992	    -0.443
    63.737	   151.148	    17.117
    74.800	   150.475	    -3.050
    82.801	   168.885	    -2.554
    73.645	   174.111	     5.222
    67.491	   163.013	     7.558
    82.133	   147.201	     7.158
    73.311	   167.922	    29.967
    68.432	   172.255	    -0.415
    77.022	   157.582	     5.516
    80.290	   164.563	    -9.491
    71.478	   173.732	     9.320
    67.642	   164.700	    -4.809
    76.203	   149.252	    -1.538
    70.552	   177.641	    -1.824
    71.567	   164.274	   -11.347
    76.605	   170.588	    -1.533
    81.246	   160.484	     1.676
    86.268	   152.487	    -7.636
    75.773	   160.243	     7.698
    73.736	   146.868	     0.522
    74.011	   169.922	     3.271
    55.128	   165.561	    16.593
    64.467	   168.796	    15.712
    68.821	   162.209	   -11.286
    80.786	   153.598	   -32.155
    79.995	   165.884	     8.277
    61.574	   167.268	     8.189
    76.769	   138.796	   -14.376
    76.684	   161.625	    -5.995
    71.884	   174.764	     0.158
    77.087	   169.906	    -4.878
    81.322	   159.716	    -8.371
    75.862	   175.061	   -18.070
    74.114	   161.343	    -0.965
    66.213	   148.377	    -1.665
    81.680	   157.736	    -2.108
    71.745	   137.903	     1.149
    69.901	   173.244	     4.119
    71.570	  -169.128	     0.679
    85.218	   158.977	    15.769
    73.439	   178.935	     1.534
    76.138	   151.665	   -19.335
    64.178	   158.722	    -3.085
    64.491	   169.387	   -12.280
    69.138	   167.832	    11.541
    56.900	   174.224	    17.426
    67.247	   153.783	   -16.227
    58.135	   165.974	     5.084
    73.693	   142.641	    -2.379
    79.613	   152.664	     6.466
    83.578	   132.376	    -0.747
    85.459	   142.518	    13.928
    75.153	   163.576	   -11.610
    77.409	   151.838	    -1.493
    65.679	   140.690	    12.953
    63.003	   154.105	     8.746
    74.129	   154.457	     0.849
    88.064	   163.982	    -6.362
    66.971	   158.740	     2.961
    59.677	   175.402	    17.643
    69.641	   141.372	     9.785
    69.380	   145.906	     1.917
    81.653	   150.313	   -10.133
    78.701	   171.879	     8.743
    71.665	   163.052	    14.132
    79.879	   151.240	    -6.565
    80.504	   155.833	   -16.023
    66.193	   147.730	    19.118
    63.190	   160.254	     7.936
    82.517	   165.339	     1.971
    69.312	   147.067	   -13.857
    71.523	   155.955	     3.450
    76.730	   168.392	    -5.379
    75.177	   166.909	     8.435
    68.534	   164.758	     6.261
    86.211	   160.043	    11.236
    72.999	   148.279	     9.910
    76.953	   156.253	    -9.916
    70.295	   149.186	   -14.891
    76.044	   141.584	     4.961
    71.479	   162.555	     8.464
    76.870	   144.482	    15.158
    85.248	   148.953	     8.142
    64.548	   159.434	     6.509
    60.355	   169.762	     4.195
    78.283	   151.514	     7.235
    81.591	   144.676	     5.546
    75.391	   148.123	    -9.017
    69.709	   150.867	    -0.586
    79.028	   169.151	   -13.380
    61.714	   154.528	    17.879
    70.864	   149.168	    -3.119
    67.546	   145.456	     2.508
    68.233	   140.673	    17.441
    74.207	   149.807	    17.207
    71.421	   161.224	    -2.766
    68.540	   157.841	    -0.506
    64.285	   171.393	   -13.677
    74.274	   172.929	     2.769
    64.861	   157.739	    17.127
    73.786	   167.992	    -3.367
    72.207	   149.094	     4.594
    92.194	   145.807	   -10.171
    79.032	   150.755	    -3.541
    57.058	   147.548	    17.132
    66.330	   173.811	     1.570
    83.476	   145.321	    -8.842
    77.445	   150.059	     2.651
    80.156	   155.766	     8.885
    77.592	   172.015	    -3.227
    70.048	   167.684	     7.757
    64.766	   163.139	     1.308
    66.971	   153.123	     6.282
    82.546	   159.243	   -10.772
    64.240	   142.127	     1.397
    62.344	   155.180	    13.169
    70.359	   178.992	    -8.410
    77.629	   164.274	    -4.768
    63.785	   174.458	    12.235
    69.261	   168.151	     4.962
    60.423	   178.299	    -7.037
    79.235	   148.168	    -0.794
    81.754	   161.528	    16.262
    68.070	  -177.854	     1.628
    78.811	   168.108	    -5.368
    66.381	   176.914	    -3.353
    69.458	  -177.019	     1.695
    75.429	   146.915	    -1.935
    75.678	   162.443	    -4.569
    74.417	   178.883	   -20.782
    62.577	   174.619	   -13.918
    73.070	   164.634	   -13.429
    73.749	   155.824	    11.512
    73.896	   144.874	    -1.935
    57.942	   177.311	    -0.829
    73.828	   155.799	    -2.008
    77.610	   164.362	   -12.293
    72.519	   155.227	     6.741
    80.644	   160.550	    -0.157
    62.804	   163.429	    20.468
    73.906	   167.197	    11.637
    79.989	   139.761	     8.453
    88.821	   141.182	    -8.062
    80.696	   148.308	    -8.896
    69.127	   158.814	   -12.256
    82.132	   148.047	    -6.296
    72.163	   156.969	     7.177
    80.693	   142.555	    -5.764
    64.886	   162.906	     3.321
    53.479	   153.807	    27.539
    62.719	   165.705	    -5.281
    69.945	   139.300	    18.393
    71.488	  -178.919	    17.861
    76.482	   158.084	     6.898
    73.865	   153.866	    -2.631
    69.043	   167.498	    -9.577
    68.538	   149.379	     8.855
    74.930	   157.475	   -10.233
    73.524	   152.250	     0.010
    72.154	   166.297	   -28.773
    55.082	   170.689	     9.355
    68.879	   170.462	    -8.598
    64.038	   154.009	     3.776
    65.442	   166.902	    -0.897
    74.820	   144.856	   -20.902
    75.812	   156.121	    -3.470
    64.429	   175.384	    15.088
    67.896	   174.516	     4.435
    62.552	  -169.980	     5.339
    70.503	   179.789	    -6.263
    81.225	   151.020	    -0.457
    74.652	   157.953	    13.957
    67.277	   156.858	    18.634
    67.357	   160.132	    -6.397
    59.835	   170.736	    -6.980
    60.982	   168.860	    -8.177
    66.386	  -176.762	     9.763
    77.167	  -179.751	    -1.683
    73.189	   167.867	    24.916
    65.355	  -175.935	    13.944
    57.396	   157.769	    10.712
    75.278	   147.641	     2.962
    72.651	   169.360	    -1.611
    64.608	   163.492	    -2.423
    66.190	   157.336	     0.794
    75.873	   173.978	    12.045
    86.246	   173.875	    -5.956
    81.117	   155.457	   -12.111
    68.550	   145.863	     9.050
    71.825	   165.623	    -0.507
    72.605	   158.872	    -6.176
    65.005	   171.333	     1.694
    61.372	  -178.987	    15.675
    75.244	   155.077	    11.221
    63.194	   176.225	    -2.765
    66.519	   157.389	    15.479
    75.451	   154.770	    -8.681
    56.013	   162.450	     6.131
    64.509	   160.759	    10.361
    64.516	   171.145	     7.220
    68.112	   159.637	     9.660
    75.970	   173.011	    -8.054
    66.124	   162.045	    -2.664
    70.804	   170.915	    -1.613
    73.095	   167.859	    -6.177
    78.066	   164.288	     7.660
    79.687	   152.992	    -0.314
    74.829	   137.271	    15.003
    79.900	   154.817	     0.405
    73.490	   146.905	    -2.182
    78.763	   150.591	    -4.057
    72.199	   160.823	    -6.183
    76.917	   140.057	     4.393
    59.758	   155.982	     2.793
    67.114	   155.475	    -1.563
    72.526	   159.754	     2.199
    70.682	   160.144	    -0.737
    67.824	   143.231	     8.197
    66.812	   161.797	     1.038
    71.565	   162.145	    -0.761
    71.432	   166.738	    -0.236
    63.868	   151.565	    11.871
    68.951	   153.922	     9.435
    62.270	   155.687	    14.514
    63.806	   163.882	     2.994
    65.214	   150.025	     9.952
    67.700	   172.986	   -11.438
    69.275	   165.061	    -8.063
    66.204	   164.948	     2.590
    63.648	   153.207	     9.942
    79.191	   154.156	   -10.322
    75.658	   169.179	    -1.765
    62.708	   146.654	     5.393
    73.347	   148.571	     1.413
    82.915	   176.664	   -18.725
    95.237	   162.671	    -1.574
    78.174	   148.152	    -0.613
    75.118	   151.208	    -1.028
    62.829	   177.740	    18.193
    74.065	   160.642	    -5.916
    84.931	   168.006	    -9.572
    71.422	   154.250	    -0.443
    69.540	   152.305	    12.970
    76.534	   163.736	     6.219
    78.816	   148.111	     4.003
    57.606	   163.780	     1.159
    73.859	   158.717	   -16.626
    65.313	   175.773	   -16.217
    57.992	   172.537	     0.592
    74.138	   164.888	     7.715
    70.692	   167.465	   -16.386
    70.257	   147.809	    -8.197
    68.176	   163.656	    19.560
    64.442	   151.424	     3.295
    80.948	   155.012	     3.352
    75.166	   156.774	    -6.767
    69.248	   162.760	    16.195
    77.851	   162.224	     2.028
    65.498	   156.713	     6.536
    72.891	   150.264	     2.400
    68.026	   157.699	    -9.250
    67.968	   154.698	    -8.441
    70.193	   151.315	    -1.050
    82.977	   158.112	   -24.867
    72.451	   144.858	     0.925
    70.539	   163.002	   -12.761
    58.931	   170.889	    -0.547
    69.650	   173.645	   -19.398
    78.342	   169.847	   -11.633
    75.496	   158.621	     4.537
    62.734	  -179.077	    16.835
    61.602	   155.917	    11.905
    72.480	   170.813	     6.566
    73.071	   147.001	     3.754
    72.407	   160.570	    -8.811
    73.452	   157.502	    -5.524
    66.179	   153.683	    16.245
    72.701	   151.432	    -9.984
    78.198	   147.233	    -5.700
    76.055	   157.809	     0.823
    81.715	   163.437	   -23.871
    70.950	   157.027	     4.985
    71.814	   158.573	    14.138
    80.929	   158.846	   -12.663
    64.441	   157.936	     6.143
    72.199	   178.983	     1.782
    84.439	   169.287	    -0.610
    78.508	   158.194	    -4.940
    75.143	   147.726	    -8.306
    68.972	   155.605	    -5.344
    74.150	   157.534	   -14.668
    65.175	   155.486	    10.439
    72.088	   173.534	     2.183
    65.102	   168.556	     1.404
    71.980	   155.284	     2.649
    77.203	   155.028	    12.190
    66.414	   162.319	     5.808
    76.097	   161.351	     0.974
