   -92.310	   122.143	    -3.179
   -47.076	  -162.638	    -9.133
   -35.366	  -119.655	    -5.539
    23.717	  -115.437	   -12.207
    34.662	  -117.371	   -14.007
    22.134	  -116.437	    -8.001
    33.543	  -110.912	    23.968
    29.102	  -105.323	    33.111
    46.233	  -124.999	     3.091
    44.192	   -81.757	    28.262
    32.350	  -118.236	    15.246
    39.994	  -121.799	     4.117
    29.949	  -118.007	    12.636
    33.081	   -98.189	     6.439
    38.734	  -126.546	    28.108
    48.160	  -117.422	   -10.802
    14.597	  -109.625	    15.722
    19.601	  -117.946	    17.138
    40.870	  -138.447	     0.717
    36.058	  -131.568	    -5.516
    31.897	  -140.743	    12.313
    41.551	  -119.910	     4.104
    30.459	  -120.086	     2.421
    20.625	   -91.989	    -4.613
    47.405	  -109.375	     0.857
    11.564	  -114.871	    16.003
    15.073	  -114.148	     8.743
    41.848	   -97.957	    14.445
    36.140	  -111.251	     8.959
    27.056	  -107.245	    -3.848
    22.470	  -111.411	    16.457
    41.365	  -122.075	    14.199
    38.593	  -142.700	    16.376
    41.391	  -116.744	    -0.959
    20.810	  -117.497	     7.279
    34.368	  -110.086	    -1.047
    21.144	  -115.483	    -0.123
    26.821	   -98.481	   -19.153
    18.819	  -112.214	     0.332
    26.460	  -109.598	     7.049
    40.410	  -114.910	    12.859
    45.507	  -120.843	     4.911
    33.194	  -123.955	    13.314
    33.606	  -112.584	     6.932
    44.996	  -116.879	     1.360
    41.000	  -102.377	    -4.391
    43.668	  -133.692	    24.250
    20.153	   -96.336	     3.717
    23.034	   -96.957	    -0.830
    43.900	  -113.815	   -20.527
    14.450	  -123.923	    12.634
    20.808	  -108.111	     1.346
    31.597	  -111.907	     4.144
    28.585	  -123.783	    12.623
    42.080	  -100.471	   -22.835
    36.571	  -100.214	    13.521
    39.943	  -110.440	     1.499
    33.860	  -108.448	     3.684
    40.648	  -114.592	     1.343
    36.693	  -118.502	     6.629
    42.689	  -108.095	     7.058
    21.824	  -106.636	    12.176
    27.701	   -98.980	   -16.645
    15.724	  -106.253	     5.766
    30.468	  -111.267	   -11.106
    18.218	  -112.654	     7.103
    44.053	  -113.022	     9.274
    29.789	  -106.411	     4.141
    46.004	  -136.320	   -10.528
    32.159	  -124.065	     9.691
    17.653	  -126.529	    13.823
    35.743	  -125.958	    17.905
    13.549	  -104.072	    20.966
    36.980	  -125.350	     9.460
    28.025	  -101.797	    -5.446
    33.979	  -119.922	     2.684
    38.056	   -92.208	    17.751
    34.969	  -103.976	    19.152
    32.243	  -108.913	    12.125
    41.740	  -127.054	    -0.579
    41.798	  -129.880	     9.334
    39.372	  -129.958	    -4.082
    36.428	  -125.803	     0.999
    39.342	  -115.343	     5.366
    35.520	  -111.927	   -11.465
    11.467	   -96.952	     8.991
    33.419	  -130.827	     9.494
    37.159	  -139.689	    12.212
    27.447	  -100.859	    10.005
    20.654	  -102.084	    17.194
    38.247	  -118.431	     3.801
    29.994	  -111.039	    33.251
    38.259	  -116.446	     6.077
    13.761	   -94.444	    22.169
    30.908	  -114.104	     5.391
    39.200	  -108.477	     5.054
    35.479	   -99.646	    -8.191
    48.846	   -87.374	     8.047
    23.952	   -99.771	    16.712
    37.899	  -101.988	    -6.408
    34.892	  -110.912	     6.715
    40.939	  -102.563	     0.140
    14.559	  -113.013	    10.971
    39.427	  -113.052	   -10.448
    19.335	  -122.771	    17.995
    22.521	  -112.481	    -5.010
    41.992	  -116.765	    -0.335
    46.117	  -107.792	   -11.971
    40.109	  -113.950	     4.461
    34.944	  -135.586	    14.812
    40.375	  -116.784	    14.949
    28.499	  -115.270	     3.682
    19.489	   -92.772	     7.343
    48.371	  -101.963	     4.975
    22.373	  -128.594	    18.573
    11.395	  -111.529	     3.693
    46.245	  -105.273	     0.681
    39.281	  -103.534	    -2.441
    21.952	   -94.572	    -3.299
    29.451	  -108.024	    -3.061
    42.188	  -119.128	     7.936
    34.430	  -103.322	     1.239
    52.285	  -129.021	   -14.203
    31.929	  -119.769	     7.186
    40.719	  -136.927	    12.303
    34.243	  -118.476	    14.178
    26.762	  -125.709	    14.984
    16.349	  -127.162	     6.380
    30.147	  -116.974	     6.444
    32.907	  -121.763	    -2.239
    34.149	  -108.678	    12.477
    38.179	  -137.199	     3.469
    38.167	  -112.240	    23.011
    31.152	   -93.562	    -8.816
     9.394	   -94.445	     5.582
    29.043	   -97.354	   -15.480
    33.032	  -115.429	     8.832
    37.467	   -94.188	    -1.386
    46.269	   -97.026	   -11.610
    17.841	  -105.518	    11.608
    47.821	  -121.589	    -0.225
    30.080	  -107.278	    18.010
    39.500	  -130.887	     6.564
    41.419	  -102.652	    -0.682
    34.571	  -108.991	    14.643
     7.481	  -112.502	     3.481
    29.106	  -113.723	    12.717
    30.245	  -112.701	     7.343
    36.829	  -124.989	     2.074
    48.013	  -117.195	    11.090
    33.423	  -126.117	     0.842
    31.421	  -118.684	    -1.469
    40.529	   -95.811	    12.225
    28.188	  -100.445	     8.422
    38.223	  -118.742	    23.852
    37.697	   -96.101	    15.536
    51.145	  -118.137	    12.333
    33.148	  -117.679	    26.267
    59.325	   -94.757	     4.968
    27.594	  -112.851	    20.809
     4.503	  -100.636	    -3.003
    28.559	  -107.292	    -7.124
    42.282	  -115.916	    -0.845
    21.210	  -112.049	    14.249
    43.179	  -107.012	    19.811
    28.913	  -106.382	     1.099
    13.789	   -97.029	    -5.428
    43.758	  -114.586	    -0.664
    37.373	  -127.997	     8.896
    42.359	  -120.340	    10.053
    32.619	  -106.425	     8.711
    44.259	  -109.171	     2.230
    38.014	  -119.492	    12.398
    31.062	  -110.325	    20.493
    42.632	  -101.809	    15.564
    42.644	  -119.237	    13.976
    39.348	  -137.383	    11.937
    22.164	  -111.263	    -9.522
    21.789	  -119.297	    10.785
    30.524	  -116.133	     8.209
    11.403	  -106.004	    30.771
    23.428	   -89.240	     6.907
    36.765	   -97.247	     5.597
    31.538	  -100.721	    -0.207
    21.145	  -101.791	    -7.466
    40.724	  -105.418	    -3.817
    30.926	  -109.037	    35.293
    39.873	  -106.002	     5.648
    30.226	  -101.796	     5.574
    23.821	  -107.892	     4.629
    30.384	  -127.064	    -0.848
    34.455	   -99.298	    25.071
    23.229	  -126.758	     1.556
    25.317	   -99.914	     3.266
    32.224	  -111.420	    11.632
    25.359	  -110.615	    10.106
    30.248	   -88.363	     1.569
    46.036	  -118.761	     6.639
    44.017	  -116.401	    19.646
    34.812	  -122.173	    -2.900
    29.392	  -126.291	     6.219
    35.443	   -98.560	    -6.005
    22.615	  -111.850	     0.002
    39.377	  -113.658	    -2.704
    24.703	  -112.503	     0.588
    33.773	  -114.868	    15.655
    35.526	  -127.557	    15.706
    41.358	  -115.381	   -10.771
    34.115	   -96.502	     1.186
    22.049	  -107.967	     3.631
    42.658	  -120.147	    -0.528
    34.287	  -123.183	     1.726
    44.187	   -90.028	    10.411
    40.250	   -89.094	     5.349
    32.963	  -103.103	    -7.080
    28.505	  -112.256	    12.723
    35.472	  -113.415	    14.592
    46.401	   -92.681	   -19.549
    41.804	  -117.006	     6.754
    38.467	  -107.492	    20.574
    49.291	  -100.180	     6.156
    51.250	   -98.906	     5.824
    38.613	   -96.159	    15.485
    38.090	  -105.153	    -0.220
    41.718	  -112.987	    18.866
    44.347	   -96.874	    -4.669
    41.923	   -93.373	     8.971
    41.628	  -108.351	   -19.143
    22.877	   -99.106	     2.506
    30.816	  -107.327	     1.714
    22.473	  -115.239	    13.564
    31.238	  -105.315	     8.951
    30.661	  -103.556	    15.768
    35.289	  -105.189	    -0.798
    45.400	  -115.191	   -12.414
    17.535	   -95.878	     8.026
    32.683	  -113.217	    11.703
    40.285	  -126.171	     7.953
    46.661	  -118.977	    -5.223
    33.992	  -125.192	     3.812
    41.812	  -101.347	    -9.797
    35.923	  -123.686	    -3.571
    36.955	  -103.827	     3.281
    33.209	  -107.517	    -1.207
    36.816	  -113.511	   -15.251
    38.148	  -120.861	     6.729
    31.855	  -119.805	    -2.511
    31.373	  -106.679	     5.463
    35.625	  -101.276	    -8.481
    34.787	   -99.023	    -0.408
    37.524	  -129.047	     5.365
    24.859	  -110.656	     8.275
    31.321	  -111.176	    -8.698
    31.705	  -111.111	    10.317
    47.078	  -120.551	     9.906
    20.959	  -118.278	     1.666
    36.897	  -109.616	     4.375
    45.242	  -137.251	     3.338
    29.281	  -104.967	     2.771
    44.881	  -101.806	    -6.530
    23.393	   -95.179	    -1.072
    26.341	  -100.145	    -4.295
    25.085	  -110.713	   -10.550
    21.522	  -106.551	    -0.270
    33.690	  -115.609	     5.522
    37.139	   -96.611	    -4.232
    16.292	   -95.435	    14.199
    39.498	  -112.209	    -0.430
    19.707	  -111.071	    12.648
    38.538	  -100.600	    14.841
    36.589	  -121.589	    -3.954
    29.087	  -107.676	   -24.442
   -10.725	   -92.271	    21.184
    33.948	  -103.083	    10.184
    48.817	  -117.199	     8.690
    37.309	  -122.928	    11.218
    32.320	  -125.111	   -16.058
    21.341	  -110.704	    -9.985
    15.673	  -114.039	     3.509
    36.784	  -117.266	    -4.137
    38.161	  -111.060	    -0.083
    43.020	  -114.632	     8.261
    44.784	  -116.882	   -14.100
    35.487	  -119.170	    33.599
    36.066	  -122.304	     8.059
    35.140	  -124.976	    -3.395
    36.679	  -106.652	    -3.969
    15.844	   -92.782	   -14.311
    33.990	  -118.626	    -9.857
    45.813	  -116.401	     5.141
    39.993	  -122.775	    -5.084
    34.884	  -112.324	   -10.959
    26.446	   -97.017	    -1.214
    24.967	  -103.701	   -15.228
    34.006	  -100.800	    -0.875
    26.883	   -82.107	    -0.161
    46.532	  -124.301	   -12.302
    34.994	  -100.499	     9.971
    50.943	  -119.043	    -3.601
    32.682	  -116.413	    18.820
    29.641	   -93.863	    12.478
    30.006	  -103.699	     6.164
    22.411	  -108.890	     8.017
    40.611	  -105.467	     8.028
    30.779	  -109.511	    29.977
    37.381	  -102.284	    11.654
    23.408	  -104.175	     9.716
    32.386	  -124.405	     8.630
    32.851	  -121.577	    23.028
    34.148	  -119.074	     1.146
    35.355	   -97.229	     6.871
    38.014	  -111.924	    -0.196
    32.552	  -110.637	    -6.980
    13.141	  -107.128	    23.620
    36.424	  -109.413	   -11.431
    18.939	  -107.253	     9.620
    36.793	   -90.488	    11.574
    50.202	  -127.608	     2.345
    37.995	   -88.833	    -4.767
    34.011	  -125.681	     5.581
    12.757	  -110.905	    14.987
    28.812	  -119.964	     5.952
    27.808	  -122.126	    25.562
    32.832	  -114.735	    -4.459
    24.752	  -109.089	    -2.127
    28.330	  -116.075	     8.962
    32.259	  -110.797	     6.855
    33.073	  -111.433	    22.000
    36.511	  -116.979	    -2.763
    31.442	  -102.269	     7.164
    32.331	  -121.099	     8.996
    27.162	  -115.399	   -10.104
    48.519	  -109.071	    -7.370
    19.058	  -115.598	     9.555
    42.280	  -129.882	    13.734
    34.033	   -99.700	    -7.359
    35.661	  -119.016	    11.693
    36.069	  -112.092	     2.122
    34.765	  -111.604	     8.952
    40.269	  -120.269	    -0.242
    38.100	  -129.143	    21.489
    34.326	  -103.364	    11.687
    27.495	  -109.776	     9.985
    28.805	  -117.749	     2.527
    46.845	  -110.958	     4.149
    18.985	   -95.086	    -2.482
    32.961	  -102.493	    22.834
    38.612	  -126.278	    20.474
    43.687	  -119.207	    -9.258
    44.004	  -130.030	     4.195
    46.094	  -120.451	   -13.792
    27.776	   -99.860	     6.771
    35.415	  -121.470	    -2.775
    29.820	  -137.449	    23.126
    35.752	  -139.154	    26.430
    34.055	  -111.057	     3.559
    23.643	  -118.696	    38.208
    41.771	   -98.844	    15.404
    26.690	  -122.360	    10.542
    40.037	  -104.131	    -8.227
    38.722	  -146.530	     0.674
    50.451	  -125.823	     5.808
    49.655	  -119.652	    -0.190
    31.977	  -123.806	    11.866
    33.838	  -121.544	    17.862
    14.379	  -106.387	    12.738
    36.561	  -120.376	    15.977
    41.770	  -122.591	     0.786
    42.495	  -127.757	    -2.579
    39.784	  -117.934	     2.045
    24.238	  -104.067	    -3.388
    33.220	  -115.882	     3.316
    21.809	   -89.735	    13.678
    47.410	   -97.756	    -1.499
    26.747	  -114.115	     4.806
    30.392	  -108.789	    15.776
    39.318	   -99.672	    -5.739
    26.442	  -120.714	    22.391
    40.025	  -107.929	     8.631
    38.021	  -126.775	     9.336
    35.409	  -118.348	    10.196
    15.366	  -104.789	    -0.382
    33.443	  -102.547	     0.096
    35.856	   -95.830	    -7.563
    24.044	  -104.305	    -4.052
    36.284	  -115.191	    10.047
    29.930	  -111.897	   -10.746
    30.871	  -102.000	    11.188
    25.476	  -104.593	   -12.633
    31.577	  -111.619	    21.662
    27.543	  -119.365	    -1.487
    30.309	   -99.838	    -0.067
    36.213	  -121.954	    15.975
    47.316	  -110.326	     0.611
    38.770	  -115.695	    14.168
    36.779	  -125.594	    14.775
    26.606	  -122.227	    14.274
    47.262	  -130.851	     0.219
    42.742	  -104.323	    -1.883
    36.366	  -127.754	    -0.303
    41.981	  -124.097	     0.123
    41.707	  -115.183	    -9.373
    40.929	  -119.884	    12.521
    36.199	  -123.804	    13.451
    38.592	  -105.310	   -18.205
    35.967	  -129.705	    -7.236
    45.669	  -109.970	    23.361
    42.480	  -122.622	   -12.471
    35.650	  -101.088	    -2.497
    33.054	  -104.754	     5.179
    41.721	  -126.666	    -2.635
    40.601	  -118.975	    16.350
    38.216	  -107.627	     4.417
    39.438	  -125.796	    12.353
    28.403	  -117.271	     8.511
    37.890	  -111.872	     9.997
    30.300	  -113.415	     0.030
    21.259	  -122.470	    14.348
    32.042	  -135.013	   -14.578
    26.356	  -130.022	     0.681
    45.555	  -123.958	     1.496
    35.559	  -114.884	    14.154
    39.125	  -117.955	     2.525
    32.354	   -97.527	    -8.233
    28.350	  -110.768	    -7.816
    36.173	  -100.188	     7.225
    41.377	  -100.687	    -0.303
    22.554	  -107.460	     2.437
    46.188	  -116.644	    10.370
    32.370	  -127.064	     4.081
    39.146	  -118.702	   -13.714
    38.915	  -112.839	    11.015
    21.358	   -91.761	   -10.176
    23.264	  -123.277	     5.600
    48.076	  -109.067	   -18.787
    31.747	  -102.338	    18.572
    40.178	  -113.892	    16.243
    23.565	  -118.511	   -10.383
    34.370	  -119.269	    16.937
    29.958	  -105.052	    11.198
    50.359	  -117.785	    18.152
    42.182	  -118.830	    18.217
    44.138	  -105.486	     3.294
    37.135	  -136.745	     6.768
    37.238	  -133.176	     4.901
    37.345	  -129.012	    13.072
    31.990	  -127.464	    16.744
    50.026	  -115.962	     4.948
    29.404	  -114.905	    19.226
    56.575	   -96.266	    -1.759
    43.651	   -92.590	    -9.111
    44.144	  -109.183	     6.912
    25.567	  -105.964	     2.244
    51.319	  -116.141	     5.139
    33.185	  -107.404	    -9.641
    27.064	  -120.595	   -21.250
    13.234	  -117.714	    12.011
    10.611	   -93.751	    -2.152
    26.439	  -112.976	     4.462
    43.037	  -113.282	    15.833
    29.231	  -126.667	    -2.952
    28.945	  -121.538	    17.301
    36.672	  -118.800	    10.691
    42.052	  -122.936	    -3.847
    24.574	  -113.442	     7.665
    20.222	  -101.438	    -3.813
    45.314	  -108.471	    10.114
    44.943	  -116.112	    13.840
    35.611	   -95.945	     2.987
    18.742	  -111.626	    -3.276
    21.539	  -105.059	    18.228
    23.357	   -95.785	    -3.094
    10.903	   -96.286	     2.976
    22.953	  -120.645	    -1.564
    36.803	  -100.152	    14.054
    32.714	  -104.219	     3.961
    31.864	  -111.432	     3.140
     1.092	  -103.248	    -0.653
    41.805	  -110.242	    14.619
    43.203	  -102.361	     6.566
    39.157	  -119.042	    13.877
    27.125	  -100.291	     0.435
    37.030	  -121.600	    20.098
    26.891	  -121.039	    15.271
    24.738	  -112.948	    -3.948
    35.001	  -126.408	    -5.661
    24.328	  -107.264	    16.371
    32.919	  -105.608	     4.974
    36.686	  -101.176	     9.120
    35.095	  -128.714	    19.660
    42.394	   -93.976	     7.555
    33.998	  -120.563	    20.060
    39.901	  -132.279	     7.405
    39.184	  -130.460	     4.384
    26.337	  -126.565	    10.361
    39.104	  -102.155	   -10.677
    38.842	  -108.463	     1.542
    24.281	  -100.414	    17.805
    47.274	  -104.793	     3.206
    19.046	   -85.567	    11.567
    38.874	  -113.496	   -14.236
    22.701	   -87.023	    -0.962
    48.759	   -99.571	     1.697
    20.769	   -90.605	     8.573
    42.561	  -128.406	     6.927
    43.462	  -116.344	     1.746
    30.309	  -101.497	    -5.221
    34.885	   -86.797	     4.941
    43.516	  -124.447	    -7.558
    54.240	  -109.344	    -5.521
    40.871	  -111.631	    -7.701
    38.570	  -124.705	    18.927
    43.138	  -137.015	    20.556
    27.958	  -114.717	     6.551
    34.276	  -104.119	   -11.822
    22.344	  -115.107	     3.657
    47.353	  -119.528	    -2.183
    32.461	   -92.483	     4.723
    33.866	  -124.108	     8.023
    35.967	   -93.295	    -6.913
    35.943	  -110.926	   -12.611
    17.672	  -103.730	     3.198
    40.304	  -111.678	     8.806
    33.673	  -113.065	    17.391
    37.206	  -102.146	    13.387
    34.836	  -103.233	    17.114
    44.382	  -113.300	    11.291
    47.922	  -104.913	    -5.027
    31.689	   -91.051	    -6.553
    20.526	  -101.093	    -3.434
    19.634	   -98.855	    -1.664
     7.315	   -97.999	    34.628
    53.211	   -82.282	    10.178
    19.273	  -102.858	     8.951
    22.312	  -109.525	     5.233
    24.967	  -116.801	    26.038
    33.297	  -121.235	    -4.803
    27.176	  -124.271	    11.045
     6.531	   -95.574	     6.241
    29.882	  -110.484	     1.869
    43.924	  -125.231	   -10.010
    30.590	  -113.567	     5.530
    33.217	  -109.521	    -0.215
    30.240	  -110.821	    -5.327
    18.186	  -102.185	    12.759
    39.611	  -115.012	    -1.770
    38.772	  -111.316	   -13.483
    39.591	  -117.357	   -11.392
    47.955	   -97.827	   -16.407
    28.225	  -134.784	     4.979
    22.517	  -119.898	    -5.456
    46.579	  -108.813	     7.960
    29.168	  -103.733	    14.751
    18.835	  -107.561	    -9.266
    40.781	  -124.103	    -1.495
    41.160	  -115.577	    -0.893
    36.012	  -112.372	    13.053
    35.090	   -96.584	    27.476
    29.661	   -96.128	    14.092
    23.307	   -94.423	     2.538
    21.162	  -113.446	     2.788
    34.532	  -109.049	     1.480
    26.865	  -119.257	    20.065
    32.127	  -112.683	    18.342
    31.312	  -113.969	    -8.802
    18.297	  -103.576	    -9.587
    24.235	  -129.018	    24.753
    45.562	  -119.724	    -3.955
    38.160	  -114.848	    12.624
    29.594	  -121.322	   -11.956
    26.735	  -103.577	    12.549
    31.544	  -131.197	    20.878
    36.960	  -124.497	     8.508
    16.115	   -97.009	    13.488
    30.241	  -114.903	   -14.350
    32.965	  -115.011	     8.347
    44.068	  -120.461	    23.266
    39.017	  -118.569	   -12.704
     9.003	   -87.155	     5.729
    20.383	   -92.911	     0.981
    45.585	  -116.396	     4.174
    45.605	  -131.109	    14.858
    40.880	  -131.846	    -4.729
    16.970	   -98.096	    -9.158
    42.071	  -134.044	     8.187
    32.660	  -120.419	     6.941
    24.985	  -118.378	   -11.612
    17.595	  -100.203	    -7.546
    46.956	  -127.889	     1.539
    41.964	  -107.516	    12.110
    63.935	  -112.193	   -26.597
    31.365	   -94.945	    34.613
    49.956	   -92.095	     6.042
    24.920	  -109.306	    25.161
    35.152	  -118.512	     4.835
    31.761	  -118.199	    21.724
    47.866	  -106.847	     3.785
    38.449	  -123.442	    14.404
    33.842	  -112.865	    17.635
    36.723	  -117.025	     4.470
    44.095	  -113.446	     5.618
    54.204	   -98.381	     3.418
    35.935	  -110.265	     7.646
    52.956	  -157.181	    -0.563
    21.017	   -86.073	     5.753
    51.310	  -111.835	    -4.218
    30.365	  -127.384	   -11.168
    38.193	  -123.050	     1.327
    21.855	  -113.593	     7.139
    39.884	  -108.371	     8.103
    29.138	  -107.755	   -18.717
    31.154	  -113.000	    -4.902
    28.377	  -122.481	    15.148
    30.003	  -108.330	   -10.078
    37.282	  -120.937	     5.422
    37.885	  -107.348	     6.481
    41.271	  -103.182	    -2.662
    36.585	  -106.037	     7.219
    42.032	   -90.916	    16.018
    30.860	  -104.200	    15.875
    36.376	  -110.243	     4.447
    39.159	  -110.802	    -3.010
    26.654	  -110.446	    18.595
    36.495	  -121.024	    -5.204
    32.959	   -94.794	    -8.314
    27.959	  -106.139	    -9.355
    16.538	  -101.207	    -3.629
    49.258	  -123.120	     5.384
    23.777	  -102.125	     7.451
    32.306	   -92.620	    -6.236
    32.583	   -98.047	   -18.079
    39.021	  -105.169	    12.523
    30.576	  -116.405	    -0.594
    26.242	  -123.440	    15.427
    42.853	  -108.252	     2.629
    38.053	  -134.282	     6.317
    40.122	  -139.369	     3.002
    42.766	  -141.185	    11.676
    27.050	  -128.846	    10.233
    34.607	  -120.344	     8.339
    39.182	  -135.357	    13.322
    33.189	  -128.403	    12.471
    30.907	  -101.501	     2.461
    43.668	  -115.214	     3.934
    30.918	   -88.774	    -1.121
    18.660	   -87.604	    13.292
    28.364	  -102.910	     9.311
    38.559	   -97.967	     1.567
    42.624	   -97.299	     4.948
    38.145	  -113.444	     9.973
    23.950	  -100.821	     9.360
    27.518	   -95.676	    -3.144
    35.376	   -97.586	    28.752
    36.098	  -107.204	    19.019
    38.203	  -101.146	   -19.424
    27.950	   -91.922	    28.288
    33.175	   -96.289	    13.313
    36.425	  -106.453	     2.940
    32.362	  -118.159	    33.850
    27.212	  -115.505	    15.991
    21.289	  -122.794	    16.556
    42.468	  -135.721	     4.931
    10.686	   -74.606	    -4.434
    45.600	  -118.466	     3.953
    26.372	  -105.743	    19.473
    37.538	  -114.850	     5.583
    33.040	  -111.600	    15.410
    41.101	  -122.965	     9.729
    33.619	  -115.662	     8.624
    33.275	  -102.389	    -0.993
    20.039	  -123.077	     9.909
    39.216	   -89.519	    -5.763
    19.269	   -97.312	    -6.884
    29.743	  -105.858	   -11.236
    38.677	   -94.313	     2.082
    38.908	  -123.210	    10.908
    42.212	  -122.317	     4.208
    39.195	  -110.549	     3.753
    46.054	  -117.452	     2.504
    45.431	  -106.770	    12.916
    46.555	  -123.701	    -0.463
    41.969	  -120.957	    11.329
    39.465	  -105.282	    12.830
    25.510	   -96.378	    23.203
    42.368	  -122.860	   -10.484
    19.815	  -123.239	    21.766
    33.061	  -121.500	    -1.488
    26.593	  -120.549	    -0.805
    44.109	  -124.870	    -0.624
    21.247	  -102.254	    17.536
    30.048	   -88.268	    14.304
    44.592	  -123.145	     1.023
    35.948	  -119.655	     7.831
    31.473	  -120.965	     1.132
    21.640	  -104.273	    -3.064
    20.995	  -103.556	     6.755
    18.409	  -122.417	    -6.975
    34.947	   -93.396	    -1.756
    35.576	  -106.693	     5.879
    43.988	  -126.079	    -2.662
    21.306	  -111.255	     6.774
    40.860	  -124.413	     9.177
    36.629	   -87.310	    19.218
    25.010	  -121.693	    27.596
    37.415	  -124.450	     5.085
    23.299	  -112.167	    13.481
    37.592	  -128.372	    20.594
    27.293	  -105.718	   -11.090
    37.885	  -113.692	    -8.585
    29.446	  -105.663	    -9.543
    44.500	  -125.664	    16.508
    29.978	  -107.673	     8.677
    24.607	  -110.169	    10.678
    23.659	  -111.348	     0.971
    43.037	  -109.187	     7.005
    32.282	  -109.333	    11.523
    45.343	   -88.118	     2.179
    27.579	  -110.578	    -1.197
    40.112	   -86.412	    18.414
    42.348	  -113.830	     4.575
    23.072	   -93.506	   -13.660
    45.825	  -118.189	    -4.902
    28.551	   -92.543	     8.889
    28.272	  -107.742	    -9.441
    30.038	  -106.000	     8.152
    32.599	  -102.679	    19.904
    47.480	   -97.548	   -17.641
    22.564	  -106.935	     3.105
    45.518	  -135.699	    -0.628
    42.312	  -145.191	    12.368
    31.008	  -140.358	    16.291
    39.951	  -107.856	    -2.655
    38.677	   -90.277	     4.195
    40.337	  -120.706	    10.524
    28.148	  -113.336	    -3.151
    32.406	  -103.882	     5.101
    40.984	   -92.622	    12.541
    18.327	  -115.527	     5.280
    32.021	  -111.783	   -25.195
    29.082	  -113.565	    -3.344
    25.718	  -111.458	    -2.404
    28.102	   -98.229	    17.434
    40.627	  -123.195	     3.469
    40.421	  -117.196	    -5.997
    36.486	  -104.157	     2.420
    30.594	  -118.700	    15.774
    52.574	  -110.528	    -4.708
    42.525	  -121.566	    -5.349
    33.923	  -119.193	     8.015
    36.601	   -95.206	   -14.519
    52.135	  -110.790	     8.004
    26.419	  -107.381	     4.372
    34.212	  -123.303	    -0.658
    49.731	  -107.618	    -2.858
     9.306	   -95.425	    17.770
    50.342	  -119.570	    -3.293
    40.859	  -108.438	    -1.303
    36.310	  -100.291	    18.193
    42.760	  -118.625	    32.954
    38.815	  -127.618	     3.457
    37.051	  -107.667	     6.481
    41.877	  -107.198	    -8.887
    40.224	  -109.016	   -11.626
    30.407	   -94.330	    13.055
    20.041	  -107.454	     8.847
    37.190	  -104.789	     0.045
    25.099	  -119.655	     6.013
    26.474	  -128.254	     3.369
    31.606	  -124.136	    11.006
    33.635	  -119.327	     3.192
    32.014	  -104.267	     2.583
    -7.387	   -51.407	   -19.272
    19.914	   -82.659	     4.834
    22.018	   -86.322	    -9.411
    28.201	  -115.305	     9.841
    26.475	  -111.233	     2.646
    37.514	  -119.560	     7.250
    33.646	  -120.463	     2.589
    18.233	  -112.275	    -1.798
    38.525	  -129.752	   -15.725
    29.810	  -117.871	     9.800
    35.986	  -120.395	    13.066
    36.718	  -104.079	     0.100
    31.614	  -125.371	    12.115
    28.386	  -102.914	    20.211
     7.723	  -107.572	    -3.265
    33.219	  -102.814	     9.665
    32.781	  -112.654	     4.665
    10.752	  -106.908	    -6.656
    33.970	   -86.558	   -11.556
    28.077	   -99.512	    12.116
    20.774	   -76.528	    -4.288
    16.821	  -101.969	     8.797
    46.681	   -98.894	     2.071
    45.290	  -101.744	     6.678
    25.921	  -114.082	    17.235
    49.638	  -122.231	     9.255
    34.604	  -136.306	     9.148
    28.479	  -113.068	    -7.367
    45.687	  -122.757	    13.377
    22.392	  -114.395	     5.763
    38.337	  -134.820	    15.742
    40.276	  -122.457	    -8.172
    34.019	  -101.636	     5.328
    19.434	   -98.473	     9.735
    31.593	   -98.982	    -3.403
    52.029	  -111.713	     9.195
    37.408	   -98.998	    11.883
    31.949	  -117.226	     7.705
    34.138	   -84.661	     4.375
    28.099	   -99.610	     4.375
    42.643	  -109.831	    24.833
    32.662	  -132.188	     9.021
    47.902	  -139.014	    16.018
    33.103	  -144.615	     3.696
    52.895	  -115.119	    12.191
    41.705	   -94.375	    16.410
    32.089	  -111.067	    -0.412
    41.684	  -152.999	     8.721
    52.310	  -136.391	   -11.583
    32.112	   -90.606	    19.301
    43.444	  -132.486	    -4.342
    40.346	  -106.935	    -9.871
    33.125	  -108.124	     0.932
    36.568	   -99.459	    11.059
    21.811	   -76.841	     6.518
     4.478	  -101.860	   -14.397
    -1.308	   -84.654	   -13.624
    35.612	  -108.543	    -6.975
    39.333	  -107.920	   -14.972
     8.665	   -88.932	   -13.694
    39.488	  -120.044	     4.559
    28.354	  -109.005	    -0.492
    37.838	   -98.072	     9.202
    11.999	  -102.498	     5.802
    24.801	  -101.830	     8.503
    38.601	  -117.665	    -2.419
    35.632	  -100.397	    -6.250
    41.175	  -143.634	    18.293
    48.945	  -111.316	    -6.978
    38.627	  -107.414	    12.132
    32.535	  -112.771	     5.873
    40.897	  -102.313	    -5.592
    26.609	   -99.408	    -0.386
    11.507	  -106.548	    28.694
    49.242	   -88.457	     7.871
    39.357	  -130.177	     7.502
    30.121	  -103.508	    13.170
    35.820	  -110.930	   -11.552
    33.185	  -114.977	     9.613
    35.405	  -135.859	     6.641
    24.573	  -126.231	     9.467
    37.477	  -122.367	     3.044
    34.003	  -112.910	    10.609
    35.858	  -122.418	   -14.458
    35.677	  -114.177	    -6.794
    21.928	  -115.461	    31.500
    50.721	  -115.090	    -1.205
    17.720	  -110.095	    15.175
    11.182	   -89.405	    21.830
    36.298	  -116.532	     7.886
    36.577	   -88.398	    11.258
     9.011	   -99.154	     5.561
    29.335	  -112.242	     5.261
    30.024	  -128.329	    19.182
    34.712	  -113.839	    11.446
    28.398	   -98.248	    -1.263
    37.329	  -134.064	    13.442
    36.819	  -110.695	     2.610
    38.610	  -117.206	    -0.909
    43.577	  -116.835	    -8.407
    41.618	  -122.458	     5.612
    40.767	  -141.520	     6.485
    36.349	   -94.782	    16.174
    34.620	  -115.091	    -6.976
    26.432	  -121.298	    17.523
    41.833	  -115.911	     9.360
    34.101	  -106.427	    -8.278
    26.263	   -99.402	    13.379
    47.389	  -126.898	   -12.203
    40.823	  -122.586	    -6.940
    25.636	  -129.968	    11.687
    22.004	  -111.221	     6.185
    47.273	  -100.379	     4.155
    24.974	  -109.826	    42.038
    46.430	  -113.532	     2.827
    37.020	  -115.632	    14.948
    27.860	  -110.027	    18.074
    24.321	  -120.326	    14.244
    42.364	  -119.783	    17.706
    37.749	   -97.827	    13.042
    45.882	   -91.420	     4.291
    24.594	  -112.434	    10.185
    40.422	  -106.825	    14.606
    27.841	  -114.874	     6.617
    35.971	  -112.841	    -6.851
    24.208	  -107.904	     0.979
    33.518	  -124.042	    18.982
    23.549	  -112.138	     3.161
    21.385	  -114.199	     7.842
    53.819	  -114.441	    -3.142
    34.215	   -98.079	     5.418
    39.253	  -123.881	    23.865
    31.014	  -113.495	    10.109
    27.312	  -110.449	     0.663
    36.455	  -106.411	     3.339
    35.132	  -117.396	    -5.047
    29.540	  -106.829	   -12.817
    36.360	  -104.541	    -4.366
    53.429	  -121.206	    10.532
    25.253	  -118.999	    26.765
    30.187	  -127.820	     6.205
    22.050	   -94.734	     3.698
    35.917	  -101.693	    -3.355
    15.755	  -107.077	    16.744
    40.598	  -113.962	   -17.462
    27.958	  -104.092	     1.908
    25.748	  -102.414	    -4.553
    48.573	   -93.998	     0.778
    35.205	  -104.924	     9.884
    10.759	   -99.823	    16.226
    38.026	  -102.885	    12.184
    24.997	   -92.505	    26.822
    44.823	  -133.778	    11.402
    38.125	  -108.025	    -6.766
    30.687	  -114.222	    -0.695
    27.624	  -113.817	    21.072
    29.509	  -117.486	    10.104
    27.951	   -90.668	     1.304
    26.645	   -98.764	    -1.733
    33.105	  -101.158	     5.905
    26.112	  -102.469	    -1.564
    27.782	  -115.370	     5.487
    32.812	  -104.241	    25.369
    48.121	  -103.576	    16.415
    36.631	  -113.038	    -2.403
    36.791	  -128.873	    17.317
    34.005	  -124.387	     8.101
    31.416	  -109.023	     7.817
    28.064	  -110.441	     5.390
    41.599	  -103.858	    18.304
    41.210	  -104.632	    14.415
    25.843	  -106.321	    18.443
    46.827	  -121.329	     6.227
    39.772	  -116.067	    12.682
     1.681	   -96.771	    20.657
    38.423	  -101.138	    -6.793
    34.529	   -96.470	    23.048
    54.748	  -131.235	    -3.011
    24.900	  -117.060	    16.021
    19.143	  -108.844	     3.924
    12.138	   -98.404	    -5.225
    43.019	  -113.171	     2.751
    34.587	  -113.392	     5.192
    33.777	  -114.889	    25.880
    43.233	  -107.624	    -4.064
    31.368	   -98.529	    22.526
    47.131	  -108.925	    -2.346
    39.985	  -102.768	    11.043
    40.881	  -107.202	    18.922
    36.157	  -101.982	     3.769
    27.702	  -119.939	     4.469
    16.747	  -105.867	     5.147
    38.300	  -114.868	     7.310
    22.009	  -118.089	     5.327
    25.419	  -125.714	     6.430
    21.930	  -118.995	    -7.397
    35.410	  -134.663	    19.622
    35.266	  -130.481	    23.648
    34.373	  -116.747	     6.383
    45.101	  -129.683	    -7.732
    35.949	  -126.602	     5.302
    33.976	  -126.066	    11.648
    43.187	  -109.397	    10.212
    47.742	  -115.979	   -25.604
    42.366	  -112.821	     6.705
    41.532	  -126.061	    16.613
    16.208	  -112.626	    20.622
    37.404	  -111.434	     0.715
    37.319	  -116.770	   -10.911
    22.921	  -115.588	    13.232
    33.958	  -120.678	     6.989
    29.478	  -117.306	    21.004
    39.734	  -121.061	    10.416
    34.624	  -119.886	    22.720
    26.377	  -125.971	    14.524
    26.065	  -116.916	     5.743
    37.390	  -118.572	    -6.914
    34.450	  -129.706	    15.901
    47.570	  -118.872	     2.113
    34.937	  -113.454	    -3.466
    38.496	  -118.720	    25.044
    29.267	  -105.182	     9.468
    53.549	  -136.583	     6.968
    26.646	  -111.887	    11.148
    35.972	  -119.136	     4.449
    30.080	  -106.334	     5.202
    37.795	  -107.787	     7.109
    50.686	  -123.561	    11.712
    31.096	  -121.093	    14.080
    33.715	  -109.701	     9.057
