   -92.310	   122.143	    -3.179
   -23.571	   -69.145	    -9.285
   -16.909	   -60.686	   -12.770
    32.915	   -95.338	   -10.334
    29.690	   -97.952	    -5.695
     7.853	   -85.623	    11.098
   -20.751	   -58.123	    14.343
    -3.397	   -92.892	     1.062
    -5.679	   -50.206	   -18.118
    20.844	   -81.423	   -26.055
    30.016	   -63.321	     2.571
     8.606	   -96.142	     0.280
    13.752	   -93.102	    -0.414
    30.333	   -70.649	    16.720
    30.405	   -88.329	     9.103
    39.525	   -85.727	    -3.164
    37.871	  -100.420	    -3.206
    34.402	   -75.687	     8.425
    17.208	   -90.815	    20.009
    27.912	  -103.202	     1.532
    18.190	   -77.938	     3.266
    37.193	   -82.445	    10.818
    57.792	   -83.573	    -1.491
    19.028	   -80.592	    10.699
    42.366	   -86.569	   -13.103
    48.400	   -82.659	     9.996
    40.392	   -65.809	    12.623
    13.419	   -77.826	   -11.846
    32.160	   -80.807	     3.123
    22.345	   -97.566	    -1.552
    34.461	   -85.604	    -8.443
    25.070	   -84.410	    16.948
    30.825	  -109.914	    -9.740
    63.764	   -63.820	    -1.141
    43.571	  -110.793	     0.323
    19.254	   -65.278	    11.296
    30.452	   -68.767	    -9.722
    59.750	   -61.756	    16.755
    21.087	   -76.729	    16.710
    29.053	   -71.804	     5.761
    29.664	   -92.136	   -11.195
    27.542	  -102.916	     6.077
    23.884	   -93.961	     6.115
     9.539	   -96.387	    -3.924
    -4.505	   -69.677	     0.291
    22.743	   -85.378	    -0.999
    33.260	   -94.933	    -2.013
    -7.799	   -55.700	   -10.235
   -21.410	   -61.407	   -16.148
   -20.491	   -65.518	   -20.752
   -29.012	   -58.289	    -6.308
    25.790	   -90.330	   -20.725
    35.821	   -81.274	    12.447
    39.865	   -68.178	     6.762
    29.372	   -97.866	    -9.121
    40.560	   -81.985	    -7.981
    32.602	   -98.446	     3.238
    36.442	   -89.504	     8.070
    19.141	   -77.879	     5.124
   -27.846	   -55.511	   -13.482
   -11.692	   -79.675	    13.725
   -29.759	   -47.852	    -6.081
    -9.798	   -75.151	   -14.302
    -3.589	   -67.707	   -13.142
    12.280	   -79.269	    18.610
    -7.077	   -78.539	     4.118
    17.535	   -81.473	    13.762
    -2.480	   -66.948	   -11.491
    -2.311	   -76.941	    -9.521
   -12.378	   -53.676	   -19.053
    36.849	   -86.861	   -18.893
     5.198	   -79.872	    -5.216
     7.240	   -89.627	   -11.685
    20.414	   -70.698	    -3.170
    -0.987	   -71.858	    -3.827
    23.712	   -81.981	    -4.959
   -11.232	   -64.551	    13.130
    37.105	  -109.932	   -13.957
    34.807	   -96.798	    14.006
    14.207	   -76.971	    -5.123
    18.924	  -101.307	    13.125
    30.488	   -93.832	    15.082
    38.242	   -71.350	     1.315
    36.746	   -63.033	    23.723
    44.144	   -76.046	    -8.109
    20.690	   -83.366	     2.841
    43.357	  -104.620	     1.298
    36.940	   -79.959	    11.201
    28.744	   -94.261	     2.486
    38.022	   -95.672	    10.021
    39.786	   -98.403	    -9.744
    22.558	   -96.367	    22.818
    39.243	  -115.549	   -11.615
    24.298	   -97.678	     0.246
    -6.936	   -73.401	     6.661
   -14.310	   -63.753	     2.528
   -27.222	   -71.876	     7.833
   -10.554	   -55.168	    22.167
    51.788	   -83.109	    -3.039
    24.770	   -81.056	   -13.621
    21.883	   -88.557	   -10.915
    30.048	   -91.652	    21.316
    49.881	   -66.549	    10.777
    39.232	   -74.486	    22.389
    37.907	   -69.346	    21.494
    17.603	   -94.789	     1.787
    46.578	   -87.438	    17.296
    23.142	   -73.087	    -2.031
    48.301	   -73.679	    11.307
    48.957	   -82.660	    -3.734
    18.280	  -102.450	    20.531
    49.631	   -98.146	     5.516
    15.362	  -103.124	    21.794
    54.562	   -66.083	    10.308
    41.836	   -95.875	    16.521
    50.678	   -92.677	    11.009
    39.077	   -85.292	    14.903
    22.900	   -84.784	     0.371
   -28.026	   -54.092	   -10.608
   -32.916	   -71.106	   -21.752
    -8.002	   -57.641	   -22.029
   -11.355	   -70.923	    -5.025
   -16.896	   -55.492	     0.340
   -13.339	   -75.742	     4.043
   -22.198	   -67.714	    -3.064
    10.830	   -90.669	    -9.578
   -38.628	   -53.478	    -7.242
    -3.506	   -71.575	    -3.878
   -27.090	   -56.507	    -9.565
   -13.998	   -83.878	    11.703
    30.921	   -91.239	    -8.640
     9.104	   -86.779	     2.607
    29.828	   -97.821	     3.147
    -2.297	   -64.289	    -6.318
    33.059	   -98.497	     5.677
    24.326	   -70.184	    -4.479
    27.098	  -100.106	    16.516
    10.193	   -87.076	     0.023
    31.319	   -91.969	    -4.524
    31.146	   -96.713	     3.109
    27.969	   -87.014	     1.773
     6.151	   -88.404	   -12.689
   -12.526	   -62.413	     6.739
   -17.038	   -79.704	    -3.080
    16.292	   -79.208	   -18.071
    -8.773	   -79.938	   -10.914
    -7.438	   -67.452	    -1.210
    22.490	   -92.873	   -17.149
    39.011	   -72.271	     5.716
    15.982	   -80.337	     5.939
    44.661	   -94.421	    -0.939
    28.092	   -82.339	    -2.453
    32.362	   -81.911	   -10.036
    27.526	   -83.195	     5.095
    46.081	   -94.619	    -4.529
    35.277	  -100.719	    -5.478
   -23.541	   -67.258	    30.091
    51.719	   -53.961	    -0.364
    23.507	   -68.904	    12.781
    14.686	   -83.496	     6.006
    -9.517	   -83.285	     3.521
    30.691	  -115.171	    11.594
    38.607	  -101.004	     3.806
    24.859	   -88.116	    -4.401
    36.775	   -81.814	     2.553
    47.228	   -69.881	    25.282
    38.915	   -66.763	     8.826
    14.459	   -78.809	   -14.972
    37.609	   -76.510	   -22.872
    45.606	   -64.459	     0.121
    50.222	   -59.733	     8.998
    33.359	   -91.232	    11.083
    35.686	   -93.881	    13.333
    51.527	   -88.722	     0.629
    36.015	   -88.375	    13.045
    39.422	   -92.033	     2.921
    25.293	   -93.791	     0.270
   -12.497	   -85.303	    12.174
    10.814	   -74.252	     0.265
    45.359	  -102.099	    18.154
    30.696	   -93.512	   -14.945
    17.700	   -90.623	    22.166
    35.509	  -107.404	     7.663
    32.848	   -83.961	    11.646
    43.965	   -84.870	    10.981
    23.712	   -87.650	    12.693
    39.209	   -85.423	     7.815
    47.083	   -95.948	    -1.553
    12.975	   -86.751	    -9.644
    24.315	   -98.273	     7.101
    -4.038	   -53.211	    -3.144
    30.776	   -82.134	   -24.179
    27.694	   -90.248	    12.225
    29.009	   -85.989	   -13.642
     9.212	   -77.346	    -2.420
    14.656	   -81.802	    -2.584
    42.645	   -94.314	     0.281
    19.161	   -92.656	     9.401
    30.909	   -65.501	     6.955
    20.395	   -97.876	    10.645
    55.317	  -103.882	     9.249
    39.975	   -85.945	    12.760
    36.978	   -90.342	    19.916
    21.322	   -66.588	    26.419
    33.611	   -73.818	    16.731
   -24.808	   -59.327	   -11.483
    -9.301	   -77.087	    -6.414
     5.144	   -83.696	    -1.742
    12.311	   -73.627	     6.027
    24.882	   -96.312	     5.394
    40.376	   -92.770	    -0.142
    33.443	   -93.382	    23.037
    13.499	   -84.238	     5.659
    39.813	  -107.758	    -4.479
    24.917	   -77.005	    18.509
    10.285	   -72.688	    -0.945
    11.825	   -67.602	     3.780
    44.360	   -69.410	    19.155
    44.543	   -54.088	     7.972
    36.696	   -79.758	   -14.738
    30.295	  -104.254	    -2.087
    38.188	   -98.976	    10.160
    15.900	   -92.781	     7.646
    29.415	   -77.263	     9.133
    10.035	   -81.259	   -13.658
     0.926	   -88.618	   -11.849
    44.284	   -98.962	     7.750
    37.278	   -80.959	     5.513
    30.635	   -91.256	    10.114
    51.448	   -72.061	     0.222
    58.648	   -72.373	    13.122
    19.753	   -75.873	     5.577
    39.313	   -69.625	     2.204
    39.133	  -113.871	     8.374
   -26.706	   -61.393	   -17.430
   -15.946	   -71.242	    -6.549
    -3.575	   -66.043	   -12.515
    18.844	   -95.148	    -4.185
    29.247	   -83.778	   -17.883
    31.070	   -94.023	    -3.209
    41.370	   -85.892	    -2.988
    44.142	   -79.617	    14.128
    57.228	   -76.860	     8.607
    19.026	   -74.329	    24.398
    53.204	   -85.876	     7.107
    47.921	   -90.093	    28.794
    56.870	   -60.033	    15.501
    44.044	   -61.731	     4.070
    18.402	   -72.071	     0.449
    37.234	   -91.193	    -2.400
    19.844	   -96.431	    18.766
    19.609	   -96.924	     5.147
    42.536	   -89.711	   -18.858
    36.780	   -72.475	    15.560
    37.953	   -62.663	    11.742
    51.092	   -63.452	    20.121
    43.409	   -73.334	    19.657
     5.000	   -71.732	    30.306
    38.049	   -94.649	   -24.778
   -32.163	   -59.772	     5.768
   -33.114	   -45.113	     8.775
    23.616	   -83.297	   -22.404
    -9.544	   -74.194	     7.441
    34.183	  -117.344	    10.035
    -3.570	   -71.501	    -7.374
    24.034	   -77.678	   -18.532
     8.009	   -80.413	    11.090
     9.882	   -81.409	   -21.165
    36.371	   -67.253	    22.980
    34.266	   -93.261	    20.379
    44.244	   -70.473	    14.299
    37.891	   -70.034	     6.502
    29.544	   -73.509	    12.903
    44.251	   -77.924	    10.386
    29.150	   -98.162	     8.108
    52.996	   -69.571	    13.412
    35.927	   -72.225	     0.566
    18.275	   -91.480	     8.393
    22.941	   -95.539	    -3.176
    35.423	  -102.288	     4.796
    30.704	   -84.057	    -0.434
    17.940	   -85.564	    -5.991
    14.307	   -77.586	    -8.151
    27.083	  -105.842	     4.325
   -16.266	   -81.679	     4.582
   -27.238	   -72.823	     4.341
   -17.505	   -75.151	     4.014
    27.325	   -78.992	    18.992
    15.144	   -93.971	    12.415
    39.122	   -90.689	    12.339
    54.939	   -72.171	    10.801
    46.090	   -77.739	     2.337
    51.156	   -73.451	    11.006
    46.437	   -84.185	    21.997
    41.070	  -103.486	    -1.886
    46.166	   -82.494	     5.410
    36.735	   -89.581	     0.896
   -27.752	   -57.556	    -9.913
    45.438	   -69.069	   -10.931
    28.707	  -101.977	    -7.071
    52.620	   -60.172	   -15.666
    32.463	   -74.554	     5.579
    43.629	   -87.940	    13.465
    19.633	   -87.196	    -5.386
    47.615	   -95.227	    -3.160
    44.568	   -95.192	    25.825
    46.179	  -118.194	     9.172
    22.665	   -91.402	     3.440
    32.736	   -58.978	    -4.241
    40.059	   -95.622	     2.990
    18.973	   -94.289	    24.835
    26.770	   -99.346	     0.559
    43.212	   -91.393	    19.168
    25.125	   -84.992	     2.773
    50.127	  -101.077	    -3.227
    47.288	   -51.659	     2.536
    50.283	   -69.204	     6.309
    24.539	   -85.040	     9.804
    47.435	   -79.571	    -6.436
    25.256	   -75.871	    20.336
    33.733	  -104.022	     7.736
    15.040	   -72.287	    12.155
    18.717	   -80.982	     0.911
    53.060	   -81.351	    16.396
    41.672	   -76.959	     0.929
    39.527	  -106.686	     4.278
    24.948	   -96.300	     4.895
    38.834	   -95.903	   -13.981
    -2.505	   -72.973	     4.484
    -2.047	   -94.317	     3.669
    32.726	   -77.419	    29.485
    10.949	   -68.922	    -8.128
    29.257	   -77.991	    11.466
    47.089	  -100.914	    14.020
    -6.453	   -80.507	    17.085
    39.890	   -90.386	     2.252
    18.197	   -81.555	   -20.766
    45.255	   -74.262	    -4.126
    33.100	   -93.789	    14.006
    48.900	   -52.958	     8.727
    38.930	   -66.176	    22.307
    57.079	   -82.989	    12.743
    34.607	   -95.334	     9.840
    47.273	   -78.720	    18.546
    36.807	   -97.012	    10.889
     9.296	   -85.209	     9.391
    40.726	  -109.256	     2.745
    18.072	   -92.673	     4.270
    31.017	  -118.398	     7.235
    19.012	   -79.562	     2.497
    26.302	   -95.583	    11.219
    40.057	   -83.411	   -12.521
    19.072	   -97.145	    20.055
    25.312	   -87.718	     7.230
    10.606	   -82.687	     4.600
    -2.377	   -76.275	     2.038
    20.363	   -80.304	     1.500
    13.519	   -85.582	    14.108
    26.018	  -108.017	     0.715
    36.539	  -100.486	    14.977
     6.375	   -78.932	     3.734
    33.377	   -92.025	    12.413
    16.307	   -93.303	    24.829
     3.556	   -80.067	    -8.741
     3.859	   -80.035	    13.916
    39.162	   -88.757	    -3.972
    37.417	  -101.442	     1.861
    33.015	   -96.765	    10.204
    36.928	   -87.239	     2.794
    39.456	   -86.455	    11.568
     9.473	   -98.211	    18.760
    30.508	   -93.636	    16.325
    52.444	   -89.707	     2.580
    36.448	   -90.545	     0.012
    32.118	   -90.928	    -4.257
    24.317	   -84.966	    18.294
     6.029	   -87.230	    -2.850
    32.978	   -76.914	    26.217
    28.379	   -99.437	    14.504
    21.761	   -84.333	    -1.962
    31.253	  -100.939	     4.599
    19.370	   -91.945	     9.439
    30.855	   -80.489	     8.832
    29.729	  -100.232	     7.437
    45.793	   -76.221	    16.820
    47.263	  -102.764	    13.571
    34.208	   -58.531	    18.686
    46.620	   -89.286	     8.137
    48.882	   -97.067	    11.736
    36.120	   -60.635	     7.672
    53.605	   -62.362	    17.416
    50.441	   -87.585	    13.613
    36.307	   -82.142	     5.984
    25.418	   -90.855	     1.282
    33.151	   -88.203	    -3.239
    17.954	  -105.104	     7.525
    22.488	   -93.921	     5.454
     2.404	   -64.989	    12.265
    41.963	   -85.292	     9.883
    33.282	  -104.012	     8.240
    47.074	   -53.073	    29.312
    53.432	   -83.123	    12.825
    25.620	  -105.895	    23.129
    34.628	  -100.337	   -15.376
    20.762	  -103.680	    -1.406
    18.891	   -95.662	    -0.287
    43.866	   -72.351	    14.969
    45.331	   -72.425	    24.470
    54.888	   -72.756	    18.198
    32.662	  -100.901	    12.208
    27.089	   -92.804	    12.918
    33.145	   -99.577	    21.505
    36.458	   -84.415	     7.426
    28.262	  -110.955	    14.917
    22.748	   -95.268	    13.543
    51.089	   -48.922	     7.409
    33.065	  -108.903	    30.339
    43.977	   -59.064	    34.141
    24.821	   -84.257	     0.047
    24.682	   -78.596	    -8.909
     1.927	   -72.700	     1.514
    49.327	   -92.763	     3.922
    30.211	   -77.047	    24.322
    21.861	   -77.482	    23.272
    50.927	   -79.192	    13.027
    39.869	   -97.143	     9.925
    17.803	   -89.860	   -21.197
     6.007	   -77.020	   -18.642
    10.716	   -74.501	   -10.734
    18.579	   -72.601	    -3.218
    30.334	   -84.618	    11.612
    14.596	   -81.547	    -2.202
    39.592	   -75.733	     1.222
    16.835	   -74.268	     1.308
    24.290	   -90.494	   -19.930
    10.857	   -91.993	    13.655
    26.108	   -90.344	     5.786
    36.265	   -95.896	     2.691
    28.344	  -106.557	    -6.802
    21.368	   -74.018	    12.018
    49.826	   -86.492	     8.417
    28.256	   -84.782	    12.585
    37.256	   -88.212	    27.794
    34.662	   -94.063	     1.899
    30.294	   -63.570	    15.416
    13.536	   -79.210	     0.976
   -23.248	   -51.551	   -12.400
    -3.320	   -81.646	    -1.703
    34.444	   -74.676	    -4.769
    23.007	   -77.285	    -6.052
    16.847	   -79.083	     5.957
    32.499	   -90.218	     0.065
     7.560	   -78.979	    -8.320
   -29.854	   -80.373	   -23.480
    -4.794	   -73.402	    -7.891
     6.646	   -70.580	   -30.180
   -16.376	   -87.144	   -10.947
    -1.044	   -85.358	    -6.707
    -6.427	   -64.510	    15.327
    16.580	   -93.493	    -3.089
    38.032	   -91.227	     0.750
    26.632	   -98.924	     8.053
    26.332	   -84.333	     2.134
    45.196	   -86.277	    10.116
    28.067	   -79.850	    18.444
    39.755	   -77.147	    19.451
    40.239	  -131.380	   -12.575
    22.331	   -96.284	     5.207
    12.459	   -89.614	     4.917
    11.689	   -93.169	    10.003
     5.639	   -82.123	    -0.781
    -6.079	   -79.099	     4.476
    30.250	  -105.260	    19.495
    18.785	   -97.589	    -3.340
   -27.964	   -62.104	    -6.488
    10.829	   -81.609	    17.523
    33.913	  -102.450	     1.173
    33.656	   -82.191	     5.013
    45.286	   -80.532	    12.453
    10.621	   -93.413	    -0.114
    25.382	   -79.697	   -16.424
    28.441	   -92.575	    23.650
    31.680	   -93.348	     8.508
    26.901	   -94.366	    20.826
    55.736	  -113.259	    13.947
    42.155	   -93.515	    10.181
    36.934	   -99.191	     5.866
    28.210	   -82.849	    13.700
    39.621	   -74.533	     9.868
    40.128	   -77.476	     8.979
    39.296	   -86.932	    -2.628
    12.610	   -84.458	    11.468
    31.373	   -85.591	     1.590
    33.793	   -78.037	    25.021
    24.368	   -76.464	     3.926
    12.283	   -84.365	     6.301
    19.422	  -104.328	    -2.315
    -5.665	   -73.520	     7.389
   -29.067	   -63.847	    -5.403
   -19.861	   -77.557	    -7.516
    19.835	   -86.017	    22.253
    39.264	  -103.104	     2.650
    32.764	   -81.529	    14.547
    11.137	   -82.361	    12.523
    36.697	   -94.662	     1.264
    33.929	   -74.008	    10.850
    19.343	   -65.644	   -11.811
    23.394	   -81.991	    -3.711
    39.959	   -92.167	    26.442
    36.582	   -64.569	     7.302
    53.797	   -49.682	    -9.143
    32.661	   -55.047	    22.666
    43.007	   -71.789	    16.916
    56.259	   -64.754	     8.122
    36.605	   -77.577	    16.311
     5.858	   -83.879	    20.266
    42.173	   -72.776	     2.885
    31.868	  -110.992	     8.896
    28.461	   -89.094	    -7.074
    22.432	   -96.049	   -18.396
    13.325	   -90.709	    18.996
    30.443	   -72.417	    -6.873
    37.448	   -65.939	    28.275
    29.121	   -87.240	    22.325
    50.119	   -76.031	     0.618
    43.285	   -89.974	    13.690
    40.171	  -104.707	     9.333
    33.257	   -70.725	    -7.658
    40.066	   -70.331	   -16.671
    45.846	   -74.277	    -7.650
    50.918	   -60.589	    16.295
    13.403	   -86.866	   -17.704
    49.071	   -63.178	    12.699
    53.098	   -59.323	     6.721
    46.366	   -78.766	     5.486
    23.290	   -59.554	     4.117
    29.375	   -83.472	   -24.998
    22.518	   -82.947	     0.437
    28.704	   -61.165	   -12.943
    48.180	   -82.037	    22.426
    29.878	   -87.697	    22.653
    41.826	   -93.235	     9.330
    31.770	   -73.725	    -3.516
    31.958	   -72.553	    -2.968
    39.059	   -75.109	     5.694
    22.851	   -78.769	    22.731
    43.734	   -86.588	    14.300
    26.089	   -93.595	    17.461
    60.351	  -113.739	    16.766
    39.422	   -94.732	    14.074
    53.343	   -94.751	    14.715
    32.856	  -110.002	     1.638
    18.109	   -83.300	     2.648
    34.936	  -102.853	    -6.722
    18.365	   -85.044	     7.331
    36.546	   -88.705	    -3.464
    53.119	   -88.480	    15.319
    55.428	   -98.907	     1.576
    47.165	   -82.862	    17.239
    26.887	   -91.041	    15.052
     1.300	   -78.297	     1.508
   -22.395	   -65.939	    15.784
    -6.589	   -66.212	   -17.019
    -7.876	   -63.483	    -5.432
     8.133	   -65.961	    -2.307
    37.972	   -59.874	    21.236
    46.770	  -107.987	    21.334
    35.170	   -70.241	    -5.558
    23.857	  -111.266	    17.231
    55.297	  -105.328	   -14.953
    39.414	  -103.202	    10.344
    15.928	   -86.949	    -4.169
    35.154	   -78.239	   -12.726
    50.479	   -74.112	    -7.246
   -24.445	   -82.143	    -5.116
    -7.731	   -56.364	   -14.335
    14.618	   -80.836	   -13.638
    49.078	   -75.858	     7.083
    45.096	   -87.966	    -4.880
    38.233	   -92.502	   -11.668
    26.536	   -87.509	    -6.006
     0.197	   -68.559	     1.227
     7.354	   -70.235	    -9.969
    11.818	   -84.645	   -18.195
    32.143	   -50.984	    14.349
    23.773	   -82.175	    21.659
    36.724	   -94.088	     2.393
    34.819	   -77.973	    14.555
    -2.798	   -89.642	     0.227
    29.208	   -85.689	    -7.134
    27.011	   -77.223	    -0.179
    27.318	   -81.865	    -3.084
    -2.562	   -87.851	    -1.486
    22.200	   -87.306	    -9.317
    28.093	   -82.837	    20.723
    27.330	   -94.846	   -12.058
    18.984	   -93.576	     8.258
   -15.268	   -72.406	    -4.531
     0.260	   -72.830	   -33.331
     9.579	   -74.512	   -19.593
   -10.973	   -77.899	    -4.328
     2.876	   -89.310	    -6.221
   -22.503	   -54.315	     9.309
   -17.336	   -74.967	    -2.406
   -35.234	   -60.674	     0.829
   -15.312	   -78.854	   -21.739
     4.105	   -70.273	     4.987
   -47.186	   -59.992	     9.686
    18.164	   -72.760	     5.074
    43.262	   -76.065	    24.870
    43.571	  -103.281	    19.357
     3.640	   -84.997	    -1.156
    -2.393	   -59.373	   -15.733
    17.518	   -88.481	    -2.877
    -7.543	   -82.759	     2.830
    43.113	   -78.077	    -3.196
    31.801	   -74.568	     0.885
     9.481	   -84.914	     8.012
    18.019	   -71.385	    -6.194
     2.859	   -86.650	    -0.671
    25.709	   -75.362	     7.999
    56.197	  -100.391	     8.461
    19.284	   -93.308	     8.336
    22.848	  -100.723	    17.722
   -41.020	   -72.590	   -20.759
    22.443	  -101.984	   -15.101
    13.443	   -88.202	   -20.010
   -14.004	   -66.817	   -12.893
   -27.729	   -60.585	     2.870
   -19.217	   -75.483	   -26.198
     5.925	   -89.663	    -2.563
   -26.588	   -55.912	   -12.179
   -17.631	   -66.421	   -32.514
   -18.053	   -60.994	   -18.214
   -22.854	   -67.987	     0.866
    -9.279	   -69.328	   -12.576
   -16.083	   -70.006	     8.671
   -12.155	   -84.587	   -13.183
    12.644	  -100.650	    -2.278
    -2.872	   -53.912	   -29.353
   -35.189	   -60.324	    -0.543
   -11.939	   -55.019	   -14.627
   -22.737	   -64.320	    -6.116
   -28.777	   -80.895	     2.675
   -30.340	   -78.806	     1.305
    -3.629	   -83.225	   -26.712
    25.291	   -94.767	   -21.560
     6.509	   -76.960	    -2.597
    16.888	   -96.917	    -1.642
     8.412	   -76.467	    -6.986
     3.574	   -78.704	    20.281
    38.924	   -68.826	     6.450
    27.356	   -86.924	    -8.538
    30.235	  -117.578	    -0.968
    34.200	   -96.564	    -4.568
    23.601	   -84.356	     1.078
    34.825	   -68.849	    -3.986
    41.256	   -56.200	     9.855
    45.658	   -66.297	     3.457
    51.265	   -61.880	    17.651
    29.263	   -74.151	     9.362
    27.994	   -86.187	    -7.904
   -16.496	   -71.603	    -4.437
    53.686	   -77.384	    -7.875
    -9.358	   -89.490	    14.162
    48.304	   -94.174	   -24.911
    29.491	   -68.388	    11.042
    35.163	   -74.655	    -1.422
    13.030	   -84.707	    -3.717
     3.767	   -80.526	    -5.635
     0.986	   -72.670	     1.934
    40.876	   -93.800	    -2.752
    -4.356	   -84.602	    14.554
    21.438	   -88.518	   -18.661
     2.123	   -87.087	     8.540
    25.402	   -93.323	   -12.253
    40.715	   -93.769	    -0.033
    27.318	   -78.122	    -3.991
    32.452	   -78.695	    11.394
    43.604	   -92.526	    -9.796
    43.598	   -72.651	     4.134
    26.576	   -79.348	    -3.968
    34.121	   -87.327	    -3.178
    46.043	   -85.976	    15.356
    29.160	   -84.219	     6.245
    38.249	   -89.403	     7.690
    31.521	   -69.696	   -10.440
     8.674	   -84.887	     3.470
    34.552	   -88.317	    11.842
    58.586	   -87.141	     4.352
    38.982	   -84.328	    32.678
    21.951	   -87.796	   -11.843
    20.558	   -94.104	    27.618
    19.729	   -40.307	     7.890
    40.543	   -81.661	    -5.050
    46.382	   -61.090	     9.888
    49.667	   -78.902	    19.134
    63.874	   -75.213	    -6.172
    -9.227	   -73.319	    -8.649
    16.551	   -80.856	    -9.562
   -39.660	   -68.531	     2.637
   -30.629	   -60.008	   -10.767
    -6.042	   -74.703	   -21.275
     6.357	   -63.269	   -27.937
    14.208	   -80.730	     0.572
   -15.466	   -82.718	     7.347
    -6.998	   -63.126	    14.165
    15.460	   -68.305	   -14.043
    44.342	   -77.035	     0.241
    31.183	   -64.766	    11.771
    37.078	   -98.383	     2.885
    56.735	   -97.845	    -5.441
    19.454	   -66.002	    28.726
    37.754	  -123.895	   -15.559
    31.401	   -73.767	     2.318
    15.331	   -69.096	   -11.254
    18.688	   -90.163	   -13.808
    16.308	   -79.172	     5.904
   -20.365	   -50.749	    -1.216
   -29.614	   -59.985	   -10.949
   -19.613	   -67.946	   -13.660
   -11.581	   -80.945	    15.019
     2.162	   -60.678	   -16.121
     4.523	   -79.556	    -0.269
    15.900	   -60.724	   -33.431
   -33.967	   -73.665	    -1.553
   -22.724	   -61.963	    -9.036
    37.675	   -82.227	    -9.734
     6.554	   -89.771	    -2.705
    -3.568	   -87.746	    -0.273
   -25.283	   -83.024	    -9.359
     5.026	   -71.410	   -10.484
    23.799	   -66.952	     2.460
    -9.866	   -68.373	   -21.571
   -15.268	   -53.958	   -15.258
   -18.468	   -64.726	   -20.414
    40.840	   -96.261	     0.214
    49.197	   -67.044	    14.098
    40.583	   -83.508	    -4.881
    34.736	   -78.034	    11.754
    32.033	   -76.794	     4.387
    28.196	   -76.377	    11.300
    46.500	   -66.612	     7.195
    30.744	   -70.913	    12.190
    50.878	   -86.610	    -4.366
    28.302	   -98.597	     2.698
    12.108	   -69.042	    10.611
    31.257	   -91.136	     4.163
    23.065	   -70.918	     2.263
    67.714	   -73.714	    -4.195
    46.180	   -50.103	    -0.513
    49.531	   -51.212	    11.570
    30.401	   -73.118	    10.343
    27.948	   -76.331	     2.255
    -8.205	   -82.162	   -11.622
    -5.477	   -76.209	    -6.003
   -28.064	   -62.846	   -10.269
   -13.765	   -84.517	    -0.686
    24.278	   -94.910	   -11.581
     2.493	   -64.912	    -7.938
    35.170	   -90.826	     2.351
    36.298	   -81.065	     3.145
    32.937	  -108.400	     7.337
     8.816	   -80.240	    -1.472
    29.936	   -95.526	     8.044
    36.306	   -85.080	    14.475
    42.064	   -98.458	     8.154
    30.156	   -95.127	     2.165
    26.663	   -94.220	     8.079
    22.580	   -79.617	    -0.090
    15.865	   -84.490	    -8.113
    20.013	   -92.214	     4.330
    36.567	   -93.934	     9.204
    16.780	   -96.943	    22.793
    -8.864	   -70.559	    10.576
    42.263	   -91.871	    -7.077
    28.544	   -92.098	    27.290
    32.446	   -77.486	    -4.470
    17.757	   -77.776	   -14.592
    36.192	   -91.254	    -8.421
    29.853	   -93.937	     7.950
    45.048	   -77.113	     8.072
    33.632	   -68.899	    17.430
    38.457	   -65.291	    15.322
    39.403	   -97.385	    15.858
    24.641	   -85.832	   -18.265
    21.563	   -89.773	    22.900
    30.044	   -91.723	     0.433
    47.932	   -82.523	    10.520
    21.001	   -87.652	     3.029
     3.238	   -73.164	    -7.171
    20.173	   -84.401	     2.605
     9.843	   -67.628	   -13.192
    17.454	   -78.191	     4.456
    32.444	   -85.284	    -7.363
    26.251	  -101.631	     3.778
    49.550	   -81.497	    -2.867
    50.198	   -84.214	    -9.291
    15.547	   -85.327	   -17.985
     5.822	   -87.327	    -3.862
    26.119	   -90.556	    -8.517
    44.720	   -55.561	    -5.026
    56.666	   -46.011	     9.113
    48.288	   -70.223	     9.123
    24.444	   -66.558	    33.829
    48.962	  -107.010	   -16.280
    36.049	   -92.234	     9.054
    46.272	   -78.127	    13.948
    42.352	   -48.232	    23.612
    22.150	   -95.818	    17.073
     1.768	   -73.829	   -18.734
    52.114	   -86.332	    -7.506
    31.271	   -97.506	    27.874
    44.320	  -101.393	    -2.584
    33.466	   -78.238	    26.208
    41.341	   -93.665	     7.653
    18.188	   -98.294	    22.683
    39.945	   -85.844	   -21.171
    17.071	   -79.896	    10.412
    26.011	   -92.652	   -27.637
    -6.634	   -69.496	    -5.238
    23.518	   -72.955	     1.021
    37.204	   -91.297	     5.505
    30.404	   -87.786	    17.867
    43.420	  -111.395	    -8.710
    28.819	   -94.808	     6.951
    11.057	   -85.017	     7.161
    22.451	   -87.284	    -6.319
    38.143	   -88.808	    -0.564
    37.726	   -77.707	     7.248
    37.138	   -84.783	    -0.252
     9.755	   -75.609	     0.754
    45.538	   -99.740	   -15.519
    17.837	   -92.364	     9.018
    39.896	   -69.586	    -0.447
    41.916	  -112.746	     2.272
    26.488	  -113.131	    32.131
    20.985	   -84.505	    -3.349
    33.954	  -104.227	    18.234
   -10.183	   -79.021	    -7.342
   -12.732	   -71.616	     7.579
    13.352	   -89.171	     6.204
    28.998	   -91.196	     1.609
    31.297	   -82.966	     0.901
     3.156	   -71.722	    13.713
    10.540	   -72.280	    -2.270
    17.420	   -98.892	    11.509
    20.728	   -89.571	     8.390
    38.332	   -87.223	     4.403
    28.447	   -84.718	    -8.371
     1.668	   -75.942	   -27.526
   -16.327	   -73.227	     2.935
    20.541	   -81.172	    27.054
   -11.896	   -80.219	     1.903
   -23.894	   -74.789	     1.557
    14.041	   -93.435	   -12.088
    20.660	  -120.303	    15.707
    17.389	   -90.432	     5.639
    29.295	  -101.526	     2.737
    29.087	  -110.382	    12.384
     9.824	   -73.054	    -7.769
    -1.431	   -61.044	   -17.999
    33.280	   -77.789	    -1.656
    40.678	   -71.190	    10.966
    24.713	   -88.133	    30.159
    33.167	   -84.685	    11.848
    24.375	   -93.131	    22.398
    40.117	   -97.787	   -14.839
    20.470	   -69.193	     1.940
    23.676	   -81.921	   -16.359
     4.853	   -73.923	    -5.054
   -15.173	   -56.864	     5.607
   -25.876	   -81.118	    -8.917
     8.597	   -91.864	    -7.686
   -11.862	   -62.791	    -5.753
    -4.781	   -71.177	    -7.193
   -46.155	   -64.631	    22.245
    33.723	  -103.702	    -5.392
    33.985	   -91.376	     3.986
    21.627	   -81.557	    -4.385
    25.469	  -101.869	    -6.605
    38.269	  -113.299	   -17.236
    41.530	  -116.348	     1.443
    21.802	   -86.128	    10.861
    18.156	   -83.439	    25.068
    18.761	   -95.877	    -4.616
     9.766	   -69.520	    -4.896
    27.663	   -77.786	     0.642
    25.412	   -81.492	    13.657
    39.337	   -86.988	    -9.388
    12.552	   -78.228	   -12.232
    11.379	   -71.405	     1.285
    44.766	   -83.505	   -25.740
   -11.483	   -72.217	    -9.837
   -29.668	   -56.067	   -11.810
   -13.759	   -68.765	    -6.847
     3.979	   -52.149	   -29.078
   -29.905	   -57.279	    -4.354
   -29.974	   -52.403	   -12.760
   -36.169	   -67.389	   -19.448
    -3.029	   -47.805	   -26.717
     3.115	   -70.632	    -5.813
     8.989	   -71.172	     6.104
    22.680	   -87.309	   -15.061
    16.268	   -97.989	    -1.393
    -2.383	   -82.514	    -1.960
    44.055	   -94.171	     7.456
    28.976	   -83.461	     8.748
     9.518	   -72.364	   -17.557
   -26.335	   -68.413	   -11.050
   -29.966	   -74.129	    -9.470
    -5.392	   -95.579	    10.323
    31.110	   -93.674	    -8.449
    21.340	   -79.345	    -4.139
   -12.566	   -64.933	    -9.747
    42.380	   -90.274	    -9.897
    20.403	   -83.424	    23.681
    19.427	   -64.713	    14.578
    43.868	  -101.155	    -6.380
    51.537	   -71.875	     2.496
    22.168	   -86.102	    11.263
    33.861	   -84.440	    -6.871
    36.563	   -84.337	    -1.863
    -8.936	   -71.184	    -0.772
   -36.712	   -72.048	     6.553
   -24.021	   -66.811	   -25.768
     7.781	   -77.748	   -22.191
    34.148	   -94.817	    12.733
    18.776	   -96.639	    17.743
    40.843	   -75.176	    12.353
    41.689	   -71.738	    11.306
    28.713	   -72.970	     2.066
    40.051	   -94.003	    -3.019
    26.612	   -68.353	    -0.838
    31.457	   -92.561	   -15.044
    -7.483	   -67.381	    16.159
    22.161	   -79.033	     0.677
    20.189	  -100.765	     6.388
    28.230	  -105.159	     2.294
    31.349	   -95.481	    -0.707
    20.081	   -95.441	    -6.002
    21.100	   -75.821	   -12.575
    33.991	   -88.439	    -8.207
    17.133	   -88.393	   -14.696
    23.905	   -83.407	   -19.664
    28.469	   -97.518	     4.977
    17.776	   -91.751	    17.464
    32.529	  -101.240	     1.900
    24.762	   -82.045	    -3.566
    10.504	   -67.236	     0.978
    32.622	   -83.138	   -13.176
    36.029	  -100.388	   -18.400
    18.678	  -101.980	     6.946
    44.240	   -89.447	    16.126
    25.314	   -81.302	     3.160
    41.188	   -75.141	    -0.431
    37.892	   -91.666	    26.319
    45.447	  -104.460	     5.009
    23.165	   -89.654	    15.264
    13.192	   -92.436	     7.801
    35.942	   -85.462	   -17.987
    23.368	   -83.119	     5.480
    24.974	   -76.041	    -9.640
    27.854	   -90.952	    -7.628
    26.345	  -102.924	    -2.682
    40.851	  -103.599	    -8.041
    34.150	   -84.476	     7.556
    -0.115	   -92.036	   -12.255
   -18.792	   -52.982	   -25.102
   -24.473	   -53.730	    -9.192
    -6.232	   -76.139	    -8.976
   -11.264	   -80.718	   -11.781
    43.732	  -107.154	     9.347
    37.052	   -77.444	    20.355
    37.005	  -110.949	     5.646
    25.905	  -102.817	     1.983
    32.079	   -85.356	     2.363
    32.008	   -80.519	    -6.714
    36.978	   -68.592	     1.326
    46.440	   -89.592	    -6.159
    46.436	   -77.620	    32.706
    35.945	   -92.182	     7.725
    28.749	   -89.899	    26.164
    26.150	   -91.674	    15.583
    43.354	   -88.023	    15.257
    31.755	   -87.026	    10.601
     4.066	   -78.572	    -6.636
   -13.212	   -79.916	   -14.881
    41.030	   -83.681	     5.573
    46.062	   -94.887	    16.054
    47.960	   -85.521	     7.929
    20.403	   -85.424	    26.949
    15.844	   -90.528	     8.376
    34.399	   -90.618	    13.930
    36.955	  -106.358	    -2.512
    53.567	   -76.103	    -1.512
    32.494	   -83.888	     0.538
    31.805	   -91.696	   -10.361
    37.437	   -85.189	     3.961
     5.865	   -73.100	   -14.613
    25.412	  -106.866	    23.818
