   -92.310	   122.143	    -3.179
  -175.266	   104.929	     5.016
   176.876	   103.729	    13.037
   170.852	   128.738	    -2.276
   123.527	   132.493	    10.141
   170.386	   130.449	     1.341
   166.875	   130.760	     6.772
   155.561	   130.255	     5.943
   160.786	   135.344	    17.206
   161.396	   111.670	     6.112
   156.564	   113.086	    18.831
   164.796	   106.451	    16.317
   173.294	   106.145	    18.762
   175.232	    92.076	     1.155
   134.285	   111.129	    19.468
   149.428	    91.567	     7.139
    86.229	    93.135	     6.772
    61.888	    89.899	     2.317
    69.866	   103.539	    14.272
    84.209	    86.815	   -19.943
    69.219	   134.049	    12.876
    79.335	   111.210	   -20.019
    64.281	   117.290	     5.126
    65.093	    98.261	   -16.559
    51.929	    80.712	     7.223
    66.237	    83.940	    -6.508
    64.421	    95.047	    -9.651
    70.907	    76.519	    -0.374
    65.650	    73.691	    -4.577
    67.407	    99.468	     1.874
    68.846	   108.403	    -6.631
    59.549	   104.609	    12.467
    69.782	   120.501	    -0.216
    71.672	   111.823	     9.735
    78.649	   122.341	    -7.257
    69.335	    95.410	     1.645
    63.770	    61.165	     5.830
    60.374	    84.004	    -4.287
    63.137	    67.033	    14.092
    67.984	    58.552	   -19.582
    78.205	   118.463	   -25.868
    92.693	   104.906	   -11.337
    76.584	    87.661	     5.514
    70.641	   129.129	    25.371
    83.572	    94.203	    -0.929
    90.628	   102.556	     6.955
    81.494	   113.197	    -1.301
    73.282	   124.216	    13.320
    49.808	    60.744	    -5.058
    76.343	    67.007	    -0.146
    63.559	   116.945	    -1.106
    64.719	   138.650	     8.355
    66.667	    70.485	    -3.633
    64.531	    95.909	   -11.326
    73.260	    79.994	   -17.084
    65.638	    92.588	    -4.378
    67.941	    80.542	    -1.518
    66.607	    95.793	    -9.556
    75.777	   107.982	     1.606
    66.026	    71.928	   -12.044
    66.426	   106.872	     2.991
    69.280	   105.794	     7.189
    68.315	   115.544	    -1.809
    74.781	   109.902	    -0.258
    57.152	    78.120	    10.403
    64.491	    55.794	     0.668
    71.327	    68.273	   -17.278
    63.168	    73.989	     2.743
    64.741	   110.098	    11.451
    80.005	   117.434	     9.715
    63.012	    90.879	    -4.553
    64.821	    99.297	     0.159
    66.550	    72.630	   -21.871
    63.762	   102.410	    10.438
    74.658	    98.527	   -15.551
    77.227	   103.405	   -17.837
    72.066	    98.306	    19.806
    77.887	   104.524	    -9.353
    56.978	    75.506	   -22.130
    64.571	    60.045	    12.289
    70.887	    95.744	   -21.418
    99.063	    96.057	    -3.357
    58.580	    97.609	     9.646
    68.428	    88.223	     3.331
    82.779	   120.207	    17.259
    77.493	   102.227	   -17.134
    62.590	    90.293	   -11.695
    64.638	    80.430	   -12.756
    76.208	    89.424	     1.207
    72.274	   118.235	    -9.307
    82.330	   138.707	    24.219
    67.364	    96.687	    -8.889
    59.299	    94.605	    19.891
    73.808	   101.580	     5.401
    80.557	   121.498	     7.579
    71.917	   133.709	     7.441
    86.546	   116.600	     7.733
    58.921	   119.175	    11.982
    64.107	    78.243	   -16.245
    53.489	    85.867	    -2.515
    67.625	    94.846	    -2.235
    71.454	    83.456	   -11.119
    60.682	    74.578	   -19.662
    62.914	    73.684	    -0.854
    56.945	    80.394	   -17.527
    55.978	    51.974	     3.169
    63.199	    90.161	     1.006
    74.234	   114.206	   -17.332
    79.123	    92.653	     1.397
    58.001	    73.348	    -2.648
    50.625	    50.943	     9.660
    72.134	    86.698	    -5.581
    67.286	    86.636	    -0.921
    74.152	    93.787	    22.328
    77.057	   102.634	     5.802
    73.014	    99.046	     2.758
    70.103	    98.461	     8.570
    82.380	   104.826	   -13.087
    67.606	    89.715	     6.795
    67.779	    87.855	     9.816
    85.643	    84.358	    -3.013
    70.549	    77.630	   -16.409
    74.301	    99.629	   -17.758
    64.898	   115.649	    13.176
    65.774	   115.106	     7.324
    60.763	    99.394	    -9.845
    61.874	   105.465	     0.142
    64.450	    91.421	    11.597
    69.046	    96.301	     5.899
    71.220	   103.017	    -8.625
    69.821	   121.343	    -5.993
    81.513	   108.100	     2.801
    79.138	   122.474	    -2.703
    75.990	   133.186	    12.851
    68.342	   147.883	     3.038
    66.215	    78.071	     0.430
    80.972	    94.640	    -4.508
    66.364	    86.910	    -3.981
    51.160	    77.820	     2.749
    63.154	    82.196	     4.655
    70.084	   126.616	     6.253
    74.497	   103.578	     6.553
    62.036	    84.965	    -1.633
    79.207	   123.439	    -5.244
    82.176	   104.568	     8.115
    70.444	   128.213	    -7.999
    76.782	    86.522	     0.210
    60.815	    67.499	   -17.199
    80.735	    67.880	    -5.536
    57.705	   102.349	     0.518
    70.529	    96.576	   -20.302
    74.811	    64.301	    -3.991
    62.275	    85.381	    -8.141
    68.138	    76.520	     9.845
    55.799	    87.553	    -0.842
    69.442	    80.901	    -7.321
    69.013	   105.586	     2.221
    58.437	    92.208	     0.889
    70.370	    68.748	     3.349
    68.847	   109.469	     4.838
    66.205	   133.225	     4.179
    74.321	    85.950	     1.012
    79.761	    98.847	     6.606
    82.284	    94.550	    -9.220
    66.885	   113.891	    -7.881
    67.918	    79.151	   -19.622
    81.910	    93.776	     0.830
    85.644	   112.789	   -17.997
    74.618	   119.055	     8.704
    94.224	   136.753	    -6.864
    65.336	   133.090	    10.899
    78.450	   130.137	    -6.868
    78.374	   119.707	    11.397
    60.215	    99.309	     8.941
    78.620	   108.694	   -11.852
    73.063	   111.736	     7.211
    70.448	   120.968	    -0.226
    53.413	   111.068	    -1.643
    69.815	   100.133	    -8.586
    64.349	   113.988	    13.487
    53.867	    80.570	   -11.961
    66.222	    76.447	    11.766
    65.873	    99.475	    -5.425
    56.329	    72.446	     3.552
    58.286	    90.458	    12.300
    69.832	    98.190	   -16.215
    71.040	    84.556	     0.985
    77.131	    91.882	    -5.332
    49.025	    96.685	     4.116
    61.831	    88.009	   -19.011
    61.113	   117.553	    18.593
    66.823	   126.205	    -0.352
    65.868	   114.061	   -11.950
    60.376	   110.198	     7.270
    62.271	    95.203	     2.263
    76.197	   135.193	     3.965
    68.272	   118.974	   -23.834
    84.691	   124.599	     3.404
    78.050	    96.663	   -13.200
    67.824	    68.593	     6.782
    62.131	    96.276	    -1.427
    80.944	    93.916	    -5.812
    73.151	    97.790	    -0.136
    76.326	   100.313	    -6.086
    73.510	    78.435	     2.180
    60.872	   102.964	     4.178
    92.621	   144.685	    -4.003
    76.027	   119.060	    -0.424
    77.117	   100.753	   -16.149
    66.782	   109.850	    -0.232
    75.378	    93.788	   -17.424
    64.753	    90.514	   -11.067
    52.840	    77.698	   -12.225
    77.051	   100.263	   -26.291
    64.310	    86.999	    -5.703
    64.355	    64.189	    -7.565
    59.975	    72.594	    15.439
    76.030	    88.233	    -9.579
    53.525	    60.792	    11.458
    55.893	   118.309	     6.260
    58.317	    97.118	   -12.880
    67.404	   123.060	     2.650
    62.873	    80.619	     6.003
    63.294	    94.552	    -3.570
    74.591	   138.251	    15.192
    71.615	   113.929	     5.538
    72.323	    84.485	    -5.411
    81.031	    87.635	    13.807
    73.932	   102.283	    12.105
    69.462	   120.316	     0.924
    63.453	   105.133	    -0.853
    76.718	   122.888	    -2.803
    60.973	    82.638	    -4.416
    64.171	    97.730	    14.775
    72.784	    71.583	    -0.537
    81.164	    86.434	     4.422
    66.913	   117.259	     0.722
    71.439	   114.965	    -1.059
    76.822	   107.997	    -2.036
    67.826	    94.374	     1.489
    65.833	   108.889	     7.448
    77.506	    94.828	    -9.006
    78.190	    68.007	   -22.042
    66.592	    87.424	    21.797
    68.421	   107.713	   -13.000
    56.166	    80.519	   -25.089
    79.212	   118.102	    -5.636
    67.582	    78.317	   -11.360
    60.731	    60.303	     7.436
    78.933	    83.474	     6.569
    71.448	   110.928	    33.413
    74.242	    87.806	   -10.549
    68.766	    92.916	   -27.152
    62.422	    99.363	     5.201
    79.070	   114.980	   -12.020
    60.375	   136.115	    -2.389
    66.331	   102.739	   -11.842
    77.156	   106.898	   -16.306
    64.167	   121.163	    11.206
    77.556	    98.038	    10.385
    76.824	   101.917	    -0.453
    70.506	    89.739	   -23.383
    61.762	   122.167	    18.647
    73.623	   102.741	    -0.980
    69.940	    91.447	    12.806
    66.536	    89.968	    -5.404
    68.788	   104.572	   -14.044
    83.915	   112.710	   -28.154
    75.257	   112.987	    16.916
    76.168	    90.029	    -7.586
    49.724	   129.177	    23.207
    59.342	   101.693	    -6.855
    80.008	    81.574	     2.057
    70.824	    72.987	     3.812
    61.017	    74.510	    24.836
    58.975	    89.079	    12.129
    65.388	    71.949	     9.368
    81.474	    90.154	    -8.910
    64.588	   102.424	     7.025
    91.355	   103.327	    -6.002
    70.743	   100.659	   -17.455
    95.276	   114.379	    25.161
    64.945	    81.521	    -0.410
    89.504	   122.621	   -18.601
    84.992	   120.500	     5.720
    64.283	   111.931	    15.525
    79.077	    95.349	   -16.999
    76.952	    90.890	    -1.943
    72.654	    98.765	    -7.147
    66.657	   107.861	    -3.731
    65.352	   121.933	     9.000
    72.186	    92.284	    -0.943
    64.748	    84.007	   -15.557
    69.194	    72.832	    -7.549
    67.694	    73.618	    -9.874
    61.762	   107.763	   -14.219
    79.026	    96.364	   -10.601
    54.457	   120.928	    11.422
    75.893	    99.793	    -8.458
    72.156	    88.731	    -4.269
    69.022	   104.560	     9.126
    59.646	    90.933	    -9.589
    71.088	   110.864	    -3.181
    66.262	    97.332	     5.902
    69.399	   116.939	    13.753
    76.855	   118.261	     7.752
    76.374	   119.345	   -15.099
    69.963	   121.565	    -2.614
    62.231	   121.207	     6.789
    63.353	    60.308	    -6.164
    66.519	    67.910	    -5.764
    63.041	    69.282	    -3.063
    85.036	   124.676	     5.959
    74.503	    88.454	    11.401
    63.468	    94.362	    -5.918
    77.565	   108.231	     0.422
    78.162	    93.089	    -6.570
    50.737	    93.038	   -15.871
    72.744	    86.101	    -2.643
    59.603	   102.899	     7.547
    71.978	   105.836	     3.506
    60.398	    90.698	     3.626
    63.384	    97.983	    -4.626
    77.284	    91.789	    -6.373
    47.393	   130.007	    11.179
    65.212	   120.766	    -2.306
    82.144	   129.177	     8.108
    55.857	    81.220	    11.586
    65.916	    57.857	     1.316
    67.714	    89.125	    -8.282
    78.116	    89.457	    -8.993
    64.688	    94.001	     6.346
    65.437	   107.554	     7.806
    65.970	   114.220	    22.145
    73.077	    96.719	   -22.865
    89.786	   118.754	    -9.777
    73.324	   129.639	     8.535
    73.978	    99.507	     4.124
    66.090	   100.771	   -12.143
    66.663	   111.573	    10.900
    57.795	    85.246	    31.360
    76.038	    76.903	   -11.082
    53.739	    67.430	    -0.290
    69.957	    54.930	    -8.419
    64.060	    97.297	   -14.552
    76.742	    96.582	    -0.976
    77.463	   126.118	    12.412
    77.923	    91.490	   -13.437
    67.424	   103.081	   -18.659
    65.003	    69.460	    -3.833
    70.100	    76.542	    -1.016
    68.348	   100.134	     4.151
    61.162	   106.354	     8.159
    59.930	    91.596	    -5.024
    71.966	   109.697	    -5.694
    75.616	   132.835	     1.879
    53.581	    99.827	     3.507
    66.242	    77.677	   -13.887
    60.907	    98.205	    11.654
    72.945	    98.508	    -1.690
    71.147	   105.002	    -5.615
    67.625	    95.298	    -6.462
    55.898	    96.197	     5.730
    67.885	   105.311	   -24.653
    65.765	    77.137	    -2.658
    71.723	   109.429	    -9.573
    67.985	   115.036	    -1.463
    70.924	    88.558	    -5.386
    70.969	   132.272	    14.811
    69.891	    89.600	     4.148
    69.474	    82.351	     5.609
    62.595	    79.843	    -7.494
    52.984	    82.557	   -15.376
    50.591	    71.196	   -18.520
    58.327	    86.135	    -5.778
    58.892	    96.524	     6.011
    69.711	   114.217	    17.426
    65.432	    99.612	    -2.902
    64.157	    97.276	    -9.009
    72.124	   116.777	     1.869
    67.719	   110.888	    -6.913
    75.986	   106.213	   -11.668
    64.124	    85.028	    -9.244
    52.359	    96.771	    13.587
    68.918	   110.769	   -22.773
    63.692	   108.839	   -14.609
    65.217	    99.377	     3.838
    79.417	   102.894	    -8.472
    80.516	    91.048	    -1.361
    72.397	   105.492	     3.855
    81.200	   120.544	    12.021
    86.593	   109.856	    -1.505
    80.856	   108.698	    12.374
    57.940	   123.642	    21.950
    84.945	    93.316	    -5.450
    66.744	   117.664	    24.015
    72.293	    89.785	     6.271
    66.700	    95.615	     9.027
    75.347	    77.320	    -4.693
    70.875	    95.242	     3.985
    80.442	   107.501	   -14.638
    62.340	   132.164	    -3.720
    60.527	    83.659	    -2.736
    77.426	   145.232	   -17.268
    69.610	   134.638	    13.195
    74.577	   132.004	    10.716
    76.024	   104.801	    -7.478
    80.040	   127.414	     3.931
    70.931	   149.848	     4.207
    64.461	   112.570	    11.781
    72.132	   129.038	     2.532
    72.629	   107.730	    -0.530
    67.311	    85.291	   -17.297
    76.759	   110.446	    10.012
    70.230	    81.089	    24.442
    69.267	   106.069	    10.032
    75.746	    98.551	    -7.917
    62.429	   126.767	    11.348
    68.624	   121.207	    10.962
    78.414	    98.707	   -24.107
    70.073	   120.646	     5.548
    84.253	   113.876	    18.188
    77.379	    92.181	   -16.920
    66.015	   109.542	   -27.663
    65.836	   122.688	     2.191
    61.709	    93.185	     1.723
    71.387	    93.173	    14.326
    69.289	   100.934	     3.412
    72.380	   110.459	     6.489
    73.833	    79.589	    -2.343
    68.587	    73.299	    -1.996
    57.949	    69.396	     1.336
    62.738	    66.326	    -8.161
    71.713	    87.731	     0.318
    62.807	    85.444	    -5.297
    61.703	    65.836	     7.733
    79.987	   114.502	    -3.369
    76.608	    86.807	     7.656
    67.476	    87.703	     0.941
    68.150	   106.974	     8.949
    64.201	    86.883	    16.092
    64.345	    88.009	    15.449
    70.661	   107.643	    -7.631
    77.218	   114.595	    -2.176
    61.918	    95.980	     2.269
    59.967	    75.995	    -7.321
    63.418	    81.586	    -4.551
    82.748	    55.404	   -20.478
    69.010	    78.042	    12.183
    70.650	    92.104	    -4.289
    89.474	    88.730	   -10.410
    72.713	    97.084	     9.031
    65.401	   113.788	     1.799
    66.692	    76.560	    23.848
    82.648	    93.746	     1.381
    77.028	    87.242	   -14.694
    61.799	    75.968	     8.232
    73.060	    88.684	     3.046
    63.979	    85.911	    -3.143
    65.710	    62.962	     1.483
    68.651	    84.114	    14.539
    64.732	    67.636	    -4.958
    65.925	    91.074	     2.330
    60.368	    76.216	    20.346
    63.031	    88.264	   -16.239
    81.417	   119.430	    11.613
    54.378	    73.158	    11.381
    67.176	    66.847	   -13.725
    72.865	    80.457	    -5.743
    75.536	    77.217	    11.542
    74.176	   116.048	   -16.346
    53.166	   103.342	   -11.573
    68.075	   127.872	     0.401
    56.608	    92.939	     7.362
    71.087	    92.058	     0.996
    76.199	   122.080	    11.934
    71.199	    93.505	   -12.034
    70.166	   123.281	    -5.678
    63.046	    93.725	     3.275
    80.254	   112.339	     8.803
    74.581	   133.559	    37.020
    85.561	   111.416	   -19.080
    75.579	   130.073	    17.579
    75.369	   132.994	    10.244
    52.099	   104.408	     6.769
    79.651	   116.787	    -3.505
    82.894	    84.443	     6.108
    48.619	    82.474	     7.303
    62.555	    77.942	   -12.379
    64.890	    85.172	   -21.062
    68.558	    77.199	   -14.517
    79.682	   111.980	     1.232
    62.697	   101.701	    -2.684
    51.196	    90.615	     7.267
    58.218	    69.886	     5.182
    70.600	    81.837	     3.309
    82.763	   124.082	    -9.978
    67.955	   114.841	     3.739
    73.583	   127.596	     7.108
    94.053	   118.771	   -20.932
    81.859	   121.798	     7.064
    73.819	   123.597	     6.581
    76.186	   146.797	   -14.233
    80.735	   121.827	     5.689
    66.403	   107.089	    -4.158
    73.421	    85.195	    -9.801
    62.331	   104.869	     3.669
    63.975	    94.541	     3.209
    58.226	   100.392	     1.218
    66.364	   100.035	    -0.056
    66.545	    80.019	    -2.443
    63.037	    87.243	    -5.511
    73.222	   128.884	    -3.840
    80.391	   129.719	   -12.838
    80.459	   131.150	    12.712
    74.229	   109.365	    -5.798
    65.101	    90.337	    -4.690
    67.817	    87.781	    -1.172
    60.847	   106.075	     0.731
    73.715	    84.617	    -6.595
    70.721	   103.389	     1.715
    67.475	   126.591	    12.500
    69.119	   108.723	    -9.809
    86.542	   129.577	    -7.843
    65.369	   108.231	    -1.005
    68.727	   138.412	    -4.284
    64.807	   104.455	    20.749
    63.361	   123.098	    12.782
    76.502	   145.660	    -5.458
    76.235	   111.837	     1.055
    73.777	    94.013	     4.616
    68.626	   100.847	     6.975
    73.836	    96.102	    -3.482
    66.399	   110.216	    19.754
    67.070	   109.558	     0.483
    82.526	    81.720	    -7.959
    76.047	    89.928	   -10.327
    71.743	    79.396	    -5.835
    78.300	    68.314	    -1.622
    57.690	    72.071	    -0.146
    79.081	    90.008	     0.899
    73.539	    82.150	     2.213
    65.784	    68.820	    -8.634
    69.284	    74.403	    -1.477
    72.029	    86.199	     0.093
    74.385	    74.705	   -12.392
    71.871	    73.272	     3.319
    84.020	   102.731	   -11.622
    69.072	   128.144	    14.320
    54.496	    90.827	    -3.038
    80.497	    98.297	    -7.035
    60.604	   112.306	    15.816
    65.460	   113.473	     4.265
    67.300	   100.492	     7.367
    98.840	    96.937	     3.519
    81.119	   131.603	     4.358
    81.723	    83.607	     8.805
    70.513	    88.971	    -1.939
    69.359	   132.039	    12.736
    61.156	   103.814	    11.160
    81.048	    93.733	     1.133
    62.973	   113.025	     6.350
    66.664	    92.454	   -16.388
    57.880	    94.349	    14.720
    71.104	    84.780	    -1.269
    89.196	    96.032	   -19.022
    85.481	   112.472	    11.852
    66.195	   110.612	     4.858
    78.849	   133.869	     0.656
    75.181	   136.807	    -6.294
    79.288	   136.223	     6.368
    72.139	   127.016	     3.601
    74.188	   124.114	    -6.569
    66.953	   120.924	     6.748
    69.353	   117.685	    -6.754
    66.160	    91.916	   -14.161
    70.540	   106.213	     9.705
    69.876	   117.595	    14.179
    67.836	   101.197	    -3.148
    76.654	    97.983	    20.856
    74.458	   114.430	     1.365
    70.442	    72.027	   -10.396
    64.462	    97.214	    -3.171
    72.681	   116.510	    -8.642
    60.936	    97.046	   -10.675
    75.804	   123.477	    -8.749
    67.014	   124.259	    18.585
    71.836	    67.672	    -1.006
    73.044	    97.600	   -14.723
    69.051	   103.698	    14.601
    70.491	   101.816	    -7.459
    59.381	   103.835	     3.652
    74.539	    97.436	   -20.190
    86.994	    84.601	   -20.440
    70.954	   108.187	    12.875
    74.406	    87.071	     5.820
    83.721	   123.249	    -1.950
    81.220	    90.065	   -11.304
    74.733	    87.751	     1.682
    77.099	   132.086	     7.779
    76.738	   119.074	     9.173
    70.913	   117.420	    28.406
    68.049	   105.566	    -0.906
    66.968	    96.506	    -6.868
    83.612	   115.553	    13.193
    62.516	   109.431	    10.041
    61.770	   103.468	    25.053
    72.050	   135.623	    -4.351
    89.051	   103.669	     1.481
    54.640	   104.111	    -8.908
    58.653	    97.485	    -1.518
    78.139	    91.656	    -9.073
    70.433	    99.376	     3.363
    65.179	    82.009	    18.532
    75.903	    86.478	     3.670
    58.826	    70.620	    24.279
    81.977	    92.587	    -7.892
    67.597	    65.305	    -1.688
    73.137	    87.017	    -4.416
    64.878	    50.195	     6.830
    89.002	    71.395	    -8.478
    66.466	   113.815	    10.329
    65.323	   135.048	     6.081
    67.523	   116.142	     2.129
    78.135	   134.313	    -5.596
    67.234	   142.703	     6.484
    77.609	   134.809	     9.894
    63.373	   117.331	   -11.946
    64.995	   111.520	    -1.451
    55.949	    93.653	    12.278
    59.313	   111.536	   -11.302
    58.997	    68.164	    -7.837
    75.166	    99.860	    11.770
    53.625	   111.568	    15.635
    60.753	   109.624	    -9.926
    63.149	   107.337	     3.722
    69.916	   103.817	    -3.249
    75.644	   106.881	    -8.895
    73.438	    94.094	     2.947
    73.928	    97.969	    -4.368
    71.005	   106.125	   -26.813
    50.692	    91.303	    -1.386
    62.574	    91.863	    -4.687
    69.170	   100.265	    -5.860
    70.778	   118.183	     2.097
    68.362	   117.535	     7.438
    57.961	    70.186	   -18.471
    56.582	    60.939	     9.311
    68.044	    67.707	   -18.554
    56.306	    86.983	    -8.394
    76.889	    78.380	   -26.250
    81.413	    70.827	   -32.395
    65.525	    66.217	    -0.070
    62.881	    79.407	    -2.413
    59.333	    83.067	    -3.977
    66.574	   108.485	     2.869
    61.213	   104.950	    -4.214
    78.327	   105.616	     2.250
    76.585	   100.823	   -10.086
    68.455	   109.652	     3.569
    77.085	   113.435	     5.958
    74.430	   116.619	     9.536
    65.381	   107.983	     7.185
    75.402	   109.170	    14.766
    67.163	    67.630	   -20.247
    64.158	    52.993	     1.172
    61.102	    60.477	    -1.952
    66.268	    69.868	    -0.291
    65.705	   116.543	    23.898
    84.571	   133.466	    -5.572
    79.589	   110.572	     5.299
    65.718	   128.344	    21.708
    73.395	   116.741	    -4.981
    63.275	   101.302	     6.480
    80.261	    95.843	    15.961
    68.434	    83.720	     6.874
    81.843	   102.279	     1.291
    65.595	    67.962	    -9.479
    65.154	    82.252	    -0.680
    64.767	    96.681	    -1.010
    55.547	    85.085	    10.054
    67.802	    91.111	    -3.460
    72.726	    99.029	    20.042
    76.532	   129.857	    -8.667
    74.600	   131.203	    12.268
    73.213	   127.187	    10.389
    58.308	    97.298	    -2.869
    73.076	    69.679	   -13.432
    67.101	    61.378	    -3.942
    68.607	    91.743	    -8.671
    61.746	    85.379	    -8.999
    65.906	    84.944	    -8.875
    65.630	    69.361	    -6.713
    55.702	    38.120	     3.891
    84.925	    95.668	     2.223
    82.548	   121.304	    17.218
    66.663	   122.797	    20.212
    74.650	   118.733	     0.284
    60.766	   124.620	    -0.017
    64.163	    91.732	     2.140
    57.842	   102.796	     3.782
    84.523	   121.978	     6.319
    70.895	    89.109	    13.236
    83.863	    79.777	    -0.258
    77.416	   118.417	   -19.462
    69.297	   111.715	    -5.321
    74.069	   114.822	    -7.809
    77.593	    97.841	   -14.810
    63.376	    94.120	    -7.583
    81.637	   116.117	   -19.478
    65.167	   126.564	    -4.432
    81.372	    97.849	   -18.517
    61.080	    95.847	    11.900
    69.762	    86.802	     0.634
    53.728	    83.929	    11.477
    55.055	    77.721	    -9.974
    72.068	   108.679	   -13.922
    67.355	   112.167	    23.083
    67.608	   103.489	     8.393
    66.613	   128.927	     0.346
    53.954	   101.792	    -3.547
    64.752	    76.289	     0.017
    64.671	    91.449	    17.019
    67.790	    85.874	     1.560
    79.850	    79.305	     2.607
    75.589	   102.726	   -12.107
    61.190	    69.352	   -15.983
    76.392	   112.692	    11.401
    83.764	   111.293	    18.594
    72.142	    98.696	    -5.833
    72.812	   131.842	    11.410
    70.584	   114.716	   -10.297
    79.999	   140.589	   -11.810
    72.801	   109.867	   -10.342
    81.803	   107.808	     0.972
    73.971	   134.793	    17.179
    71.956	   124.999	    -7.363
    75.181	   127.475	     8.605
    79.719	   131.843	   -13.490
    78.385	   117.946	     8.894
    73.719	   113.765	     0.465
    67.434	   118.311	    15.017
    85.736	   123.193	    -1.569
    72.915	   110.779	   -11.915
    74.564	   112.477	    -7.416
    74.070	   105.061	    22.377
    62.337	    70.783	     3.076
    72.670	    89.340	     6.253
    60.681	   113.055	    12.506
    66.348	    97.404	   -11.463
    69.864	    98.832	    -0.541
    74.098	    97.408	    -0.753
    78.718	   127.191	     6.753
    81.165	   135.139	     1.918
    74.347	   131.311	   -12.306
    74.829	   119.071	     1.186
    71.450	   109.256	    18.342
    71.342	   126.825	     4.638
    97.938	   107.597	    23.794
    82.582	   141.040	    11.191
    82.368	    99.949	   -13.777
    72.944	    99.776	     0.663
    66.798	    95.737	    -6.159
    55.766	    88.212	    -4.391
    72.340	    82.475	    11.919
    69.762	    97.222	    -2.540
    52.313	    81.816	    33.641
    72.972	    75.525	    -6.214
    65.884	    80.144	   -15.476
    66.950	    85.225	     1.973
    64.268	   109.509	   -12.797
    70.169	   105.715	    17.673
    72.990	    73.847	   -12.184
    64.644	    77.312	    -2.290
    80.309	    98.541	    26.831
    54.412	   108.702	    -2.647
    85.097	   125.524	    -6.623
    63.523	   102.864	    11.235
    72.555	    90.763	    -6.627
    57.623	    97.375	    -2.310
    78.285	   130.865	   -17.361
    64.785	   126.265	    14.433
    72.687	    93.188	    -1.748
    57.354	    58.162	     7.645
    65.225	    80.730	     2.465
    69.901	    97.279	   -11.593
    68.242	   105.679	     1.605
    63.999	    82.225	     1.825
    62.163	   106.754	    -8.789
    59.301	    51.780	   -17.210
    77.321	   102.789	   -30.419
    54.528	    78.166	    -9.454
    69.180	   109.261	    23.257
    76.310	    93.896	     4.255
    64.207	   113.225	    18.812
    73.853	   130.520	    10.164
    71.516	    87.966	     3.993
    63.436	   103.165	    -4.812
    52.046	    69.029	     4.644
    71.203	   115.599	    -4.543
    65.360	    65.894	    -9.292
    60.168	    67.905	    10.843
    76.903	    96.210	   -20.532
    60.199	    86.778	    11.264
    54.152	    77.130	     0.930
    61.593	    76.645	     5.292
    68.008	   101.688	    -2.354
    77.528	    95.355	   -14.697
    62.829	    90.821	    -5.470
    70.042	   111.003	    -4.533
    64.828	    93.821	   -24.117
    83.380	   107.251	    -9.700
    79.493	    95.439	    12.388
    84.343	    89.748	   -23.204
    65.773	    88.308	     4.040
    53.059	    71.124	    14.158
    69.169	    88.862	   -19.061
    66.757	   100.488	    14.495
    80.383	    94.361	     7.239
    69.248	   110.550	    11.952
    75.562	   109.017	     0.363
    63.161	    89.894	     3.466
    77.845	    83.389	    14.063
    65.826	    89.622	     0.202
    72.083	    81.234	    14.820
    62.006	    89.111	    11.909
    74.583	    88.642	    -5.145
    82.217	    82.940	     1.119
    69.854	   106.196	     5.422
    71.847	   107.926	     5.597
    76.277	   125.718	   -17.244
    58.982	    97.949	     3.363
    54.117	   123.643	    -0.323
    62.451	    81.268	     7.569
    63.776	    73.522	     0.532
    49.859	    87.327	    -5.798
    69.459	   118.777	     3.406
    51.147	    87.575	     9.520
    69.267	    95.209	    15.115
    64.951	    72.670	    -4.795
    70.830	   103.628	     0.360
    69.544	    94.835	     3.530
    69.367	    92.510	    -2.297
    68.442	    72.823	     0.302
    58.267	    71.545	    -1.314
    56.335	    74.793	    -2.197
    67.321	    92.508	    -5.608
    64.483	    89.424	     2.217
    65.627	    80.005	    16.447
    80.305	   101.439	    13.775
    61.931	    83.892	     1.116
    76.760	   124.564	   -15.122
    76.324	    87.393	    -5.927
    54.306	    91.022	     9.729
    65.693	    90.581	     2.072
    58.520	    71.615	    -3.716
    64.901	   106.577	    13.337
    53.551	    95.177	    -1.978
    69.957	   137.160	    -4.396
    56.733	   116.989	    25.919
    74.180	   138.591	    -3.773
    69.759	   122.517	    -0.469
    68.402	    84.397	     7.743
    61.251	    96.435	    12.283
    65.082	   106.843	     0.884
    60.174	    77.908	     7.222
    68.421	    76.924	   -18.615
    68.155	    73.698	   -14.665
    64.828	    49.138	   -17.686
    64.236	    68.810	    -4.277
    70.097	   117.518	    -4.407
    63.517	    91.599	    -3.663
    79.312	    80.916	     0.544
    67.568	    95.729	    13.318
    67.960	   115.720	    13.543
    70.798	   115.729	     1.293
    63.997	   115.602	   -11.292
    75.229	   106.945	     1.674
    66.044	    90.394	    -3.279
    74.854	    91.477	     5.976
    59.246	    90.851	    -2.118
    57.987	   105.565	     1.577
    74.374	   113.707	    -9.997
    73.088	   115.525	    17.370
    60.984	   111.234	   -10.498
    62.101	    76.079	   -11.402
    72.982	   104.073	   -10.471
    78.089	   122.674	     6.105
    84.954	   116.708	   -10.146
    74.907	   104.418	    -7.340
    83.275	   126.956	     4.497
    72.740	   139.949	    11.088
    75.484	   130.048	    19.259
    83.066	   110.903	   -17.027
    74.999	   112.588	     1.858
    71.794	   131.515	    24.245
    61.505	    94.375	    -6.154
    70.071	   102.884	    -3.375
    66.800	    97.093	    -5.063
    67.951	    93.149	     5.673
    69.227	    68.782	    -3.202
    58.595	    82.652	    20.295
    79.320	    82.792	     3.774
    62.073	   103.700	     8.867
    64.255	    63.250	     1.502
    63.907	    90.661	   -11.625
    76.807	   127.976	    -8.269
    88.503	   110.504	   -10.979
    80.482	   134.346	    -0.689
    71.028	   102.220	   -11.119
    71.046	    99.163	     4.784
    67.922	    83.052	   -24.180
    71.361	    94.343	    -3.190
    82.578	    93.184	     5.691
    72.013	    78.770	    18.643
    81.658	   104.194	    17.054
    77.590	   124.476	    -7.582
    70.120	   117.763	    -4.665
    80.229	   115.592	     4.330
    70.669	   101.692	    17.915
    85.544	   104.201	    -5.383
    72.000	   123.257	    14.417
    65.764	   118.338	    -8.503
    84.615	   111.015	     0.317
    67.911	   100.738	    -2.168
    66.080	   101.909	    -8.964
    85.395	    86.127	     1.559
    63.082	   111.367	    -5.672
    64.100	    95.357	   -16.200
    68.738	   102.868	    -5.432
    64.446	   127.527	    -9.424
    70.654	   112.597	     0.109
    64.538	   113.497	    13.560
    61.031	    98.119	    -2.040
    60.819	    90.475	     6.273
    69.127	    79.616	    -6.937
    72.624	   101.654	     9.670
    75.186	    87.629	     3.281
    84.881	   124.235	    -3.213
    71.874	    92.037	     5.828
    72.934	   106.383	   -13.601
    65.680	   114.697	   -11.847
    62.255	    97.578	    -2.368
    67.165	    96.831	    -7.164
    67.645	    76.019	   -14.969
    58.749	    92.835	     4.526
    57.883	    79.241	     1.863
    68.533	    93.795	   -14.461
    67.583	   115.088	     6.299
    60.866	   110.491	    14.771
    69.110	    90.652	     0.017
    73.038	   110.597	    -2.942
    77.517	   112.707	   -19.653
    55.453	    80.435	    -5.479
    72.264	    94.605	   -14.166
    71.604	   108.699	     0.563
    73.789	   118.098	     0.786
    60.248	   102.970	    11.294
    80.121	   113.026	    -0.330
    70.544	    58.904	     6.644
    62.237	    93.016	     3.609
    67.506	   108.807	   -10.492
    69.191	   104.196	    -7.109
    56.590	    71.002	    -0.310
    77.872	    98.988	    14.725
    80.724	   106.842	     2.750
    71.508	   122.135	    20.106
    71.807	    97.112	    -6.365
    57.313	    83.768	   -12.765
    72.950	   103.721	    -1.788
    71.627	    99.789	    -0.477
    73.385	   100.448	    -0.692
    71.483	    85.549	    -9.335
    53.595	    70.163	   -11.602
    59.801	    77.341	   -14.307
    69.189	   110.461	     5.221
    67.124	   116.069	     2.343
    77.117	   116.289	     8.542
    77.319	    95.230	    -8.591
    65.854	   103.810	     7.004
    63.843	    59.059	    17.442
    62.218	   107.363	    22.213
    74.972	    94.101	    13.355
    66.503	    78.974	    -2.597
    67.887	   120.254	     0.883
    66.804	    95.728	     2.580
    44.980	    95.777	   -12.154
    70.360	    98.078	   -23.869
    67.394	   103.199	   -10.320
    46.135	    52.032	    -8.548
    70.273	    94.415	    10.040
    73.901	   110.247	   -14.210
    68.355	    94.672	    -3.087
    76.514	   113.383	    -1.113
    65.081	   120.797	    -6.611
    65.606	    98.173	   -15.033
    72.238	   106.809	    -5.002
    57.361	    82.425	    11.808
    73.002	   101.606	   -15.794
    76.878	    86.670	    31.417
    68.921	    98.644	    -2.006
