   -92.310	   122.143	    -3.179
  -145.583	    90.039	    -5.864
  -163.574	    89.812	     1.373
  -164.505	   110.642	    -7.667
  -160.506	   120.023	    -7.982
  -155.000	   117.096	     3.830
  -170.352	   100.759	     6.258
  -166.630	    99.397	     0.433
  -165.728	   124.892	     8.102
  -167.686	   108.618	    18.447
  -172.676	   105.630	    -0.757
  -165.818	   104.488	    12.861
  -160.299	   111.830	   -11.319
  -163.895	   107.756	   -23.623
   177.528	   125.273	     1.171
  -167.695	    93.937	    -1.203
  -157.016	   132.528	    -6.191
  -168.454	   119.747	     9.050
  -160.432	   114.611	   -11.531
   175.350	   101.222	    11.875
  -172.478	    84.657	    17.773
  -169.736	   133.938	    13.019
  -174.696	   111.166	     3.105
  -174.870	   140.911	     8.216
  -175.581	   115.644	    -2.275
  -162.385	   105.347	    -3.453
   170.314	   135.518	     8.404
  -170.102	   116.928	     1.104
  -175.575	   135.831	   -11.789
  -150.950	   138.356	     1.557
  -162.258	   102.858	    14.805
  -158.955	   119.100	    10.859
  -154.309	   139.090	    16.595
  -159.584	   114.868	   -30.678
   178.254	    91.667	    15.827
  -173.472	   125.242	     8.835
  -169.071	   148.616	     6.680
  -162.417	   128.791	    11.709
  -161.574	   108.656	    11.199
  -175.726	   116.846	    16.542
  -168.277	   115.112	     6.870
  -166.635	   125.171	    12.739
  -178.369	   117.481	    -2.973
  -158.693	    98.178	     6.065
  -150.560	    90.753	    18.418
  -163.560	   121.686	    -0.167
   177.715	    95.016	    14.749
   170.245	   124.950	     6.119
  -163.875	   128.571	     1.456
  -171.738	   119.908	    18.151
  -177.312	   125.344	     6.345
  -159.302	   107.158	    -9.774
  -171.585	   112.610	    18.882
   174.895	   111.959	     8.264
  -165.274	   115.627	    11.501
  -171.078	   112.738	    28.009
  -157.145	   104.779	    -6.518
  -160.777	   102.649	   -12.160
   178.553	   101.740	     0.540
  -176.319	   123.058	     8.606
  -162.600	   109.817	    -3.816
  -171.650	   116.027	     1.029
  -168.945	   104.943	   -17.301
  -174.929	   117.349	    -0.183
  -172.521	   121.113	     6.266
  -155.023	   139.285	    -6.700
  -166.423	   101.303	    23.152
  -158.068	   111.262	    -9.104
   173.687	    62.747	    16.718
  -156.172	   111.108	     4.144
  -160.144	   128.872	    18.553
  -157.182	   101.518	    20.684
  -162.640	   116.474	     1.770
  -165.765	   104.105	    -2.150
   169.574	   114.694	    28.054
  -159.770	    94.256	    -7.980
  -163.769	    77.664	    15.086
   178.051	   129.004	     5.082
  -164.494	    89.821	    -9.275
  -164.120	   121.149	    -1.267
  -151.878	   126.820	     3.169
  -162.274	   129.925	    -0.235
  -165.554	   112.416	    -6.762
  -171.714	   104.606	    -4.916
  -167.832	    97.417	   -12.803
  -161.496	   115.387	    -4.249
  -162.193	    76.117	     6.964
  -174.400	    96.919	     5.647
  -156.589	    95.290	    -4.597
  -176.265	   100.193	    -8.269
  -161.496	    85.884	    18.406
  -176.511	   101.826	    -3.311
  -156.727	   123.759	     8.286
  -176.488	   122.391	    -5.993
  -163.311	   107.276	    19.032
  -169.586	   128.380	    -5.904
  -175.934	   117.120	     8.971
  -170.548	   134.365	    -4.737
  -154.540	   117.813	     4.648
  -170.376	    96.975	    19.369
  -155.774	   105.565	     4.879
  -167.554	   115.501	    -6.435
  -172.732	   110.958	    -0.039
  -159.804	   123.681	    26.296
  -154.963	    95.564	     3.272
  -157.361	   103.581	    10.171
  -151.240	    90.986	     3.586
  -172.584	   112.758	    11.049
  -167.598	   104.485	     7.068
  -164.107	    82.855	     5.153
  -164.809	   111.400	    14.572
  -159.284	   102.790	    -5.428
  -170.692	   108.944	    14.083
  -167.165	   117.424	     4.505
  -169.700	    93.324	    11.699
  -165.621	   136.253	    24.243
   179.312	   102.851	    23.738
  -160.233	   123.265	     9.718
  -166.416	   111.229	   -13.839
  -169.384	   101.892	    16.162
  -164.761	   119.394	     0.269
  -169.322	   141.442	    13.780
  -175.392	   113.921	    14.436
  -154.518	   120.049	     8.311
  -158.652	   120.899	    11.111
  -173.274	   101.407	     0.398
  -164.355	   114.706	     0.718
  -158.657	   119.992	    -5.853
  -157.537	   127.697	    -7.557
  -165.498	   132.322	     4.675
  -155.850	    96.436	    -0.494
  -157.929	   106.353	    -2.494
  -153.286	   120.437	     6.024
  -169.020	   103.156	     8.801
  -172.106	   125.117	    21.096
  -174.158	   110.988	     8.363
  -160.777	   101.603	    -7.163
  -171.321	   110.343	    -3.291
  -153.885	   125.034	     6.643
  -159.264	   127.012	    15.309
  -165.762	   125.178	     7.575
  -157.764	   130.779	    16.284
  -169.881	   121.249	     4.515
  -168.175	   107.785	     2.366
  -177.576	   118.726	     8.057
  -166.450	   123.081	    -4.778
  -177.816	   108.222	    -0.041
  -168.015	   126.315	    -3.635
  -166.824	   113.494	     8.264
  -170.205	   141.734	    -1.435
  -160.294	   133.845	     2.875
  -167.465	   141.824	    15.424
  -176.578	   119.874	    -2.499
  -163.437	   124.293	    12.870
  -175.674	   113.380	     8.238
  -170.714	   113.976	     7.451
  -156.690	    93.765	   -11.706
  -168.314	   107.079	    13.442
  -166.521	   114.237	    -8.012
  -161.851	   112.804	    -4.278
  -163.917	   123.153	    -6.097
  -154.771	   121.492	   -12.899
  -163.163	   117.026	     3.414
  -161.367	    94.012	    -1.541
  -173.880	    93.178	     4.895
  -172.142	    94.462	     9.778
  -165.268	    99.182	     4.813
  -154.210	   106.076	     7.709
  -166.626	   140.712	     9.172
  -163.273	   105.480	    -2.260
  -169.038	    97.637	    22.621
  -144.900	   113.400	    -7.988
  -168.579	    98.496	     0.289
   179.602	   129.914	    13.288
  -176.983	   122.595	    -1.500
  -172.457	   126.763	    13.805
   179.740	   132.614	     5.251
  -154.684	    99.162	     1.448
  -166.972	   108.152	   -21.137
  -172.388	   136.954	    -6.571
  -159.157	   123.372	    -4.514
  -159.599	   135.408	   -23.001
  -160.421	   116.390	     6.290
  -172.751	   108.969	    13.407
  -162.314	   113.647	   -10.972
  -170.619	   117.333	    10.331
  -170.783	   129.455	     4.612
  -163.059	   119.985	    13.717
  -173.439	   119.761	    -6.592
  -169.047	   115.908	     9.403
  -176.076	   115.177	     3.243
  -173.271	   126.335	     4.265
  -176.869	   132.278	    -5.532
   175.898	    88.574	    13.905
  -172.595	    90.938	    -3.702
  -167.993	   125.396	     2.488
  -176.408	   117.972	    11.010
  -161.640	   132.276	    12.177
  -167.561	   121.107	     0.685
  -166.282	   114.274	     9.940
  -158.565	   131.052	     4.195
  -170.358	   124.492	     1.561
  -175.983	   100.454	    -9.001
  -168.587	    99.759	    10.253
  -170.915	   118.342	     8.325
  -172.502	   109.379	    17.311
  -161.350	   110.431	     1.029
  -168.336	   102.027	     2.590
  -168.820	   138.542	     6.150
  -166.743	    95.022	    10.534
  -154.924	    92.284	     6.239
  -170.611	    95.227	     0.587
  -164.006	   134.283	     4.181
  -178.437	    99.072	     0.479
  -170.362	   109.153	    -3.649
  -150.779	   138.898	     7.599
  -158.260	   125.284	     4.411
  -173.392	    92.640	     7.629
  -163.234	   102.370	    -9.005
  -175.573	   115.513	     5.984
  -155.658	    99.888	    -5.737
   176.408	   100.722	    13.663
  -156.778	    85.704	   -12.566
  -155.511	   105.577	     6.773
  -160.915	   122.768	    14.327
  -144.411	   139.152	     4.715
  -151.965	   126.536	     6.320
  -165.149	   111.412	     6.365
  -171.617	   114.369	     7.697
  -171.909	   120.260	    13.618
  -170.299	   112.483	     2.379
  -162.030	   128.105	    21.587
  -172.260	   103.625	    -4.197
  -153.566	   117.590	     0.583
  -169.503	    89.489	    12.674
  -171.020	    97.378	    18.093
  -157.650	   123.825	     2.684
  -144.341	   111.089	     5.855
  -165.239	   106.764	    14.352
  -167.064	   119.771	    17.891
  -166.656	   126.769	     7.706
  -167.874	   105.221	    30.194
  -164.194	    88.765	    10.125
  -168.015	   126.890	   -15.976
  -161.590	   111.494	    -2.765
  -153.885	   108.747	    -1.418
  -154.808	   135.301	    -6.650
  -169.613	   153.448	    -4.161
  -160.619	   126.874	    11.669
  -173.246	   104.852	    -2.571
  -156.862	   132.109	    14.651
  -164.277	   129.180	   -15.578
  -164.324	   111.936	     1.998
  -174.877	   111.573	    -0.394
  -164.271	   130.896	    16.521
  -157.261	   101.641	    12.078
  -169.707	   123.180	     6.453
  -175.648	    86.148	     4.384
  -162.813	   110.330	    -3.123
   179.974	    94.628	     0.739
  -172.973	    78.768	     6.104
  -177.945	    90.859	    10.957
  -168.975	    96.682	     7.079
  -165.263	   100.748	     0.969
  -161.290	   105.503	    16.849
  -147.689	   110.702	   -11.249
  -169.268	   107.639	     0.261
  -159.611	    92.107	    -3.027
  -175.747	    98.545	     3.271
  -171.896	    84.479	    14.079
  -155.071	   104.165	    19.664
  -169.813	   128.189	    -1.895
  -165.601	   116.443	    17.779
  -166.944	   118.481	    -5.663
  -175.422	   130.848	    11.875
  -163.304	    98.134	    -5.986
  -167.235	   122.503	     7.097
  -163.038	   116.813	    -0.642
  -170.739	   127.462	     3.145
   173.784	   129.226	     9.517
  -155.774	   114.040	    12.592
  -168.356	   119.967	     1.712
  -169.580	   115.421	     1.790
  -145.425	    97.061	    11.271
   177.083	    94.990	    12.852
  -172.004	   116.102	     3.539
  -154.421	   117.436	    11.771
  -160.603	   126.687	    15.385
  -173.436	   100.106	     0.617
  -163.279	   112.761	     7.294
  -171.658	   122.328	    -3.087
  -159.347	   109.233	     3.893
   176.751	   102.443	    -2.217
  -169.171	   124.154	     4.788
  -176.239	   112.976	   -10.380
  -168.893	   123.877	     1.127
  -154.060	   122.834	     4.443
  -173.813	    98.558	    14.530
   174.678	   125.299	    -2.217
  -159.411	    84.347	   -12.170
   176.572	   102.445	    -0.439
  -176.575	   125.265	    -2.775
  -172.287	   115.622	     5.275
  -167.734	   130.930	    -5.565
  -169.050	   106.675	     1.970
  -171.125	    78.455	     4.559
  -174.141	   125.203	    17.786
  -167.243	   112.687	     1.277
  -170.140	   108.901	    11.501
  -164.227	   107.098	    -4.697
  -168.052	   145.322	   -11.110
  -178.128	   125.598	    14.561
   176.568	   119.184	    -2.617
  -151.373	   121.974	   -16.986
  -154.934	   113.412	    -0.439
  -164.372	   107.623	     3.470
  -171.130	   113.795	    -3.059
  -153.950	   113.752	    -3.531
  -177.311	   124.781	    14.285
  -153.633	   127.670	    13.537
  -158.460	   115.772	    15.470
  -176.219	   126.032	    13.193
  -162.678	   142.064	   -12.364
  -169.612	   128.317	     7.976
  -153.439	   107.072	    15.891
  -170.770	   113.965	    -1.587
  -163.135	   117.541	    16.851
  -164.909	    85.084	    -2.563
  -164.746	   128.265	    12.475
  -156.130	   107.238	     2.642
  -172.558	   115.659	    -4.092
   178.037	    91.876	    -1.831
  -173.753	   116.477	   -12.564
  -164.050	   129.733	    -6.376
   171.323	   103.565	    24.312
  -170.797	   116.086	     1.190
  -171.841	   103.817	    14.855
  -170.241	   103.454	    17.993
  -170.455	   117.170	     4.688
  -176.801	   107.775	     1.571
  -166.633	   113.235	     3.125
  -170.325	   123.548	     4.480
  -169.537	   129.531	     2.373
  -168.382	   112.929	   -19.734
  -163.097	   126.861	     1.682
  -175.416	   119.653	    -7.311
  -161.974	   125.340	     0.153
  -159.051	   139.569	     3.579
  -156.574	   107.743	    -4.170
  -169.814	   108.465	    -6.064
  -171.333	    96.196	     7.574
  -151.765	    99.624	    -7.334
  -164.165	   107.303	    29.807
  -162.850	    94.882	    -3.970
  -171.654	   107.262	    12.223
  -160.313	    97.407	    -6.879
  -168.696	    88.894	    -5.274
  -163.586	   110.823	    -3.699
  -175.268	   133.351	   -13.053
  -172.379	   118.434	    -1.808
  -161.988	   110.196	    -6.559
  -159.084	   109.234	    11.313
  -161.111	   114.559	     4.997
  -148.364	    95.038	     8.851
  -173.129	   111.938	    -2.283
  -166.694	   126.133	   -26.345
  -176.132	   111.669	     4.639
  -162.454	   107.051	    10.618
  -160.711	   113.621	     0.066
  -165.763	    83.731	    20.146
  -172.892	   102.866	    24.282
  -167.910	   113.602	     3.307
  -172.160	   111.045	    13.908
  -175.796	   130.648	    16.572
   179.924	   104.038	    22.081
  -169.847	   124.024	    -2.402
  -171.134	   101.884	    19.587
  -174.626	   118.929	     2.203
  -157.171	   104.143	    -3.833
  -160.724	    93.001	   -11.706
  -164.613	   116.542	    24.715
  -164.503	    99.064	     5.616
  -152.133	   129.167	    -7.678
  -167.363	    89.918	    15.210
  -163.839	   107.399	     6.389
  -163.238	   101.753	     1.863
  -150.931	   111.440	    -1.289
  -165.195	    98.710	     0.093
  -159.279	   126.177	     4.117
  -166.751	   125.526	     9.319
  -155.767	    88.322	     5.591
  -170.086	   115.533	   -10.660
  -157.434	   132.569	     2.064
  -177.232	   106.508	     8.533
  -171.873	   139.530	    -0.879
  -158.031	   119.747	     2.658
  -178.749	   122.040	     8.746
  -157.779	   129.387	     3.678
  -169.711	   116.999	     8.807
  -163.756	    75.273	   -11.438
  -178.516	    98.742	    -8.617
  -177.144	   121.349	    -9.390
   171.953	   122.265	   -16.209
  -161.503	   121.534	    10.061
  -177.581	   105.737	     9.811
  -164.208	    88.532	   -17.970
  -173.889	   119.039	    -1.116
  -172.705	    93.824	    15.930
   168.774	    96.988	    -9.546
  -169.846	    88.756	    -3.172
  -168.798	   120.983	   -21.351
  -174.647	   106.713	     2.526
  -152.190	   103.227	     3.125
  -162.710	   118.738	    13.527
  -159.253	   130.799	     3.775
   178.019	   130.999	    -7.402
  -172.935	   122.727	   -12.854
  -150.671	   108.699	    -9.088
  -165.431	   110.314	    -2.043
  -167.834	   141.074	    -8.188
  -155.080	    81.612	   -11.402
  -177.497	   134.001	    -9.846
  -165.168	   115.843	    -6.930
  -177.707	   133.251	    16.215
  -159.067	   120.747	    -4.178
  -172.506	   111.870	    10.559
   176.866	   113.905	     7.926
  -172.373	   116.450	   -33.503
   179.526	   114.739	    12.118
  -157.373	   108.557	   -22.591
  -157.996	   119.343	    11.242
  -162.197	    96.810	     2.105
  -170.021	    90.788	    -7.372
  -172.402	   106.561	     9.648
  -169.368	    88.958	    12.775
  -167.412	   114.100	     0.337
  -157.013	   114.237	    -9.158
  -154.949	    98.284	   -12.673
  -152.959	   101.172	    -3.263
  -160.996	    96.415	    -8.941
  -161.093	   124.605	     0.587
  -172.822	    98.484	    -5.866
  -166.607	   109.902	    11.981
  -162.900	   122.858	     3.206
  -176.579	   115.782	    -9.598
  -161.056	   113.581	    10.502
  -178.921	   121.054	    15.008
  -152.827	   114.197	   -10.052
  -147.668	   112.918	    -1.216
  -174.218	   107.571	     3.065
  -171.955	   111.670	    -8.457
  -168.588	   117.844	     0.532
  -160.216	    95.043	     7.744
  -158.514	   112.101	    -7.358
  -167.260	   124.146	     0.629
  -169.126	   125.717	    20.043
  -174.996	   116.810	    14.352
  -163.421	   120.743	    23.245
  -178.886	    99.556	    12.447
   176.191	    95.229	     2.797
  -157.319	   112.720	    11.694
  -165.158	   139.389	   -19.631
  -163.369	   133.659	     3.275
  -152.858	   123.089	     0.427
  -166.949	   101.798	     4.296
  -151.009	   105.871	     3.640
  -153.785	   100.058	    17.817
  -158.065	   111.941	     6.714
  -163.952	   107.453	    -3.904
  -167.764	    80.819	     2.242
  -165.703	   110.989	    -3.416
   175.980	   102.295	     7.988
  -162.768	   100.244	     6.508
  -156.025	    92.483	    10.625
  -166.010	   118.703	     4.349
  -162.142	   133.367	   -18.309
  -156.694	   129.555	    -1.630
  -161.182	   121.303	    10.260
   179.094	   124.597	    21.510
  -171.330	    96.505	    15.774
  -177.655	   110.158	     2.329
  -157.743	    96.611	    -0.342
   178.863	   115.916	    -9.131
  -162.057	   120.977	     2.532
  -167.714	   120.515	     4.828
  -165.817	   118.977	     3.453
  -167.233	   103.746	    11.215
   179.836	   101.603	     6.794
  -176.441	   143.968	    12.804
  -170.592	   125.109	     7.808
  -160.149	   128.604	     3.942
   177.249	   112.959	     7.904
  -163.712	   118.141	    -8.338
  -178.583	   113.739	     1.093
  -164.038	   103.879	     3.233
  -172.741	   110.381	    -3.255
   179.552	   125.378	    22.469
  -157.930	   109.730	   -14.446
  -161.536	   113.374	     0.270
   179.980	   121.323	     4.079
  -175.059	   104.487	    16.440
  -167.197	   140.388	    -5.261
  -167.852	   128.436	     4.954
  -171.268	   104.969	    -5.903
  -163.509	   104.674	    11.692
  -163.738	   130.075	     0.076
  -174.490	   107.074	   -17.157
  -172.877	   118.753	    -3.746
  -167.775	   104.540	     5.069
  -171.210	   121.652	     0.208
  -153.663	   105.330	   -12.295
  -167.103	   110.365	     2.108
  -161.585	   120.203	    -2.641
  -172.801	   106.675	    -2.281
   179.385	   122.296	     8.700
   166.071	   137.053	    -3.389
  -169.469	   131.287	    -1.716
  -172.743	   116.575	   -11.656
  -160.538	   107.560	     2.209
  -167.501	    97.778	    -5.968
  -174.574	   137.912	     3.939
  -157.399	   102.560	     0.631
  -173.113	   116.789	    27.852
  -163.322	   130.251	     5.767
  -159.703	   129.254	    21.561
  -155.553	   113.537	     6.036
  -165.664	   119.939	     3.359
  -179.111	   128.506	    10.079
  -172.200	   129.255	    20.156
  -171.546	   140.919	   -10.840
  -179.097	   125.956	     7.754
  -169.705	   130.298	    13.420
  -177.012	   101.324	    34.174
  -173.258	    95.024	     9.670
  -162.677	   122.807	    11.668
  -167.617	   144.878	    -7.162
  -165.782	   107.798	    17.713
  -162.473	   101.303	     8.852
  -170.690	   123.721	    -4.523
  -155.106	   122.106	   -20.540
  -150.143	   112.894	     8.957
   178.568	   108.465	    12.413
  -166.948	    87.045	    14.854
  -154.665	   127.552	    -7.117
  -167.464	   112.445	     9.421
  -164.901	   109.062	    -2.358
  -157.248	   126.289	    11.211
  -167.170	   104.832	     0.604
  -169.660	   101.246	    -6.547
  -164.704	    93.978	     7.759
  -163.128	   104.714	    11.386
  -158.147	   103.089	    12.892
  -158.012	   107.292	     8.703
  -175.495	   107.351	    20.070
  -165.612	   111.273	    12.485
  -156.054	   117.585	   -15.702
  -161.445	    90.265	    17.023
  -156.049	   111.081	     4.360
  -153.385	    84.008	     6.986
  -168.932	    89.631	    -8.263
  -167.229	   106.030	    19.603
  -170.526	   118.041	     7.473
  -166.240	    88.826	     9.839
  -171.125	   107.520	    -9.515
  -155.196	   100.717	    22.343
  -165.369	   127.325	    26.640
  -175.348	   118.997	    19.122
  -178.361	   107.661	    -6.563
  -165.593	   108.230	   -22.533
  -150.243	   120.497	     5.628
  -149.950	   128.856	    12.021
  -168.996	   107.951	    -5.278
  -176.897	   111.438	    -4.117
  -164.498	   126.955	     4.460
  -172.752	   106.785	     6.207
  -171.094	   133.525	    -8.464
  -152.170	   112.429	   -25.087
  -167.083	   119.698	     3.406
  -163.739	   120.534	    -1.716
  -157.163	   117.728	     1.973
  -157.771	   112.966	    -0.636
  -167.212	    96.365	    10.572
  -179.380	   110.480	    -4.003
  -172.059	   114.190	    -1.127
  -171.925	   119.634	   -11.256
  -167.116	   113.915	    21.380
  -157.259	   113.950	     2.793
  -151.472	   114.467	    -4.475
  -169.912	   110.002	     3.094
  -167.264	   100.007	     7.397
  -167.677	   122.725	     9.579
   179.155	   114.321	     9.496
  -169.444	   102.693	    21.475
  -177.128	   119.829	     8.309
  -168.110	   108.443	     1.669
  -155.613	   114.461	    21.842
  -165.132	   114.232	     3.044
  -175.843	   103.495	   -11.906
  -179.288	   131.719	    -6.886
  -169.066	   112.152	     9.729
  -158.610	   114.494	    -6.690
  -176.601	   121.315	     1.690
  -164.369	   110.174	     1.536
  -174.997	    99.978	    -0.938
  -155.454	   120.594	   -11.175
  -166.666	   104.567	    13.558
  -162.007	   124.647	     9.884
  -173.234	   104.243	     2.368
  -172.376	    88.653	   -14.949
  -176.224	   110.079	     6.954
  -161.494	   122.300	    -1.951
  -164.320	   112.411	     8.906
  -167.175	    99.756	    -0.412
  -161.809	   112.790	     2.644
   169.229	   150.201	    15.918
  -160.515	   119.667	    -0.769
  -174.875	   140.282	    13.306
  -164.014	   136.118	    -3.254
  -150.675	   114.164	    -4.043
  -166.618	    64.991	     9.751
  -155.798	   119.816	    -5.717
  -167.400	    98.128	     4.618
  -175.026	   147.366	    -0.233
  -169.076	   121.864	    10.333
  -175.217	    96.861	     3.726
  -167.361	    95.409	     9.158
  -164.160	   125.304	   -19.026
  -176.044	   125.379	   -11.424
  -155.638	   107.164	    20.698
  -178.703	    99.240	     6.501
  -143.288	    81.432	    -1.691
  -176.408	   147.211	    -3.336
  -153.309	   119.858	     0.444
  -161.951	    99.909	    -8.376
  -169.322	   119.726	    -6.369
  -176.731	   134.451	    14.639
  -160.621	   105.949	    -0.578
  -163.011	   131.203	     0.369
  -165.871	   138.954	    18.217
  -172.622	   101.427	    -1.447
  -160.018	   110.141	     5.733
  -168.071	   108.666	     3.612
  -161.913	   117.054	     9.990
  -159.736	   125.308	    -4.892
  -153.677	    92.317	    12.708
  -161.824	   111.372	     6.516
  -157.388	   112.476	    -1.888
  -163.056	   111.208	     8.464
  -174.492	   126.408	    -3.622
  -153.884	   110.825	     7.225
  -172.242	    89.220	    13.166
  -154.480	   107.208	    13.952
  -166.598	    88.382	    -3.569
  -172.812	   103.286	    -0.657
  -170.309	    97.135	     2.021
  -166.077	   117.845	    -3.463
  -176.634	   106.343	     5.296
  -153.292	    97.718	     2.611
  -168.233	   112.253	     6.721
  -164.742	   105.369	    -6.102
   179.687	   122.552	     9.587
  -156.836	   112.235	    -4.010
  -170.771	   132.691	    -4.527
  -163.615	   111.572	     1.249
  -166.708	   111.630	    14.913
  -167.772	   133.627	     3.848
  -160.144	   127.821	    -3.912
  -178.151	   117.826	    -5.643
  -174.932	    89.027	    23.967
  -175.256	   109.541	    -2.951
  -172.193	    96.045	    13.465
  -163.327	   111.599	     4.547
  -153.069	   112.061	     4.674
  -172.591	   134.268	     3.184
  -169.839	    95.702	     8.627
  -176.492	   119.222	     0.786
  -167.971	    91.779	    -3.497
  -166.397	    88.301	    -6.720
  -162.893	   119.308	     5.471
  -168.971	   116.045	     1.832
  -172.226	   120.443	     0.619
  -153.852	    86.830	     5.223
  -164.950	    93.624	     2.247
  -159.701	    81.212	     0.110
  -157.731	    97.477	   -19.127
  -163.343	   112.275	    11.046
  -178.174	   118.144	     5.969
  -171.031	   115.671	     8.071
  -163.367	   132.713	   -13.023
   178.782	   108.766	    17.970
  -156.515	   116.707	     1.319
  -178.635	   130.879	    13.361
  -166.175	   124.307	   -16.814
   178.820	   127.560	    18.265
  -155.373	   101.469	   -12.511
   175.768	   101.934	    -1.111
  -169.235	    97.969	    -4.174
  -163.410	    90.940	     4.220
  -162.475	   102.961	     7.388
  -165.993	   117.317	    16.810
  -166.635	   119.634	    -3.458
   177.803	   129.430	     9.793
  -165.242	   103.510	    -2.025
  -169.328	   114.244	   -29.681
  -165.342	   108.449	    11.667
  -170.507	   107.864	    10.122
  -168.162	   114.776	    -7.216
  -168.682	   103.866	    -1.370
  -168.110	   110.176	    -2.201
  -167.334	    95.989	    -0.757
  -175.156	   104.491	     5.137
  -160.917	    92.842	    13.406
  -163.967	    98.851	     1.385
  -161.346	    98.013	     3.395
  -156.195	    81.272	    -8.072
  -168.875	   117.489	     8.127
  -162.644	    90.580	    -2.339
  -166.507	   100.800	     1.483
  -169.768	   119.563	    -2.644
  -161.125	    79.793	    -1.834
  -167.210	   124.607	    -4.419
  -162.656	   126.429	    -1.572
  -150.451	    93.644	    -3.121
  -155.623	   121.890	    17.820
  -170.967	   114.167	    27.052
  -155.842	   105.133	    -4.558
  -163.165	   114.660	    14.562
  -174.057	   127.870	    -0.875
  -162.656	   104.835	     6.252
  -165.101	   119.996	    15.115
  -168.001	   115.409	    -1.159
  -146.867	   104.687	     1.305
  -170.884	   114.626	    -8.377
  -168.755	   121.630	    22.496
  -160.863	   129.863	   -13.655
  -164.636	   114.764	     4.213
  -176.454	    98.490	     8.429
  -162.382	   118.573	   -11.314
  -169.820	   119.666	     1.070
  -169.046	   117.862	     6.491
  -157.271	   136.704	    -7.415
  -161.552	   106.478	    22.115
  -156.986	   117.241	     0.156
  -159.526	   126.123	    16.892
  -143.833	   116.995	    -6.116
  -167.761	   116.201	    14.782
  -168.487	   127.181	    -1.340
  -163.339	   138.190	    -0.411
  -174.789	   114.938	     4.717
  -175.049	   107.341	    16.068
  -165.711	   104.618	    14.051
  -166.369	   112.899	     0.405
  -168.385	   117.855	     5.666
  -152.696	    99.889	   -16.154
  -176.344	   117.233	    14.804
  -174.050	   111.590	     9.277
  -176.023	   119.181	     3.939
  -176.823	   113.462	    14.051
  -163.474	   133.511	    -9.333
  -156.723	   123.508	    -3.300
  -163.672	   112.176	    13.910
  -168.462	   129.898	    -3.348
  -172.003	   105.868	     2.063
  -172.137	   121.728	     6.328
  -177.360	   116.932	    -1.087
  -175.672	   106.115	    24.374
  -167.236	   113.584	     0.773
  -175.308	   135.048	    13.348
  -177.700	   123.026	     0.136
  -172.356	   121.210	    14.154
  -149.033	    95.488	     4.037
  -171.865	   106.323	    11.005
  -168.526	   110.786	     2.413
  -160.138	   124.147	     6.575
  -161.831	   119.950	     8.286
  -169.296	   124.102	     8.833
  -176.914	   124.617	     6.113
  -157.558	   123.274	     2.226
  -172.329	   148.848	    14.474
  -157.978	   129.687	   -12.228
  -169.304	   108.942	    16.824
  -153.648	   129.495	    10.436
  -160.651	   121.573	     6.738
  -169.115	   111.161	     7.786
  -177.788	   128.932	    33.185
  -164.713	   124.893	     1.707
   175.065	   112.804	    11.774
  -168.475	   104.376	    -3.015
  -165.891	   125.728	     9.094
  -164.651	   112.160	    11.131
  -165.455	   111.229	    12.521
  -158.445	   127.349	    -5.473
  -165.918	   120.633	   -12.074
  -164.566	    86.483	   -13.874
  -154.527	   106.071	   -15.257
  -165.424	   119.724	     5.472
  -172.968	   108.745	    12.736
  -169.960	   115.793	     1.830
  -170.106	   103.041	    -8.764
  -164.618	   111.675	   -12.915
   176.293	   107.051	    22.748
  -164.332	    93.070	   -12.732
  -165.614	   111.058	    11.809
  -173.914	   104.484	   -10.711
  -164.724	    90.570	     2.856
  -174.966	   101.376	    18.528
  -162.333	   105.464	    15.221
  -156.599	    92.368	     9.375
  -158.737	    97.241	     0.228
  -162.857	    96.340	     1.468
  -172.174	   105.290	    -4.881
  -165.408	   100.089	    -5.116
  -150.701	   105.763	    -0.194
   177.048	    94.948	    14.163
  -172.559	   110.463	    12.792
  -148.663	    95.850	     2.861
  -172.519	   101.750	    16.038
  -169.203	   122.347	    14.138
  -167.185	    95.609	    14.623
  -164.055	   121.907	    11.230
  -172.439	   108.686	    11.401
  -155.506	   102.620	   -11.203
  -168.766	    96.051	    14.292
  -158.229	    80.188	    -7.333
  -158.582	    88.421	    14.648
  -164.642	   109.388	     2.794
  -168.748	   101.725	     3.488
  -176.044	   117.080	     5.203
  -175.793	   110.370	    -3.017
  -168.522	    98.404	    12.090
  -165.734	   110.605	     0.241
  -154.930	   101.806	   -11.749
  -162.041	   123.133	     6.377
  -166.968	   116.151	    19.557
  -161.805	   132.344	    15.780
  -169.451	   131.145	    -4.087
  -156.985	   123.823	   -12.928
  -172.877	    99.944	    17.106
  -163.471	    93.274	    -7.418
  -167.329	   114.063	    -7.644
  -156.278	   118.708	    -8.421
  -165.791	    98.189	    19.475
  -162.109	   112.102	    -8.683
  -170.348	   108.431	     5.561
  -162.039	   133.718	     6.076
  -163.210	   115.594	     7.842
  -173.818	   130.520	    17.475
  -178.825	   106.827	    -3.156
  -159.171	   118.489	    -4.067
  -170.639	    94.157	     5.487
  -164.686	   103.203	   -14.081
  -169.623	   111.467	    -2.085
  -158.164	   107.604	    15.957
  -176.527	   112.235	     4.601
  -160.403	    55.499	     1.287
  -173.244	   101.634	    15.767
  -164.393	   112.215	    -2.984
  -163.750	    95.424	    -4.769
  -167.237	   114.950	    -3.083
  -158.845	   118.917	    11.888
  -159.367	   114.348	     8.562
  -154.384	   116.469	    16.234
  -175.146	    99.786	    -2.771
  -165.982	   116.360	    11.354
  -165.257	    95.113	     0.290
  -158.022	   123.743	     3.940
  -151.944	   110.206	    -1.910
  -147.175	    98.374	    18.497
  -176.287	   114.862	     7.383
  -159.429	   118.040	    18.073
  -152.668	   122.154	    -6.836
  -171.274	   108.942	    -3.062
  -158.808	   116.479	     2.621
  -151.513	   123.984	    -6.844
  -157.351	   106.030	     9.489
  -161.282	   124.545	     4.426
  -175.434	   113.516	    17.313
  -167.247	   115.315	     1.450
  -158.045	   119.962	     2.489
  -174.315	   116.657	     0.200
  -173.601	    95.293	    29.380
  -167.132	   108.719	    -8.169
  -161.449	    84.602	    -1.590
  -164.656	   116.360	     3.050
  -162.736	    84.695	    -4.433
  -169.929	   103.964	     4.044
  -160.554	   120.778	     0.503
  -164.661	   113.224	     0.081
  -177.328	   118.608	    -3.187
  -174.405	   133.190	     8.445
  -167.332	   124.729	    -2.396
  -179.706	   131.301	    28.554
  -168.716	   124.037	    -7.946
   177.160	   102.479	     6.385
  -178.782	   122.445	    11.835
  -162.026	   128.973	     1.540
  -172.803	   131.618	     2.197
  -174.133	   132.533	    -2.792
  -156.305	   117.813	    10.781
  -165.854	    99.033	     3.258
  -161.625	    83.854	    -7.270
  -146.075	    83.204	    -6.295
  -175.670	   115.388	    12.974
  -166.741	   125.654	    15.739
  -152.113	   124.169	     9.261
   175.369	   135.753	     0.242
  -179.467	   113.771	     8.871
   179.035	   140.404	     9.246
  -158.365	   132.074	     5.995
  -177.974	   113.974	    14.634
  -159.708	   116.777	    -0.102
  -175.525	   139.746	    -2.614
  -167.350	   118.975	   -15.066
  -168.458	   115.861	     9.034
  -171.004	    96.992	   -10.289
  -176.514	   107.426	    -9.279
  -172.808	   105.978	     2.763
  -154.303	   118.126	   -10.543
  -174.278	   107.676	     2.392
  -163.533	    81.723	    11.733
  -175.451	   107.547	    12.927
  -158.284	   130.986	    22.325
  -158.674	   119.045	    10.107
  -158.807	   100.583	     8.142
  -162.640	   119.053	    -1.123
  -178.134	    91.987	    10.920
  -162.335	   126.600	   -13.001
  -171.511	   106.918	   -19.719
  -162.812	   115.259	    12.788
  -171.869	   101.065	     8.763
  -174.734	   121.970	    22.288
  -172.765	   135.999	    10.558
  -162.480	   111.660	     3.018
  -164.141	   106.087	   -19.704
   179.606	   131.584	    -4.994
  -156.541	   124.281	    -7.373
  -171.427	   113.047	   -14.322
  -157.450	   127.135	    -2.726
  -162.948	   120.564	     7.439
  -164.332	   117.358	   -12.265
  -159.897	   126.454	   -13.352
   172.017	   130.710	    -0.131
  -155.788	    87.808	     8.954
  -154.410	   112.385	    15.131
  -162.254	   123.856	     8.504
  -173.041	   116.127	    11.623
   179.325	    99.644	    17.225
  -167.886	   109.164	     0.147
  -177.750	   127.059	    11.295
   177.344	   107.385	     0.843
  -165.457	   103.031	     2.577
  -166.277	   113.274	     1.886
  -172.915	   122.978	    -2.422
  -159.510	   125.258	    -4.279
  -162.727	   113.018	    -3.265
  -179.325	   132.031	    15.775
  -172.546	    91.908	    14.102
  -154.780	   122.903	     9.264
  -168.227	   131.504	    10.905
  -161.707	   118.031	    12.052
  -163.698	   118.048	    10.212
  -172.529	   129.786	    10.351
  -166.435	   137.596	     1.726
  -168.063	   115.712	     2.236
  -168.979	   124.216	    -2.569
  -170.315	   115.697	    -4.529
  -175.331	   119.062	     0.576
  -165.949	   130.268	    14.656
   165.109	   126.614	    12.829
  -169.975	   128.520	     2.229
  -179.774	   106.720	     8.799
  -168.223	   113.828	    20.698
  -169.353	   103.383	    -3.555
  -161.616	   121.858	    12.924
  -154.798	   102.171	     0.349
  -163.183	   122.324	     1.497
  -151.049	   106.692	    -4.328
  -173.497	    95.599	    17.094
  -179.032	   133.084	    -4.277
  -168.461	   124.036	     2.345
  -168.350	   118.574	    -0.737
  -169.462	    96.899	     2.798
  -176.718	   105.538	     7.070
  -153.347	   101.795	    11.739
  -170.651	   117.613	    -9.807
  -173.069	    90.496	     8.551
  -158.293	   118.799	   -12.714
  -155.617	   112.287	    -4.012
  -161.080	   115.189	    -9.346
  -155.893	   100.384	    10.412
  -162.585	    93.432	     6.207
  -166.130	    95.582	    25.170
   174.583	   123.481	    18.612
  -159.459	   116.711	    -0.575
  -174.452	   120.053	     5.518
  -179.423	   111.110	     0.681
  -173.656	   114.221	   -23.439
  -176.678	    66.668	    21.206
  -159.723	   112.509	    -2.408
  -169.294	    89.697	    11.727
  -167.791	    95.999	    21.276
