   -92.310	   122.143	    -3.179
    45.189	    34.679	     4.436
    51.548	    29.433	    -6.369
    55.961	    40.657	     5.925
    67.855	    17.624	    -8.878
    50.356	    41.709	    -3.452
    55.203	    27.449	     8.744
    60.915	    39.613	    -1.101
    47.696	    40.041	     7.112
    46.954	    26.719	     7.589
    66.822	    19.443	     2.922
    58.443	    32.455	    14.743
    51.571	    42.688	     3.521
    58.910	    48.327	    -4.962
    56.311	    32.283	     4.380
    68.534	    31.780	   -21.834
    56.422	    31.347	     1.325
    57.745	    47.440	     1.321
    61.310	    27.045	    -8.940
    63.266	    30.815	     4.963
    46.696	    43.510	    -6.522
    50.772	    39.611	   -20.292
    52.905	    40.147	     2.088
    67.589	    28.292	    -4.212
    66.247	    46.502	   -15.135
    63.632	    51.317	     7.216
    54.160	    33.596	     4.769
    51.426	    24.617	   -12.855
    51.217	    31.597	   -20.561
    64.000	    23.717	     8.921
    50.634	    51.209	   -22.340
    68.547	    26.629	    -1.044
    40.267	    39.475	   -12.378
    61.031	    32.665	     7.567
    55.451	    26.712	     9.424
    60.138	    40.266	     8.658
    42.023	    41.656	     9.148
    65.989	    40.050	    -7.060
    48.226	    36.538	    11.533
    60.108	    45.405	    10.559
    57.788	    54.579	    11.254
    57.393	    26.839	    -4.527
    63.294	    45.184	     4.077
    46.756	    23.093	     4.090
    58.919	    47.023	    -0.225
    61.566	    38.094	    -7.980
    59.193	    26.879	    17.936
    55.033	    44.455	    -7.922
    64.964	    35.778	    -6.056
    60.528	    31.408	   -12.336
    60.304	    23.845	     2.514
    49.296	    41.987	     2.889
    59.550	    46.496	    -1.250
    55.390	    43.608	    -1.533
    53.106	    34.467	    10.034
    58.875	    29.895	    -2.233
    68.202	    34.010	    -1.135
    54.695	    42.641	   -21.078
    57.975	    34.449	    -4.815
    55.934	    41.352	     8.419
    56.628	    41.882	   -14.043
    62.654	    18.127	     1.810
    65.938	     3.576	    -7.939
    45.984	    34.001	    13.423
    46.827	    57.812	     6.597
    52.387	    38.189	    -6.264
    75.109	     1.034	    -4.653
    48.934	    40.180	     3.379
    57.456	    59.000	    -5.342
    50.536	    32.916	    -5.233
    50.087	    40.421	     7.745
    64.495	    21.792	   -10.086
    56.895	    23.875	    -5.850
    57.009	    63.193	     1.893
    48.306	    44.711	    17.369
    58.246	    32.432	     5.434
    59.473	    42.455	    18.649
    61.207	    41.523	     4.674
    61.385	    45.751	    -0.650
    56.004	    32.784	    -3.464
    64.952	    14.747	     5.641
    60.140	    34.700	     1.761
    56.965	    47.519	    -2.476
    56.073	    26.180	    -3.803
    52.266	    35.518	    -4.238
    61.863	    35.973	     9.676
    57.179	    30.685	    22.912
    48.642	    54.130	    -1.939
    61.134	    37.793	   -15.268
    55.095	    25.482	   -12.267
    63.036	    17.203	    -6.469
    45.251	    18.669	     7.169
    46.978	    36.062	    -0.584
    59.036	    31.656	    -5.257
    58.660	    39.392	    -3.357
    46.394	    48.797	     4.670
    65.039	    39.328	   -14.729
    59.831	    23.178	    -5.732
    62.739	    27.331	    -3.229
    48.005	    38.963	    12.062
    59.180	    49.783	    -5.705
    46.982	    47.228	    -4.558
    53.403	    31.239	    10.349
    48.616	    18.125	     5.549
    57.776	    20.827	   -12.382
    60.252	    32.044	   -10.359
    59.781	    25.583	    -4.402
    42.533	    36.072	     7.918
    58.590	    41.129	    -4.025
    53.067	    29.588	    -0.419
    55.001	    40.586	    -5.135
    59.173	    24.463	    -8.047
    54.434	    31.512	     2.063
    58.414	    34.928	     5.848
    45.752	    39.207	     3.262
    59.522	    39.356	     0.869
    58.266	    40.541	    -2.599
    63.846	    26.276	    -5.062
    62.013	    20.214	     3.624
    74.869	    39.297	    -2.689
    58.161	    13.324	    -1.729
    64.786	    14.255	   -11.602
    55.055	    20.527	     2.440
    62.172	    34.628	     4.117
    41.449	    45.966	     6.737
    62.704	    40.198	     1.889
    53.521	    47.109	    -9.508
    72.328	    63.089	    14.348
    69.006	    29.524	    -6.144
    50.497	    39.973	     3.123
    62.612	    27.553	    -9.333
    63.513	    52.325	     7.596
    63.484	    25.291	    -6.950
    54.628	    36.378	     3.872
    61.598	    36.754	     1.100
    64.791	    29.926	   -13.838
    47.488	    29.738	    -0.637
    49.133	    36.644	   -13.617
    51.937	    38.354	    -1.537
    48.592	    29.328	    -8.221
    51.523	    30.261	     4.492
    55.039	    26.764	    -7.467
    42.882	    49.520	    -5.715
    57.317	    32.596	    -7.065
    60.729	    31.341	    11.159
    60.259	    21.378	    -9.552
    45.429	    29.593	     4.446
    62.127	    35.317	     2.182
    61.033	    53.846	     0.997
    51.236	    35.580	     4.768
    68.181	    29.255	   -11.811
    61.379	    29.291	    -5.024
    58.911	    49.287	   -10.280
    57.023	    49.238	    13.974
    57.819	    31.446	     2.680
    49.791	    32.250	     5.340
    63.977	    54.251	    -4.986
    52.500	    45.075	   -12.998
    51.279	    38.904	    -1.585
    62.429	    44.564	    -2.995
    42.644	    33.971	    11.648
    65.690	    40.205	   -11.052
    60.324	    52.898	   -15.432
    50.250	    41.716	     2.266
    51.766	    22.994	    -0.211
    55.979	    23.829	    -3.656
    47.748	    46.565	   -15.149
    55.296	    45.386	   -18.507
    51.527	    43.430	    -0.386
    69.169	    29.760	     4.873
    48.147	    29.713	   -14.884
    42.585	    50.672	    -5.138
    55.606	    74.668	    -1.238
    57.438	    13.212	    10.292
    59.634	    27.329	     9.255
    54.509	    35.884	     1.587
    60.738	    46.984	   -11.601
    48.152	    45.117	    -2.772
    49.771	    31.352	    -3.698
    57.818	    21.288	   -24.805
    53.211	    51.758	    -4.450
    55.211	    32.975	   -22.431
    52.456	    22.092	     0.647
    64.635	    23.048	     7.237
    69.144	    31.286	     3.165
    56.306	    43.474	    -0.682
    64.470	    22.580	    -0.063
    65.622	    34.110	   -17.636
    67.060	    27.704	   -12.146
    51.837	    17.653	    -2.209
    53.329	    44.919	     7.102
    57.720	    31.486	    -9.379
    61.691	    40.965	    -8.819
    55.881	    36.893	     6.062
    55.397	    44.162	    -1.866
    64.420	    39.774	   -24.478
    52.006	    24.739	    11.896
    59.484	    43.465	    -1.047
    59.061	    45.364	   -18.966
    45.005	    33.678	    -3.601
    66.460	    35.076	     9.893
    61.511	    39.241	     9.923
    50.038	    54.482	     6.673
    56.976	    15.332	    -6.384
    57.557	    31.232	     5.509
    65.414	    44.511	    -5.703
    60.752	    46.142	    -3.992
    56.751	    37.491	   -13.238
    47.391	    36.141	    -0.724
    54.809	    33.106	   -11.856
    55.231	    22.013	     0.703
    63.542	    38.925	     9.552
    53.049	    48.172	    -0.994
    64.958	    30.898	    -4.379
    51.411	    47.099	   -11.798
    49.280	    31.335	     7.284
    63.415	    30.803	   -12.583
    51.742	    30.190	    11.433
    51.708	    51.076	     0.345
    57.693	    16.077	    -5.719
    52.966	    36.987	    -8.690
    65.860	    52.048	     0.169
    49.630	    26.553	    -7.052
    52.733	    47.633	     1.449
    57.859	    38.334	    -6.727
    60.443	    47.205	     2.591
    53.990	    43.494	   -12.312
    53.312	    26.020	    -2.202
    54.752	    29.939	    -8.331
    62.015	    41.216	    -6.199
    64.776	    35.249	    -9.056
    49.676	    37.509	     7.102
    66.809	    33.217	    -9.076
    54.441	    24.284	   -17.411
    64.924	    29.397	     0.919
    53.124	    53.824	     0.422
    64.561	    32.992	     5.502
    58.477	    51.940	     0.606
    50.856	    39.757	    16.944
    55.554	    45.703	   -11.885
    64.601	    34.919	   -17.048
    52.998	    31.070	    -1.330
    61.769	    28.184	    -9.981
    57.198	    39.252	   -12.820
    58.153	    37.228	     7.860
    42.898	    36.527	     6.951
    74.016	    49.095	    10.859
    57.193	    35.536	     7.485
    57.412	    22.535	   -16.074
    61.312	    44.545	   -18.454
    53.269	    41.663	   -12.920
    61.910	    21.273	   -12.669
    63.638	    34.028	   -11.011
    59.734	    15.976	     0.953
    60.216	    17.008	   -16.730
    52.712	    43.545	   -13.903
    64.175	    44.266	    -3.371
    49.864	    44.110	    -3.715
    57.543	    38.694	    16.972
    53.313	    44.850	     1.838
    62.935	    49.068	   -19.155
    61.738	    36.790	   -26.942
    68.385	    28.794	    -3.539
    44.255	    15.477	    15.575
    71.621	     8.587	   -13.063
    63.866	    30.759	   -14.363
    47.468	    33.764	    12.013
    64.010	    30.724	    11.995
    47.752	    35.723	    16.963
    52.613	    43.390	    -8.060
    51.941	    54.982	     5.559
    43.768	    43.376	     6.413
    68.079	    27.407	   -12.585
    65.217	    29.471	     4.668
    51.953	    36.427	    -0.786
    61.845	    42.666	   -14.379
    51.635	    37.983	     6.025
    55.839	    38.467	   -14.057
    67.989	    39.624	   -14.747
    62.509	    11.562	    -6.267
    48.849	    49.944	    -1.141
    57.474	    24.285	    -0.683
    66.407	    17.941	    11.506
    59.467	    51.222	   -12.263
    59.208	    36.291	    -8.426
    52.812	    57.681	     7.853
    66.734	    57.451	    -1.122
    62.368	    62.091	     7.799
    78.057	    27.562	    10.196
    55.133	    30.804	     2.678
    56.428	    28.327	    -1.120
    64.187	    41.803	   -16.896
    70.095	    25.923	   -10.021
    58.810	    42.446	     2.135
    62.879	    17.694	    12.453
    52.615	    42.298	    -7.870
    55.244	    39.925	   -17.978
    46.369	    47.742	    -3.232
    67.225	    28.480	    -5.902
    51.081	    35.537	     9.398
    58.113	    29.497	     2.687
    60.228	    40.579	   -13.670
    52.427	    53.202	    -2.640
    58.896	    44.442	    12.278
    54.403	    32.138	    -9.491
    63.395	    36.756	    -7.889
    43.944	    48.820	     2.503
    58.172	    44.689	    -7.618
    61.853	    24.704	     5.068
    55.405	    38.470	   -10.576
    58.669	    34.136	    -5.585
    71.203	    54.914	   -16.013
    64.809	    41.208	    -3.786
    60.248	    29.049	   -19.985
    63.957	    33.080	   -15.888
    48.926	    34.846	    20.172
    53.500	    29.537	   -15.737
    66.036	    25.649	   -12.717
    52.282	    24.080	    -5.616
    61.176	    22.260	    -2.262
    55.480	    31.588	     2.395
    67.328	    49.924	    -1.343
    53.344	    27.700	     8.870
    70.091	    55.590	    -0.559
    65.839	    34.468	     0.397
    47.481	    39.257	    -0.649
    54.615	    24.602	    -7.223
    59.157	    26.823	   -14.423
    57.171	    20.948	   -10.261
    45.706	    43.150	     0.953
    66.162	    42.334	    -6.235
    52.703	    36.957	    -6.129
    49.707	    46.559	    12.147
    56.881	    45.454	   -15.004
    54.798	    37.351	    -4.790
    47.204	    37.451	    -3.485
    52.641	    44.801	    -8.518
    39.065	    44.958	   -26.920
    55.457	    49.409	    -3.640
    47.188	    52.245	    -2.024
    69.636	    29.867	   -15.070
    53.110	    43.065	    13.667
    53.891	    29.278	    -6.001
    47.209	    49.409	   -11.876
    64.455	    24.166	    -4.057
    49.632	    34.276	    12.952
    62.486	    32.281	   -14.919
    54.789	    42.655	    -5.164
    65.175	    31.450	    14.446
    56.348	    45.854	     0.763
    63.492	    36.335	    12.892
    68.363	    31.822	    12.766
    55.662	    26.188	    10.793
    54.554	    48.280	    -2.322
    66.640	    12.630	     2.002
    44.912	    28.858	    -5.885
    61.797	    43.531	   -13.000
    55.064	    30.597	   -10.944
    55.151	    33.782	    -8.728
    65.106	    29.735	    -5.248
    55.221	    38.783	    11.335
    62.548	    34.176	    -4.623
    61.865	    29.522	    14.436
    52.742	    28.786	    -7.080
    58.341	    22.233	   -17.273
    57.965	    40.378	     7.135
    67.554	    28.358	   -17.187
    52.400	    41.686	     5.765
    61.808	    21.869	    -5.516
    48.886	    36.523	     4.165
    60.338	    37.420	   -20.915
    51.876	    47.274	     5.945
    59.162	    36.164	    11.224
    66.905	    38.295	    -7.750
    52.392	    50.111	    10.178
    58.548	    31.584	    -1.994
    52.261	    46.723	     0.450
    59.796	    37.519	   -19.594
    50.034	    22.999	     3.860
    65.562	    16.198	    -3.728
    58.212	    50.731	     1.170
    53.588	    30.341	    22.182
    51.439	    35.677	    -4.395
    45.583	    32.769	     5.976
    66.309	    51.732	     2.231
    59.991	    52.433	   -18.116
    61.198	    30.048	    -0.341
    46.651	    29.182	   -14.983
    60.898	    36.513	   -12.588
    53.505	    21.641	     0.049
    64.401	    16.442	   -10.688
    57.298	    49.615	    -8.771
    56.190	    22.632	   -21.327
    58.665	    51.472	    -8.909
    43.483	    37.803	    -9.752
    67.346	    46.658	     0.633
    64.313	    41.522	     2.564
    73.411	    37.511	    10.687
    45.986	    42.141	    -1.115
    55.518	    31.004	    -6.987
    53.706	    32.618	     9.717
    59.674	    31.706	    -6.514
    67.030	    41.133	    -7.814
    58.389	    25.201	     7.265
    51.612	    39.637	     9.275
    55.501	    29.571	     8.172
    72.718	    27.199	    -0.462
    53.702	    46.925	   -12.538
    58.051	    34.709	    -9.781
    57.492	    16.514	    -6.495
    61.152	    17.559	   -10.394
    63.475	    25.879	     8.524
    44.891	    27.897	     2.584
    60.076	    21.574	    -2.629
    57.558	    30.406	     0.315
    63.230	    32.808	    -3.366
    60.105	    52.365	     5.350
    58.942	    35.557	    -5.918
    63.677	    32.990	   -11.509
    45.028	    42.436	    -3.744
    56.113	    41.869	    -6.351
    59.234	    42.620	    -6.727
    56.052	    28.017	    -1.789
    58.251	    38.771	   -22.616
    55.070	    31.827	    15.248
    60.071	    43.878	    -7.825
    65.039	    35.637	   -20.629
    56.096	    45.018	   -12.565
    54.030	    35.618	    -0.019
    42.969	    35.276	     7.452
    53.620	    38.502	    -7.903
    44.290	    46.220	   -11.631
    63.880	    34.287	   -16.977
    53.407	    39.639	   -30.365
    57.781	    52.339	     9.690
    66.013	    31.542	    -9.619
    60.676	    11.503	   -10.951
    57.498	    49.624	     3.165
    56.904	    44.434	     7.225
    50.701	    38.751	    -6.683
    60.501	    42.464	     4.416
    76.033	    44.309	    -1.426
    60.460	    57.893	    -3.151
    56.371	    24.342	     2.006
    40.128	    44.399	   -10.832
    62.018	    20.768	    -3.103
    60.028	    50.341	    -0.684
    46.908	    32.268	     4.975
    63.019	    41.892	   -11.751
    43.836	    31.100	    -9.737
    63.937	    26.867	     1.433
    50.480	    41.430	     8.350
    58.752	    43.724	     2.237
    59.710	    25.167	     1.224
    44.084	    48.209	     4.455
    48.785	    46.114	   -10.951
    63.436	    50.067	     0.290
    68.962	    37.668	    -7.300
    62.063	    18.505	   -21.365
    54.107	    28.292	     0.762
    51.936	    16.143	     9.930
    59.770	    46.481	   -10.240
    57.183	    31.672	     4.941
    59.124	    47.609	    -5.477
    65.596	    16.492	     1.416
    57.867	    21.911	   -14.538
    60.003	    14.207	     4.365
    53.528	    31.768	   -12.171
    51.291	    35.089	    -1.910
    61.240	    16.735	    -5.823
    60.527	    19.325	   -10.430
    58.806	    12.783	    14.184
    50.173	    27.376	    -6.551
    55.070	    17.763	    13.342
    72.840	     8.158	   -20.565
    54.070	    32.498	     5.838
    62.386	    34.626	    -2.331
    68.502	    12.668	   -13.857
    54.705	    28.422	     7.731
    52.814	    29.855	    -1.740
    52.764	    37.267	    -9.368
    62.999	    45.288	    -3.509
    53.329	    31.953	   -20.137
    60.860	    37.008	   -16.301
    51.400	    41.161	   -10.601
    69.216	    38.706	    -6.705
    49.648	    23.259	    -5.533
    58.457	    31.811	   -14.298
    60.975	    25.071	   -10.159
    47.478	    39.747	    -0.099
    61.493	    41.132	     8.372
    61.802	    35.950	   -16.459
    37.208	    56.394	     5.715
    70.065	    25.700	   -26.973
    55.698	    20.796	     6.894
    61.377	    29.997	   -16.782
    51.694	    30.342	     0.066
    67.386	    40.866	     5.903
    45.091	    31.219	    -8.066
    56.234	    41.534	     0.821
    54.160	    39.498	    -0.059
    57.701	    31.130	    -8.648
    61.519	    23.960	    -7.930
    58.322	    26.168	     0.840
    56.951	    45.011	    17.208
    55.208	    50.070	     6.827
    56.896	    52.370	     6.320
    58.657	    60.706	    18.297
    59.798	    33.190	     5.899
    51.201	    42.065	    -2.705
    49.196	    42.138	     5.486
    50.716	    26.601	     2.483
    65.763	    15.283	   -12.835
    46.413	    41.533	     3.814
    54.293	    42.313	   -19.837
    44.920	    54.349	    -7.453
    60.212	    26.411	    -6.939
    53.616	    15.008	    -0.388
    58.350	    36.928	    14.515
    50.623	    44.078	    24.018
    51.750	    40.767	    -6.227
    53.034	    37.081	    -7.679
    42.249	    42.545	     3.248
    46.835	    36.645	    17.106
    66.196	    44.109	   -23.013
    64.048	    30.810	   -13.167
    73.733	    35.024	    -7.997
    58.823	    32.521	    -5.992
    50.595	    36.707	     0.941
    47.433	    42.889	     4.467
    64.415	    23.274	    -3.148
    64.639	    31.509	     1.783
    62.141	    18.682	    -3.903
    53.995	    33.804	    -6.935
    44.744	    26.757	     1.901
    58.546	    30.440	     2.065
    43.390	    38.496	    10.213
    45.962	    51.810	   -15.881
    47.272	    55.866	    -1.509
    50.049	    12.256	    -0.890
    54.076	    33.949	     0.736
    70.951	    39.576	    -7.149
    65.492	    42.590	     0.188
    58.563	    34.501	    -0.447
    64.527	    43.770	   -11.593
    60.581	    37.711	     0.261
    70.747	    45.603	   -17.967
    48.396	    66.383	    -0.409
    51.393	    44.436	    -8.750
    49.439	    34.132	     3.494
    64.768	    30.002	   -10.630
    58.589	    28.486	     2.311
    49.344	    31.953	    10.901
    51.513	    24.530	     2.723
    56.384	    37.381	    -8.136
    54.793	    24.594	    -2.343
    60.389	    29.296	    -0.467
    67.210	    24.311	    -5.866
    61.585	    32.663	    19.070
    66.637	    27.399	   -20.109
    46.864	    52.800	     7.165
    62.829	    35.282	    -8.542
    48.577	    33.116	    -0.022
    56.824	    33.237	   -17.619
    58.445	    42.280	    -7.925
    51.935	    36.204	    -4.763
    59.903	    35.467	    -5.185
    42.449	    39.457	     4.676
    56.388	    35.243	    -0.636
    59.508	    38.417	     7.527
    61.159	    10.394	    -6.170
    55.094	    39.701	   -19.061
    55.543	    16.793	    -6.590
    52.111	    35.383	    -4.445
    49.966	    47.227	    -1.601
    45.634	    53.391	     1.439
    53.774	    26.746	     2.152
    47.746	    41.387	     5.159
    80.794	    32.679	    -1.886
    44.441	    50.609	    26.647
    42.667	    29.702	     9.926
    56.081	    28.418	   -10.345
    63.426	    26.789	    -4.272
    70.507	    24.141	   -13.084
    65.276	    42.516	     4.926
    62.418	    57.349	     8.276
    56.197	    39.598	     3.460
    58.899	    40.094	     0.309
    72.256	    29.221	    -1.653
    64.784	    20.268	    -0.174
    60.797	    26.581	   -16.711
    56.072	    29.533	    -1.176
    63.337	    44.834	     7.351
    52.361	    17.744	    -3.698
    44.424	    30.665	    13.222
    49.183	    44.828	   -13.682
    56.982	    51.092	   -16.584
    44.643	    35.031	    -0.203
    63.343	    11.012	    -5.134
    51.639	    28.987	    -7.490
    63.197	    31.873	    -1.419
    61.999	    29.109	   -25.308
    66.454	    42.635	    -6.389
    62.078	    11.739	     0.780
    49.498	    29.306	   -10.220
    51.393	    42.359	    -1.460
    57.206	    23.361	     1.218
    57.624	    17.770	    11.329
    56.268	    35.121	     2.137
    61.559	    36.007	    -8.766
    62.898	    33.985	    -1.975
    51.498	    40.423	    -3.197
    63.263	    40.040	     1.430
    61.933	    42.166	     1.627
    52.682	    39.685	     8.411
    53.670	    26.644	    -1.619
    68.116	    28.330	    -2.167
    51.783	    37.340	    -2.057
    51.642	    61.526	    -5.180
    63.297	    18.834	   -11.289
    61.129	    27.327	     2.325
    54.713	    53.934	     2.751
    58.923	    55.996	   -15.633
    56.268	    34.766	   -14.608
    61.383	    40.193	    -1.547
    59.041	    45.294	   -20.257
    57.135	    21.336	     5.925
    52.677	    32.738	    -2.207
    62.476	    38.372	    -0.884
    66.482	    40.322	    -4.610
    66.599	    34.652	    -6.628
    59.120	    40.040	    11.496
    55.162	    33.551	     7.365
    58.377	    58.761	    -4.594
    50.396	    42.377	    -4.300
    61.947	    46.749	     0.445
    61.915	    34.473	   -30.660
    52.356	    42.318	    -5.462
    49.279	    48.213	    -0.366
    48.810	    43.110	     7.115
    50.343	    32.061	     5.180
    56.910	    39.380	    -6.969
    53.352	    41.423	    14.773
    65.510	    28.630	     0.225
    57.425	    11.243	   -10.546
    61.450	    30.535	     7.224
    57.477	    34.955	    -5.936
    61.386	    42.294	    -3.728
    47.438	    43.497	     1.729
    61.906	    39.093	    -3.174
    47.758	    26.684	    17.428
    51.670	    47.540	    23.496
    68.084	    37.175	   -18.822
    55.923	    58.942	    -4.774
    58.482	    25.050	    -6.795
    53.168	    38.071	    -2.409
    48.912	    51.426	     2.033
    60.696	    30.165	    -4.411
    59.933	    35.465	     3.049
    49.413	    58.253	    15.906
    63.492	    46.340	    -0.289
    57.035	    33.392	     1.314
    62.466	    32.530	   -19.303
    61.996	    21.413	     1.314
    49.599	    46.447	     1.165
    63.996	    34.777	     4.088
    62.205	    37.756	    -0.007
    55.379	    41.728	     8.243
    55.567	    31.479	     2.225
    55.901	    22.509	    12.578
    59.518	    16.043	   -16.811
    52.178	    33.734	    -4.203
    65.599	    24.847	   -19.084
    61.478	    21.007	   -10.439
    43.793	    35.549	    -1.358
    56.600	    37.916	    -4.911
    57.686	    29.153	    14.694
    66.888	    33.518	     7.152
    46.846	    39.664	    -2.847
    53.400	    35.725	    11.835
    62.038	    29.966	    -9.318
    42.821	    31.192	    11.131
    50.515	    28.712	   -22.183
    50.124	    43.496	    -0.960
    62.794	    25.609	    -9.114
    41.653	    52.132	     8.929
    48.970	    17.217	     1.821
    66.707	    22.913	     1.686
    56.886	    33.402	    -8.437
    51.098	    25.685	     4.435
    55.046	    23.557	    14.609
    53.207	    46.943	     2.336
    67.092	    34.406	    -3.819
    55.220	    31.525	    17.580
    52.939	    23.149	     5.694
    51.579	    30.413	     1.734
    59.579	    19.390	    -5.700
    58.556	    19.253	    -0.221
    52.179	    40.739	    -4.025
    51.305	    34.314	     6.341
    65.665	    45.435	     3.352
    54.286	    33.196	   -15.935
    57.751	     6.477	     0.247
    58.275	    35.922	   -11.426
    73.009	    19.499	     2.487
    53.147	    29.716	    -7.881
    61.918	    32.771	    -5.271
    74.964	    42.015	   -23.959
    53.463	    42.293	     1.815
    64.749	    27.606	    -6.796
    62.126	    41.902	   -10.666
    55.010	    24.892	   -16.428
    54.844	    51.604	   -13.112
    49.687	    53.864	    -4.127
    55.630	    33.567	   -13.303
    37.338	    36.006	     9.742
    65.881	    22.394	   -14.209
    50.832	    27.314	    12.177
    57.357	    46.686	     8.932
    53.403	    32.260	     3.828
    62.145	    43.994	   -17.263
    48.992	    37.072	    11.153
    52.983	    38.041	    -3.971
    47.805	    40.781	     6.077
    49.621	    49.192	   -21.158
    59.385	    28.884	     8.519
    66.381	    24.788	     4.874
    60.620	    51.590	   -26.141
    45.922	    37.067	    -4.941
    57.664	    31.495	    -0.470
    52.689	    31.245	    -9.978
    71.046	    33.329	   -10.947
    61.272	    33.083	     6.340
    56.816	    37.194	     7.081
    62.860	    36.742	     3.600
    78.328	    11.576	    -4.178
    45.043	    30.241	    -2.232
    40.424	    43.672	     6.746
    51.439	    38.905	    12.868
    59.142	    44.303	    -2.398
    41.314	    42.727	     7.265
    64.386	    42.044	   -13.608
    54.606	    39.838	    -8.135
    43.882	    27.021	   -13.447
    41.913	    30.454	     6.098
    59.281	    40.340	    -4.096
    66.006	    42.318	   -15.661
    49.806	    59.507	    -4.073
    66.842	    17.401	    10.550
    54.619	    39.816	    -3.656
    59.246	    45.024	    -3.170
    56.490	    42.784	     3.163
    60.030	    51.409	    -5.407
    60.347	    38.344	     3.436
    61.847	    17.496	     7.697
    56.744	    36.538	    -9.915
    50.877	    37.437	     2.015
    60.738	    42.728	   -18.784
    70.475	    13.525	     0.727
    58.831	    38.429	   -11.115
    61.182	    40.112	     5.125
    59.686	    28.592	     2.894
    48.310	    33.979	     2.914
    68.282	    21.149	    -7.637
    54.201	    34.629	     1.582
    57.526	    21.787	   -22.740
    42.721	    56.694	    -8.407
    56.854	    29.093	   -11.867
    50.215	    39.918	     1.817
    50.354	    38.657	    18.522
    57.067	    27.671	     2.095
    57.688	    41.977	    -0.131
    56.918	    31.233	    -1.538
    57.582	    26.261	    -5.019
    45.455	    49.749	    13.927
    59.885	    45.323	   -21.936
    54.401	    50.350	     2.444
    49.404	    40.375	     5.744
    62.817	    30.522	     0.292
    57.163	    43.885	    -3.006
    54.121	    34.730	    -2.304
    69.658	    32.226	    -9.219
    55.369	    38.948	    10.450
    62.377	    44.030	    -2.854
    52.875	    37.081	     3.943
    57.347	    39.536	   -13.092
    48.129	    46.352	    -0.410
    67.290	    46.831	    -4.418
    51.475	    43.394	    -4.383
    52.762	    34.142	    -4.112
    49.592	    62.814	     3.520
    51.136	    40.413	     3.696
    56.440	    25.546	    -0.047
    62.656	    57.136	   -17.154
    51.153	    37.477	    21.279
    59.643	    17.581	     7.920
    70.548	    39.483	     6.798
    47.064	    43.700	     8.597
    58.351	    32.305	   -20.456
    62.023	    38.498	   -20.803
    61.363	    50.538	     2.181
    42.346	    35.534	    28.681
    64.647	    36.139	     0.950
    62.137	    34.462	    -4.481
    55.177	    28.144	   -21.906
    63.289	    32.921	    -9.673
    64.723	    28.619	     5.670
    53.723	    29.091	    -2.116
    60.832	    35.522	     0.544
    66.425	    32.363	    -4.597
    66.568	    42.114	   -13.076
    64.081	    35.000	    -5.969
    60.839	    41.189	   -12.400
    62.460	    31.291	    -9.076
    56.699	    50.090	     3.193
    64.674	    39.832	    -2.737
    60.566	    37.077	     6.539
    47.099	    50.166	     1.258
    58.872	    37.944	     2.365
    64.764	    49.962	     1.442
    61.407	    40.911	     8.621
    52.707	    35.189	     8.267
    46.624	    55.587	     4.046
    58.671	    33.002	    10.584
    49.772	    44.323	    -0.331
    63.739	    48.639	    16.169
    54.874	    26.535	    -0.722
    61.867	    26.245	   -11.337
    59.215	    39.152	    -5.694
    61.605	    44.824	     6.817
    60.422	    15.786	    16.442
    46.981	    46.079	    -3.462
    52.385	    38.660	    -4.455
    56.163	    47.383	    -1.136
    57.547	    54.476	     7.927
    39.691	    33.105	    13.726
    65.557	    34.476	     3.058
    66.752	    25.261	   -20.230
    50.444	    53.270	    -9.036
    55.755	    64.235	    -7.452
    60.218	    27.911	   -13.550
    56.591	    17.250	    -1.623
    62.228	    14.006	   -10.018
    53.867	    48.681	     4.535
    53.706	    48.197	    -7.276
    43.719	    34.400	    19.017
    41.966	    44.360	     7.016
    68.725	    22.845	     2.612
    60.256	    17.469	    -2.115
    63.121	    43.183	     8.034
    70.402	    18.262	   -16.271
    55.636	    20.003	   -19.383
    40.960	    38.863	     2.881
    59.565	    32.934	   -15.319
    62.800	    32.935	   -24.890
    68.944	    24.936	    -0.095
    50.908	    38.869	     5.550
    56.964	    37.950	     6.199
    62.134	    27.886	     2.404
    74.249	    41.152	    -5.959
    52.042	    58.189	   -14.553
    49.894	    43.102	    -9.581
    67.894	    28.822	   -20.050
    58.757	    32.154	     4.877
    65.728	    21.794	    -3.420
    45.675	    26.110	    -9.080
    53.668	    33.946	     4.264
    64.828	    23.058	   -12.658
    58.359	    40.378	     0.713
    56.682	    30.332	     3.981
    42.738	    56.934	    -9.927
    46.542	    43.916	     9.799
    52.910	    46.796	     2.465
    58.250	    16.328	     7.063
    56.220	    38.588	     2.076
    44.993	    42.977	    16.147
    55.146	    33.378	     9.363
    51.245	    51.059	    -0.288
    58.034	    39.784	     8.716
    61.131	    35.491	   -13.704
    54.373	    47.951	    -5.538
    65.727	    48.274	     5.485
    42.233	    31.873	     3.320
    64.142	    27.756	    -3.062
    62.050	    43.650	    10.458
    43.498	    47.576	   -12.758
    55.266	    36.736	     1.197
    47.722	    37.505	     2.303
    59.570	    33.004	     4.800
    47.044	    43.107	     6.955
    53.440	    23.266	    16.979
    55.311	    28.144	    -1.418
    60.698	    25.738	   -12.418
    45.951	    35.547	   -10.639
    59.458	    42.989	    -0.378
    53.397	    36.537	   -11.552
    55.267	    21.331	     1.343
    60.174	    46.340	    11.562
    53.753	    38.412	    12.918
    54.194	    44.487	     2.716
    50.008	    30.844	    11.946
    61.824	     6.585	     4.808
    56.019	    19.279	     6.673
    54.836	    43.006	   -11.197
    55.864	    25.746	     0.283
    58.983	    30.468	     1.814
    61.291	    22.578	   -13.216
    59.528	    35.060	     4.370
    54.695	    22.123	    -0.164
    61.168	    40.549	     0.668
    71.868	    21.730	     3.560
    57.123	    22.772	    21.766
    39.583	    52.232	   -17.730
    56.164	    20.981	     0.907
    60.971	    50.766	   -21.210
    65.674	    12.216	   -11.871
    50.087	    38.529	    -8.579
    56.687	    24.875	   -14.560
    65.534	    31.077	    12.733
    54.047	    43.132	   -11.292
    56.151	    22.296	    -0.358
    62.748	    35.995	    -8.089
    61.499	    48.329	   -16.611
    55.221	    46.868	     4.960
    61.418	    26.494	    -7.092
    78.418	    30.387	     1.679
    59.595	    77.474	     4.479
    62.106	    41.263	    -3.196
    60.893	    50.999	     3.951
    58.688	    28.954	    13.890
    43.789	    52.837	    14.629
    57.706	    30.885	   -18.190
    49.937	    46.558	     2.550
    44.648	    48.231	     5.584
    59.911	    33.397	    -2.459
    51.267	    11.074	     6.019
    47.071	    43.893	     7.242
    56.483	    40.214	   -15.119
    65.489	    46.761	    -0.168
    52.883	    45.409	   -18.779
    59.286	    48.935	   -13.969
    57.502	    37.536	    -2.311
    68.546	    32.256	    -6.146
    66.865	    47.613	    -1.846
    54.557	    42.847	    27.016
    71.492	    34.819	     9.238
    71.242	    44.592	     2.561
    48.834	    45.843	     0.999
    55.819	    37.627	    23.221
    53.584	    45.779	     2.709
    62.866	    20.446	     5.567
    48.294	    43.150	   -10.704
    57.298	     9.189	    -3.732
    50.119	    27.712	    -5.241
    66.030	    28.445	   -19.952
    52.430	    31.868	     8.640
    59.938	    18.931	    -3.178
    55.601	    39.438	     1.538
    60.253	    38.367	    -9.948
    58.824	    38.440	     6.821
    55.802	    26.315	     4.972
    54.815	    23.478	    -7.158
    61.750	    44.139	     5.093
    61.269	    36.839	     8.003
    70.586	    29.399	    -7.836
    47.299	    44.686	    -2.423
    57.196	    33.338	   -14.186
    61.723	    19.329	     9.103
    57.196	    35.466	     6.908
    58.355	    29.582	    -6.508
    60.671	    51.912	   -15.986
    55.014	    37.167	     4.817
    61.429	    37.486	    -5.218
    55.875	    37.876	     9.530
    72.900	    20.204	    -6.066
    63.179	    47.697	     6.739
    68.915	    43.116	   -20.099
    48.336	    43.968	    11.644
    59.184	    40.365	    14.499
    55.616	    48.936	    -2.690
    59.495	    20.480	     1.188
    62.879	    46.738	    -2.579
    64.850	    10.118	     9.212
    70.209	    36.374	     4.209
    65.815	    31.537	    -8.138
    40.886	    41.952	    -4.584
    66.972	    34.573	    -8.889
    58.464	    44.761	    -7.480
    46.734	    30.547	     2.524
    55.808	    33.595	    -5.888
    49.821	    46.217	     0.550
    64.207	    43.771	   -17.050
    58.468	    43.796	   -12.986
    59.403	    35.367	    -5.026
    70.814	     7.749	    -8.219
    50.026	    27.858	     8.504
    47.684	    33.994	    19.643
    48.919	    40.267	    14.651
    57.187	    34.053	    11.957
    53.848	    43.789	   -14.114
    62.926	    28.674	   -13.287
