   -92.310	   122.143	    -3.179
   -60.786	     4.536	     0.560
   -37.726	   -16.088	   -18.257
   -29.675	   -20.683	    -8.703
   -45.479	    -3.028	   -11.670
   -41.029	   -24.549	    13.979
   -51.330	   -18.362	    11.257
   -38.910	   -16.640	   -13.426
   -56.330	     8.388	   -14.455
   -48.100	   -10.743	    -7.069
   -46.335	    -5.180	     1.255
   -50.657	   -13.049	    -3.602
   -40.882	   -11.004	     0.238
   -51.906	   -11.901	    -3.962
   -50.206	    20.228	    -8.389
   -48.287	   -26.981	    -7.380
   -54.190	   -16.343	     6.855
   -40.979	   -12.352	   -14.314
   -52.541	     5.797	   -11.603
   -41.477	   -16.924	   -28.551
   -51.612	    21.825	   -15.918
   -35.024	   -11.755	    -2.881
   -23.212	   -24.540	   -31.330
   -47.532	   -16.814	    -9.935
   -27.726	   -34.508	    -5.104
   -51.648	   -11.443	    -9.825
   -39.895	    11.063	   -12.068
   -33.674	   -23.947	     1.655
   -27.075	   -15.707	    -9.277
   -51.955	   -24.722	     3.181
   -41.499	   -13.731	   -16.255
   -56.221	   -10.315	    -1.513
   -52.427	   -19.863	     4.117
   -51.793	   -24.174	     5.401
   -49.451	    -8.204	    -2.214
   -56.849	   -21.669	     7.698
   -51.179	   -18.062	     1.030
   -45.684	   -17.626	   -10.510
   -49.278	    -1.129	    -4.751
   -40.943	   -13.369	   -10.103
   -42.265	   -12.836	    -5.348
   -46.114	    -0.664	   -11.025
   -43.736	   -11.355	    -6.447
   -48.692	   -13.496	   -11.970
   -31.294	   -16.017	    -8.242
   -49.628	   -13.868	   -12.024
   -42.394	    -4.837	     3.534
   -48.189	     6.630	   -11.148
   -43.658	     9.321	    -3.318
   -46.948	   -22.765	    -5.899
   -47.745	   -18.630	    -0.855
   -38.925	   -17.361	   -18.357
   -37.921	   -11.879	   -16.182
   -49.695	   -14.555	    -5.666
   -43.436	   -19.565	    -9.815
   -29.149	   -16.385	   -12.710
   -19.414	   -16.538	   -17.061
   -29.358	   -11.121	    -9.665
   -44.746	   -26.521	    10.593
   -39.359	     4.504	   -13.313
   -39.691	   -27.030	   -14.032
   -34.298	   -17.972	   -17.041
   -49.679	   -15.959	     2.785
   -35.735	   -16.216	     6.067
   -56.678	   -14.163	    -1.897
   -39.867	   -11.831	   -16.021
   -39.757	   -23.929	   -10.408
   -46.338	   -21.483	    -8.910
   -53.326	     7.188	    -9.165
   -48.259	   -15.628	   -24.101
   -37.251	   -13.219	    -6.429
   -32.662	    -2.078	    -0.584
   -51.516	   -12.859	    -6.452
   -44.612	    -6.223	    -3.812
   -41.009	   -16.018	    -2.320
   -46.221	   -15.060	    -1.450
   -42.894	   -11.199	    14.937
   -50.598	   -15.193	    -7.387
   -39.993	   -12.698	   -15.526
   -42.402	   -13.767	   -12.023
   -45.674	    -6.096	    -9.453
   -50.498	     7.401	    -9.607
   -38.913	   -19.400	    -1.420
   -27.973	   -37.519	     0.451
   -26.895	   -12.054	    -8.020
   -39.702	   -21.879	   -11.296
   -52.358	    -9.569	     8.803
   -32.667	   -15.265	   -11.307
   -30.065	   -10.188	   -12.886
   -55.224	    -7.787	     1.480
   -47.445	   -20.125	   -12.639
   -44.727	    -2.132	    -0.070
   -43.101	    -7.104	   -15.692
   -51.062	     4.602	   -12.662
   -52.548	     6.975	    -6.226
   -26.949	   -15.389	     5.557
   -21.454	    -5.119	   -25.027
   -43.424	    11.857	   -11.701
   -45.247	    -8.398	    12.245
   -37.729	   -15.826	    -8.871
   -29.645	   -15.910	    -1.451
   -20.931	    -5.233	   -19.944
   -31.704	   -26.632	    -7.732
   -40.455	   -34.457	    -1.272
   -43.189	    -7.617	    -2.749
   -49.856	   -16.100	    -9.545
   -42.962	   -19.579	    -5.620
   -24.717	   -11.338	     2.880
   -50.968	     1.135	     5.703
   -44.876	    -6.136	     4.657
   -36.902	    -1.232	    -8.360
   -39.697	    -4.790	    -8.302
   -39.815	    -3.437	    -9.630
   -28.087	   -14.088	    -3.827
   -31.326	    -6.730	    -0.297
   -36.059	   -10.638	    -8.671
   -51.946	    -0.008	     3.796
   -28.208	     7.995	     2.406
   -44.752	   -34.170	     2.206
   -49.411	   -19.141	     1.122
   -47.958	   -19.091	     3.631
   -40.613	   -14.320	    -8.996
   -47.465	    -9.543	     1.479
   -28.437	    -8.667	   -12.637
   -45.204	     4.623	   -17.915
   -42.140	   -31.559	   -12.712
   -42.706	   -12.221	    -5.478
   -47.704	   -24.492	   -13.846
   -34.835	   -14.218	    -8.789
   -36.384	   -16.078	     7.200
   -34.186	    -9.764	     4.765
   -50.532	    -2.306	   -10.454
   -45.575	     1.367	    -9.641
   -18.603	    -7.918	   -16.545
   -52.710	   -13.396	     5.094
   -26.282	   -19.658	   -12.319
   -49.987	     6.317	    -4.821
   -45.957	     1.549	     7.429
   -57.635	     2.307	    -9.044
   -46.498	     5.181	   -11.269
   -29.920	     5.298	   -27.020
   -45.162	     7.641	    -0.990
   -30.220	   -14.644	   -10.093
   -57.455	    -5.742	    -4.956
   -68.352	     1.491	   -10.364
   -43.961	    13.641	   -13.901
   -24.809	     0.820	   -26.575
   -46.971	     4.353	   -10.889
   -48.070	    15.311	    -3.633
   -41.663	    -4.968	    -5.260
   -46.163	   -12.581	   -13.865
   -29.184	    -5.650	   -22.519
   -39.408	    -3.433	     3.567
   -58.267	    21.751	    -5.056
   -26.727	    12.030	   -11.459
   -41.147	    17.431	     4.772
   -62.242	    25.127	    -6.481
   -50.733	    12.457	   -17.178
   -56.620	   -23.763	     4.011
   -48.715	   -17.857	     3.631
   -44.980	     3.982	   -21.302
   -21.937	   -15.024	     1.929
   -37.120	     3.882	   -14.736
   -29.799	   -30.508	    -6.201
   -32.069	   -12.786	    -4.420
   -56.045	    -7.854	    -0.477
   -52.435	   -16.831	    -3.516
   -48.380	   -39.747	    -7.282
   -31.946	   -24.839	   -17.803
   -41.421	   -35.076	    -7.083
   -45.516	   -23.852	   -12.798
   -31.625	   -17.226	   -20.712
   -51.603	    -1.853	   -16.333
   -46.203	    -1.808	    -2.194
   -22.858	   -27.440	    -4.772
   -50.730	    -2.828	   -12.073
   -32.299	   -19.006	    -8.260
   -51.847	   -11.465	    -4.289
   -44.044	   -27.866	    -5.065
   -41.623	   -29.456	    10.825
   -33.822	   -17.676	    -1.096
   -51.172	   -13.923	    -2.258
   -43.515	     1.387	    -5.153
   -51.733	   -11.591	   -11.041
   -25.571	    -2.134	   -22.890
   -47.375	   -14.791	    -6.009
   -53.611	   -15.042	   -13.053
   -46.076	   -24.506	    -4.117
   -45.755	    -2.754	     7.613
   -34.452	   -48.049	     2.623
   -29.118	   -25.612	   -21.209
   -47.904	   -17.177	   -10.000
   -43.429	   -15.349	     1.717
   -39.262	   -27.069	    -8.305
   -59.435	     0.728	    -7.079
   -51.411	    -8.806	    -8.613
   -18.350	   -35.908	   -22.185
   -31.622	   -28.300	    -7.818
   -53.004	   -11.907	     2.353
   -39.481	   -15.535	    -7.911
   -38.246	   -23.358	    -5.471
   -44.104	     4.553	   -11.004
   -40.665	   -17.185	    -7.437
   -57.784	   -13.621	    -3.515
   -34.407	    -7.830	   -26.894
   -41.253	   -20.917	   -27.445
   -20.024	   -30.885	   -11.315
   -37.311	    -2.641	    -0.124
   -52.263	   -17.935	    -6.665
   -41.190	   -27.292	     3.032
   -45.344	   -17.186	    -8.595
   -41.503	   -28.791	    -9.371
   -43.762	    -6.592	   -19.675
   -59.387	     2.761	    -0.449
   -56.828	    -5.774	    -5.547
   -49.950	   -14.591	    11.571
   -50.171	   -12.169	    -6.135
   -42.489	   -22.622	    -3.126
   -41.427	   -24.577	    -8.711
   -43.431	    -2.169	   -20.886
   -59.519	     9.451	    -5.309
   -34.034	   -14.256	   -21.212
   -63.254	   -10.290	    -0.795
   -56.621	     6.687	    -3.174
   -56.266	    -5.582	    -1.781
   -51.271	   -14.737	    11.859
   -57.940	    -2.820	    -0.040
   -51.841	    -0.249	    -4.237
   -40.960	   -10.659	    -0.679
   -42.840	   -24.690	   -16.498
   -60.547	    -1.153	    -8.227
   -33.785	   -33.547	     0.479
   -33.792	   -30.187	   -23.760
   -46.476	    -2.791	    12.239
   -58.403	     1.786	    15.261
   -60.852	   -22.090	    -4.628
   -50.319	    -0.701	     2.044
   -43.200	   -21.363	    -1.797
   -53.107	     3.210	    -4.066
   -15.248	   -17.472	   -17.181
   -49.255	     7.956	    12.513
   -33.195	   -19.322	   -12.286
   -54.596	   -18.618	   -26.692
   -49.475	    -1.683	    10.179
   -43.746	    17.050	     0.330
   -48.613	   -26.871	    17.594
   -40.518	   -28.945	   -12.124
   -55.240	   -16.181	    -2.073
   -41.209	   -23.858	    -3.024
   -52.651	     9.234	    -8.569
   -40.869	   -15.035	    -3.509
   -51.046	   -12.445	    -7.420
   -31.878	   -18.919	     3.693
   -49.889	   -16.862	    -3.975
   -52.545	     1.736	    -4.714
   -43.136	   -20.372	    -6.027
   -38.979	   -19.612	   -12.096
   -15.356	   -16.244	   -16.706
   -41.366	   -35.509	    -4.861
   -47.626	   -10.718	    -8.569
   -29.233	    -5.006	   -25.753
   -36.839	   -13.359	    -5.720
   -50.296	   -19.477	    -6.559
   -30.200	   -15.836	     3.711
   -34.174	    19.873	     4.280
   -36.469	   -13.495	   -25.703
   -19.609	    -8.805	   -16.139
   -56.639	   -13.504	   -16.189
   -42.360	   -10.241	   -22.747
   -46.650	    -0.507	    -7.611
   -32.520	    -0.922	    -3.135
   -52.522	   -11.742	    -4.806
   -42.210	    -9.498	    -8.549
   -39.901	   -18.160	     0.105
   -28.443	   -22.381	   -11.806
   -43.079	   -19.253	     9.761
    29.973	     0.392	    -8.816
    36.081	    36.585	     3.602
    35.209	    37.897	    15.955
    38.643	    48.427	   -11.579
    48.780	    20.199	     6.562
    42.060	    12.457	    -4.699
    42.286	    28.481	     0.757
    45.720	    17.681	     4.264
    46.320	    11.710	    11.840
    37.840	    27.070	    14.387
    40.916	    17.448	     9.402
    39.790	     5.103	     2.986
    50.885	    26.331	     5.282
    35.558	    24.948	    17.028
    55.056	    13.686	    -2.814
    40.671	    21.473	     6.260
    43.428	    25.171	     3.648
    38.540	    27.465	     0.958
    60.745	    34.711	    -7.877
    44.161	    39.305	   -15.005
    48.585	    14.092	     7.880
    49.946	    24.370	     6.193
    45.646	    33.976	    24.877
    50.359	    16.659	    -1.098
    36.724	    28.096	     4.462
    40.839	    29.498	    26.451
    36.834	    28.504	    31.276
    39.918	    26.036	    -3.908
    40.795	    22.572	     3.395
    53.134	     5.894	     1.209
    52.309	    20.812	     5.876
    41.470	    14.958	     8.800
    33.681	    17.631	     3.381
    39.074	    38.254	    11.916
    47.344	    43.695	   -13.173
    55.262	    18.930	     1.613
    31.914	    48.909	    -7.502
    44.767	    39.991	    -1.497
    43.271	    26.157	     7.279
    50.675	    23.768	    13.977
    48.570	    47.308	     5.647
    61.389	    27.250	    10.509
    38.955	    16.677	    13.234
    43.443	    21.496	    11.651
    39.545	    32.475	    -1.058
    52.002	    13.748	    12.277
    57.582	    10.862	     2.094
    45.411	    -2.916	     1.009
    50.175	     8.284	     8.075
    40.709	    21.253	     5.202
    58.918	    13.928	   -12.815
    36.941	    23.548	     1.543
    33.957	    21.818	    -1.195
    43.121	    19.688	     0.823
    46.238	    19.101	     5.556
    44.843	    21.798	    23.866
    37.516	    43.639	   -12.032
    57.934	    25.118	     8.262
    43.877	    18.518	    10.204
    46.835	    11.439	    -2.619
    42.707	    23.096	     7.446
    45.708	    29.746	    -6.918
    45.951	    13.117	    10.356
    48.849	    31.380	    -6.842
    32.320	    31.349	     4.576
    55.589	     6.240	    -7.602
    48.066	    -9.811	     9.328
    35.589	     2.703	     3.875
    40.692	    18.940	     7.255
    37.633	    35.858	    28.773
    46.142	    41.839	     8.966
    61.313	    18.319	    -7.246
    38.123	    30.508	     4.009
    41.460	    34.382	    -7.348
    44.251	    11.439	     8.714
    44.207	    30.008	    -2.177
    50.711	    36.864	     4.260
    48.391	     9.745	     8.851
    49.688	    12.198	   -10.240
    40.530	    14.516	    23.817
    45.357	    15.753	     4.292
    43.593	    40.572	    11.840
    31.688	    38.043	     2.519
    52.950	    21.536	     5.244
    51.030	    26.526	     5.418
    36.641	    34.205	    14.680
    51.305	    29.498	    -6.461
    30.597	    35.848	     3.773
    44.196	    41.014	    -0.005
    39.337	    28.289	    14.360
    42.652	    15.612	    12.949
    49.609	    55.408	    -3.254
    46.469	    15.528	     0.417
    34.902	    15.483	     8.156
    42.922	    33.628	     5.775
    45.677	    39.700	    -2.334
    47.449	    27.971	    11.448
    33.985	    26.813	     8.837
    53.577	    34.053	    -1.313
    50.788	    21.796	    -0.925
    40.440	    23.281	     7.222
    37.233	     8.755	    17.434
    48.880	    25.560	   -13.179
    36.220	    32.877	    24.498
    40.404	     1.552	    10.084
    40.559	    11.832	     3.487
    47.628	    10.896	    -9.849
    32.383	     8.011	    27.810
    43.182	     9.964	     4.268
    48.962	    12.000	     1.117
    36.305	    36.529	     7.284
    35.524	    40.154	    15.101
    49.605	    18.060	     2.429
    40.947	    46.817	    -8.410
    48.459	    28.859	     0.787
    37.669	    37.504	    -7.757
    48.481	    13.418	    10.905
    40.162	    17.161	     5.118
    28.208	    32.748	   -12.009
    39.063	    26.901	    22.217
    40.203	    20.558	    -1.616
    34.213	    41.626	     6.692
    52.398	    22.797	     4.136
    50.282	    29.455	    -2.268
    51.340	    26.199	     0.596
    34.332	    26.895	     6.814
    44.959	    29.802	     6.672
    34.173	    40.286	    12.261
    45.428	    25.624	     0.696
    41.584	    27.401	    -3.557
    39.917	    19.412	     5.106
    41.831	    32.493	    14.991
    45.755	    27.414	    -0.001
    44.293	    15.749	    -0.118
    54.675	    18.418	     3.948
    34.503	    31.554	    11.515
    42.812	    30.518	     0.519
    45.512	    22.033	    -8.695
    45.618	     8.018	     2.042
    45.596	     4.326	     7.253
    41.716	    15.307	    -3.151
    54.909	    17.791	     6.334
    46.342	    24.809	     1.045
    42.601	    33.306	     8.596
    42.676	    29.540	     3.157
    49.820	     7.756	    -0.751
    45.843	    18.879	    -3.825
    43.633	    16.430	    -2.049
    39.512	    24.263	    21.994
    52.594	    23.022	    -7.043
    52.249	    10.872	    -3.283
    37.676	    31.256	    14.902
    35.838	    30.906	     0.363
    41.045	    15.605	     0.187
    41.032	    23.914	    13.061
    49.892	    23.365	     8.429
    58.743	    11.038	     8.469
    36.922	    37.480	    13.767
    46.557	    28.796	     6.220
    50.992	     5.777	    -9.182
    27.364	    30.384	     7.522
    50.332	    37.884	    -2.326
    54.513	    23.335	    -1.828
    38.222	    46.550	     8.090
    56.430	    24.663	    -5.390
    41.612	    36.550	    -6.286
    39.849	    39.795	     1.717
    38.724	    14.324	     5.292
    44.562	    25.536	     3.521
    48.819	     4.709	     1.797
    37.511	     8.144	    12.664
    54.432	    32.261	    -0.824
    41.813	    24.708	    -5.025
    39.694	    37.084	     7.148
    41.951	    23.391	    11.975
    41.455	    44.363	    -6.477
    36.785	    44.420	     0.495
    38.266	    36.287	     3.953
    43.248	    23.981	    17.785
    34.541	    45.686	     1.988
    47.829	    38.059	    -9.401
    39.478	    27.779	     4.958
    26.704	    37.670	     9.338
    38.750	    19.087	     8.562
    43.686	    14.509	     0.511
    52.297	    10.167	     7.433
    35.909	    15.293	     3.939
    39.990	     6.575	    17.060
    57.968	    22.414	   -14.036
    29.319	    37.566	   -18.063
    42.634	    15.328	     9.745
    38.082	    22.021	    12.654
    40.577	    39.112	   -10.522
    52.960	    24.148	     6.363
    40.490	    28.501	     4.307
    45.304	    26.181	     0.486
    40.242	    34.209	    26.271
    36.540	    35.525	    -2.559
    47.357	    27.163	     6.242
    45.742	    31.471	    -2.143
    42.968	    34.070	    15.566
    38.381	    38.479	    -2.595
    40.419	     3.806	     7.029
    48.382	    24.659	     3.010
    40.249	    17.216	     7.683
    53.409	     8.981	    -6.543
    46.497	    23.280	     0.907
    45.108	    23.143	     8.245
    35.384	    38.441	     3.585
    45.949	    22.359	    -1.101
    29.755	    37.620	    11.362
    48.481	    34.637	     2.226
    35.417	    27.037	    -0.781
    35.853	    41.941	     7.972
    53.722	     9.697	    -2.065
    48.158	    14.722	   -15.662
    46.888	     3.804	    14.902
    37.607	    29.860	    20.181
    50.131	     5.482	    10.959
    45.698	    19.521	     1.903
    33.007	    23.416	    -7.329
    36.158	    20.419	     6.103
    50.189	    29.824	    -3.693
    39.376	    20.362	    12.030
    39.176	    26.533	     1.540
    43.861	    23.938	    -1.794
    42.728	    29.472	    11.385
    25.341	    16.781	    20.278
    45.742	    33.205	   -14.230
    44.668	    26.770	     8.144
    54.411	    28.845	     7.491
    48.844	    18.241	     4.586
    47.313	    14.347	     4.199
    56.758	     3.089	     3.905
    40.382	    23.867	     9.015
    45.510	    30.443	    -4.106
    38.180	    37.396	     9.903
    50.928	    21.806	     3.357
    44.777	    15.529	     2.344
    52.012	    15.054	    -0.825
    40.107	    49.886	     1.380
    28.614	    11.803	    11.067
    48.483	    20.412	    19.186
    29.013	    33.069	     3.409
    38.207	    34.047	     3.790
    51.566	    22.076	     6.972
    33.764	    35.794	    12.423
    32.069	    46.313	    -2.846
    22.093	    19.340	     0.348
    52.047	    -5.784	    -3.319
    42.275	    26.261	    11.953
    37.502	    22.495	     5.101
    45.093	    31.313	    -1.422
    31.412	    55.972	     7.744
    40.132	    35.350	    11.760
    44.751	    29.157	    14.264
    39.416	    33.988	    12.549
    51.225	    31.372	     4.105
    44.017	    34.153	     2.894
    45.093	    34.287	    -2.049
    41.540	    21.999	    -3.663
    50.738	    25.096	     6.474
    36.020	    28.283	   -11.284
    40.873	   -10.209	    -0.762
    58.934	     9.056	    -6.321
    39.380	    33.446	     8.337
    44.147	    30.066	    22.208
    46.155	    21.952	   -10.092
    40.682	    56.967	     2.437
    41.020	     2.252	    18.652
    48.048	     1.716	    18.977
    38.504	    32.334	    11.214
    48.831	    16.251	    -0.633
    37.927	    41.365	    -0.132
    44.483	    33.133	    -1.349
    35.598	    18.736	     8.295
    49.964	    29.650	     3.909
    42.891	    23.555	    20.226
    47.432	    25.102	    -8.536
    44.428	    36.045	     7.661
    35.695	    22.010	    19.532
    44.596	    23.705	     5.723
    55.066	    13.186	    13.298
    46.639	    46.540	   -13.228
    35.949	    43.376	     6.623
    40.597	    22.924	    13.101
    52.519	    17.125	    -0.982
    36.026	    29.954	     0.422
    41.212	    22.128	    12.305
    42.373	    23.366	     0.198
    52.646	    19.825	     4.217
    51.091	    29.957	    -8.379
    36.166	    31.750	     7.226
    46.392	     9.173	     7.752
    53.007	    32.443	    10.433
    50.479	    29.569	     3.586
    40.521	    34.438	    13.191
    40.218	    28.557	     3.320
    41.682	    24.356	     4.285
    43.804	    13.426	    16.078
    59.532	    26.611	    -6.449
    55.164	    33.165	     2.371
    38.032	     7.632	    -0.291
    32.337	    30.028	     3.105
    46.190	    25.097	     7.908
    36.580	    26.168	     0.052
    48.625	    32.660	     4.686
    29.650	    35.176	    18.774
    36.827	    37.525	     8.979
    46.829	    22.346	    -1.245
    52.291	     7.332	    -2.749
    46.845	    19.025	     1.617
    47.760	    48.239	     3.526
    36.227	    25.924	    19.743
    48.690	    36.995	     3.952
    47.656	    13.934	     6.296
    44.529	    30.340	    12.883
    46.276	    28.752	    22.669
    45.393	    15.659	     2.187
    43.778	    21.785	    -2.490
    47.821	    30.322	    11.267
    36.065	    22.645	    -5.474
    52.307	    16.055	    13.501
    40.583	    31.896	     3.193
    42.609	    24.977	    -1.295
    37.357	    34.983	    23.367
    34.878	    51.829	    10.642
    51.831	    33.206	    -8.157
    46.367	    -2.109	     4.282
    45.707	    16.399	    13.567
    42.882	     1.299	    13.785
    36.352	    42.128	     3.666
    44.459	    30.000	   -11.474
    57.362	    25.499	    -6.677
    44.622	    32.113	    -2.319
    32.543	    34.798	    22.646
    48.515	    27.698	    -0.941
    52.475	    15.607	   -12.471
    34.130	    17.209	     2.264
    44.438	    15.708	   -12.355
    34.319	    32.672	    11.164
    49.704	    24.809	     1.743
    39.333	    24.756	    -1.942
    44.774	    34.353	     8.784
    47.525	    26.259	     0.448
    40.662	    34.828	    14.958
    40.495	    10.219	     4.443
    36.411	    17.588	    13.574
    55.817	    21.023	    -6.670
    42.354	    26.721	    20.477
    44.368	    16.370	     8.020
    45.360	    29.440	     3.899
    49.128	    37.306	   -14.714
    37.009	    22.735	     8.763
    22.593	    34.855	    -4.056
    39.010	    31.638	     8.939
    48.461	    37.636	     8.167
    38.901	    34.922	    -4.258
    44.236	    35.088	     5.477
    38.737	     8.359	    -2.353
    44.192	    37.771	     1.891
    47.930	    11.243	     2.379
    47.161	    29.984	    -6.937
    47.378	    14.234	    -6.679
    45.878	    17.952	    -0.811
    58.305	     6.579	    -0.973
    34.953	    27.785	    18.029
    49.196	    41.716	     8.344
    38.740	    25.648	    -3.672
    49.196	    33.588	    -8.139
    43.952	    27.011	    -2.167
    49.793	     3.652	    12.843
    40.481	    40.242	     9.031
    42.989	    30.334	    11.406
    46.594	    14.405	     4.183
    37.647	    29.821	     5.683
    36.981	    15.921	    -9.505
    37.065	    15.271	     4.274
    59.707	    12.045	    -6.091
    43.827	     4.277	     0.447
    45.873	    34.607	     4.640
    43.433	    23.138	     2.609
    40.758	    32.453	    -0.767
    58.248	    12.077	     3.396
    49.347	    26.147	     7.949
    28.865	    40.218	     0.040
    42.692	    37.568	    -2.213
    27.431	    33.470	     9.515
    36.670	    19.273	    21.660
    45.081	    29.375	     8.391
    37.016	    13.077	     5.987
    56.296	    17.896	     8.394
    48.508	    16.627	     7.049
    38.335	    29.942	    19.209
    50.089	    14.868	     4.707
    32.429	    49.531	   -20.015
    44.354	    37.565	     5.396
    37.892	    26.264	    18.639
    48.227	    28.423	     1.448
    58.238	    29.324	     3.404
    40.920	    43.343	     2.220
    51.220	    25.219	     2.989
    43.595	    31.477	    12.121
    46.374	    26.501	     3.292
    38.630	     7.795	    -1.796
    42.365	    34.752	    16.254
    41.829	    23.954	    -3.303
    27.760	    29.009	    14.819
    29.935	    34.289	    -0.531
    38.861	    41.847	     3.987
    44.831	    42.397	    26.160
    45.832	    24.788	    -3.119
    46.429	    36.913	     8.413
    47.675	    21.928	    17.008
    47.521	    32.433	    15.051
    44.063	    25.632	    15.380
    41.500	    19.060	    23.324
    44.019	    16.903	    12.881
    49.070	     9.944	    -1.255
    39.039	    12.159	    11.706
    44.163	    16.846	     6.210
    48.428	    25.481	    -2.004
    44.709	    32.036	   -13.051
    49.872	    41.148	   -17.825
    35.449	    14.997	    -8.688
    38.607	    17.351	    -8.520
    46.363	    31.980	    -3.733
    43.855	    20.925	   -18.510
    33.279	    30.159	     1.113
    49.531	    22.165	    -6.160
    31.131	    36.526	     7.663
    52.293	    43.647	    21.900
    35.755	    26.180	     8.126
    41.807	     4.298	    12.608
    55.395	    21.066	    -2.744
    41.851	    10.939	    14.430
    37.663	    31.055	     6.749
    42.382	    18.145	    -4.518
    38.083	     5.086	    17.994
    32.633	    37.790	    12.640
    43.577	    20.909	     3.129
    47.509	    20.616	    -2.972
    42.247	    16.620	     6.761
    46.057	    23.692	    -0.264
    35.675	    29.667	    19.353
    38.481	    32.324	    15.380
    34.527	    29.584	     3.759
    44.037	    27.830	    23.157
    45.587	    13.597	     0.189
    37.274	    12.562	   -11.612
    59.128	     9.311	   -13.522
    43.746	    14.198	   -17.934
    47.722	    -5.838	     2.534
    52.813	     1.829	     5.269
    49.803	    12.486	     9.528
    46.802	    34.024	     7.941
    44.642	    15.019	    12.872
    38.077	    40.448	    -5.727
    45.687	    35.747	    12.335
    54.709	    26.507	    13.950
    38.327	    25.979	     1.740
    47.469	    29.024	     3.190
    43.904	    35.837	    -0.261
    40.612	    47.729	    -3.712
    39.880	    34.722	     0.122
    45.477	    18.268	    14.037
    43.528	    34.688	     0.706
    44.526	    20.734	     8.515
    37.325	    35.822	     4.827
    61.656	    17.237	    -6.107
    43.634	    46.509	     4.894
    44.433	    41.213	     7.391
    38.948	    36.690	     4.459
    39.407	    31.936	    20.382
    48.762	     6.515	    -0.716
    43.844	    40.465	   -13.786
    42.968	     6.407	     9.171
    52.587	    35.371	    16.147
    46.689	    23.913	     9.162
    50.169	    10.112	     7.536
    39.984	    20.981	     1.609
    55.297	    10.475	     2.922
    52.396	    14.633	   -10.459
    47.046	    18.939	     6.243
    49.464	    17.799	     8.622
    42.852	    24.431	    14.100
    38.984	    17.208	     4.536
    54.002	    35.270	    10.078
    37.258	    29.312	    12.731
    47.676	    22.058	     1.047
    47.577	    20.363	    11.395
    49.271	     8.116	    13.506
    46.974	    22.841	    -3.201
    32.327	    39.998	    15.880
    40.329	    26.098	    -0.368
    45.624	     5.534	     1.162
    45.788	    22.969	     6.333
    30.230	    23.106	     5.821
    41.420	     6.161	     7.249
    48.813	    27.943	    13.780
    33.954	    40.548	    -0.907
    51.112	    38.764	    -4.627
    37.569	    32.995	    -2.108
    39.652	    36.301	    -6.185
    44.381	    24.200	     4.058
    56.944	    17.229	     1.157
    37.638	    24.893	     1.481
    33.714	    43.883	     5.449
    33.866	    32.829	    -5.316
    43.862	    24.420	   -16.247
    50.023	    36.728	    14.332
    43.124	    36.646	     8.369
    45.526	    47.571	   -10.064
    44.626	    24.258	    14.763
    39.692	    24.963	     5.451
    49.940	    19.084	    20.664
    38.404	    28.403	    11.040
    52.185	     0.889	    11.028
    36.127	    17.806	    12.176
    50.351	    14.812	    13.700
    42.065	    20.509	   -11.796
    48.886	    25.890	     8.661
    49.384	     6.809	    -6.708
    47.647	    20.576	     2.753
    52.956	    18.261	    -2.506
    34.286	    22.320	    13.633
    53.767	    39.595	    -0.025
    44.127	    30.271	    10.444
    47.708	    31.923	    -7.130
    50.330	    38.493	    11.270
    41.740	    50.651	    -0.712
    43.924	    23.824	     1.293
    49.521	    26.089	     1.722
    41.793	    28.138	    -0.068
    50.411	    42.720	     1.027
    38.582	    29.329	    20.470
    47.519	    41.025	    -0.105
    45.980	    21.703	     9.873
    42.733	    37.320	    10.838
    32.489	    45.916	    -5.349
    46.025	    27.281	     9.799
    35.223	    29.149	    -2.194
    50.498	    34.095	     1.399
    50.057	    26.334	     3.282
    43.700	    42.807	    -0.756
    35.690	    34.526	    15.532
    50.515	     2.033	     1.791
    35.313	    37.897	     1.686
    39.540	    22.518	     2.040
    33.881	    49.834	     7.534
    49.623	    33.864	    14.869
    48.692	    24.425	    -0.503
    32.633	    21.910	     0.038
    51.332	     5.965	    10.944
    42.124	    29.782	     1.612
    53.269	    13.315	    -8.737
    36.738	    14.029	    -0.369
    25.823	    23.623	    18.144
    36.474	    21.221	    -1.646
    45.878	    24.438	    -7.944
    40.866	    49.060	    -4.322
    44.199	    16.271	    -2.379
    34.434	    32.200	     3.230
    41.613	    24.652	    10.540
    51.522	    37.736	     0.099
    51.578	     4.413	     0.104
    43.408	    33.516	     2.796
    36.136	    33.451	     6.709
    53.598	    28.503	    -6.664
    44.137	    22.284	     6.638
    40.735	    28.070	    -3.216
    37.432	    10.751	    15.939
    37.176	    31.531	    12.219
    42.704	    15.844	    22.752
    52.083	    22.926	     4.926
    40.244	    39.084	     4.720
    28.955	    26.844	    19.543
    43.001	    35.092	    -5.984
    58.890	     9.387	    -8.981
    40.008	    10.396	    11.125
    31.146	    27.865	    17.093
    31.241	    11.619	    18.993
    51.590	    21.619	    -8.608
    44.215	    13.892	     9.779
    41.874	    28.340	     3.673
    36.663	    25.988	     8.915
    38.525	     6.001	    -5.959
    54.115	    28.049	    -2.153
    54.068	    26.504	   -13.659
    45.753	    18.596	     8.159
    40.009	    15.739	     4.811
    48.703	    29.965	    11.581
    39.972	     7.700	     4.157
    35.246	    14.705	    10.990
    49.361	    11.106	    -3.654
    28.167	     3.508	    11.938
    38.985	    12.180	    -0.082
    37.905	    21.295	     8.941
    53.154	    20.681	     1.289
    50.468	    24.425	     7.783
    50.975	    23.699	    -1.689
    52.037	    23.258	    12.019
    46.861	     9.761	     6.200
    58.315	    17.314	     6.649
    57.016	     9.988	     8.947
    50.550	    32.303	   -17.360
    40.382	    32.756	   -18.161
    46.460	    30.341	   -11.634
    43.360	     9.805	    -4.647
    51.461	    26.660	    24.762
    51.627	    16.716	    -5.811
    37.017	    25.154	     4.080
    39.128	    21.905	    19.279
    40.432	    32.726	     9.333
    27.140	    32.659	     8.891
    57.823	    19.613	    -0.482
    34.467	    36.013	    13.295
    32.482	    28.584	    12.445
    57.400	    17.591	     8.016
    47.893	    23.660	     1.437
    38.643	    25.178	     9.494
    34.777	    44.723	     1.542
    37.680	    30.623	     1.241
    48.002	    27.718	    -8.223
    27.969	    29.124	    11.246
    42.286	    21.589	    12.910
    48.713	    22.699	    -6.956
    48.456	    17.790	     2.474
    41.571	    16.543	    10.882
    39.299	    18.532	    -3.179
    50.381	    17.534	   -17.889
    41.900	    25.592	     6.757
    48.275	    23.581	    -9.034
    54.581	    37.319	     3.952
    36.552	    33.943	    -3.774
    42.569	    41.010	   -18.609
    36.520	    34.329	     4.165
    51.350	    14.447	     2.419
    40.624	    20.168	    -4.999
    51.727	     7.492	     7.161
    44.545	    35.262	     3.365
    50.503	    28.230	     6.313
    48.835	    20.353	     8.305
    28.768	     0.573	    15.437
    48.104	    20.557	     7.135
    32.070	    -3.687	    17.156
    60.089	    22.610	    -9.515
    43.296	    13.473	    -3.362
    64.727	    11.157	    -0.494
    52.450	     8.046	   -11.061
    27.229	    15.572	     7.665
    45.487	    10.958	     4.525
    38.547	    22.383	    -3.634
    37.392	    19.986	    29.836
    35.985	    32.032	   -12.613
    22.565	    43.523	    14.717
    46.142	     4.799	    14.214
    43.236	    22.917	     9.173
    46.838	    21.226	    13.190
    37.609	    35.477	    -0.225
    44.430	    19.155	    -3.040
    37.681	    30.590	    20.498
    37.253	    21.983	    12.271
    50.579	    13.425	    -1.470
    41.859	    -7.514	    -1.649
    54.721	     4.103	    23.527
    47.920	    18.950	    -3.996
    35.307	    40.152	     5.874
    46.554	    35.069	    11.747
    33.419	    28.120	     8.611
    47.741	    13.428	     9.192
    46.378	    23.996	     1.710
    36.037	    27.722	     5.847
    39.946	    28.342	    14.330
    41.053	    23.838	     3.122
    55.196	    26.293	    15.238
    28.858	    15.959	     8.302
    55.015	    25.568	    -4.034
    47.519	    28.253	    14.864
    32.261	    33.769	    21.082
    41.200	    30.032	    -4.550
    43.559	    23.826	     3.255
    50.679	    23.613	     8.193
    50.261	     4.932	     3.419
    40.941	    10.316	    13.069
    43.731	    23.099	    13.035
    51.016	    17.183	    -2.553
    43.445	    26.160	     5.799
    34.550	    22.735	    12.967
    47.725	     5.989	     4.668
    44.549	     5.487	    10.756
    56.782	    30.325	    -5.188
    41.035	     8.698	    14.599
    52.790	    -5.501	     1.923
    51.662	    20.005	    -5.097
    45.070	    37.772	    -9.870
    54.439	    16.535	    -9.183
    41.781	    36.574	    -6.347
    51.531	    36.307	    13.474
    49.118	    21.430	    10.670
    50.749	    13.654	    -0.077
    50.105	    18.438	    -0.302
    46.841	    27.850	    -8.272
    35.833	     7.175	     8.656
    38.695	    20.380	    -0.076
    47.073	    22.850	     4.101
    32.059	    33.598	     5.910
    41.622	    30.859	    -6.242
    41.061	    14.799	    12.794
    38.679	    16.002	     1.130
    34.741	    36.575	    -4.482
    58.004	    37.778	    -3.130
    47.931	    35.433	    -0.045
    29.801	    23.530	    20.590
    54.336	     9.927	   -10.757
    38.716	    18.776	    -0.753
    41.106	    22.672	     5.016
    47.619	    37.823	     4.038
    57.280	     7.970	    -5.294
    42.416	    23.935	    12.144
    36.756	    34.000	     2.596
    55.623	    18.059	    -5.889
    60.616	    26.200	    -5.741
    42.220	    25.448	     1.860
    51.930	    23.072	    -5.395
