   -92.310	   122.143	    -3.179
  -151.960	    88.894	     0.796
  -179.365	    72.551	   -12.142
  -169.689	   122.229	     5.971
   179.208	   104.143	     9.045
   171.318	   129.422	    18.088
   179.585	   122.344	    13.445
   175.395	   111.065	    22.596
  -178.660	   107.147	    24.667
  -170.896	    99.890	     2.723
   175.429	    81.132	     7.356
  -175.917	   101.644	    11.221
   175.016	   113.171	    11.114
   179.670	    88.580	     9.566
   169.311	   109.733	     7.758
  -179.549	   121.449	    17.192
  -174.929	   117.606	     2.721
   179.367	   102.610	    15.452
   173.884	   108.746	    17.290
   166.659	   113.473	     2.685
  -178.396	   105.010	     9.549
  -171.902	    99.134	     8.549
   174.506	   122.703	    18.947
   179.743	   114.189	     7.393
  -165.411	    84.334	    -4.110
  -176.756	    94.521	     5.438
  -176.502	    99.929	    11.259
  -176.471	   130.828	     7.281
  -161.774	    96.194	     1.524
  -173.630	   102.949	     8.356
   177.588	   127.807	    -0.648
   168.719	   115.494	    10.057
   169.526	   125.517	    16.645
   154.857	   125.916	    -3.869
  -167.983	   120.126	     6.568
   175.505	   127.591	    27.207
  -170.890	   129.364	    11.178
  -164.306	   116.194	    -3.014
   179.637	   132.521	    12.411
  -174.164	   128.235	     7.269
  -179.140	   116.960	    -4.948
  -173.177	   114.443	     7.023
  -166.464	   107.583	     1.904
   164.880	   120.383	    12.594
  -178.216	   116.677	     4.192
  -171.945	   116.121	    -3.845
   166.870	    91.796	    19.648
   153.816	   112.010	    18.435
  -173.968	   102.262	    11.899
  -177.572	   120.532	     4.146
   172.708	   101.618	     1.257
   179.869	   122.810	     2.397
   163.526	   123.998	    12.967
  -172.632	   126.813	     6.505
  -163.651	   134.206	     4.405
  -173.569	   124.255	     1.552
   171.628	   131.023	    13.432
  -172.839	    92.920	     7.368
   175.120	   116.007	     9.308
   177.258	   104.455	    23.170
  -168.456	   105.579	     1.536
  -168.251	   125.898	   -17.366
   159.061	   130.419	    -7.218
  -179.065	   100.089	    -3.402
   172.374	   102.031	     9.238
   177.802	   114.602	    15.182
   169.383	   114.650	    -3.268
   176.271	   105.462	     3.294
  -174.620	   100.717	     5.661
   170.682	   115.239	    11.697
  -175.531	   127.969	     4.254
   177.906	   118.905	    19.691
  -178.819	   118.995	    18.380
   166.550	   132.127	    15.325
   165.210	   126.799	    21.442
   179.332	   130.460	     2.418
  -179.379	   121.458	    15.283
   175.037	   103.579	    17.163
   170.198	   109.660	    10.947
   170.532	   126.869	    13.664
   168.188	   124.704	    -3.310
  -171.291	   113.770	    16.328
   168.492	   109.043	     9.436
   178.836	    74.976	    16.785
  -176.325	   126.224	    -7.689
  -174.508	   128.824	     3.812
   177.226	   100.531	     6.874
   177.143	   109.749	    -0.576
  -169.438	   126.047	     9.742
   174.057	   105.406	    21.273
   173.270	   115.429	    10.807
   178.275	   106.292	    16.876
   178.461	    80.661	     4.556
  -177.542	    87.654	     6.659
   178.579	   123.859	     6.857
   143.877	   124.337	     5.927
   170.447	   119.278	     0.472
  -178.950	   129.558	    -3.986
  -174.984	   118.261	    17.119
   169.513	   104.883	    -2.118
  -165.318	   128.773	    11.816
  -176.964	   129.191	    -0.132
   178.144	   122.433	    19.807
   173.325	   128.600	    26.222
  -176.345	   133.028	     9.186
  -171.461	   106.763	     1.159
   172.442	   119.348	     4.065
  -172.803	   104.883	     6.440
  -168.661	   102.670	    14.137
  -172.062	    88.690	    15.318
  -159.159	   128.583	    -3.645
   171.336	   116.514	     7.365
  -175.081	   124.899	     0.649
   178.555	   119.243	    28.290
  -171.257	   126.194	     3.810
  -163.722	   118.298	    -8.955
   173.127	   126.163	    35.922
   179.936	   120.302	    11.906
   168.427	   112.846	     3.377
   179.263	   115.495	     2.455
   174.919	   108.008	    28.668
   177.658	   126.670	   -12.174
   167.193	   131.190	    17.018
  -175.948	   100.177	    13.325
  -171.626	   111.343	    -3.635
   179.063	   120.131	    13.290
  -166.865	   107.181	    14.805
  -173.160	   103.720	     4.733
  -179.702	   118.900	     8.244
   177.489	   101.139	    -2.211
  -173.572	   101.730	     1.342
   155.566	   111.364	    19.156
   169.119	    98.365	     9.685
  -156.543	   121.402	    -4.994
   171.820	   119.111	    28.975
  -177.461	   111.277	    -1.908
   169.573	   117.726	    -5.137
   172.742	   104.943	    20.887
   172.392	   128.269	    11.402
  -173.922	   118.136	    14.471
   158.809	   139.566	     7.721
  -172.770	   113.500	    10.979
  -179.664	   128.315	     9.291
   178.661	   134.415	    19.155
  -170.376	   134.697	    31.205
   173.553	   114.759	    18.617
  -166.211	    99.272	     7.064
   177.457	    96.886	    -6.210
   178.168	   106.234	     5.171
  -172.668	   137.503	    -9.230
   168.582	   113.173	    -6.238
  -174.699	    94.588	    -2.039
  -176.809	   134.626	    -8.465
   164.614	   122.230	     5.715
   172.445	   124.145	    -2.288
  -171.523	   112.212	    -2.211
  -169.987	   122.362	    14.646
  -179.630	   135.103	     7.367
  -172.937	    95.482	     8.412
   178.221	   118.259	    11.763
   175.005	   118.227	     7.941
  -172.243	   124.194	    -0.860
   174.771	   113.851	    10.921
   170.469	   139.363	    11.092
  -173.840	   138.866	    -1.646
   174.654	   120.788	    23.925
  -165.510	   110.738	     8.299
   149.985	   119.677	     3.378
   173.490	    72.467	    -0.529
  -176.607	    94.819	     0.444
   166.205	   124.078	     1.117
   178.687	   128.487	   -30.928
   139.776	   118.138	     8.563
    89.495	   131.146	    14.387
   165.067	   100.922	    -1.814
  -178.741	   125.172	     2.279
  -172.203	    86.519	    12.274
  -171.843	    80.135	    -1.352
  -178.161	   102.516	    -1.801
   175.428	   113.303	    19.108
   175.040	   111.850	    14.743
  -173.236	   117.619	    12.566
   176.013	   105.762	    14.513
  -176.210	    97.952	     8.474
  -176.033	   115.509	    18.699
   172.821	   134.672	     5.861
  -170.471	   123.941	    14.813
  -175.281	   129.832	     3.844
   179.929	    99.225	    -8.455
   172.859	   131.740	    14.842
   177.196	   127.869	    -4.137
   173.248	   106.052	    12.472
   178.337	   108.471	     2.251
  -175.955	    96.790	    16.065
  -169.960	    83.426	     2.419
   170.640	    93.701	     7.708
  -176.441	    89.019	    -0.038
  -152.385	   106.264	    13.851
  -177.247	   128.570	    -9.897
  -167.314	   106.403	    -1.005
   174.900	   113.859	    -9.821
  -172.418	   129.147	     9.622
  -172.568	   114.934	   -10.311
   176.729	   144.655	    18.660
  -175.106	   132.768	    10.599
   177.410	   124.903	    15.223
  -176.101	   115.881	     4.248
   177.941	   132.824	    14.136
   173.958	    85.125	    14.687
  -172.956	   116.799	    13.567
  -175.479	   112.637	    -6.463
  -179.621	   126.387	     2.311
   179.322	   132.934	    -3.708
   178.637	   101.356	     2.383
   147.619	   123.413	     2.153
   178.378	   120.403	     9.303
  -173.378	   108.090	     8.003
  -170.742	   108.935	    -8.525
  -178.668	   101.665	   -23.187
   171.536	    95.869	     5.974
   174.970	   103.710	     8.476
  -172.930	   104.727	    11.561
   178.548	   107.038	     1.248
   173.748	   110.104	     8.248
  -177.195	   119.901	    10.797
  -168.670	   101.688	    10.944
   173.670	   101.825	    11.612
  -178.296	   103.791	     1.074
  -175.040	    86.366	    17.002
   177.456	    88.842	     1.830
  -179.069	    93.390	    19.105
  -161.045	   114.645	    -5.132
  -170.131	   112.617	     9.013
  -176.120	   150.703	     0.784
  -169.382	   110.249	   -10.500
  -175.266	   100.134	     5.760
   175.232	    88.369	    13.921
   165.680	   129.233	    15.023
  -179.114	   110.631	    -1.548
   178.023	   110.356	    11.115
  -173.221	   120.630	     5.901
   147.093	   138.959	     6.523
  -176.182	    99.642	   -15.618
  -164.514	    93.609	    -1.697
  -171.583	   103.002	    -2.985
  -172.787	   133.208	    12.487
   167.174	   111.770	    14.912
   178.752	   124.231	    13.623
  -175.640	   109.211	     7.679
  -174.405	    84.588	     2.917
  -178.994	    99.586	     6.240
   178.078	   101.644	     6.296
   179.370	   135.291	     1.534
   175.791	   138.936	    12.799
  -171.004	   109.226	    -9.027
   177.404	   130.099	    22.408
  -178.002	   133.414	    10.709
   171.029	   104.055	     3.372
  -170.327	   100.715	    13.685
   170.412	   123.198	     9.861
   178.751	   115.439	    -1.731
   177.599	   126.676	     9.291
  -179.181	    97.752	    20.365
   166.030	    97.075	    22.041
  -167.635	   107.040	     4.294
   177.965	    98.810	     7.766
   172.382	   113.620	     4.822
  -177.631	   115.192	   -15.032
  -171.427	   115.795	    -6.618
   174.361	    92.413	    25.001
  -162.572	   110.570	    -0.189
  -163.246	    84.065	    16.303
  -173.510	   111.240	    24.755
  -175.046	   112.342	     0.974
  -167.962	   108.991	     6.845
   169.920	    88.146	     3.658
   166.471	   105.733	   -11.557
  -177.330	   119.741	     1.869
   176.366	   122.546	    -4.166
  -172.222	   120.179	    -6.168
  -168.349	   110.862	     7.445
   177.954	   135.780	     7.888
  -177.621	   108.223	    -2.667
   173.369	   125.284	    33.886
   173.271	   127.027	    -4.801
   175.935	    98.962	     6.781
  -179.189	   131.360	     9.973
   178.555	   127.316	    14.927
  -178.357	   116.805	    -7.350
  -176.294	   117.166	     1.132
  -174.065	   108.635	     9.115
  -172.862	   100.911	    23.000
  -170.287	   108.617	   -11.765
  -167.337	    94.410	    15.801
  -179.035	    88.781	     3.015
  -170.392	   114.059	     0.386
  -172.909	   113.873	    11.263
   160.807	   132.562	    13.399
  -163.918	   127.690	     0.368
   170.445	   119.452	    -0.174
  -178.872	   112.651	    -0.598
  -166.493	    89.866	     2.102
  -173.828	   102.870	    12.712
  -176.489	    96.819	     8.077
   159.591	   101.977	    32.468
  -167.095	   119.012	    16.399
  -175.801	   138.005	   -10.907
  -171.426	   119.780	    10.729
  -170.706	   122.289	     8.693
   172.834	   119.722	     4.465
  -178.937	   121.183	    13.950
  -178.461	   107.114	    17.263
   175.966	   116.236	    17.469
  -172.185	   140.632	     3.295
  -172.155	   102.208	    12.760
   176.119	   101.402	     7.070
  -175.855	   109.657	    -0.321
  -162.364	    93.573	    -0.430
   175.897	   116.350	     9.120
   175.425	   116.350	    17.837
   178.127	   106.654	     8.048
  -174.668	   108.119	     7.058
  -178.637	   106.981	    -2.345
  -174.195	   119.243	     9.657
  -165.535	   115.351	    -1.866
   167.148	   105.393	    16.102
   179.960	    89.930	    25.087
  -173.343	   119.622	     5.163
   165.691	   126.430	     3.249
   175.813	   117.859	    11.560
   178.941	   112.055	     9.479
   173.963	   157.964	    17.417
  -178.512	   108.863	     4.762
   145.540	   121.300	    -1.641
   172.147	    84.103	   -12.566
  -175.203	    85.595	    -7.010
  -173.280	   124.002	     7.738
  -173.648	   107.801	     5.827
   178.381	   118.745	     8.657
   172.292	   122.163	    11.333
   179.098	   110.505	     5.990
  -172.192	   122.348	    -4.857
   177.539	   115.785	    16.492
  -167.789	   122.998	    16.856
   171.294	   131.525	    25.139
   155.617	   125.838	     4.664
   159.352	   116.429	    10.475
  -179.918	   109.883	     0.716
  -168.260	   126.310	    -2.671
   160.835	   123.603	    -7.813
   176.783	   130.132	    -2.036
  -174.310	   144.004	    12.845
  -173.052	    90.100	     9.876
  -170.447	   111.250	    -6.686
  -179.223	   102.106	     6.090
  -179.211	   107.553	    -4.584
  -167.389	    80.837	   -11.529
  -174.812	   135.620	    -8.231
  -177.324	   114.812	     4.611
   169.788	   133.007	    15.709
  -177.553	   109.731	     1.773
  -164.667	   109.345	    -4.137
   170.717	   109.709	    15.470
   175.233	   130.716	    11.544
  -173.092	   116.711	    15.801
  -174.158	   102.965	    29.964
  -166.364	   111.633	     2.466
   175.385	   104.687	     3.597
  -177.854	    99.336	     6.076
  -168.105	   106.111	     4.725
  -177.383	   106.762	    15.626
  -179.705	   118.572	     7.998
   175.004	   121.193	     7.996
  -164.090	   111.343	     2.523
  -165.188	   104.141	     4.647
  -161.993	   114.992	   -19.517
  -169.099	   105.666	    -4.231
  -170.911	   136.734	    -5.499
   179.856	   110.428	    19.799
  -166.611	    84.303	    -3.744
  -178.430	   108.435	    14.456
   172.428	   116.356	     0.897
  -166.360	    91.205	     0.823
  -172.310	    93.205	     0.578
  -174.586	    93.068	    -7.379
  -165.236	    75.796	     6.696
  -178.747	    98.342	    25.065
  -164.689	   117.451	    -7.356
  -162.898	   119.462	     4.072
  -172.350	   107.166	     1.727
  -175.245	   132.370	    -2.355
  -167.157	   112.332	    13.495
  -164.714	   118.705	     5.840
  -158.994	   114.313	     1.506
  -172.674	   128.438	    -5.186
  -174.275	    89.448	    -0.697
  -163.689	   114.434	     7.053
  -173.378	   125.646	    -4.131
   159.785	   127.333	    33.209
   162.771	   128.770	     4.416
  -176.199	   112.122	    -3.637
   167.621	   113.773	     4.660
  -169.157	   110.512	    -9.546
   165.895	    91.957	    23.854
   169.904	   110.845	    19.595
   178.617	   102.866	    15.066
  -174.824	   104.615	    12.475
  -171.677	   120.121	     7.723
   179.989	   106.865	    -6.369
  -176.985	    86.043	     3.916
  -176.987	   111.527	     0.749
   152.387	    89.857	     9.330
   158.605	    96.023	     5.050
   168.921	    95.305	     8.113
  -168.319	   110.054	    17.640
   164.221	   121.750	    16.195
  -169.104	   102.661	    18.175
   175.825	   109.043	    22.828
   174.870	   126.611	    14.304
  -173.941	   126.966	    11.866
  -166.907	   125.118	     1.668
  -160.836	   104.698	   -13.710
  -175.776	   121.891	    39.057
  -177.102	   126.563	    11.834
  -166.541	   128.732	     8.079
  -159.184	   105.191	    16.837
  -179.296	    95.135	    15.399
  -178.994	    83.703	     2.318
  -173.404	   127.948	     2.146
   174.460	   122.881	     6.450
  -178.738	   126.536	     7.675
  -175.270	   126.618	     8.124
   163.157	   107.732	     0.230
   153.416	   106.317	    15.001
   151.287	   131.243	    20.582
   172.480	   134.449	    -7.139
   164.513	   142.946	    18.694
  -175.501	   134.334	    12.325
  -176.945	   123.684	     6.971
  -169.642	   137.878	    -4.006
   168.046	   107.977	     8.552
   168.650	   129.077	     4.137
  -177.562	   101.343	    12.408
  -177.526	   131.470	    10.821
   171.277	   123.883	    15.877
  -171.429	   107.936	    -4.560
  -178.555	   118.215	    15.245
  -167.468	   104.734	    28.553
  -173.969	   125.460	    -3.130
  -172.223	   121.839	    10.178
   174.954	    94.179	    -7.171
   179.987	   108.352	    -5.936
  -172.781	   115.015	     9.137
  -175.812	   116.130	     3.473
   178.033	   119.011	     1.812
  -178.636	   113.018	     8.684
  -170.660	    85.101	    -2.853
  -165.772	   123.123	    -4.046
  -165.957	   119.327	     6.694
   176.838	   124.969	    -0.537
   169.044	   110.059	   -13.505
  -176.633	   132.679	     2.963
   171.892	   121.074	     4.363
  -173.311	   101.662	   -12.565
   169.959	   108.121	     3.563
   169.589	    95.784	     5.549
  -177.768	   108.245	     6.316
   179.676	   104.514	    -7.499
  -174.214	    95.053	    13.150
  -170.405	   123.827	   -17.063
   163.051	   121.027	    10.646
   179.381	   100.919	     6.020
  -179.335	   122.385	    19.004
   168.018	   130.051	    10.577
  -177.834	   113.291	   -14.938
   179.727	   107.063	     0.838
  -179.061	   124.626	    13.628
   159.696	   119.601	    -0.480
   173.258	   107.361	     2.552
   170.681	   125.737	    17.695
   176.331	    98.330	     9.415
   177.243	   104.770	    27.469
  -173.718	   143.730	     7.760
  -178.713	   138.889	    21.147
  -170.777	   116.389	    12.759
   165.276	   126.436	     2.715
  -164.340	   107.248	    -6.264
  -160.426	    98.216	   -11.958
   169.680	    98.205	     2.281
   179.338	   120.861	     7.225
  -169.149	   104.716	    16.018
  -161.644	    95.368	    -3.114
  -175.268	   109.509	    -5.216
  -179.738	    94.948	     3.935
   174.241	   128.600	     1.641
   167.529	    94.199	    10.025
   178.988	   115.891	     3.309
  -179.834	   131.150	     7.422
  -167.721	    96.880	     9.255
   171.027	    91.790	    16.077
  -176.094	   100.192	    24.381
   177.234	   101.407	     7.501
   179.694	   141.082	    26.812
   173.055	   126.775	     7.857
   173.719	    93.614	    14.947
  -178.512	    99.596	     7.912
  -172.522	    91.497	    20.687
  -176.193	   105.395	    10.199
   178.803	   103.610	    -3.300
  -178.418	    80.602	     5.658
   174.137	   107.199	    12.240
   172.095	    92.416	    11.934
  -173.029	    82.447	     8.932
  -161.877	   115.057	    21.145
   172.490	   121.136	    26.313
  -166.031	   129.126	    -2.994
   175.154	   126.127	     4.079
   176.195	   116.620	    15.013
  -167.096	   134.716	    17.381
   179.209	    94.442	    19.181
  -174.483	   124.724	    -4.537
  -178.494	   127.964	    -8.961
   174.077	   119.541	     4.987
  -175.990	   102.815	   -15.527
   167.846	    80.812	    15.097
   174.262	   115.068	    -0.787
  -176.783	   139.467	     8.969
   174.222	   113.186	    13.696
  -172.753	   126.594	    19.733
  -172.933	   136.458	    18.398
  -167.926	   118.281	    19.384
  -177.112	   105.081	     5.052
  -158.566	   117.865	     9.192
   175.042	   127.724	    23.609
   177.550	   111.426	    -2.315
  -176.435	   129.820	    -4.403
   173.586	   127.056	    13.556
  -157.709	   134.024	     4.548
  -170.766	   110.914	   -21.637
  -174.423	   108.812	    -0.805
   177.294	   120.447	     6.372
   176.908	   114.294	     5.086
  -178.385	   114.774	    14.204
   172.749	   120.092	     5.324
   175.882	   144.630	   -12.714
   171.483	   110.560	    -5.444
  -171.722	    99.711	     9.556
   178.360	   100.554	    10.565
   175.185	   105.806	    10.400
  -179.496	   131.442	    18.328
  -177.825	   139.577	    -0.369
  -178.009	   130.597	     5.345
  -177.544	   141.946	    -3.188
  -171.956	   118.237	    -5.849
  -169.100	    99.514	     2.836
   171.482	   114.204	     5.120
   164.486	   115.527	     8.980
   170.106	   103.880	    -1.221
   174.489	   105.880	    -0.664
   156.124	   115.432	    13.888
   175.096	   123.035	   -10.965
   179.778	    90.099	     5.901
   174.586	   106.520	     4.706
  -173.828	   121.768	    18.058
  -165.189	   109.656	   -13.203
  -175.199	   119.056	     1.602
  -176.445	   127.995	    -2.292
  -165.997	    95.694	    12.049
  -177.117	   122.643	    -9.322
  -174.656	    99.011	     2.644
  -177.240	    99.343	    13.102
  -167.244	   101.266	     5.247
   171.003	    86.419	     7.322
   130.234	    69.964	     1.508
    91.708	    90.529	    -7.896
    89.959	    99.855	    -0.065
    88.818	   117.561	    -3.708
    81.766	   125.582	    -4.647
    90.260	   116.883	   -14.394
    79.523	   128.391	   -19.682
    69.131	   132.905	   -10.598
    86.267	   110.710	   -16.272
    74.593	   101.170	   -22.960
    80.205	   101.143	    -6.229
    82.572	   130.732	     1.723
    84.677	   150.424	   -12.522
    74.286	   125.935	     3.276
    85.124	   131.239	   -14.921
    80.910	   101.768	    -4.717
    89.278	    94.898	    -9.266
    80.659	   110.571	    25.274
    78.831	   135.679	   -14.564
    88.238	   101.341	   -25.616
    82.756	   113.012	     0.266
    80.473	   138.817	     2.019
    78.269	   103.453	     0.086
    78.318	   132.243	   -21.952
   100.028	   112.429	   -17.377
   101.648	   109.824	   -18.682
    83.362	   115.352	   -15.963
    65.163	   124.905	     1.327
    87.144	   118.036	    -9.357
    83.965	    90.095	   -16.302
    82.081	   110.347	   -11.214
    80.494	    93.877	    -0.565
    92.355	    93.579	   -12.518
    79.053	   108.274	     0.435
    83.131	    95.586	   -10.081
    85.525	   106.144	   -22.636
    81.926	   105.373	    -3.892
    83.961	   109.031	    -7.125
    81.723	    94.958	    -5.404
    85.631	    84.437	     6.047
    63.829	    90.523	     4.598
    67.883	    92.946	    -2.766
    70.992	   130.812	    -0.679
    87.650	    97.884	    -6.205
    75.251	   119.233	    11.147
    85.951	   128.070	    -6.545
    75.951	   109.582	    -7.874
    76.034	   108.786	    -2.900
    73.909	   100.969	    10.020
    81.572	   125.204	   -30.499
    73.445	   109.984	    -4.496
    75.486	   106.435	   -13.111
    58.767	    87.679	    19.189
    94.918	   131.020	    16.566
    75.185	   107.582	     7.338
    62.048	    88.261	     9.617
    72.645	    98.439	     4.255
    86.418	    97.458	   -12.816
    77.031	    71.852	    12.033
   111.823	   125.015	   -10.879
    78.913	   118.706	   -20.173
    88.622	   108.827	    -7.619
    85.256	    82.325	    -1.689
    78.801	   100.692	    -4.615
    91.628	   113.049	    -6.461
    73.207	   119.627	     3.909
    96.947	   115.676	   -17.601
    77.405	   122.009	     8.877
    85.568	   112.783	   -20.914
    61.325	    97.765	    -5.616
    85.442	   119.510	     3.144
    87.816	   124.668	    -8.974
    84.880	   121.008	    -5.337
    85.451	   125.111	    -0.905
    85.582	   105.198	     1.713
    73.800	   105.677	    10.497
    88.843	   106.986	     8.312
    95.778	   108.851	    28.887
   103.550	   113.989	    28.754
    92.032	    92.035	    -3.651
    79.254	    96.672	     7.264
    74.784	    78.804	     3.168
    87.014	    89.785	     4.443
    79.236	    96.058	     2.148
    85.906	    47.683	    21.076
    73.042	   102.213	    19.446
    87.649	    97.552	   -28.627
    77.646	   113.548	   -13.512
    68.469	    92.969	     1.015
    72.952	   126.317	    -6.703
    85.835	    97.792	    -8.487
    86.669	    92.126	    -8.769
    70.516	    96.917	   -15.550
    76.386	   104.241	     3.031
    81.059	   112.417	     7.351
    79.373	    80.391	    -7.081
    84.539	   113.162	    -9.011
    76.569	   101.251	    -0.337
   101.036	   107.543	    -8.435
    95.333	   110.375	     9.901
    85.458	   110.831	    -3.352
    75.436	   116.977	     7.695
    65.948	    91.322	     6.083
    88.727	   111.357	    -8.709
    81.093	   126.173	    -0.987
    95.034	   121.103	   -14.709
    78.497	   109.938	    13.629
    82.683	   130.081	   -17.914
    67.733	   100.091	   -12.151
    85.668	   109.552	   -13.064
    82.141	   122.256	   -18.773
    98.330	   112.527	    -9.053
   108.964	   113.337	   -17.290
    79.071	   122.144	     4.215
    72.654	    95.142	   -14.520
    81.688	   128.555	    -4.016
    89.397	   113.275	   -10.285
    70.461	   112.331	    -4.595
    83.713	   109.028	     1.946
    98.549	    94.009	   -25.090
    77.550	    68.384	     4.717
    85.949	   105.030	     7.117
    84.989	   116.895	    -7.763
    94.804	   127.859	     1.368
    82.073	   111.277	    -0.019
    91.001	    98.060	    -4.528
    76.475	    51.397	    -7.738
    87.095	   138.063	   -23.270
    72.275	   117.317	     2.801
    75.088	    92.230	     0.560
    98.578	   109.080	    -9.772
    77.520	    87.740	    -6.757
    84.196	    96.132	     8.247
    76.060	   113.244	   -18.708
    94.632	   123.948	    -2.563
    73.801	   107.030	    -3.752
    79.843	   101.029	    -8.745
    83.574	   107.685	     3.350
    85.620	   140.757	    -6.151
    91.660	   122.482	    -0.624
    86.361	    97.031	   -14.002
   100.876	   116.064	     9.518
    88.191	    89.839	     0.320
    85.783	    98.509	    -6.803
    73.958	   103.066	   -12.629
    75.137	   119.238	    11.966
    73.829	   104.124	    -0.600
    84.350	   102.175	    -3.752
    87.756	    88.337	    -0.750
    85.563	   102.837	    -3.746
    84.541	   106.227	    -6.406
    79.618	   110.334	    17.454
    93.296	    85.162	     5.700
    70.752	    82.271	    -3.864
    86.589	    73.275	   -17.468
    72.611	   115.277	    16.047
    90.499	    87.001	    -7.946
    65.306	   101.849	    11.637
    92.950	   113.643	   -10.153
    90.488	   125.888	   -31.567
    76.691	   122.276	     0.975
    94.497	   124.148	   -10.246
    81.296	   114.643	     4.237
    79.120	   126.590	    -2.310
    99.360	   122.807	   -18.700
    86.504	   128.780	   -39.060
    71.792	   105.976	    -3.482
    71.500	    90.490	    -0.790
    82.784	   106.631	     2.518
   105.154	   126.580	    -4.475
    94.339	    94.775	    -6.822
    80.672	   110.374	     8.486
    81.727	   122.140	     2.970
    78.744	    95.057	    -3.839
    67.670	    79.814	   -10.023
    75.391	   115.168	    -0.824
    74.980	   107.249	    -0.958
    81.873	   115.191	    -5.616
    75.603	   109.582	     2.242
    84.255	   118.062	    -1.205
    77.260	   124.540	     4.960
    83.029	   133.049	    13.363
    68.318	   110.234	    11.120
   103.523	   117.324	    -9.408
    83.020	   115.905	    15.397
    75.588	    82.963	    -6.726
    81.474	   114.534	     1.564
    81.481	   130.962	     8.850
    86.625	   125.570	    -0.810
   101.134	   122.832	    -6.872
    89.375	   105.583	    -7.482
    71.356	    92.837	     2.225
    65.189	    76.500	     4.824
    70.082	    71.235	     1.303
    98.217	    85.506	     2.239
    80.904	   110.406	   -14.048
    78.520	    95.272	    -5.429
    76.420	    91.084	    -2.758
    76.952	   109.542	    14.601
    89.009	   101.883	   -22.934
    87.567	   104.964	    -4.261
    71.793	   127.810	    -4.201
    66.196	    69.797	    -0.900
    72.945	   109.974	    -8.709
    83.878	    96.625	   -23.612
    91.801	    97.459	   -20.901
    75.480	    99.189	     4.448
    78.472	    88.012	    -5.895
    76.509	    78.007	   -21.582
    94.560	    98.270	   -25.743
    78.804	   114.681	    -3.931
    82.400	   116.090	   -14.907
    94.713	   103.910	    10.468
    72.319	    98.977	    -1.109
    66.281	    96.785	     0.766
    77.446	   109.675	    -7.529
    72.973	    94.644	     2.913
    82.337	    94.079	    11.476
    97.642	   117.006	     8.938
    77.622	   118.645	    -3.792
    72.500	   107.317	   -24.762
    82.425	   126.348	    17.665
    86.897	   111.318	     5.575
    65.859	   105.865	    -1.801
    93.889	    85.046	    -6.722
    79.592	   103.786	    -4.044
    72.872	   108.544	    22.111
    82.392	   106.969	     5.989
    83.590	   102.552	     1.065
    86.550	    89.769	    -7.237
    85.473	   126.918	    -7.420
    86.139	   104.370	   -12.587
    79.023	   135.947	     9.611
    67.231	    88.511	     9.112
    85.298	    93.004	   -11.841
    77.988	   106.189	   -11.237
    78.165	   121.820	    -0.785
   100.231	   111.437	   -15.853
    76.352	   105.491	     5.630
    95.193	    82.065	    -6.997
    87.581	    87.904	   -10.027
    80.157	    78.088	    10.374
    65.468	    69.274	    10.457
    86.830	   107.261	   -19.256
    79.282	    90.581	    -0.217
    84.074	   117.978	     1.604
    85.377	   116.813	     2.584
    68.447	    68.129	     6.063
    86.643	    92.914	   -15.869
    77.838	   125.731	    -0.933
    90.207	   127.334	    23.918
    92.819	   135.383	   -17.852
    79.016	   103.355	     1.021
    83.233	   138.712	    -3.775
    92.829	   112.095	    -0.525
    74.981	   128.787	     7.866
    71.217	   142.714	   -10.202
    81.998	   101.514	    29.646
    89.137	   140.423	    -1.664
    68.029	   106.156	     6.949
    72.162	    98.592	   -16.098
    76.798	    73.328	   -14.697
    90.044	   105.134	   -16.539
    80.243	   109.060	     6.948
    90.268	   127.728	   -13.155
    84.652	   136.963	    -1.665
    79.056	   117.464	   -15.434
    87.397	   135.716	     3.744
    91.703	   117.642	     6.110
    95.074	   135.155	   -12.929
    79.289	   135.277	   -17.855
    79.215	   106.777	    -9.231
    76.895	    79.832	    -7.623
    78.108	   116.853	    -8.882
    94.110	   104.385	    -6.757
    80.291	   121.987	    -1.573
    78.980	   102.876	    -6.582
    75.951	   123.397	     0.714
    92.731	   121.886	     5.649
    96.490	   116.534	    16.376
    75.039	   114.187	    -6.802
    85.168	    93.373	     1.112
    81.932	   109.704	     8.973
    69.319	    88.834	     1.070
    87.001	   132.756	   -12.907
    85.449	   111.657	     9.717
    74.706	   110.783	    10.244
    76.069	   117.467	    -7.201
    93.749	   102.335	   -12.840
    67.201	   112.052	     7.357
    89.414	   125.354	    -5.490
    74.163	    71.860	     0.998
    77.816	    75.406	   -11.067
    70.877	    90.060	    -2.400
    92.734	   108.923	     8.825
    86.025	    95.990	     2.435
    89.015	   106.404	   -10.564
    87.455	    91.794	    -5.095
    74.475	   100.803	     1.990
    78.215	   132.839	     3.405
    85.491	    91.541	   -16.170
    73.366	    97.914	    -6.841
    90.168	    92.804	   -20.535
    82.303	    89.361	    -9.099
    76.514	    66.350	    -5.953
    69.543	    71.528	    -8.187
    77.132	   115.856	     2.548
    84.960	   113.439	     0.604
    74.308	   108.291	    -8.361
    82.230	    82.312	   -16.387
    69.361	    74.175	   -10.258
    73.995	    95.095	    -2.876
    90.125	   124.213	   -12.643
    86.668	   126.598	    12.025
    95.276	   108.499	   -12.001
    82.973	    71.304	    -5.906
    77.786	   135.788	     2.840
    84.891	   114.840	     7.035
    84.436	    87.563	   -17.217
    68.942	    70.343	    -4.855
    79.110	    96.127	   -10.457
    99.392	   111.640	     5.867
    68.269	   108.260	     0.106
    88.969	   109.435	    -5.650
    85.937	    86.755	     9.643
    82.463	   102.994	     9.374
    82.404	    81.853	    -0.336
    73.390	    98.292	   -15.348
    87.434	   102.457	     5.281
    91.059	   139.397	   -10.541
    84.845	   111.388	    11.736
    82.245	   101.005	     8.441
    79.877	   117.125	    -3.030
    77.472	   121.479	    19.885
    78.935	   113.915	    -4.610
    84.793	   133.453	    -6.751
    81.776	   107.354	   -33.190
    81.560	   103.807	     6.770
    80.661	   101.779	    -2.093
    93.121	   131.373	    -5.612
    76.371	   102.500	    -8.855
    78.408	   113.755	    17.288
    80.234	    90.983	    -5.936
    80.466	    73.788	   -16.315
    77.763	   108.958	     4.669
    83.553	   122.075	     8.912
    84.806	   103.191	   -17.444
    86.021	   125.928	   -14.560
    75.811	   125.517	     7.616
    70.967	    95.535	    -4.284
    84.819	   110.563	     3.920
    80.756	   115.923	     6.164
    79.415	   123.088	     2.757
   104.501	   107.407	    -6.285
    77.943	   103.930	    -4.635
    63.406	   120.210	     8.262
    70.931	   110.065	    -4.512
    73.700	   119.285	   -14.849
    88.278	   102.544	   -10.585
    96.721	   104.899	    -2.191
    87.889	   114.772	    -5.148
    80.300	    59.527	     3.439
    77.681	    72.547	    -7.706
    79.365	    95.454	   -17.757
    75.171	    83.919	   -16.084
    79.863	   116.121	    -2.422
    79.278	    86.978	     0.052
    85.559	   100.515	    10.785
    89.705	    98.304	     1.296
    82.720	   113.823	   -19.918
    86.071	   110.708	    -9.706
    91.727	   129.640	     7.288
    80.593	   109.849	     7.682
    93.660	   119.301	   -27.603
    74.839	    78.855	    -3.308
    85.755	    82.797	     4.432
    91.180	    70.204	    -8.870
    78.213	    91.012	     2.531
    78.072	    92.094	    -9.617
    87.182	    84.892	     6.719
    81.792	   105.130	    -5.100
    79.981	   107.493	    -5.355
    85.724	   114.592	    -4.562
    66.672	    76.081	    -1.836
    80.055	    97.932	    -2.676
    71.267	    83.102	    -9.514
    81.317	    92.680	     0.108
    89.305	   121.241	     6.559
    98.408	   125.690	    -7.745
    80.779	   114.296	     1.653
    85.455	   120.081	    -1.410
    85.143	   122.244	    15.355
    85.812	    83.704	     3.207
    75.508	    95.395	     5.931
    74.701	   111.283	     0.221
    78.247	   104.430	    -0.912
    92.104	    98.620	   -15.682
    69.419	   105.569	     1.541
    80.118	   120.950	     3.421
    83.233	   112.471	    16.429
    90.227	    85.452	   -12.342
    75.606	   116.440	    -2.548
    97.524	    92.439	   -19.078
    85.169	    55.044	   -19.032
    72.967	   108.719	    -6.515
    80.053	    83.602	   -17.036
    65.195	    89.487	    -0.368
    94.410	   117.039	    -1.727
    79.684	   124.837	    15.672
    74.256	    84.778	     3.709
   100.505	   115.922	    -1.516
    83.332	   104.295	    13.226
    79.517	   113.277	     6.649
    94.160	   110.661	     1.253
    77.483	   110.590	     2.500
    84.931	   105.887	    -0.601
    99.056	   116.503	   -19.435
    77.688	   118.760	     7.825
    89.533	    98.751	   -18.143
    88.964	    95.004	   -15.097
    95.837	   106.684	   -12.807
    87.065	   131.107	   -15.314
    79.182	   144.546	   -11.840
    79.944	   145.516	    -0.820
   100.349	   107.143	    -4.085
    82.188	    90.859	    -6.863
    72.831	    76.257	     7.775
    84.699	    91.523	    -4.832
