   -92.310	   122.143	    -3.179
  -124.672	   -99.245	   -18.718
  -163.151	   -71.591	    13.092
  -155.738	   -76.174	    -1.187
  -159.247	   -58.229	     0.084
  -156.825	   -73.596	     1.826
  -153.320	   -60.459	     8.162
  -144.056	   -58.003	     3.041
  -162.625	   -97.753	    -2.279
  -138.900	   -76.003	    -0.385
  -153.714	   -41.883	    15.767
  -155.489	   -42.672	     8.837
  -165.958	   -73.890	    19.746
  -151.330	   -67.594	    15.592
  -152.967	   -66.827	    -7.001
  -143.595	   -48.515	    -6.311
  -145.295	   -43.927	    13.875
  -163.652	   -62.254	    -8.319
  -154.559	   -60.916	   -12.618
  -136.791	   -70.342	    -8.005
  -153.165	   -76.817	     4.983
  -144.277	   -87.412	    12.891
  -154.541	   -89.211	   -12.317
  -138.520	   -84.413	     5.657
  -150.042	   -81.217	     7.488
  -141.464	   -94.286	     3.825
  -157.497	   -91.375	    -3.715
  -132.880	   -56.941	     2.929
  -161.828	   -87.050	    13.073
  -159.744	   -37.934	    16.025
  -149.024	   -43.372	    -2.714
  -167.071	   -53.383	     5.550
  -160.714	   -58.069	     9.996
  -155.603	   -57.809	   -10.342
  -160.621	   -67.754	    13.692
  -143.880	   -55.708	     4.320
  -153.875	  -102.008	     9.058
  -141.631	   -71.165	    13.742
  -145.548	   -66.151	     2.779
  -139.596	   -67.777	    -1.054
  -152.214	   -50.489	     5.996
  -150.762	   -42.879	    -3.987
  -154.352	   -70.091	     9.174
  -154.929	   -36.634	     4.862
  -139.251	   -70.812	     7.964
  -158.766	   -66.965	   -12.317
  -145.065	   -55.236	    -8.540
  -163.478	   -44.894	     6.965
  -138.873	   -71.719	     8.929
  -160.382	   -67.279	     9.937
  -162.435	   -64.610	     0.526
  -160.817	   -36.723	    -1.100
  -151.600	   -67.868	    12.596
  -153.939	   -73.882	    -1.427
  -152.870	   -67.045	    -8.354
  -142.716	   -58.449	   -21.878
  -155.836	   -46.807	    11.251
  -150.629	   -73.775	    15.156
  -135.307	   -42.572	     2.934
  -170.355	   -73.055	     2.887
  -157.091	   -75.148	    11.518
  -150.551	   -56.506	    -7.807
  -159.414	   -54.448	    14.278
  -158.191	   -64.356	    11.688
  -159.517	   -50.464	    10.569
  -147.416	   -60.861	    16.947
  -155.471	   -62.206	    20.885
  -142.996	  -101.919	   -16.893
  -152.450	   -74.339	    18.838
  -160.034	   -55.169	     5.097
  -167.087	   -63.519	     3.894
  -150.344	   -56.789	     7.296
  -145.727	   -60.158	    13.616
  -164.523	   -53.239	    -4.609
  -157.533	   -68.950	    -0.435
  -143.038	  -100.754	   -10.088
  -147.215	   -70.273	    -8.635
  -166.037	   -62.953	     4.126
  -166.788	   -59.240	    14.490
  -136.986	   -66.684	     5.349
  -140.836	   -56.056	   -16.820
  -156.704	   -81.568	     9.278
  -163.548	   -52.854	    -7.029
  -163.657	   -73.361	     4.893
  -149.499	   -71.999	    14.903
  -144.094	   -42.514	    17.939
  -158.741	   -51.671	    -0.540
  -155.557	   -59.622	   -19.114
  -170.161	   -85.655	     0.633
  -137.439	   -56.225	   -10.954
  -141.800	   -57.629	    10.798
  -143.402	   -61.252	     4.427
  -158.596	   -66.515	    -5.295
  -143.898	   -58.062	   -12.390
  -152.383	   -73.273	    13.861
  -154.240	  -105.900	    19.657
  -159.566	   -60.082	     8.809
  -148.217	   -73.485	     6.831
  -147.378	   -93.259	     3.698
  -150.088	   -55.349	   -12.650
  -166.072	   -65.041	    10.859
  -151.963	   -66.275	     2.024
  -161.833	   -56.457	     0.074
  -151.685	   -53.015	     9.015
  -161.645	   -51.554	    13.370
  -149.344	   -98.126	   -12.564
  -137.491	   -66.639	     6.244
  -130.933	   -52.544	    17.641
  -143.769	   -47.643	     1.579
  -152.611	   -52.401	    10.615
  -158.750	   -69.999	     9.771
  -157.424	   -68.785	    -1.815
  -151.556	   -68.620	   -17.175
  -152.958	   -83.929	    -0.167
  -168.905	   -64.035	    11.711
  -154.059	   -60.035	   -11.231
  -161.530	   -44.794	    -5.266
  -163.640	   -56.384	   -14.133
  -152.331	   -66.614	    -3.027
  -164.223	   -73.842	     8.070
  -154.011	   -74.584	   -16.605
  -152.676	   -73.915	     0.125
  -159.247	   -77.136	   -11.200
  -151.018	   -60.563	     7.112
  -162.899	   -42.675	     0.014
  -157.124	   -58.803	    -9.746
  -133.454	   -55.093	    -4.981
  -151.069	   -60.804	    -7.890
  -159.269	   -46.704	    -8.177
  -122.932	   -53.220	    -5.742
  -144.466	   -19.292	     1.026
  -156.825	   -64.344	     1.124
  -165.977	   -36.201	    -0.955
  -152.500	   -57.009	     2.797
  -168.508	   -71.141	   -10.005
  -167.775	   -82.860	    10.473
  -158.787	   -70.203	    -2.394
  -158.284	   -89.579	     1.679
  -152.050	   -58.807	    12.940
  -164.888	   -72.421	     7.468
  -156.263	   -67.053	     3.653
  -150.845	   -62.755	    -7.342
  -153.452	   -70.230	     9.647
  -159.601	   -58.998	     4.376
  -160.341	   -62.550	     1.615
  -167.703	   -83.725	    11.140
  -153.402	   -77.201	   -15.588
  -139.412	   -69.245	     0.215
  -131.575	   -71.673	    12.663
  -154.645	   -34.687	    21.248
  -144.442	   -53.775	     6.190
  -155.355	   -54.064	    -5.914
  -144.868	   -62.394	   -13.203
  -148.906	   -49.907	   -24.632
  -151.890	   -46.345	    -2.505
  -149.787	   -61.610	    -4.820
  -129.053	   -75.012	     1.118
  -155.713	   -84.582	     4.649
  -164.982	   -60.008	    11.996
  -163.559	   -54.662	   -16.629
  -153.011	   -54.429	     2.552
  -151.254	   -67.124	    -9.327
  -153.684	   -73.256	     5.872
  -170.055	   -49.220	    -1.911
  -171.698	   -56.303	     2.838
  -151.727	   -55.278	    14.433
  -161.065	   -62.053	     1.962
  -158.229	   -63.610	    -8.281
  -160.298	   -56.706	   -12.986
  -161.869	   -60.972	     4.262
  -148.072	   -64.459	     6.015
  -161.984	   -49.663	   -13.140
  -161.025	   -71.645	    12.329
  -165.932	   -71.810	    25.372
  -148.850	   -70.104	    12.801
  -141.293	   -70.038	    -4.251
  -143.523	   -51.828	     1.255
  -162.334	   -54.014	     6.748
  -159.911	   -55.548	    -7.852
  -152.246	   -67.277	    10.815
  -164.168	   -49.774	    10.102
  -169.984	   -55.537	    10.091
  -147.639	   -70.211	   -16.132
  -153.032	   -78.961	   -20.780
  -154.947	   -56.417	    -5.785
  -139.849	   -80.588	    -2.033
  -151.771	   -90.031	     7.750
  -161.377	   -54.157	     4.460
  -145.429	   -47.577	     7.996
  -148.607	   -67.646	   -12.173
  -161.757	   -51.646	     3.594
  -146.720	   -64.850	    -8.921
  -153.571	   -62.464	     4.698
  -158.537	   -71.540	    -8.102
  -153.526	   -59.214	     9.459
  -172.685	   -53.083	   -16.135
  -136.820	   -62.990	   -10.169
  -161.233	   -63.540	    -2.321
  -169.143	   -53.292	     6.077
  -166.056	   -58.847	   -10.941
  -160.419	   -56.013	    -2.729
  -150.806	   -69.453	     4.965
  -155.491	   -68.869	    -2.478
  -132.092	   -44.219	     6.015
  -151.891	   -61.082	     9.631
  -146.830	   -39.032	    -7.427
  -157.101	   -59.964	    -7.498
  -156.806	   -70.232	    -2.285
  -153.984	   -26.286	     2.288
  -155.951	   -65.466	     9.782
  -158.330	   -47.996	    -4.182
  -151.715	   -55.823	    -5.558
  -136.171	   -53.619	    -6.193
  -155.755	   -81.073	     4.588
  -165.769	   -46.076	     0.040
  -147.641	   -61.772	   -12.120
  -149.107	   -64.298	     7.736
  -163.845	   -47.188	    -9.274
  -148.522	   -57.760	    -6.546
  -141.238	   -71.233	    17.586
  -157.714	   -72.257	   -14.274
  -160.477	   -48.513	    -9.243
  -169.416	   -57.838	    14.887
  -153.342	   -57.556	   -15.667
  -168.536	   -71.451	    -7.384
  -156.066	   -66.638	     3.714
  -172.588	   -79.301	     1.796
  -171.533	   -53.998	   -12.977
  -161.239	   -50.428	    -4.507
  -130.581	   -72.897	    -6.425
  -174.030	   -66.682	     5.315
  -160.403	   -63.558	     1.170
  -152.227	   -50.168	     2.547
  -157.472	   -46.871	     8.255
  -153.384	   -67.266	    13.708
  -150.071	   -76.311	   -14.216
  -153.582	   -62.385	    11.652
  -164.748	   -70.096	    12.318
  -158.934	   -67.366	     1.606
  -154.543	   -58.997	     5.069
  -153.135	   -74.002	   -22.785
  -164.871	   -64.625	    -0.783
  -150.243	   -48.504	    -5.786
  -149.148	   -53.263	    21.588
  -146.327	   -74.259	     3.703
  -151.630	   -62.840	    15.425
  -142.957	   -54.165	     5.724
  -154.061	   -50.759	     3.351
  -151.869	   -65.366	    10.791
  -142.604	   -72.274	    15.605
  -142.068	   -56.513	    13.279
  -134.592	   -71.325	    11.089
  -164.539	   -61.687	    -5.449
  -163.120	   -55.253	   -10.928
  -154.243	   -63.920	     4.751
  -170.214	   -57.167	     7.666
  -135.308	   -51.452	    -4.315
  -149.625	   -55.962	   -12.944
  -155.420	   -60.481	    -3.817
  -159.071	   -73.853	    -5.353
  -157.365	   -51.757	    -6.484
  -161.483	   -73.737	    -6.824
  -155.470	   -53.692	    -6.700
  -163.744	   -52.165	     3.591
  -170.028	   -65.392	    -3.004
  -147.251	   -76.117	   -12.029
  -149.178	   -66.208	   -17.705
  -162.621	   -81.534	     4.911
  -160.785	   -78.732	    13.351
  -148.019	   -53.499	    -2.275
  -149.984	   -51.934	    -4.476
  -158.858	   -50.850	     0.342
  -153.292	   -65.999	     5.621
  -153.177	   -67.327	    10.009
  -160.275	   -63.745	     1.520
  -155.576	   -71.846	    -4.264
  -157.337	   -75.929	     9.136
  -157.202	   -94.929	     4.405
  -160.196	   -77.626	     8.760
  -161.516	   -67.540	     3.617
  -161.888	   -69.929	    10.263
  -152.140	   -77.808	     6.305
  -150.377	   -59.022	    -7.185
  -161.944	   -53.074	    -1.856
  -151.666	   -67.138	    -9.939
  -170.693	   -65.985	     2.636
  -153.257	   -63.026	   -10.447
  -151.759	   -42.509	    17.423
  -164.839	   -50.302	    -0.867
  -151.902	   -47.647	    11.427
  -145.733	   -63.302	    11.966
  -143.486	   -81.480	    -1.766
  -163.879	   -52.759	     8.654
  -167.302	   -59.883	    15.849
  -161.402	   -53.895	    17.972
  -159.402	   -54.752	     0.350
  -163.393	   -79.924	    -2.416
  -147.626	   -57.036	   -12.664
  -154.630	   -57.185	   -21.284
  -156.715	   -50.982	    11.713
  -144.248	   -86.289	   -10.415
  -155.592	   -63.023	    18.372
  -145.774	   -46.087	    14.611
  -144.521	   -33.280	    26.657
  -130.001	   -53.634	     9.034
  -159.826	   -60.215	    -4.928
  -144.649	   -50.411	    -0.923
  -157.829	   -74.985	     4.233
  -142.636	   -75.782	   -10.462
  -161.120	   -69.628	     7.072
  -159.213	   -53.797	   -21.116
  -156.111	   -73.861	     6.447
  -156.156	   -63.288	     8.463
  -150.836	   -66.895	    15.010
  -150.087	   -56.694	    -1.527
  -160.967	   -82.676	     3.376
  -160.342	   -72.557	    -3.412
  -151.049	   -78.924	     2.773
  -150.534	   -90.861	    -1.783
  -157.834	   -49.096	    11.960
  -157.366	   -58.203	     4.442
  -155.375	   -64.578	    -7.330
  -142.988	   -64.983	    -5.319
  -126.417	   -62.325	    10.446
  -146.092	   -63.072	    18.303
  -155.127	   -86.381	     0.621
  -148.464	   -75.663	    -6.826
  -154.726	   -66.408	     8.303
  -159.435	   -60.436	    -9.206
  -154.765	   -58.182	    -9.948
  -162.508	   -56.302	     8.042
  -171.934	   -65.178	     7.685
  -164.165	   -58.378	    -9.688
  -171.691	   -93.990	    17.978
  -160.786	   -67.045	    -9.045
  -158.045	   -74.277	    -1.987
  -139.417	   -60.918	   -15.122
  -146.909	   -83.821	    -5.782
  -152.946	   -69.660	    -7.365
  -157.197	   -85.674	    10.184
  -159.384	   -59.838	     9.068
  -147.245	   -50.709	    -3.172
  -160.320	   -51.163	    -2.404
  -155.321	   -57.626	    -6.994
  -139.185	   -72.027	   -11.111
  -144.239	   -92.099	     2.051
  -152.259	   -65.622	    -1.347
  -134.334	   -67.717	     3.679
  -151.440	   -68.629	    13.405
  -149.356	   -64.176	    -2.090
  -158.713	   -78.944	    -2.485
  -139.105	   -33.587	   -11.366
  -155.363	   -47.823	     0.507
  -144.743	   -56.780	    17.078
  -164.527	   -52.404	     5.875
  -150.186	   -65.254	    -0.721
  -154.491	   -72.619	     0.669
  -155.335	   -61.622	     3.487
  -163.742	   -58.720	    12.556
  -157.964	   -69.809	    -6.178
  -160.243	   -57.760	    -6.496
  -169.667	   -43.696	    20.832
  -139.816	   -38.896	    17.376
  -142.897	   -55.831	    15.883
  -149.672	   -51.983	    -1.683
  -157.786	   -46.982	     3.981
  -158.050	   -63.263	     7.662
  -140.882	   -67.062	    -2.347
  -165.754	   -55.776	   -11.232
  -170.059	   -74.189	     4.041
  -142.071	   -34.964	   -11.274
  -160.679	   -53.894	   -17.380
  -150.551	   -69.775	     2.619
  -159.883	   -51.436	    -9.659
  -163.401	   -54.041	    23.616
  -157.492	   -66.296	    11.962
  -143.977	   -58.722	     3.894
  -150.309	   -87.313	    -1.168
  -150.406	   -58.990	     8.681
  -157.918	   -51.796	    27.437
  -153.696	   -45.175	    11.466
  -163.700	   -66.428	    14.187
  -150.836	   -85.245	    13.834
  -151.486	   -48.500	     4.318
  -166.083	   -62.161	     1.911
  -166.834	   -50.023	     9.338
  -149.785	   -58.277	     1.536
  -154.369	   -54.208	    -9.873
  -157.361	   -55.637	     3.093
  -160.774	   -79.175	     1.644
  -164.997	   -60.312	    -1.765
  -171.121	   -53.598	    10.644
  -169.917	   -65.904	     7.503
  -151.172	   -84.732	    -2.508
  -162.526	   -79.825	    12.926
  -139.174	   -89.488	    11.254
  -151.648	   -81.242	     5.029
  -158.733	   -74.315	    -6.968
  -144.245	   -56.038	    20.505
  -169.683	   -97.950	    -0.237
  -154.444	   -53.346	    16.800
  -159.623	   -50.673	     6.337
  -162.143	   -40.194	     4.832
  -149.411	   -65.362	    -1.349
  -154.749	   -77.230	     1.945
  -149.585	   -91.724	   -16.021
  -152.173	   -81.213	    -4.756
  -141.523	   -59.923	   -10.047
  -149.209	   -52.987	     3.773
  -151.305	   -56.137	     2.468
  -161.721	   -81.716	    17.312
  -153.615	   -69.122	   -13.339
  -153.424	   -73.204	    11.246
  -149.364	   -59.866	    10.841
  -161.633	   -43.481	    17.666
  -158.139	   -55.604	     6.490
  -152.412	   -44.934	     3.618
  -148.256	   -55.762	     1.664
  -141.556	   -68.756	     2.134
  -151.954	   -86.332	     7.275
  -157.424	   -57.884	    15.948
  -149.622	   -43.561	    -2.860
  -149.717	   -77.465	    17.973
  -152.060	   -60.349	    -0.777
  -139.868	   -59.209	    -9.430
  -157.204	   -89.506	     0.328
  -167.447	   -70.319	    14.051
  -141.300	   -36.415	    -0.542
  -161.075	   -54.387	    -1.498
  -164.910	   -76.700	   -18.491
  -160.211	   -78.401	   -18.988
  -152.548	   -50.321	   -12.790
  -167.423	   -60.670	     8.183
  -139.296	   -63.113	    11.869
  -157.550	   -31.008	     1.140
  -159.445	   -54.794	    32.536
  -150.994	   -30.719	     4.667
  -167.449	   -48.771	     0.107
  -132.781	   -53.431	    -3.086
  -148.667	   -56.813	    13.820
  -159.935	   -44.512	   -22.346
  -145.635	   -42.710	   -13.444
  -167.334	   -42.512	    -3.590
  -157.851	   -59.001	   -12.599
  -146.926	   -71.275	    -2.884
  -156.411	   -78.466	     5.586
  -161.425	   -72.411	   -17.044
  -122.751	   -87.774	    -2.058
  -160.367	   -65.020	     6.912
  -157.366	   -59.291	   -16.592
  -168.484	   -57.501	     6.589
  -151.731	   -75.333	     0.527
  -166.453	   -67.284	    -5.325
  -160.343	   -48.185	    -2.630
  -137.550	   -65.903	    24.180
  -177.105	   -82.343	     5.012
  -151.878	   -59.871	    -3.396
  -163.997	   -65.666	   -14.969
  -145.236	   -89.031	    -4.822
  -165.778	   -69.596	     3.603
  -152.270	   -49.659	     9.346
  -139.978	   -44.596	    -7.955
  -163.658	   -48.384	     6.693
  -148.814	   -35.960	     1.166
  -145.223	   -49.141	    10.711
  -153.234	   -59.379	     2.680
  -147.802	   -49.681	     0.633
  -151.592	   -46.124	    12.685
  -147.126	   -52.759	    -8.850
  -166.978	   -88.912	    29.996
  -150.846	   -61.945	     7.042
  -157.251	   -74.296	   -13.631
  -146.636	   -65.585	     8.468
  -170.533	   -75.980	     4.413
  -152.439	   -49.643	     4.436
  -167.795	   -73.147	    -3.203
  -161.752	   -50.637	    13.387
  -166.504	   -52.134	     0.032
  -141.188	   -74.946	   -16.476
  -155.885	   -59.811	    15.246
  -153.495	   -52.531	     5.410
  -159.845	   -78.162	    -2.451
  -152.134	   -65.732	   -18.492
  -154.514	   -57.795	    -7.818
  -138.540	   -60.515	   -13.066
  -162.041	   -63.411	     1.931
  -148.214	   -62.908	    21.147
  -153.175	   -61.343	     3.135
  -155.779	   -51.183	    19.129
  -162.868	   -68.124	    17.835
  -140.673	   -57.470	     9.490
  -140.365	   -45.320	     4.982
  -142.571	   -56.847	    -3.102
  -142.351	   -68.371	    20.898
  -156.007	   -35.975	     8.891
  -172.011	   -56.385	    14.687
  -151.266	   -51.460	    23.086
  -162.283	   -44.714	    11.331
  -139.606	   -63.307	    14.962
  -161.828	   -49.238	    -2.726
  -164.246	   -51.209	     1.208
  -133.524	   -68.636	     6.344
  -147.941	   -60.333	     6.335
  -135.745	   -61.245	    15.909
  -153.900	   -74.325	     5.795
  -161.756	   -62.917	     2.941
  -146.833	   -56.491	    11.876
  -152.023	   -57.701	    -9.308
  -132.501	   -41.698	    11.241
  -147.101	   -55.863	    11.846
  -155.719	   -71.983	     7.366
  -163.765	   -59.150	     9.660
  -130.537	   -59.211	   -13.648
  -161.215	   -48.585	     3.832
  -142.293	   -65.408	     1.145
  -146.023	   -86.976	    -5.548
  -146.924	   -62.463	     5.337
  -161.956	   -70.066	    -5.084
  -151.108	   -88.556	    -8.267
  -149.921	   -61.818	    -3.195
  -149.310	   -68.989	    17.885
  -167.140	   -49.709	    13.745
  -153.162	   -62.301	     4.403
  -170.368	   -57.810	     6.280
  -159.874	   -62.175	    -5.624
  -165.570	   -66.190	    14.285
  -163.765	   -48.607	     7.110
  -159.872	   -52.457	    23.110
  -158.987	   -47.140	     4.027
  -168.453	   -57.096	     0.343
  -148.828	   -60.011	     1.661
  -156.629	   -62.615	    -1.620
  -153.591	   -85.044	    -3.327
  -155.992	   -58.866	     1.632
  -157.688	   -52.642	   -11.918
  -156.027	   -65.237	     9.119
  -145.657	   -70.133	    -3.191
  -148.519	   -72.663	     3.283
  -151.980	   -65.547	   -14.152
  -151.748	   -55.542	     5.756
  -156.092	   -79.673	     7.049
  -158.644	   -77.119	    13.216
  -159.264	   -55.398	    -6.331
  -144.593	   -87.429	    10.919
  -151.065	   -63.034	   -11.505
  -142.040	   -71.900	    10.740
  -150.509	   -57.297	     7.350
  -155.012	   -50.084	     5.675
  -149.038	   -93.528	     7.016
  -149.139	   -59.437	     9.551
  -158.184	   -81.803	     3.107
  -141.412	   -89.395	    19.221
  -142.085	   -66.008	    12.584
  -144.866	   -48.698	     0.632
  -171.133	   -59.115	    15.056
  -157.610	   -31.586	    11.346
  -136.924	   -55.136	     7.564
  -162.110	   -83.732	    -1.816
  -147.694	   -82.532	     8.156
  -156.607	   -85.764	    -5.873
  -159.224	   -70.591	     7.612
  -138.184	   -70.811	    -0.644
  -157.239	   -54.019	   -22.137
  -168.662	   -65.260	     0.976
  -166.899	   -55.297	    20.167
  -158.027	   -73.288	    -3.504
  -157.828	   -72.292	    11.843
  -146.948	   -46.403	    -8.837
  -166.425	   -63.571	     1.038
  -145.830	   -51.478	     4.391
  -171.429	   -50.092	    26.239
  -143.928	   -64.115	    -2.345
  -157.346	   -70.384	    -0.814
  -145.441	   -62.753	    -1.361
  -163.035	   -61.543	     6.949
   174.146	   -58.585	    26.487
  -157.960	   -54.484	    -1.121
  -156.024	   -73.496	     8.174
  -155.294	   -82.241	    -8.778
  -159.243	   -56.524	    12.736
  -158.320	   -48.171	    12.764
  -141.998	   -68.761	    -2.130
  -150.991	   -61.641	    13.629
  -157.833	   -68.781	     8.548
  -154.093	   -71.982	    -4.468
  -147.539	   -50.994	    19.103
  -150.648	   -51.303	     7.281
  -145.482	   -58.060	     0.925
  -169.546	   -53.876	     1.022
  -159.949	   -49.631	     3.690
  -156.411	   -99.547	   -14.054
  -161.535	   -84.715	    -2.266
  -141.431	   -96.362	    -5.757
  -149.623	   -78.281	     0.531
  -133.490	   -86.619	     7.700
  -164.695	   -69.000	   -10.622
  -149.324	   -49.069	    15.565
  -154.402	   -59.667	    21.623
  -156.098	   -48.314	     3.718
  -156.262	   -82.421	     0.249
  -164.800	   -57.240	     2.324
  -159.785	   -60.853	   -19.629
  -166.976	   -77.838	    12.195
  -172.043	   -54.732	     0.628
  -127.325	   -55.467	   -12.436
  -143.794	   -53.466	    -6.921
  -144.760	   -59.842	     7.224
  -151.969	   -68.895	     2.854
  -161.122	   -44.751	    12.768
  -144.587	   -51.731	     1.160
  -144.401	   -53.299	     2.497
  -158.026	   -78.668	     3.581
  -158.207	   -59.467	    10.612
  -149.817	   -51.965	     3.977
  -162.794	   -43.147	    -7.988
  -147.311	   -78.822	    12.783
  -165.563	   -53.969	   -12.013
  -157.992	   -65.792	    -7.350
  -165.536	   -69.920	    -0.347
  -147.012	   -47.299	    -0.843
  -156.970	   -83.192	    -0.042
  -156.194	   -79.345	    -7.353
  -164.212	   -67.907	   -12.633
  -156.483	   -60.295	    -0.006
  -165.570	   -52.510	     2.921
  -158.744	   -66.176	    -0.135
  -141.099	   -57.594	   -13.355
  -162.613	   -52.205	    -4.244
  -148.042	   -73.661	    -9.429
  -160.732	   -64.106	    13.365
  -160.981	   -62.496	    17.397
  -149.913	   -60.635	     2.781
  -166.794	   -51.320	    12.190
  -151.743	   -48.383	    -4.476
  -168.083	   -38.921	     9.708
  -143.335	   -57.268	    -0.172
  -145.796	   -69.866	   -19.186
  -166.915	   -73.094	    -4.506
  -145.819	   -33.820	   -19.169
  -152.700	   -43.491	    17.390
  -150.198	   -53.356	     2.344
  -168.221	   -61.790	     9.058
  -144.870	   -50.064	    -5.360
  -164.756	   -61.874	   -10.420
  -151.692	   -67.501	    12.468
  -138.782	   -51.754	    -3.981
  -151.478	   -58.689	    -2.728
  -159.532	   -52.608	    -6.580
  -156.597	   -67.569	    -8.671
  -158.775	   -74.643	    -2.258
  -156.476	   -45.844	    -0.561
  -151.317	   -68.292	    21.829
  -163.042	   -65.698	    23.058
  -148.505	   -70.677	    17.164
  -158.206	   -64.634	     3.490
  -159.216	   -81.877	     1.444
  -155.336	   -60.470	    -4.505
  -171.052	   -72.259	     4.209
  -160.884	   -65.005	     2.129
  -145.620	   -82.132	   -15.716
  -173.121	   -67.310	    -4.336
  -149.340	   -66.790	     4.805
  -137.356	   -61.879	   -20.121
  -146.821	   -69.343	    -1.779
  -148.518	   -47.510	    -8.676
  -163.563	   -58.764	     2.356
  -140.405	   -82.662	    -1.589
  -152.867	   -42.359	    -1.960
  -162.983	   -66.266	   -16.389
  -145.808	   -77.838	    -5.884
  -154.691	   -70.967	    -0.749
  -158.146	   -79.764	    10.934
  -172.160	   -56.052	   -29.846
  -131.211	   -73.085	    -2.060
  -138.600	   -86.304	    -4.039
  -142.422	   -87.260	     6.379
  -138.104	   -72.677	    10.898
  -160.229	   -63.037	   -12.670
  -163.705	   -73.797	    -9.233
  -141.099	   -67.175	    -4.210
  -152.104	   -63.816	   -20.469
  -156.302	   -62.730	    21.705
  -148.224	   -51.798	     2.572
  -148.500	   -46.722	    17.793
  -151.284	   -56.267	    -2.252
  -153.767	   -49.529	    21.627
  -149.371	   -56.802	    -1.137
  -163.532	   -54.867	   -16.924
  -136.481	   -62.660	    22.409
  -150.475	   -47.619	    17.458
  -153.624	   -57.057	    -9.299
  -159.954	   -62.306	     6.429
  -158.534	   -57.349	    26.246
  -156.405	   -66.779	     9.541
  -142.705	   -82.288	     7.721
  -136.468	   -78.420	    11.125
  -153.664	   -65.491	     5.613
  -133.107	   -60.060	     0.566
  -132.493	   -54.893	    -9.575
  -159.297	   -87.393	     9.985
  -152.758	   -65.212	     2.547
  -157.854	   -53.468	    -8.639
  -142.200	   -57.617	     3.654
  -162.627	   -64.922	    -5.908
  -156.532	   -66.375	    -6.144
  -149.132	   -81.708	    -2.933
  -159.405	   -56.355	     6.200
  -156.547	   -54.418	    -3.887
  -156.767	   -58.958	   -12.033
  -177.662	   -59.241	    11.854
  -169.085	   -58.196	    -4.146
  -152.263	   -68.879	   -11.123
  -160.060	   -64.091	     4.013
  -157.830	   -65.366	    -5.233
  -151.200	   -65.613	    -2.026
  -153.668	   -51.700	    10.357
  -149.855	   -90.017	     2.192
  -157.106	   -78.350	    11.382
  -158.101	   -62.778	    10.866
  -150.935	   -82.067	    -0.283
  -146.664	   -67.798	     9.315
  -155.948	   -67.025	    -6.646
  -143.440	   -38.758	    -6.151
  -167.314	   -66.994	     6.040
  -152.957	   -42.626	    -3.670
  -145.601	   -69.480	    11.217
  -148.737	   -55.165	   -13.072
  -156.274	   -50.572	    -9.698
  -161.182	   -59.656	   -14.335
  -147.469	   -72.718	     1.191
  -142.883	   -77.830	     2.922
  -175.058	   -64.506	     3.336
  -151.661	   -55.316	   -10.895
  -147.601	   -75.941	     5.648
  -155.454	   -71.763	     2.279
  -159.971	   -41.210	     4.727
  -140.733	   -81.905	    12.313
  -165.493	   -99.084	    -3.212
  -156.969	   -89.231	    -1.581
  -163.511	   -54.823	    12.175
  -161.577	   -61.928	     5.621
  -152.520	   -63.855	     5.600
  -153.708	   -55.098	     0.242
  -163.378	   -64.230	   -11.596
  -156.284	   -67.624	    -2.988
  -171.436	   -91.187	    13.988
  -159.866	   -62.718	     5.999
  -156.482	   -54.546	    -9.480
  -155.843	   -62.753	     0.829
  -164.638	   -58.444	     8.726
  -158.135	   -60.147	     2.367
  -152.021	   -61.940	     1.702
  -168.904	   -48.422	    17.292
  -150.842	   -71.339	   -12.059
  -164.994	   -63.403	     1.202
  -154.826	   -76.278	   -13.879
  -151.434	   -64.714	    -8.490
  -161.013	   -40.949	    -3.171
   176.533	   -39.273	     3.442
  -161.835	   -56.186	     8.666
  -149.388	   -48.516	   -18.280
  -161.053	   -53.458	    -3.908
  -166.845	   -67.517	     4.522
  -151.850	   -56.622	     3.208
  -152.167	   -46.003	    -0.182
  -143.758	   -61.687	     1.699
  -159.245	   -57.852	    -9.420
  -161.890	   -81.961	    -2.736
  -152.733	   -62.656	   -15.971
  -146.798	   -84.216	   -17.999
  -160.402	   -66.643	     7.338
  -171.822	   -58.258	    -5.322
  -154.872	   -57.489	    22.086
  -166.116	   -55.358	    14.521
  -142.925	   -73.562	     1.847
  -145.671	   -66.841	     7.240
  -140.417	   -62.883	     5.986
  -145.299	   -62.576	    -4.060
  -161.707	   -62.111	    -2.315
  -160.100	   -72.239	    18.113
  -168.588	   -64.164	     4.048
  -150.201	   -64.764	    -5.079
  -163.569	   -68.118	    -9.181
  -158.606	   -93.396	     0.928
  -165.072	   -70.719	     9.310
  -137.795	   -83.999	    -8.837
  -164.352	   -56.895	    -7.235
  -155.112	   -62.173	    17.544
  -151.824	   -71.898	    -3.574
  -160.372	   -64.635	    -6.361
  -150.696	   -63.261	     6.773
  -163.295	   -58.607	     9.947
  -159.867	   -73.485	    13.735
  -153.575	   -62.222	    -7.189
  -147.162	   -52.219	   -21.232
  -132.920	   -74.979	    15.858
  -144.803	   -63.306	     7.338
  -126.522	   -58.619	    -2.679
  -153.382	   -60.922	     6.694
  -149.869	   -70.957	     2.170
  -155.495	   -43.902	   -24.386
  -156.347	   -60.038	     4.452
  -142.695	   -86.266	   -19.735
  -166.667	   -26.179	    -7.003
  -158.187	   -59.703	    -2.391
  -157.099	   -32.551	     5.764
  -164.004	   -41.410	   -11.570
  -160.688	   -60.395	    24.217
  -133.960	   -62.508	    -0.240
  -147.981	   -66.615	    11.755
  -161.491	   -63.291	     9.596
  -159.467	   -54.439	    -0.000
  -151.226	   -84.805	     4.488
  -148.011	   -53.755	    34.953
  -147.844	   -65.270	    -5.164
  -162.824	   -68.891	    12.322
  -150.990	   -61.797	   -12.284
  -144.117	   -61.635	     1.271
  -138.343	   -52.117	    -0.063
  -154.208	   -84.022	     3.665
  -170.051	   -54.722	    14.629
  -160.249	   -33.826	    23.538
  -154.112	   -24.578	    -4.262
  -142.499	   -78.839	    10.832
  -153.148	   -73.010	    -3.359
  -137.126	   -53.501	    21.932
  -154.245	   -64.250	    11.763
  -151.233	   -78.169	   -20.045
  -165.144	   -70.939	   -14.759
  -161.079	   -73.371	     2.888
  -160.547	   -73.403	     4.795
  -148.217	   -74.001	    18.972
  -139.907	   -62.704	     0.608
  -165.241	   -66.790	     3.459
  -152.666	   -77.832	    -4.298
  -151.661	   -62.407	    -4.734
  -161.872	   -75.201	     9.581
  -143.730	   -73.521	   -10.469
  -155.374	  -101.071	    -2.780
  -156.155	   -73.738	     1.438
  -164.339	   -90.726	     1.355
  -162.428	   -68.711	    16.309
  -159.771	   -64.566	    -8.149
  -169.788	   -75.928	     4.707
  -138.982	   -61.342	    -0.485
  -134.460	   -76.502	    -9.030
  -144.276	   -77.229	     1.314
  -153.810	   -71.202	     8.719
  -158.772	   -79.806	    23.239
  -154.316	   -96.919	    11.554
  -141.458	   -89.292	    15.969
  -156.009	   -61.755	    29.225
  -149.119	   -70.237	     8.584
  -160.503	   -58.192	    -5.580
  -146.104	   -80.956	     5.813
  -166.583	   -59.589	     7.330
  -163.098	   -40.899	    -2.002
  -131.988	   -52.073	    -3.269
  -175.959	   -51.821	    24.181
  -166.382	   -58.008	    12.343
  -134.533	   -64.396	     7.621
  -155.169	   -27.855	    10.916
  -152.979	   -54.777	    20.533
  -158.150	   -58.409	    -1.223
  -139.071	   -41.762	     6.083
  -167.346	   -65.227	    23.441
  -148.246	   -51.505	     6.832
  -154.234	   -69.945	     5.235
  -151.493	   -61.259	     3.069
  -146.589	   -58.804	    -3.834
  -149.867	   -46.830	     3.770
  -155.839	   -51.560	    -5.097
  -157.514	   -68.711	    -0.077
  -136.034	   -54.987	     4.158
  -147.376	   -62.821	     4.569
  -157.161	   -49.958	     1.522
  -165.083	   -74.415	     1.585
  -141.969	   -76.515	   -10.902
  -171.907	   -74.648	     0.744
  -141.829	   -79.608	   -27.081
  -154.054	   -74.618	    -1.307
  -147.957	   -43.602	     1.872
  -150.477	   -76.122	    14.894
  -178.426	   -47.829	    11.904
  -147.241	   -54.642	    20.827
  -167.340	   -30.746	     7.536
  -146.950	   -62.098	     0.895
  -162.160	   -57.066	   -16.925
  -144.065	   -43.541	     3.191
  -162.135	   -49.758	     4.198
  -163.889	   -47.826	     5.436
  -150.055	   -79.863	     7.693
  -156.707	   -58.778	     1.706
  -172.347	   -51.634	    -7.424
  -160.475	   -76.249	    -5.122
  -157.501	   -79.815	   -14.576
  -162.632	   -50.168	     7.502
  -146.761	   -51.974	    -9.000
  -142.216	   -57.865	    21.044
  -140.285	   -50.861	    11.459
  -149.526	   -60.633	     5.554
  -130.407	   -46.688	    -8.453
  -147.215	   -58.803	   -13.952
  -145.748	   -55.990	     9.345
  -144.976	   -62.438	    20.846
  -161.163	   -87.480	    -7.736
  -145.452	   -72.428	    13.155
  -146.179	   -70.398	     8.907
  -145.720	   -63.095	    17.003
  -142.732	   -61.768	     0.454
  -149.793	   -59.415	   -15.049
  -143.940	   -69.986	   -11.515
  -154.262	   -55.807	     3.926
  -154.128	   -57.418	    -3.970
  -145.428	   -53.240	    -1.778
  -148.304	   -70.371	    -8.727
  -166.385	   -63.057	    -1.913
  -152.434	   -54.078	    10.163
  -140.808	   -43.938	    -6.033
  -152.767	   -90.916	     4.104
  -157.380	   -46.282	     7.446
  -132.954	   -74.179	    -2.086
  -160.722	   -69.693	    10.315
  -141.406	   -49.126	   -18.473
  -165.460	   -49.376	    10.839
  -145.827	   -63.031	     2.389
  -164.772	   -54.817	    -3.988
  -148.675	   -61.849	    -5.258
  -131.089	   -57.253	    -6.834
  -157.721	   -43.254	     8.093
  -142.912	   -56.798	    -8.753
  -169.056	   -67.902	    12.729
  -154.402	   -61.497	   -20.901
  -163.326	   -68.726	     9.319
  -153.269	   -58.493	    15.126
  -152.048	   -57.386	     4.144
  -137.477	   -53.664	    -4.122
  -160.993	   -66.550	     0.109
  -149.689	   -81.811	     7.279
  -145.517	   -64.733	   -15.466
  -157.104	  -108.800	     5.358
  -160.076	  -107.823	    12.782
  -164.069	   -67.312	    -2.076
  -157.631	   -63.371	    -1.834
  -168.839	   -58.828	     9.169
  -148.937	   -43.209	    -5.677
  -168.134	   -58.222	    -1.846
  -153.617	   -76.978	     4.273
  -152.977	   -49.889	    11.516
  -154.906	   -37.298	    -3.625
  -151.612	   -64.027	   -13.684
  -161.856	   -97.691	   -21.070
  -141.679	   -86.264	    -6.040
  -152.741	  -119.727	   -13.580
  -147.683	   -86.517	     4.213
  -151.829	   -71.668	   -22.956
  -152.540	   -76.655	     9.864
  -154.994	   -54.642	    -2.305
  -161.677	   -57.595	    -0.992
  -148.199	   -68.055	   -13.904
  -164.209	   -80.078	     4.126
  -159.315	   -78.979	     9.389
  -156.809	   -52.660	    -7.791
  -150.288	   -67.363	   -12.437
  -151.362	   -72.166	     2.796
  -153.374	   -65.831	   -12.392
  -172.445	   -74.364	     3.139
  -154.196	   -61.922	     2.741
  -166.328	   -50.190	    12.347
  -151.261	   -55.257	    15.782
  -157.317	   -63.581	    -4.677
  -148.680	   -69.101	    -2.352
  -156.031	   -56.757	   -18.992
  -150.396	   -63.113	    -7.988
  -162.511	   -56.182	   -10.414
  -154.574	   -64.920	     7.847
  -154.887	   -38.817	     5.913
  -144.845	   -84.766	     4.634
  -153.005	   -55.421	     6.348
  -161.850	   -62.737	   -12.723
  -154.381	   -66.439	     1.990
  -141.881	   -97.625	    -2.913
  -153.645	  -101.423	     3.411
  -149.540	   -84.100	     1.589
  -151.565	   -58.416	    -3.755
  -148.530	   -67.578	    -8.384
  -145.467	   -72.369	     0.470
  -133.173	   -54.097	    -8.871
  -155.915	   -82.158	    -6.770
  -151.802	   -68.745	    -8.480
  -164.878	   -56.830	    -5.737
  -157.290	   -53.280	    -6.478
  -150.109	   -62.519	    22.781
  -150.837	   -65.426	    14.890
  -165.298	   -73.030	    26.969
  -147.372	   -69.793	    13.943
  -158.645	   -49.584	     5.772
  -159.519	   -61.431	    22.682
  -157.376	   -46.852	    16.219
  -156.789	   -67.331	    -3.923
  -154.184	   -75.979	    11.053
