   -92.310	   122.143	    -3.179
  -143.424	    73.621	    -3.153
  -143.941	    67.812	     1.314
  -159.787	    54.585	    -0.742
  -155.200	    46.652	     7.908
  -157.759	    53.738	     0.022
  -159.079	    51.889	    11.963
  -151.600	    51.496	    14.646
  -149.230	    40.197	    14.477
  -144.737	    81.319	    -0.263
  -144.698	    69.548	     0.485
  -152.300	    49.791	     6.078
  -145.286	    72.870	    -3.540
  -166.250	    59.770	    -1.937
  -142.700	    65.623	     8.991
  -150.470	    83.391	     2.170
  -139.209	    70.338	    -1.636
  -148.155	    80.197	     0.725
  -140.689	    71.422	     1.037
  -147.673	    76.005	     6.618
  -160.343	    70.246	    12.212
  -136.970	    42.159	    -5.175
  -144.750	    38.973	    14.252
  -148.660	    36.878	    -3.864
  -162.568	    70.308	    -9.048
  -144.552	    43.257	     0.097
  -140.732	    76.771	    -0.832
  -153.964	    72.164	     8.928
  -165.031	    69.013	     7.773
  -144.244	    98.644	    16.893
  -149.951	    52.674	     7.378
  -147.724	    62.372	    12.689
  -156.469	    54.636	     7.528
  -145.503	    50.925	     9.014
  -146.606	    38.975	    12.469
  -151.167	    60.902	    -7.564
  -152.768	    56.272	     5.534
  -157.119	    74.530	    12.167
  -162.914	    57.843	    -0.675
  -153.518	    63.900	    -2.622
  -151.642	    62.236	    -4.578
  -155.418	    47.216	    10.216
  -156.795	    90.918	    11.618
  -143.357	    83.459	   -11.415
  -166.638	    60.325	    14.629
  -144.302	    49.367	   -17.018
  -150.159	    69.121	    13.169
  -141.910	    71.501	   -26.954
  -150.105	    83.483	     0.030
  -161.761	    90.791	     6.283
  -148.604	    70.601	     2.344
  -135.743	    33.852	     4.748
  -155.295	    62.558	     5.336
  -153.486	    51.178	    15.867
  -150.741	    56.889	     5.261
  -155.429	    70.969	    -2.805
  -165.090	    95.702	    -2.086
  -156.994	    34.799	    11.473
  -152.255	    58.557	    -4.937
  -151.242	    51.222	     3.843
  -133.342	    67.422	     1.332
  -150.488	    66.847	     4.640
  -158.710	    88.593	     5.770
  -160.132	    70.787	    -3.792
  -134.217	    71.682	     0.978
  -156.151	    55.765	    11.903
  -159.268	    63.403	    14.115
  -153.416	    61.281	    -4.237
  -164.142	    66.523	    -5.335
  -158.002	    54.076	    -3.603
  -160.831	    48.573	     6.716
  -170.972	    48.388	    10.373
  -145.019	    66.317	     9.502
  -146.186	    77.575	   -14.849
  -151.047	    74.094	     6.172
  -154.725	    74.953	   -12.691
  -143.655	    64.617	    -8.971
  -136.793	    73.599	    -7.212
  -137.553	   114.702	     0.901
  -143.203	    87.043	    12.802
  -147.107	    58.781	     6.571
  -156.242	    67.049	    15.814
  -160.665	    59.660	     1.570
  -147.561	    49.961	     0.667
  -146.479	    39.539	    -9.597
  -160.362	    53.983	    -5.083
  -168.619	    69.192	   -16.033
  -147.338	    46.557	     9.356
  -157.091	    72.637	     0.704
  -152.407	    80.239	     9.893
  -147.991	    74.526	    -1.896
  -143.160	    56.834	    10.149
  -158.813	    51.318	    -6.816
  -162.272	    71.360	   -10.825
  -155.218	    66.499	     1.489
  -140.792	    61.867	     3.714
  -147.578	    56.437	    -7.703
  -154.802	    46.788	    -3.316
  -159.286	    80.706	     2.930
  -167.389	    57.502	    13.640
  -164.689	    98.660	    -4.602
  -147.967	    72.765	    -5.120
  -153.721	    68.391	     3.067
  -151.193	    92.718	   -10.121
  -155.791	    59.377	     6.072
  -157.729	    78.531	    -1.001
  -154.504	    81.704	     4.501
  -142.365	    83.376	     7.525
  -155.730	    54.382	    15.556
  -146.206	    65.981	     3.073
  -159.685	    63.782	    -6.755
  -153.457	    34.461	     2.190
  -152.487	    71.214	     5.656
  -161.846	    58.593	     4.853
  -158.160	    60.493	    -4.293
  -149.866	    89.910	    -6.424
  -152.473	    39.365	    -4.211
  -135.869	    41.231	    -6.004
  -149.218	    61.851	   -20.132
  -156.999	    29.623	    10.439
  -159.166	    53.388	    10.647
  -159.039	    56.242	     6.521
  -146.238	    43.365	     4.358
  -150.239	    39.958	     8.480
  -158.875	    62.629	    20.885
  -147.486	    39.511	     8.852
  -151.129	    66.047	   -10.365
  -159.667	    56.063	     1.087
  -140.916	    74.285	   -10.329
  -152.961	    67.919	    10.951
  -161.097	    69.103	     0.531
  -145.830	    58.341	    -1.379
  -158.491	    60.924	    -3.219
  -152.152	    63.753	    -3.906
  -167.190	    81.169	    12.456
  -154.422	    53.242	    -8.958
  -156.984	    80.781	     1.201
  -155.620	    74.641	    -3.138
  -173.998	    79.265	     3.331
  -151.419	    29.507	     7.639
  -150.017	    56.143	    -8.722
  -159.290	    61.134	    -1.922
  -167.646	    63.996	     3.134
  -167.974	    75.228	     0.435
  -160.944	    67.882	    21.637
  -142.101	    61.339	     7.377
  -161.641	    80.669	     3.128
  -163.654	    66.411	     5.736
  -153.573	    76.613	     4.484
  -160.676	    87.042	    -1.741
  -159.834	    60.978	    15.730
  -147.021	    50.185	    -3.193
  -162.273	    52.189	    -0.834
  -152.153	    52.017	    -6.685
  -147.655	    60.359	   -13.407
  -144.446	    80.336	    -8.486
  -145.278	    88.023	     5.215
  -160.225	    66.469	     4.057
  -160.755	    64.460	     6.806
  -158.457	    49.784	    12.317
  -159.801	    68.146	    -8.017
  -159.623	    71.879	     3.639
  -164.887	    54.781	    14.213
  -166.851	    47.980	    17.767
  -157.604	    79.822	    18.140
  -160.930	    81.683	     2.631
  -151.065	    65.326	    -0.751
  -159.256	    59.956	     7.925
  -144.756	    75.214	    -8.158
  -154.795	    43.053	    -8.959
  -156.846	    53.323	     6.706
  -148.725	    57.384	    -5.312
  -151.305	    64.687	    -3.488
  -150.920	    74.965	    -0.153
  -143.700	    94.814	    16.993
  -142.582	    49.404	     3.251
  -145.619	    47.799	     8.402
  -162.760	    69.450	    -0.904
  -154.265	    56.744	    -1.619
  -155.521	    75.667	     7.401
  -154.429	    62.191	     4.501
  -126.745	    62.101	    11.544
  -152.267	    71.760	     4.290
  -155.432	    70.249	    28.815
  -158.430	    67.135	     8.828
  -161.540	    73.400	     5.839
  -147.925	    57.642	    11.747
  -153.670	    67.755	    -3.420
  -152.989	    69.482	    -4.805
  -164.488	    90.096	   -10.931
  -154.268	    75.030	     9.302
  -158.436	    84.452	    16.072
  -161.082	   104.180	    37.937
  -145.336	    72.233	    -6.503
  -150.403	    34.007	     4.086
  -148.294	    66.434	    16.354
  -157.983	    54.710	    11.475
  -153.086	    51.359	    13.010
  -153.754	    65.980	    -7.351
  -166.386	    57.998	     5.854
  -154.723	    36.823	    -2.397
  -153.526	    46.369	     1.486
  -155.576	    50.941	   -21.911
  -169.946	    71.536	     0.048
  -159.623	    97.859	     3.318
  -137.452	    66.306	    -1.555
  -149.376	    73.092	     8.072
  -147.325	    56.423	    18.884
  -163.125	    78.031	    -1.066
  -157.728	    65.916	    -1.531
  -150.180	    70.662	   -10.194
  -153.926	    45.513	     6.522
  -154.102	    55.842	     1.113
  -150.284	    71.701	    16.992
  -146.655	    52.807	    -7.165
  -162.902	    55.733	    -3.191
  -158.419	    64.256	     3.057
  -170.106	    78.256	     7.979
  -156.144	    69.072	     2.762
  -147.369	    66.736	    -2.459
  -144.356	    47.826	     7.309
  -153.282	    56.501	     2.853
  -152.110	    83.648	    -3.959
  -150.325	    75.433	   -10.286
  -142.453	    86.256	   -14.982
  -155.345	    57.820	     5.516
  -145.231	    81.235	     4.782
  -147.879	    57.112	   -22.034
  -146.903	    73.072	     1.823
  -162.725	    77.866	     2.506
  -161.269	    85.178	    -3.713
  -159.005	    59.736	     5.727
  -149.187	    66.542	     0.725
  -151.238	    78.879	     5.255
  -161.770	    45.362	     9.290
  -157.419	    80.920	     2.718
  -163.033	    62.317	     8.866
  -141.427	    66.814	    -9.236
  -154.543	    47.108	    14.708
  -156.710	    55.625	    16.542
  -146.742	    88.965	    -9.943
  -169.114	    75.109	    17.870
  -146.532	    89.446	    -1.183
  -167.828	    65.519	    19.294
  -139.645	    57.762	   -16.327
  -162.411	    58.351	    14.662
  -151.447	    64.748	    -7.690
  -161.343	    54.356	     9.150
  -155.206	    72.765	   -15.754
  -154.350	    80.813	     3.106
  -145.900	    60.655	   -21.961
  -155.226	    58.722	     2.678
  -158.838	    63.155	     2.069
  -164.706	    60.111	    11.833
  -150.398	    76.281	    10.233
  -161.451	    81.607	     7.192
  -160.548	    81.780	   -14.363
  -154.774	    65.456	     0.489
  -157.256	    61.165	    15.267
  -154.471	    57.866	     3.675
  -164.278	    69.146	    -3.159
  -155.019	    69.000	     5.480
  -153.814	    55.506	    12.506
  -139.432	    51.247	     1.457
  -164.529	    65.893	     8.047
  -157.650	    68.558	     0.290
  -144.113	    69.068	    -9.004
  -164.390	    78.966	     5.738
  -165.784	    92.158	    -3.808
  -159.838	    70.730	    -6.720
  -150.986	    73.600	     7.651
  -145.684	    62.586	     4.193
  -161.873	    52.178	    -0.839
  -144.376	    65.268	    -5.724
  -153.197	    66.799	    -5.567
  -162.274	    51.183	    -1.339
  -144.625	    57.932	    -8.181
  -157.410	    55.845	    -1.784
  -157.009	    53.563	     3.951
  -164.721	    62.223	     6.614
  -151.874	    64.077	     5.400
  -160.099	    58.162	    15.891
  -151.600	    71.439	    -0.496
  -156.113	    99.738	    -7.328
  -156.867	    77.022	    22.272
  -161.178	    98.589	   -15.809
  -163.343	    86.853	     8.671
  -145.430	    60.503	    -1.146
  -165.031	    78.130	     4.812
  -157.038	    40.817	     3.919
  -152.090	    54.654	    -0.554
  -159.110	    66.523	    -7.375
  -160.721	    61.155	     9.688
  -169.533	    68.637	    12.111
  -160.761	    64.059	    -2.485
  -148.490	    46.873	     4.791
  -154.326	    46.675	     6.779
  -146.754	    71.622	     0.235
  -137.749	    86.239	     0.924
  -155.102	    56.402	    17.760
  -137.534	    54.805	   -12.986
  -158.761	    77.589	    -0.566
  -151.280	    50.199	     8.650
  -147.100	    64.845	    -6.177
  -126.347	    90.794	    18.041
  -151.538	    75.571	     6.579
  -150.497	    73.520	    15.857
  -159.315	    35.816	    -3.097
  -157.311	    53.410	     1.795
  -148.788	    33.514	    -4.598
  -140.497	    92.496	   -10.847
  -150.613	    64.005	     6.374
  -166.809	    50.988	     2.185
  -151.605	    81.721	    14.375
  -155.433	    57.760	     8.084
  -158.381	    62.967	   -11.221
  -162.898	    58.954	    18.191
  -158.804	    68.928	    12.381
  -164.910	    88.798	    10.807
  -150.718	    52.009	     3.980
  -159.305	    74.564	    -7.781
  -153.982	    55.999	     7.308
  -163.570	    65.052	    -1.203
  -130.624	    69.915	    -0.227
  -159.609	    69.324	     1.627
  -139.623	    38.158	    10.141
  -157.812	    59.846	     8.738
  -160.419	    89.113	     2.155
  -157.722	    73.533	     0.487
  -146.695	    50.189	     0.517
  -165.879	    47.018	    -0.703
  -166.192	    76.072	     2.739
  -165.170	    60.906	    13.798
  -151.936	    77.539	     1.862
  -157.166	    58.090	    -2.595
  -145.559	    66.338	     0.174
  -145.633	    65.126	     1.554
  -167.638	    63.508	     7.774
  -161.648	    53.773	   -10.637
  -164.313	    57.435	     4.084
  -154.480	    64.272	     7.088
  -155.427	    70.811	    -7.673
  -154.695	    65.048	    12.008
  -143.780	    76.753	     4.865
  -155.274	    37.348	     1.725
  -157.958	    64.372	     9.791
  -159.099	    60.027	     1.541
  -163.045	    39.937	    10.615
  -150.541	    61.192	     0.022
  -152.653	    56.394	    -3.588
  -159.594	    99.253	   -16.892
  -165.306	    62.857	     3.600
  -162.556	    61.781	    -0.450
  -155.582	    68.269	    -5.496
  -155.344	    91.813	    -5.025
  -148.969	    55.004	    12.529
  -166.871	    68.432	     6.608
  -162.092	    48.547	    14.147
  -161.631	    73.349	     9.064
  -144.128	    69.069	     5.067
  -155.677	    81.398	    12.230
  -147.634	    68.326	    15.200
  -151.307	    68.725	   -18.906
  -160.043	    82.210	    -2.408
  -167.644	    64.467	     8.378
  -141.576	    68.719	    15.760
  -140.205	    89.859	    10.514
  -153.884	    63.344	     7.424
  -162.579	    62.463	     2.940
  -147.353	    81.591	    15.333
  -147.314	   106.459	     2.448
  -155.472	    66.248	    11.082
  -158.389	   101.787	     7.344
  -155.121	    73.196	     2.786
  -157.800	    56.161	    17.095
  -149.194	    55.472	    15.798
  -160.478	    50.231	   -14.363
  -152.139	    48.223	    12.400
  -152.717	    48.480	    -3.676
  -145.783	    47.439	     5.054
  -161.891	    83.089	     0.002
  -156.110	    47.326	     1.862
  -163.531	    84.874	     0.898
  -158.824	    98.966	    -6.074
  -144.757	    82.004	     8.253
  -155.867	    95.349	    -0.295
  -160.885	    66.516	    -1.102
  -159.561	    59.589	     1.949
  -153.091	    46.161	    -7.874
  -162.672	    67.910	     7.927
  -157.551	    77.902	     1.001
  -160.397	    63.246	    -6.117
  -147.052	    60.277	    20.553
  -150.847	    61.310	    13.091
  -136.282	    59.645	     9.424
  -160.048	    84.220	     3.464
  -135.309	    74.821	    -0.129
  -154.378	    71.527	    27.664
  -149.263	    84.019	     6.839
  -152.657	    83.245	     1.571
  -147.177	    80.614	    -7.471
  -143.093	    85.403	     0.916
  -129.322	    92.363	   -13.912
  -147.759	    70.897	    22.737
  -149.901	    70.483	     6.494
  -147.577	    55.972	     5.395
  -167.871	    74.248	    -0.383
  -150.541	    51.835	     6.761
  -168.128	    69.832	    -0.235
  -156.531	    55.062	   -28.730
  -157.804	    49.383	     6.849
  -160.029	    99.484	     4.600
  -147.840	    87.467	     4.886
  -158.806	    58.197	    -1.045
  -159.756	    86.822	     1.325
  -146.933	    60.851	    -1.170
  -151.928	    49.069	    10.658
  -155.560	    62.538	    16.169
  -161.655	    86.508	     3.748
  -148.239	    59.164	   -21.342
  -160.393	    46.297	     3.095
  -151.097	    72.100	   -11.144
  -162.980	    74.805	     3.089
  -160.170	    67.398	    -3.089
  -169.480	    39.630	    11.246
  -158.186	    53.847	     1.391
  -149.050	    62.393	     5.323
  -148.979	    54.398	    -7.790
  -154.332	    72.410	    -7.430
  -154.288	    80.091	     9.978
  -150.421	    55.221	     1.095
  -143.092	    65.189	    -3.038
  -157.658	    50.485	     1.491
  -166.310	    53.332	    -2.011
  -160.350	    51.669	     7.498
  -159.619	    78.901	     3.167
  -160.119	    77.281	    30.080
  -146.885	    74.654	   -15.880
  -157.533	    84.959	    -7.374
  -143.923	    97.939	    -8.369
  -151.440	    74.897	     6.640
  -152.280	    55.637	     7.343
  -143.695	    53.476	   -14.275
  -160.413	    60.856	     5.149
  -156.936	    49.970	    -2.263
  -141.815	    36.545	    -0.270
  -174.094	    89.825	    -5.875
  -163.542	    64.768	    -2.720
  -142.328	    54.657	    -5.183
  -167.147	    60.281	    -5.576
  -150.681	    49.698	   -17.177
  -158.043	    74.408	     2.455
  -148.766	    61.892	    -8.264
  -156.457	    65.596	    27.562
  -146.744	    79.573	   -13.774
  -149.379	    54.437	    14.334
  -155.346	    56.795	    29.484
  -160.643	    75.783	    -7.151
  -161.775	    63.866	     5.119
  -141.779	    91.235	    -1.908
  -149.841	    95.534	     3.984
  -138.161	   102.047	    13.760
  -160.313	    54.513	    13.804
  -171.888	    75.920	     4.950
  -137.680	    54.976	     5.468
  -158.050	    62.608	    -5.022
  -158.771	   102.048	    11.479
  -149.936	    71.946	    -0.175
  -163.026	    65.969	    13.220
  -152.611	    41.476	     9.790
  -146.211	    61.873	   -15.656
  -160.431	    83.288	    -1.936
  -169.489	    52.710	    -5.554
  -157.890	    65.948	    17.119
  -157.915	    62.911	    -0.013
  -158.436	    81.781	     0.334
  -162.303	    63.897	    19.145
  -155.594	    81.442	   -16.201
  -158.884	    57.697	   -11.423
  -153.136	    56.595	    -1.208
  -161.413	    90.019	    10.004
  -164.238	    84.360	     4.738
  -164.062	    70.431	    13.826
  -150.778	    53.106	    26.374
  -159.932	    50.855	    -3.218
  -164.832	    60.017	    14.940
  -149.054	    63.533	    -1.738
  -143.304	    56.029	   -13.743
  -155.485	    65.352	    11.609
  -134.840	    66.748	     0.954
  -151.306	    60.588	   -11.975
  -150.473	    63.042	   -16.097
  -165.894	    56.708	    -2.726
  -151.196	    38.872	    -2.721
  -135.638	    64.479	    -6.908
  -145.557	    54.633	    13.565
  -166.866	    80.329	    -0.811
  -152.832	    79.249	     1.162
  -161.207	    85.211	     4.000
  -164.602	    72.585	    11.236
  -168.603	    89.529	     3.527
  -146.601	    43.773	    12.575
  -124.425	    51.759	    -7.898
  -153.815	    47.576	     7.963
  -154.408	    66.410	     1.043
  -139.325	    85.713	    -0.188
  -150.675	    66.576	    16.936
  -165.575	    74.029	     7.903
  -151.395	    63.916	    -3.527
  -155.530	    76.596	    15.352
  -159.796	    83.358	   -16.884
  -154.669	    60.048	     4.153
  -151.819	    57.139	    11.873
  -140.289	    97.640	   -11.591
  -150.632	    71.017	    16.634
  -156.029	    74.529	    17.141
  -160.975	    74.519	    15.036
  -156.856	    60.284	     0.418
  -146.984	    92.076	     0.519
  -161.547	    81.422	     2.301
  -136.638	    70.371	     1.739
  -161.559	    72.193	     1.417
  -152.151	    68.511	     8.005
  -145.307	    89.999	     6.301
  -146.970	    60.952	    13.303
  -159.699	    81.926	     5.400
  -150.389	    75.033	    22.388
  -150.735	    75.629	    -8.381
  -146.476	    57.726	   -11.430
  -166.540	    54.060	    -9.734
  -172.352	    56.152	    -2.750
  -154.411	    65.086	    -4.831
  -161.539	    58.314	    -6.664
  -157.612	    58.570	    -1.141
  -166.219	    75.912	     6.782
  -157.420	    96.377	     2.388
  -156.146	   103.169	    18.004
  -149.559	   104.755	   -10.640
  -159.413	    88.197	     4.669
  -150.471	    89.672	    -2.356
  -150.089	    81.145	     9.808
  -155.881	    86.758	    -2.936
  -144.259	    74.215	     0.542
  -157.997	    81.256	   -11.502
  -160.486	    45.288	     9.842
  -152.231	    59.696	     5.516
  -163.111	    57.318	   -13.126
  -147.543	    54.640	    -3.934
  -151.178	    78.573	    -2.242
  -152.502	    38.664	     7.495
  -160.870	    60.859	    -1.619
  -153.494	    61.547	     0.735
  -156.861	    58.510	    12.106
  -146.795	    96.845	     0.996
  -150.616	    81.596	     2.781
  -154.237	    97.550	    31.293
  -161.856	    73.660	   -11.351
  -166.408	    82.472	    -4.538
  -167.497	    60.480	    24.039
  -154.498	    76.884	    14.219
  -147.146	    86.312	    -8.889
  -173.548	    72.177	    11.884
  -146.112	    98.875	     6.164
  -149.781	    94.264	    -3.147
  -161.572	    69.275	     5.462
  -148.838	    75.082	     4.683
  -150.031	    69.900	    -6.833
  -163.093	    63.802	    -2.694
  -149.315	    52.678	   -13.807
  -156.010	    64.488	     7.113
  -175.090	    52.871	    24.349
  -158.815	    33.671	     7.630
  -157.311	    44.310	    12.565
  -144.522	    78.803	     2.266
  -151.281	    66.371	    -4.875
  -155.340	    61.757	     3.790
  -143.555	    55.278	     5.556
  -156.313	    54.450	    20.614
  -160.332	    80.658	     9.517
  -151.647	    59.404	     5.568
  -160.883	    79.327	    12.640
  -163.198	    67.033	     0.010
  -139.112	    61.164	    -2.858
  -154.493	    52.234	     2.811
  -163.215	    85.778	     1.230
  -162.383	    78.562	     9.902
  -158.975	    52.892	     2.495
  -159.528	    57.988	    -0.634
  -150.403	    75.097	     2.518
  -149.460	    75.625	     5.238
  -152.900	    68.035	     1.963
  -152.005	    60.047	     5.584
  -156.271	    74.902	    -2.234
  -167.873	    45.024	    16.460
  -135.094	    66.906	    12.707
  -146.576	    79.189	     8.989
  -163.892	    81.047	   -10.123
  -146.439	    73.903	    -3.735
  -154.111	    89.002	     9.095
  -156.588	    59.751	    -7.485
  -157.745	    54.081	     1.039
  -150.604	    70.296	    -0.807
  -156.016	    60.263	     1.857
  -148.667	    48.804	    -3.090
  -159.727	    55.125	     1.936
  -162.519	    81.241	     6.608
  -159.042	    69.272	    -3.960
  -152.826	    93.897	    22.227
  -159.473	    99.819	     2.525
  -144.575	    87.215	     6.908
  -152.371	   101.148	    12.547
  -158.796	    85.206	    -1.181
  -149.147	    81.230	     1.994
  -162.339	    52.887	    -9.606
  -146.957	    57.974	    -7.024
  -156.101	    58.125	    -9.414
  -147.589	    64.318	    -0.107
  -141.711	    49.335	   -18.259
  -160.235	    40.894	    -0.962
  -146.805	    84.399	     0.637
  -137.271	    85.902	    17.573
  -159.821	    50.570	    20.756
  -153.527	    58.002	   -19.976
  -155.249	    50.303	     7.259
  -153.295	    77.481	    -6.467
  -159.311	    76.196	    -4.647
  -151.695	    46.272	     6.256
  -152.273	    71.612	     4.163
  -155.199	    83.029	    -1.323
  -155.945	    80.152	    12.790
  -136.662	    60.860	    -4.445
  -166.218	    55.488	     4.017
  -154.025	    58.287	     6.748
  -143.802	    70.433	     0.856
  -144.806	    56.276	    10.821
  -159.341	    73.523	    -6.791
  -154.424	    76.182	     1.669
  -148.394	    87.371	    -2.974
  -163.485	    60.826	    12.713
  -145.707	    54.299	   -14.885
  -153.643	    72.295	     7.947
  -135.248	    63.973	   -14.464
  -169.638	    63.401	     8.110
  -163.105	    80.937	    10.636
  -151.017	    45.539	     6.297
  -152.327	    37.589	    13.197
  -154.665	   102.191	    -7.169
  -159.283	    85.094	    -4.904
  -162.504	    78.686	    11.720
  -160.094	    80.092	     4.313
  -161.068	    56.682	     7.881
  -160.766	    56.789	    -6.776
  -150.891	    54.929	   -11.355
  -159.792	    50.667	    -9.347
  -143.548	    30.191	    24.298
  -151.463	    59.301	     9.946
  -141.101	    51.367	    13.858
  -140.501	    59.282	    -4.725
  -155.578	    63.242	    -2.067
  -143.902	    40.131	     5.483
  -154.358	    61.493	    21.581
  -152.011	    51.196	    -3.974
  -155.401	    58.482	   -14.788
  -162.219	    70.474	    15.596
  -150.646	    40.057	     2.029
  -161.041	    66.848	    -0.950
  -140.262	    44.451	     7.379
  -157.122	    73.742	    -4.169
  -145.210	    68.878	     2.235
  -159.146	    41.288	     8.683
  -160.986	    71.903	     2.208
  -145.174	    74.484	     6.313
  -161.889	    60.980	    14.898
  -154.315	    76.864	    15.716
  -163.136	    97.761	     4.785
  -153.619	    80.273	    11.057
  -144.879	    74.241	    -0.645
  -161.948	    93.359	    -7.142
  -155.792	    63.350	    12.487
  -147.566	    89.058	     6.360
  -149.737	    64.338	     0.362
  -150.771	    65.826	    -2.099
  -145.922	    61.769	   -10.422
  -158.465	    52.236	     9.331
  -147.291	    81.470	    11.194
  -159.956	    86.297	    -2.707
  -146.963	    75.686	    -0.084
  -145.292	    75.717	     2.738
  -158.761	    51.563	    10.943
  -154.582	    58.964	     1.558
  -161.277	    57.697	    22.997
  -146.177	    52.316	     7.922
  -156.859	    96.300	     2.286
  -141.709	    40.441	    -1.225
  -174.546	    43.259	     5.693
  -145.863	    40.532	    -8.007
  -155.979	    74.118	    -1.531
  -127.095	    56.585	   -13.114
  -157.331	    46.946	     0.810
  -162.721	    62.437	     6.137
  -159.540	    60.691	    -7.911
  -155.864	    62.909	     2.049
  -150.580	    44.856	    -4.759
  -166.180	    63.579	     2.819
  -161.757	    71.999	     2.406
  -152.312	    41.079	    -9.386
  -162.746	    38.425	     4.317
  -153.106	    64.126	     9.612
  -165.941	    69.577	   -17.503
  -155.595	    49.904	     7.415
  -156.548	    80.453	     4.703
  -141.195	    64.004	    -1.259
  -142.008	    59.283	   -10.353
  -152.119	    52.153	     2.628
  -151.172	    52.102	    -7.566
  -160.540	    69.186	   -14.098
  -163.925	    71.039	     0.062
  -158.379	    70.295	     9.162
  -160.926	    69.062	    -3.198
  -170.158	    87.720	     7.560
  -169.324	    60.453	     2.072
  -150.880	    88.921	    14.948
  -148.207	    97.942	    18.405
  -143.949	    79.156	     4.204
  -140.255	    97.536	    11.212
  -138.574	    58.539	    18.441
  -155.211	    57.691	    -2.703
  -151.613	    49.348	    18.155
  -133.304	    74.777	    20.199
  -149.380	    60.650	   -14.491
  -136.948	    66.349	    -2.607
  -169.935	    61.336	     4.659
  -169.626	    74.128	     4.564
  -140.293	    89.098	   -10.868
  -145.281	    67.699	    21.421
  -141.020	    59.132	    -3.221
  -174.499	    84.523	    21.918
  -149.638	    65.612	     5.407
  -145.885	    50.095	     0.367
  -163.863	    63.304	    -1.314
  -153.880	    79.577	     5.606
  -155.196	    60.796	    -0.382
  -154.212	    67.232	     4.962
  -154.344	    93.880	    -2.037
  -148.577	    84.265	     4.773
  -157.664	    59.911	    10.280
  -153.178	    89.012	   -10.468
  -152.155	    52.219	    14.976
  -156.999	    75.109	     3.318
  -156.103	    41.490	    -6.958
  -156.056	    71.325	    -0.664
  -152.673	    73.477	   -15.669
  -148.295	    43.207	    -5.197
  -153.810	    42.055	     2.046
  -171.783	    60.060	   -14.780
  -149.737	    50.376	    -6.868
  -144.208	    42.641	    23.704
  -151.622	    49.744	    -2.348
  -150.666	    65.378	   -10.424
  -166.106	    81.093	    20.184
  -151.623	    81.568	   -15.609
  -151.465	    79.731	    -1.187
  -162.881	    58.918	    11.281
  -154.672	    78.417	    -1.450
  -150.006	    89.446	   -14.761
  -152.920	    91.843	     0.719
  -150.869	    65.348	    -3.287
  -152.295	    81.336	    -3.589
  -147.266	    65.560	     4.412
  -148.804	    59.775	    18.429
  -149.507	    73.518	   -15.243
  -156.501	    65.521	    -3.399
  -135.250	    66.679	     0.812
  -149.219	    84.207	     6.242
  -158.470	    51.552	     1.441
  -161.815	    79.608	     7.288
  -148.686	    64.817	    -5.128
  -150.721	    42.709	    10.971
  -163.929	    48.434	    30.905
  -141.647	    61.242	    -4.186
  -151.772	    96.483	    -2.800
  -152.614	    57.500	     5.590
  -151.978	    49.085	    19.023
  -163.810	    88.781	    14.555
  -155.962	    58.725	    -5.188
  -160.341	    66.082	     3.216
  -159.943	    68.310	     2.130
  -151.667	    52.182	    -5.411
  -158.436	    75.127	     7.193
  -147.339	    61.799	     6.326
  -155.558	   104.383	    -7.993
  -143.986	    69.153	    -8.230
  -144.397	    89.022	     6.774
  -147.717	    51.615	     5.246
  -149.769	    70.853	     0.962
  -156.984	    58.858	    -0.471
  -147.698	    61.739	    -0.467
  -145.449	    47.014	    13.099
  -155.682	    73.173	    13.633
  -150.054	    53.178	     2.154
  -152.983	    79.263	     0.510
  -156.860	    82.686	     1.672
  -163.098	    80.735	    14.437
  -155.785	    78.255	    10.173
  -148.730	    92.269	    30.427
  -143.744	    94.891	     3.234
  -162.416	    78.697	     5.183
  -147.390	    59.393	    -4.453
  -148.094	    55.699	     7.996
  -148.444	    51.779	    -5.471
  -160.057	    83.533	    -4.044
  -159.294	    64.473	    -1.686
  -149.916	    52.593	     5.320
  -166.968	    46.732	    -3.034
  -156.700	    47.483	     7.983
  -158.925	    47.774	     6.926
  -147.742	    68.749	   -14.014
  -161.776	    52.560	     5.263
  -142.299	    60.502	     3.401
  -157.864	    67.205	    19.604
  -159.830	    98.249	   -10.345
  -154.513	    71.377	     4.357
  -147.237	    44.313	    -0.881
  -153.085	    55.184	    10.215
  -157.157	    67.771	    -1.243
  -145.618	    53.897	    15.020
  -148.325	    48.170	   -20.111
  -156.554	    61.308	    -1.811
  -148.395	    56.338	   -23.003
  -147.221	    53.043	    11.177
  -156.541	    42.967	     7.777
  -148.205	    51.484	    -8.925
  -146.876	    78.129	   -10.466
  -153.260	    66.248	     1.769
  -158.110	    58.294	   -11.794
  -159.736	    70.858	    -8.335
  -157.332	    43.350	     8.419
  -158.321	    51.769	   -12.735
  -133.144	    66.479	     2.704
  -158.413	    76.397	   -18.418
  -164.709	    90.632	     2.712
  -160.708	    74.063	    -1.924
  -169.099	    85.847	    -0.826
  -144.719	    67.524	    -1.008
  -152.772	    74.747	    10.741
  -138.584	    59.751	     2.583
  -150.711	    66.141	     1.290
  -154.306	    85.666	    12.563
  -156.307	    77.963	   -12.397
  -150.085	    62.070	     0.554
  -161.468	    86.773	     4.874
  -151.736	    92.141	    -8.586
  -153.734	    79.180	    -8.174
  -142.411	    66.772	     9.320
  -162.126	    46.133	    10.951
  -156.383	    79.149	    17.022
  -148.196	    71.451	    -3.470
  -151.517	    85.994	    10.253
  -130.522	    80.401	    14.334
  -146.074	    93.590	     4.180
  -155.053	    58.761	    25.002
  -154.310	    85.919	   -10.339
  -151.242	    66.492	    -1.978
  -158.599	    86.909	    24.951
  -145.939	    90.019	    12.509
  -159.782	    77.057	    -2.082
  -154.806	    90.219	     1.930
  -148.754	    86.044	    -1.168
  -154.440	   106.936	    -0.560
  -146.988	    73.231	    16.004
  -145.544	    84.101	    14.404
  -155.008	    67.900	    -9.862
  -166.715	    72.441	     5.010
  -162.793	    68.753	    -5.463
  -160.787	    86.278	    -6.494
  -168.237	    95.507	     4.228
  -154.544	    48.243	     9.390
  -147.874	    30.275	   -12.291
  -152.591	    52.782	     3.772
  -164.423	    57.204	    -0.883
  -147.664	    77.786	   -21.550
  -148.405	    61.834	     5.661
  -168.269	    61.805	     8.806
  -161.769	    54.098	     0.482
  -159.451	    69.591	    13.747
  -165.822	    63.800	    11.998
  -147.318	    66.080	     6.343
  -152.808	    58.429	     1.602
  -144.525	    54.509	     8.738
  -155.731	    81.823	    -2.800
  -148.349	    65.142	    18.214
  -154.200	    88.098	     4.233
  -143.813	    74.206	   -10.397
  -161.389	    66.292	    23.516
  -142.872	    97.958	    -8.412
  -146.593	    76.168	     8.050
  -157.041	    53.734	     1.813
  -164.258	   102.569	     0.566
  -152.570	    67.577	    -3.422
  -151.003	    53.493	    11.398
  -162.286	    69.924	     8.203
  -157.174	    89.490	     3.124
  -144.518	    63.851	     8.059
  -155.879	    53.068	    16.507
  -163.279	    64.752	     5.430
  -155.063	    63.498	    -6.862
  -168.817	    77.607	    -0.642
  -163.900	    85.759	    17.079
  -154.901	    72.381	   -11.381
  -161.539	    70.994	     7.113
  -160.915	    82.053	    -1.853
  -154.754	    79.849	     4.254
  -162.474	    72.468	   -10.899
  -146.486	    50.395	     1.093
  -164.040	    36.645	     3.115
  -154.043	    49.304	    -5.799
  -169.702	    55.148	    14.864
  -151.474	    71.723	     9.187
  -158.651	    63.727	    -4.885
  -146.476	    84.279	    17.737
  -158.864	    77.859	    -0.855
  -148.682	    82.969	    33.336
  -144.088	    61.901	    19.238
  -154.157	    77.504	    36.967
  -139.501	    57.755	   -15.437
  -151.798	    70.871	    -6.676
  -155.212	    42.890	    -0.970
  -156.120	    48.793	    13.406
  -160.352	    54.450	    -2.211
  -154.815	    60.672	    -9.818
  -149.155	    68.811	    -5.058
  -145.624	    84.716	     5.876
  -147.256	    66.884	    -5.455
  -160.530	    47.035	     3.451
  -158.024	    67.241	    -9.527
  -171.408	    73.763	     6.408
  -149.665	    88.653	    -8.657
  -152.293	    63.477	     6.957
  -150.368	    62.666	     1.857
  -162.846	    63.595	     9.604
  -157.923	    67.527	    15.585
  -157.924	    77.740	    -3.417
  -164.104	    56.399	    -0.643
  -152.594	    73.495	    12.345
  -160.843	    68.062	   -12.824
  -168.528	    54.556	     7.230
  -150.001	    63.210	     5.664
  -154.737	    76.539	    -1.043
  -166.789	    56.914	    -3.585
  -153.032	    78.103	     2.023
  -146.935	    46.397	   -11.895
  -143.642	    65.687	   -13.018
  -162.841	    76.759	     6.578
  -158.310	    57.322	    11.170
  -147.918	    81.672	     7.150
  -173.396	    91.382	    11.013
  -148.846	    74.969	     3.406
  -150.318	    87.175	     0.564
  -161.001	    85.613	    -2.516
  -135.124	    57.553	    -0.147
  -130.853	    84.535	     8.110
  -162.153	    60.041	    16.716
  -153.716	    58.645	    17.684
  -161.327	    48.318	     9.295
  -148.019	    55.000	    -2.616
  -155.058	    55.397	   -12.468
  -165.415	    97.668	     5.306
  -164.494	    72.181	     5.132
  -144.477	    79.673	    -0.085
  -149.636	    55.997	    -2.832
  -154.049	    50.322	    -2.671
  -152.698	    55.428	    -1.118
  -165.528	    66.026	     8.269
  -165.439	    65.348	    -4.521
  -152.601	    72.809	    -7.169
  -156.544	    70.695	    -1.188
  -148.603	    94.684	    -2.310
  -150.567	    87.283	     6.827
  -142.395	    64.176	     1.843
  -159.998	    38.658	     7.411
  -138.692	    44.822	    16.802
  -153.101	    65.039	     8.145
  -149.082	    45.265	     8.501
  -159.385	    60.489	    11.367
  -151.800	    60.812	    -2.858
  -163.697	    57.792	    -2.628
  -139.388	    59.745	    15.056
  -152.061	    62.712	     6.318
  -144.590	    65.084	     6.220
  -153.159	    46.052	     4.276
  -148.095	    64.273	   -10.837
  -159.873	    93.832	    19.625
  -164.725	    75.217	     2.178
  -152.533	    80.251	    -8.930
  -153.325	    45.837	    -6.815
  -152.787	    38.982	     7.493
  -146.982	    49.829	    -3.387
  -153.343	    46.857	    -4.406
  -154.835	    39.152	     0.104
  -167.754	    46.444	    -1.626
  -147.561	    58.787	     9.767
