   -92.310	   122.143	    -3.179
    42.743	    86.778	    23.664
    59.372	    98.738	     9.233
    50.779	    72.877	    -4.071
    66.766	   119.915	    -6.709
    64.911	   125.989	    10.548
    55.440	   102.380	    -5.716
    62.726	   112.275	    -1.970
    52.651	    99.586	    20.464
    59.252	    93.174	    -0.056
    42.971	    95.629	     9.866
    46.558	    97.596	     2.918
    57.841	   103.907	     6.003
    54.828	    90.051	    12.556
    53.157	    95.700	    -0.208
    44.039	    91.924	    11.027
    65.999	    74.094	    -4.252
    58.596	   127.664	    23.927
    63.710	   125.455	    27.774
    71.577	    82.112	    10.884
    72.036	   116.002	     4.034
    62.197	   102.836	     4.689
    51.279	    86.136	    -7.342
    62.896	   115.761	    23.211
    54.848	    83.159	    13.828
    57.367	   100.140	    -3.701
    56.733	   108.543	    20.818
    49.738	   105.611	    -5.372
    52.450	    66.335	    -8.407
    51.221	    54.859	     5.412
    71.345	   102.932	    -7.128
    49.580	    96.428	     2.171
    55.960	   105.645	     5.516
    52.927	    85.497	   -17.250
    67.413	    86.492	    -4.137
    47.415	    87.209	     1.409
    38.131	    77.844	    11.623
    61.525	    77.371	    -3.222
    54.513	    96.293	    22.230
    63.196	    76.709	     2.943
    51.857	    69.746	     3.527
    55.959	    77.087	   -19.388
    61.437	    74.621	   -11.127
    56.499	   109.977	    16.680
    66.724	    97.319	    -7.222
    57.961	   134.990	     1.081
    73.958	   112.959	    -5.260
    50.532	    86.337	    -3.372
    54.926	    91.462	    23.749
    58.021	    98.887	    12.609
    52.708	    92.190	     8.662
    62.158	    93.557	    14.270
    54.178	    85.251	     6.934
    53.873	    80.051	    -0.849
    56.435	    80.353	     3.718
    42.763	    92.564	     6.128
    77.244	   111.097	    -0.071
    68.262	   102.130	     8.065
    51.005	   106.496	    -0.221
    68.026	   115.737	    -7.152
    71.795	   102.196	   -12.025
    55.174	   102.005	    -8.993
    59.484	    74.770	    -3.652
    36.612	    60.419	     1.687
    35.675	    68.631	    23.010
    54.694	    76.606	   -13.623
    56.408	    94.257	    -6.542
    64.662	    76.247	     1.339
    55.100	    92.665	    -8.774
    39.145	    63.931	     0.110
    60.990	    63.389	    -9.639
    50.631	    66.951	    -0.471
    68.973	    77.065	     2.332
    54.921	   105.120	     4.913
    49.332	    76.482	   -11.734
    56.707	   107.817	     6.362
    63.330	    95.400	     2.191
    66.877	   121.706	     5.454
    58.440	    92.814	    -7.732
    63.292	   116.181	    12.787
    46.748	    85.849	    11.383
    65.080	    90.600	    -4.594
    47.357	    86.948	    18.184
    55.317	    69.045	    -7.610
    45.363	    83.127	    -7.348
    56.133	    87.089	    -0.730
    51.884	   102.665	    11.199
    59.103	    89.746	   -12.367
    62.408	    84.087	    -0.738
    69.247	    87.565	   -10.393
    54.088	    99.779	    -4.670
    57.839	   104.434	     5.322
    44.311	    99.218	     6.470
    58.143	   101.592	   -10.020
    63.163	   106.962	    10.985
    51.364	    90.493	    -1.697
    80.464	   103.060	     5.247
    56.711	   118.265	    16.400
    62.476	   107.321	     2.869
    57.217	    95.909	    12.075
    49.304	    85.391	    -5.693
    50.259	    69.406	     0.628
    57.099	    86.729	    -3.445
    52.544	    87.885	    -3.074
    53.947	    86.818	     4.140
    46.325	    69.671	     7.381
    60.647	    88.751	    -0.980
    49.095	    77.672	   -12.628
    66.615	    83.687	    -2.819
    68.346	    99.782	   -19.687
    54.882	    95.853	    -0.536
    50.866	   116.166	     4.951
    57.370	   108.174	   -11.114
    57.190	    98.397	    13.392
    58.583	    86.554	    -6.390
    59.202	    73.573	   -23.358
    53.676	    75.520	    -8.644
    53.487	    97.012	     9.688
    46.665	    76.456	    13.904
    58.943	    76.443	    -4.544
    63.495	    94.876	    -7.618
    58.064	    92.924	     6.185
    50.404	    96.064	    13.944
    60.482	    83.921	    12.279
    53.221	    93.606	     0.927
    57.200	    82.394	    -5.518
    60.579	    85.882	    14.872
    50.668	   100.642	    -9.612
    66.709	    82.215	    -5.832
    62.876	   108.015	    -2.254
    74.015	   121.916	    15.717
    43.085	   106.530	     7.161
    46.708	    75.392	    14.627
    49.962	    71.889	    11.459
    53.325	    73.958	     3.118
    47.640	   107.154	     4.860
    62.503	   105.032	     0.543
    55.279	    85.858	    -3.026
    52.683	    66.280	    -0.574
    62.724	    80.073	   -20.205
    48.963	    93.570	    -3.109
    54.734	   111.170	     5.445
    47.831	   106.115	   -15.705
    58.855	   107.333	     5.377
    59.802	   105.800	    -6.718
    56.139	    99.415	    -3.626
    68.985	    83.951	    19.825
    63.492	   106.215	     5.143
    39.741	    73.180	   -12.734
    60.702	    93.582	   -22.108
    56.005	   100.080	    -4.007
    49.114	   107.401	     2.054
    59.379	    99.794	    15.664
    52.012	   104.555	    14.101
    60.592	   106.079	    14.865
    47.013	    90.260	    10.879
    65.703	    63.049	    -6.752
    60.638	    87.104	    11.232
    50.356	    87.864	   -12.134
    58.400	    69.033	   -16.830
    48.603	    61.235	     4.650
    59.888	   100.914	    -4.566
    55.232	    83.042	     3.913
    66.448	   111.610	     3.942
    49.968	    82.203	     1.954
    56.615	    91.115	    -8.245
    50.301	    77.673	     2.838
    57.011	    73.214	     2.664
    66.976	   147.811	    -0.113
    73.084	   122.144	     3.792
    53.996	    73.769	     0.383
    49.091	    75.455	   -13.982
    60.414	    76.932	   -18.537
    44.369	    99.881	     8.887
    65.881	    84.423	   -20.093
    47.781	    77.126	     2.115
    54.344	   105.451	    -3.486
    69.167	   103.544	     4.164
    48.225	    91.337	    -6.110
    51.889	    69.810	    16.685
    58.795	    95.248	     0.827
    69.434	   100.774	     1.028
    58.788	   150.370	    17.681
    53.483	   128.711	    10.569
    56.909	    79.549	    -8.472
    70.926	   114.802	    -1.290
    53.150	    87.376	     2.135
    58.719	    74.063	   -14.502
    57.742	    89.509	     3.676
    65.318	   115.319	    12.184
    45.816	    81.510	    15.467
    87.507	   105.899	   -13.811
    67.897	   130.448	    -0.376
    60.864	    75.654	   -23.310
    73.018	   117.717	     7.190
    55.118	    73.095	    -6.599
    53.997	    89.279	    -2.905
    73.194	    67.616	    -4.020
    61.450	   109.454	     4.559
    44.396	    86.315	    12.043
    55.243	    67.956	   -14.957
    55.980	    90.825	    -8.904
    56.105	    82.818	   -10.587
    61.993	   107.718	    -3.927
    66.964	    88.371	    -3.964
    59.681	   101.464	     9.515
    63.146	   132.939	    -2.618
    53.175	   127.606	    28.403
    60.273	    98.834	    18.175
    49.414	    92.245	    30.521
    60.650	   122.459	    -3.515
    36.792	    92.612	    18.005
    64.650	    65.024	   -25.471
    57.192	    85.011	    -5.149
    69.303	    74.431	    17.811
    43.945	    72.834	    12.232
    46.679	    70.607	    -3.952
    55.874	    88.735	     4.335
    60.606	    78.749	   -26.556
    50.130	    85.628	    -8.142
    55.325	    90.964	     5.903
    53.313	    90.282	   -22.847
    59.320	    84.825	     5.324
    52.064	    70.248	     9.835
    57.877	    80.005	    11.798
    65.488	   100.061	     0.146
    68.193	   124.276	    16.646
    50.907	   101.359	     6.583
    66.988	    94.027	    -7.460
    59.791	    99.839	     7.648
    52.737	   102.183	    17.282
    59.940	    69.150	    -5.445
    63.291	    95.585	    -7.092
    69.806	    94.520	    -1.004
    56.011	   105.834	     4.581
    52.503	   105.834	    -4.759
    56.682	    86.326	    16.599
    45.840	    73.225	     8.996
    53.306	    93.888	    -1.842
    46.365	    80.198	     2.056
    60.279	    95.469	     8.305
    60.248	    98.988	   -10.372
    36.281	    86.756	    -5.221
    60.278	    88.998	   -14.694
    46.745	    74.798	   -22.524
    60.508	    64.790	   -12.333
    28.417	    82.320	   -29.092
    59.012	    75.685	   -15.541
    60.838	    86.497	   -12.142
    65.340	   145.970	    -2.548
    74.254	   122.768	     7.201
    60.233	   116.955	     8.864
    64.773	    89.659	    18.370
    55.039	   105.793	    11.152
    62.662	    86.468	   -15.611
    57.746	    65.164	    11.249
    65.210	    79.237	     4.451
    56.692	    79.186	   -12.929
    42.795	    78.835	    -7.687
    68.015	   105.015	   -18.352
    52.938	    89.766	     8.473
    40.604	    67.820	    -9.927
    55.375	    97.509	    -8.617
    64.581	    66.912	     4.799
    51.250	    81.453	     7.122
    52.675	    85.178	   -10.144
    55.087	    74.735	    13.004
    58.661	    97.069	    -7.347
    71.909	   118.223	    -1.089
    61.888	    81.405	   -10.249
    69.081	    76.971	    11.313
    58.364	    80.079	    -3.387
    50.685	    92.098	     1.342
    66.188	    84.277	    -8.879
    58.795	   115.392	    15.939
    49.042	    80.349	    19.762
    65.221	    72.177	   -15.493
    48.281	    79.845	    17.358
    50.120	    71.788	    -3.686
    70.716	    86.786	    -8.772
    49.254	   119.825	    14.671
    59.522	   143.789	     7.542
    67.937	    84.412	    13.515
    59.352	   101.124	    -3.226
    58.745	   104.873	    -0.321
    57.238	    89.362	   -32.255
    49.201	    93.930	    -2.856
    61.972	    88.185	    -9.815
    59.170	    84.858	     1.658
    58.760	    84.713	     3.353
    50.806	   101.460	    13.922
    64.410	   133.797	    -1.315
    61.983	    90.047	   -11.400
    65.908	    96.392	   -13.335
    52.911	    77.414	     5.414
    53.866	    92.572	     9.013
    51.721	    84.761	   -14.533
    60.700	    78.448	     4.886
    62.083	    92.550	    -2.893
    55.971	    93.215	     2.066
    54.491	    94.570	    -2.480
    58.228	    86.485	    -4.767
    52.221	    61.386	    -0.719
    47.927	   105.302	    -0.460
    60.586	    98.464	    -3.913
    60.759	   116.043	    16.253
    67.698	    90.343	    16.998
    57.469	    71.510	   -18.830
    55.426	   107.591	    19.164
    77.372	   105.483	   -13.657
    46.964	    82.988	    -7.418
    60.442	   109.926	   -13.820
    68.408	   114.708	     4.796
    62.894	    92.538	     6.190
    46.124	   107.286	    20.798
    69.444	    72.638	    -8.929
    45.401	   102.854	    18.103
    51.573	    88.580	    12.763
    56.557	    66.378	   -11.848
    66.870	    88.224	     0.152
    59.881	    61.493	    16.741
    56.860	    57.864	    15.545
    57.770	    46.905	    -5.042
    53.000	    58.895	   -16.770
    51.479	    70.466	     3.465
    55.399	    71.050	    -0.746
    78.255	   105.305	    -0.076
    61.448	   106.602	     0.357
    58.165	    80.600	   -15.107
    66.715	   121.474	    14.889
    57.607	    94.130	     8.387
    48.845	   105.396	     8.395
    73.357	   100.838	     6.126
    51.335	    89.425	   -10.270
    54.533	   101.286	    21.798
    55.692	   120.302	    -2.751
    61.963	   102.007	    -2.008
    62.683	   111.022	    -2.064
    51.094	    97.737	     5.032
    56.372	    80.870	    -9.874
    54.042	   109.539	    -5.181
    62.196	   114.332	     1.323
    49.319	    85.946	    -1.013
    68.316	    73.156	    -1.055
    63.405	   108.615	    26.983
    55.483	    84.472	    14.235
    68.220	    74.857	     9.120
    55.043	    84.789	    11.064
    50.489	    76.328	    -1.831
    55.011	    91.472	    12.521
    49.955	    94.367	     2.105
    74.014	    95.980	   -12.203
    54.211	    78.046	     5.702
    54.457	   106.235	    20.459
    62.638	    96.217	    -7.774
    57.135	    88.471	     4.646
    66.657	    89.525	     9.873
    54.279	   105.136	    -1.759
    41.653	    76.450	   -13.897
    52.483	    78.426	    20.492
    49.115	    68.043	    -4.861
    62.794	   116.328	    24.149
    60.566	   105.421	    14.978
    41.642	    69.834	    11.379
    65.473	    85.988	    -5.250
    51.382	    84.142	     1.973
    77.715	   132.634	   -10.532
    59.960	   120.697	    16.287
    52.076	    75.090	   -10.239
    47.105	   101.223	     2.446
    54.077	    72.000	    -1.608
    78.928	   118.939	     8.309
    49.787	    90.462	     7.066
    83.463	    92.601	     1.961
    30.844	    83.246	    26.096
    56.965	    94.068	   -12.584
    59.266	    79.886	    -3.963
    51.742	    71.272	    -3.768
    59.464	    77.156	    -2.842
    57.828	    89.757	     7.223
    66.676	    87.246	    -7.453
    46.239	    93.097	    11.285
    46.931	    75.740	     7.073
    57.834	    65.056	   -12.613
    65.274	   103.109	     1.563
    58.503	    81.803	    -1.079
    47.763	    92.548	     1.245
    56.123	    80.594	     0.627
    68.428	   110.256	     1.521
    52.548	   105.783	    -3.434
    52.752	   114.843	    21.548
    51.250	    72.097	    -0.590
    62.649	   110.658	    18.332
    44.121	    82.550	     1.816
    46.393	    64.384	    20.138
    59.620	    62.345	    -4.852
    55.331	    79.969	    -5.236
    56.945	    97.219	     4.196
    65.311	    86.671	     2.468
    59.745	    71.675	     6.068
    47.230	    87.091	    15.088
    47.286	    85.407	    -2.616
    62.348	   110.914	     5.382
    61.595	   105.556	    -4.937
    72.001	    95.902	     3.059
    62.613	   109.066	     9.381
    56.788	    84.896	    -8.127
    53.082	    73.707	     2.554
    55.554	    73.933	   -12.153
    58.628	    80.561	    10.809
    58.316	   102.287	   -14.803
    54.707	    93.716	    -5.105
    79.549	   136.455	     5.881
    68.772	   112.299	     4.276
    55.900	    95.176	   -10.131
    65.138	   104.647	     1.599
    52.750	    82.520	    -0.023
    49.110	    88.358	    -3.159
    56.080	    84.657	    -0.737
    62.038	   106.370	     7.301
    59.504	   112.437	    27.532
    72.871	    92.518	    -5.377
    34.924	    97.144	    -0.338
    57.738	    68.650	    -4.685
    50.980	    89.885	    10.029
    57.187	   120.093	    11.105
    59.769	   109.583	    10.131
    66.710	   123.855	     5.884
    67.867	   110.483	    13.149
    66.897	   137.940	    12.230
    59.231	    95.558	    -3.853
    61.712	   120.979	    15.390
    58.846	   118.700	    -4.250
    53.583	   114.692	     2.345
    60.996	    97.137	    13.967
    47.168	    90.541	    -1.333
    55.883	    82.959	    -2.765
    56.504	   102.862	     9.269
    52.515	    74.463	     8.269
    59.869	    82.948	    -3.394
    53.460	    88.841	    -3.297
    63.139	   103.070	    -3.011
    54.227	   113.470	    16.436
    54.996	    74.973	    -1.372
    65.681	   127.434	     2.408
    53.688	    85.927	    21.249
    54.312	    94.501	     4.122
    56.291	    88.246	    11.514
    45.495	    90.270	    17.874
    49.770	    86.942	   -15.016
    64.207	    86.710	   -20.309
    55.414	    90.829	     5.471
    64.305	    74.872	    -2.791
    31.891	    90.773	     6.852
    51.702	    67.180	     0.451
    62.868	    53.590	     1.106
    49.594	    73.401	     3.804
    41.837	    79.707	     8.304
    50.659	    70.268	     0.772
    56.264	    94.879	    19.959
    62.532	   135.885	    -5.762
    41.020	    80.347	   -12.231
    65.651	   105.221	    10.622
    61.757	    80.897	    -7.318
    62.349	   117.958	     7.031
    57.819	   105.020	   -14.831
    65.221	    96.746	     1.564
    62.565	    80.290	   -10.166
    68.767	    95.563	     0.924
    58.377	    90.847	   -10.776
    59.942	    93.115	    -6.559
    63.909	    70.116	     3.074
    56.346	    94.394	    -1.961
    52.134	    54.381	     8.533
    48.695	    89.599	     9.972
    74.072	    84.273	     0.884
    51.542	    76.048	    -1.463
    68.753	    93.354	   -10.498
    51.399	    85.905	     3.705
    56.229	    73.927	   -17.857
    49.593	   109.613	     2.985
    51.986	    73.653	    -6.623
    52.944	    82.711	   -13.212
    57.733	    61.090	   -14.199
    52.673	    67.688	    -6.868
    55.191	    83.950	    -4.609
    60.671	    66.620	    12.946
    57.870	    97.762	     8.524
    60.475	   101.156	    12.399
    73.132	   131.616	     1.076
    55.376	   135.650	    14.788
    72.207	   106.780	    10.286
    49.038	   100.357	     1.462
    45.424	    95.596	   -14.692
    70.884	    94.830	     6.435
    58.385	    69.996	     2.301
    56.279	    74.953	   -13.458
    66.149	    78.406	    -6.912
    46.838	    71.680	    -6.992
    43.523	    65.965	     7.563
    59.625	   101.957	   -11.048
    49.048	    93.113	     8.475
    42.704	    71.749	    19.049
    57.825	    96.501	   -21.509
    41.011	    83.795	   -19.676
    50.767	    96.896	     1.014
    49.376	    94.840	     6.890
    63.443	    99.232	   -13.072
    54.377	    81.603	     2.607
    53.097	    85.636	     2.673
    47.681	    62.283	     7.989
    62.331	    54.993	   -12.741
    67.123	    65.958	   -17.378
    54.912	    79.847	    18.459
    49.635	    78.348	     1.963
    65.079	    96.413	    -1.331
    52.762	    95.822	    -5.444
    58.981	    88.804	    -1.559
    54.592	    96.508	    23.027
    42.666	    79.591	   -16.519
    56.873	   111.238	     1.050
    70.301	   126.207	   -11.259
    59.865	    95.897	   -14.233
    63.290	   103.171	    24.188
    62.245	    88.892	     7.932
    53.005	    84.794	    -7.318
    51.271	    92.645	    -3.983
    58.817	    92.210	    -1.354
    62.400	    69.038	   -17.400
    64.544	    94.947	    -7.215
    42.919	    91.666	    11.833
    54.306	    77.421	     0.076
    54.109	    85.044	    -0.362
    47.000	    82.452	     3.623
    45.365	    94.607	    -6.402
    57.991	    84.221	   -10.812
    52.596	   139.508	    26.542
    56.990	   121.838	    19.246
    59.222	    90.333	    -6.468
    50.163	    81.786	    -6.984
    74.687	    93.951	     8.943
    60.727	    72.031	    -9.407
    43.734	    78.458	    11.857
    47.374	    83.978	    -0.974
    50.295	    69.167	   -19.198
    48.377	    81.369	   -11.180
    67.253	    91.937	     6.903
    59.432	    86.246	     1.831
    56.936	   107.790	    24.904
    52.039	   105.103	     9.910
    63.177	    98.479	    -7.878
    60.813	    80.394	    12.910
    49.778	    80.912	    14.207
    60.937	    84.217	   -13.312
    59.115	   103.794	     6.056
    73.757	   109.373	   -23.669
    43.079	    87.797	     5.907
    51.384	   105.882	    -2.858
    65.795	    92.249	    15.778
    67.916	   114.854	     8.488
    61.769	    83.323	    -8.853
    55.715	    77.901	    -3.203
    42.550	    88.591	    14.850
    63.819	   121.646	     8.808
    49.348	    98.633	     3.606
    46.651	    57.259	    12.816
    44.754	    63.955	    -0.261
    45.845	    68.603	     1.606
    46.470	    74.995	   -13.217
    63.875	   100.397	     4.084
    61.085	   104.980	     1.933
    56.539	    79.033	     2.639
    60.412	   131.992	    15.368
    65.786	    86.129	    11.156
    60.419	    93.195	   -12.662
    44.935	    87.334	     0.231
    57.001	    92.134	     0.539
    54.429	    92.621	    -3.444
    63.245	    86.606	    -6.260
    56.225	    64.823	   -17.817
    50.254	    81.494	    -6.541
    38.505	    84.821	     4.933
    69.946	   106.412	    -6.184
    59.001	    83.839	    -3.410
    67.834	   107.970	    -7.443
    74.252	    90.200	    18.616
    54.789	    83.992	     8.325
    65.358	    97.960	    -7.000
    55.873	    81.481	     0.001
    52.664	    98.190	     8.464
    54.654	    71.840	     5.044
    54.070	    71.976	    13.962
    59.345	   113.618	     8.332
    62.392	    68.032	    -9.986
    45.470	    68.818	    11.634
    64.098	    81.279	    -4.497
    64.814	    85.228	     4.003
    52.469	    68.791	    17.499
    67.733	    95.214	    -3.591
    55.012	    91.111	     3.923
    74.692	   124.047	    -1.741
    65.297	    91.753	   -12.120
    61.047	    93.609	    23.349
    57.442	    88.028	    12.019
    60.934	   108.474	    -0.708
    51.504	    79.501	    23.184
    59.137	    84.317	     5.863
    57.111	    72.926	     7.427
    59.603	    93.805	    11.392
    68.480	    96.008	    19.941
    56.868	    91.789	     9.812
    66.015	    71.442	     7.146
    55.713	   100.000	     6.136
    55.046	   105.359	    25.562
    52.870	    87.284	     1.792
    56.430	    84.465	     6.803
    50.079	    75.794	     3.377
    57.419	    73.292	     0.107
    68.474	   112.101	     5.558
    51.424	    71.094	    -1.219
    45.065	    80.903	     1.250
    55.355	    89.030	   -16.327
    55.759	    85.524	    -3.228
    52.340	    64.040	   -20.420
    47.598	    95.227	    -0.800
    39.688	    92.056	    11.550
    48.706	    81.340	     8.118
    71.704	   100.919	     6.709
    53.182	    95.453	    -2.594
    65.333	    99.656	    -9.589
    49.381	    83.905	    25.498
    57.565	    74.757	    17.464
    58.375	    87.802	   -23.799
    42.025	    86.397	     7.037
    60.673	    89.007	     0.866
    50.588	    89.416	     3.876
    55.227	    90.151	    -1.809
    56.319	    86.287	    16.352
    50.959	    79.541	   -10.826
    54.792	    35.551	   -12.827
    51.797	    97.428	    24.100
    69.963	    94.065	   -16.987
    53.478	    87.846	     4.265
    63.516	    97.169	     6.525
    67.036	   102.572	    -7.986
    47.789	    92.062	    15.619
    72.727	   120.377	    -0.006
    46.202	   101.914	    -6.809
    68.518	    96.864	     4.532
    79.271	   109.237	     4.279
    55.605	    73.922	    10.513
    69.508	   106.832	     3.763
    61.724	   107.633	    15.534
    74.227	   102.417	    -0.189
    56.715	   127.586	    23.647
    55.824	    92.142	     2.798
    51.139	    81.452	     5.403
    60.207	    84.880	     5.235
    67.600	   105.334	    -2.174
    59.822	   125.332	    12.575
    53.243	    95.428	   -12.064
    52.907	    75.207	    -8.866
    52.298	    61.183	    -8.479
    52.884	    87.851	   -10.610
    52.033	    83.395	     7.351
    64.468	    72.202	     2.691
    61.988	   113.446	     3.838
    69.566	   117.365	    -5.630
    50.190	   127.767	    10.175
    61.571	   113.508	     7.058
    68.309	    92.480	    18.421
    62.193	    99.400	     9.376
    63.590	    78.974	    -4.307
    63.195	    99.143	    18.490
    55.964	   116.314	    -8.251
    50.845	    73.156	   -12.392
    41.676	    95.960	    14.101
    48.681	    81.752	   -14.443
    43.533	    71.903	    -3.238
    50.107	    79.190	    11.293
    67.087	    76.677	    -1.838
    58.122	    87.084	    -9.536
    58.189	   101.698	    11.853
    58.334	    79.186	     3.180
    55.829	    95.595	    19.502
    55.747	    83.149	     6.121
    63.495	    88.463	    -1.374
    45.116	    73.729	    -3.047
    55.886	    75.604	     9.458
    63.684	    70.797	     2.568
    57.478	    93.034	    -4.168
    56.339	    88.181	    -4.319
    69.273	    77.141	    -2.649
    52.906	    73.825	     0.015
    52.295	    83.946	     8.694
    58.091	    58.179	   -12.899
    52.462	    94.203	    12.197
    49.067	    98.473	    -6.171
    64.849	    63.611	   -24.390
    54.671	    82.501	     1.367
    44.021	    76.407	     4.924
    63.891	    80.930	    -5.202
    58.550	    90.388	     3.097
    57.165	   119.545	    -3.764
    52.988	   106.636	    17.143
    48.167	    73.465	    17.725
    54.886	   100.848	     1.079
    55.047	    88.869	    -2.644
    64.527	    76.137	     1.250
    61.742	    76.848	     3.543
    40.880	    73.990	    17.657
    63.706	    74.342	    -5.907
    57.292	    98.031	    -8.693
    61.907	   103.898	   -15.794
    65.960	   103.468	     1.141
    63.068	   103.008	     4.514
    69.096	   102.969	    -9.653
    52.648	    81.780	    -1.546
    59.242	    94.645	    -2.148
    56.217	    91.442	    14.059
    45.400	    80.331	     0.561
    59.427	    70.139	    -0.959
    64.247	    89.088	    -6.205
    48.343	    89.304	    12.226
    58.842	    65.762	    -8.879
    45.125	    82.214	    -1.731
    45.753	    94.927	     1.751
    48.414	    64.498	     4.881
    46.916	    95.939	    -1.640
    57.158	    65.059	     0.086
    51.426	    83.065	    -6.874
    63.076	    68.045	     0.348
    52.750	    73.317	    19.389
    56.746	   123.992	    -1.856
    68.976	   108.283	     8.565
    39.736	    65.616	     7.679
    68.237	    89.094	     3.021
    56.944	   116.409	    13.763
    64.663	   114.409	     3.222
    64.520	   109.717	    -1.307
    40.361	    88.281	     8.023
    63.941	    96.447	   -13.913
    45.951	    64.277	    -4.350
    67.607	    91.539	     4.576
    51.591	    77.463	    -9.710
    56.855	   102.341	     7.223
    64.116	    91.273	   -16.701
    68.690	   101.153	    -1.830
    52.295	    85.979	     7.534
    61.403	    78.285	     0.889
    65.056	   135.446	    25.253
    65.450	   139.338	     3.610
    59.200	   128.568	    25.157
    68.155	   119.326	    -3.428
    68.611	   121.035	     7.732
    69.729	   105.762	     6.480
    73.459	    99.156	     3.381
    49.266	   106.359	     8.572
    65.049	    92.603	    -0.047
    59.602	    85.875	    -1.156
    52.397	    95.182	    23.401
    61.582	    90.117	     2.569
    47.896	    86.218	    -0.140
    46.382	    93.024	    -2.852
    44.630	    88.816	    18.316
    70.885	   102.258	    -7.771
    55.941	    99.340	   -11.473
    54.833	   101.043	    -6.477
    59.574	    96.658	     5.419
    51.852	   123.692	   -10.614
    53.243	    76.296	    -7.607
    60.616	   100.657	    -2.384
    57.994	    91.409	     2.160
    64.023	    88.745	     8.142
    64.927	   122.713	     4.949
    65.270	    95.980	    10.445
    58.995	    94.914	    12.604
    51.844	    60.906	     9.333
    62.905	   102.210	     8.463
    72.017	    76.970	    -3.879
    70.172	    91.372	     3.483
    58.601	    76.131	    -3.966
    52.987	    74.697	     7.030
    60.981	    78.972	   -10.729
    50.972	    88.809	    -0.414
    51.114	    74.330	    11.056
    66.970	   124.454	     2.092
    62.531	   121.254	     9.414
    54.488	   115.261	   -11.446
    61.337	   127.790	    10.918
    58.645	    97.144	    11.874
    65.182	   120.391	     1.876
    57.599	    82.375	     3.048
    59.117	    87.914	    12.867
    65.481	    72.444	    14.669
    71.336	   100.657	     6.381
    60.961	    99.916	     6.445
    51.975	    85.090	    -0.833
    61.724	    76.858	     9.900
    49.713	    58.633	     3.347
    65.454	    80.732	    10.209
    60.645	    78.525	     0.770
    72.224	   105.819	    16.686
    62.296	    74.407	    -7.287
    67.232	    90.769	     0.088
    51.707	    88.318	    -1.437
    71.186	   113.930	    -4.210
    59.457	    84.641	     6.309
    62.989	   100.512	     7.306
    61.869	   103.775	   -13.566
    56.344	    95.076	   -14.992
    50.092	    73.002	     2.790
    39.387	    99.898	   -20.058
    51.897	   110.405	    16.318
    57.157	   103.768	     7.232
    57.241	    92.627	     9.242
    55.961	    76.446	    -5.040
    68.229	    97.615	   -11.305
    49.893	    94.011	   -11.644
    56.152	    81.414	    12.378
    60.231	    80.900	    -2.376
    51.106	   113.224	     8.360
    50.075	   102.097	     2.356
    59.866	    93.377	     9.749
    71.125	    87.306	   -13.307
    52.144	    78.612	     6.658
    68.058	    95.159	    -0.546
    60.690	    94.778	   -10.854
    57.313	    94.194	     7.719
    63.174	    97.937	    -2.773
    56.474	   106.014	     5.180
    59.116	    91.728	    13.016
    75.198	    72.423	    -5.578
    48.003	   100.156	    10.823
    44.200	    82.677	    13.114
    58.298	    83.315	   -12.286
    51.273	    82.919	   -17.823
    58.434	    75.911	    -7.579
    57.981	   125.076	     8.007
    55.274	    97.305	    -8.283
    61.619	    79.676	     1.031
    58.132	    85.994	   -12.038
    47.464	    81.500	     8.586
    49.882	    94.349	   -10.690
    60.473	   135.489	    23.741
    48.261	    82.350	     3.812
    40.753	   101.930	   -19.511
    44.603	    91.098	   -23.757
    45.919	    73.210	   -18.029
    50.027	    69.500	   -14.613
    47.529	    79.201	     7.213
    67.047	    99.508	   -14.823
    55.379	   101.899	    -5.713
    45.719	    94.208	   -11.136
    55.348	   113.529	    -7.055
    62.833	   113.300	    -9.192
    76.117	   146.229	     0.227
    61.019	    67.816	    -3.885
    66.297	    99.705	     2.330
    57.525	    68.667	    -6.610
    50.976	    70.235	     3.425
    53.109	    89.322	     2.658
    56.971	    65.374	     2.302
    67.627	   113.372	    -3.559
    50.299	   104.160	     7.223
    34.638	   104.553	     1.623
    49.981	    83.731	     5.110
    72.448	    96.362	     1.721
    58.533	    90.281	   -16.284
    34.159	    85.783	     1.370
    63.691	    90.329	   -19.246
    62.855	    87.523	    18.605
    52.588	    99.881	    -2.521
    58.939	    64.225	   -22.668
    39.036	   107.122	   -13.813
    46.735	    95.321	    -0.974
    45.222	    71.346	    -5.479
    65.991	    70.103	    -0.682
    54.617	    85.368	    -4.010
    64.315	    69.577	    -9.534
    64.703	   104.658	   -10.944
    62.917	    88.607	    -8.111
    61.650	    97.875	    12.353
    62.219	   110.298	     0.968
    75.070	   114.725	     9.698
    57.242	   114.146	    15.114
    47.290	    94.101	     3.845
    62.982	    77.383	    -1.785
    52.487	    91.281	    16.270
    46.942	    78.489	    -3.646
    56.042	   102.719	    -1.739
    71.189	   123.337	   -11.871
    47.017	   101.936	     9.402
    52.383	    93.221	   -30.372
    75.712	    97.905	    10.481
    67.605	   108.092	    23.958
    74.505	   110.373	    -0.681
    50.696	   106.779	     2.052
    53.309	   103.958	     2.047
    64.521	   100.266	   -16.969
    59.515	    87.197	    -8.413
    66.598	    96.053	    -7.285
    64.262	    89.023	   -11.940
    33.707	    98.285	     1.597
    61.576	    80.214	     0.006
    48.791	    77.785	     5.976
    54.284	   104.809	    -5.597
    51.910	    89.838	    14.316
    60.826	    99.905	   -12.650
    63.736	   113.617	     3.854
    38.420	    83.509	    -4.769
    51.790	    96.970	    12.243
    54.937	    77.764	     7.100
    56.095	    95.744	    25.587
    55.035	    60.925	   -18.195
    58.358	    73.659	     5.174
    59.852	    82.450	     8.223
    58.691	   102.324	    -4.216
    59.366	    87.541	    -9.203
    51.203	    88.807	    -1.591
    47.068	    84.469	    -3.281
    61.855	    95.625	    -0.713
    65.168	    70.462	   -12.084
    54.032	    82.552	    -2.792
    40.886	    88.599	    -7.842
    50.514	   105.895	     0.705
    54.428	    87.630	     1.436
    66.357	    94.220	   -20.662
    67.064	    76.253	    -5.283
    57.598	    78.965	    -6.954
    55.574	    89.388	     3.052
    48.737	    74.385	   -17.173
    43.862	    76.464	     8.740
    54.561	    78.355	    -1.959
    56.595	    96.651	     3.487
    64.601	    91.281	     9.909
    55.458	    88.498	    -7.178
    52.029	    93.823	     3.014
    57.096	   124.351	    -1.977
    77.161	   137.431	     6.482
    57.042	   110.683	    10.820
    74.574	    67.325	   -22.322
    56.073	    85.853	    -2.393
    44.337	   101.253	    -1.896
    62.814	   116.667	    -0.524
    63.360	   126.710	     0.771
    66.456	   106.822	    18.775
    56.448	   129.144	    17.961
    48.581	    94.345	    13.037
    54.925	    81.173	   -14.622
    55.740	    77.259	     1.082
    58.124	    80.917	    -4.141
    59.733	    85.188	    -1.228
    56.756	   100.482	     1.042
    59.196	    67.145	     9.149
    59.753	    72.514	   -12.474
    57.950	   104.524	    -0.600
    56.099	    90.061	   -21.304
    55.050	   110.776	     3.069
    60.147	    78.594	    -2.599
    64.239	   134.866	     8.784
    63.375	    82.068	     6.825
    59.321	    81.503	     2.847
    56.169	   106.233	    -1.090
    57.129	   102.586	     6.541
    66.478	   107.565	     1.907
    56.731	    75.624	     2.652
    55.616	    85.146	    11.190
    68.350	    97.998	    -5.668
    59.137	   115.775	     5.104
    69.011	   105.503	     4.976
    57.854	    84.002	    12.014
    63.907	    89.057	   -12.386
    51.902	   111.946	    11.175
    52.729	    72.308	     6.192
    47.278	    77.228	    20.848
    50.356	    73.824	    -4.055
    63.572	   114.049	    -3.889
    56.256	   108.559	     5.080
    56.347	    76.605	    -0.263
    61.314	    90.595	    -2.467
    67.262	    89.802	    -1.194
    53.678	    89.073	    12.447
    62.315	    61.032	    -4.641
    55.297	    99.323	    17.907
    58.495	    99.578	    -1.869
    54.692	   105.087	    -4.490
    68.750	   108.905	    -2.001
    64.961	    92.447	     1.098
    56.050	    70.218	     9.396
    57.021	    68.472	     2.604
    58.779	    91.257	     1.008
    45.389	    75.371	    -0.680
    76.241	    95.975	   -11.954
    55.812	    96.774	     0.085
    49.609	    97.460	    -3.656
    64.770	    85.935	    -3.612
    62.582	    68.523	     1.087
    59.258	    75.539	    -6.025
    49.602	    90.849	    -4.580
    56.164	    69.134	    -1.047
