   -92.310	   122.143	    -3.179
  -147.426	    42.530	    -8.695
  -159.552	    29.605	     2.057
  -138.677	    37.129	    -2.454
  -152.959	    16.488	     3.127
  -139.219	    34.279	    16.975
  -147.577	    42.208	     3.919
  -146.091	     7.279	   -10.522
  -155.099	    32.683	     8.566
  -161.463	    41.357	     9.795
  -146.117	    21.633	   -15.605
  -152.253	    39.573	     7.092
  -149.482	    31.853	    -5.730
  -140.094	    27.345	    10.042
  -154.786	    29.636	    -0.900
  -144.377	    19.050	     0.512
  -151.531	    35.354	    10.349
  -154.217	    45.312	     5.505
  -144.721	    41.743	     4.053
  -153.750	    44.692	     6.713
  -160.057	    17.002	     3.487
  -151.622	    39.352	     6.603
  -137.297	    25.317	    11.709
  -157.092	    60.191	    -3.549
  -157.257	    27.746	    15.168
  -154.603	    27.881	    -0.135
  -156.144	    31.960	    12.139
  -138.558	    33.172	     9.867
  -148.438	    29.042	     1.659
  -131.566	    37.813	    15.113
  -151.428	    21.446	    14.766
  -160.446	    49.432	    -2.349
  -154.944	    18.873	    17.033
  -164.482	    46.333	    14.442
  -153.127	    33.952	     6.375
  -146.646	    41.408	    27.796
  -160.521	    35.207	   -12.171
  -154.753	    57.467	    -5.646
  -162.679	    43.515	     6.006
  -132.792	    29.177	     8.010
  -155.436	    20.545	    20.585
  -148.981	    50.619	     1.355
  -146.488	    25.934	     4.149
  -150.532	    54.765	     9.590
  -168.810	    41.002	    14.980
  -144.772	    41.472	     6.046
  -150.563	    18.985	   -19.485
  -138.306	    20.193	   -19.503
  -143.764	    21.181	    -2.436
  -136.743	    25.454	    12.859
  -144.279	    14.580	     8.492
  -154.587	    38.425	     2.606
  -152.065	    37.996	     4.860
  -156.411	    34.460	    10.841
  -148.255	    31.929	   -12.167
  -150.702	    40.126	    19.561
  -152.253	    37.085	     2.608
  -146.185	    23.370	    -4.236
  -129.455	    19.815	    19.095
  -149.502	    35.232	     8.794
  -161.316	    39.337	     6.786
  -143.501	    59.057	    20.210
  -138.847	    25.806	    -9.244
  -134.372	    60.473	    -1.846
  -167.169	    44.144	     6.406
  -153.084	    49.956	     6.974
  -144.985	    37.739	    -6.545
  -154.614	    16.575	    10.717
  -139.534	    46.738	    -1.696
  -146.647	    42.088	    10.756
  -150.331	    30.734	     9.064
  -164.628	    46.188	    12.093
  -148.259	    42.981	    -1.597
  -147.801	    31.290	   -12.673
  -152.730	    47.878	    13.207
  -153.179	    32.519	     4.846
  -150.531	    17.146	     3.245
  -151.302	    38.057	    11.863
  -143.430	    40.014	    11.018
  -164.081	    52.649	     5.059
  -163.011	    56.406	    -8.455
  -150.679	    36.123	    -3.696
  -146.325	    45.528	    -6.318
  -147.483	    52.544	    10.436
  -146.951	    30.887	     9.389
  -153.137	    32.596	   -13.198
  -166.881	    20.388	     4.033
  -150.028	    40.880	     4.245
  -157.417	    32.387	     4.789
  -148.634	    27.926	     9.201
  -142.435	    30.428	    15.446
  -164.115	    47.718	   -18.893
  -162.653	    66.205	    -1.723
  -178.306	    46.474	    -1.037
  -134.375	    50.491	   -21.247
  -156.293	    26.218	     1.302
  -165.454	    54.054	    16.211
  -153.956	    19.252	    23.436
  -147.094	    43.752	     4.401
  -157.861	    27.785	     6.686
  -146.124	    58.616	    -0.277
  -153.928	    30.090	    26.642
  -159.495	    26.314	     5.360
  -152.971	    31.058	    41.205
  -160.800	    70.284	    10.758
  -155.759	    42.852	   -10.759
  -153.116	    37.295	    -0.620
  -149.288	    34.382	     6.359
  -144.377	    23.528	    -4.737
  -140.394	    31.979	     6.992
  -155.578	    18.929	    13.653
  -154.672	    26.360	    18.855
  -159.507	    29.698	    13.380
  -135.722	    40.581	   -13.201
  -137.028	    28.903	    19.684
  -146.410	    39.968	    -5.463
  -129.397	    24.610	     7.344
  -146.660	    46.276	    18.618
  -154.174	    46.046	     4.354
  -155.817	    38.150	    11.288
  -168.544	    41.902	     6.727
  -164.700	    50.901	     3.433
  -158.455	    39.043	     6.107
  -160.838	    31.185	     4.528
  -145.323	    59.224	    11.913
  -160.114	    41.924	    -1.166
  -140.316	    17.644	    13.951
  -142.805	    20.215	   -16.276
  -128.072	    41.498	    18.476
  -163.395	    60.190	    -7.935
  -153.525	    48.056	     6.033
  -143.973	    32.988	     1.773
  -147.264	    19.959	    -1.649
  -145.702	    21.361	    -6.342
  -150.712	    42.248	    20.184
  -136.601	    43.893	     4.364
  -141.597	    64.130	     7.784
  -145.033	    30.278	    -9.072
  -160.725	    17.764	    -5.532
  -149.628	    50.338	     8.129
  -155.757	    24.786	     1.400
  -137.190	    10.235	     2.183
  -148.357	    32.975	     7.697
  -160.289	    31.833	    -0.661
  -145.267	    10.325	    -8.630
  -151.530	    40.953	    -0.095
  -153.910	    30.564	    -4.315
  -157.433	    41.800	     0.237
  -139.863	    26.820	     0.064
  -148.403	    23.773	     8.857
  -141.678	    21.673	    -6.523
  -142.956	    28.102	    15.851
  -145.272	    34.667	    15.574
  -152.247	    47.137	     5.406
  -139.033	    32.448	    16.160
  -162.553	    42.705	    24.329
  -154.878	    45.913	    -1.278
  -157.227	    40.211	     4.012
  -157.518	    38.572	    -0.895
  -148.500	    25.918	    14.051
  -160.396	    19.569	     0.618
  -148.635	    21.467	     6.201
  -155.678	    32.324	    -0.687
  -165.030	    37.814	    13.335
  -154.276	    35.109	    -7.605
  -146.679	    29.825	    20.742
  -160.847	    50.853	    -2.921
  -150.055	    41.378	     9.135
  -156.259	    35.618	     0.797
  -153.459	    27.875	    13.479
  -160.832	    35.608	    16.538
  -154.706	    52.085	     0.881
  -164.887	    53.557	     7.841
  -157.906	    54.638	     2.342
  -138.934	    30.650	    -5.158
  -155.357	    20.448	    -4.765
  -151.110	    23.905	    10.665
  -155.216	    12.763	     3.680
  -157.316	    45.398	    -3.823
  -135.723	    25.298	     3.915
  -143.510	    37.471	    26.070
  -161.119	    21.394	     4.489
  -135.142	    42.779	    -4.101
  -146.760	    57.127	    -8.128
  -155.557	    36.447	    19.259
  -151.518	    26.136	    -0.747
  -160.411	    36.399	    -2.105
  -151.574	    40.254	     7.369
  -153.279	    46.403	    29.435
  -149.453	    63.970	    11.969
  -168.065	    49.124	    -2.845
  -157.356	    25.142	     6.644
  -153.360	    38.756	     2.744
  -150.901	    14.023	    -5.208
  -155.514	    37.314	    -4.725
  -145.951	    30.977	    23.961
  -153.819	    37.964	     6.677
  -146.928	    41.836	   -11.680
  -156.207	    31.049	     6.241
  -158.521	    39.690	    -9.357
  -156.020	    24.436	     2.811
  -158.219	    31.510	     0.507
  -162.312	    16.538	     4.968
  -146.769	    42.233	    -5.253
  -144.356	    23.630	   -10.263
  -154.292	    24.184	    -2.194
  -160.533	    47.203	     0.945
  -159.764	    37.030	    -8.773
  -151.616	    46.859	    -0.105
  -147.800	    38.390	    17.925
  -146.202	    38.560	    15.796
  -136.328	    36.447	    -8.929
  -153.497	    42.304	     7.870
  -130.724	    58.912	    -0.154
  -150.172	    38.051	    11.498
  -157.220	    38.948	    -2.430
  -144.695	    30.843	     0.321
  -167.629	    30.447	    -0.390
  -142.865	    29.029	     6.265
  -145.643	    30.202	     1.630
  -155.641	    18.528	    10.092
  -156.219	    48.394	    -8.167
  -150.318	    26.676	    -0.909
  -155.421	    48.706	     4.340
  -170.764	    32.033	    -3.748
  -155.996	    18.688	     8.542
  -152.439	    19.283	    -3.975
  -154.421	    39.694	     6.686
  -166.157	    18.089	    18.181
  -147.273	    47.848	     5.739
  -141.742	    53.284	     0.399
  -153.668	    37.313	     9.056
  -143.484	    11.321	    22.606
  -147.945	    61.365	    -4.303
  -158.424	    66.036	    10.036
  -151.942	    28.547	     9.526
  -154.466	     2.200	    -2.612
  -164.312	    37.034	   -14.134
  -138.464	    19.050	     0.312
  -152.550	    15.955	     0.261
  -156.293	    42.963	   -16.786
  -146.131	    33.354	    -0.782
  -128.903	    46.268	   -19.658
  -155.790	    25.830	    14.093
  -145.552	    51.940	     0.507
  -147.453	    18.058	     3.374
  -169.184	    23.189	     0.567
  -153.761	    16.088	    17.216
  -154.158	    36.230	    24.472
  -165.604	    38.583	     6.655
  -152.946	    32.668	    23.117
  -154.654	    58.151	     0.279
  -141.044	    45.445	   -15.901
  -141.290	    19.777	     6.075
  -146.749	    46.605	     0.078
  -162.106	    39.797	    20.322
  -146.211	     8.107	    -9.129
  -141.878	    55.549	    -3.186
  -155.456	    31.612	    15.693
  -155.996	    40.730	    -7.068
  -157.305	    31.819	    16.718
  -152.293	    51.838	    17.455
  -145.098	    44.211	    -1.715
  -132.046	    50.176	     4.869
  -162.329	    62.481	    16.967
  -147.874	    53.432	    -6.845
  -160.710	    19.547	     7.531
  -147.938	    26.021	     9.124
  -156.069	    20.957	    -0.134
  -154.635	    19.240	     2.603
  -147.393	    27.623	     4.720
  -146.589	    49.806	    14.300
  -153.847	    42.093	     7.318
  -147.068	    31.401	    13.218
  -160.105	    29.286	    14.421
  -153.513	    18.772	    -9.641
  -154.722	    46.230	     1.558
  -140.375	    44.752	    -3.925
  -152.245	    47.944	     8.862
  -140.161	    19.530	     4.763
  -164.466	    58.509	    11.753
  -142.285	    50.931	    21.838
  -154.393	    47.292	     5.071
  -148.032	    52.279	    -5.737
  -137.356	    36.082	     9.510
  -176.046	    19.847	    13.697
  -173.046	    42.091	     7.651
  -150.515	    19.559	     1.134
  -157.154	    40.371	     2.074
  -159.199	    46.267	     0.201
  -142.560	    35.203	    -3.829
  -157.054	    19.073	    21.463
  -142.489	    25.806	    11.884
  -151.387	    27.288	     8.980
  -148.844	    38.079	     8.289
  -152.792	    41.768	    13.606
  -153.265	    64.335	    10.913
  -147.004	    26.055	    -1.943
  -158.901	    28.480	    -2.159
  -159.440	    42.731	     1.116
  -138.311	    47.314	   -12.162
  -141.835	    38.477	    16.331
  -162.461	    36.353	     1.911
  -150.214	    24.976	     5.668
  -144.468	    31.482	   -21.370
  -149.856	    33.081	    -6.605
  -164.091	    16.160	     6.937
  -160.357	    27.734	    -6.448
  -161.545	    19.555	    12.003
  -168.130	    35.395	     3.589
  -164.037	    44.508	    12.026
  -163.108	    40.729	     8.961
  -149.845	    38.610	    -7.443
  -164.127	    30.814	    14.943
  -148.934	    31.049	     1.804
  -161.867	    36.545	    11.866
  -146.530	    36.416	    -1.290
  -153.577	    63.088	    13.165
  -161.983	    36.238	    10.102
  -157.138	    26.226	    -3.655
  -153.196	    43.061	    13.231
  -150.205	    43.693	    21.443
  -148.602	    40.271	     9.093
  -163.749	    21.640	    22.265
  -155.452	    48.362	   -14.716
  -165.209	    39.358	    14.705
  -167.660	    27.201	    16.514
  -145.148	    30.914	    18.221
  -137.283	    20.140	    10.507
  -143.258	    26.188	    -3.152
  -156.669	    34.570	     3.293
  -159.777	    52.944	    18.313
  -145.207	    24.072	     3.817
  -147.175	    41.881	   -16.936
  -137.620	    35.008	     5.912
  -161.202	    35.818	    16.686
  -156.806	    14.041	    15.041
  -153.355	    23.043	     2.595
  -158.350	    34.338	    10.079
  -152.692	    51.211	     2.508
  -144.084	    24.551	    -1.908
  -163.096	    14.132	    21.721
  -133.459	    23.813	    13.962
  -128.555	    21.823	    -5.601
  -157.397	    23.655	   -19.226
  -142.047	    22.238	     4.286
  -140.029	    29.227	    -6.574
  -168.860	    43.540	     8.099
  -150.227	    31.591	     4.429
  -150.658	    45.314	   -24.685
  -141.798	    49.562	     3.932
  -163.346	    48.912	    27.766
  -159.726	    45.565	    10.306
  -128.622	    59.738	     1.525
  -141.880	    38.125	    12.219
  -166.254	    49.286	     8.796
  -164.867	    46.639	    13.021
  -142.061	    29.549	    14.269
  -140.864	    12.851	   -21.502
  -156.575	    44.516	     6.186
  -152.962	    14.919	    -5.463
  -155.942	    19.193	    12.883
  -156.871	    33.535	    16.493
  -149.932	    34.536	    -4.491
  -130.260	    22.203	    19.792
  -162.619	     1.512	     6.334
  -162.007	    24.815	    -0.246
  -152.393	    32.643	    -4.267
  -144.906	    22.163	    24.470
  -123.178	     5.372	    10.765
  -154.577	    38.511	     6.870
  -150.784	    27.626	    13.757
  -157.634	    23.465	     5.017
  -142.851	    32.471	    10.714
  -135.318	    22.222	     4.977
  -155.919	    42.799	    -8.494
  -141.467	    46.746	    -7.914
  -156.538	    44.323	   -15.214
  -161.071	    32.881	     7.879
  -159.965	    48.952	    24.875
  -129.865	    21.112	     1.059
  -146.693	    12.474	     1.286
  -164.790	    34.591	     3.400
  -152.916	    22.523	    -3.071
  -155.507	    33.770	    26.646
  -159.618	    24.043	    11.115
  -163.062	    43.105	     8.019
  -160.105	    47.981	    12.141
  -151.157	    15.989	    12.533
  -157.746	    46.301	     0.584
  -152.869	    38.009	     8.779
  -155.177	    47.138	    -0.687
  -153.241	    47.425	     4.044
  -148.477	    15.843	    -2.646
  -161.210	    43.023	     5.121
  -160.066	    45.496	    -1.897
  -163.793	    48.720	    -1.447
  -144.014	    41.490	   -10.338
  -142.788	    28.098	     1.118
  -150.622	    60.284	     5.426
  -152.204	    34.006	    30.480
  -137.786	    39.176	    15.761
  -145.633	    34.820	     2.465
  -146.986	    28.042	   -11.542
  -149.770	    36.598	    -2.982
  -136.693	    52.070	     6.000
  -153.719	    45.709	    30.961
  -163.249	    44.979	    23.180
  -146.902	    22.855	     4.692
  -150.927	    15.750	    18.079
  -160.011	    28.697	    22.848
  -165.350	    23.932	   -12.167
  -165.896	    31.702	    13.825
  -134.999	    29.127	    -1.438
  -152.602	    61.890	     0.103
  -154.632	    32.823	     9.424
  -143.081	    38.352	    -7.094
  -165.023	    42.372	    22.907
  -156.237	    41.392	     9.176
  -156.477	    46.968	     4.208
  -147.026	    46.570	     8.394
  -152.984	    29.315	     2.704
  -151.924	    52.395	   -12.344
  -158.588	    48.274	    -3.901
  -143.621	    37.577	    17.978
  -148.300	    31.781	    -5.242
  -145.502	    32.460	     9.629
  -152.298	    34.089	   -15.353
  -165.607	    60.965	    18.177
  -156.136	    41.597	     4.234
  -141.570	    45.429	     8.581
  -167.247	    52.271	     1.991
  -142.262	    34.323	     4.234
  -162.685	    50.505	     3.441
  -145.881	    42.615	     1.238
  -154.563	    33.270	    11.347
  -143.400	    32.114	    16.082
  -145.303	    48.649	    -1.787
  -159.539	    43.790	    -3.843
  -157.414	    31.035	    -2.361
  -153.182	    30.240	     6.577
  -153.743	    45.512	    10.275
  -149.686	    46.553	     8.007
  -150.282	    22.340	   -12.044
  -146.899	    37.403	    -6.698
  -152.961	    30.814	    -8.539
  -150.737	    28.920	    25.169
  -150.320	    31.453	     0.979
  -158.361	    48.646	    -0.187
  -154.343	    21.779	    13.393
  -148.875	    30.519	    -3.351
  -139.505	    22.255	    19.709
  -152.452	    34.710	    12.965
  -146.032	    28.129	     7.384
  -162.292	    45.398	    17.864
  -137.705	    40.334	     8.027
  -146.519	    50.593	    25.993
  -157.544	    45.173	    13.916
  -156.123	    24.078	    12.223
  -152.528	    17.276	     4.909
  -164.268	    32.381	     7.253
  -156.568	    21.851	    -5.978
  -158.671	    48.092	     2.163
  -157.067	    37.349	    17.189
  -146.718	    14.648	     9.872
  -162.868	    47.168	     1.802
  -152.124	    23.185	    -3.698
  -162.747	    42.072	    -3.625
  -144.240	    28.661	     5.636
  -156.642	    20.086	    27.283
  -146.697	    41.329	     6.244
  -158.302	    52.219	     3.223
  -150.407	    29.510	    10.008
  -155.657	    34.798	    13.141
  -168.713	    24.701	    14.555
  -150.554	    26.959	    17.456
  -140.515	    17.964	    20.240
  -133.859	    26.656	    17.165
  -152.380	    25.572	     7.912
  -166.488	    24.249	     4.551
  -163.693	    38.323	    12.144
  -153.902	    32.100	    -4.815
  -123.684	    38.681	     0.997
  -143.655	    37.153	   -15.313
  -163.724	    35.615	    17.157
  -152.443	    34.862	    17.746
  -149.337	    -1.713	    14.778
  -157.324	    18.361	     0.623
  -146.549	    64.115	   -16.345
  -150.203	    33.471	    -6.358
  -154.033	    19.876	    -1.211
  -168.681	    11.914	    17.294
  -172.293	    48.040	     6.487
  -173.948	     9.290	     9.551
  -155.733	    31.326	     2.083
  -150.973	    33.249	     0.967
  -150.381	     4.603	     2.855
  -153.197	    19.802	    12.688
  -153.820	    19.636	     4.179
  -143.207	     7.974	     6.008
  -160.739	    16.497	    13.800
  -156.135	    26.509	   -10.361
  -150.231	     1.110	   -12.850
  -146.159	    36.126	   -13.931
  -165.671	    15.797	    17.743
  -170.510	    24.329	    33.084
  -136.501	    31.098	     6.880
  -167.403	    38.964	     2.638
  -153.632	    28.585	     2.513
  -157.746	    39.413	    17.158
  -162.026	    36.793	     1.296
  -157.786	    18.262	    11.626
  -154.612	    28.004	    -2.755
  -150.625	    43.467	     9.212
  -170.573	    32.471	     0.399
  -155.972	    37.785	    -0.950
  -133.755	    29.891	    25.088
  -137.763	    31.747	    -1.195
  -146.502	    21.895	     0.914
  -154.688	    29.181	   -14.549
  -138.321	    25.089	    -5.705
  -157.704	    21.788	     0.068
  -165.506	    54.559	   -10.640
  -140.887	    29.306	     6.854
  -143.773	    45.714	    -3.488
  -147.893	    11.231	    14.474
  -151.527	    31.287	    13.436
  -158.794	    34.419	     8.176
  -141.087	    35.880	     6.525
  -132.944	    44.703	    -5.106
  -153.699	    55.520	    17.550
  -148.357	    35.448	     0.882
  -159.940	    32.099	     9.314
  -153.394	    30.104	     2.164
  -156.691	    25.123	    17.416
  -154.547	    29.325	    -0.688
  -149.279	    55.057	    -5.089
  -160.126	    33.511	   -16.870
  -147.090	    30.917	    -1.344
  -157.899	    24.685	     1.418
  -169.744	    46.883	    -1.133
  -160.696	    31.443	     2.930
  -147.769	    44.600	     2.189
  -146.161	    56.962	    -7.203
  -166.729	    15.592	    14.368
  -160.556	    34.962	    10.150
  -145.116	    25.453	    -5.793
  -151.609	    16.123	    -6.426
  -160.132	    49.197	     2.877
  -139.146	    65.444	    -3.536
  -159.731	    24.027	    -6.267
  -172.099	    31.089	     1.367
  -149.408	    22.141	     7.302
  -147.550	    32.336	    -6.509
  -141.275	    39.712	    -7.868
  -154.986	    58.140	    32.335
  -163.734	    34.608	    25.345
  -135.193	    33.792	    -4.124
  -143.095	    28.458	     3.565
  -157.744	    29.341	    13.387
  -147.595	    40.952	    10.611
  -150.931	    36.451	    -5.457
  -165.728	    19.835	     9.349
  -146.366	    48.053	    13.470
  -164.989	    56.792	     9.273
  -144.499	    28.696	    22.373
  -145.747	    43.845	    -5.575
  -152.437	    26.733	     3.420
  -155.593	    58.346	    -8.036
  -148.602	    23.170	    20.875
  -148.544	    29.785	    -9.404
  -153.165	    31.924	     7.606
  -156.409	    32.914	     5.750
  -155.848	    26.700	    22.061
  -147.961	    35.137	     9.638
  -160.813	    10.208	     7.295
  -150.410	    20.780	    -0.530
  -163.543	    41.017	    -4.699
  -146.845	    44.333	     0.965
  -158.256	    27.052	    -6.116
  -158.561	    42.270	     5.877
  -151.092	    28.818	    16.466
  -153.266	    43.329	     2.449
  -145.961	    41.580	     1.039
  -157.833	    32.773	     4.112
  -150.324	    27.431	    14.028
  -150.042	    18.180	    -4.277
  -151.427	    29.078	   -14.409
  -159.157	    43.663	     1.511
  -163.215	    26.832	     0.931
  -149.210	    41.368	     7.863
  -164.020	    24.757	     4.892
  -145.806	    12.830	     6.370
  -164.993	    48.551	    10.917
  -151.987	    50.050	     8.466
  -158.831	    30.212	    13.188
  -163.713	    43.811	    14.376
  -151.668	    25.743	     8.924
  -146.116	    41.144	     1.287
  -148.223	    37.713	     7.799
  -153.179	    47.562	    -5.320
  -146.302	    33.111	    10.260
  -161.711	    63.403	     7.869
  -161.773	    37.924	     8.442
  -154.305	    29.355	    15.216
  -163.214	    20.110	     8.573
  -142.953	    41.779	     2.534
  -156.727	    34.677	    -4.077
  -156.195	    26.722	     0.631
  -151.072	    30.090	     4.992
  -154.325	    39.908	    -7.527
  -156.985	    35.540	    11.314
  -151.984	    15.384	     2.383
  -148.844	    56.604	   -12.506
  -148.006	    64.699	     5.123
  -147.723	    35.915	     4.304
  -155.346	    29.898	    10.370
  -148.310	    30.783	     9.190
  -151.833	    37.836	     3.714
  -153.074	    42.344	     6.199
  -160.019	    55.811	     4.596
  -146.474	    20.951	     7.521
  -153.831	    71.041	     4.826
  -161.371	    36.943	     4.702
  -160.577	    31.692	     8.399
  -143.030	    36.451	    -6.244
  -147.618	    29.058	     4.377
  -151.273	    35.077	     2.083
  -136.984	    28.573	     4.357
  -146.024	    25.911	    17.079
  -158.492	    15.108	    12.770
  -147.684	    49.306	     8.287
  -150.186	    13.348	    10.430
  -152.594	    45.515	     6.088
  -167.520	    48.922	    15.734
  -155.519	    22.675	     6.099
  -142.968	    35.286	    32.513
  -151.203	    39.551	    -2.214
  -153.951	    35.242	     6.501
  -147.724	    22.083	     3.401
  -161.734	    32.063	    -8.121
  -150.686	    27.673	   -12.111
  -155.025	    29.371	    -0.662
  -152.809	    43.477	     2.918
  -161.166	    35.172	    11.520
  -163.858	    31.047	    22.662
  -157.855	    48.160	     8.692
  -153.068	    31.325	     8.828
  -143.151	    23.672	   -17.652
  -155.596	    21.057	    -0.288
  -148.185	    37.092	    14.413
  -149.795	    44.750	     8.748
  -155.748	    18.897	    -8.572
  -151.223	    16.619	    16.672
  -154.638	    33.520	    -8.879
  -153.810	    46.582	     4.520
  -163.830	    51.716	     4.953
  -137.294	    24.286	    -1.361
  -159.448	    22.663	    18.332
  -151.650	    32.383	     4.695
  -166.307	    43.262	    21.517
  -141.344	    42.359	     7.257
  -151.235	    28.007	     5.607
  -151.564	    38.020	     1.463
  -142.889	    20.214	     1.868
  -159.627	    36.734	     8.575
  -139.459	     8.238	    15.536
  -157.641	    39.030	    14.258
  -147.306	    36.234	    11.703
  -147.522	    51.022	    19.614
  -150.470	    42.738	     2.662
  -152.571	    27.039	     5.027
  -146.592	    36.752	     7.616
  -145.615	    27.598	    18.207
  -149.307	    35.793	    14.594
  -155.025	    49.100	    -2.069
  -138.074	    39.744	    14.575
  -136.605	    45.819	    -5.809
  -147.320	    48.538	     1.833
  -150.918	    53.176	    11.170
  -151.218	    36.762	     9.349
  -153.966	    47.676	     6.059
  -159.398	    37.758	    -5.158
  -159.746	    47.760	     7.525
  -147.035	    37.837	   -12.421
  -159.118	    39.052	    -2.650
  -142.022	    23.152	    -5.097
  -150.686	    31.490	     1.150
  -158.608	    19.578	    17.581
  -143.904	    19.945	     7.951
  -156.015	    33.323	     1.749
  -153.024	    21.013	     8.530
  -158.178	    40.837	     8.512
  -154.745	    25.184	     9.171
  -152.785	    53.424	     5.083
  -142.717	    32.360	    -6.071
  -159.248	    32.830	    10.898
  -142.146	    41.734	    11.861
  -144.157	    19.068	    17.046
  -145.348	    36.904	     5.263
  -150.527	    43.900	     0.971
  -144.914	    41.609	    -1.913
  -150.407	    36.990	    -2.772
  -155.451	    59.584	    -4.758
  -144.617	    39.745	     3.663
  -140.853	    32.480	     2.039
  -149.146	    56.812	     4.634
  -134.414	    33.355	     7.057
  -158.896	    43.562	   -16.120
  -147.708	    32.159	     3.196
  -152.570	    53.362	     0.037
  -152.343	    36.018	    -8.368
  -148.498	    55.473	     6.336
  -153.581	    21.287	     6.193
  -161.249	    40.801	     1.027
  -138.452	    29.302	    -3.833
  -155.644	    23.898	    -0.856
  -151.941	    35.641	     7.500
  -154.012	    40.049	     8.982
  -161.101	    29.486	    19.018
  -158.268	    48.229	     8.154
  -160.368	    43.987	     7.450
  -159.803	    34.986	    20.199
  -147.193	    54.400	    -7.979
  -157.907	    56.739	    12.416
  -149.320	    50.902	    11.168
  -148.657	    41.604	    -1.268
  -145.296	    27.890	    13.692
  -169.133	    33.445	     6.550
  -144.805	    43.375	     1.761
  -144.105	    22.298	    -2.461
  -142.196	    55.038	    -2.693
  -145.895	    19.134	    -7.760
  -147.602	    23.583	     0.839
  -152.221	    46.849	    -3.616
  -158.768	    44.792	    -4.778
  -153.768	    50.211	     0.580
  -155.728	    26.317	    -1.998
  -148.050	    46.747	   -17.465
  -157.914	    30.360	    19.579
  -157.517	    16.298	    -1.310
  -161.023	    46.343	     7.798
  -151.019	    66.734	    -4.231
  -147.838	    34.009	     2.202
  -150.780	    43.860	     3.333
  -162.800	    41.167	    15.616
  -159.664	    47.687	     1.517
  -141.808	    65.843	    -2.466
  -162.373	    40.984	    30.165
  -144.321	    47.387	    -4.394
  -135.886	    43.700	     1.134
  -153.539	    56.064	     9.119
  -162.816	    41.674	    -2.911
  -152.941	    21.128	    11.014
  -147.631	    42.168	     5.264
  -160.579	    62.273	    12.852
  -153.180	    54.469	    -8.681
  -156.422	    44.722	    -1.217
  -152.282	    47.293	     3.685
  -167.851	    22.941	    10.058
  -145.616	    17.932	     7.423
  -151.690	    26.283	     2.186
  -158.398	    11.506	    -2.278
  -142.866	    32.155	   -11.814
  -144.714	    20.333	     8.077
  -153.518	    30.969	    -3.028
  -151.853	    56.004	    13.247
  -137.723	    30.801	     5.844
  -136.909	    39.705	     7.000
  -148.405	    37.223	     7.521
  -140.940	    20.630	    -6.341
  -147.021	    33.372	    -9.242
  -168.461	    42.018	     6.365
  -141.896	    32.628	   -12.682
  -150.788	    42.034	    19.005
  -158.911	    46.848	     0.510
  -152.494	    32.912	    13.071
  -144.682	    25.640	   -12.217
  -151.884	    17.890	    13.543
  -138.284	    34.851	    16.088
  -148.050	    49.444	    -7.237
  -154.263	    39.539	    -2.546
  -158.751	    44.434	     2.871
  -154.605	    20.482	    24.269
  -165.379	    52.593	   -15.177
  -145.516	    44.774	     2.293
  -140.178	    30.912	   -17.229
  -143.984	    36.632	     5.040
  -154.750	    31.988	     6.186
  -165.077	    45.289	    24.199
  -161.399	    48.347	     8.814
  -160.176	    32.885	     7.186
  -160.488	    37.705	     6.755
  -155.869	    37.007	     0.739
  -166.309	    35.009	    -3.352
  -143.491	    50.741	    -6.329
  -148.351	    33.273	     2.068
  -146.648	    23.846	    -0.663
  -162.705	    72.598	    -8.601
  -150.602	    47.106	     4.416
  -143.481	    30.531	    -6.134
  -151.453	    29.873	     7.742
  -144.269	    34.416	     9.321
  -161.576	    44.541	    20.064
  -161.443	    20.166	    19.454
  -150.771	    42.916	     9.458
  -156.612	    39.791	     9.932
  -143.553	    27.679	   -13.386
  -163.007	    42.322	     6.767
  -145.465	    40.160	     7.131
  -154.428	    34.872	     7.046
  -154.953	    56.193	    15.766
  -166.635	    20.557	    27.257
  -130.540	    39.572	    -3.227
  -148.780	    46.580	     3.505
  -161.578	    29.479	     6.050
  -163.283	    45.166	   -12.522
  -158.731	    21.096	     0.360
  -159.777	    39.846	     8.080
  -145.763	    13.868	     0.706
  -153.113	    26.168	    13.828
  -157.262	    35.416	    11.202
  -156.424	    44.866	     3.458
  -151.824	    15.827	    -4.187
  -152.396	    34.941	     2.032
  -162.127	    28.821	     1.724
  -150.039	    -2.822	     2.455
  -144.044	    30.026	     3.151
  -157.830	    23.161	    12.232
  -141.084	     7.581	    16.376
  -138.238	    34.793	   -11.298
  -134.434	    55.103	    -4.021
  -160.490	    48.861	     1.363
  -132.977	    42.434	    -0.852
  -145.901	    35.823	    -5.105
  -145.986	    42.365	    10.211
  -159.834	    43.100	    12.951
  -160.169	    51.522	     6.873
  -161.222	    55.680	    -8.526
  -150.731	    24.211	    -0.415
  -165.417	    21.461	     1.060
  -159.672	    34.525	    -8.580
  -135.672	    36.981	    -0.711
  -143.310	    33.322	   -10.793
  -144.807	    24.745	    -7.977
  -165.487	    37.983	    -1.051
  -151.674	    33.464	     0.950
  -161.972	    28.281	    -4.528
  -176.968	    40.330	    13.639
  -146.031	    21.300	     3.091
  -142.213	    12.313	     1.216
  -155.014	    20.261	     7.182
  -155.562	    23.646	    13.333
  -145.759	    16.894	     4.917
  -142.477	    16.544	    -1.472
  -155.178	    20.613	    16.888
  -154.941	    19.647	     1.438
  -151.760	    43.289	    12.687
  -158.065	    22.747	    15.171
  -147.943	    40.085	    18.933
  -153.501	    24.263	   -24.999
  -149.323	    38.327	     9.116
  -148.460	    25.727	     9.797
  -153.518	    44.600	     5.408
  -159.956	    31.950	     9.844
  -146.772	    25.378	    -5.439
  -154.898	    38.772	    19.179
  -150.203	    46.318	     8.506
  -147.860	    29.080	    16.131
  -140.921	    46.567	     5.853
  -152.143	    37.314	    10.972
  -157.288	    49.567	    -7.710
  -165.206	    43.002	    -2.875
  -166.767	    36.759	     1.970
  -159.559	    44.705	    -2.353
  -164.681	    50.989	     0.375
  -166.082	    21.171	   -14.044
  -140.513	    17.392	   -17.920
  -155.218	    39.249	    15.339
  -162.200	    64.401	    -3.774
  -156.474	    29.637	     1.281
  -153.072	    40.339	    11.882
  -150.691	    42.221	     6.794
  -154.768	    52.749	     4.104
  -163.844	    27.014	     9.023
  -167.217	    55.448	    -5.251
  -157.561	    48.635	     4.375
  -148.158	    16.791	    -4.846
  -127.089	    46.185	    11.611
  -145.491	    56.853	    -7.476
  -149.031	    26.339	    21.360
  -157.451	    36.152	   -19.472
  -144.034	    14.121	     5.011
  -160.701	    33.289	     1.777
  -157.098	    54.495	   -22.634
  -147.682	    51.613	    -5.480
  -157.064	    35.819	    -1.618
  -153.022	    25.622	    15.706
  -153.350	    35.957	     5.593
  -142.947	    29.121	    15.523
  -159.537	    38.179	     6.311
  -155.371	    40.146	    -1.239
  -157.090	    50.030	     6.273
  -148.670	    34.965	     5.987
  -156.823	    41.725	     2.235
  -155.439	    50.635	    19.285
  -169.275	    25.594	     3.089
  -147.698	    36.417	    -8.469
  -133.811	    29.312	     9.930
  -159.054	    42.742	    19.382
  -139.358	    38.915	    19.234
  -151.863	    34.014	    11.740
  -151.561	    40.231	     7.925
  -139.142	    17.279	     2.936
  -148.770	    36.580	     3.641
  -156.842	    28.790	    10.356
  -157.474	    24.871	    13.634
  -161.467	    55.491	     9.642
  -162.276	    37.408	    14.810
  -153.364	    34.287	    10.886
  -167.146	    30.755	     6.185
  -153.384	    11.065	   -26.780
  -147.560	    25.103	    -0.452
  -150.711	    39.244	    13.487
  -158.917	    35.637	    35.800
  -159.823	    34.601	    32.294
  -157.647	    52.976	    16.642
  -151.363	    22.918	    -3.793
  -157.717	    26.698	     6.903
  -151.567	    41.185	     1.488
  -162.939	    31.904	     2.763
  -155.067	    20.025	     2.114
  -156.378	    24.721	    15.595
  -157.226	    23.821	     5.676
  -150.553	    32.620	     5.497
  -163.287	    39.776	    -0.036
  -147.001	    45.654	     2.091
  -152.814	    30.807	     1.134
  -150.734	    26.969	    29.687
  -140.335	    34.904	    28.127
  -152.832	    32.586	    18.125
  -142.928	    29.830	    -1.631
  -148.218	    17.258	    -3.247
  -131.821	     8.969	     1.955
  -150.427	    40.575	     4.475
  -139.443	    33.868	   -13.167
  -155.410	    36.490	     2.701
  -161.741	    37.597	    10.617
  -154.882	    32.341	     7.860
  -146.331	    39.147	   -14.094
  -166.078	    18.222	     2.474
  -161.635	    19.316	     2.434
  -144.652	    21.001	    -8.580
  -153.832	    32.295	    25.167
  -148.355	    42.216	     4.489
  -153.086	    50.945	    -8.781
  -155.005	    45.141	    -1.627
  -156.801	    51.136	    -4.019
  -161.927	    32.082	     9.578
  -147.582	    59.785	     2.910
  -144.761	    44.453	     4.420
  -155.425	    39.661	   -10.550
  -148.884	    35.111	    -2.752
  -158.386	    36.260	     4.010
  -155.244	    -7.970	     1.169
  -135.715	    15.274	     7.421
  -143.393	    24.240	    -2.019
  -151.759	    37.688	     5.559
  -148.609	    36.070	     1.229
  -156.375	    24.827	    17.585
  -148.421	    41.578	    12.371
  -162.096	    34.880	     9.951
  -152.727	    23.202	    13.029
  -146.342	    23.181	     7.080
  -136.864	    35.260	    29.433
  -173.769	    46.974	     4.691
  -153.760	    13.633	    18.024
  -153.644	    37.223	    22.724
  -142.319	    34.148	    18.345
  -150.735	    35.507	   -11.468
  -150.381	    48.803	    -0.239
  -144.376	    27.193	    12.861
  -158.917	    25.087	     2.222
  -144.164	    29.399	    14.563
  -139.323	    32.071	     2.013
  -142.899	    41.004	     5.665
  -151.555	    34.389	     7.799
  -147.769	    46.013	     7.406
  -158.693	    42.455	    13.085
  -148.619	    18.756	   -11.544
  -150.356	    36.473	   -26.594
  -152.010	    16.381	    -8.645
  -148.637	    25.015	     5.128
  -154.059	    48.147	    10.224
  -157.821	    28.022	    -2.905
  -155.224	    45.009	   -16.395
  -162.511	    33.083	    14.877
  -133.322	    36.269	     6.541
  -145.043	    41.141	    -1.141
  -158.332	    35.196	     6.616
  -145.097	    44.478	    -4.403
