   -92.310	   122.143	    -3.179
   -57.456	   163.434	   -16.508
   -68.163	   170.781	    -8.430
   -60.548	   155.204	   -12.873
   -49.485	   145.346	   -11.252
   -63.599	   148.809	    -3.381
   -51.347	   141.991	    -5.850
   -67.055	   159.514	     2.818
   -50.998	   156.752	   -10.066
   -55.032	   149.845	     9.342
   -49.200	   136.409	    -9.723
   -62.765	   139.775	    -0.130
   -51.073	   150.398	     0.687
   -67.665	   167.068	    22.993
   -56.258	   153.692	    -2.446
   -60.919	   164.724	     6.965
   -55.108	   160.205	    -9.083
   -65.083	   161.069	     6.265
   -75.277	   149.393	   -11.331
   -63.294	   169.202	   -29.485
   -65.483	   166.808	    -2.221
   -67.960	   156.063	     5.451
   -74.102	   159.180	     2.524
   -58.543	   151.952	    -8.206
   -63.723	   165.401	    -9.490
   -70.047	   155.086	    -7.519
   -61.040	   140.507	    -9.800
   -68.416	   145.929	    -2.315
   -83.276	   165.438	     6.717
   -80.124	   159.080	     4.079
   -57.720	   146.110	   -30.790
   -69.534	   154.337	     2.233
   -57.047	   157.967	   -11.245
   -57.901	   167.952	    -0.297
   -54.116	   150.479	   -14.037
   -62.226	   139.282	   -13.827
   -68.165	   166.463	    -0.467
   -73.069	   157.257	    -5.635
   -72.703	   155.854	     2.629
   -60.190	   171.071	    -6.051
   -55.864	   136.138	     6.276
   -60.132	   151.718	    -6.334
   -44.873	   146.152	     1.399
   -61.545	   139.844	   -11.753
   -70.677	   156.634	     1.410
   -53.546	   160.560	    -3.305
   -50.523	   140.410	   -19.375
   -64.624	   161.506	    14.448
   -60.509	   133.856	    -0.733
   -66.784	   152.333	   -33.138
   -64.502	   162.687	    -7.791
   -68.008	   157.431	    -8.851
   -76.247	   159.031	    -5.837
   -53.405	   150.555	    -5.958
   -67.643	   160.598	    -4.717
   -53.088	   157.581	     2.086
   -63.593	   143.379	    -9.393
   -40.038	   152.936	   -10.459
   -61.452	   155.716	   -30.467
   -59.053	   157.123	    -3.720
   -66.711	   149.089	    -2.096
   -58.519	   147.905	   -13.252
   -66.728	   156.221	    11.640
   -53.911	   153.216	    -1.557
   -55.537	   154.668	     1.826
   -61.657	   153.024	   -26.840
   -59.321	   176.268	    -6.023
   -53.671	   159.322	    -1.246
   -55.715	   135.578	     7.398
   -64.097	   157.170	    -6.867
   -57.016	   140.073	     2.595
   -73.384	   161.255	    -8.126
   -79.304	   159.941	    -2.856
   -81.921	   145.246	     4.670
   -77.880	   164.373	    14.600
   -80.945	   133.074	    10.329
   -59.015	   165.702	    -3.555
   -68.551	   151.947	   -17.512
   -61.572	   160.451	   -10.159
   -67.901	   136.703	     3.449
   -66.854	   162.225	   -12.227
   -74.558	   160.203	   -11.227
   -67.556	   149.691	    -7.705
   -75.913	   170.290	     5.840
   -70.965	   159.496	     9.203
   -65.385	   164.675	     4.041
   -87.076	   153.370	     3.755
   -54.330	   151.197	    -0.064
   -50.547	   142.330	   -26.807
   -59.565	   162.258	    -9.459
   -71.642	   164.051	    -1.119
   -57.836	   138.631	    -2.741
   -55.417	   160.116	   -15.340
   -51.791	   157.295	   -14.868
   -61.049	   163.970	    -2.392
   -71.390	   163.276	     3.912
   -52.984	   161.163	     7.087
   -47.147	   151.473	    -0.124
   -58.514	   162.101	     9.196
   -77.952	   150.428	    -5.822
   -62.616	   161.885	    -6.044
   -74.087	   139.806	     1.367
   -53.185	   155.840	     1.517
   -62.622	   154.956	    -3.661
   -78.268	   142.629	   -12.206
   -77.501	   176.343	    -1.454
   -62.801	   152.003	    10.367
   -61.374	   165.520	     8.931
   -63.048	   154.103	    11.359
   -50.550	   146.231	     3.395
   -73.064	   164.747	   -16.130
   -76.197	   157.435	    11.858
   -63.227	   140.515	   -12.044
   -56.615	   142.316	   -14.221
   -57.068	   159.730	    -3.210
   -51.215	   155.417	    -2.518
   -72.054	   173.649	     0.979
   -70.476	   164.008	    -5.089
   -77.712	   152.352	     9.716
   -70.733	   159.014	   -13.340
   -73.240	   143.848	     9.794
   -68.159	   153.001	     8.608
   -65.039	   149.723	     9.596
   -70.520	   166.615	     5.520
   -61.459	   143.189	   -14.540
   -59.753	   148.556	   -11.628
   -47.369	   157.929	   -26.109
   -73.539	   166.710	    -6.856
   -63.605	   175.241	    -1.553
   -54.102	   150.857	    -7.431
   -51.926	   153.078	    -0.611
   -60.610	   150.675	    -9.392
   -58.108	   154.616	    -1.784
   -67.062	   148.531	    11.287
   -58.088	   151.428	     6.384
   -64.740	   143.767	    -7.417
   -65.301	   158.966	     2.835
   -67.914	   152.843	   -13.129
   -49.690	   140.769	     1.678
   -54.306	   157.852	   -10.222
   -63.469	   152.901	   -19.326
   -70.054	   146.231	    -3.823
   -59.473	   148.608	    -5.047
   -51.506	   149.664	     7.532
   -53.982	   153.178	   -18.752
   -68.717	   169.568	    14.390
   -57.161	   159.004	   -11.440
   -55.545	   151.994	    -7.991
   -78.463	   150.223	   -13.474
   -88.720	   154.289	     0.921
   -74.033	   142.529	     4.419
   -63.783	   157.462	   -20.326
   -88.395	   172.196	     3.499
   -64.806	   129.494	    -6.048
   -62.767	   142.411	    -4.998
   -60.665	   131.893	   -16.747
   -64.758	   150.262	   -20.208
   -77.150	   159.823	     4.603
   -69.971	   140.711	    -5.996
   -72.192	   144.573	    -1.776
   -50.713	   146.558	   -22.841
   -60.794	   132.988	    -5.788
   -59.594	   119.776	     8.871
   -51.097	   122.044	     0.655
   -74.188	   158.110	    -8.858
   -56.087	   148.485	     4.301
   -61.347	   151.279	    -3.691
   -58.333	   150.698	     3.155
   -67.279	   147.947	    -7.614
   -55.276	   174.571	   -10.242
   -81.643	   149.268	     2.706
   -79.648	   161.636	   -10.229
   -75.262	   162.165	   -10.187
   -79.277	   155.457	     3.401
   -70.029	   153.748	    -7.219
   -43.626	   162.741	   -16.944
   -72.560	   164.623	     3.329
   -53.732	   158.775	   -11.137
   -57.141	   168.342	    -9.343
   -75.630	   165.778	    -7.891
   -56.896	   154.713	     9.177
   -77.284	   144.858	    15.360
   -62.625	   140.293	     5.328
   -60.491	   154.729	     5.569
   -59.852	   171.013	    -7.202
   -59.640	   149.890	    -3.019
   -68.520	   133.881	    -7.224
   -75.318	   165.565	   -10.149
   -74.722	   165.534	     2.951
   -54.701	   153.955	    -2.725
   -53.725	   153.449	    -6.410
   -63.606	   172.656	    -3.265
   -62.966	   164.512	   -15.885
   -72.210	   174.598	   -16.915
   -52.830	   162.191	   -24.243
   -67.020	   152.385	     3.042
   -53.296	   150.753	    -1.291
   -47.294	   133.849	     6.352
   -61.014	   160.914	     0.551
   -65.169	   147.842	    -0.412
   -80.249	   152.847	    10.426
   -50.309	   149.063	    -6.798
   -63.284	   152.965	    11.677
   -49.914	   148.881	    -6.269
   -52.221	   146.964	     2.765
   -64.376	   160.734	    -7.705
   -63.049	   169.715	     6.632
   -63.699	   141.932	     6.618
   -65.440	   168.821	   -11.115
   -66.759	   144.894	     0.880
   -80.810	   154.619	     2.090
   -54.465	   156.575	    -9.407
   -48.848	   154.161	     8.638
   -55.128	   146.677	    -6.719
   -74.304	   138.406	     1.642
   -61.309	   149.532	   -12.943
   -63.656	   161.366	    -8.101
   -76.304	   142.762	    -2.693
   -56.511	   154.219	   -14.721
   -69.633	   117.045	    -2.744
   -65.471	   156.236	    -8.216
   -57.368	   146.489	   -13.785
   -71.377	   162.319	    12.368
   -64.322	   148.105	   -13.599
   -54.216	   154.755	    10.107
   -62.246	   164.259	    -3.031
   -59.983	   156.608	     7.565
   -76.715	   147.770	     6.576
   -71.614	   152.833	   -11.894
   -58.782	   173.449	    17.957
   -60.229	   168.037	    -9.808
   -67.136	   158.623	    -7.560
   -66.292	   142.298	    -7.347
   -58.060	   143.326	    -1.185
   -67.847	   159.656	    -5.568
   -70.040	   175.511	    -6.328
   -64.830	   160.090	    -1.628
   -73.560	   156.268	    -4.424
   -54.189	   152.871	     4.318
   -53.524	   154.848	     4.048
   -71.558	   156.855	    -2.481
   -58.793	   164.096	    -6.096
   -55.940	   154.081	   -11.424
   -67.209	   161.456	    -8.197
   -70.053	   148.612	     3.808
   -62.457	   139.763	   -11.222
   -76.488	   149.130	   -14.563
   -77.930	   158.690	    12.798
   -58.288	   150.680	     2.901
   -62.759	   140.438	    -1.831
   -50.307	   163.291	     2.422
   -54.156	   157.679	    -8.411
   -56.230	   157.288	   -14.078
   -57.480	   151.345	    -6.230
   -54.616	   154.848	    -5.562
   -64.144	   155.542	    -0.514
   -63.284	   151.638	   -13.268
   -63.119	   146.814	    21.336
   -56.036	   148.191	     3.310
   -57.594	   171.601	     2.198
   -60.787	   154.376	    -1.734
   -56.226	   148.626	   -18.943
   -59.571	   164.904	    -4.841
   -56.032	   155.815	    -7.167
   -68.724	   168.026	   -10.717
   -68.881	   159.865	     8.169
   -55.406	   155.099	    -6.946
   -55.445	   158.552	    -6.817
   -65.593	   156.788	    -7.728
   -56.662	   172.887	     6.898
   -67.809	   150.855	     4.408
   -57.331	   176.049	    -2.898
   -68.383	   147.150	     4.502
   -68.677	   147.826	   -16.025
   -54.118	   157.440	     4.066
   -63.597	   157.145	    16.737
   -54.360	   163.892	   -16.480
   -74.444	   169.546	    -9.074
   -48.367	   162.865	   -15.823
   -70.544	   157.465	     0.076
   -64.638	   151.344	     2.836
   -57.349	   152.768	     0.928
   -57.341	   152.047	    -5.169
   -62.175	   162.630	     2.298
   -64.254	   160.679	    11.438
   -64.921	   179.329	    -5.627
   -64.216	   162.888	     3.365
   -55.897	   154.560	     1.450
   -64.990	   157.735	    -1.045
   -63.047	   156.146	   -15.878
   -66.631	   147.975	    -9.441
   -67.246	   154.056	    -5.940
   -65.583	   140.440	    12.093
   -70.630	   152.588	     4.645
   -71.031	   159.178	    -2.798
   -75.272	   156.825	     2.465
   -61.430	   159.879	     8.700
   -74.133	   153.969	    17.570
   -63.516	   135.116	   -10.108
   -59.712	   159.015	   -23.582
   -64.576	   171.783	    10.956
   -57.277	   137.197	     1.339
   -70.537	  -178.417	    -0.812
   -59.760	   159.605	   -12.765
   -68.395	   163.793	    -8.148
   -74.381	   170.103	     2.445
   -60.951	   166.981	   -14.704
   -76.432	   153.380	     4.322
   -48.056	   159.952	   -16.444
   -57.923	   155.928	   -20.543
   -56.469	   160.578	   -12.492
   -64.800	   161.723	    -3.694
   -60.510	   149.613	   -15.443
   -64.093	   146.598	   -12.582
   -61.844	   149.481	    -2.087
   -63.300	   165.327	    -5.108
   -62.776	   145.675	   -13.579
   -45.442	   146.730	     3.322
   -58.130	   155.827	    -3.430
   -53.975	   157.633	   -20.204
   -60.022	   150.849	   -10.438
   -82.821	   168.620	   -19.190
   -60.219	   157.901	    -7.151
   -65.643	   158.178	     4.128
   -72.945	   165.993	    -3.240
   -71.185	   157.481	    -6.320
   -72.176	   141.235	   -25.438
   -54.787	   150.052	   -19.032
   -63.394	   152.243	     5.878
   -66.991	   159.238	    -6.311
   -65.438	   160.286	   -10.082
   -56.779	   152.169	     3.742
   -58.257	   142.997	     3.135
   -54.717	   157.714	   -11.904
   -58.110	   156.925	     2.041
   -59.909	   156.875	    -0.532
   -61.235	   159.861	    -6.446
   -65.205	   154.691	    -6.955
   -65.182	   173.422	     6.169
   -61.138	   139.395	    -9.405
   -74.662	   152.212	    -6.267
   -78.549	   160.013	   -13.304
   -69.092	   143.157	     0.230
   -56.775	   155.704	    -8.532
   -56.278	   154.522	   -15.758
   -62.297	   167.833	    10.916
   -49.841	   132.761	     6.287
   -58.499	   168.352	   -12.500
   -60.302	   147.812	    -2.448
   -60.692	   154.581	    -7.430
   -50.307	   149.551	    -9.110
   -52.448	   148.942	    -1.721
   -69.207	   148.615	   -10.896
   -62.083	   151.770	    -1.494
   -58.685	   152.149	    -1.777
   -59.537	   150.535	    -8.336
   -69.517	   154.011	   -24.346
   -70.656	   130.764	     7.303
   -66.270	   146.626	   -10.599
   -76.237	   164.327	    -4.344
   -72.872	   142.565	    -0.429
   -65.843	   153.460	     0.114
   -66.356	   162.387	    -6.013
   -59.919	   164.118	    -9.207
   -53.039	   143.790	   -14.624
   -58.267	   160.574	    -9.993
   -67.388	   161.979	    -3.600
   -53.707	   154.166	    -9.072
   -66.875	   150.259	   -10.043
   -48.204	   144.593	    -3.561
   -62.435	   159.771	     1.634
   -70.430	   160.728	    -3.639
   -69.011	   167.073	    -1.336
   -55.392	   146.927	     3.836
   -68.709	   146.807	     3.657
   -64.874	   167.570	    16.910
   -63.927	   173.103	   -10.199
   -80.058	   173.414	    -8.493
   -59.445	   135.818	    -7.324
   -73.172	   155.813	     7.555
   -55.164	   152.562	     0.783
   -60.547	   143.713	    -5.966
   -68.480	   158.656	    -2.575
   -70.585	   163.069	    -9.997
   -44.794	   147.155	    -5.866
   -70.989	   151.210	     4.485
   -64.715	   143.012	     5.518
   -58.947	   143.743	    -3.185
   -70.365	   163.824	     2.677
   -59.191	   167.314	    -4.485
   -60.705	   156.518	     6.776
   -65.463	   159.622	     8.842
   -68.782	   157.358	     6.098
   -50.622	   148.323	     1.489
   -58.567	   145.740	    -0.971
   -61.222	   153.119	     7.063
   -65.021	   160.965	   -11.487
   -59.222	   142.414	    -1.829
   -54.913	   148.917	     1.172
   -64.937	   159.040	     3.410
   -55.662	   125.777	     6.091
   -60.378	   151.487	    -1.295
   -57.588	   144.086	   -10.866
   -55.505	   141.977	    -1.002
   -47.519	   159.070	    -5.714
   -59.323	   167.093	     4.288
   -59.926	   150.042	    -4.609
   -64.646	   152.093	    10.582
   -77.854	   145.310	     9.731
   -67.896	   150.346	    12.278
   -68.266	   144.172	    15.220
   -58.786	   160.869	    -5.416
   -65.288	   150.328	    -7.773
   -66.662	   173.410	   -11.901
   -43.684	   155.684	    -9.287
   -60.566	   144.387	     3.550
   -56.781	   162.509	   -12.811
   -77.195	   169.295	     0.342
   -67.415	   148.209	     4.538
   -70.022	   157.073	     3.609
   -72.024	   160.868	    10.590
   -59.184	   149.506	   -16.959
   -55.018	   165.261	    -9.095
   -70.405	   153.595	     1.614
   -51.455	   160.522	   -10.365
   -61.879	   157.266	     5.767
   -69.347	   146.669	     4.542
   -52.552	   157.487	    -9.224
   -47.544	   155.353	     0.386
   -61.253	   151.548	    -8.798
   -61.049	   168.971	    -9.174
   -69.357	   148.581	    -0.512
   -58.022	   157.312	   -19.720
   -54.334	   153.585	    -7.641
   -75.425	   149.935	   -13.201
   -60.957	   172.615	    -4.559
   -56.522	   156.856	   -11.746
   -71.621	   154.832	     3.759
   -60.183	   149.279	    -2.315
   -73.161	   153.457	   -15.942
   -70.967	   160.086	     8.033
   -76.147	   158.664	     0.238
   -75.405	   143.703	    -9.464
   -58.536	   167.722	    -6.480
   -71.190	   145.322	    -0.963
   -73.942	   159.173	    -7.266
   -70.362	   167.541	    -8.158
   -49.957	   147.268	    -4.775
   -86.842	   165.394	     2.886
   -63.244	   142.947	    -0.013
   -63.389	   150.386	    -7.071
   -73.049	   156.712	    -5.332
   -64.391	   153.238	     4.862
   -60.830	   139.972	     6.983
   -58.329	   147.103	     5.143
   -63.056	   155.849	     8.079
   -73.310	   142.690	    11.548
   -74.655	   142.469	    -9.042
   -55.993	   159.406	   -11.800
   -72.433	   168.816	     1.682
   -64.239	   169.999	    -8.939
   -68.487	   149.668	     3.420
   -59.090	   157.306	     6.718
   -63.019	   149.610	    -4.884
   -57.989	   151.433	     4.419
   -55.844	   149.090	   -14.962
   -52.040	   148.602	    -3.373
   -72.063	   144.864	    -8.150
   -77.624	   151.253	    -0.523
   -61.150	   156.756	   -10.827
   -66.052	   160.607	     7.274
   -62.885	   152.066	     6.368
   -52.289	   136.263	    11.938
   -54.798	   149.897	   -11.685
   -64.861	   161.446	     9.338
   -69.686	   160.696	    -3.945
   -63.897	   151.714	   -10.180
   -55.314	   162.206	    -9.665
   -68.251	   155.137	     5.348
   -52.995	   156.571	    -6.582
   -74.180	   163.598	    15.745
   -63.632	   139.826	    -3.598
   -70.795	   154.553	    -3.464
   -59.956	   153.467	    -9.541
   -47.902	   138.739	    -5.866
   -55.773	   167.719	    -4.319
   -74.057	   172.789	   -11.300
   -49.585	   171.601	    -8.677
   -64.374	   168.014	     4.871
   -59.039	   155.034	     1.077
   -54.318	   139.430	    -4.285
   -58.383	   153.813	    -5.418
   -59.403	   154.602	    -2.816
   -49.494	   135.407	     3.549
   -74.143	   154.669	    -2.260
   -82.410	   160.402	    -1.864
   -58.935	   156.794	    -1.208
   -68.595	   168.240	     3.141
   -49.555	   146.479	    -3.571
   -59.368	   152.664	    -2.532
   -75.085	   165.608	   -15.766
   -61.189	   165.312	    -9.119
   -45.808	   165.664	    -8.328
   -59.360	   140.272	     4.234
   -64.020	   156.721	     7.479
   -56.501	   158.822	     6.590
   -64.330	   168.450	    -4.958
   -61.825	   168.758	     4.526
   -64.772	   176.275	   -11.071
   -86.198	  -177.148	    -4.298
   -56.452	   134.380	   -12.283
   -63.119	   150.388	   -12.207
   -69.962	   147.592	     3.057
   -69.352	   153.846	    -0.526
   -69.192	   172.217	    -3.540
   -63.825	   158.137	     6.520
   -61.428	   147.616	     2.808
   -63.905	   157.943	    -6.775
   -75.996	   148.410	     2.564
   -63.077	   151.124	    -2.276
   -57.973	   157.525	    -0.300
   -70.331	   151.171	    -3.769
   -64.980	   144.519	     7.028
   -56.989	   153.973	    -5.090
   -72.937	   165.702	    -3.740
   -79.370	   179.641	   -12.301
   -72.993	   143.360	    12.474
   -71.716	   173.455	   -20.264
   -85.376	   148.686	    -9.911
   -58.844	   146.602	    -0.225
   -53.943	   149.931	    -5.650
   -74.204	   155.190	     2.598
   -65.698	   162.085	     5.512
   -59.916	   160.603	    -2.595
   -56.022	   148.777	     2.300
   -53.112	   165.832	   -13.616
   -52.383	   147.544	    -6.109
   -66.553	   165.209	    -4.362
   -53.435	   164.864	    -5.106
   -53.010	   141.277	    -8.460
   -67.877	   139.381	   -14.183
   -61.782	   144.658	   -10.733
   -60.515	   156.798	     0.071
   -53.058	   148.563	   -13.964
   -56.589	   164.889	   -10.201
   -64.879	   154.790	    -1.175
   -62.256	   142.743	    16.353
   -76.041	   145.227	   -12.572
   -64.987	   149.788	     0.538
   -78.758	   154.246	    -1.613
   -69.250	   155.916	    11.422
   -67.399	   144.540	     6.138
   -59.909	   178.284	    -0.629
   -54.511	   155.856	     6.325
   -61.033	   142.162	     0.389
   -54.611	   151.334	    10.964
   -53.751	   158.485	   -15.330
   -67.465	   153.252	    -6.403
   -62.015	   166.853	    -4.910
   -67.113	   150.614	    -0.892
   -59.732	   150.963	    -7.736
   -62.639	   154.132	    21.949
   -67.865	   155.216	   -16.561
   -61.022	   158.540	    -5.971
   -52.498	   147.597	    -4.282
   -68.101	   146.249	     8.800
   -60.697	   150.442	    16.190
   -77.836	   156.207	     9.267
   -62.756	   156.208	     6.076
   -65.090	   145.926	     6.428
   -47.872	   153.577	   -15.251
   -58.192	   152.564	    -4.995
   -49.396	   143.079	    -7.079
   -64.951	   162.344	     2.217
   -59.342	   148.269	    11.827
   -53.829	   144.601	    -0.315
   -64.725	   169.605	    -0.700
   -67.092	   155.302	     7.579
   -59.091	   165.944	   -22.053
   -67.219	   157.556	    15.005
   -72.985	   154.700	    -0.258
   -61.203	   156.940	   -21.388
   -64.752	   162.455	    -5.002
   -65.751	   165.708	    -6.220
   -71.470	   139.567	     5.046
   -61.381	   146.469	     9.084
   -53.212	   150.827	     4.484
   -75.437	   149.772	    14.021
   -57.661	   135.577	     6.275
   -70.071	   154.140	     9.271
   -59.600	   134.122	    22.381
   -65.140	   144.263	     4.165
   -55.371	   144.048	   -18.372
   -59.753	   133.381	    -8.718
   -56.759	   158.998	     4.843
   -46.035	   146.027	   -12.440
   -65.018	   169.379	    -7.989
   -68.078	   163.006	    -6.898
   -63.118	   150.129	     6.797
   -59.416	   146.828	   -22.671
   -71.028	   151.315	    17.099
   -51.597	   142.110	     0.432
   -59.756	   157.679	     2.880
   -66.255	   167.134	    10.021
   -69.685	   163.598	     2.851
   -51.963	   163.502	    -3.030
   -62.520	   157.091	     5.112
   -64.880	   151.218	     3.156
   -66.652	   150.491	   -29.902
   -64.423	   144.198	    -6.904
   -70.750	   143.432	    13.231
   -61.593	   141.547	    -6.266
   -67.977	   145.956	     0.785
   -59.623	   145.278	   -25.928
   -66.024	   139.847	    -5.720
   -79.046	   161.995	     8.807
   -57.941	   138.329	   -12.274
   -71.600	   153.245	   -10.185
   -69.769	   150.844	    -0.580
   -44.072	   147.976	   -15.249
   -72.959	   157.695	    12.792
   -49.995	   149.590	     5.664
   -56.247	   152.468	     5.126
   -48.416	   139.569	     9.221
   -43.505	   150.503	    -7.376
   -62.857	   159.515	    -9.425
   -61.678	   161.607	     2.353
   -50.802	   156.199	    -2.676
   -57.871	   144.951	    -3.841
   -58.756	   155.583	     2.164
   -73.611	   162.765	    -3.817
   -47.850	   131.392	    -7.981
   -57.937	   133.412	   -10.372
   -63.279	   142.625	    -4.772
   -65.648	   151.494	    -7.924
   -61.631	   152.812	     8.704
   -72.268	   165.733	     0.487
   -68.669	   140.468	    -6.185
   -48.098	   159.084	    -5.692
   -77.947	   160.881	    -3.595
   -72.176	   164.239	    -7.740
   -63.477	   165.785	    -8.230
   -58.187	   161.338	   -18.045
   -61.988	   142.719	    -7.344
   -84.608	   152.682	    -9.786
   -65.841	   160.964	   -16.069
   -61.629	   165.424	   -17.654
   -61.084	   154.318	     0.423
   -62.466	   166.438	   -15.114
   -70.730	   167.291	     9.158
   -59.389	   149.811	     6.506
   -71.227	   134.528	     1.005
   -84.315	   157.805	     4.487
   -73.595	   156.216	    -8.144
   -63.058	   157.336	     2.764
   -75.771	   165.014	    -0.755
   -55.909	   147.488	   -25.923
   -69.192	   155.968	     5.568
   -57.540	   147.720	    10.747
   -76.461	   157.726	     0.200
   -51.214	   155.133	   -18.122
   -72.141	   156.372	   -12.586
   -79.936	   155.371	    11.284
   -59.548	   152.316	    -2.310
   -78.449	   147.361	    -4.892
   -65.362	   131.160	    -3.410
   -59.970	   143.093	   -25.112
   -71.454	   147.516	    12.542
   -58.071	   160.395	    -8.912
   -61.502	   155.839	     9.181
   -44.457	   168.938	   -11.379
   -59.774	   169.797	     7.070
   -60.769	   147.504	   -14.650
   -61.914	   153.313	    19.137
   -64.082	   155.615	   -13.079
   -62.244	   151.189	    -9.942
   -58.529	   153.607	   -12.390
   -56.473	   156.603	     2.955
   -77.927	   156.651	    -2.427
   -55.689	   132.789	   -17.404
   -59.659	   160.977	   -11.856
   -58.246	   143.485	     4.826
   -64.209	   149.815	     5.820
   -64.168	   162.903	     0.112
   -68.720	   156.330	    -1.855
   -62.148	   153.918	    -9.985
   -65.493	   153.282	   -15.716
   -61.674	   146.615	     1.444
   -64.098	   160.511	    -7.750
   -39.310	   159.498	   -22.271
   -52.519	   154.660	    -4.835
   -84.797	   153.938	   -18.787
   -51.312	   148.867	     3.088
   -69.213	   151.252	    -1.533
   -65.776	   150.124	    -0.392
   -58.173	   138.398	     8.938
   -58.163	   155.982	    -4.402
   -64.408	   150.959	    -6.122
   -58.952	   153.114	   -15.045
   -59.543	   150.875	    -0.489
   -54.115	   151.907	    -9.633
   -69.930	   155.058	   -12.237
   -64.443	   135.032	   -10.631
   -73.144	   161.687	     9.830
   -60.005	   155.225	    -6.507
   -66.019	   155.505	    -1.208
   -56.034	   139.317	    -0.112
   -63.890	   134.680	    -9.101
   -70.843	   140.501	     8.877
   -63.653	   156.191	     1.826
   -63.241	   151.052	     7.477
   -50.044	   144.055	   -11.952
   -62.994	   154.313	     5.493
   -54.361	   156.666	     7.870
   -53.202	   136.528	    19.738
   -65.126	   136.396	   -14.207
   -53.626	   164.004	     1.616
   -61.501	   169.032	    14.922
   -61.904	   172.124	    -1.246
   -74.291	   144.671	    24.020
   -54.224	   156.762	   -21.756
   -55.360	   167.311	    -0.871
   -51.708	   149.179	     0.112
   -54.024	   153.493	   -13.482
   -73.795	   160.155	    -1.521
   -79.999	   157.791	     1.387
   -63.178	   143.254	   -16.037
   -61.290	   134.115	    -1.603
   -61.990	   142.376	    -7.176
   -52.782	   144.357	   -16.787
   -82.280	   156.553	    14.116
   -61.137	   172.592	   -34.392
   -78.535	   163.106	    -4.240
   -59.448	   155.003	   -14.500
   -57.000	   156.867	    -4.343
   -77.465	   162.372	    10.709
   -68.328	   155.482	     0.754
   -68.741	   142.256	    -6.689
   -76.891	   162.389	     3.958
   -67.717	   152.255	     9.133
   -66.675	   161.549	   -12.533
   -66.429	   173.625	   -11.695
   -49.651	   155.344	    -6.059
   -63.508	   164.409	    -7.501
   -47.826	   136.266	   -11.517
   -45.137	   154.493	    -8.137
   -69.505	   146.197	     7.743
   -64.418	   160.255	    13.949
   -69.664	   156.254	     8.430
   -52.852	   160.211	    -3.430
   -74.581	   162.171	    -3.045
   -62.439	   161.702	   -14.967
   -71.818	   154.912	    -8.223
   -55.251	   163.865	   -20.412
   -77.064	   172.793	   -17.457
   -58.341	   161.527	    -4.419
   -66.248	   167.502	     3.546
   -60.291	   153.172	    -9.596
   -63.370	   171.118	    -9.472
   -50.271	   153.737	   -44.159
   -69.178	   149.062	   -15.334
   -73.624	   162.046	   -23.748
   -54.946	   168.494	   -11.808
   -55.433	   157.565	    -4.050
   -54.151	   149.112	     8.274
   -66.165	   164.474	    -6.803
   -69.844	   156.402	    -7.806
   -58.660	   162.725	    -7.168
   -68.264	   146.424	    -9.052
   -83.531	   144.789	     3.152
   -50.975	   161.116	    -2.434
   -59.954	   169.658	    12.499
   -65.296	   168.856	   -12.947
   -71.092	   164.123	    -1.381
   -60.694	   164.099	     3.855
   -46.550	   162.772	   -16.277
   -61.664	   139.644	   -11.073
   -54.015	   163.031	    -7.045
   -62.888	   146.454	    -7.861
   -62.158	   153.400	   -11.773
   -71.567	   169.140	     1.556
   -60.058	   164.733	   -23.236
   -59.219	   132.111	    -6.169
   -69.055	   156.875	    10.752
   -71.596	   167.599	   -14.886
   -59.166	   164.306	   -11.367
   -77.671	   155.389	   -14.845
   -52.319	   156.940	     2.246
   -55.410	   161.044	    14.955
   -58.091	   156.530	    12.504
   -69.680	   158.355	     5.934
   -67.652	   157.765	    -4.710
   -51.130	   147.186	   -22.943
   -49.062	   154.894	    -6.682
   -62.273	   151.043	     3.375
   -69.613	   152.492	    19.059
   -70.515	   143.638	    -0.627
   -64.603	   148.513	    -3.099
   -68.405	   164.168	   -13.037
   -71.224	   153.023	    18.644
   -64.052	   168.939	     0.148
   -61.675	   148.930	     7.463
   -62.130	   159.676	     1.205
   -64.032	   155.144	    -9.787
   -62.580	   142.005	   -20.565
   -71.219	   156.761	    -4.474
   -83.014	   172.734	     5.724
   -56.829	   159.223	    -9.591
   -68.448	   160.443	   -13.531
   -73.194	   137.297	    -0.936
   -56.233	   147.451	   -18.746
   -67.122	   151.736	     7.325
   -80.205	   177.308	     6.028
   -84.730	   171.069	    -1.414
   -70.370	   149.470	    -7.539
   -57.214	   153.534	   -16.401
   -65.114	   147.962	    -9.823
   -77.141	   148.225	   -10.065
   -60.852	   151.456	    -9.338
   -76.779	   149.043	   -19.699
   -73.609	   162.009	   -13.449
   -46.962	   155.822	    -8.273
   -42.016	   149.110	    -5.598
   -54.671	   154.948	     5.489
   -75.976	   170.044	    -4.005
   -66.862	   157.462	     0.338
   -52.420	   153.839	   -15.055
   -74.614	   166.481	     5.935
   -73.240	   152.904	    -0.460
   -78.133	   161.489	    10.327
   -58.566	   151.695	   -26.291
   -73.781	   149.867	   -14.809
   -77.051	   175.529	     1.613
   -59.934	   165.400	    -1.231
   -75.606	   147.102	     4.918
   -65.845	   163.322	    11.576
   -58.961	   147.432	    -1.259
   -74.926	   154.087	    15.142
   -59.599	   160.370	   -13.837
   -69.482	   167.883	   -12.379
   -58.984	   159.744	   -14.584
   -48.734	   157.505	   -18.603
   -65.277	   153.282	    -4.020
   -48.625	   157.751	   -11.080
   -49.561	   151.306	    -6.313
   -73.347	   150.802	    -7.263
   -53.302	   170.275	    -7.779
   -63.308	   146.882	    -0.633
   -74.104	   167.031	   -10.036
   -62.873	   162.698	    -4.974
   -56.382	   162.972	     3.410
   -63.302	   147.589	     4.386
   -60.349	   149.913	    18.373
   -71.182	   167.926	     1.516
   -76.163	   162.101	   -14.067
   -77.232	   155.852	    -5.361
   -58.202	   154.741	     9.546
   -58.186	   158.443	    -1.806
   -55.498	   161.804	    -9.179
   -57.852	   148.376	    -2.143
   -57.333	   153.572	     0.834
   -68.056	   169.062	     1.391
   -56.155	   134.239	     2.972
   -68.864	   146.999	    -6.623
   -62.012	   130.971	    18.879
   -55.490	   140.792	    15.499
   -60.858	   154.771	     0.900
   -67.556	   152.418	   -10.200
   -59.549	   147.906	    -8.263
   -57.538	   159.456	    -7.654
   -54.897	   159.110	   -19.229
   -52.508	   152.335	   -30.433
   -62.808	   149.311	   -24.934
   -59.409	   141.321	    -0.108
   -64.537	   171.016	     4.453
   -42.038	   157.215	     5.875
   -68.141	   155.170	   -10.754
   -57.954	   159.199	     2.750
   -37.837	   154.903	   -34.274
   -72.410	   153.999	    -0.837
   -77.782	   162.584	     7.128
   -69.918	   145.885	     9.344
   -56.576	   162.721	   -16.258
   -53.003	   151.084	   -23.500
   -68.763	   159.392	    -0.578
   -61.509	   149.770	    -5.092
   -59.945	   153.624	   -28.549
   -50.420	   155.247	    -7.703
   -47.582	   173.640	     4.589
   -75.691	   167.796	     5.695
   -67.542	   133.651	    -8.693
   -64.260	   162.624	    24.682
   -70.186	   162.345	   -14.422
   -77.971	   162.747	    20.304
   -60.498	   149.714	    -9.075
   -76.640	   163.621	     6.041
   -57.840	   161.063	    -9.878
   -79.853	   171.734	   -23.782
   -69.245	   179.117	    10.532
   -57.373	   159.505	    -8.490
   -48.798	   146.899	    -5.155
   -60.971	   155.927	   -12.676
   -55.111	   142.170	    -2.083
   -48.150	   150.051	   -11.670
   -61.115	   168.454	    -0.466
   -61.228	   154.636	    -2.230
   -73.373	   150.138	    -4.606
   -80.995	   168.489	     1.207
   -63.631	   153.665	     9.673
   -61.669	   158.098	   -17.241
   -66.912	   149.752	   -16.804
   -62.065	   138.596	    -1.402
   -64.258	   159.532	    -0.268
   -79.887	   162.162	    -3.169
   -72.082	   158.273	    -6.858
   -77.289	   165.802	    -3.222
   -67.032	   142.723	     2.678
   -76.306	   138.494	    15.974
   -62.826	   173.056	   -22.056
   -77.170	   161.618	    -0.498
   -58.584	   137.798	    -8.663
   -81.457	   156.414	     9.639
   -63.011	   147.765	     7.814
   -85.506	   163.666	     7.226
   -68.892	   168.039	    -3.168
   -63.611	   163.314	    -3.374
   -69.743	   150.139	     4.764
   -60.728	   159.961	     0.438
   -51.211	   154.431	   -20.539
   -61.860	   147.884	    -1.722
   -53.167	   135.831	     3.806
   -58.947	   157.269	    -3.385
   -57.204	   164.452	   -12.051
   -60.733	   155.676	    -2.983
   -80.374	   151.780	   -13.794
   -50.303	   163.611	     1.944
   -66.674	   157.739	     7.411
   -81.071	   162.648	   -16.974
   -61.819	   149.753	   -30.495
   -45.990	   135.741	     9.306
   -60.708	   144.848	    -3.918
   -58.274	   157.838	    -2.243
   -63.748	   152.284	    13.199
   -59.221	   151.010	   -14.114
   -57.952	   161.065	     6.849
   -73.321	   145.798	     4.640
   -62.587	   162.515	     9.138
   -83.016	   155.281	    10.675
   -74.530	   144.242	    10.561
   -66.240	   140.294	     1.437
   -53.694	   154.726	    11.565
   -48.243	   165.500	   -19.007
   -47.631	   161.638	   -12.172
   -49.682	   151.951	    -8.098
   -60.838	   157.823	   -10.082
   -57.940	   158.192	   -15.905
   -61.362	   140.481	    16.604
   -70.954	   154.087	   -15.081
   -67.427	   154.714	     1.099
   -68.046	   133.747	    -9.533
   -56.338	   157.214	     0.889
   -53.605	   160.471	     0.160
   -64.528	   156.712	   -21.371
   -70.000	   153.238	   -14.612
   -50.640	   168.486	    10.376
   -46.957	   152.541	     0.244
   -57.098	   155.433	    -9.756
   -54.972	   151.834	    -3.187
   -63.690	   153.378	    -0.137
   -62.363	   168.906	     7.580
   -70.904	   152.501	    -8.507
   -73.657	   153.263	    19.172
   -62.375	   177.638	    -2.809
   -51.066	   161.213	   -16.814
   -68.862	   153.979	     7.454
   -68.493	   149.441	    26.820
   -79.126	   142.439	    -9.092
   -56.456	   150.874	     1.797
   -60.524	   146.797	     0.258
   -57.514	   162.217	     0.487
   -57.813	   154.894	     1.777
   -59.892	   158.586	     7.693
   -66.272	   155.423	    20.760
   -70.743	   162.714	    16.307
   -56.708	   152.322	     5.220
   -72.295	   149.498	     5.142
   -63.128	   158.010	    13.926
   -37.869	   142.494	   -14.729
   -58.849	   135.244	     4.186
   -63.444	   160.208	   -16.297
   -63.539	   152.697	    -1.831
   -62.190	   157.082	     9.732
   -51.862	   150.876	    -9.205
   -59.093	   153.062	    -4.849
   -56.709	   164.150	   -22.429
   -58.333	   151.004	   -17.728
   -73.291	   163.274	   -18.768
   -65.594	   142.673	   -12.861
   -65.747	   177.669	    -3.122
   -65.020	   152.600	   -15.202
   -54.892	   153.657	     4.207
