   -92.310	   122.143	    -3.179
   -64.211	   140.786	   -14.176
   -59.488	   124.510	   -21.100
   -58.168	   145.484	     0.565
   -54.510	   131.233	     4.288
   -61.001	   121.914	    -1.523
   -54.491	   155.294	   -20.262
   -68.653	   144.327	    24.813
   -69.386	   139.609	    -3.650
   -72.843	   138.374	   -11.421
   -70.706	   148.182	   -15.283
   -54.520	   138.433	    -3.538
   -53.154	   143.482	   -17.049
   -73.906	   135.498	     7.616
   -61.115	   126.796	    -2.284
   -68.502	   140.424	    -1.334
   -54.088	   132.834	   -13.570
   -68.068	   135.124	    -7.177
   -57.370	   126.770	   -10.116
   -57.021	   139.152	    -8.150
   -76.845	   147.650	    12.542
   -52.815	   135.231	     7.497
   -66.208	   135.120	     1.858
   -66.120	   138.413	    10.732
   -62.652	   134.905	     6.931
   -75.767	   132.693	   -11.978
   -50.793	   129.569	    -3.422
   -62.790	   142.515	    -1.985
   -55.460	   145.504	    -9.012
   -59.188	   135.234	     2.316
   -62.106	   134.657	     5.806
   -57.846	   137.540	    -1.942
   -59.395	   142.677	     3.875
   -70.093	   129.554	    19.609
   -54.758	   129.295	     4.068
   -61.980	   142.919	    -1.463
   -59.166	   138.531	    -3.727
   -70.915	   118.608	     6.044
   -54.133	   148.401	    -4.187
   -68.326	   141.436	    -0.074
   -65.148	   145.002	     2.844
   -70.186	   137.603	    -2.098
   -54.573	   140.851	    -3.098
   -62.230	   128.444	   -12.220
   -57.280	   141.852	    13.575
   -62.983	   133.076	     3.266
   -55.598	   131.933	    -5.530
   -52.571	   131.254	    -2.455
   -66.912	   132.980	   -17.343
   -69.362	   125.351	   -13.560
   -50.542	   127.137	    -3.577
   -34.429	   134.454	    -9.547
   -58.972	   136.282	    -0.362
   -52.607	   133.850	     7.125
   -67.500	   138.423	     2.984
   -47.545	   139.887	   -11.112
   -65.355	   139.823	     6.017
   -41.791	   138.210	     1.183
   -35.273	   129.969	     9.203
   -62.762	   140.961	     9.872
   -62.221	   136.308	    10.398
   -59.673	   132.847	     8.316
   -61.653	   127.156	     8.073
   -79.273	   144.495	    11.735
   -58.200	   136.598	    -7.199
   -67.434	   143.632	   -14.400
   -53.524	   142.482	     2.391
   -72.560	   141.070	    -6.335
   -51.879	   139.678	     4.750
   -47.455	   134.748	     0.168
   -56.325	   150.988	    -9.837
   -58.970	   134.796	    -3.902
   -51.651	   156.405	    -4.651
   -54.847	   147.266	     6.709
   -52.338	   148.377	    -0.742
   -71.372	   144.214	     3.202
   -70.378	   130.417	     5.809
   -84.615	   137.881	     9.090
   -55.905	   146.467	   -13.699
   -60.036	   133.072	   -24.205
   -48.353	   122.116	    -5.042
   -76.256	   142.865	   -20.454
   -77.897	   119.479	    -2.257
   -67.429	   138.182	   -21.399
   -48.661	   142.272	   -17.149
   -65.251	   146.733	    14.450
   -68.838	   148.497	    -4.651
   -64.602	   134.486	     4.167
   -57.488	   141.674	   -31.127
   -63.316	   132.962	    -1.486
   -57.488	   136.758	   -12.076
   -55.391	   149.530	     5.855
   -64.424	   128.114	    10.552
   -57.806	   149.592	    -6.744
   -64.932	   121.155	    -9.943
   -51.538	   127.628	     4.412
   -61.784	   147.593	   -14.352
   -71.260	   142.825	     3.434
   -64.064	   124.591	     2.314
   -54.392	   110.171	    -4.140
   -60.880	   120.183	    -3.375
   -61.632	   134.976	    -0.526
   -71.622	   127.446	    -6.754
   -47.797	   148.364	    -4.172
   -73.384	   141.851	    -4.513
   -61.496	   145.205	    -8.330
   -62.289	   128.349	    -6.899
   -58.340	   133.569	    -1.627
   -48.247	   137.000	   -20.106
   -64.803	   109.928	     1.440
   -76.528	   150.557	    -2.823
   -66.330	   139.936	    20.535
   -39.455	   133.144	   -12.379
   -62.759	   129.578	     9.324
   -57.396	   136.617	    -5.667
   -53.259	   133.862	    -4.624
   -62.884	   123.974	   -15.716
   -51.325	   131.355	   -11.158
   -45.646	   139.991	    -1.516
   -59.230	   145.579	    -0.260
   -69.632	   128.426	    11.003
   -58.859	   134.624	    -8.189
   -59.365	   138.487	     9.045
   -43.099	   130.939	    -3.090
   -59.554	   153.031	   -10.463
   -53.352	   129.856	    -6.544
   -61.583	   125.770	    -3.182
   -71.139	   136.338	    -7.341
   -43.831	   134.322	   -17.361
   -52.460	   141.428	    10.109
   -64.502	   145.133	     1.270
   -44.849	   132.462	   -11.459
   -52.032	   142.647	     6.278
   -69.510	   140.942	     8.205
   -61.150	   134.146	     5.779
   -60.085	   159.669	    -0.165
   -67.213	   161.110	     1.347
   -52.961	   130.822	    -5.999
   -69.648	   147.249	    16.048
   -57.422	   127.428	     0.725
   -45.850	   127.407	     8.965
   -57.826	   134.659	    -2.981
   -78.052	   161.935	     4.177
   -71.090	   152.244	    -2.789
   -55.989	   126.255	    -1.824
   -54.039	   129.241	    -7.895
   -67.017	   128.981	    18.899
   -55.093	   129.373	    -7.854
   -54.539	   139.304	    -5.681
   -51.586	   132.587	   -10.638
   -77.618	   137.396	    -1.604
   -84.031	   142.819	     4.841
   -58.386	   138.361	     1.836
   -65.480	   131.851	   -11.807
   -63.398	   112.352	   -10.443
   -57.347	   131.451	     0.462
   -60.076	   140.629	     6.991
   -64.784	   132.722	    -8.327
   -79.081	   127.742	    19.411
   -68.399	   147.027	     0.358
   -66.717	   146.834	   -10.343
   -60.356	   146.616	   -15.218
   -66.548	   138.452	   -15.893
   -62.440	   143.446	    -3.194
   -50.412	   118.941	   -28.813
   -70.951	   148.756	     6.707
   -64.890	   142.635	    -8.220
   -70.901	   128.354	    -5.605
   -57.924	   140.351	    -6.372
   -50.398	   138.536	   -10.239
   -67.896	   122.944	     2.111
   -61.208	   124.136	     0.006
   -59.528	   119.624	    -3.906
   -54.373	   132.673	    -2.222
   -72.340	   133.908	    -0.974
   -59.535	   126.660	    -8.724
   -55.163	   133.833	    -6.346
   -53.024	   130.856	    -0.481
   -59.560	   134.485	   -12.487
   -60.376	   138.286	    -5.013
   -60.316	   148.553	     5.892
   -67.664	   147.426	    -3.543
   -72.352	   159.527	    -9.553
   -66.068	   136.889	    13.156
   -50.930	   119.140	    -4.735
   -60.002	   135.635	    -3.608
   -57.991	   128.154	    -5.289
   -70.229	   124.624	     4.245
   -50.771	   139.423	    -2.990
   -52.230	   151.140	     1.567
   -72.720	   118.987	    -1.261
   -49.436	   130.379	    -8.599
   -63.728	   130.105	    -8.133
   -55.465	   137.480	    13.674
   -56.299	   144.730	    -9.189
   -61.897	   134.567	    14.391
   -53.896	   123.693	    -5.046
   -55.322	   148.288	    -9.124
   -63.603	   147.746	    -8.111
   -73.963	   164.086	    -9.140
   -63.010	   144.828	   -16.567
   -58.157	   144.392	   -11.931
   -62.963	   131.536	   -14.041
   -77.246	   121.736	     3.078
   -64.796	   129.062	     2.394
   -67.183	   146.484	     0.570
   -56.386	   127.233	    -9.758
   -64.000	   137.393	   -13.944
   -67.446	   117.834	     6.194
   -54.922	   128.045	   -12.044
   -63.086	   133.680	    12.675
   -66.991	   141.143	    11.784
   -64.851	   127.050	    -4.426
   -57.845	   133.895	     7.022
   -57.132	   131.815	    -2.307
   -49.068	   142.260	    -4.431
   -59.257	   150.059	     2.288
   -42.508	   133.089	    -9.873
   -74.473	   143.461	    -0.821
   -57.149	   136.682	     2.456
   -56.202	   136.765	    -1.036
   -58.311	   129.894	    -4.881
   -39.080	   122.782	    16.098
   -51.923	   153.767	     1.868
   -43.176	   119.709	   -20.402
   -64.865	   127.862	     3.344
   -48.260	   122.912	     7.751
   -64.046	   142.391	    -2.148
   -50.736	   137.669	     3.631
   -49.087	   136.809	    -4.928
   -64.656	   143.002	    -1.762
   -64.255	   154.781	   -10.515
   -55.798	   157.317	    21.922
   -63.654	   152.085	    -5.113
   -46.104	   130.175	   -10.120
   -58.547	   129.637	    11.459
   -52.917	   124.654	     4.243
   -61.272	   142.327	    -0.204
   -49.373	   136.083	    -9.983
   -60.868	   137.069	    -5.199
   -55.014	   141.518	   -17.786
   -65.736	   137.602	    -1.859
   -44.644	   124.498	     7.287
   -57.374	   119.852	     5.879
   -48.981	   123.487	   -11.259
   -78.744	   150.778	     3.747
   -57.828	   146.967	    -3.003
   -66.949	   126.961	    24.645
   -57.089	   141.519	    -5.217
   -63.681	   131.513	    -2.325
   -59.665	   139.006	    -2.306
   -62.492	   155.773	    15.348
   -69.598	   144.200	   -11.833
   -70.929	   121.472	     5.912
   -76.473	   139.971	    -3.608
   -63.931	   124.308	   -11.937
   -67.252	   155.503	    -3.564
   -61.103	   148.273	     3.243
   -59.219	   135.981	     1.018
   -58.721	   148.365	    21.705
   -48.274	   136.631	    -6.511
   -55.617	   119.779	     8.158
   -42.752	   115.507	   -10.851
   -66.716	   145.891	    -3.220
   -71.159	   132.128	    -3.167
   -70.525	   135.714	     0.047
   -65.997	   154.339	    -0.965
   -43.740	   136.428	    -6.119
   -59.776	   140.537	     1.335
   -59.872	   149.218	     9.896
   -62.536	   139.581	    -9.811
   -67.447	   128.756	   -10.351
   -59.039	   142.834	   -14.571
   -43.567	   139.797	    -5.508
   -65.446	   127.644	   -17.234
   -74.467	   124.904	    22.471
   -53.174	   144.950	   -23.053
   -81.614	   144.837	    -8.047
   -47.467	   135.689	     1.020
   -61.366	   131.007	   -16.937
   -66.598	   147.429	    -1.926
   -53.230	   133.951	   -14.716
   -43.416	   140.956	     2.223
   -48.718	   145.622	   -11.822
   -64.660	   151.494	     5.319
   -62.943	   148.046	     3.206
   -69.612	   133.634	    -9.777
   -65.474	   134.384	    -0.802
   -70.626	   143.807	    -4.740
   -64.696	   134.094	    -4.934
   -51.874	   148.139	   -11.593
   -67.161	   141.894	   -11.302
   -65.618	   137.942	    -4.568
   -66.645	   145.282	   -16.373
   -60.704	   129.979	     0.091
   -51.480	   136.819	     4.161
   -54.125	   144.922	    -7.240
   -54.704	   143.532	    -0.484
   -50.008	   154.980	   -12.568
   -55.463	   115.486	    -0.340
   -49.900	   126.885	    -0.885
   -60.171	   147.780	    -5.295
   -71.631	   152.381	    11.805
   -35.068	   130.074	    -4.254
   -54.967	   122.887	     3.588
   -82.783	   133.220	     6.418
   -74.216	   142.547	     1.602
   -61.423	   154.369	   -11.864
   -53.186	   137.138	     0.410
   -54.352	   141.599	    17.891
   -56.631	   125.157	   -19.298
   -64.122	   137.874	   -39.495
   -61.036	   141.088	   -19.193
   -62.697	   132.601	    -9.571
   -81.473	   144.250	   -10.570
   -48.789	   139.605	   -11.093
   -54.402	   140.220	     0.574
   -54.691	   143.138	    -0.859
   -66.000	   136.327	     7.486
   -54.799	   130.787	   -13.391
   -70.017	   140.220	    -8.933
   -66.498	   139.474	    -2.004
   -52.584	   121.458	    12.832
   -42.908	   145.138	     2.111
   -69.810	   154.108	     1.081
   -53.126	   141.193	     3.483
   -61.657	   132.516	     8.143
   -63.268	   128.879	     7.902
   -52.968	   125.253	    -8.327
   -58.206	   144.724	    -5.115
   -57.063	   135.565	    -2.229
   -60.226	   138.983	    -8.716
   -51.574	   131.917	   -12.775
   -59.192	   135.421	   -24.741
   -53.818	   142.047	   -20.574
   -64.288	   129.595	   -15.729
   -76.725	   130.113	     9.780
   -61.877	   144.940	    13.994
   -58.545	   136.547	    -1.402
   -69.756	   142.721	     5.776
   -46.760	   134.246	    -3.216
   -53.423	   151.991	    -1.730
   -73.489	   153.750	    -2.298
   -63.166	   143.445	    -8.620
   -60.536	   134.236	    -6.738
   -50.358	   135.486	   -18.438
   -66.082	   154.609	   -10.116
   -72.706	   152.422	   -12.455
   -57.577	   130.460	   -15.019
   -62.971	   140.260	     4.464
   -57.353	   138.712	   -13.638
   -65.471	   133.287	   -16.815
   -52.550	   134.896	   -11.670
   -56.279	   137.239	    -2.028
   -46.026	   137.227	    -3.103
   -66.837	   138.185	     9.745
   -71.597	   126.712	     0.415
   -55.512	   124.047	   -13.677
   -51.825	   138.449	     9.015
   -48.381	   148.212	    -3.609
   -58.395	   124.623	     0.866
   -49.011	   134.790	   -20.443
   -69.254	   140.421	     8.670
   -68.730	   142.090	    -3.116
   -60.160	   153.163	   -23.679
   -59.659	   131.993	    -5.052
   -70.376	   129.079	    20.280
   -58.862	   127.686	    -3.381
   -75.568	   144.816	    -8.565
   -74.603	   135.964	    -2.418
   -86.717	   148.800	    -8.785
   -52.859	   137.320	   -14.919
   -66.470	   129.268	   -14.259
   -48.931	   141.946	   -10.212
   -63.066	   141.486	   -20.741
   -53.165	   126.835	    -5.188
   -58.560	   150.684	   -11.383
   -57.294	   145.018	    -1.294
   -64.595	   111.108	   -13.086
   -76.435	   150.299	     6.614
   -63.633	   158.788	     1.234
   -61.275	   165.483	     7.285
   -68.342	   166.875	     5.313
   -56.142	   158.818	    -7.151
   -55.152	   130.468	   -12.756
   -66.558	   135.399	    10.809
   -56.281	   124.914	     0.661
   -78.249	   132.719	    16.652
   -61.074	   135.330	   -19.866
   -77.458	   145.526	    -0.596
   -71.944	   117.938	    -3.944
   -73.088	   133.911	   -13.541
   -62.723	   123.463	   -19.386
   -77.089	   146.020	    -3.070
   -70.043	   137.922	     7.330
   -48.536	   139.993	   -15.446
   -64.182	   123.905	     6.309
   -67.878	   144.669	   -14.903
   -54.761	   121.000	   -21.438
   -57.220	   140.408	    -8.324
   -68.888	   125.461	    -1.743
   -70.286	   147.744	    -8.142
   -54.932	   140.151	     1.727
   -38.089	   144.481	    -8.489
   -54.855	   147.651	     4.645
   -74.471	   153.670	    -3.657
   -66.783	   151.066	    -2.461
   -34.179	   139.347	    -6.991
   -43.988	   129.734	   -13.219
   -54.934	   135.236	    -4.002
   -64.633	   142.853	     6.110
   -67.207	   123.632	    -7.898
   -61.762	   126.305	    -3.541
   -70.811	   118.577	     9.580
   -67.595	   122.820	    22.845
   -53.029	   147.208	    -3.294
   -51.165	   142.819	    -0.322
   -73.870	   142.668	    14.049
   -66.372	   126.054	    12.610
   -66.300	   123.373	     5.929
   -55.045	   136.531	    -7.828
   -67.328	   138.704	    -2.116
   -68.449	   140.744	     7.784
   -58.730	   129.432	    -9.350
   -59.048	   147.202	    -5.476
   -52.596	   129.867	    -9.477
   -57.518	   134.087	     3.342
   -54.823	   143.190	   -12.775
   -64.870	   144.116	   -17.505
   -48.222	   148.028	   -19.721
   -48.345	   141.474	     5.946
   -62.423	   130.279	    12.081
   -60.398	   129.444	    10.426
   -37.901	   145.821	    -4.989
   -64.646	   135.446	    -7.544
   -66.824	   141.605	    -6.202
   -52.080	   113.730	    -4.486
   -77.290	   142.380	   -13.357
   -39.171	   119.306	   -16.864
   -69.350	   150.263	    -7.833
   -70.924	   144.208	    -4.645
   -78.036	   152.736	     8.526
   -66.648	   156.623	    12.868
   -56.811	   129.399	    -4.716
   -55.856	   121.725	     8.582
   -61.419	   138.413	    -6.532
   -54.167	   149.102	    -0.457
   -61.412	   125.380	     8.505
   -55.082	   137.126	    -8.085
   -75.866	   138.209	     5.571
   -55.423	   110.609	    19.242
   -58.979	   145.908	    11.323
   -75.254	   140.605	     1.921
   -45.937	   132.188	    -1.190
   -70.634	   146.178	   -10.694
   -57.374	   132.237	    -4.205
   -54.379	   121.120	   -10.156
   -62.538	   133.182	    -5.266
   -56.660	   122.285	     2.543
   -42.393	   130.645	     3.927
   -57.130	   134.817	     6.443
   -60.326	   119.707	    10.506
   -63.879	   138.521	    -2.851
   -56.472	   125.141	    -3.419
   -52.708	   138.721	    -3.811
   -69.078	   151.230	    -0.832
   -63.781	   132.316	    -0.005
   -52.558	   148.333	    -9.600
   -52.979	   133.429	   -12.109
   -61.603	   134.423	     4.269
   -53.522	   124.322	     3.352
   -68.584	   121.176	    14.095
   -58.207	   128.334	     9.971
   -66.370	   133.708	    -4.096
   -48.238	   132.033	     1.955
   -55.048	   140.851	   -21.246
   -65.600	   141.945	     4.259
   -57.149	   128.076	    -5.254
   -46.195	   129.702	    -6.058
   -86.541	   144.172	    39.948
   -60.143	   129.693	     1.075
   -67.582	   120.200	    -4.949
   -58.017	   121.810	    -0.295
   -59.518	   116.251	     3.294
   -61.415	   105.081	    -8.034
   -60.932	   118.224	    -5.008
   -52.305	   131.690	   -23.737
   -65.349	   134.218	     1.719
   -52.115	   142.745	    -1.255
   -63.736	   136.850	    -9.502
   -69.464	   134.690	    -0.518
   -66.518	   134.938	     9.236
   -63.718	   146.502	     4.919
   -61.601	   139.325	    17.528
   -48.390	   108.198	    12.185
   -57.853	   122.548	     5.490
   -71.108	   124.007	    -2.383
   -55.112	   128.570	    -7.906
   -71.443	   136.083	   -13.941
   -66.052	   137.089	    -0.719
   -54.347	   141.679	   -13.145
   -57.427	   130.268	     1.666
   -54.685	   119.721	    -2.623
   -77.091	   136.348	     6.974
   -55.364	   136.119	     0.681
   -67.815	   146.312	     0.603
   -57.948	   140.345	   -11.823
   -66.596	   140.628	     5.643
   -51.688	   119.940	     0.129
   -44.718	   140.316	     4.733
   -56.310	   157.688	     5.402
   -56.585	   149.717	     3.122
   -59.347	   147.899	    -4.332
   -47.381	   136.452	   -14.806
   -69.659	   108.932	   -10.273
   -66.576	   151.915	     6.087
   -53.176	   136.774	    13.643
   -57.763	   146.455	   -10.783
   -72.193	   142.730	     5.001
   -59.156	   140.468	     7.211
   -51.238	   134.928	    -2.563
   -56.203	   146.745	     5.070
   -55.352	   138.325	    -2.162
   -64.567	   137.565	    -2.513
   -64.653	   148.019	     8.288
   -56.989	   152.129	     0.514
   -50.856	   127.543	   -12.120
   -65.009	   137.787	     8.963
   -62.503	   134.566	     0.882
   -57.420	   138.468	    -0.761
   -68.452	   133.821	     1.502
   -49.122	   123.077	     6.936
   -44.729	   134.763	    19.367
   -52.049	   137.654	   -17.571
   -55.840	   128.629	   -12.589
   -58.986	   136.970	    12.295
   -54.739	   140.844	    -5.307
   -66.139	   122.131	     5.002
   -66.083	   141.477	    -8.054
   -58.118	   143.858	     7.898
   -56.553	   155.093	    -1.812
   -66.790	   147.257	    10.998
   -52.517	   131.659	    -1.056
   -67.054	   135.310	     1.098
   -53.181	   131.922	   -13.677
   -54.552	   149.342	     6.394
   -69.405	   156.780	    20.016
   -59.755	   147.887	   -12.717
   -60.541	   139.440	   -22.787
   -53.836	   138.403	     9.798
   -73.990	   131.655	     1.365
   -55.435	   130.814	    -3.865
   -57.309	   148.910	     4.109
   -47.521	   131.120	    -0.929
   -52.342	   128.620	    -9.367
   -61.995	   141.426	    -2.358
   -64.603	   158.204	     2.144
   -63.063	   157.802	   -27.736
   -55.530	   132.598	    -5.934
   -58.964	   134.915	    -1.339
   -57.360	   130.544	    -2.719
   -58.906	   131.071	   -10.263
   -46.278	   143.511	    -0.692
   -46.954	   135.974	    -7.555
   -62.571	   136.896	     7.392
   -37.502	   146.356	    -8.381
   -68.075	   131.112	     4.587
   -45.341	   129.684	    -1.041
   -47.999	   131.053	     2.258
   -73.011	   127.157	    -3.907
   -19.210	   119.662	   -13.611
   -59.403	   141.984	    -3.671
   -54.910	   136.242	     5.972
   -34.535	   150.922	    -0.047
   -47.764	   117.136	    -1.172
   -76.530	   146.544	     6.780
   -70.389	   144.951	    -8.825
   -63.993	   135.687	   -19.009
   -74.343	   143.967	    -4.659
   -59.776	   135.210	   -21.792
   -70.050	   131.158	     6.966
   -70.049	   146.925	     9.998
   -71.435	   139.264	     6.390
   -54.362	   139.097	    -1.500
   -56.428	   129.036	    -4.158
   -58.075	   145.053	     8.232
   -69.930	   137.622	   -18.122
   -58.664	   143.573	    -3.365
   -67.167	   155.223	     1.020
   -60.492	   137.134	   -21.669
   -55.466	   142.243	    -7.872
   -46.471	   141.217	   -12.407
   -70.317	   151.858	    -4.603
   -44.506	   134.958	   -24.496
   -64.626	   133.755	   -19.459
   -47.605	   146.246	   -16.862
   -52.033	   152.547	     6.748
   -58.392	   139.240	     9.055
   -49.083	   140.632	    -2.091
   -58.016	   141.228	     8.162
   -61.184	   142.645	    -2.225
   -62.343	   132.063	     7.788
   -67.974	   130.966	     9.136
   -56.500	   135.440	    -8.360
   -52.445	   148.158	    -8.189
   -63.350	   144.647	   -18.321
   -69.962	   151.562	    -6.516
   -65.538	   134.270	     7.754
   -63.044	   141.509	    -3.444
   -66.767	   154.843	    17.593
   -83.357	   135.100	     7.933
   -59.343	   134.361	    -6.053
   -66.720	   133.091	   -15.050
   -55.326	   136.732	    -9.827
   -60.899	   143.949	    -2.447
   -64.775	   131.627	    -0.821
   -61.738	   143.686	     5.522
   -45.061	   134.291	   -10.354
   -46.605	   139.806	    -6.382
   -69.426	   129.511	   -19.919
   -69.962	   148.796	    -9.840
   -49.886	   144.432	    -8.903
   -61.914	   126.407	   -15.232
   -75.322	   154.153	    -0.061
   -53.976	   112.221	   -13.427
   -70.594	   115.683	     5.207
   -66.790	   148.227	     6.473
   -64.239	   127.051	    15.439
   -67.260	   133.359	    -1.887
   -62.867	   130.172	    -3.354
   -54.249	   139.155	     0.278
   -59.621	   136.017	    -9.738
   -58.873	   137.762	    -5.988
   -55.626	   129.147	     4.808
   -51.605	   160.781	   -10.352
   -54.353	   152.707	    -1.654
   -65.232	   151.303	    -6.049
   -71.003	   155.809	    12.127
   -56.310	   137.668	     1.291
   -80.488	   138.873	   -10.134
   -70.670	   142.933	     3.986
   -54.950	   132.994	     2.304
   -70.192	   140.279	    -3.636
   -87.645	   132.506	     8.695
   -49.594	   138.374	     5.493
   -59.241	   131.745	    -8.391
   -54.818	   125.209	   -15.497
   -62.607	   134.833	   -16.639
   -59.385	   129.002	   -20.469
   -53.552	   142.932	    -6.331
   -61.180	   139.160	    -0.380
   -63.943	   141.753	    -4.481
   -84.653	   137.683	    -3.353
   -64.540	   125.103	    -9.627
   -73.411	   149.711	    -0.377
   -53.420	   128.857	     0.369
   -68.753	   130.248	     2.399
   -54.673	   153.976	    -3.556
   -61.717	   135.460	    -5.947
   -59.409	   130.500	     5.797
   -64.153	   123.951	    -2.261
   -42.902	   130.203	     8.539
   -71.736	   138.075	    -5.528
   -59.653	   129.372	    -3.775
   -53.380	   120.281	    -1.676
   -61.484	   148.887	    -3.487
   -52.197	   133.904	    10.548
   -62.214	   127.068	    -4.120
   -64.721	   152.270	    -4.087
   -48.347	   133.172	   -12.877
   -74.128	   134.172	     5.654
   -51.345	   141.300	   -24.788
   -60.927	   139.160	   -16.155
   -64.125	   132.744	    -8.375
   -52.850	   144.064	    -6.975
   -67.375	   134.089	     2.537
   -44.175	   126.561	    -4.409
   -59.674	   142.373	    -7.267
   -46.618	   135.949	    -2.635
   -52.997	   151.136	   -14.921
   -57.256	   148.809	     0.118
   -71.765	   147.396	     0.800
   -60.797	   151.535	    -3.831
   -57.399	   119.418	    -4.256
   -57.846	   136.681	    -8.445
   -61.640	   155.956	    -2.924
   -61.622	   126.525	     2.341
   -48.483	   146.663	   -18.959
   -54.550	   138.425	    20.467
   -53.325	   129.270	     2.798
   -60.186	   116.038	     3.546
   -70.812	   130.196	    25.726
   -63.168	   127.674	     3.494
   -65.655	   134.104	     9.007
   -70.833	   147.613	    -6.922
   -64.003	   123.701	    -8.417
   -63.228	   147.591	   -10.078
   -64.998	   123.054	    -9.547
   -72.413	   136.418	     0.699
   -50.223	   117.890	   -23.061
   -79.433	   137.703	    -1.186
   -55.685	   124.004	    -5.341
   -45.114	   127.273	     1.677
   -61.081	   121.763	     5.279
   -48.308	   131.533	    -2.840
   -56.387	   124.685	   -11.080
   -50.592	   120.461	    -3.769
   -69.650	   146.725	    -8.295
   -68.390	   141.846	    -1.200
   -59.852	   132.535	    11.239
   -41.214	   130.788	     1.540
   -72.984	   136.859	    16.713
   -58.714	   138.223	    -9.812
   -72.528	   141.844	     0.588
   -42.288	   118.590	   -11.164
   -50.245	   140.902	   -11.889
   -54.157	   150.464	    -9.774
   -58.255	   127.838	    -6.009
   -63.209	   126.372	    20.112
   -78.658	   141.124	     1.049
   -70.168	   123.120	    -3.075
   -82.277	   136.678	    -9.852
   -67.266	   136.431	   -15.243
   -73.455	   136.633	    -8.223
   -68.411	   136.511	   -27.403
   -76.169	   123.340	    -3.720
   -53.313	   152.658	    -4.958
   -62.960	   147.034	    -6.266
   -57.905	   139.989	    -2.543
   -61.412	   134.903	    -9.598
   -77.322	   154.709	    16.976
   -54.533	   136.602	    -1.680
   -54.720	   146.727	     0.434
   -87.836	   142.672	    10.622
   -64.481	   137.028	   -13.253
   -48.181	   145.913	   -18.707
   -48.895	   143.795	    -2.480
   -55.908	   148.204	     7.967
   -65.251	   162.456	     0.141
   -89.779	   137.623	    -9.080
   -65.518	   111.839	    -3.990
   -66.429	   150.531	   -11.825
   -65.215	   115.605	    16.101
   -70.970	   141.190	     3.218
   -61.940	   139.151	    -1.747
   -76.177	   150.347	     4.859
   -49.662	   144.001	    -8.786
   -59.090	   127.008	     4.217
   -59.047	   140.732	    -9.139
   -53.457	   131.194	   -12.106
   -62.216	   133.495	     9.684
   -54.662	   127.715	   -27.870
   -59.267	   150.579	   -19.720
   -54.133	   134.702	   -25.373
   -63.185	   132.832	     1.659
   -66.260	   135.367	     8.071
   -52.407	   138.345	    11.001
   -71.469	   134.994	    12.959
   -56.743	   125.959	   -11.159
   -65.407	   144.283	    -9.176
   -66.671	   136.512	   -11.553
   -72.886	   128.930	   -18.612
   -66.157	   121.529	   -19.244
   -54.398	   127.425	   -30.117
   -61.380	   127.933	   -10.184
   -50.776	   139.198	     3.604
   -66.658	   141.862	     0.535
   -69.674	   140.043	    22.424
   -47.897	   152.135	    19.301
   -67.605	   142.025	     8.903
   -59.533	   132.848	     7.430
   -74.700	   148.202	   -15.712
   -73.630	   143.268	    -6.412
   -60.832	   132.491	    -7.409
   -68.452	   130.598	    -4.681
   -48.107	   117.581	    -4.708
   -43.934	   133.824	     5.997
   -52.175	   147.124	    10.467
   -54.293	   132.858	    -6.672
   -55.329	   133.347	   -12.047
   -74.416	   153.470	     6.731
   -57.078	   127.479	     6.135
   -50.062	   130.231	     2.664
   -67.538	   125.084	    12.262
   -59.676	   125.657	    14.832
   -53.777	   119.863	   -22.362
   -68.074	   114.402	    -1.953
   -61.836	   144.660	    -8.518
   -59.670	   114.725	     9.921
   -52.956	   135.998	    -8.663
   -73.659	   133.543	     0.456
   -62.169	   135.018	     5.649
   -64.433	   142.032	     2.692
   -73.877	   147.069	    -0.099
   -49.776	   129.615	   -10.874
   -58.725	   124.473	    -4.321
   -58.598	   137.421	     9.229
   -89.695	   132.496	     2.814
   -52.928	   141.806	   -14.075
   -53.742	   122.495	     4.941
   -57.973	   133.129	    -0.257
   -87.393	   130.533	     7.389
   -62.686	   127.966	     3.593
   -62.096	   135.741	     9.196
   -57.079	   134.553	    -4.201
   -60.162	   127.322	    -4.896
   -72.044	   125.644	   -12.170
   -64.377	   139.737	     7.467
   -59.079	   136.871	    -8.793
   -69.611	   137.610	    -4.484
   -53.053	   146.853	    -0.311
   -64.328	   128.047	     0.275
   -57.500	   114.565	   -17.094
   -69.713	   127.643	    -5.501
   -62.210	   142.940	    -8.931
   -72.184	   132.360	     0.810
   -54.495	   132.673	    -3.150
   -62.728	   130.174	    -4.788
   -41.018	   129.756	    -0.113
   -57.218	   131.889	   -22.264
   -59.315	   134.849	   -19.960
   -67.548	   150.916	    14.797
   -67.312	   146.496	     0.595
   -70.234	   159.029	    10.080
   -48.980	   151.729	   -11.848
   -64.814	   127.003	     8.990
   -66.569	   145.760	    -7.667
   -54.052	   157.571	    -7.065
   -56.678	   145.464	    14.397
   -69.745	   115.110	    -1.531
   -73.208	   124.720	   -13.673
   -39.245	   108.527	     5.708
   -38.840	   120.202	    -9.986
   -59.537	   138.732	     1.119
   -63.646	   129.725	    -1.500
   -68.059	   153.632	     5.204
   -67.423	   151.857	   -11.884
   -55.121	   131.025	    -2.179
   -55.723	   143.018	    -3.780
   -54.139	   138.610	     3.595
   -54.792	   146.498	   -11.567
   -61.054	   132.938	     3.636
   -55.649	   134.009	    -0.397
   -56.756	   137.105	     6.190
   -66.054	   135.498	    -6.280
   -68.294	   136.547	     1.345
   -60.101	   143.180	   -16.180
   -62.803	   128.090	     0.303
   -69.560	   146.941	    10.074
   -66.617	   135.029	     3.258
   -75.751	   151.450	     0.530
   -66.289	   170.286	   -13.039
   -59.153	   139.071	    -7.144
   -58.913	   133.005	    -3.872
   -73.728	   134.234	    -1.680
   -78.682	   146.548	     4.606
   -59.719	   130.632	    -1.349
   -48.429	   152.331	    -9.624
   -70.404	   137.207	     6.230
   -56.273	   149.386	    -8.348
   -57.100	   144.684	     7.201
   -69.645	   143.070	   -22.222
   -55.901	   126.186	    10.319
   -63.888	   137.159	   -15.318
   -61.495	   130.144	    12.522
   -58.762	   161.265	    -1.554
   -80.134	   133.220	     3.840
   -66.683	   142.560	   -25.795
   -68.258	   129.557	   -18.089
   -73.066	   134.989	   -12.977
   -48.844	   139.956	   -13.857
   -59.911	   123.023	     9.248
   -53.638	   124.861	   -12.170
   -50.423	   136.824	    -1.865
   -61.362	   127.018	     1.905
   -54.040	   119.442	   -22.319
   -56.350	   114.064	     5.301
   -64.863	   147.013	   -17.521
   -46.238	   139.947	    -5.479
   -52.144	   152.114	    -3.011
   -59.098	   121.378	    -1.311
   -48.426	   133.175	   -13.373
   -65.910	   137.442	     0.593
   -69.439	   118.538	     0.631
   -68.627	   142.877	     3.476
   -47.202	   132.056	   -12.920
   -67.656	   141.339	     2.002
   -43.808	   129.067	     2.855
   -59.381	   137.079	    -1.152
   -68.891	   137.079	   -17.726
   -81.247	   138.363	    11.794
   -69.603	   150.438	    14.136
   -79.703	   129.196	    -0.794
   -45.305	   129.496	    11.116
   -71.226	   145.792	    -1.764
   -54.622	   132.682	    -5.102
   -55.724	   147.924	     1.383
   -72.875	   147.135	     5.042
   -51.715	   136.903	   -15.790
   -72.017	   142.236	   -15.350
   -49.151	   145.385	   -12.613
   -67.399	   145.251	     3.664
   -66.323	   144.598	     2.452
   -63.020	   144.656	    -1.104
   -59.628	   152.685	     3.550
   -65.607	   132.996	     5.219
   -52.845	   125.000	     8.667
   -60.431	   141.334	    -3.310
   -56.635	   139.354	   -11.832
   -53.161	   127.664	   -12.635
   -48.815	   139.685	   -11.577
   -52.537	   130.655	     4.834
   -56.294	   135.457	     3.246
   -73.118	   119.650	     6.342
   -77.144	   126.705	    18.102
   -53.252	   133.356	   -15.497
   -65.808	   142.135	    -6.205
   -55.511	   134.990	   -12.887
   -52.137	   131.455	    -4.577
   -69.882	   107.012	   -25.771
   -65.266	   126.380	     6.221
   -59.369	   123.220	    -0.767
   -69.385	   155.420	     1.698
   -48.777	   131.254	    -5.668
   -60.350	   122.083	     2.608
   -58.122	   152.417	   -12.370
   -54.228	   143.247	   -15.677
   -62.827	   140.490	   -15.572
   -71.995	   143.449	   -11.810
   -63.519	   127.822	   -11.541
   -55.207	   140.585	   -13.180
   -60.192	   135.290	    18.620
   -61.521	   146.746	    11.422
   -66.212	   136.853	     5.877
   -62.036	   139.019	    -8.754
   -65.303	   140.656	    -0.850
   -70.184	   158.212	     3.446
   -67.519	   139.045	   -14.482
   -57.034	   128.702	   -11.830
   -56.958	   144.585	     2.029
   -51.433	   137.124	     1.360
   -63.783	   126.797	    -2.613
   -38.054	   137.846	    -0.739
   -64.411	   143.370	     3.248
   -68.819	   131.769	   -16.966
   -58.849	   132.261	    -2.762
   -63.776	   136.559	   -10.637
   -70.900	   142.708	    12.152
   -65.694	   147.922	    -7.858
   -62.931	   136.692	   -24.282
   -63.498	   147.122	    -0.023
   -54.219	   132.953	     9.112
   -65.217	   128.879	     7.526
   -45.331	   140.278	    -2.475
   -55.730	   126.937	    -4.031
   -70.285	   149.835	    -8.248
   -61.701	   148.470	   -14.810
   -66.653	   128.008	   -10.552
   -63.224	   132.859	     0.922
   -61.808	   136.147	     1.251
   -48.267	   143.727	    -4.827
   -52.282	   138.585	    -2.964
   -62.702	   111.212	     3.385
   -56.791	   138.941	     8.412
   -59.351	   142.352	     5.030
   -71.955	   130.419	     4.693
   -61.594	   147.123	     5.735
   -50.775	   136.317	    -1.130
   -63.955	   124.629	   -17.199
   -45.478	   130.791	   -28.293
   -59.229	   134.207	   -11.130
   -62.003	   121.246	    -4.151
   -64.419	   144.196	     3.749
   -68.803	   124.049	    -1.972
   -57.073	   119.656	     1.448
   -54.218	   143.089	    -2.807
   -58.859	   152.639	    -2.722
   -55.016	   147.365	    11.454
   -63.104	   155.107	     0.304
   -49.822	   142.742	    -8.756
   -59.035	   123.764	   -13.780
   -45.339	   133.012	   -12.901
   -56.005	   135.428	     7.614
   -70.077	   139.981	     2.182
   -57.947	   135.371	     4.226
   -47.128	   137.353	    -1.176
   -47.938	   131.707	     0.565
   -53.605	   121.640	     3.842
   -52.634	   136.712	    -6.775
   -57.612	   134.502	     5.124
   -64.816	   128.537	     5.675
   -69.776	   135.590	    -2.697
   -35.125	   129.471	    -3.030
   -45.937	   137.624	    -4.438
   -62.974	   131.689	    -4.598
   -58.827	   147.078	   -12.219
   -59.588	   140.971	   -15.783
   -58.563	   120.760	     7.978
   -71.691	   125.176	     6.089
   -71.148	   154.786	   -21.831
   -61.715	   137.040	    -7.860
