   -92.310	   122.143	    -3.179
   -79.298	    36.762	     3.714
   -77.488	    44.918	    15.902
   -70.303	     1.855	     0.761
   -74.936	    34.449	    -3.146
   -80.627	    49.011	    -2.492
   -69.191	    38.837	    10.260
   -76.997	    65.129	     1.179
   -67.117	    38.828	    13.426
   -63.207	    64.319	     5.625
   -74.765	    86.395	    12.694
   -75.713	    59.628	     2.436
   -81.354	    41.966	     4.959
   -74.020	    23.453	    -3.655
   -72.495	    14.487	     1.456
   -81.422	    27.872	     0.951
   -59.932	    20.302	   -13.587
   -73.120	    19.301	    -3.206
   -71.587	    26.640	     9.571
   -56.847	    34.268	   -17.449
   -82.130	    25.664	     6.344
   -74.839	    37.037	   -17.065
   -64.101	    50.802	     4.002
   -72.728	    49.047	    -8.349
   -75.824	    53.142	    -7.149
   -56.848	    25.047	    -2.680
   -76.505	    29.988	     6.275
   -73.499	    32.104	     0.406
   -68.313	    38.961	    -7.917
   -63.991	    18.480	    10.788
   -88.663	    18.827	     7.147
   -68.987	    31.206	    13.859
   -71.250	    28.611	   -22.262
   -65.620	    28.221	    -3.943
   -68.023	    25.793	     5.432
   -64.755	    10.027	     3.258
   -69.224	    50.582	    -6.963
   -68.745	    43.614	   -10.040
   -57.941	    17.717	   -10.882
   -70.448	    27.685	    -7.362
   -54.929	    23.508	   -15.607
   -73.202	    23.656	    -8.964
   -74.146	    35.453	     3.450
   -82.153	    11.013	     7.107
   -75.425	    23.262	   -14.568
   -66.055	    13.652	    -3.925
   -81.160	    30.473	     6.813
   -73.159	    49.214	     1.741
   -68.741	    72.597	    -1.435
   -65.087	    42.942	     0.365
   -79.971	    49.065	     1.640
   -70.980	    50.377	    -1.619
   -81.907	    49.438	    -1.069
   -65.692	    17.122	   -10.396
   -73.113	    24.741	    14.562
   -70.570	    37.799	     7.205
   -83.618	    55.301	     6.344
   -62.287	     3.698	    18.110
   -78.465	    50.611	   -20.652
   -58.471	    33.435	    11.823
   -80.761	    31.481	     5.151
   -62.431	    18.009	     1.115
   -78.239	    18.893	     2.135
   -64.484	    22.106	    -4.389
   -77.595	    36.442	    12.698
   -65.134	    25.888	     8.848
   -83.203	     2.171	    11.371
   -77.743	    19.796	    10.942
   -72.905	    43.993	   -13.570
   -63.741	    44.638	     6.934
   -74.665	    34.063	    -7.293
   -73.285	    50.134	    14.364
   -59.548	    18.900	    -4.261
   -79.955	    48.534	     2.979
   -71.991	    38.797	    -2.591
   -84.247	    32.452	     3.644
   -70.828	    27.217	     0.150
   -65.166	    26.906	    -4.607
   -73.348	    50.158	     8.700
   -74.588	    42.115	   -10.198
   -69.986	    36.706	     2.721
   -63.805	    31.606	    -4.064
   -64.172	    24.692	    -4.461
   -63.598	    20.854	     5.418
   -76.023	    26.129	    -9.653
   -75.775	    31.417	    11.392
   -65.340	    27.260	     4.582
   -69.192	    47.759	     0.917
   -70.108	    53.533	    -2.762
   -81.246	    39.761	    11.683
   -63.608	    31.630	     0.339
   -74.725	    43.810	    -1.637
   -63.412	    42.432	   -10.503
   -73.870	    37.021	    -1.156
   -72.378	    46.392	    -4.254
   -68.045	    33.037	    -2.444
   -69.169	    27.044	    -3.341
   -67.906	    35.178	    -4.171
   -72.132	    33.350	     2.154
   -73.879	    21.236	    23.633
   -73.072	    50.592	    -2.396
   -73.374	    65.272	    -3.825
   -78.203	    61.605	    -2.178
   -66.673	    39.056	    -2.672
   -83.914	    51.147	    12.000
   -57.701	    25.368	    -2.309
   -67.126	    31.230	    -2.791
   -86.141	     4.496	    11.559
   -73.493	    30.370	    16.576
   -62.202	    39.557	    -7.703
   -64.168	    31.125	     0.452
   -79.249	    43.118	     9.727
   -64.700	    57.090	     5.769
   -65.469	    38.314	   -15.805
   -51.848	    55.723	   -24.965
   -85.287	     7.797	     3.001
   -68.149	     2.476	     9.278
   -77.211	    28.474	    -1.623
   -75.559	    61.687	    12.975
   -65.544	    22.970	    -1.335
   -81.138	    26.208	    29.067
   -76.517	    11.227	     9.391
   -78.918	     6.115	    18.706
   -78.443	    17.138	     5.006
   -67.000	    40.326	   -10.316
   -78.949	    36.557	   -14.533
   -68.263	    23.961	    -8.720
   -89.818	    18.948	     0.439
   -71.110	    25.999	     7.534
   -67.366	    48.247	    -4.947
   -64.129	    41.049	    -2.712
   -67.399	    35.896	     1.563
   -81.671	    58.272	    11.877
   -58.785	    48.062	   -15.586
   -60.916	    52.070	   -15.160
   -67.184	    37.168	   -10.226
   -70.337	     8.275	     7.898
   -67.114	    15.401	    19.203
   -76.401	    58.484	    -7.085
   -69.504	    22.005	     8.328
   -70.068	    30.598	     0.071
   -65.393	    34.738	     3.086
   -75.195	    43.099	    19.885
   -71.375	    47.385	     4.795
   -74.720	    47.478	     5.162
   -75.849	    57.335	    -1.834
   -71.739	    27.332	     6.236
   -75.384	    18.461	    -6.357
   -82.946	    33.960	     6.876
   -75.206	    29.440	    -1.370
   -79.196	    17.991	    17.284
   -58.001	    61.834	    -9.799
   -71.488	    -7.004	    10.351
   -64.543	    36.149	    -6.516
   -70.999	    44.054	     1.464
   -59.615	    17.118	   -11.375
   -64.678	    16.418	    -4.987
   -82.237	    50.157	     5.995
   -66.843	    23.225	    -0.591
   -65.638	    34.796	    -4.908
   -79.557	     6.497	     9.735
   -74.188	    12.504	   -12.714
   -89.399	    34.450	    -3.705
   -74.823	    42.511	    -7.435
   -72.626	    27.833	     8.095
   -78.219	    22.973	     7.763
   -79.592	    43.444	     9.804
   -70.614	    30.370	   -15.215
   -67.413	    32.524	    -1.052
   -88.008	    45.980	     8.628
   -76.539	    25.393	     5.335
   -75.016	    15.242	     7.987
   -75.967	    19.061	     2.061
   -72.452	    15.611	     2.619
   -69.390	    26.720	    -6.921
   -75.971	    43.581	     0.428
   -68.736	    48.082	    -5.635
   -78.620	    22.806	     1.173
   -80.165	    14.346	     6.110
   -59.323	    37.519	    -0.480
   -72.771	    12.010	    -5.940
   -73.693	    42.883	    -1.894
   -66.755	    18.410	     3.629
   -56.158	    34.029	    -4.987
   -80.253	    25.577	    -4.546
   -80.439	    48.090	     5.594
   -78.482	    59.163	   -13.310
   -56.439	    33.417	    -5.437
   -71.105	    73.432	   -12.871
   -80.330	    42.725	     2.149
   -66.729	    54.122	    -4.823
   -69.006	    39.013	     6.364
   -86.008	    23.874	     2.275
   -74.375	    27.119	    -7.032
   -77.811	    44.427	     6.903
   -82.981	    35.975	     0.377
   -73.028	    33.664	   -39.027
   -66.614	    48.262	     5.632
   -68.310	    44.321	    -0.082
   -88.698	    53.054	    15.286
   -80.616	    39.181	    11.012
   -87.388	    59.688	    10.593
   -57.791	    29.497	     0.654
   -62.919	    -2.535	    -7.710
   -66.343	    14.842	    -5.845
   -68.066	    36.619	    -2.738
   -80.506	    50.107	    -2.443
   -71.832	    -4.023	    -4.275
   -78.871	    30.650	    -0.507
   -75.758	    15.060	    -0.282
   -62.219	    18.740	     3.576
   -61.205	    32.275	   -23.461
   -65.365	   -10.254	    -2.950
   -73.743	    19.101	    19.987
   -75.276	    39.333	     0.006
   -76.010	    13.420	    11.190
   -89.304	    13.350	     0.838
   -54.571	    33.252	   -16.604
   -56.164	    24.494	   -17.251
   -77.716	    18.229	    -0.611
   -55.925	    41.016	     3.425
   -81.063	    35.705	     7.808
   -61.076	    42.857	   -10.063
   -58.769	    24.346	    -6.320
   -72.781	    32.585	    -2.941
   -75.006	    33.631	    -5.732
   -68.025	    45.250	     0.099
   -60.759	    26.315	   -13.458
   -71.469	     8.752	    11.146
   -71.336	    45.255	    11.447
   -73.004	    57.630	     4.838
   -64.834	    39.971	     8.690
   -70.473	    34.601	     1.374
   -68.198	     9.637	     6.094
   -75.589	    34.202	    -7.988
   -62.806	    13.988	    13.543
   -76.721	    47.879	   -18.134
   -86.624	    19.671	     5.725
   -58.248	    41.912	   -14.007
   -79.839	    27.305	   -14.995
   -71.728	    33.386	    10.394
   -60.231	    41.879	    -6.143
   -70.721	    15.584	     3.932
   -79.375	    47.006	     4.154
   -70.067	    20.418	     9.627
   -83.519	    20.511	     9.253
   -67.039	    19.016	     2.981
   -70.500	    28.237	    11.201
   -68.831	    24.545	     9.100
   -70.782	    33.782	     0.268
   -78.634	    45.951	    10.563
   -67.407	    50.003	     3.455
   -76.598	    44.528	    -3.330
   -85.093	    47.185	    -8.477
   -78.400	    38.028	    18.963
   -75.966	    32.189	    -7.483
   -77.761	    49.506	   -19.312
   -72.469	    61.531	   -14.587
   -87.223	    24.787	    -7.146
   -81.142	    30.863	    -7.594
   -74.543	    19.538	    -2.268
   -73.913	    38.293	    -4.992
   -66.751	    52.787	    -3.625
   -76.652	    36.242	    -8.301
   -66.902	    37.452	     0.141
   -66.052	    50.806	    -9.596
   -73.050	    37.090	     9.768
   -70.749	     8.615	     2.913
   -72.108	    16.391	     0.865
   -66.082	    24.400	    -3.430
   -75.744	    19.653	     8.268
   -51.299	    10.398	     0.666
   -83.200	    55.998	     5.597
   -69.106	    51.256	   -12.791
   -74.117	    36.687	   -18.356
   -71.977	    21.526	    -9.043
   -85.584	     5.925	     8.726
   -59.747	    14.783	   -13.127
   -87.562	    21.909	    -8.134
   -69.658	    26.781	     8.279
   -75.214	    29.062	    -4.939
   -63.176	    44.007	    -3.229
   -68.907	    56.866	    -5.305
   -68.879	    45.978	    -3.136
   -72.186	    51.546	    -0.235
   -75.196	    57.730	    10.672
   -72.324	    25.335	     4.736
   -63.872	    26.425	     7.966
   -78.661	    62.025	     3.930
   -70.391	    56.981	    -1.592
   -58.073	    53.550	    -6.396
   -75.243	    35.339	     8.747
   -64.694	    50.042	     1.077
   -71.233	    52.305	    -8.018
   -74.908	    31.699	    -4.832
   -57.621	    41.786	   -17.279
   -70.139	    29.327	   -15.145
   -74.743	    21.541	    -3.780
   -72.025	    13.767	    14.614
   -62.037	    17.883	     6.010
   -71.313	    26.813	     3.206
   -73.897	    28.305	    -4.288
   -62.340	    23.797	    -3.229
   -63.114	    32.541	     1.539
   -81.109	    20.873	    -3.454
   -87.152	    41.364	     9.795
   -77.696	    44.679	    -6.002
   -75.994	    41.783	     8.157
   -64.893	    30.429	   -15.420
   -80.447	    35.827	    -3.335
   -78.641	    55.625	     7.381
   -66.487	    50.977	     8.287
   -69.145	    56.933	   -14.269
   -66.492	    30.082	    -9.490
   -68.399	    42.761	    -1.307
   -79.434	    73.027	    -7.304
   -79.101	    38.438	    -1.703
   -86.045	    46.451	    12.929
   -71.284	    37.169	    -5.505
   -55.441	    41.531	   -11.395
   -76.061	    35.574	     5.753
   -78.529	    52.707	     0.982
   -75.872	    33.788	     4.808
   -74.037	    37.296	    -4.147
   -77.357	    32.369	    -8.466
   -68.759	    18.627	     8.724
   -67.596	    58.223	     4.297
   -82.441	    52.104	     7.483
   -79.584	    49.119	    -2.814
   -64.689	    24.089	    -8.154
   -72.736	    20.207	     8.609
   -67.129	    15.333	    -6.215
   -71.229	    45.288	   -10.907
   -80.667	    46.290	    -2.751
   -61.796	     6.055	     2.204
   -90.108	    25.353	   -14.544
   -77.321	    -7.404	     2.956
   -75.168	     9.510	    26.524
   -76.699	    61.423	   -12.942
   -66.736	    58.658	   -12.445
   -81.649	    64.332	     5.226
   -75.184	    68.217	     4.923
   -68.434	    60.618	    -2.674
   -72.233	    50.472	   -10.755
   -72.136	    26.477	     4.466
   -82.837	    30.059	    -2.603
   -72.842	    28.932	    -1.593
   -73.801	    21.061	     7.525
   -75.811	    26.901	    -3.174
   -74.129	    26.889	    -8.160
   -78.381	    48.222	    10.313
   -73.264	    34.445	    -1.323
   -53.366	    -0.257	    -1.547
   -73.850	    30.189	     8.582
   -67.227	    31.255	     0.996
   -67.919	    43.346	   -10.448
   -68.699	    51.295	     8.855
   -62.847	    22.293	    -5.846
   -82.693	     7.548	     6.921
   -79.234	    44.170	     1.256
   -55.544	     7.064	   -15.613
   -58.612	    34.260	    -8.189
   -76.223	    37.592	    -5.059
   -72.335	    26.576	     1.068
   -60.178	    34.407	    10.481
   -63.328	    11.805	     1.557
   -62.793	    18.801	     3.842
   -78.236	    32.938	     3.493
   -73.865	    35.915	    -8.051
   -64.967	    27.222	    -4.526
   -79.121	    20.014	     4.858
   -63.756	    25.493	    -2.048
   -79.508	    29.101	    17.124
   -75.625	     6.562	    -4.309
   -68.176	    -8.909	     8.110
   -75.419	    20.479	    -4.261
   -72.510	     9.622	    20.817
   -94.234	    27.676	    12.674
   -66.825	    14.395	    -1.288
   -59.103	    20.311	    -2.085
   -59.376	    19.298	     3.383
   -65.063	     9.715	     1.717
   -69.322	    28.236	     8.876
   -63.531	    46.102	    -2.566
   -77.146	    19.877	     6.003
   -85.025	    40.444	    11.209
   -64.833	    25.870	     2.935
   -84.566	    25.639	     6.352
   -79.254	    41.411	     1.660
   -74.020	    30.885	     0.582
   -81.303	    41.048	    -1.309
   -78.608	    32.372	     2.904
   -66.589	    51.237	   -12.895
   -73.370	    54.005	    -7.149
   -78.064	    56.018	     5.084
   -72.788	    47.004	   -18.725
   -73.544	    29.987	   -11.705
   -89.698	    51.192	     8.556
   -80.327	    15.710	     3.702
   -78.022	    35.648	     2.404
   -58.712	    46.520	    -1.583
   -75.315	    45.850	     6.126
   -79.007	    28.358	     7.796
   -66.464	    30.202	    -6.082
   -78.198	    23.269	     7.188
   -86.443	     3.424	    11.426
   -75.854	    37.631	    16.355
   -57.101	    31.311	     7.398
   -60.204	    32.411	   -11.188
   -75.035	    24.377	    22.913
   -81.819	     9.945	     0.616
   -69.480	    44.055	     0.216
   -77.555	    34.406	     7.779
   -69.531	    22.356	   -14.883
   -77.157	    47.390	     5.264
   -67.940	    28.980	     2.383
   -72.867	    41.732	     9.603
   -63.817	    29.078	    -6.222
   -63.853	    12.258	   -10.217
   -65.211	    35.393	   -15.947
   -69.422	    20.408	     6.911
   -67.917	    20.570	     9.301
   -80.077	    30.099	    -0.197
   -69.601	    44.731	    -2.594
   -58.932	    40.295	   -12.635
   -58.825	    21.200	   -13.573
   -77.876	    35.232	     5.956
   -76.670	    22.949	    -6.583
   -81.678	    34.001	    -1.252
   -61.603	    25.141	    -3.831
   -97.046	    26.947	     9.198
   -74.118	    33.489	     3.075
   -84.202	    57.874	   -21.251
   -73.854	    45.917	    -6.532
   -73.725	    44.162	     9.743
   -71.290	    36.880	     4.031
   -70.873	    35.737	     3.357
   -67.908	    36.121	    -7.383
   -74.601	    71.862	    -0.980
   -64.502	    35.706	    -1.914
   -72.749	    35.864	     4.289
   -72.655	    29.519	     2.989
   -69.848	     3.737	     4.648
   -87.167	    16.822	     1.966
   -68.447	    21.378	    -7.417
   -85.379	    52.591	    -4.004
   -70.540	    34.459	     4.740
   -77.820	    42.554	     4.266
   -79.893	    55.322	    11.084
   -91.990	    47.321	     5.897
   -74.560	    11.393	    11.212
   -63.672	    61.987	   -10.054
   -65.458	    37.883	   -13.508
   -78.551	    10.965	    20.148
   -73.691	    20.164	     4.052
   -65.396	    31.584	    -4.093
   -73.961	    55.390	    -5.270
   -81.208	    48.624	     6.492
   -64.669	    30.705	   -16.758
   -71.956	    72.968	   -18.420
   -60.454	    33.437	    -7.174
   -70.159	    33.986	    10.286
   -72.979	    43.044	     2.587
   -91.979	     9.992	    -8.438
   -77.906	    36.815	     0.836
   -64.118	    16.130	     6.939
   -83.754	    59.043	    -9.900
   -73.274	     4.766	     0.356
   -72.166	    48.192	    -2.874
   -62.892	    28.756	    -2.773
   -75.194	    32.175	    -2.377
   -62.453	    16.471	   -10.139
   -74.559	    40.860	     6.776
   -61.297	    20.331	     1.185
   -98.452	    33.333	    -0.124
   -63.783	    16.264	   -16.786
   -73.050	    23.580	    17.735
   -77.407	    24.706	    -4.871
   -78.050	    38.033	    -5.223
   -83.031	    55.885	    16.647
   -56.644	    18.930	   -11.290
   -75.410	    39.945	    15.239
   -69.575	    31.167	    19.656
   -72.319	    43.563	     3.721
   -73.093	    41.712	    -1.713
   -68.964	    34.927	   -14.408
   -73.913	    27.966	   -12.689
   -81.402	    14.098	     4.590
   -81.544	    50.167	    -8.607
   -68.927	    29.261	    -2.137
   -71.561	    39.533	    -9.669
   -71.722	    33.360	     1.683
   -58.606	    29.931	     5.978
   -80.116	    48.390	    -0.556
   -68.447	    28.698	     2.569
   -84.588	    57.432	    -9.683
   -67.099	    39.211	    -3.631
   -64.199	    53.762	    -5.056
   -80.461	    26.085	     9.545
   -73.834	    -4.667	     0.058
   -78.363	    70.476	    -0.311
   -80.030	    49.368	    -0.146
   -68.905	     0.813	    -6.797
   -78.207	    14.095	    -1.694
   -63.700	    28.053	     2.379
   -63.822	    15.615	     8.061
   -72.196	    13.933	    -4.524
   -81.490	    25.221	    10.716
   -66.978	    41.809	    -3.979
   -58.483	    27.122	     1.675
   -76.949	    37.808	   -19.326
   -77.205	    22.893	    -7.594
   -79.267	    34.449	    13.192
   -76.559	    35.115	     0.574
   -66.707	    22.889	   -19.192
   -84.104	    23.340	     4.680
   -77.529	    53.683	    -9.139
   -56.432	    10.657	    -0.264
   -71.282	    23.360	    -2.826
   -62.983	    42.797	     3.796
   -75.386	    30.153	     3.769
   -62.098	    34.235	    11.372
   -69.992	    51.253	    -7.591
   -70.020	    67.086	   -11.510
   -71.698	    39.794	    -3.296
   -67.554	    31.656	    15.999
   -77.812	    47.501	     5.199
   -71.177	    29.030	     8.557
   -72.501	    11.493	     1.505
   -69.395	    49.145	     9.362
   -78.391	    44.242	    -2.118
   -69.606	    29.613	    -3.630
   -57.040	    22.336	   -16.894
   -66.993	   -14.139	    -4.549
   -66.068	    28.273	     0.081
   -72.547	     0.429	    -0.891
   -70.737	     8.196	     6.443
   -85.997	     4.833	    17.203
   -67.266	    27.408	   -11.276
   -78.099	    39.504	    13.313
   -69.807	    24.785	     2.453
   -79.286	    31.905	   -21.052
   -73.028	    30.411	     4.229
   -65.315	    34.638	   -12.338
   -66.519	    46.762	     1.698
   -70.067	    28.101	     1.905
   -70.877	    42.112	     4.878
   -80.104	    47.064	     1.599
   -63.873	    31.544	    -4.137
   -69.778	    53.171	    -2.921
   -79.587	    42.934	     1.942
   -73.282	    10.828	    -0.864
   -80.598	     9.785	     0.463
   -71.305	    24.554	    -7.662
   -59.596	    17.387	    -1.894
   -67.015	    27.652	     7.560
   -65.134	    33.163	     5.937
   -71.193	    36.670	   -18.971
   -69.569	    26.709	    -0.004
   -73.474	    50.075	    -0.615
   -77.852	    27.575	     5.526
   -82.099	    55.810	     0.005
   -71.794	    19.771	    -0.673
   -65.953	    24.192	    -2.596
   -59.512	    39.692	   -12.259
   -70.357	    39.010	   -10.352
   -71.376	     0.839	    17.465
   -88.344	    25.683	     7.007
   -71.843	    45.944	     8.131
   -61.517	    36.321	    -7.399
   -62.733	    43.375	   -13.219
   -66.634	    31.495	     0.726
   -78.439	    51.314	    12.397
   -89.515	    45.749	     8.093
   -69.459	    42.173	    -3.127
   -80.594	    48.859	    -1.531
   -65.410	    31.108	   -19.466
   -74.643	    12.080	   -15.591
   -88.825	    34.040	     8.397
   -68.042	    30.881	    -1.088
   -76.398	    45.327	     1.565
   -76.194	    39.506	    17.999
   -68.453	    42.446	     4.684
   -64.628	    27.666	    -0.600
   -75.520	    22.283	     4.427
   -78.357	    37.853	    -4.507
   -82.091	    17.129	     4.369
   -78.419	    31.072	   -10.564
   -66.313	    46.107	    -4.527
   -70.732	    40.939	     5.885
   -59.062	    42.015	   -24.213
   -76.747	    30.586	    -5.448
   -77.495	    39.303	    -4.254
   -68.254	    52.357	   -14.850
   -66.452	    30.603	    -1.654
   -77.747	    43.223	    14.238
   -84.018	    40.979	     1.956
   -75.063	    43.612	   -13.872
   -62.594	    22.638	    -1.879
   -57.828	    27.489	   -15.544
   -95.338	    14.816	     9.357
   -87.307	     9.354	   -14.424
   -79.924	     7.604	     1.505
   -75.438	    26.754	    14.817
   -68.535	    60.953	    10.635
   -80.096	    46.411	    -7.154
   -67.168	    20.424	   -29.008
   -72.263	    56.692	    -4.290
   -66.069	    48.023	   -11.318
   -79.959	    45.207	    -6.486
   -67.419	    28.087	    -5.659
   -84.984	    31.822	    15.400
   -72.902	    34.816	     0.182
   -68.543	    44.460	    -3.428
   -56.616	    22.384	     3.758
   -65.953	    29.304	    -7.684
   -65.471	    49.611	     3.807
   -73.583	    12.086	    16.777
   -74.002	    32.732	     4.116
   -66.680	    28.665	    -6.445
   -86.258	    18.410	    -4.461
   -67.793	    49.933	     2.127
   -77.864	    53.167	    -9.440
   -77.018	    46.679	    -3.459
   -58.316	    15.046	   -10.206
   -59.681	    39.983	   -15.785
   -71.115	    39.721	     4.960
   -67.845	    33.435	     5.710
   -72.486	    44.668	     7.220
   -83.217	    38.488	    16.213
   -73.542	    20.911	     9.485
   -82.201	    22.459	    15.023
   -74.585	    10.065	    15.226
   -72.272	    43.872	     6.629
   -70.804	    35.348	   -15.364
   -64.730	    47.664	    -1.144
   -69.449	    39.818	    -2.157
   -85.384	    21.123	     1.164
   -77.658	     1.252	     5.600
   -68.489	    35.982	   -15.779
   -74.879	    47.219	    -9.591
   -70.748	    25.856	     1.365
   -69.833	    -2.529	     9.109
   -79.802	    33.389	     8.393
   -65.819	    29.865	    -2.331
   -71.222	    27.253	    -2.004
   -79.495	    13.123	    14.134
   -69.218	    31.523	     5.348
   -71.859	    30.970	     5.712
   -76.162	    49.335	   -12.919
   -77.646	    27.016	     4.033
   -73.794	    32.930	    -8.426
   -84.081	    46.026	    -2.032
   -61.624	    40.818	   -11.250
   -78.388	    50.321	    -6.964
   -65.499	    39.669	   -18.382
   -76.484	    31.598	    -8.097
   -75.690	    33.515	    -9.009
   -78.354	    44.328	    -0.391
   -73.054	    51.882	    -0.608
   -59.556	    28.250	     5.719
   -73.143	    41.126	     2.478
   -78.302	     4.926	    12.033
   -59.008	    18.433	     4.784
   -81.437	    30.317	    18.037
   -70.325	    35.266	     8.902
   -80.956	    42.834	    -0.396
   -68.803	    15.237	     7.220
   -74.307	    30.931	   -14.327
   -77.631	    32.754	   -13.440
   -71.187	    37.478	    -3.870
   -85.077	    33.286	    11.701
   -71.021	    42.827	    -7.923
   -69.097	    15.711	    -0.205
   -82.159	    25.214	     7.135
   -57.210	    -0.211	     2.052
   -78.703	    35.025	    17.866
   -83.198	    37.901	     3.590
   -79.885	    33.359	    -1.264
   -76.174	    47.152	    -3.911
   -60.634	    30.055	    -1.810
   -68.483	    43.238	    -6.537
   -68.560	    41.112	     3.444
   -64.936	    44.832	    -1.526
   -69.057	    51.376	    -6.607
   -65.440	    34.625	     8.183
   -75.041	    34.391	    -6.396
   -77.535	    57.453	     3.853
   -73.462	    53.406	     5.043
   -60.640	    50.915	   -14.025
   -75.220	    22.599	     4.762
   -73.797	    23.675	     8.299
   -73.429	    23.076	     6.891
   -70.452	    33.469	    -4.028
   -75.318	    12.368	    -0.702
   -73.957	    49.880	     0.706
   -69.822	    33.655	    -3.386
   -61.357	    12.316	     7.199
   -64.032	    45.140	   -12.878
   -75.669	    50.558	    -4.508
   -72.950	    44.483	     1.481
   -71.181	    23.693	     0.058
   -61.692	    22.878	   -13.696
   -74.994	    17.570	     5.289
   -73.932	     7.147	     3.447
   -78.187	    22.326	    -7.794
   -74.471	    20.524	     4.374
   -60.116	    51.118	     0.997
   -57.639	    39.056	     0.762
   -72.964	    35.087	     9.684
   -68.909	    50.999	    -3.865
   -77.625	    15.901	     0.291
   -73.127	    27.973	     7.464
   -71.629	    11.269	     1.457
   -79.459	    43.872	     5.608
   -72.817	    59.271	     4.828
   -82.011	    37.964	    13.174
   -75.852	    49.729	   -11.718
   -64.766	    45.009	    -4.209
   -84.647	    36.237	     8.278
   -75.442	    22.049	    -2.204
   -82.689	    51.062	    10.456
   -73.017	    58.046	     9.160
   -83.327	    50.156	    10.708
   -75.107	    18.944	    -0.659
   -73.194	    12.375	     4.871
   -75.884	    41.989	     7.626
   -68.551	    22.307	    -3.514
   -68.352	    35.524	    -9.111
   -63.891	    31.920	     0.515
   -63.826	    35.010	    -6.039
   -63.362	    31.730	    -2.715
   -86.363	    51.580	    10.706
   -75.458	    29.797	     3.069
   -79.698	    47.415	    -5.842
   -57.744	    52.184	   -10.478
   -78.754	    34.086	     7.222
   -81.258	    61.220	     7.631
   -83.068	    22.522	    13.511
   -74.624	    17.049	    -0.913
   -73.796	    50.419	    -0.896
   -69.614	    44.235	    -4.641
   -72.237	    43.396	    -9.914
   -69.988	    30.563	     4.561
   -58.212	    32.543	   -12.738
   -75.456	    25.796	    11.993
   -70.642	    21.646	     8.529
   -63.640	    25.391	    -8.382
   -72.208	    25.333	    -1.545
   -71.147	    31.948	     7.375
   -66.510	    32.867	    -5.095
   -72.759	    55.226	    -8.281
   -64.124	    16.076	     5.433
   -66.696	    29.469	     8.072
   -81.693	    38.744	     0.316
   -73.867	    26.520	    -3.359
   -76.534	    39.222	    25.935
   -67.490	    31.078	     2.390
   -81.551	    38.275	    14.658
   -83.289	    41.277	     8.599
   -79.673	    29.273	    -0.222
   -84.215	    22.020	     4.834
   -77.019	    14.958	     2.857
   -76.914	    62.747	   -17.508
   -64.226	    23.804	   -12.434
   -79.312	    13.486	    11.347
   -85.166	    24.388	    14.417
   -83.832	    50.662	    14.816
   -66.845	    41.504	   -15.256
   -67.423	    21.704	   -13.180
   -61.245	    17.939	     8.516
   -46.461	    31.770	   -17.415
   -68.986	    60.466	     1.537
   -77.578	    74.309	    -1.124
   -80.705	    68.307	     0.626
   -60.587	    41.454	   -15.762
   -70.577	    40.863	     1.086
   -63.960	    36.490	    -4.862
   -65.262	    39.834	     3.428
   -51.869	    32.496	     4.998
   -70.933	    41.142	    -7.859
   -66.725	    38.853	   -11.306
   -64.317	    36.655	    -0.847
   -63.266	    36.139	   -12.891
   -65.794	    46.662	    -4.508
   -75.053	    21.819	     3.515
   -76.066	    22.689	     3.569
   -75.795	    51.929	   -14.300
   -64.493	    19.902	    -6.305
   -77.360	    50.788	    13.583
   -69.516	    16.925	    -2.731
   -69.395	     2.022	    14.399
   -69.750	    31.277	    12.232
   -81.855	    21.012	    -2.640
   -72.106	    41.362	     3.518
   -64.736	    -1.484	    -6.237
   -61.863	    13.233	    -2.985
   -77.828	     2.480	    15.571
   -70.623	    -6.499	     2.312
   -69.793	    28.136	    10.753
   -69.627	    13.823	     9.868
   -73.371	    19.000	    14.450
   -83.275	     7.398	    -1.364
   -72.429	    32.489	    -8.972
   -70.209	    34.512	    -5.816
   -75.322	    41.742	     5.813
   -69.826	    45.113	    -0.672
   -93.826	    33.084	    -4.868
   -67.479	    20.082	    16.150
   -80.569	    39.566	    -4.741
   -68.624	    40.138	     5.101
   -61.956	    69.540	   -18.114
   -60.463	    25.404	   -15.976
   -80.977	     5.032	    13.821
   -77.992	    14.418	   -12.439
   -67.822	     9.025	     5.715
   -55.979	    12.405	   -14.715
   -69.746	    47.385	     0.984
   -64.881	     4.365	    17.731
   -72.479	    37.360	    12.085
   -59.804	    57.634	   -10.074
   -83.919	    10.185	    12.500
   -66.497	    23.957	     2.287
   -81.750	    44.384	   -14.884
   -68.706	    34.571	    -6.324
   -77.677	    40.092	    -1.251
   -47.083	    65.693	   -21.088
   -70.767	    30.193	    12.083
   -66.739	    20.985	     4.289
   -71.891	    29.147	     2.833
   -79.884	    48.652	    16.393
   -64.003	    44.010	   -11.134
   -74.345	    35.469	     2.839
   -85.567	    42.055	     7.154
   -61.376	    42.946	   -20.135
   -66.891	    26.238	   -13.476
   -68.332	    33.824	     3.306
   -79.017	    33.583	     6.527
   -78.358	    53.148	   -15.506
   -52.776	    32.224	   -22.190
   -62.722	    51.109	   -11.158
   -60.637	    31.506	   -13.554
   -71.273	    45.400	     4.258
   -73.984	    32.232	    12.223
   -51.850	    15.713	    -4.133
   -56.847	    67.243	    -2.483
   -61.998	    35.783	    -6.078
   -65.838	    30.265	    11.690
   -65.502	    46.369	   -13.180
   -67.510	    23.427	    -0.438
   -77.200	    26.666	     6.431
   -75.162	    47.211	   -12.590
   -73.188	    37.175	    -3.937
   -80.342	    47.547	     1.232
   -66.928	    60.653	   -12.661
   -69.304	    59.439	    -8.523
   -57.036	    43.406	   -15.265
   -75.098	    56.223	    -5.321
   -63.766	    21.042	     5.978
   -72.072	    43.600	     4.264
   -79.279	    55.357	   -17.030
   -76.580	    43.003	    -3.123
   -77.454	    52.124	    12.824
   -74.095	    45.945	     0.550
   -82.001	    44.615	     3.421
   -54.092	    50.818	   -23.183
   -70.093	    42.672	     0.671
   -82.526	     8.147	     1.476
   -69.733	    11.854	     8.334
   -74.278	    25.341	    -2.891
   -76.685	    37.748	     5.131
   -60.500	    37.263	   -12.859
   -73.794	    57.240	     9.084
   -70.024	    20.128	    -1.356
   -72.358	     3.404	    -1.098
   -76.959	     7.092	   -17.127
   -84.195	    10.414	    -9.430
   -52.769	     7.996	    -4.933
   -67.383	     9.075	    13.350
   -73.511	    38.483	   -10.989
   -54.788	    50.696	   -11.004
   -91.528	    54.771	    -1.666
   -67.188	    25.737	    -3.134
   -71.319	    27.116	    12.993
   -64.349	    32.578	   -15.356
   -63.959	    42.792	   -12.738
   -71.414	    74.364	     0.518
   -72.809	    37.672	     6.048
   -82.510	    40.662	     3.409
   -71.062	    36.284	    10.475
   -76.272	    58.860	    -1.418
   -67.144	    43.731	    -4.759
   -80.507	    49.114	    -7.489
   -83.827	    53.530	    -4.808
   -76.532	    47.139	   -10.946
   -65.503	    50.242	    13.724
   -51.536	    20.445	   -11.187
   -72.718	    48.941	     6.970
   -78.045	    26.242	     7.570
   -66.712	    55.315	     9.828
   -72.395	    36.315	    -6.045
   -74.007	    36.599	    23.941
   -80.242	    75.767	     7.470
   -46.434	    48.817	     5.551
   -76.966	    42.116	    12.367
   -72.433	    32.404	     5.339
   -86.023	    45.376	    -8.985
   -83.390	    52.582	    14.233
   -74.973	    53.506	     0.652
   -70.301	    34.834	    -6.968
   -78.280	    30.110	    19.979
   -76.536	    60.735	    -3.222
   -68.143	    35.803	     2.648
   -72.135	    17.158	     7.842
   -60.639	    21.880	    -9.642
   -68.997	    14.350	     1.591
   -72.791	    23.605	    -6.747
   -60.478	    32.596	   -12.138
   -70.123	    26.096	     1.148
   -68.661	     8.728	    12.327
   -70.997	    30.678	   -19.902
   -71.607	    52.799	   -20.772
   -84.557	    15.327	    -6.694
   -79.452	    33.842	     5.700
   -69.536	    44.279	    -6.788
   -66.872	    35.745	     0.287
   -69.119	    22.610	    -4.057
   -48.841	    30.102	   -14.648
   -60.413	    28.346	    -8.218
   -66.225	    37.165	   -14.113
   -71.615	    35.993	     0.973
   -79.236	    49.954	    -3.451
   -75.853	    55.590	     2.383
   -66.470	    34.253	     8.732
   -66.518	    28.815	     0.938
   -83.668	    25.051	   -16.646
   -73.056	    29.363	    -6.931
   -91.965	     0.555	     7.029
   -72.810	     1.153	     8.962
   -61.183	     6.049	    10.781
   -71.153	    35.567	    -1.774
   -78.396	    25.603	    14.983
   -64.570	    32.228	    -9.217
   -74.834	    29.086	    -0.459
   -70.261	    39.369	    -4.714
   -65.778	    23.332	    -5.718
   -82.759	    52.012	    12.891
   -73.821	    45.036	     4.051
   -79.437	    33.147	    -5.934
   -74.855	    44.236	    -5.975
   -74.605	    59.952	     6.761
   -72.072	    40.157	    -2.356
   -82.073	    40.135	     7.646
   -75.874	    31.752	    -0.785
   -67.540	    35.803	     6.490
   -66.018	    25.499	    -3.981
   -65.444	    36.055	   -13.782
   -64.151	    45.547	    -3.895
   -66.975	    17.211	     3.931
   -76.037	    27.873	     0.352
   -70.910	    27.666	    -1.725
   -72.558	    16.372	    -0.618
   -65.606	    49.699	     6.121
   -73.064	    53.786	    14.895
   -69.219	    39.160	    -4.391
   -66.496	    62.042	   -17.265
   -72.848	    71.863	   -12.443
   -63.370	    55.667	   -15.019
   -71.889	    37.950	    14.743
   -75.232	    43.902	    -0.697
   -76.003	    15.613	    -2.888
   -75.404	    42.071	     0.500
   -69.433	    20.851	    -0.035
   -81.386	    38.549	     2.390
   -58.693	    37.301	    -7.211
   -74.189	    38.641	    -5.451
   -89.525	    62.230	    17.060
   -73.203	    19.332	   -16.426
   -69.452	    35.798	    -7.706
   -60.296	    33.894	   -13.150
   -69.405	    36.344	   -10.148
   -64.868	    44.705	     5.695
   -75.661	    53.302	     4.365
   -76.917	    45.055	    29.067
   -75.238	    45.046	     2.056
   -72.898	    38.563	     9.382
   -64.509	    37.612	     4.404
   -60.549	    12.687	    -9.920
   -83.539	    28.584	    18.549
   -79.033	    34.455	     5.005
   -82.207	    15.797	    -0.649
   -79.626	    43.799	     1.565
   -75.938	    24.931	   -17.290
   -67.092	    34.586	     5.221
   -57.294	    18.465	    -3.820
   -57.175	    31.876	    -7.429
   -70.023	    37.829	     8.689
   -57.920	    53.752	    -5.624
   -93.163	    62.324	    -5.297
   -68.379	    -2.045	    -0.106
   -69.033	    24.702	    -1.414
