   -92.310	   122.143	    -3.179
   -68.173	     4.094	     7.706
   -42.973	    25.321	    -6.567
   -63.494	   -10.534	    -1.094
   -56.611	    -7.117	    -2.819
   -76.405	    -6.813	     7.977
   -59.823	     4.396	    -2.141
   -79.987	    -7.904	    -0.137
   -73.241	     1.462	    -3.615
   -69.445	     0.758	     1.527
   -63.558	     1.056	    -8.555
   -71.689	    -5.513	    12.554
   -63.191	    -7.248	     7.333
   -71.480	    10.138	     1.758
   -66.976	    -3.612	    -1.492
   -81.488	    12.131	    -0.607
   -77.009	     5.630	     3.803
   -63.562	    -5.950	     2.017
   -70.999	    -0.740	     2.317
   -66.701	    -5.159	     2.620
   -66.866	   -14.216	    -3.780
   -68.066	     6.215	    11.124
   -75.181	     3.753	     4.758
   -67.102	    -5.962	     9.697
   -79.720	   -20.210	     4.648
   -73.084	    -4.281	     4.050
   -70.613	    -9.612	    13.314
   -72.936	     9.403	     5.875
   -65.394	   -13.700	    10.989
   -64.947	   -10.815	    -1.045
   -67.968	   -11.702	   -32.656
   -76.887	   -11.037	     1.972
   -68.529	    -4.389	     3.028
   -60.077	   -10.148	   -10.078
   -69.336	    -1.937	    10.583
   -71.484	   -16.373	    -1.258
   -79.443	   -19.610	    -7.838
   -66.624	   -14.857	   -11.872
   -57.237	   -11.745	     2.971
   -65.369	    -6.611	     3.111
   -67.101	     8.438	     8.760
   -75.473	     7.195	    -7.377
   -74.589	    17.463	    -1.086
   -64.301	     0.046	   -16.002
   -59.047	    -9.235	     3.524
   -70.851	    -4.707	    10.489
   -56.458	    -5.101	   -11.381
   -76.752	   -17.051	    21.307
   -61.656	   -14.702	     3.927
   -82.450	    17.665	    -0.944
   -72.652	    -6.439	    10.085
   -62.742	     2.790	    -6.959
   -87.407	    -5.097	     9.835
   -70.810	    -6.783	    -9.325
   -70.737	     0.820	     9.276
   -75.140	    -7.199	    -5.818
   -66.165	     0.247	     1.186
   -71.739	     1.210	    -2.272
   -74.871	   -15.084	    -1.934
   -61.369	   -18.249	    -7.303
   -74.427	   -11.699	     5.141
   -70.178	     0.610	     7.144
   -74.182	    -5.073	     9.307
   -75.957	    -3.453	    -3.776
   -86.280	    -5.017	    -6.846
   -74.274	    -7.456	     2.533
   -77.604	   -13.174	    12.678
   -73.100	    -6.966	   -17.250
   -69.990	   -13.282	     5.815
   -76.516	   -16.030	     3.420
   -59.059	     3.268	    -9.653
   -61.627	     8.591	     6.652
   -76.875	    -0.003	    10.548
   -63.452	    10.558	    -1.492
   -66.823	     6.355	     1.852
   -73.529	    16.819	    -1.245
   -76.820	    14.584	     1.397
   -79.498	   -14.983	    -4.808
   -63.355	     2.900	    -3.774
   -69.938	     0.587	   -15.556
   -69.206	    -3.933	    -1.233
   -68.246	    22.456	    12.450
   -58.649	     1.738	    -8.521
   -74.282	    -3.228	    10.539
   -67.590	    15.343	     6.770
   -61.110	   -11.765	     3.347
   -71.065	     2.079	     1.933
   -63.568	   -11.042	    -2.970
   -64.921	    -3.841	    -4.781
   -67.838	    13.606	    -9.517
   -69.443	    11.091	    -1.048
   -74.595	    14.372	    -6.698
   -58.023	     0.790	    -8.759
   -67.172	    -7.625	     5.737
   -69.946	    -6.327	    -3.535
   -57.363	   -21.830	     3.118
   -72.673	     9.831	    15.168
   -72.052	     0.364	    -8.992
   -60.771	    -2.768	    -7.107
   -67.762	   -18.454	   -12.587
   -73.569	     4.757	     2.471
   -79.719	     5.159	    22.261
   -78.792	    14.253	     1.294
   -61.990	   -20.639	     3.265
   -52.875	    -7.444	   -25.392
   -52.260	     3.223	     1.002
   -66.427	    -5.733	   -11.917
   -71.181	    10.777	    -0.274
   -65.168	   -12.332	    -1.128
   -64.366	    11.519	    11.060
   -65.136	     0.631	    -2.554
   -70.064	    12.135	    -4.355
   -67.301	    -3.907	    -5.722
   -72.021	    16.625	    -1.718
   -68.280	    -8.847	     4.222
   -66.624	    -2.604	    -5.662
   -83.803	    12.901	    -0.206
   -75.599	    17.164	     0.962
   -59.717	    19.828	    -4.004
   -88.674	    -2.173	     6.790
   -71.286	     4.403	     5.452
   -72.969	     0.080	    15.197
   -68.502	    21.810	    12.172
   -69.085	    -0.766	    -0.530
   -68.720	     0.132	    -0.972
   -81.644	    -1.902	     7.288
   -65.208	     6.644	     3.966
   -67.802	   -11.008	    21.254
   -72.253	   -14.239	     5.312
   -75.483	     0.622	     2.316
   -71.791	     5.069	     9.577
   -67.270	     8.866	     0.133
   -58.679	     6.397	    -2.463
   -69.308	    -1.489	     8.714
   -58.786	   -16.113	     4.442
   -69.414	    -5.473	    18.208
   -58.308	   -12.705	     3.754
   -71.616	    -3.869	     6.359
   -67.428	   -17.382	     1.162
   -67.819	    -4.243	    -3.998
   -64.654	   -22.507	     6.270
   -75.059	     2.532	    -1.545
   -71.155	     1.791	    -2.403
   -66.176	     3.886	    -5.771
   -71.115	    -5.719	     3.446
   -71.172	    -3.459	    -4.171
   -71.590	    -7.142	     5.445
   -65.068	    -8.307	    -1.656
   -65.736	    20.276	     3.741
   -73.184	    14.067	     4.115
   -66.850	    -0.131	    10.792
   -55.555	     5.042	   -19.272
   -72.283	    16.141	    -1.670
   -70.752	    16.554	    -3.361
   -65.818	    -9.909	     5.241
   -64.835	   -13.762	    -4.616
   -62.204	    -8.866	     5.416
   -72.635	    -7.984	    17.968
   -67.898	   -13.323	     3.935
   -62.870	    -0.139	     1.039
   -66.910	    -5.019	     3.754
   -53.472	   -10.557	    -5.107
   -74.809	   -10.480	     9.952
   -54.995	   -11.536	    -8.903
   -77.604	   -10.386	    11.102
   -56.533	    -8.052	    -7.414
   -70.110	   -13.300	    -3.065
   -61.667	     0.467	     4.289
   -64.204	    -1.950	     4.821
   -63.888	   -16.737	     0.455
   -70.419	     3.656	     0.574
   -70.147	   -20.577	     8.724
   -63.936	    -6.292	    11.243
   -70.767	    -2.719	     6.774
   -64.310	    -2.396	    -8.106
   -83.631	    17.264	     6.985
   -78.107	    -0.773	    12.282
   -67.245	    11.040	     1.348
   -74.680	    12.940	    -6.023
   -65.843	    -3.581	     0.904
   -83.466	    17.864	   -13.715
   -58.345	    13.293	    12.092
   -73.745	     7.439	     4.716
   -64.358	   -20.234	     4.847
   -61.896	    12.214	     3.412
   -64.199	    -7.686	   -11.540
   -66.978	   -22.890	    -8.520
   -77.083	    -6.165	    -3.649
   -61.586	    -9.348	    -8.604
   -57.371	   -11.077	     0.617
   -72.018	    -1.086	    13.640
   -70.632	    -7.924	   -20.245
   -60.196	    -5.316	   -15.932
   -66.720	    12.715	    18.154
   -79.511	    -5.154	     3.793
   -69.771	    -3.957	     1.268
   -51.150	   -12.395	   -10.405
   -71.347	   -11.415	    10.660
   -69.224	    -7.322	    13.336
   -72.746	    -0.988	    16.579
   -63.794	    -3.385	   -11.966
   -64.812	   -17.790	     2.333
   -87.736	    -6.780	     9.920
   -57.554	    14.724	     0.708
   -74.185	   -15.317	    -9.265
   -74.730	    -7.763	     8.029
   -63.686	    -4.935	    12.611
   -68.649	   -28.322	    11.770
   -58.509	    31.903	     8.206
   -60.783	     7.182	    14.334
   -69.875	   -11.543	   -20.208
   -80.968	     9.273	     7.552
   -58.664	   -11.660	    13.333
   -72.664	    -0.271	     5.277
   -63.155	     1.502	    18.295
   -60.726	   -10.554	   -14.602
   -65.772	    -7.533	     8.735
   -77.660	   -22.890	     4.277
   -71.877	   -16.623	     7.516
   -79.427	     8.246	    14.249
   -72.145	    20.903	     9.531
   -75.466	     8.967	    12.006
   -73.448	    15.410	     6.486
   -70.694	     0.287	   -16.837
   -75.084	    -8.765	     7.076
   -85.595	    13.088	     5.261
   -77.460	    -7.050	   -16.423
   -59.942	     6.886	    -2.499
   -74.495	     5.723	    -4.552
   -71.639	     0.510	    -0.527
   -79.280	    -1.662	    -0.422
   -65.132	   -18.441	    -0.954
   -71.335	    13.539	     3.068
   -60.484	   -16.522	    -4.700
   -69.057	     3.954	    22.561
   -65.077	     4.795	     2.220
   -79.663	    -6.465	     8.204
   -60.855	     8.520	   -12.923
   -73.701	   -10.813	    -2.230
   -52.034	    -7.602	   -10.377
   -75.083	     4.513	    -2.172
   -69.147	    -6.155	     8.651
   -75.014	   -10.212	     1.096
   -59.674	    -8.335	    -3.892
   -51.902	   -21.938	     3.345
   -73.604	     4.864	     3.433
   -73.433	    -3.532	    17.366
   -69.966	    -7.449	   -16.193
   -73.443	    -0.792	    16.749
   -63.851	    -2.775	     3.116
   -61.320	   -15.192	     8.055
   -73.401	   -13.645	     4.406
   -66.574	   -13.174	     8.720
   -73.487	     3.883	    -4.454
   -67.439	    -2.329	    -3.126
   -67.549	    10.676	    -3.356
   -78.626	    18.626	    -6.218
   -85.121	    -7.682	    13.586
   -68.910	   -14.323	    -7.025
   -63.586	    -7.969	     2.873
   -82.431	     3.392	     5.223
   -67.076	   -10.229	     8.428
   -54.711	   -31.096	   -16.557
   -62.655	    -9.624	   -11.394
   -64.980	   -17.532	     9.578
   -64.627	   -14.563	     6.475
   -63.004	    -8.086	     7.589
   -74.715	   -10.018	     3.577
   -64.788	    -0.956	     6.400
   -84.863	    12.787	     3.439
   -78.513	     4.378	     8.079
   -65.508	    14.515	    -3.892
   -72.010	     6.167	   -16.768
   -68.261	     0.333	   -12.470
   -77.613	   -10.209	   -14.920
   -67.905	    -7.703	     2.418
   -74.189	    15.923	    -6.307
   -76.946	    13.757	    -3.809
   -76.159	   -14.716	     6.500
   -55.386	   -11.149	   -11.369
   -72.422	     0.514	     0.404
   -78.659	     6.392	    13.791
   -87.066	   -10.393	    -2.258
   -62.619	    -9.609	     3.861
   -74.412	    -3.172	    -7.339
   -69.454	    -4.622	    -9.865
   -76.135	   -12.132	     5.764
   -73.787	    -4.128	     6.006
   -74.791	     6.785	     1.517
   -70.879	    -7.117	    11.638
   -65.699	   -22.327	     6.223
   -69.709	   -15.788	     6.893
   -75.099	   -16.945	   -11.542
   -63.445	   -13.202	    -2.924
   -73.493	    -1.262	    19.004
   -67.221	     4.499	    12.579
   -69.171	   -17.526	    -4.775
   -48.356	   -17.745	    -4.122
   -78.255	    -4.779	    -5.555
   -77.760	    -2.892	     8.758
   -74.729	   -11.388	     1.898
   -65.143	    -8.601	   -10.359
   -74.597	    12.110	    -7.857
   -69.291	   -12.855	    -4.569
   -71.622	     0.203	    -4.618
   -74.367	     3.630	    -6.606
   -80.926	    11.171	    15.857
   -69.408	    10.931	    -6.968
   -70.043	   -20.372	    12.460
   -72.793	     8.940	     3.968
   -85.825	    13.866	     6.447
   -59.614	    -3.818	    12.959
   -78.691	     3.296	     2.905
   -59.960	    14.770	   -15.619
   -79.373	     9.073	     0.867
   -76.626	     4.776	     9.827
   -62.112	    -5.999	     2.349
   -75.731	   -14.599	    12.478
   -63.030	    -4.762	     7.851
   -55.629	     3.606	     1.843
   -63.575	    -5.981	   -10.882
   -83.941	     0.428	     2.361
   -68.913	     7.742	     4.734
   -73.872	    27.972	    -1.716
   -67.075	    22.497	    13.799
   -66.880	   -16.935	     9.414
   -71.372	    12.695	    12.796
   -58.334	     5.094	    -0.425
   -67.275	    -3.767	    12.373
   -63.395	     0.029	     9.734
   -56.725	   -10.497	     5.744
   -69.054	    -1.598	    -0.018
   -64.178	    -3.081	    -2.264
   -64.107	     0.762	    -2.012
   -61.325	   -15.209	    -3.633
   -70.595	     8.045	    -8.537
   -58.841	    -6.791	     3.563
   -60.467	   -24.321	     0.933
   -75.826	    -8.696	    10.959
   -60.360	    -1.241	     3.802
   -54.302	   -13.954	   -14.595
   -75.422	    -2.448	    12.141
   -73.421	     8.457	     3.907
   -64.952	    -4.812	   -10.296
   -83.257	   -13.474	   -14.697
   -80.005	     2.502	     9.476
   -68.978	    -5.901	    -5.284
   -76.732	    -0.857	    -3.096
   -78.566	     9.548	    15.090
   -66.699	   -23.408	    -1.589
   -61.529	     6.923	   -20.258
   -71.017	    -1.258	     8.108
   -69.954	    -5.316	     5.575
   -72.499	     6.645	     6.266
   -71.390	    10.067	    13.178
   -71.839	     6.849	     0.434
   -60.879	     9.925	    -7.189
   -73.296	    -9.930	    -4.659
   -71.768	   -13.058	    24.458
   -85.339	    25.857	     3.782
   -68.688	    11.497	    -8.975
   -73.470	   -18.519	    -6.548
   -78.530	    -6.869	    -1.422
   -72.001	    -1.664	     6.360
   -60.474	    -0.967	    10.196
   -74.948	     3.270	    11.718
   -55.504	   -21.901	    -5.315
   -78.821	    -0.553	    -7.302
   -58.017	    -9.786	    -3.010
   -60.054	    -8.501	    10.488
   -67.707	   -12.019	     6.677
   -63.735	     1.751	    -7.109
   -45.740	   -19.155	   -28.031
   -71.531	    -8.028	     2.014
   -68.427	    10.392	    19.244
   -76.065	   -13.349	    13.246
   -67.973	   -19.632	   -12.905
   -65.131	     3.683	     5.210
   -75.002	   -10.389	     8.978
   -79.473	    18.931	     1.288
   -61.651	    11.241	     1.520
   -64.304	     6.760	   -15.535
   -79.566	     5.952	    22.333
   -69.972	   -13.589	    15.419
   -79.345	     0.270	    13.320
   -76.292	    -0.070	    -5.152
   -57.401	    16.386	   -19.799
   -70.537	    -8.427	   -12.085
   -71.100	   -14.664	   -10.050
   -56.893	   -13.534	   -11.321
   -58.520	    -9.331	    -0.009
   -85.562	    15.275	     7.496
   -68.449	    19.811	     6.219
   -69.174	    -8.063	    -3.193
   -72.681	    -6.376	     9.727
   -73.445	    -6.976	    18.613
   -69.132	    -4.072	     2.234
   -62.553	    -4.320	     3.798
   -66.594	   -13.934	    -2.996
   -54.713	   -13.826	    -0.412
   -61.890	    -1.732	     1.978
   -58.683	    -2.835	    -6.378
   -57.508	   -12.474	   -10.245
   -69.850	    -1.217	    -2.878
   -58.064	     1.704	    -7.121
   -68.083	    -4.522	    -0.604
   -85.780	   -15.271	   -12.700
   -72.496	    17.250	   -16.898
   -76.782	     6.092	    -5.098
   -76.197	    36.288	    10.774
   -66.923	     1.590	    -1.216
   -67.857	     6.432	    -1.375
   -78.846	    27.528	    -7.248
   -68.922	    -4.456	     5.624
   -62.491	   -15.061	    -4.613
   -66.547	   -22.355	    -3.438
   -77.429	    -9.057	    -6.626
   -74.113	   -10.998	     4.474
   -73.688	   -17.037	    12.026
   -83.864	    -1.021	   -10.692
   -55.850	   -25.022	    -5.053
   -62.043	    -9.705	   -10.264
   -64.941	   -23.996	     9.617
   -58.863	   -13.444	     3.260
   -74.578	    -8.915	     2.109
   -82.551	   -26.929	    13.143
   -59.697	   -30.715	     3.191
   -73.647	   -12.192	    -6.341
   -66.971	   -13.559	    -7.360
   -67.183	    -8.852	    -3.294
   -72.793	    -7.269	    -3.729
   -70.560	    -3.493	     0.414
   -60.973	    -6.384	     0.116
   -72.759	   -26.110	     0.016
   -80.677	    13.525	     4.481
   -54.385	   -18.537	    -1.998
   -69.964	    -1.171	     1.478
   -65.196	   -14.863	     8.250
   -55.438	   -11.862	    -3.227
   -55.460	   -16.324	    13.722
   -70.477	    -4.228	     5.723
   -83.431	     4.078	     3.904
   -64.723	     6.843	    -0.702
   -64.808	     1.788	    -1.081
   -55.882	   -13.170	     6.604
   -61.001	   -19.766	    -2.229
   -63.109	    -1.772	     5.244
   -66.550	    -8.722	   -10.249
   -62.943	    -2.852	    -6.906
   -63.083	    -5.105	     2.584
   -62.687	     6.570	     6.773
   -61.213	    16.376	   -11.405
   -74.260	    17.560	   -13.140
   -85.317	     4.993	   -19.114
   -81.190	     1.424	     4.484
   -71.307	     2.273	    18.679
   -66.940	     1.733	     1.127
   -79.201	     5.365	    21.826
   -67.109	     0.841	    -7.142
   -50.629	   -13.710	    -0.317
   -66.172	     0.953	    -6.597
   -68.135	    13.922	   -18.581
   -58.753	    -3.485	   -16.508
   -81.422	    -1.142	     6.213
   -62.811	    12.950	    -2.300
   -58.013	     2.101	    -3.088
   -69.749	     7.921	     3.522
   -78.628	     8.152	     2.732
   -73.770	     7.848	    -4.979
   -63.595	    -7.168	    12.256
   -65.566	    -6.584	    16.207
   -59.705	   -17.444	     0.426
   -52.868	    -3.535	     9.585
   -80.738	     7.614	   -13.873
   -63.751	    -7.099	     0.900
   -80.276	    -9.777	    11.291
   -74.820	     4.679	     7.778
   -77.082	     3.880	    10.391
   -64.111	    -7.750	    -2.369
   -57.112	   -11.948	   -14.218
   -75.031	    25.523	     5.771
   -79.269	    15.637	     8.936
   -71.011	     4.697	   -15.450
   -70.276	    -4.944	     9.470
   -62.218	    -6.714	     2.191
   -74.206	    17.426	    -1.664
   -77.016	    12.732	     9.342
   -79.024	     1.028	    -8.463
   -70.554	   -10.436	     4.518
   -58.847	     1.469	    -6.170
   -65.118	    -7.685	     6.031
   -73.984	    -1.599	    15.107
   -65.740	    10.461	    -7.369
   -62.722	    -3.649	    -9.074
   -69.705	   -10.823	    10.927
   -57.342	    -3.564	     2.398
   -55.386	   -12.507	   -16.522
   -76.854	     2.787	   -19.147
   -75.548	    -5.140	     1.321
   -70.823	    -9.459	    -5.181
   -81.736	     5.792	     6.123
   -65.632	   -14.604	     2.420
   -74.416	   -10.313	    -2.996
   -72.145	     1.852	    15.089
   -59.606	    -5.065	     3.473
   -64.064	   -24.752	     4.619
   -74.154	    -7.412	     2.745
   -70.846	    -3.976	    23.936
   -63.279	    13.034	     3.285
   -57.820	   -38.295	   -13.023
   -70.947	     8.103	     5.962
   -73.451	    -0.805	     0.927
   -67.876	   -13.859	    -2.007
   -63.479	    -2.420	     3.730
   -84.020	    -4.126	     6.309
   -76.796	    -0.493	     6.734
   -69.223	    13.840	    -2.531
   -67.638	    -8.946	     7.767
   -57.647	     1.737	     0.909
   -67.790	    13.415	   -16.133
   -61.825	    -0.763	   -13.882
   -65.204	    -9.963	    -3.582
   -71.823	   -17.740	   -15.803
   -78.590	   -18.720	     4.010
   -76.291	    -2.890	     1.498
   -63.112	    -8.075	     1.982
   -74.506	    18.701	     5.093
   -71.915	    16.453	    18.343
   -64.193	    22.195	   -16.849
   -72.199	    -7.257	     4.075
   -72.696	     7.403	    11.319
   -71.638	   -13.656	    -0.991
   -81.697	    13.478	    -5.174
   -82.637	    13.145	     3.836
   -79.236	    24.368	     6.648
   -63.564	    21.151	     4.459
   -68.587	    -2.042	    -5.598
   -58.114	    -1.997	    10.523
   -69.211	    10.162	     0.254
   -57.104	    -4.442	    -3.373
   -50.298	    -4.155	     1.720
   -90.250	    -3.765	     7.211
   -79.569	     1.096	    -3.061
   -75.973	    -6.908	    13.830
   -74.835	    -6.151	    -0.186
   -65.212	    -6.604	     0.010
   -69.473	    -7.951	   -11.781
   -72.467	   -13.152	    18.542
   -76.764	    -5.387	    -8.974
   -75.034	     2.706	     7.355
   -75.770	     3.878	   -10.732
   -58.240	    10.602	    -7.038
   -76.073	    27.976	   -16.790
   -69.850	    17.917	    -1.615
   -71.721	    -0.176	    14.633
   -67.324	   -12.709	   -10.678
   -65.388	   -16.982	    -7.788
   -65.865	   -11.018	    23.400
   -86.388	     3.557	    29.942
   -70.000	   -12.367	    -2.686
   -64.566	   -14.480	    -7.930
   -52.856	   -17.325	   -19.075
   -69.424	    -4.017	     1.396
   -69.508	   -12.637	     6.225
   -71.781	   -10.157	    -5.332
   -64.530	   -10.471	     3.806
   -72.375	     7.263	     4.631
   -77.080	     0.455	    21.280
   -83.018	    22.510	     8.304
   -69.771	    -9.760	     8.368
   -96.270	    15.182	    20.233
   -51.648	    -0.423	    -0.127
   -71.752	    -1.922	    12.864
   -73.526	    -1.495	     2.495
   -71.465	   -22.547	    15.314
   -69.501	   -20.062	     7.983
   -65.124	    -6.798	    -4.798
   -75.265	   -15.060	     0.223
   -67.649	   -11.827	     0.019
   -77.940	    -7.111	     1.069
   -55.144	    -1.441	    -9.533
   -69.427	    26.148	    -0.848
   -58.416	    27.977	   -16.654
   -74.197	     9.838	    -6.718
   -91.172	     1.930	     9.661
   -64.836	    -1.392	     3.862
   -62.219	    -3.161	    -3.650
   -68.798	    -7.549	    -2.682
   -80.021	     7.039	    10.460
   -87.172	     9.304	    22.526
   -69.181	     6.729	    -6.629
   -63.169	     7.172	   -14.596
   -68.427	    22.335	     4.152
   -72.785	    13.844	    15.045
   -73.627	    -6.864	     7.962
   -76.784	    -2.528	    -2.199
   -74.048	     8.454	     2.073
   -65.478	     6.862	     1.690
   -62.297	     4.002	    -1.862
   -61.456	     9.018	    10.736
   -69.413	    -0.941	     3.438
   -75.254	    -7.964	    -4.170
   -56.233	    -5.532	     1.578
   -71.632	   -15.940	   -10.202
   -67.969	     3.425	    -8.055
   -73.876	    17.960	    21.864
   -72.182	    11.666	    14.006
   -72.072	     9.319	    12.666
   -68.162	    -3.349	     3.936
   -80.016	    28.236	    17.826
   -77.878	     5.490	    19.012
   -76.306	     3.138	    17.855
   -72.194	    32.355	    28.145
   -57.436	    -4.886	   -13.550
   -73.728	    14.823	     1.662
   -80.234	    12.328	     5.820
   -60.356	     7.981	    -7.364
   -64.554	    35.129	     3.012
   -66.784	    -6.314	     2.632
   -66.642	    10.797	    -2.568
   -79.080	    -6.099	     1.681
   -73.192	   -12.310	    -4.275
   -59.997	   -25.577	    -1.357
   -69.375	    -3.355	    -0.022
   -80.549	    -6.812	     5.446
   -79.889	   -10.088	    -9.538
   -76.126	    -7.836	     3.406
   -53.530	   -21.083	     3.731
   -70.211	     6.881	    10.817
   -73.685	     2.478	    -1.755
   -52.561	   -12.538	     1.776
   -71.331	    -1.025	    -3.840
   -67.586	    11.803	     2.684
   -62.435	   -15.903	    19.852
   -67.033	    -9.164	     5.344
   -66.146	    -1.368	     9.528
   -56.934	    28.324	   -24.165
   -79.470	     5.634	     0.202
   -55.426	   -30.610	     4.987
   -64.295	   -18.195	    -1.856
   -58.536	   -22.219	    -0.751
   -78.147	    -4.905	     4.138
   -57.592	   -11.673	   -13.363
   -63.327	    -1.691	    19.991
   -67.196	     8.048	    -3.522
   -55.895	   -13.631	    -6.103
   -78.089	     1.356	   -10.034
   -78.287	     4.561	    -0.184
   -77.011	    -2.013	    14.965
   -58.955	   -15.179	    -4.460
   -62.750	    -4.549	    10.315
   -79.112	     7.319	     1.027
   -73.694	     1.894	    -1.004
   -68.262	    -3.665	    11.027
   -62.920	    -2.927	    -0.090
   -59.823	   -14.701	    -4.652
   -57.779	   -11.077	    -0.206
   -73.131	    -4.613	    11.677
   -62.661	   -12.254	    -7.124
   -66.706	    -6.847	     5.522
   -67.161	     5.550	     9.165
   -82.752	    -4.491	     7.862
   -70.919	    -5.132	    -7.560
   -77.418	    23.198	    -3.488
   -86.732	    14.585	    -5.341
   -67.638	     8.061	    -0.204
   -70.432	    -7.632	     0.001
   -79.666	    -6.994	    -2.359
   -65.860	     5.763	    -4.103
   -78.131	    -2.018	    10.810
   -62.606	    12.372	    -5.131
   -62.671	   -17.137	     5.206
   -62.521	    -9.691	    -8.889
   -61.400	    -7.572	    -9.158
   -74.742	    14.689	    11.955
   -56.698	    -6.112	    -2.592
   -54.616	   -10.788	    -8.827
   -70.243	     3.821	     0.423
   -64.843	   -19.791	    -3.049
   -53.353	    -5.344	    -9.787
   -75.927	    16.260	     5.474
   -72.582	    28.077	     1.929
   -65.882	    16.023	    -3.345
   -73.221	    14.640	    24.457
   -71.395	     3.611	     3.230
   -55.028	    -9.296	   -14.481
   -67.976	     0.494	     5.380
   -65.626	     6.741	     6.201
   -73.542	    15.481	     2.726
   -56.870	     0.394	    -0.175
   -56.209	    -0.110	     2.822
   -63.498	    16.482	    -4.473
   -67.347	     6.874	    10.450
   -59.259	     2.488	     5.309
   -63.594	   -10.858	     6.547
   -62.663	   -11.365	    -5.023
   -84.860	    15.374	    -1.909
   -77.108	    -9.372	    -3.219
   -76.672	    -3.924	    25.698
   -70.640	     3.468	     5.475
   -68.005	   -22.866	    -9.729
   -54.260	   -10.855	    -2.280
   -84.270	     8.354	   -14.626
   -72.595	   -16.870	    11.638
   -74.516	    -1.482	     2.046
   -72.420	    -1.283	    -2.675
   -55.290	    -7.015	     4.569
   -67.100	     8.761	    16.344
   -78.320	    -6.775	     3.188
   -64.370	    -3.810	    -6.819
   -70.272	     2.663	     2.566
   -76.988	    -7.023	     4.361
   -46.599	   -14.418	     2.269
   -73.719	    -6.736	     8.225
   -66.291	    -1.990	    28.357
   -80.572	     4.452	   -17.523
   -58.474	    -6.812	    -7.388
   -71.592	    10.744	    -9.384
   -46.500	    -3.125	     1.059
   -69.742	    -6.961	    -6.241
   -57.944	   -10.996	    -4.088
   -56.821	    13.652	    -7.656
   -70.099	    19.773	     3.812
   -71.553	     9.529	     5.781
   -69.701	     3.235	    -1.996
   -77.677	    -4.597	    -3.213
   -48.596	    -7.880	   -12.042
   -72.434	     5.885	    30.494
   -57.361	    -3.679	     8.914
   -64.995	    11.800	   -13.061
   -62.422	    10.294	     5.031
   -68.923	     3.303	    -6.556
   -58.627	     0.057	    -2.128
   -59.866	     2.986	    -0.994
   -55.082	     7.369	    -8.600
   -71.782	     6.409	    -8.606
   -70.039	   -11.246	     1.990
   -67.333	    -7.124	    -7.351
   -70.302	   -21.074	   -17.234
   -80.891	   -15.307	    -9.971
   -70.119	    -9.550	     1.349
   -52.275	   -21.022	   -15.848
   -69.369	   -17.920	     6.525
   -70.254	    -7.206	     3.330
   -67.270	   -13.099	     8.597
   -74.458	    -9.263	    17.457
   -63.137	   -17.695	    -3.959
   -65.739	     1.121	   -12.845
   -62.052	   -17.689	    -8.375
   -73.869	     6.083	    17.601
   -54.840	   -17.597	    -4.191
   -56.972	    10.005	    -2.986
   -63.896	    21.363	   -14.881
   -68.209	    16.605	     8.082
   -80.058	     2.609	     7.304
   -69.373	   -21.471	     7.603
   -78.765	    -8.299	    17.466
   -73.739	   -12.475	    -7.770
   -69.504	   -15.728	     4.445
   -80.766	   -11.145	     4.950
   -60.316	   -20.837	     0.459
   -64.097	    -7.410	   -24.678
   -74.389	     1.294	     9.864
   -78.107	     1.614	   -16.411
   -49.887	   -18.810	     6.918
   -88.430	    -7.099	     5.649
   -81.867	     1.780	    -0.548
   -70.052	    -4.193	     1.601
   -78.109	    -5.136	     3.197
   -73.622	    19.984	     9.890
   -74.814	    -3.147	     0.074
   -62.049	     0.028	    -0.424
   -64.698	    13.442	     7.088
   -63.948	   -14.546	    21.285
   -68.442	    -1.577	    -0.642
   -73.815	   -15.442	     9.473
   -57.613	    -2.131	    -8.521
   -80.168	     8.191	     5.092
   -65.694	    -0.582	    -7.454
   -65.300	   -19.384	   -15.190
   -62.865	    -5.237	     2.227
   -59.379	     4.838	     5.580
   -44.697	   -21.872	    -4.478
   -72.310	     6.871	     0.983
   -79.867	     1.307	     3.855
   -80.170	    -5.469	    -7.150
   -76.327	   -16.585	   -13.091
   -69.568	    -4.058	    -8.927
   -59.560	   -18.589	    -5.998
   -69.354	     1.339	     7.311
   -76.822	     3.970	    13.764
   -73.447	     3.294	    11.093
   -53.801	    -4.430	   -10.477
   -70.715	   -17.313	    -1.792
   -65.957	    13.740	    -1.466
   -66.143	    -8.821	    -4.814
   -69.855	    -9.720	    13.175
   -68.661	    10.473	    12.407
   -75.281	    -5.724	    10.831
   -80.083	     8.357	     4.696
   -74.146	    -3.823	    10.934
   -63.362	    -7.989	    -0.959
   -77.861	    20.062	    -2.941
   -77.851	    17.904	    -5.376
   -63.550	   -12.852	     1.120
   -84.925	    10.255	    19.015
   -58.965	    -4.748	    11.177
   -71.423	    -8.189	    -1.229
   -82.425	    -1.523	     1.571
   -66.405	    -8.659	    -9.736
   -80.524	     7.012	    10.883
   -74.477	    10.976	     1.153
   -63.471	    13.891	    -0.378
   -64.675	    -5.562	   -13.285
   -83.079	    -3.150	    16.827
   -70.346	    15.484	    -6.016
   -97.318	    37.348	   -19.543
   -74.001	     1.262	    -2.175
   -58.373	    -3.698	     5.291
   -76.894	    10.804	    -4.365
   -68.149	   -10.731	    -1.819
   -59.298	    -2.869	     4.715
   -73.217	   -23.124	    10.458
   -75.630	    14.642	     7.361
   -66.733	   -15.561	     2.866
   -69.846	   -15.459	     0.831
   -80.607	   -10.614	     6.915
   -83.886	     9.306	     8.958
   -68.157	    -2.930	   -11.468
   -73.496	    19.241	     4.328
   -56.190	    -0.920	   -28.098
   -70.460	     1.511	    -6.535
   -63.081	   -11.948	     2.761
   -74.720	   -16.495	    -1.668
   -60.701	     5.431	     4.425
   -63.188	     2.473	   -17.499
   -63.552	    -6.594	     3.171
   -74.132	   -26.806	     2.756
   -70.898	   -17.280	    -7.578
   -85.143	     1.931	    19.810
   -64.681	    -8.635	    -6.266
   -60.302	   -16.843	    -2.428
   -66.946	    -4.374	     4.047
   -68.723	     0.956	    10.047
   -63.000	    14.461	     6.901
   -93.369	    -0.152	    -6.978
   -68.838	   -12.584	    12.463
   -63.675	     8.006	     0.652
   -80.056	     8.344	     5.202
   -70.302	     7.609	    -4.282
   -76.354	    12.322	    -0.582
   -72.139	     6.637	     2.648
   -72.031	     3.504	    10.848
   -69.859	   -12.270	     5.364
   -64.106	     4.873	    -4.447
   -73.477	     9.913	     1.747
   -79.438	    16.997	     6.921
   -68.058	    16.003	    -6.831
   -66.969	     0.437	    -4.879
   -65.703	    13.793	     2.793
   -73.802	     8.101	    -3.991
   -62.473	    -8.640	     6.928
   -55.481	   -19.890	   -16.001
   -66.609	    17.530	   -11.420
   -68.363	     0.439	    -2.750
   -73.478	   -14.613	   -10.137
   -64.258	    -2.132	    -0.330
   -76.777	     9.207	    -1.165
   -60.536	   -14.079	    10.514
   -48.594	     8.049	    -2.090
   -67.804	     4.158	    -4.001
   -59.567	     5.372	    12.692
   -83.212	     3.902	    19.767
   -73.100	    11.524	     1.604
   -57.957	   -15.950	     0.427
   -65.425	   -14.498	    -3.442
   -67.561	    -5.230	   -13.753
   -67.339	    -4.557	     3.951
   -77.670	    -2.965	     7.924
   -81.925	     1.279	    15.303
   -71.947	   -16.581	    18.056
   -61.661	     4.237	    -0.287
   -77.664	    22.006	     3.915
   -62.957	    22.657	   -13.228
   -61.726	     9.290	   -17.120
   -63.688	     1.553	    -7.872
   -86.872	     4.455	     3.669
   -64.750	     1.895	     9.906
   -76.225	    14.891	     7.270
   -67.742	   -21.206	   -11.814
   -58.215	   -26.541	     8.956
   -75.468	   -10.021	    -2.101
   -72.135	     2.829	     6.802
   -76.552	    11.818	     5.351
   -77.061	     7.435	     6.062
   -78.197	    -4.207	    -4.707
   -79.032	    10.535	     0.289
   -69.032	    -4.287	     5.436
   -58.136	    -2.593	    -9.479
   -68.934	     2.057	    -8.890
   -74.474	     7.455	    10.567
   -75.564	    -8.082	    10.079
   -64.002	     7.878	    21.066
   -57.925	    -8.964	    13.493
   -68.022	   -15.172	    -0.632
   -72.571	     4.889	     2.445
   -68.121	    -7.906	     5.512
   -72.269	     0.303	    -4.119
   -71.564	    20.723	     6.050
   -62.573	   -13.216	     8.165
   -75.988	   -12.895	     6.600
   -83.590	    14.356	     0.976
   -58.925	    20.800	    -8.876
   -78.735	     5.504	    -0.098
   -77.000	     1.219	     8.627
   -75.689	   -19.526	    14.085
   -76.736	     3.971	    11.739
   -69.573	    -3.970	    -3.419
   -54.988	   -17.349	     0.949
   -72.215	   -22.339	     3.810
   -64.675	   -21.593	   -10.806
   -59.941	    -2.110	     5.875
   -73.958	    -2.094	     8.024
   -55.136	   -18.977	    -5.173
   -61.821	     6.583	    10.796
   -77.363	    -7.899	    13.560
   -66.150	    14.179	     3.357
   -67.017	   -10.114	     8.024
   -65.609	   -22.340	    15.783
   -66.933	     3.112	    11.371
   -71.678	     1.524	    11.296
   -77.775	   -14.063	    21.283
   -65.045	    -3.443	     6.319
   -57.476	   -13.662	    -7.016
   -58.400	    -1.927	    -7.580
   -65.326	    12.618	    -1.231
   -69.596	    20.116	   -16.825
   -59.265	    32.763	   -16.054
   -64.476	    15.016	     1.530
   -64.962	   -10.770	    -3.440
   -67.676	   -21.626	     1.223
   -70.502	    -8.316	    -3.547
   -65.927	     8.280	    -5.163
   -61.295	    -3.224	    -4.000
   -71.261	    -1.954	    22.678
   -64.600	    -7.127	    14.448
   -65.771	    -1.421	    22.596
   -66.468	   -10.919	     1.182
   -77.838	   -12.342	     5.287
   -66.186	    -7.594	     6.884
   -63.003	    13.767	    -6.873
   -69.109	    12.389	     3.335
   -65.009	    12.314	    -7.786
   -73.248	    36.148	     0.783
   -71.756	    -6.898	    -3.370
   -55.597	   -10.310	     6.692
   -66.668	    -7.707	    17.722
   -60.482	   -14.239	     6.436
   -71.223	     9.399	    -9.640
   -66.689	   -15.928	     0.645
   -77.745	    -3.330	    11.547
   -73.409	    19.837	     5.981
   -80.603	    -7.934	     3.588
   -65.349	   -18.132	    13.497
   -66.883	     0.061	     5.420
   -70.218	    -5.635	     3.750
   -72.725	     2.676	    -7.325
   -66.716	     2.793	     5.472
   -74.090	     2.403	    13.098
   -66.487	   -11.977	     2.968
   -81.217	    -4.954	    13.150
   -66.909	    -5.122	    -8.340
   -66.806	    -0.183	     9.984
   -64.283	     3.466	   -14.050
   -53.030	   -11.411	   -16.557
   -74.334	    14.739	     0.807
   -66.696	    -2.359	     2.754
   -56.954	     0.428	     9.205
   -63.020	   -21.015	    -3.456
   -61.068	    -6.317	    -1.322
   -67.272	     6.539	     1.454
   -65.489	   -17.889	    -9.880
   -60.433	    10.310	     3.070
   -60.397	   -14.617	    17.363
   -71.423	   -16.238	    14.339
   -76.185	     6.515	    12.528
   -78.622	    -3.066	    16.526
   -53.387	     0.513	    -7.068
   -73.075	     0.152	     4.237
   -66.536	    -2.911	     7.540
   -67.887	     9.344	    10.931
   -72.878	     6.490	    11.226
   -77.486	    -7.037	     6.469
   -67.316	     0.438	   -10.221
   -71.496	    18.826	    -1.319
   -68.480	    34.576	    -5.300
   -86.517	   -18.596	    -5.723
   -81.648	    -6.116	    -6.629
   -71.658	   -15.885	    -1.251
   -72.270	    -0.129	    -9.816
   -62.382	   -14.510	     9.851
