   -92.310	   122.143	    -3.179
   -92.584	  -162.926	     7.390
   -86.540	  -171.308	    -4.282
   -68.814	   178.265	    -0.537
   -77.030	   168.513	    13.042
   -83.566	   179.102	     5.122
   -82.273	  -173.974	     9.936
   -75.968	   171.698	   -10.006
   -87.016	  -137.075	   -18.324
   -96.882	   178.888	    -9.088
   -85.041	  -176.811	    -2.741
   -89.745	  -175.355	    -4.622
   -78.545	   178.274	    -8.483
   -78.860	  -177.112	    15.606
   -85.374	  -154.247	    -6.543
   -76.918	  -167.713	   -10.921
   -82.467	  -166.153	   -17.720
   -87.835	  -163.706	    -5.795
   -89.994	  -132.689	    -6.885
   -81.656	  -165.352	    11.775
   -97.444	  -152.498	   -16.991
   -80.151	  -179.068	    10.201
   -82.455	  -152.994	    -0.767
   -66.743	  -123.870	     4.180
   -84.158	   177.127	   -16.705
   -82.941	  -147.631	   -11.950
   -87.633	  -159.038	     0.079
   -70.635	  -173.187	   -11.046
   -99.970	  -148.915	    -7.492
   -80.096	  -164.698	    -8.240
   -98.527	  -146.324	    -6.156
   -74.387	  -156.903	    -8.958
   -85.160	  -134.005	   -35.202
   -93.203	  -157.445	    -5.653
   -77.929	  -160.849	   -20.024
   -89.502	  -162.194	    -9.952
   -82.927	  -160.385	    -5.180
   -87.966	  -157.852	    -1.031
   -87.466	  -153.838	     1.535
   -80.557	  -162.954	   -23.035
   -77.649	  -175.591	     2.552
   -82.485	  -135.594	     1.594
   -99.085	  -176.341	     7.531
   -80.482	  -167.343	   -16.933
   -78.830	  -175.844	   -24.182
   -73.513	  -168.537	   -12.779
   -86.038	  -163.906	     6.483
   -82.165	  -178.550	   -20.131
   -80.363	  -156.780	   -12.475
   -77.296	  -168.446	    -4.643
   -90.778	  -168.339	    -8.204
   -89.586	  -172.679	     6.144
   -75.500	  -179.837	    -2.723
   -82.964	  -155.751	   -10.689
   -88.707	  -163.746	     9.636
   -91.467	   178.377	   -10.535
   -72.836	  -169.472	   -10.567
   -83.150	  -164.711	   -18.976
   -86.725	  -173.963	    -7.880
   -97.390	  -159.455	     1.121
   -97.589	  -175.584	     3.318
   -92.520	  -157.111	   -13.680
   -95.616	  -172.910	     8.866
   -81.821	  -158.847	     9.434
  -104.249	  -161.272	     3.923
   -72.166	   177.631	    -8.892
   -77.621	  -174.232	   -11.069
   -90.201	   175.178	     1.947
  -100.133	  -154.174	   -11.433
   -76.893	  -160.712	     5.801
   -81.416	  -159.415	    -6.140
   -90.118	  -143.936	   -22.395
   -77.000	  -158.233	    -1.941
   -91.853	  -154.491	     3.480
   -76.719	  -170.644	    -5.332
   -62.100	  -174.277	   -29.815
   -67.712	   179.985	    -8.802
   -69.547	  -175.146	   -21.767
   -86.503	  -152.367	    -7.777
   -89.264	  -166.448	    20.677
   -83.883	  -164.527	    -1.669
   -74.059	   174.177	    10.933
   -82.919	  -159.216	     6.326
   -93.194	  -159.884	   -10.933
   -79.808	  -173.469	   -15.086
  -101.337	  -125.184	    -2.900
   -81.020	  -165.440	    -4.648
   -82.772	  -162.884	   -24.184
   -97.407	   178.516	     7.420
   -85.044	  -165.979	    -7.192
   -89.395	   171.291	     3.855
   -94.913	  -165.258	   -13.075
   -89.610	  -151.355	   -10.426
   -82.721	  -138.034	    -8.162
  -104.636	  -135.737	     9.581
   -74.065	  -160.392	     0.238
   -88.958	  -130.777	     3.658
   -81.140	  -168.305	   -17.509
   -79.580	  -174.758	    -0.673
   -95.559	   177.395	    -4.561
   -74.092	  -173.754	     5.691
   -69.773	  -176.980	    -0.329
   -92.171	  -159.543	     3.540
   -93.386	  -155.085	    -9.883
   -65.614	   179.231	    -3.617
   -78.146	  -167.123	   -12.939
   -99.768	  -127.937	     9.856
   -71.536	   170.328	     0.681
   -65.828	  -176.988	    -5.619
   -79.748	  -165.341	    -7.171
   -76.644	  -176.711	     4.119
  -102.523	  -166.245	   -11.851
   -95.987	  -151.423	   -17.470
   -88.012	  -167.537	   -14.380
   -86.319	  -170.568	   -11.840
   -71.265	  -163.806	    -0.126
   -90.062	  -163.226	    29.509
   -77.404	  -160.618	    -1.149
   -82.200	  -151.282	   -15.996
   -82.185	  -168.188	    -7.935
   -82.494	  -166.391	    10.309
   -86.345	  -157.301	     7.946
   -73.601	  -155.494	    -4.566
   -74.990	  -161.308	   -19.803
   -88.867	  -162.690	     0.349
   -93.675	  -163.035	     6.584
   -70.471	  -172.987	    -3.296
   -83.451	  -165.959	    -5.176
   -86.709	  -166.870	    -9.151
   -96.572	  -164.284	    -1.862
   -80.007	  -170.693	    -1.941
   -77.120	  -125.776	   -12.720
   -79.353	  -163.664	     1.569
  -106.834	  -175.284	   -17.048
   -82.249	  -174.110	   -33.703
   -69.161	   170.566	    -4.429
   -92.822	  -169.026	   -16.534
   -69.939	  -163.586	    -2.406
   -74.893	  -128.273	   -17.351
   -92.803	  -155.536	   -11.157
   -85.533	  -173.577	    -1.143
   -79.727	  -166.546	     3.871
   -98.482	  -166.544	     5.971
   -92.648	  -159.930	    12.750
   -65.065	  -169.720	     2.681
   -71.834	  -162.448	    -5.837
  -101.301	  -158.670	     0.471
   -83.268	  -168.844	    -1.423
   -88.413	  -131.023	    -5.133
   -87.045	  -138.542	    -5.479
   -82.110	  -155.470	    -9.334
   -92.955	  -150.190	    -0.746
   -85.889	  -169.146	    -7.286
   -84.008	  -148.520	   -13.232
   -73.773	  -135.191	   -13.127
   -88.773	  -146.965	     0.032
   -81.916	  -166.033	    -6.228
   -71.672	   172.333	    -9.120
   -83.364	  -147.147	     9.407
   -75.717	  -164.624	   -10.950
   -75.524	   174.937	    -7.756
   -93.401	   175.354	    -2.257
  -102.281	  -158.987	    -2.652
   -83.585	  -174.490	     0.939
   -88.359	   177.978	   -13.370
   -91.240	  -171.297	     4.055
   -84.535	  -160.732	    -4.864
   -83.049	   177.613	   -13.844
   -70.244	   175.212	     2.653
   -88.093	  -171.474	    -1.386
   -78.681	  -176.094	    -6.528
  -113.817	  -160.632	    -2.835
   -74.580	  -171.977	    -4.324
   -93.535	  -152.459	   -12.444
  -108.654	  -156.621	   -17.026
   -92.994	  -155.768	   -17.702
  -106.661	  -157.021	   -13.821
   -82.778	  -170.673	    -8.116
   -96.742	  -177.454	   -17.338
   -86.841	  -152.024	     5.521
  -101.848	  -152.953	     8.653
  -100.457	   173.487	    18.626
   -73.721	  -171.765	   -12.181
   -72.654	  -167.710	    -8.397
   -89.857	  -146.139	    -6.724
   -72.307	  -163.362	    -9.703
   -72.003	  -158.614	   -10.141
   -89.376	  -159.245	     7.703
   -85.583	  -147.329	   -11.788
   -95.627	  -148.157	    -1.624
   -81.509	  -172.911	     9.168
   -72.011	  -173.208	   -10.813
   -92.487	  -144.129	    -3.520
   -96.992	  -156.571	    -4.799
   -89.703	  -143.461	     6.566
   -79.383	  -146.001	    -2.000
   -80.256	  -153.438	    -7.475
  -100.497	  -170.521	     2.986
  -107.598	  -161.136	    -3.826
   -71.180	  -173.262	    -1.487
   -79.697	  -177.765	    -5.106
   -76.931	  -167.440	    -6.036
   -91.866	  -146.151	     5.767
  -104.937	  -145.724	    15.594
   -71.149	  -171.242	   -14.574
   -60.340	   176.333	    -4.435
   -76.828	  -173.151	    -1.146
   -83.014	  -162.004	   -12.563
   -93.140	  -155.660	    -8.727
   -68.431	  -132.714	   -14.519
   -81.200	  -142.145	    -4.557
  -105.480	  -170.150	     3.689
  -112.548	  -152.322	    -2.734
   -88.264	  -141.465	     5.676
   -70.257	  -166.718	    -8.470
   -82.357	  -137.854	    10.223
   -87.380	  -157.648	    10.115
   -91.672	  -149.290	    -0.763
   -95.316	  -156.268	    -8.203
  -117.665	  -139.998	     2.176
   -81.157	  -163.775	   -23.147
   -93.030	  -154.610	    17.582
   -81.730	  -167.252	     0.566
   -76.227	  -138.877	     0.279
   -92.862	  -174.338	    -2.853
   -85.030	  -178.218	    -3.507
  -101.026	  -151.380	     3.880
   -74.337	  -150.499	   -18.134
   -86.035	  -147.689	    -5.342
   -93.321	  -161.359	     0.877
   -91.938	  -176.761	   -15.932
   -84.262	  -165.682	    10.881
   -57.123	   178.755	     2.643
   -86.508	  -157.714	    -0.828
   -71.259	  -166.811	     7.990
   -72.866	  -159.408	    -5.584
   -73.558	   177.357	     8.427
   -74.846	  -172.884	    -3.146
   -87.409	  -148.676	     4.145
   -89.985	  -160.197	    -2.671
   -85.687	  -174.719	   -22.311
   -89.708	   179.478	   -21.244
   -93.622	  -161.075	    -9.606
   -77.890	  -175.937	    -8.539
   -94.030	  -168.407	     4.834
   -86.293	  -159.412	     2.084
   -73.327	  -152.316	   -18.216
   -73.427	  -152.213	   -13.409
   -78.092	   178.918	    10.623
   -99.187	  -164.403	    18.492
  -109.596	  -146.703	    14.230
   -83.864	  -153.229	    -7.424
   -86.853	  -169.136	   -15.333
   -83.660	  -173.270	    -6.844
   -80.571	  -149.866	   -13.283
   -65.685	  -178.403	    -4.591
   -82.792	  -177.298	    -4.079
   -95.889	  -152.228	    11.875
   -96.407	  -171.465	     4.403
   -84.090	  -159.282	     1.447
   -84.494	  -170.994	    13.031
   -61.978	   165.505	    -9.431
   -84.742	  -176.264	   -10.797
  -110.467	   172.904	    22.995
  -104.604	  -167.532	     9.191
   -85.238	  -166.932	     2.269
   -86.326	  -175.780	     1.239
   -93.100	  -165.612	    21.530
   -82.507	  -167.522	   -10.689
   -74.833	  -145.744	   -18.082
   -87.722	  -167.060	    -2.451
   -75.877	  -171.568	    10.647
   -73.752	  -160.221	    -8.141
   -78.075	  -175.401	     8.931
   -68.346	   168.026	   -11.832
   -84.124	  -162.580	   -17.573
   -79.607	  -175.557	    11.095
   -86.307	  -176.068	   -10.829
   -60.602	  -143.790	   -21.931
   -79.686	  -149.299	    -1.147
   -77.379	  -176.145	    -4.525
   -69.687	  -170.889	     6.980
   -88.701	  -157.199	   -11.858
   -56.132	   167.802	   -24.501
   -97.399	   177.284	    -6.697
   -71.517	  -178.483	    -1.748
   -74.215	  -164.502	     4.590
   -60.603	  -178.547	     4.361
   -99.976	  -176.896	     1.427
   -80.921	  -173.156	    -0.459
   -74.820	  -178.636	     2.196
   -91.887	  -147.205	     2.299
  -105.571	  -178.599	    10.610
   -97.470	  -168.519	    12.233
   -93.871	  -171.137	     4.102
   -81.857	  -140.382	    10.116
   -96.140	  -150.307	   -18.245
  -100.058	  -150.660	    -1.130
   -92.620	  -150.065	    -1.952
   -77.988	  -145.100	     2.688
  -102.734	  -155.538	    -6.321
   -70.037	  -166.405	   -17.976
  -102.668	  -162.212	    -0.259
   -88.571	  -170.577	     2.873
   -82.823	  -160.944	    -3.039
   -97.304	  -173.502	     6.647
   -69.734	  -170.985	    -8.630
   -86.090	  -156.883	   -11.862
   -81.287	  -157.096	     1.565
   -78.339	  -167.616	    -2.844
   -80.475	  -161.499	     4.715
   -75.151	  -179.211	    -2.597
   -86.337	   175.127	    -5.454
   -73.168	  -179.654	   -25.517
   -92.195	  -173.095	   -12.507
   -96.404	  -166.875	    -0.765
   -81.961	  -163.747	   -19.455
   -76.428	  -161.464	    10.212
  -101.817	  -142.056	     0.746
   -81.659	  -148.699	    -6.101
   -91.659	  -171.163	    10.619
   -77.768	  -148.727	   -20.653
   -84.066	  -174.960	     1.894
   -79.251	  -168.301	    -0.633
   -86.701	  -177.617	    -6.049
  -107.607	  -167.432	     6.143
   -87.888	  -165.875	    -5.303
   -85.153	  -164.511	   -17.604
   -89.681	  -164.560	   -11.987
   -88.367	  -147.934	     1.399
  -104.752	  -158.295	    -1.287
   -88.725	  -129.250	     7.023
   -91.880	  -159.882	     0.387
   -85.621	  -168.701	   -15.320
   -70.912	  -167.881	    -6.138
   -85.453	  -152.583	   -11.251
   -87.183	   176.732	   -22.701
  -102.612	  -135.767	    -2.528
   -77.379	  -156.778	     2.665
   -99.456	  -157.493	     7.015
   -96.041	  -151.998	     4.426
  -105.432	  -149.939	    -1.314
   -93.636	  -152.117	    -2.114
   -78.207	  -162.359	     1.041
   -85.793	  -179.739	     3.513
   -77.684	  -147.496	    -0.476
   -88.354	  -171.353	    -1.137
   -83.783	  -163.660	    -2.134
   -93.984	  -163.471	    -3.275
   -80.129	   179.035	    -0.323
   -74.132	  -160.322	     4.600
   -75.145	  -169.964	     5.286
   -81.076	  -158.872	    10.714
   -76.547	  -159.070	     0.699
   -85.315	  -139.741	     4.169
   -77.981	  -176.149	    -9.972
   -87.464	  -153.141	    24.460
   -82.670	  -143.093	    -3.819
   -80.232	  -149.427	    -2.087
  -108.127	  -148.718	    10.400
   -85.658	  -149.588	     8.840
   -95.126	  -132.011	    22.121
   -85.399	  -161.213	   -10.118
   -80.010	  -151.605	   -18.391
   -82.168	  -177.503	    -6.900
   -74.605	  -172.736	    -0.363
   -75.099	   173.029	     1.422
   -85.939	  -162.467	     7.643
   -89.173	  -165.557	   -22.260
   -90.207	  -159.534	     4.104
   -82.438	  -157.833	     7.571
  -102.838	  -159.007	    18.109
   -80.318	  -158.053	     2.957
   -65.962	   179.711	    -3.795
   -88.127	  -163.364	    11.501
   -87.582	  -159.846	    10.846
   -85.879	  -160.101	    -2.705
   -98.074	  -169.069	    -9.515
   -72.902	  -170.444	    -3.328
   -99.412	  -151.996	    12.305
  -107.230	  -125.160	     7.912
   -85.040	  -159.232	     5.869
   -93.285	  -160.428	    21.274
   -84.528	  -179.490	    -2.433
   -92.287	  -170.410	    10.069
   -78.498	  -177.211	    -5.419
   -68.485	   162.603	   -20.707
   -72.626	  -161.228	     0.442
  -107.630	  -170.966	    -4.945
   -98.900	  -161.221	     1.472
  -110.402	  -170.148	     3.314
   -96.565	  -165.127	     1.446
   -81.327	  -178.117	    -7.136
   -99.612	   172.543	    19.054
   -90.847	  -171.163	     2.861
   -69.279	  -143.692	   -23.500
   -82.530	  -161.749	    -8.364
   -80.851	  -151.255	    -6.565
   -95.431	  -163.727	    -6.827
   -79.718	  -170.155	    -9.616
   -92.369	  -146.193	    10.109
   -80.944	  -135.971	    -7.284
   -77.958	  -156.743	    -8.032
   -80.609	  -155.274	    -0.961
   -82.908	  -175.350	     8.004
   -80.223	  -145.184	     8.112
   -79.465	  -158.092	    -8.390
   -93.095	  -152.552	   -10.031
   -85.995	  -167.266	   -15.838
   -75.693	  -150.174	   -19.041
   -80.163	  -158.590	     0.747
   -71.523	  -176.647	    -6.227
   -72.033	  -154.261	   -10.358
   -91.491	  -149.572	    -5.704
  -105.336	  -162.054	     1.707
   -98.575	  -142.296	   -25.795
   -86.864	   163.337	    -9.137
   -76.538	  -163.906	    -3.466
   -72.201	   179.757	   -17.434
   -96.069	  -173.419	    21.316
   -82.800	  -174.650	     0.564
   -79.363	   170.834	     8.725
   -75.668	  -173.606	     8.179
   -69.689	  -147.328	   -13.660
   -86.773	  -144.516	   -18.314
   -85.450	  -145.273	   -12.459
   -75.184	  -158.197	    -4.933
   -97.225	  -128.574	   -18.561
  -100.449	  -151.574	    -6.816
   -70.072	  -174.132	    -7.659
   -98.514	  -159.260	     5.244
   -79.830	  -170.996	    -2.458
   -99.085	  -120.921	    -1.494
   -77.249	   177.025	     5.291
   -95.894	  -149.794	    -4.128
   -88.704	  -154.917	   -15.306
   -99.335	  -168.381	     2.518
   -77.864	  -143.772	   -11.946
   -80.557	  -175.712	    10.634
   -74.339	  -144.266	   -10.932
   -82.425	  -167.089	    -6.498
   -81.898	  -160.963	     3.690
   -84.927	  -163.027	    -0.708
   -95.624	  -162.811	    -7.093
   -90.154	   176.236	    -7.709
   -94.052	  -155.872	   -13.656
   -77.859	  -157.994	    -6.168
   -76.920	  -165.668	    -7.835
   -97.261	  -162.083	     3.538
  -108.418	  -168.177	    -2.818
   -80.643	  -170.497	   -18.087
   -74.927	  -161.833	   -19.205
   -90.809	   177.381	   -17.598
   -89.270	  -166.005	    -1.367
   -76.249	  -168.322	    -3.951
   -88.325	  -156.077	    17.660
   -81.452	  -164.502	     7.037
   -94.099	  -160.550	   -19.759
   -92.376	  -153.253	    -2.817
   -88.662	  -165.655	     8.447
   -99.883	  -156.216	    -6.761
   -81.374	  -162.651	     6.776
   -92.288	  -131.184	    -1.282
   -75.600	  -174.724	    -8.050
   -74.232	  -138.247	    -8.776
   -77.304	  -171.610	    -2.545
   -71.799	  -166.514	    -6.917
   -72.618	  -161.951	    -0.487
  -101.904	  -174.818	    16.015
   -91.525	  -146.392	    11.035
   -89.811	  -159.361	     1.653
  -100.436	  -157.404	    -8.066
   -98.295	  -163.178	     1.246
   -77.061	  -146.928	   -15.164
   -87.594	  -164.679	   -15.868
  -100.062	  -149.987	    -6.242
   -88.208	  -171.987	    -4.044
   -91.997	  -167.697	    12.870
   -83.221	  -173.347	    -8.812
   -81.234	  -172.539	     2.710
   -87.450	  -167.182	    -1.650
   -68.233	  -177.888	    -8.425
   -91.373	  -146.643	    -3.390
   -86.562	  -177.568	   -10.960
   -80.592	  -176.766	    -8.796
   -87.913	  -138.453	    -4.395
   -87.091	  -146.229	    12.445
   -82.316	  -172.890	    -4.722
   -83.558	  -173.945	   -16.206
   -85.503	  -148.289	     4.063
   -62.974	  -161.717	   -17.671
   -86.799	  -141.339	    10.146
   -86.830	  -152.316	    -3.361
   -98.140	  -151.176	     6.112
   -92.466	  -171.748	    -5.914
   -88.147	  -159.073	    -1.768
   -83.249	  -150.840	    -3.255
   -83.665	  -166.594	    21.948
   -69.481	  -159.414	     3.452
   -88.328	  -172.562	     4.841
   -82.404	  -147.030	    10.639
   -77.346	  -162.159	   -19.767
   -77.004	  -158.690	    -9.996
   -81.458	  -170.759	    -5.122
   -68.861	  -160.969	     1.072
   -88.702	  -161.371	     1.957
   -89.733	   179.474	     3.930
   -93.113	  -177.212	     4.774
   -73.988	   177.644	     3.955
   -90.139	  -153.549	    -0.799
   -86.524	  -152.575	    -8.995
   -89.399	   177.360	    -8.253
   -56.964	  -168.339	    -8.561
   -71.071	  -163.168	    -9.312
   -76.475	  -150.743	   -22.018
   -92.207	  -145.565	     1.654
   -88.759	  -143.090	     1.354
   -88.580	  -155.641	    -4.304
   -82.476	  -140.656	    -9.688
   -79.742	   179.594	   -29.144
   -75.543	  -174.071	   -19.626
   -78.444	  -163.633	    -8.678
   -79.687	  -172.627	    -8.548
   -84.079	  -169.636	    13.739
   -90.942	  -151.540	     1.281
   -84.166	  -173.956	    -4.665
   -73.022	  -175.517	     1.587
   -68.882	  -177.151	    -6.920
   -81.963	  -156.203	    -9.863
   -86.593	  -164.233	     0.995
   -91.101	  -163.151	   -15.709
   -91.812	  -163.625	     6.974
   -80.555	  -165.972	     7.474
   -81.433	  -168.726	    13.745
   -82.799	   179.553	     4.857
   -83.723	  -169.143	   -11.363
   -87.839	  -160.779	     2.679
   -88.938	  -154.271	   -10.890
   -97.019	  -154.020	    -9.905
   -76.667	  -158.581	   -11.966
  -107.311	  -148.704	   -19.777
   -62.493	  -149.459	   -25.103
   -98.207	  -143.176	    -8.074
   -77.874	  -135.827	     6.825
   -95.286	  -172.153	    14.060
   -74.074	  -157.397	    -0.583
   -87.799	  -177.222	    14.538
   -85.495	  -171.995	   -11.308
  -112.520	  -159.377	    -2.962
   -80.026	  -167.138	   -22.626
   -77.958	  -152.678	   -13.699
   -96.538	  -166.326	   -14.475
   -88.370	  -155.213	    -9.492
   -95.141	  -156.615	    -0.711
   -78.035	   173.575	    -2.902
   -78.176	   176.275	    -5.132
  -109.031	  -170.176	     8.665
   -87.450	  -175.254	   -13.546
   -72.515	  -171.598	    -2.783
   -87.150	  -166.186	    -4.800
   -69.560	  -169.556	   -14.623
   -79.992	   178.410	     6.771
   -88.852	  -141.778	     6.372
   -85.813	  -165.177	    10.344
   -85.496	  -172.648	    12.664
   -87.160	  -145.743	   -25.509
   -73.988	  -164.432	   -12.065
   -84.244	  -150.280	     2.525
   -73.586	   179.824	     0.774
   -83.134	  -152.933	     0.104
   -89.019	  -179.242	    -3.860
   -70.024	  -175.781	    -6.748
   -94.807	  -167.167	    10.441
  -110.238	   176.618	   -11.283
  -101.163	  -175.404	   -25.051
   -91.395	  -177.036	    -2.126
   -99.640	  -163.512	   -25.850
   -91.069	  -158.069	   -10.090
   -86.629	  -149.077	   -12.049
   -91.079	  -149.622	    -8.706
   -77.322	  -166.081	   -17.387
   -88.947	  -163.221	    -0.136
   -80.421	  -135.073	     3.089
   -84.668	  -155.694	   -10.532
   -78.596	  -157.514	    -4.174
   -78.926	  -179.446	   -15.865
   -76.204	  -160.076	   -22.103
   -70.189	  -156.038	   -19.517
   -88.816	  -159.051	   -10.980
   -96.928	  -176.523	     4.912
   -74.748	  -170.077	    -3.769
   -78.187	  -153.059	     7.885
   -81.297	  -176.118	    -6.306
   -88.524	  -159.835	    -7.153
   -73.541	  -176.791	    -7.273
   -76.808	   178.243	    -2.447
   -88.986	  -159.132	    -1.247
   -91.160	  -158.423	    10.381
   -94.638	  -176.140	     0.520
   -74.351	  -163.832	   -10.077
   -71.454	  -150.158	    -7.574
   -77.612	  -153.081	   -10.267
   -86.133	  -148.060	    -5.235
   -79.178	  -141.786	   -23.328
   -89.045	  -158.237	    -4.285
   -64.304	   174.497	   -20.036
   -81.609	  -171.062	     2.766
   -82.803	  -168.053	    -8.436
   -79.486	  -162.019	    12.656
   -91.245	  -174.484	     6.640
   -78.947	  -173.739	   -10.993
   -88.124	  -154.565	    -7.631
   -81.676	  -159.120	   -15.359
   -80.925	  -151.938	    -0.890
   -85.696	  -145.445	    10.156
   -74.247	  -154.730	     0.200
   -81.438	  -162.122	    11.917
   -93.838	  -167.824	    -6.533
   -80.737	  -177.480	     2.713
   -87.856	  -145.331	   -26.988
   -86.572	  -147.939	    12.987
   -85.849	  -164.994	   -14.986
   -56.441	  -160.433	   -18.927
   -70.376	  -157.476	   -18.306
   -83.184	  -174.478	    12.532
   -74.091	  -153.431	    -1.696
   -77.231	  -169.277	     4.080
   -73.985	  -167.443	    -3.243
   -73.640	  -158.124	    -4.901
   -77.587	  -160.352	     0.067
   -90.228	  -161.869	    -0.934
   -88.508	  -159.523	    -8.309
  -103.483	  -155.000	     2.581
   -90.001	  -157.463	     1.852
   -77.620	  -155.110	    20.517
   -77.681	  -146.422	    -3.767
   -90.516	  -172.256	   -22.217
   -77.014	  -155.332	   -14.077
   -84.774	  -120.563	    10.303
   -68.534	  -134.491	   -20.209
   -83.061	  -152.929	   -13.790
   -85.190	   178.632	    -6.518
   -90.355	   167.118	    -1.570
   -78.864	   172.864	     1.287
   -72.097	  -171.915	    -5.119
   -95.644	  -143.012	    -2.038
   -79.410	  -175.668	   -14.531
   -87.529	   178.818	     1.426
   -78.185	  -163.403	    -1.733
   -82.940	  -147.267	    -8.825
   -83.114	  -163.546	     2.229
   -90.843	  -143.033	     7.026
   -84.284	  -168.061	   -11.550
   -73.646	  -152.167	    -6.597
   -80.215	  -151.350	   -28.757
   -76.454	  -176.323	   -12.178
   -92.361	  -161.671	   -18.247
   -78.482	  -173.267	    -7.921
   -94.172	  -151.479	    -5.885
   -85.110	  -173.699	     6.506
   -94.558	  -173.083	   -12.088
   -75.559	  -163.588	   -18.788
  -100.438	  -160.530	    -2.008
   -83.829	  -145.823	    -1.592
   -74.907	  -168.308	     3.282
   -89.217	  -170.554	    -6.747
   -88.841	   173.413	    -0.492
   -77.420	  -155.665	   -12.556
   -77.187	  -163.733	    -2.525
   -70.224	  -170.138	     0.497
   -67.445	  -179.174	   -10.482
   -83.094	  -170.146	    12.980
   -88.378	   172.814	     7.854
   -88.107	  -173.936	     9.254
   -77.225	   173.427	    13.183
   -85.345	  -162.332	    -6.200
   -71.843	  -176.807	    -2.310
   -93.662	  -169.215	    -6.742
  -102.087	  -174.862	     1.724
   -68.814	  -175.654	     6.069
   -96.460	  -139.361	     1.086
   -86.275	  -146.069	    -7.008
   -87.560	  -144.799	     2.679
   -82.853	  -139.545	   -13.277
   -86.226	  -154.663	    -3.317
   -91.121	  -145.381	     3.840
   -92.702	  -147.883	    -3.616
   -98.037	  -161.608	     0.312
   -87.201	  -144.254	   -10.407
   -95.096	  -152.719	     2.632
  -110.547	  -147.314	   -11.977
   -85.057	  -156.647	    -3.664
   -94.719	  -153.277	    -0.897
   -88.602	  -145.029	    -2.796
   -88.080	  -158.038	   -16.566
   -68.732	  -169.350	    -7.837
   -73.264	   177.184	    -7.517
   -84.109	  -172.931	    10.073
   -72.733	  -156.837	   -14.575
  -106.812	  -159.269	    -6.055
   -98.940	  -141.095	     5.809
   -88.128	  -116.959	     6.339
   -69.767	  -165.235	    -1.754
   -77.204	  -149.876	     9.603
   -90.060	  -167.198	    -4.809
   -91.449	  -169.461	   -10.210
   -90.197	  -125.708	   -11.091
   -84.066	  -134.455	   -17.484
   -80.692	   176.125	    -0.137
   -88.171	  -175.359	     1.761
   -83.080	  -175.193	   -18.014
   -85.323	  -172.752	    -2.952
   -87.002	  -173.705	     0.921
   -83.997	  -178.885	     5.471
   -92.160	  -157.238	     6.470
   -87.671	  -149.751	   -16.732
   -90.503	  -150.049	   -19.628
   -80.400	  -145.031	    -9.921
   -69.161	  -160.869	     3.512
   -83.929	  -147.816	    -3.906
   -78.408	  -156.800	    -9.655
   -82.399	  -172.109	    -3.768
   -85.281	   179.521	   -18.372
   -85.252	  -164.739	   -13.091
   -77.793	  -154.337	   -25.575
   -79.082	   178.513	    -4.178
   -87.402	  -146.615	    -4.683
   -89.672	  -173.512	     9.753
   -79.682	  -172.335	     4.425
   -89.168	  -154.728	    -5.861
   -85.019	  -157.427	   -24.090
   -74.495	  -164.699	   -19.878
   -79.432	  -148.526	     8.717
   -83.109	  -151.627	    -0.433
   -76.619	  -158.660	   -15.366
   -86.874	  -167.145	   -17.326
   -87.288	  -155.957	    -4.104
   -97.899	  -146.424	     0.281
   -76.258	  -146.411	   -15.406
   -69.393	  -172.459	    -9.002
   -87.309	  -160.732	    -0.342
   -77.804	  -172.894	    22.958
  -108.408	  -150.631	     6.087
   -88.945	  -153.567	     7.311
   -91.174	  -169.675	    -3.679
   -85.605	  -152.127	     8.063
   -74.280	  -160.931	     4.165
   -78.198	  -151.973	    -3.087
  -103.159	  -136.137	    -3.405
  -121.739	  -152.673	   -13.301
   -93.263	  -173.371	     3.813
   -93.871	  -151.011	    10.083
   -96.341	  -155.248	    -3.648
   -89.256	  -142.819	    -0.162
   -82.022	  -161.875	    -6.574
   -91.882	  -155.732	   -11.767
   -80.318	  -174.339	   -24.142
   -84.334	  -172.561	    -3.408
   -83.756	  -178.200	    -4.253
   -70.901	  -169.671	   -13.530
   -86.352	  -162.459	   -10.073
   -89.888	  -157.989	    -5.014
   -87.487	  -160.869	    10.323
   -94.140	  -153.508	    10.774
   -80.048	  -158.187	     6.611
   -71.927	   178.310	     0.475
   -79.797	  -139.621	    -3.987
   -93.057	  -141.528	   -19.958
   -81.408	  -176.851	    -0.800
   -85.488	  -162.067	    11.971
   -84.521	  -137.082	     0.612
   -89.567	  -166.593	    -7.926
   -75.001	   166.261	   -11.212
   -74.426	   174.920	    -3.919
   -70.653	  -165.867	     7.801
   -72.910	  -163.849	    -8.879
   -80.882	  -154.019	     8.493
   -92.168	  -145.255	   -12.233
   -89.447	  -173.991	   -11.483
  -107.436	  -169.521	   -18.539
   -71.196	  -168.207	    -8.059
   -71.275	  -162.661	    -1.586
   -82.654	  -155.044	     6.076
   -97.410	  -145.647	     8.429
   -79.066	  -164.747	   -12.634
   -81.958	  -175.209	     1.850
   -97.529	  -146.070	    -8.301
   -89.230	  -159.877	    -6.885
   -92.846	  -153.594	     9.532
   -88.446	  -156.977	     2.496
   -64.080	  -158.660	    -7.132
  -105.276	  -149.467	    -4.269
   -94.139	  -167.040	   -20.310
  -107.716	  -135.809	     4.493
   -77.061	   177.605	   -15.376
   -77.653	  -142.468	   -31.031
   -87.646	  -153.121	   -12.338
   -69.690	  -176.263	   -13.321
   -80.255	  -165.330	     8.056
   -85.362	  -153.673	     7.403
   -95.037	  -155.136	    -5.576
   -91.662	  -170.666	   -20.150
   -75.270	   168.737	    -2.724
   -96.857	  -142.334	     2.652
   -77.016	  -173.878	    -1.304
   -98.405	   178.581	    15.278
   -78.287	  -167.096	    -2.496
   -77.448	  -155.517	    -2.959
   -87.962	  -171.887	     1.810
   -73.777	  -155.983	     9.620
   -99.807	  -144.186	    17.176
   -78.723	  -140.823	    -1.639
   -88.328	  -150.468	    -4.681
   -93.673	  -162.554	    -1.513
   -78.646	  -155.900	   -12.560
   -67.847	  -167.341	    -8.831
   -91.077	  -129.768	     2.775
   -85.300	  -148.707	    -5.850
   -78.923	  -162.516	     1.636
   -82.924	  -172.761	     2.449
   -75.827	  -150.209	     0.256
   -99.989	  -163.331	     6.481
   -76.560	  -173.868	    -3.261
   -69.798	  -170.402	    -1.071
   -96.672	  -147.830	   -11.459
   -76.444	  -161.889	   -20.783
   -83.159	  -156.334	    -9.137
   -85.868	  -170.406	     0.734
   -82.172	  -155.316	    -6.647
   -64.239	  -172.374	    -1.934
   -81.929	  -162.879	    -3.991
  -106.036	  -159.499	     9.427
   -74.982	  -173.611	     7.197
   -72.457	  -167.845	   -19.742
  -102.846	  -172.963	    18.149
   -78.699	  -169.761	   -13.231
   -85.678	  -128.335	     1.851
   -99.661	  -139.388	    -7.954
   -80.615	  -132.322	    -2.627
   -89.888	  -161.746	    -2.474
   -82.749	  -165.608	   -16.366
   -67.775	  -169.798	   -12.025
   -83.479	  -168.570	   -11.464
   -84.795	  -145.723	     4.108
   -89.264	  -174.693	    15.677
   -88.587	  -154.626	    -5.392
  -100.609	  -167.469	    25.085
   -84.852	  -172.440	    -3.986
  -102.387	  -137.831	   -16.845
  -116.124	   177.468	    -0.531
   -78.559	   175.713	   -10.297
   -90.742	  -175.606	     8.779
   -87.032	  -173.434	    -6.028
   -86.000	  -160.365	    -3.552
   -75.175	  -163.579	    -3.205
   -85.994	  -150.559	   -14.703
   -93.315	  -154.320	    15.772
   -84.723	  -148.966	    -0.205
   -98.251	  -151.883	    10.931
   -85.843	  -174.723	     1.811
   -81.738	  -168.772	   -13.174
   -88.810	  -134.324	     8.942
   -90.843	  -169.810	    26.234
   -68.131	  -172.602	    -3.925
   -93.150	  -149.731	     4.714
   -79.332	  -178.638	    -0.783
   -80.102	  -149.126	     3.562
  -108.274	  -168.622	    14.163
   -86.208	  -174.216	     8.786
   -64.949	   177.745	   -22.796
   -73.392	  -162.354	     6.360
   -99.907	   172.022	     3.258
   -71.010	  -179.852	     2.865
   -94.591	  -162.020	    -0.255
   -83.050	  -169.254	     2.348
   -76.987	   173.584	     9.151
   -79.684	  -162.336	    -4.074
   -62.894	  -178.148	   -15.718
   -83.274	  -174.102	    10.489
   -73.855	  -165.061	   -13.567
   -84.442	  -166.669	     2.938
   -92.991	  -151.203	    -3.852
   -82.893	   170.897	    -4.630
   -80.977	  -174.320	    -8.836
   -86.954	  -170.699	    12.913
   -78.885	  -164.746	     3.946
   -72.248	  -175.502	    -0.244
   -92.242	  -160.658	    -8.249
   -92.406	  -152.158	    11.537
   -82.841	  -167.660	     9.421
   -76.760	   175.611	    -6.412
   -90.321	  -153.831	    -1.210
   -86.742	  -178.454	    11.587
   -88.345	   174.853	     5.732
   -83.372	   174.145	    -8.964
  -104.952	  -153.280	    10.138
   -86.712	  -147.781	    10.920
   -78.762	  -174.316	     2.843
   -78.802	  -162.228	   -11.627
   -74.551	  -164.486	    -9.659
   -88.515	   161.069	    -0.623
   -80.034	  -179.989	    -8.665
   -86.164	  -160.853	    13.566
   -95.786	  -121.296	     0.624
   -81.870	  -166.791	     2.215
   -87.098	  -170.496	     1.037
  -124.850	  -147.326	    13.096
   -95.603	  -156.176	    10.334
   -77.531	  -136.779	   -10.085
   -86.955	  -164.641	    15.762
   -78.327	  -178.880	    -1.278
   -78.687	  -166.810	    -3.646
   -92.133	   174.384	    10.487
   -79.901	  -165.778	     4.264
   -80.123	  -158.822	     1.903
   -82.416	   168.555	    -5.839
   -83.781	  -161.815	    -9.747
   -76.182	  -163.516	   -15.444
   -63.947	   158.892	    11.722
   -69.510	  -164.810	     0.912
   -74.371	   166.956	     6.584
   -88.502	  -179.312	     5.978
   -69.889	  -166.932	    -1.342
   -83.938	   174.814	   -29.122
   -66.140	  -169.821	   -14.982
   -69.265	  -166.911	   -13.952
   -90.495	  -152.188	     8.228
  -103.812	  -174.926	     5.265
   -93.136	  -156.726	    11.554
   -90.797	  -137.867	    -8.982
   -79.827	  -166.761	    -3.075
   -76.688	  -156.565	    14.124
   -78.444	   175.505	    13.672
   -66.050	   179.356	   -21.428
   -75.542	  -132.889	    11.131
   -86.325	  -161.499	    -2.767
  -105.419	  -159.601	     4.089
   -89.458	  -151.003	    -4.618
   -89.740	  -172.126	    -5.275
   -72.854	  -175.644	    -1.453
   -80.088	  -176.190	    -2.452
  -102.475	   176.357	   -10.829
   -77.891	   172.811	    -0.936
   -90.411	  -159.012	     1.306
   -86.060	  -154.583	   -18.899
   -75.049	  -170.756	     1.966
   -90.418	  -173.550	    12.953
   -95.332	  -156.917	    -9.617
   -96.401	  -131.450	    -1.576
   -76.010	  -161.013	    -8.944
   -74.776	  -168.367	    -2.707
   -89.246	  -177.836	     1.771
   -88.964	   177.857	   -11.295
   -80.797	  -162.931	   -13.192
   -86.076	  -147.040	   -12.456
  -103.830	  -159.957	     8.468
   -77.823	  -157.848	     1.972
   -76.977	  -169.146	    -7.927
   -93.657	  -171.426	     4.593
   -79.190	  -157.103	   -12.749
   -86.294	  -153.166	    -7.762
   -88.331	  -158.796	     9.425
   -95.603	  -151.655	    -0.043
   -78.111	  -176.705	    14.158
   -81.667	  -161.370	     6.072
   -90.942	  -158.296	   -10.883
   -83.680	  -157.349	     1.460
   -78.940	  -166.638	   -11.451
   -77.412	  -161.671	    -5.277
   -86.156	  -170.179	     4.300
   -82.091	  -158.502	    -4.650
   -83.685	  -166.983	    -1.999
   -73.930	   173.859	    -8.058
   -91.191	  -148.020	     3.519
   -88.195	  -158.487	    -4.665
   -82.053	  -147.743	    -0.823
  -102.946	  -146.061	   -13.316
   -72.458	  -148.991	     7.478
   -69.151	  -174.785	   -10.283
   -79.735	  -162.989	     1.410
   -86.355	  -164.035	   -13.787
   -72.782	  -152.576	     1.064
   -81.915	  -158.713	    -9.491
   -80.998	   169.759	    -8.344
  -102.709	  -159.643	     6.677
  -104.220	  -151.893	     6.970
  -102.450	  -154.713	     2.301
   -80.462	  -150.809	   -11.797
   -71.430	  -157.030	   -23.620
   -84.109	  -161.584	    -8.705
   -91.616	  -174.833	     5.416
   -85.343	   178.971	    -7.309
   -92.178	  -137.905	     7.580
   -92.659	  -144.411	    14.880
   -72.765	  -173.027	    -9.139
   -82.486	  -160.900	    -0.537
   -69.231	  -168.755	    -2.292
   -73.191	  -160.038	   -17.895
   -85.858	  -152.705	    -2.006
   -75.216	  -177.278	    -6.681
  -103.045	  -177.110	     7.631
