   -92.310	   122.143	    -3.179
   -32.273	  -174.397	   -19.377
    50.751	  -141.354	   -14.001
    41.205	  -161.381	    21.564
    48.822	  -146.275	     6.861
    49.029	  -163.369	     1.042
    50.383	  -142.321	     9.788
    48.978	  -131.261	    -0.066
    43.642	  -140.360	     4.183
    33.413	  -148.744	    -0.888
    46.005	  -171.179	     2.114
    36.175	  -130.557	    16.312
    59.657	  -155.240	    -5.013
    42.819	  -158.523	    23.943
    54.708	  -145.579	    -6.187
    42.970	  -134.335	     9.534
    47.924	  -137.523	    14.635
    41.586	  -127.246	     9.505
    51.809	  -142.037	    -8.933
    48.285	  -159.126	    -0.837
    35.827	  -149.791	    13.185
    45.320	  -136.803	     5.433
    40.711	  -152.422	    -0.622
    48.583	  -161.345	     1.082
    43.775	  -151.084	    -9.129
    46.724	  -144.253	     8.033
    47.055	  -136.039	    10.112
    39.280	  -173.934	     5.111
    50.477	  -148.159	     7.583
    45.495	  -156.234	     3.979
    61.607	  -157.340	    -8.391
    47.218	  -163.614	    22.085
    61.472	  -122.198	    -1.485
    42.471	  -127.820	    21.563
    54.776	  -135.871	    -7.604
    60.473	  -151.540	     5.181
    59.819	  -137.833	     3.396
    55.234	  -131.107	     2.751
    51.952	  -148.446	   -17.065
    40.893	  -169.629	    40.072
    32.227	  -150.534	    19.134
    46.814	  -155.567	     5.344
    48.709	  -148.983	    24.289
    51.297	  -145.866	    -2.724
    50.863	  -162.743	    14.554
    61.191	  -145.916	     7.561
    49.828	  -166.613	    14.019
    65.295	  -145.758	     1.531
    50.068	  -142.671	     7.303
    57.842	  -165.595	    -2.970
    42.430	  -145.490	    15.737
    58.298	  -175.083	   -11.355
    56.558	  -152.786	     1.835
    63.628	  -151.090	    -2.298
    47.626	  -149.963	     9.323
    51.600	  -125.462	     8.075
    47.980	  -111.871	    -9.857
    49.085	  -130.138	     5.054
    50.252	  -136.664	    -5.948
    38.682	  -131.291	     0.086
    42.257	  -143.996	    12.820
    43.499	  -151.052	     9.650
    50.117	  -153.624	     1.494
    56.445	  -157.492	    -7.394
    61.500	  -157.675	    -1.071
    53.442	  -147.603	    -3.499
    52.617	  -152.850	     9.133
    46.308	  -163.031	     9.527
    61.590	  -158.544	     6.578
    54.966	  -163.341	     5.300
    48.608	  -164.833	    12.536
    39.432	  -142.824	    20.431
    47.392	  -164.309	     9.133
    40.681	  -136.366	     8.351
    63.651	  -125.730	    -2.018
    56.427	  -126.442	    14.771
    57.177	  -154.217	    -4.701
    46.294	  -130.714	   -16.704
    44.895	  -131.969	     2.606
    50.244	  -132.534	     8.744
    53.225	  -142.145	     7.822
    37.429	  -132.765	    13.963
    49.410	  -154.751	    -3.487
    52.614	  -155.929	   -11.282
    50.591	  -120.660	   -15.630
    36.052	  -118.296	    18.376
    45.629	  -120.628	     3.126
    50.570	  -136.998	    18.390
    45.272	  -162.265	    28.131
    51.388	  -141.256	     4.775
    37.827	  -143.227	     2.929
    59.683	  -155.003	     4.635
    41.068	  -141.949	    -4.356
    47.608	  -161.551	     9.873
    41.805	  -128.487	     1.661
    49.574	  -133.697	     3.036
    52.064	  -127.272	    15.241
    48.344	  -142.649	    -7.730
    49.982	  -151.700	    12.286
    50.572	  -157.682	    16.191
    42.411	  -140.230	    -9.971
    48.073	  -144.610	    -3.927
    44.409	  -158.732	    10.449
    54.733	  -147.662	     6.784
    49.398	  -144.317	     3.616
    39.860	  -168.966	    15.768
    52.330	  -149.984	    -1.700
    49.584	  -153.457	    15.853
    38.225	  -154.418	    14.659
    43.058	  -153.780	    21.409
    55.587	  -150.711	    14.200
    52.432	  -164.900	    -6.868
    56.737	  -154.576	    11.469
    48.941	  -162.464	    12.485
    60.851	  -160.822	     7.855
    43.121	  -151.252	     1.363
    54.562	  -141.789	    12.837
    44.138	  -135.878	     1.204
    51.583	  -132.949	    -1.455
    43.368	  -134.150	     5.973
    48.498	  -143.589	    16.044
    55.887	  -147.545	     1.156
    40.701	  -147.031	     2.457
    54.200	  -163.950	    -0.220
    59.044	  -147.674	    -1.184
    41.126	  -145.965	     6.858
    53.998	  -157.377	    -6.448
    49.610	  -146.380	    -5.050
    47.704	  -130.537	     4.865
    39.794	  -145.087	     7.522
    43.252	  -161.102	    14.868
    45.578	  -124.508	     9.864
    50.723	  -126.675	    -1.436
    58.704	  -119.845	     1.273
    45.193	  -145.430	     2.728
    55.795	  -141.150	   -11.947
    54.118	  -132.895	     8.718
    41.477	  -140.754	   -11.215
    52.896	  -157.800	    -9.446
    49.605	  -122.913	    -2.811
    49.277	  -157.835	     8.732
    56.418	  -145.258	     6.490
    61.473	  -147.112	     7.618
    45.043	  -132.391	    10.959
    48.171	  -147.575	     7.805
    43.602	  -150.972	    23.876
    56.760	  -143.634	   -11.691
    46.843	  -128.974	    11.302
    54.701	  -150.514	     3.656
    42.208	  -152.916	    21.110
    37.665	  -149.194	     2.277
    50.686	  -141.168	     2.394
    40.942	  -157.304	    -5.609
    44.425	  -151.709	     0.672
    52.513	  -145.527	    -2.817
    50.270	  -161.174	    12.363
    55.059	  -148.515	    10.850
    37.258	  -157.029	     1.833
    35.003	  -132.829	    11.796
    43.415	  -144.332	    16.911
    39.811	  -127.478	     0.064
    38.134	  -133.584	    -0.100
    45.504	  -135.241	    18.326
    50.837	  -148.065	     5.961
    63.428	  -151.100	   -11.684
    41.142	  -146.009	    14.498
    48.352	  -150.302	    14.562
    40.041	  -149.413	     2.165
    38.577	  -139.750	     5.874
    46.025	  -151.705	    -5.165
    57.434	  -153.171	     3.895
    45.815	  -139.927	     2.513
    55.540	  -131.493	    12.308
    38.534	  -128.223	    -1.032
    47.419	  -116.560	    -9.338
    55.958	  -156.283	     1.677
    50.356	  -127.427	    12.066
    47.867	  -133.512	    11.070
    46.169	  -137.643	    10.299
    56.378	  -142.905	     4.778
    38.182	  -141.122	    -0.919
    49.245	  -145.215	     5.283
    36.174	  -148.259	    20.776
    47.396	  -134.063	    -6.411
    51.184	  -156.996	    22.341
    45.191	  -140.846	     7.404
    42.299	  -141.412	    22.675
    38.202	  -161.244	     2.842
    55.833	  -167.306	    -3.082
    44.902	  -161.222	     5.588
    46.421	  -164.756	    21.355
    49.201	  -152.626	    -9.688
    47.518	  -173.996	    13.902
    41.792	  -151.374	     1.533
    49.113	  -172.516	    -0.422
    38.747	  -122.050	   -11.960
    55.163	  -121.832	   -10.160
    30.963	  -128.029	     6.694
    52.712	  -134.453	    -1.186
    36.476	  -136.923	     7.514
    63.690	  -160.060	     1.832
    38.885	  -133.846	    15.792
    44.722	  -132.855	     5.975
    63.394	  -133.876	    -3.886
    40.204	  -135.047	     9.140
    40.050	  -143.754	    18.465
    44.558	  -124.377	     8.996
    58.868	  -147.288	    16.911
    28.408	  -119.489	     2.612
    51.429	  -144.582	    -1.592
    48.331	  -154.080	    22.700
    39.485	  -139.147	    -2.507
    45.461	  -143.282	    -6.458
    44.685	  -150.267	     8.901
    38.330	  -147.411	    -5.555
    55.426	  -142.433	    21.425
    49.506	  -134.381	     0.283
    43.618	  -153.314	     1.266
    49.556	  -145.712	     3.798
    42.543	  -150.215	     6.816
    50.698	  -147.075	    -1.713
    37.718	  -132.166	    12.881
    51.521	  -163.127	     3.155
    51.377	  -137.719	    -9.239
    47.448	  -146.625	     8.810
    49.319	  -146.776	   -10.544
    44.097	  -129.780	    -3.331
    47.619	  -142.579	     0.136
    45.392	  -124.706	     4.741
    42.770	  -129.902	     2.938
    55.445	  -134.229	     8.586
    41.056	  -137.130	     9.270
    47.174	  -137.683	     8.823
    42.579	  -125.225	     8.522
    43.705	  -129.480	     4.802
    51.979	  -142.241	     7.195
    52.771	  -144.254	    -3.665
    46.663	  -157.700	    32.941
    47.529	  -169.094	    24.945
    62.266	  -152.596	    -6.399
    40.162	  -128.038	    10.632
    41.690	  -142.033	    -5.018
    49.096	  -144.401	    10.570
    58.253	  -122.258	     3.227
    45.119	  -144.192	   -11.780
    45.955	  -142.593	    18.105
    52.077	  -147.098	     0.157
    57.404	  -151.203	   -12.550
    57.035	  -160.968	     3.163
    48.270	  -133.121	    18.058
    57.271	  -151.789	     7.540
    43.809	  -141.800	    -3.514
    51.442	  -166.418	    14.977
    57.836	  -177.325	    22.500
    41.905	  -138.570	     2.297
    52.413	  -164.066	    12.884
    44.975	  -148.359	     0.182
    48.602	  -173.895	    22.275
    54.205	  -138.385	   -14.553
    53.405	  -126.000	    -9.515
    56.179	  -133.329	     5.347
    48.998	  -155.255	    11.624
    50.515	  -144.501	    20.925
    46.608	  -142.949	     9.132
    46.218	  -149.720	    -0.798
    38.282	  -150.207	    18.148
    53.545	  -165.243	    20.600
    53.930	  -144.359	    19.094
    40.412	  -153.892	    16.919
    50.453	  -162.361	    -0.080
    48.087	  -156.884	    18.583
    45.782	  -150.407	    10.160
    38.042	  -122.542	     6.536
    45.887	  -157.349	    -2.439
    46.222	  -145.821	     8.749
    44.348	  -141.188	     4.351
    51.239	  -124.123	     6.778
    54.442	  -136.485	    22.883
    46.929	  -116.704	    -6.539
    49.424	  -130.220	    -2.506
    53.487	  -147.552	    12.561
    55.851	  -148.549	    12.205
    49.477	  -148.968	    18.759
    56.821	  -147.424	   -15.102
    56.636	  -144.391	     0.612
    46.166	  -151.973	    10.529
    42.731	  -127.117	    12.859
    48.251	  -139.265	    10.708
    47.762	  -149.126	    13.236
    53.391	  -139.503	    -3.644
    53.467	  -149.964	    18.516
    52.938	  -137.863	    18.966
    54.483	  -151.837	    -6.292
    58.669	  -145.324	    12.477
    45.547	  -161.421	    -5.273
    49.173	  -149.170	     3.470
    43.710	  -156.706	   -16.706
    52.148	  -149.320	    14.869
    56.108	  -144.645	   -10.939
    58.473	  -139.833	    -1.273
    52.333	  -140.611	     3.680
    34.291	  -131.082	   -11.413
    51.042	  -126.174	    -4.264
    53.618	  -144.922	    16.856
    43.175	  -141.840	    -1.484
    53.581	  -143.116	    -3.228
    51.963	  -139.910	    14.252
    54.788	  -157.453	    21.424
    48.838	  -145.675	     7.628
    49.468	  -151.555	    -8.190
    53.355	  -146.624	     0.383
    39.209	  -146.017	    11.306
    57.822	  -111.072	   -14.987
    53.467	  -147.358	     5.488
    44.217	  -124.040	     7.582
    55.507	  -137.996	     9.103
    60.817	  -136.681	    -1.920
    47.303	  -142.885	     6.983
    45.915	  -159.462	    -0.560
    55.131	  -146.828	     3.569
    42.990	  -146.773	    12.988
    39.013	  -149.792	     8.959
    56.318	  -148.663	    -4.046
    55.572	  -135.300	   -20.535
    53.757	  -140.200	    15.412
    36.005	  -157.435	    20.358
    46.400	  -154.201	    -4.723
    51.757	  -130.984	   -10.400
    51.630	  -139.773	    -4.543
    57.700	  -154.518	     7.396
    45.633	  -125.920	    -1.598
    51.461	  -143.299	    -6.244
    45.292	  -151.483	     8.630
    56.771	  -151.683	    -2.778
    43.721	  -144.298	    -2.716
    51.295	  -136.478	   -10.352
    49.778	  -151.140	    12.130
    43.275	  -141.046	     2.683
    60.056	  -148.623	    11.901
    53.273	  -149.680	     9.502
    59.522	  -148.395	     4.869
    53.265	  -177.045	    28.103
    32.954	  -145.946	    -0.180
    55.349	  -177.040	    -2.955
    54.755	   173.846	    13.932
    60.650	  -151.139	     3.183
    51.831	  -164.962	    12.711
    35.106	  -121.812	    13.849
    67.503	  -149.405	     9.913
    49.582	  -116.373	     3.296
    54.015	  -132.455	     7.381
    38.885	  -142.495	    23.445
    55.615	  -157.571	     6.014
    48.839	  -143.142	    -2.228
    48.149	  -130.615	    11.973
    48.840	  -138.243	     7.744
    45.759	  -140.094	   -23.024
    56.515	  -146.598	   -12.707
    40.093	  -147.956	    22.057
    49.313	  -145.504	     4.346
    48.391	  -142.622	    -5.229
    58.599	  -156.284	    17.954
    42.095	  -148.161	    19.891
    38.908	  -142.567	     7.105
    55.851	  -156.705	     6.456
    34.346	  -138.205	    31.963
    52.476	  -145.633	    -3.386
    54.379	  -140.902	   -13.117
    41.600	  -154.022	     3.301
    61.374	  -154.758	    -4.336
    42.236	  -136.908	     7.759
    47.368	  -171.349	    -0.439
    47.335	  -150.532	    -4.129
    46.109	  -138.329	    26.656
    48.423	  -159.484	    -9.344
    44.895	  -139.715	     6.664
    37.746	  -135.363	     4.768
    47.907	  -154.285	    12.103
    43.948	  -138.036	    11.229
    58.981	  -150.147	   -15.005
    51.438	  -158.873	    16.847
    37.916	  -134.542	    -0.446
    60.114	  -168.705	     2.587
    49.490	  -158.258	     5.404
    53.443	  -166.356	    15.158
    52.963	  -171.522	    -3.414
    67.796	  -148.628	     6.393
    45.290	  -157.139	    15.742
    51.907	  -128.786	     9.180
    41.739	  -130.051	    13.757
    50.392	  -112.615	     8.086
    34.825	  -134.113	     1.715
    41.105	  -125.492	     4.351
    50.770	  -170.750	    -6.399
    53.150	  -139.572	    -3.946
    48.331	  -136.891	   -11.513
    49.572	  -148.630	    18.823
    43.096	  -130.202	    11.985
    45.705	  -154.077	    20.825
    47.417	  -139.001	     2.122
    62.026	  -156.997	     8.384
    42.055	  -142.496	    11.810
    40.861	  -129.012	     6.859
    43.775	  -158.261	    15.272
    44.892	  -139.192	     1.647
    44.877	  -150.911	     9.189
    55.594	  -127.804	    -6.956
    46.033	  -150.308	    -2.084
    61.136	  -153.587	    -4.709
    58.838	  -157.240	     4.750
    47.707	  -150.685	   -11.038
    48.596	  -149.581	     4.431
    58.073	  -111.692	    -6.671
    54.038	  -119.946	    -0.784
    48.984	  -139.882	     8.477
    41.505	  -141.936	     6.891
    51.247	  -133.528	    -7.983
    54.330	  -137.575	    12.600
    42.695	  -160.035	    19.663
    55.953	  -157.766	     4.591
    54.961	  -141.511	    11.972
    40.487	  -134.906	    21.233
    60.844	  -136.654	   -11.500
    50.711	  -164.021	    -0.843
    54.240	  -129.058	     7.379
    44.154	  -117.078	    12.067
    49.042	  -146.919	    13.997
    39.033	  -142.781	    -4.761
    33.808	  -142.478	    16.959
    53.364	  -143.631	    -6.994
    61.066	  -144.517	   -14.230
    46.851	  -134.898	    11.950
    48.984	  -145.624	     9.556
    46.904	  -151.414	    -6.170
    41.378	  -133.693	     8.960
    54.129	  -139.450	     7.894
    45.117	  -133.407	     3.668
    50.931	  -141.657	    11.337
    46.991	  -149.109	    -5.671
    53.800	  -161.205	     6.329
    44.921	  -136.981	     0.371
    42.282	  -139.680	    15.541
    61.467	  -153.794	     6.246
    50.319	  -131.128	    10.707
    44.560	  -123.036	    12.274
    42.902	  -132.312	    14.803
    45.694	  -138.185	    16.455
    42.214	  -135.260	     9.654
    63.382	  -160.691	     1.531
    46.677	  -150.508	     7.910
    41.475	  -136.727	     3.761
    53.654	  -143.540	    14.219
    34.240	  -126.830	    -2.497
    43.588	  -129.020	     5.570
    46.791	  -140.198	     7.850
    52.884	  -133.002	     5.036
    52.203	  -127.514	    -2.928
    41.916	  -166.061	    -6.014
    50.788	  -149.401	    14.160
    57.465	  -115.305	    -3.552
    47.571	  -111.685	    14.221
    41.441	  -121.706	    -5.063
    52.575	  -139.089	     4.469
    56.092	  -124.466	     7.334
    58.340	  -147.537	    12.020
    52.602	  -154.952	     2.424
    41.413	  -149.032	    15.308
    52.206	  -143.605	     3.356
    50.293	  -139.517	    10.810
    56.495	  -143.347	    21.744
    54.544	  -120.442	   -17.654
    45.548	  -127.297	     6.997
    46.938	  -133.947	    15.858
    36.913	  -132.558	     8.028
    46.056	  -119.016	    -5.618
    51.762	  -154.536	   -12.590
    37.847	  -129.157	    26.301
    40.940	  -127.420	     7.917
    52.300	  -129.384	    -7.269
    52.631	  -147.849	    -4.701
    51.939	  -132.478	     2.137
    48.717	  -142.807	    -9.270
    48.660	  -138.392	     0.622
    51.003	  -139.396	     8.448
    43.582	  -119.150	    -6.794
    46.736	  -149.393	     7.202
    49.188	  -148.287	    13.341
    48.609	  -157.840	    -5.632
    54.807	  -155.297	     7.053
    47.311	  -158.536	    20.456
    51.815	  -147.029	    21.723
    46.303	  -123.261	     6.145
    39.471	  -131.768	     0.279
    60.234	  -163.491	    27.120
    56.196	  -142.228	    11.784
    49.653	  -143.402	     3.540
    50.070	  -151.036	    16.218
    50.262	  -131.716	     3.080
    48.385	  -157.052	   -14.940
    56.907	  -147.214	    -0.454
    51.886	  -148.026	     6.910
    55.745	  -127.626	    -7.316
    43.336	  -133.155	    -3.747
    44.126	  -139.723	     4.475
    41.186	  -156.252	    15.890
    49.972	  -148.462	   -21.290
    52.937	  -148.270	     0.705
    49.393	  -129.155	    -1.218
    50.567	  -155.091	    -2.378
    50.874	  -157.437	     5.229
    45.547	  -118.582	   -10.440
    45.653	  -121.377	    -1.535
    38.896	  -142.991	    33.275
    51.157	  -144.479	     9.592
    54.132	  -128.702	   -11.988
    53.250	  -156.008	    10.744
    44.543	  -139.942	    15.970
    49.066	  -141.697	    10.160
    53.366	  -109.706	    -4.516
    48.382	  -161.090	     8.315
    56.300	  -152.768	   -21.564
    43.438	  -112.601	    14.610
    47.945	  -136.394	    10.944
    42.975	  -137.766	     7.019
    49.010	  -165.913	    20.696
    54.096	  -129.713	    13.616
    55.494	  -162.746	    -9.866
    64.856	  -142.529	    -7.972
    42.750	  -169.841	    14.082
    55.992	  -145.267	    14.798
    48.047	  -137.709	     2.826
    52.553	  -153.505	    -0.168
    61.405	  -147.726	    11.373
    61.253	  -129.033	    -0.434
    50.259	  -148.248	     7.165
    51.234	  -138.654	   -17.249
    54.603	  -148.342	    15.695
    48.747	  -155.046	    10.907
    50.105	  -132.484	    10.600
    40.412	  -113.466	    -6.903
    53.777	  -154.924	    -2.680
    48.266	  -133.525	     8.729
    57.314	  -156.254	     9.719
    44.208	  -135.234	     6.837
    46.368	  -149.622	    -1.661
    51.427	  -139.006	     9.458
    53.537	  -165.656	    -3.913
    54.250	  -144.816	     6.871
    53.690	  -145.882	    12.203
    58.848	  -164.358	     2.882
    41.503	  -150.154	     4.490
    51.635	  -138.842	     6.080
    40.868	  -147.003	    -0.636
    47.521	  -137.841	    24.025
    50.340	  -119.972	     5.319
    39.500	  -114.011	    12.439
    49.325	  -132.759	    12.318
    43.247	  -131.802	    14.733
    42.293	  -127.452	    16.503
    69.233	  -161.829	    -3.288
    39.754	  -145.999	    19.452
    60.239	  -137.510	    -1.692
    45.191	  -144.514	    13.519
    46.059	  -168.028	     3.111
    52.493	  -156.909	   -13.983
    60.501	  -144.218	   -29.700
    51.448	  -156.350	     3.158
    43.027	  -135.995	     4.345
    55.573	  -149.305	    11.771
    49.848	  -155.068	   -15.716
    45.842	  -154.367	    12.508
    45.244	  -137.444	     7.756
    62.598	  -136.381	    -6.983
    42.430	  -149.408	     0.729
    47.380	  -142.495	    14.700
    39.897	  -128.149	    20.687
    62.441	  -175.174	    -3.610
    48.528	  -134.814	    -2.573
    44.558	  -142.122	    23.974
    49.388	  -154.658	    -9.981
    51.497	  -128.148	     8.759
    44.433	  -155.471	     9.784
    37.694	  -145.942	     4.073
    49.104	  -137.759	     6.036
    55.250	  -143.880	     9.796
    55.451	  -146.164	     1.496
    53.680	  -153.812	     1.897
    42.400	  -123.457	    -4.463
    63.828	  -144.960	    -2.613
    46.564	  -135.309	    21.269
    48.909	  -122.374	    -2.526
    45.587	  -139.558	   -13.008
    53.723	  -146.455	     1.248
    37.590	  -145.734	     7.644
    46.103	  -136.155	    10.999
    55.329	  -161.232	     0.388
    52.402	  -117.051	     8.759
    39.235	  -121.492	     0.019
    48.528	  -143.894	    13.840
    54.162	  -176.959	    16.539
    43.071	  -103.616	     7.652
    43.157	  -132.486	    -1.463
    46.325	  -131.419	     5.333
    47.609	  -113.473	    21.227
    51.436	  -129.246	    10.721
    37.831	  -142.960	     6.254
    47.080	  -138.909	    28.687
    48.698	  -123.801	   -19.851
    42.726	  -131.833	     6.808
    37.898	  -119.192	    12.044
    41.442	  -154.439	    18.581
    49.226	  -127.058	    13.934
    46.578	  -150.441	     3.090
    47.654	  -134.625	    -5.584
    51.018	  -125.851	    -0.833
    58.621	  -147.686	     5.309
    50.377	  -147.380	    11.290
    52.582	  -148.076	    -6.062
    53.725	  -169.984	     9.985
    39.785	  -144.339	    11.888
    61.807	  -160.437	    -0.248
    44.139	  -134.245	   -10.036
    64.638	  -174.171	     5.367
    59.349	   173.021	     6.409
    48.669	  -134.307	     9.714
    45.863	  -152.975	     2.438
    45.339	  -153.496	    -5.652
    57.843	  -143.845	     7.041
    58.880	  -118.836	     5.620
    45.595	  -141.175	    -0.804
    46.499	  -113.678	     4.914
    42.392	  -148.089	    14.673
    50.701	  -152.439	   -11.313
    55.575	  -152.649	     1.412
    48.492	  -153.355	     0.642
    46.734	  -133.429	     5.546
    48.974	  -142.096	     5.810
    56.178	  -162.419	    12.529
    54.613	  -145.819	     2.688
    47.937	  -158.705	     9.222
    49.918	  -149.838	     3.300
    66.660	  -162.038	    -0.242
    50.142	  -144.710	    11.272
    54.311	  -161.328	    -8.213
    48.167	  -171.415	    16.447
    39.030	  -153.859	    24.676
    50.326	  -133.154	    19.815
    46.008	  -117.818	     9.512
    44.546	  -137.978	    18.139
    46.832	  -133.281	     5.542
    49.324	  -131.641	     4.581
    52.583	  -153.956	    26.207
    44.918	  -125.979	    -3.742
    48.035	  -141.243	    13.732
    56.606	  -137.113	    -3.178
    31.964	  -133.059	    24.139
    53.962	  -124.409	     6.592
    56.688	  -132.836	    -7.426
    43.235	  -158.861	    12.361
    42.447	  -140.610	     8.926
    48.318	  -152.473	    -4.791
    67.431	  -158.622	    -7.525
    36.815	  -121.600	     5.886
    48.362	  -152.753	    11.994
    52.518	  -153.455	     7.397
    57.289	  -158.794	    -7.724
    43.044	  -145.913	     0.247
    36.733	  -139.367	    12.101
    43.822	  -147.386	    12.673
    53.342	  -123.468	    13.749
    49.023	  -164.935	    16.860
    49.563	  -134.942	    11.288
    44.376	  -158.573	    -1.009
    40.348	  -128.807	    25.966
    46.741	  -149.690	     4.532
    44.159	  -115.521	   -11.565
    46.585	  -160.459	     6.751
    37.430	  -136.877	     1.139
    48.054	  -153.646	     6.848
    50.412	  -119.187	     9.621
    44.534	  -137.809	     7.964
    53.119	  -143.363	    -6.522
    58.946	  -143.177	    14.316
    40.142	  -139.500	    21.393
    48.014	  -136.781	    10.292
    58.353	  -158.129	    -7.675
    47.486	  -143.131	    14.923
    47.124	  -144.061	     3.179
    47.507	  -145.594	    12.592
    55.044	  -150.760	     3.661
    54.853	  -150.752	    -8.021
    41.229	  -132.032	    17.852
    53.912	  -136.843	   -17.967
    38.800	  -136.493	    11.845
    39.473	  -136.903	     9.871
    47.881	  -141.354	     0.228
    52.535	  -146.900	    -3.638
    49.432	  -143.211	     5.367
    41.361	  -131.924	    13.078
    48.262	  -161.618	    -9.899
    58.777	  -138.044	     4.140
    57.241	  -147.055	    19.527
    51.179	  -152.036	     3.750
    57.206	  -167.733	    -5.998
    47.518	  -159.474	     2.850
    41.872	  -139.503	    11.644
    25.264	  -131.211	    12.632
    58.109	  -140.379	     7.440
    45.914	  -129.905	     4.211
    44.032	  -136.259	   -19.892
    50.621	  -142.421	     9.567
    47.958	  -146.039	    11.049
    37.941	  -137.852	    11.200
    45.723	  -117.714	   -12.977
    47.318	  -129.084	     0.372
    49.161	  -140.191	    11.779
    46.374	  -133.165	     5.092
    52.207	  -147.422	    -5.926
    46.539	  -124.729	    -4.552
    48.065	  -136.074	    -8.580
    50.003	  -130.854	    -8.632
    41.976	  -150.501	    10.696
    43.147	  -152.362	    13.981
    31.757	  -137.940	    19.026
    43.421	  -148.287	    -2.310
    47.004	  -140.555	    13.781
    48.543	  -144.137	    -5.983
    39.114	  -153.504	    -4.015
    45.620	  -131.136	    19.591
    49.643	  -136.902	    -0.647
    49.681	  -150.915	    16.170
    51.384	  -126.060	     2.773
    45.445	  -124.777	    -4.805
    54.391	  -136.890	    -5.768
    45.231	  -160.132	    17.083
    56.464	  -138.137	   -14.025
    53.655	  -150.729	     0.211
    53.976	  -154.532	    -1.689
    57.738	  -146.563	   -13.773
    51.958	  -125.986	   -13.695
    54.110	  -174.610	     1.430
    39.061	  -153.271	     5.439
    57.598	  -165.291	    -0.805
    56.545	  -139.330	    16.596
    57.249	  -145.091	   -10.649
    52.567	  -137.514	     0.813
    45.257	  -136.806	    -2.994
    59.758	  -144.067	   -12.432
    34.666	  -134.792	    -0.561
    47.755	  -138.451	     7.828
    48.063	  -141.765	     2.288
    39.252	  -157.598	    13.806
    58.611	  -142.794	    18.019
    53.549	  -147.142	     2.380
    50.599	  -144.846	    -3.568
    38.342	  -140.113	     3.197
    50.549	  -164.370	    -0.883
    36.037	  -137.982	    28.510
    59.054	  -148.024	   -10.065
    45.525	  -128.409	   -11.657
    42.814	  -146.184	     8.659
    55.741	  -149.088	    -7.673
    49.362	  -133.827	    10.467
    50.912	  -139.714	   -12.761
    30.422	  -133.240	    11.668
    53.064	  -143.391	     6.581
    57.959	  -155.021	    -2.168
    47.001	  -142.716	    -0.691
    41.991	  -124.937	    -2.562
    55.854	  -146.997	     1.773
    56.317	  -116.121	    -9.850
    61.074	  -118.775	    -2.549
    41.049	  -119.237	    10.880
    60.196	  -146.157	    -2.393
    47.277	  -136.450	    12.871
    62.029	  -121.599	     5.021
    51.178	  -154.557	    13.010
    57.167	  -172.199	    26.224
    44.976	  -140.977	    16.098
    57.307	  -131.142	    -2.124
    59.098	  -138.654	    -9.008
    52.681	  -127.034	     6.278
    49.215	  -161.886	    13.921
    47.851	  -171.743	     9.783
    54.318	  -149.711	    12.230
    50.601	  -155.244	    11.674
    46.375	  -120.578	    -5.974
    46.255	  -125.059	     7.709
    55.913	  -167.110	     1.933
    47.510	  -144.156	     9.482
    46.182	  -126.217	     2.701
    52.727	  -129.874	     5.248
    54.030	  -164.826	    38.602
    53.912	  -138.472	    -1.020
    40.802	  -135.448	    10.850
    52.365	  -141.771	     5.425
    65.035	  -139.555	    -1.313
    51.756	  -152.466	    19.658
    50.831	  -152.027	    15.282
    56.455	  -138.018	    13.707
    46.579	  -134.741	     8.674
    54.915	  -136.615	    -7.672
    57.938	  -141.613	   -18.689
    52.839	  -159.932	    -2.352
    61.956	  -150.922	   -12.526
    41.039	  -128.288	     0.329
    52.602	  -139.051	    -7.450
    41.093	  -146.456	    -3.869
    44.371	  -142.915	    10.803
    45.792	  -146.245	    -8.127
    37.078	  -146.894	    18.061
    50.463	  -159.257	    21.040
    45.425	  -145.680	    24.532
    52.155	  -144.204	    22.971
    53.784	  -131.214	    -5.253
    49.808	  -155.304	    16.151
    40.418	  -148.276	    12.453
    48.780	  -159.772	     4.471
    62.693	  -161.222	     5.245
    43.660	  -155.204	     0.233
    52.503	  -158.419	    -1.458
    39.049	  -144.682	    12.073
    46.484	  -134.158	    10.350
    48.664	  -128.493	     3.674
    39.751	  -126.308	     8.593
    50.739	  -140.863	    12.908
    51.180	  -125.925	    -1.754
    49.241	  -156.150	    12.687
    44.223	  -129.513	     3.559
    51.573	  -133.253	    -0.815
    43.508	  -132.204	   -18.437
    49.041	  -150.566	    22.234
    44.572	  -136.022	     2.884
    58.912	  -147.023	    -9.680
    45.643	  -159.791	     2.386
    63.328	  -177.454	     9.368
    46.118	  -124.518	    13.355
    57.910	  -150.650	     0.721
    54.168	  -143.981	     8.066
    47.435	  -131.982	   -19.325
    55.691	  -137.881	    -9.423
    55.202	  -148.860	   -13.339
    40.984	  -148.465	   -11.000
    55.016	  -142.290	   -14.056
    51.855	  -166.926	     1.457
    56.057	  -167.687	     2.862
    57.278	  -165.750	     9.309
    46.748	  -157.908	    24.645
    49.133	  -134.558	     8.296
    53.185	  -152.331	    -7.023
    46.823	  -162.193	    17.126
    54.244	  -153.988	     6.404
    56.243	  -133.516	    -2.079
    42.522	  -165.216	     5.253
    50.907	  -139.309	    18.973
    36.331	  -156.413	    10.920
    62.550	  -153.465	     2.388
    41.706	  -157.335	    15.416
    45.493	  -159.936	    26.737
    57.212	  -146.409	     7.143
    47.375	  -171.667	    -4.389
    37.218	  -143.566	     4.533
    48.796	  -143.366	    -9.713
    51.448	  -143.578	   -16.144
    48.650	  -120.322	    -1.079
    57.518	  -144.067	     5.240
    54.372	  -143.503	    -0.372
    35.424	  -161.829	     1.775
    53.515	  -153.145	    14.861
    55.690	  -174.133	     0.455
    50.832	  -154.417	     0.340
    47.381	  -142.983	    15.152
    46.154	  -141.845	    11.920
    54.383	  -153.570	     4.481
    48.289	  -164.797	   -14.601
    47.390	  -145.291	    -5.947
    43.070	  -130.866	    13.227
    45.017	  -153.579	    10.969
    61.333	  -155.344	     3.622
    54.794	  -154.345	    -0.422
    47.316	  -141.149	     7.092
    47.300	  -149.700	    15.782
    56.458	  -151.461	    -5.894
    42.796	  -148.372	    -0.340
    45.213	  -157.079	    -2.865
    46.052	  -132.160	     3.420
    46.161	  -143.817	   -18.222
    44.907	  -122.867	    -5.750
    56.541	  -133.926	    -8.349
    46.561	  -108.398	    15.211
    50.354	  -140.754	    -6.641
    50.747	  -136.373	    20.753
    46.488	  -147.477	    -6.005
    62.456	  -145.312	   -11.097
    56.369	  -144.973	     3.149
    38.639	  -153.138	    -1.168
    60.579	  -148.900	    -2.855
    53.938	  -152.810	     4.791
    63.643	  -148.858	    -3.978
    47.326	  -155.522	     5.436
    45.759	  -152.930	   -13.203
    56.036	  -164.996	     1.897
    53.832	  -154.912	     9.841
    48.586	  -156.102	    15.220
    42.567	  -147.037	    27.549
    40.772	  -139.431	     4.094
    57.992	  -158.789	    15.740
    34.298	  -146.567	    -3.725
    54.473	  -127.805	    -5.507
    41.207	  -136.715	     3.386
    61.465	  -133.781	   -18.636
    14.181	  -122.536	    27.460
    48.307	  -146.769	     4.732
    52.852	  -151.005	     0.145
    43.705	  -128.415	    12.732
    45.529	  -145.110	    -4.715
    49.145	  -133.586	    24.523
    62.228	  -128.947	     7.814
    48.453	  -141.300	    -2.161
    44.119	  -150.873	    10.743
    53.712	  -159.594	     7.330
    49.003	  -142.118	    15.159
    43.119	  -125.363	     0.104
    42.400	  -138.176	    11.284
    56.921	  -147.827	     4.962
    56.663	  -174.060	   -11.213
    52.978	  -157.885	   -12.894
    45.895	  -137.026	   -12.991
    54.932	  -156.874	   -17.282
    49.588	  -130.067	    13.237
    46.718	  -134.360	    23.058
    44.188	  -165.602	     9.282
    58.982	  -174.848	    -4.619
    49.322	  -161.551	     1.906
    46.922	  -148.757	     1.946
    50.938	  -121.483	    -3.583
    45.780	  -139.111	     2.158
    60.482	  -148.719	    -0.001
    45.849	  -146.843	    18.755
    48.377	  -142.227	     8.563
    51.646	  -167.042	     0.237
    52.529	  -165.701	     4.194
    52.402	  -155.930	    19.284
    45.926	  -115.952	     8.257
    36.291	  -136.466	    -3.014
    46.223	  -131.466	     3.627
    45.882	  -159.698	    12.843
    52.557	  -147.678	    -0.164
    44.289	  -146.445	     8.443
    51.494	  -129.914	    -1.171
    53.404	  -147.348	     7.270
    38.721	  -112.649	    -4.756
    51.772	  -155.192	    17.784
    50.835	  -153.139	    -9.643
    55.946	  -158.555	    18.880
    37.700	  -139.719	    -2.193
    38.906	  -156.005	    18.630
    38.131	  -161.109	     4.924
    52.587	  -170.523	     4.384
    49.924	  -152.575	     6.680
    51.047	  -150.975	    17.990
    58.029	  -158.208	     8.920
    49.948	  -135.195	   -11.076
    50.851	  -148.315	    13.111
    67.949	  -131.038	    -2.049
    55.864	  -118.940	     7.538
    52.157	  -139.508	    18.075
    53.579	  -135.931	    -0.182
    61.300	  -145.098	    -5.448
    43.944	  -133.012	    18.222
    52.899	  -126.794	    12.852
    51.749	  -141.019	    21.059
    57.997	  -140.014	   -14.534
    40.010	  -135.174	    -4.159
    48.239	  -143.835	   -13.123
    49.905	  -146.181	   -17.342
    56.741	  -147.414	    -2.477
    43.459	  -138.501	     9.896
    44.731	  -149.769	    -4.385
    53.382	  -161.943	    11.787
    59.041	  -155.166	    -0.988
    61.106	  -154.929	    -9.795
    48.783	  -159.142	     2.480
    57.624	  -146.198	    -6.578
    65.433	  -155.741	   -20.353
    49.895	  -147.549	     4.914
    47.523	  -174.359	     9.000
    45.581	  -147.704	    -2.242
    42.335	  -151.121	    15.554
    52.067	  -139.103	    -3.323
    59.748	  -101.369	   -24.865
    42.412	  -122.861	    -2.181
    48.798	  -147.939	   -14.530
    41.341	  -137.784	    15.724
    57.425	  -143.032	    28.886
    42.749	  -130.893	    15.439
    45.590	  -175.509	    -3.787
    52.704	  -141.688	    20.330
    53.388	  -152.406	    -9.108
    40.333	  -121.822	    -1.929
    54.435	  -145.908	    -0.541
