   -92.310	   122.143	    -3.179
   178.381	  -103.844	    14.261
   172.306	  -124.217	    11.247
  -171.340	  -118.445	    11.957
  -174.433	  -108.868	    -3.902
   172.186	  -125.323	    -2.083
  -159.132	  -108.018	     5.394
   172.543	  -117.846	    -4.759
   176.659	  -157.051	    -9.776
   173.846	  -157.247	    -4.379
   176.777	  -171.155	     6.339
  -179.519	  -143.375	    10.322
  -171.331	  -173.160	     2.483
  -176.993	  -108.565	     1.835
  -179.544	   -81.483	    -1.865
  -177.272	  -114.734	    -9.484
   150.357	  -105.774	     7.393
  -173.651	  -117.306	     5.122
  -165.573	  -141.689	     6.537
  -167.452	  -115.641	    17.785
  -174.240	  -107.147	    -0.366
   164.104	   -74.691	     5.828
  -172.659	   -88.365	     4.810
  -163.431	   -80.964	     6.552
  -178.642	  -111.522	     8.867
  -171.315	  -105.694	    16.656
   161.281	   -54.467	    15.325
  -179.963	   -82.718	     2.393
  -178.970	   -85.230	    11.487
   176.009	  -111.445	    24.712
   179.057	  -100.483	     0.606
   169.691	   -96.016	    31.329
  -166.499	  -121.850	     4.273
  -175.267	  -130.137	     5.637
  -172.939	   -81.546	    -5.638
   173.854	  -126.308	    17.805
   179.593	  -116.095	    -1.908
  -169.427	  -128.650	    21.472
   172.342	  -106.112	    25.551
  -173.515	   -86.347	    -2.802
   176.276	   -86.572	    -2.924
  -173.807	  -103.383	    -9.400
   175.754	  -111.598	    14.995
   175.785	  -120.126	     3.491
   178.527	  -142.305	    -1.462
   172.812	  -108.557	    15.268
  -179.990	  -130.780	    15.590
  -171.235	  -144.414	     9.180
  -157.801	  -125.232	     2.864
   171.711	   -90.039	    -6.741
   174.505	   -95.719	    -7.888
   152.407	  -115.904	    18.937
  -167.244	  -118.816	     5.964
   169.206	  -106.042	    -0.406
  -162.548	   -87.032	    11.854
  -166.052	  -125.373	    20.986
  -174.892	  -144.041	    13.802
  -162.153	  -158.299	    -9.170
   174.936	  -132.220	     7.075
  -156.184	  -166.480	    -4.414
  -168.892	  -138.046	   -16.322
  -174.405	  -126.800	    -9.486
  -170.379	  -140.897	    -4.301
   175.557	  -120.856	     7.725
   173.181	  -121.128	   -16.992
   178.215	  -161.256	    14.266
   177.275	  -128.413	    18.762
   157.443	   -94.864	    -5.529
   178.695	   -87.125	    17.192
  -174.194	   -92.565	     9.022
  -177.651	   -84.325	   -10.109
   162.759	   -89.978	    -0.914
  -171.681	   -94.700	    -6.454
   169.840	   -91.714	    26.443
   177.721	   -73.559	     6.818
  -171.520	   -91.977	    27.149
   179.260	   -71.899	   -10.577
  -164.591	   -97.477	    10.105
  -166.585	  -136.291	     9.613
   174.890	  -143.289	     4.071
  -166.833	   -62.824	   -22.741
   173.514	   -90.742	     8.267
   157.185	  -109.403	    -6.290
   158.522	  -114.781	   -12.220
   179.377	   -80.890	     0.447
   176.678	   -71.863	     9.943
   179.258	   -77.233	    10.259
  -175.087	  -102.680	    -1.742
   171.251	  -100.836	    -2.426
   171.959	  -103.310	    -3.543
  -174.867	   -92.317	    21.306
  -178.015	  -114.526	    15.432
   179.034	   -97.608	    -7.757
   173.168	   -97.717	    -8.776
  -168.179	  -112.905	     3.932
   176.686	  -124.824	    -0.362
   158.645	  -104.855	     6.980
   169.875	  -103.948	    14.929
  -173.983	  -103.655	     2.040
  -176.188	  -101.044	    10.969
  -173.391	  -133.731	     8.467
  -172.151	   -97.097	     9.066
  -158.235	  -117.353	     6.721
  -176.042	  -117.142	    15.122
  -177.490	  -112.313	     6.848
   178.853	  -110.433	    16.210
  -166.529	  -104.607	    19.293
  -167.015	   -94.237	    16.404
   177.664	  -105.417	   -14.975
   170.087	   -70.270	     3.614
  -179.332	   -71.729	    -7.440
   168.252	  -113.899	    14.441
   177.152	  -115.785	     6.979
   162.587	  -116.060	    20.539
  -173.747	  -112.547	     2.947
   179.202	  -111.106	    13.989
   179.181	  -109.885	     3.634
   174.228	  -126.939	    27.416
  -166.576	  -117.866	     0.330
   172.574	  -127.136	    13.088
  -167.657	   -86.279	    11.739
   171.012	   -76.712	     1.178
   178.220	   -79.638	     7.202
  -175.463	   -82.719	    -7.981
   164.576	   -87.231	    14.919
  -177.220	   -87.585	    -9.697
   138.684	  -109.705	     7.441
   179.484	  -105.500	    20.554
  -176.352	  -138.499	    21.434
  -170.924	  -130.410	     6.666
  -169.361	  -124.236	    11.249
  -171.914	  -125.495	    11.115
  -170.529	  -118.195	     3.480
   175.250	  -126.568	     2.180
  -174.937	  -128.031	    17.622
  -170.926	   -99.242	    14.435
   172.475	  -117.065	    18.287
  -163.196	   -87.209	     4.055
   169.756	  -105.988	    17.550
  -177.952	   -85.647	    14.341
   178.869	   -80.661	    -4.316
   175.288	   -81.105	     3.476
   176.965	   -83.952	    14.491
  -176.671	  -104.335	    18.890
   176.562	  -102.528	     6.164
   176.579	   -83.530	     4.144
  -179.050	   -86.667	     9.310
  -176.156	   -93.156	    10.633
   170.526	   -70.522	   -14.060
  -179.468	  -116.033	    -5.083
  -177.516	  -100.830	    -0.691
   172.647	  -110.754	    21.621
  -177.410	   -75.376	     5.438
   176.872	   -66.566	   -15.692
   163.407	   -88.133	    -3.615
   158.195	  -121.432	    -1.389
   175.231	   -71.871	    -4.576
   168.585	   -89.480	    12.091
   165.616	   -81.066	    13.106
   174.901	   -73.418	     5.823
  -177.771	  -121.391	    14.229
  -163.063	  -115.994	    12.185
   179.633	  -111.968	     2.085
  -172.206	   -88.493	    -7.739
  -171.126	  -138.444	    -2.163
  -179.244	  -160.738	    17.012
  -176.437	  -137.803	    24.079
   177.591	  -122.639	     5.309
  -172.623	  -115.313	     8.392
  -174.977	  -122.085	    11.096
  -170.235	   -89.513	    12.406
   176.809	  -110.973	    10.129
  -175.114	   -97.997	     1.099
  -168.925	  -115.108	     1.254
  -167.221	  -108.138	     5.816
  -165.563	  -129.526	     2.607
   177.265	  -132.080	     5.427
   169.991	  -117.224	    -9.332
   176.750	  -134.713	    -0.111
  -178.411	  -109.393	   -11.882
   174.955	   -99.856	    12.863
   171.672	  -105.783	    22.940
  -175.902	   -88.089	     4.133
   177.680	   -91.532	   -10.203
  -176.192	   -92.678	     8.792
   177.984	   -69.547	     3.808
   179.021	   -90.472	    -1.968
   179.119	  -124.688	     6.423
  -178.193	   -71.922	     0.027
   174.058	   -99.012	     4.537
  -177.576	  -105.882	   -11.576
   178.679	   -91.111	    12.116
   172.906	   -89.044	    22.552
  -177.165	   -94.452	     9.380
   178.400	  -137.957	    23.825
  -169.402	  -111.046	    16.985
  -169.683	  -144.074	    -2.241
  -173.235	  -142.217	    17.765
  -165.519	  -134.164	     5.922
   168.034	  -110.740	    21.928
  -165.793	  -125.758	    11.293
   176.542	  -150.310	    21.412
  -178.469	  -102.662	     2.418
  -174.252	  -122.739	    18.230
   177.494	  -115.051	    19.649
  -165.758	  -101.547	     5.209
  -172.062	  -116.044	    10.035
  -161.403	  -113.897	     5.858
   170.815	   -89.575	    12.928
   177.094	   -74.486	     7.946
  -168.279	  -102.645	    -0.879
   176.600	  -111.876	     4.132
  -163.828	   -92.066	     7.195
  -173.119	   -94.546	    -3.437
   167.009	   -86.866	     5.231
  -178.963	  -107.104	    17.200
  -178.228	   -89.582	    11.911
  -165.562	   -77.682	     2.621
  -168.719	   -79.896	    11.640
  -166.220	   -95.085	     6.303
   178.675	   -77.071	     5.901
  -173.566	  -157.742	    10.903
  -164.880	   -85.814	     6.770
   171.368	   -84.010	     7.068
  -170.934	  -107.614	     5.486
  -169.238	  -133.454	    14.058
  -166.836	   -91.539	    15.312
  -159.584	  -120.068	     7.853
  -174.449	  -100.900	    14.104
  -176.956	  -102.838	    -9.808
   173.397	  -121.517	     8.981
  -157.167	  -101.882	     3.191
  -173.509	  -117.319	     3.221
  -167.239	  -140.922	     0.897
   176.886	  -140.239	    30.541
   170.293	  -130.410	     5.771
  -170.973	  -137.245	    -2.931
   176.633	  -118.986	     7.403
  -178.670	  -133.366	    10.947
  -171.315	  -117.506	     4.277
  -177.317	  -130.420	    16.541
   170.570	  -103.433	     4.799
  -162.959	  -123.417	     1.439
   170.320	  -146.708	    30.394
  -168.393	  -112.673	     7.912
   177.418	   -53.741	   -12.281
  -160.886	   -95.890	     5.331
  -177.216	  -131.626	    11.460
  -176.969	  -111.285	    13.309
   173.308	  -128.037	    11.323
  -178.236	   -97.374	     0.205
  -179.169	  -125.436	    28.098
  -174.476	  -122.607	    31.297
  -173.178	   -87.570	    16.279
  -179.897	  -126.653	     7.728
   179.315	  -128.924	     9.057
  -164.433	  -106.555	     1.832
  -162.267	  -106.762	    12.644
  -170.939	  -141.928	    17.393
  -164.801	  -132.882	     0.139
  -174.052	   -81.225	    11.645
  -175.036	  -129.956	     7.631
  -179.956	  -128.104	    26.033
  -167.596	  -106.235	     3.448
  -175.266	   -84.857	     7.000
   160.845	  -103.571	     3.570
   170.739	  -143.863	     8.357
   177.409	   -97.145	    19.749
  -171.710	  -100.905	    -2.644
  -173.838	  -116.880	     0.745
  -169.524	  -117.990	    11.648
  -176.125	  -120.199	    13.657
   179.515	  -124.998	     3.628
   172.268	   -82.174	    26.206
   174.156	   -98.498	    14.441
   166.545	   -85.881	     2.778
   157.640	   -89.906	    28.071
   173.106	   -85.022	     7.647
   169.403	  -105.262	   -24.573
   174.313	   -80.239	    12.613
   176.841	   -69.359	    -7.752
   175.058	  -117.004	    10.072
   179.154	  -106.912	    12.559
  -179.235	  -104.873	     0.759
  -173.235	  -121.665	    11.632
   174.940	  -112.697	   -15.405
   162.734	  -111.271	     8.031
   177.958	   -76.436	    14.713
  -175.364	   -90.365	     4.872
   172.671	   -85.155	    15.950
  -162.582	  -115.684	     1.360
  -167.110	  -110.078	    14.803
  -150.432	  -109.128	    17.853
  -158.993	   -74.862	   -19.292
  -164.419	  -104.409	    -8.661
   177.615	   -75.330	    -0.447
  -179.924	   -95.612	    20.449
  -175.213	   -93.797	    16.046
  -170.719	  -118.684	    23.243
  -165.918	  -108.627	    28.501
   162.947	   -92.239	    24.305
  -173.816	  -106.345	    27.918
  -171.693	  -152.222	    19.154
  -179.880	  -127.332	    -9.012
  -174.716	  -101.901	    -0.866
   178.234	  -100.573	    -4.895
   159.195	  -104.934	    -6.833
   176.596	   -66.125	    13.779
   164.945	   -80.504	    26.539
  -179.752	   -71.727	    24.582
  -174.864	   -90.915	    23.300
  -176.994	   -99.599	     9.347
  -175.052	   -89.412	     4.826
  -172.595	  -108.759	    -5.348
  -173.689	  -129.412	    10.291
  -169.071	  -110.685	   -17.727
   167.108	  -127.560	    10.693
  -170.277	   -99.025	    -3.879
   176.144	   -97.032	    14.065
   169.530	   -81.478	   -10.124
   169.016	   -90.351	    21.256
  -173.117	  -114.851	    12.486
   175.915	  -125.869	    -3.728
   178.832	  -103.959	     2.915
  -175.580	  -108.596	    14.735
   177.731	  -134.911	    -4.306
   179.687	  -130.369	    -7.008
  -163.706	  -126.220	     6.860
   169.624	  -106.392	     9.951
  -171.660	   -89.674	    -3.015
   160.477	   -98.235	    -4.736
  -168.570	   -77.791	   -10.276
  -175.888	   -80.981	     4.817
  -173.492	   -98.996	     3.183
   173.340	  -134.814	    11.403
  -177.972	  -120.189	    14.901
  -178.104	   -87.470	     4.850
  -179.303	  -100.333	     3.281
  -177.023	  -113.315	     1.478
   168.917	  -164.440	     6.301
  -177.052	  -119.742	     1.919
  -177.719	   -79.294	     0.076
  -158.004	   -76.871	   -13.905
  -176.481	   -76.108	    -2.138
  -160.470	   -87.478	     6.841
   168.492	   -80.553	     5.764
   172.180	   -98.628	    12.763
  -160.789	  -100.784	     3.423
   166.672	  -145.518	    14.241
  -176.400	  -114.130	    -1.998
  -166.655	   -90.665	   -17.075
  -177.893	  -150.700	    16.822
   168.849	  -132.621	   -10.167
  -174.095	  -151.877	     7.617
   175.557	  -145.130	    -3.827
  -178.768	  -150.705	    -1.385
  -177.732	   -88.871	    21.136
  -175.479	  -104.810	    -0.205
   175.065	  -130.085	    22.191
  -179.845	  -126.717	     5.293
  -164.547	  -130.130	     4.308
  -165.992	  -121.180	     3.003
  -169.636	  -134.760	    14.634
   179.222	  -119.595	    22.010
  -176.453	  -122.380	    14.235
  -164.928	  -150.681	     6.388
  -164.727	  -105.222	    14.448
  -173.522	  -118.092	    -2.451
   176.691	   -88.087	    12.582
  -176.797	   -90.379	    -1.261
  -171.488	   -87.267	     1.636
   173.420	   -96.914	     3.941
   173.648	   -82.869	    26.585
   177.799	   -75.088	    -0.257
  -174.004	   -89.071	     7.154
  -170.507	   -89.700	    -3.042
  -170.154	   -97.358	     8.477
   173.924	   -80.183	    11.266
  -179.435	   -90.629	     5.119
   173.670	  -100.576	     9.309
   170.741	   -80.779	     1.442
  -164.754	  -121.112	    -9.445
   165.435	   -93.480	    -9.446
  -175.024	  -110.299	   -10.191
  -165.852	  -108.844	     7.732
  -175.383	   -93.064	    23.605
  -178.308	   -91.118	    20.146
  -174.749	  -118.908	    16.049
  -176.251	  -101.895	    26.537
   178.622	  -143.003	     3.955
  -171.297	  -134.877	     2.789
  -177.452	  -120.549	     8.943
  -175.736	  -112.471	     2.535
  -169.507	  -111.173	     2.268
  -171.739	   -72.885	    17.336
  -155.321	  -106.517	    -1.326
  -176.443	   -94.927	    21.124
   178.180	  -102.149	     6.264
   173.873	  -108.628	     3.039
  -175.485	   -96.162	     1.520
  -165.830	  -104.217	     9.350
  -175.679	   -93.427	     2.384
  -174.646	   -84.837	    -3.872
  -177.256	   -84.461	    -2.225
   169.565	  -142.804	     1.490
  -170.586	  -100.053	    -4.518
   175.633	  -135.691	    21.204
  -178.199	  -142.139	    24.038
  -171.913	  -107.842	     6.972
  -166.866	   -92.713	     7.564
  -172.371	  -102.410	    15.015
  -175.259	   -91.143	     9.110
  -169.609	   -97.777	    15.030
  -167.116	  -108.511	     4.866
  -171.831	   -95.785	   -23.003
   165.126	   -94.049	     7.871
  -172.848	   -98.485	    17.493
  -165.641	   -98.476	    14.697
   179.757	   -77.831	    -0.733
   173.744	  -101.356	    -5.613
  -175.124	   -77.984	     6.406
   173.689	   -93.390	    -3.572
  -177.222	   -87.484	    13.094
  -178.890	   -86.650	    11.106
   177.567	   -88.373	    12.306
  -175.642	   -98.792	    10.541
   173.728	   -77.681	     2.524
  -170.739	   -97.703	    29.788
   177.270	   -91.407	    23.531
  -179.049	  -118.391	    -3.544
   170.907	  -105.829	    11.928
  -172.028	   -95.518	    12.647
   178.118	  -107.026	    -6.081
  -166.861	  -142.104	   -17.390
  -174.713	  -105.003	    18.202
  -178.879	  -118.157	    13.675
   178.681	   -74.977	     5.795
   176.384	   -74.489	     2.879
  -172.958	   -64.804	     6.436
  -177.413	   -90.066	    15.975
  -179.493	   -79.575	     9.820
  -173.994	  -103.351	    -4.534
   179.059	  -104.380	     7.513
  -179.619	  -107.237	    -2.855
  -175.290	  -153.491	    19.694
   176.599	  -128.528	    24.804
  -156.586	  -113.448	    15.885
   164.174	  -140.391	    -3.442
   165.834	  -139.723	    11.073
  -172.704	  -151.159	    -2.284
  -170.908	  -132.770	     0.522
  -176.092	  -111.397	    -1.485
   179.274	  -109.726	    13.600
  -170.568	  -115.755	     5.912
   176.067	  -132.553	     1.182
   165.163	   -96.415	     9.413
  -171.704	   -78.040	    -0.740
   173.790	  -112.283	    24.118
   166.809	   -91.034	    -7.909
  -166.121	   -82.193	    10.004
  -176.519	  -110.158	    14.509
   179.827	  -119.237	    15.356
  -168.441	  -115.525	    -2.508
   178.326	   -98.718	    11.827
   179.179	   -92.065	     5.209
  -173.943	   -89.073	   -20.113
   175.100	  -131.814	    14.707
  -179.282	  -109.847	    -1.957
   179.180	  -136.331	    14.963
  -173.690	  -128.024	    12.400
  -169.527	  -132.197	    14.631
   172.875	  -118.797	    12.237
  -175.819	   -86.089	     8.893
  -177.260	  -119.100	    -1.701
   169.891	   -74.513	    -4.239
   172.334	   -84.033	     6.353
  -178.717	  -113.771	    29.300
  -165.459	   -96.011	     6.128
   178.728	   -98.709	    29.234
   179.342	   -93.054	     4.354
   169.104	  -103.907	    -1.560
   164.471	  -103.886	     5.459
   175.268	  -136.993	    20.621
  -175.477	  -107.582	    -6.021
   166.443	   -80.655	    -8.460
   178.079	   -92.895	     1.719
   174.233	  -109.088	     2.473
  -174.619	   -80.750	     3.356
  -173.828	   -87.685	    10.552
   178.145	  -102.437	    15.579
  -175.832	   -81.337	     3.163
   155.323	  -106.260	    13.902
  -166.679	   -74.676	    10.627
   176.158	  -104.538	    -2.209
   169.275	  -100.768	     1.375
  -163.263	  -131.650	   -11.639
  -179.905	  -126.927	    10.189
   173.433	   -96.071	    12.710
  -172.497	  -123.125	    13.664
  -176.640	   -93.445	     7.403
   176.379	  -114.712	   -10.836
  -176.164	  -124.194	    20.957
  -176.482	  -117.381	     2.070
   167.704	   -79.435	    19.094
  -167.297	  -102.227	     1.115
  -178.967	  -132.292	    12.654
  -174.374	   -68.019	    18.796
  -172.723	   -82.285	     0.067
   179.211	   -86.392	    12.740
   173.526	  -133.716	    32.244
   175.810	   -93.037	    18.888
  -177.187	   -84.703	    -6.455
  -161.197	   -93.990	    10.253
  -165.817	  -121.719	    22.843
  -174.378	  -113.441	    15.481
  -172.479	  -126.290	    -7.754
  -176.801	  -118.851	     3.477
  -166.135	  -119.022	    -8.889
   170.533	  -140.133	     6.893
   178.304	  -138.401	     6.762
  -170.764	  -153.886	    -1.279
   179.694	  -103.492	    17.653
   177.299	   -94.225	    -6.389
   155.519	   -86.815	    25.872
  -173.688	   -76.343	    -8.546
  -177.481	   -73.646	    -5.825
  -173.745	   -83.115	     6.592
   166.427	  -108.328	    -2.773
   174.526	  -108.996	    17.392
  -176.832	   -91.919	     1.230
   177.123	  -117.651	    17.510
   174.418	   -92.028	     0.043
  -179.324	  -119.764	    16.955
  -159.003	  -120.224	    -7.220
  -165.017	  -109.215	     1.848
  -174.409	  -103.266	     1.156
  -168.843	  -126.388	     7.505
   171.495	  -102.091	    21.860
  -174.544	  -130.463	    -3.004
  -175.580	  -140.582	    -0.372
   175.037	  -131.665	    -8.648
   169.735	  -125.699	     0.448
   170.900	  -116.151	    21.234
  -172.387	   -87.540	     6.224
  -177.145	   -91.324	    16.379
   166.210	   -98.425	    10.560
  -178.432	   -84.811	    -3.025
  -175.796	   -78.154	     3.961
  -177.962	   -61.757	     6.280
  -170.346	   -83.412	    -1.514
  -173.343	   -91.816	    11.517
  -177.541	   -99.638	    -7.557
  -167.500	   -98.996	    15.833
  -175.353	   -65.442	    -5.952
  -176.961	   -73.825	    -1.732
   175.990	   -85.758	     0.090
  -167.629	   -86.843	    -2.368
  -160.904	   -79.454	    11.286
   169.197	  -104.330	    20.992
  -169.451	   -93.546	    14.296
  -164.385	  -102.253	    15.310
  -162.346	  -104.602	     5.702
  -168.860	  -132.845	    18.732
  -179.915	   -69.744	    -7.689
  -175.697	   -80.148	     5.039
  -173.575	   -80.128	    15.648
  -174.000	  -101.011	     4.868
  -175.689	  -107.127	    15.976
   173.932	   -72.626	    12.814
  -179.627	  -119.846	     0.814
   157.201	   -98.576	     7.134
   158.690	   -62.531	    -1.455
   179.872	   -81.184	    -3.846
   174.406	   -78.442	     2.081
  -171.200	   -96.116	    -3.323
  -167.199	  -140.770	    18.393
  -173.529	  -142.549	    21.444
  -176.982	  -121.670	    11.328
  -163.494	  -105.100	     3.037
  -166.099	  -115.964	    14.671
  -176.365	  -127.141	     5.121
  -179.824	   -96.714	    17.324
   166.463	   -97.113	    18.513
   169.376	  -142.679	    20.390
   178.385	  -106.532	   -18.311
   170.413	  -145.803	    -2.819
   177.771	  -102.484	     7.230
  -174.289	   -71.042	    -1.526
  -173.662	   -93.728	     4.676
  -172.235	  -110.835	    22.113
  -165.840	   -90.672	     7.755
  -171.269	   -88.157	     3.766
   177.594	  -109.164	   -10.630
  -175.096	   -91.982	    16.852
  -172.002	   -78.791	    11.192
  -179.958	  -103.938	    25.529
  -175.240	  -113.402	     9.865
  -165.735	   -87.507	    -7.255
  -173.115	   -90.279	     3.357
   178.225	  -102.414	     9.288
  -173.773	   -99.725	    10.182
  -172.538	   -94.207	     0.621
   172.494	  -105.204	     4.350
  -167.616	   -99.778	    11.336
  -177.786	   -92.760	    14.851
   177.717	   -90.914	     3.430
  -160.885	  -105.243	     2.787
  -177.612	  -120.377	    19.937
  -175.851	   -93.106	    20.746
  -169.207	  -128.434	    -5.230
  -170.053	   -98.166	     9.288
  -168.038	  -123.754	    12.271
  -175.902	   -99.659	     7.975
  -168.719	   -96.044	    -0.208
  -176.525	   -83.978	    11.329
   174.652	   -67.577	    20.306
  -176.991	  -132.530	    -5.843
  -171.599	  -116.612	     7.735
   169.692	  -100.889	     9.572
   151.212	   -97.315	    -3.502
  -165.135	  -106.002	    -5.294
  -175.396	  -128.684	    16.348
  -169.780	   -98.249	     2.828
  -171.472	   -84.991	     3.388
  -176.112	   -75.418	    14.786
  -159.180	  -131.180	    10.647
  -179.787	  -131.842	     1.229
  -160.595	  -145.671	     0.876
   169.837	  -127.376	    14.279
   177.587	  -128.597	    10.168
  -177.720	  -120.537	     8.693
  -179.269	  -110.416	    12.169
  -177.900	  -104.572	    -6.311
   175.927	   -96.599	    10.258
   175.850	   -95.915	    12.243
  -177.740	   -87.980	     3.329
  -174.638	  -107.240	     1.922
  -165.495	  -107.321	     2.148
  -161.362	  -101.828	    15.192
  -168.152	  -105.763	    11.726
   175.589	   -78.825	     7.962
  -175.071	  -100.713	    18.966
  -179.851	  -108.517	     9.265
  -174.264	  -105.092	    -4.068
  -174.357	  -101.279	     1.264
   174.264	   -90.066	    -6.304
  -178.976	   -93.459	    17.007
  -170.365	  -127.799	     8.341
   146.107	  -112.239	    -4.117
   152.988	   -98.357	    -7.921
  -174.940	  -137.228	     4.043
   171.114	  -108.542	    16.946
   170.913	  -101.733	    -2.858
   179.211	   -87.636	    23.650
  -176.318	  -116.701	    14.207
  -173.159	   -94.207	     5.186
  -170.422	  -114.511	    12.067
   179.744	  -140.343	    15.159
  -166.510	  -138.272	    14.407
  -168.206	  -103.711	     6.220
  -172.671	   -99.014	     1.758
  -171.301	   -92.217	    13.763
  -178.053	   -88.112	    16.838
   175.995	   -72.278	    -3.461
   151.351	   -99.767	    11.039
  -164.609	  -110.133	     9.852
  -177.766	  -110.919	    14.115
  -179.986	  -107.719	    18.567
   177.960	  -105.978	    -4.259
  -176.471	  -118.022	     9.298
  -170.330	   -77.488	    11.647
  -164.092	  -103.820	   -10.362
  -178.815	  -111.642	     6.273
  -168.369	   -86.629	   -11.725
   175.996	  -108.673	     7.728
  -175.563	   -94.293	     5.223
  -164.901	  -105.602	    13.351
  -177.127	   -82.243	    13.733
   174.189	  -126.632	    28.373
   177.204	  -104.160	    -5.827
   179.743	  -109.731	    15.838
  -172.765	  -113.046	   -13.364
   179.696	  -127.443	     5.925
   165.274	  -120.395	    -2.156
   164.949	  -104.627	    -1.713
   178.844	   -74.493	    -7.590
  -175.631	   -92.064	     9.802
  -161.130	   -95.081	    12.813
  -171.741	  -127.322	     7.300
  -172.868	  -107.944	   -15.626
  -157.805	  -137.600	     2.368
   178.353	  -128.226	     9.308
  -176.442	  -102.660	     9.588
   169.635	   -83.282	    32.423
  -173.619	   -76.834	     3.161
   173.083	   -73.335	    12.311
  -179.034	   -91.198	    -2.324
  -170.386	   -57.674	    -3.521
  -162.816	   -70.561	     8.982
  -178.536	  -102.224	    20.418
   162.340	   -86.832	    10.803
  -174.324	   -73.914	     5.876
  -159.747	   -89.934	    -7.422
   178.616	  -110.181	     2.022
  -178.049	  -131.462	   -11.744
   175.943	  -103.779	    -7.678
   178.419	  -115.457	    14.217
  -172.482	   -81.477	    -1.380
  -177.387	  -104.139	    13.943
  -171.455	  -106.802	    -2.492
   174.274	  -115.745	    -5.904
   177.501	   -97.427	    14.739
  -168.170	  -113.565	    -4.379
   174.290	  -133.399	    11.013
  -176.747	  -128.243	    -1.013
  -179.228	  -114.900	    12.459
  -163.675	  -123.149	    -1.324
   171.407	  -107.976	    10.348
  -170.713	  -123.241	    10.859
  -171.126	  -142.726	    -6.016
  -169.477	  -117.087	     9.721
   178.495	  -143.007	     8.552
   168.589	  -140.519	     6.821
  -169.522	  -131.083	   -21.791
  -166.635	   -99.178	    14.626
  -171.721	   -89.863	    -3.149
  -178.109	  -127.830	   -10.761
   172.727	  -140.056	     1.799
   179.303	  -142.119	    -5.496
  -176.344	  -111.572	     4.610
   173.335	   -80.854	     2.441
  -178.718	   -86.982	    14.828
   168.495	   -77.879	     2.604
  -170.349	   -93.881	    14.614
  -175.052	   -99.224	    23.040
   167.317	   -80.369	     2.358
   179.836	  -128.843	   -16.778
  -172.320	  -130.140	    -2.638
   158.371	   -75.546	    -9.975
  -172.683	  -126.062	    24.179
  -174.957	  -100.823	     3.149
   177.511	   -89.136	   -12.302
   159.742	  -111.291	     5.208
   178.423	   -90.356	    14.633
  -173.535	   -88.033	    13.629
  -177.769	   -93.555	    16.787
   179.797	   -69.694	    16.392
   176.691	   -82.862	   -10.713
  -176.103	   -69.264	   -13.865
   173.126	   -83.393	     8.449
  -176.189	  -109.358	    -3.644
   177.160	   -98.953	    -4.900
  -174.469	   -89.792	    10.066
   178.637	  -115.543	    12.673
   177.022	  -109.639	    14.789
   173.626	   -83.635	     3.090
  -179.597	   -96.319	    -0.583
   173.248	  -118.716	    -1.430
   166.231	   -95.946	     7.047
   168.060	   -80.587	    10.195
  -176.768	   -97.036	     3.621
   171.421	   -90.783	    10.205
   171.127	  -119.433	     0.771
  -178.408	  -113.916	     2.263
  -175.573	  -134.812	     5.412
  -174.432	  -134.677	     2.632
   179.950	  -100.381	     4.199
   176.347	   -76.527	    -0.558
  -178.243	   -88.708	     4.123
   177.758	   -83.248	    16.230
  -164.581	   -86.316	     3.997
  -168.739	   -81.760	    11.956
  -173.455	   -66.141	    26.809
  -168.755	  -117.709	     6.286
  -174.930	  -125.271	    20.089
  -178.762	  -102.294	    -8.485
  -178.660	   -85.054	    -1.505
   169.937	   -85.178	     4.858
   169.274	   -87.712	    30.636
   173.888	   -91.167	    -6.539
   168.203	  -106.595	   -14.262
   178.059	   -91.987	    -7.871
   172.698	   -80.817	    -6.067
  -179.210	   -69.119	     5.714
  -177.922	   -86.560	    -1.850
  -174.917	   -93.486	    13.537
  -163.175	   -75.836	     5.912
  -166.125	  -124.296	    15.134
  -165.350	  -100.692	    -4.291
  -178.870	  -101.668	     6.133
  -174.802	  -122.359	     7.704
  -168.496	  -112.079	     6.312
  -167.966	  -108.195	     2.011
   177.548	  -120.274	     6.612
   176.927	  -128.419	    17.480
  -161.237	  -114.292	    -3.487
  -175.138	  -114.837	     8.176
   174.840	   -98.457	     9.901
   174.799	  -103.786	     9.637
  -171.215	  -128.010	    17.564
  -170.843	   -99.408	     3.837
   173.057	  -109.120	    -0.584
   169.085	   -96.772	    -3.064
  -163.732	   -81.619	     4.616
  -171.569	   -91.928	    10.700
   173.396	   -82.040	     7.188
  -174.498	  -101.806	    12.294
  -168.486	   -75.563	     3.319
   179.358	   -71.512	    20.446
   179.044	   -72.118	     3.676
  -175.548	  -105.024	     8.055
   171.564	   -96.297	     8.240
   171.258	   -89.240	    -5.906
  -170.795	  -113.599	     3.121
  -165.507	  -109.251	    16.377
   168.452	  -137.563	    15.007
  -171.191	  -107.560	     5.652
  -168.682	  -122.609	     7.006
   176.229	  -127.620	     2.345
   175.737	  -102.182	     5.484
   175.552	  -104.718	    14.810
  -169.627	  -105.610	    10.209
  -168.652	  -117.126	   -18.297
   173.716	   -93.515	    19.542
  -178.670	  -100.016	   -10.995
  -165.668	  -135.519	    -6.230
  -167.653	  -121.877	    20.060
  -173.902	   -93.791	     8.736
  -169.590	   -98.268	    -6.970
  -171.334	  -118.960	     3.933
  -179.070	   -95.316	    16.860
   174.974	   -90.405	     2.421
   144.377	   -75.023	    -6.807
   167.519	   -92.802	    10.214
  -177.210	   -91.276	     0.910
  -168.982	   -74.038	     9.352
   168.507	   -95.374	    17.515
  -171.838	   -62.156	    11.506
  -170.616	   -81.737	     9.329
   177.514	  -117.352	    -6.138
  -165.171	  -135.285	   -15.769
  -168.409	  -121.176	    12.392
  -174.564	  -124.525	     4.130
   164.885	  -130.565	     8.006
   168.366	   -95.023	     4.743
  -169.408	  -142.177	     9.407
  -175.233	  -143.693	    -0.362
   178.606	  -114.050	    18.023
  -177.246	  -111.285	    20.915
  -178.022	  -136.553	     1.215
  -169.822	   -74.123	    16.011
  -176.377	   -88.453	    -9.625
  -173.384	  -105.929	     1.812
   169.483	   -96.680	   -21.291
   179.782	  -105.433	     2.381
  -171.860	  -102.946	    13.489
   176.404	  -107.150	     2.639
  -162.430	  -109.840	    16.359
  -173.232	  -141.526	    14.910
   179.658	  -130.194	    15.817
   178.463	  -121.758	     5.733
  -169.243	  -124.060	    22.950
  -172.397	  -135.700	    16.841
  -168.752	  -104.990	     4.825
   178.211	   -86.439	    10.244
  -165.383	  -118.955	    10.167
  -178.411	  -104.187	     4.583
  -168.495	  -110.575	    -1.867
  -162.658	  -105.750	    -9.660
   174.806	  -147.160	     9.338
  -169.017	  -148.162	    11.671
  -164.776	  -105.431	    -8.685
  -177.679	  -117.183	    20.384
  -166.476	  -124.734	     2.950
  -173.978	  -101.918	    -7.960
  -175.109	  -111.302	    20.878
  -168.604	  -133.285	    11.625
  -165.641	  -126.520	    -8.600
  -177.826	  -102.864	    -0.115
   178.667	  -116.073	    11.898
  -175.497	  -140.727	     8.557
  -174.363	  -139.103	     9.351
  -178.964	  -170.746	    17.400
  -166.145	  -150.046	   -11.876
  -170.698	  -130.033	    21.457
  -169.243	  -135.556	    18.114
   178.163	  -138.218	    -4.951
  -165.585	  -103.873	     3.795
  -177.647	   -83.918	    -0.036
   164.415	  -100.325	    -2.253
   175.017	  -105.367	     7.235
  -168.868	   -96.655	   -25.374
   179.282	   -94.786	     0.606
  -168.720	   -75.739	    -7.050
  -177.879	   -90.596	     1.299
   178.386	  -102.990	    23.756
  -167.124	  -113.286	    10.744
  -168.189	  -117.401	    -4.264
  -167.500	  -117.813	    11.298
  -177.261	   -98.922	     6.029
  -172.285	  -102.324	     6.351
  -174.483	  -110.732	     7.469
  -174.454	  -119.614	    -5.303
  -168.482	  -114.601	    -8.787
   179.900	  -133.460	    11.405
  -173.047	  -150.627	     5.238
   179.174	  -122.009	     7.681
  -163.931	  -102.229	    -3.757
  -178.130	  -100.311	     6.838
  -175.875	   -84.337	   -11.472
  -179.780	  -111.784	     5.840
  -177.367	  -121.136	    -2.159
  -173.174	  -131.734	    -5.320
   179.179	   -96.180	    24.025
  -170.943	  -105.503	    10.844
  -177.223	   -98.285	     7.647
  -170.352	   -98.003	    -5.514
  -176.902	  -112.010	    33.878
  -174.747	  -108.647	    10.498
  -175.302	  -129.606	    -3.083
  -166.420	  -108.391	    17.446
  -178.904	  -107.209	     7.334
  -161.095	  -108.641	     8.154
  -166.929	  -122.367	    21.820
  -172.322	  -127.206	    12.143
   177.221	  -107.502	     8.612
  -174.627	  -111.348	     5.892
   167.802	  -111.979	    10.686
  -170.451	  -107.420	    -2.182
  -175.809	  -132.606	    25.950
   176.964	  -117.899	    12.843
  -171.414	  -115.846	    33.328
  -175.267	   -85.125	    24.590
   175.907	   -71.911	   -12.526
  -179.377	  -116.417	     3.743
  -175.817	  -107.673	    -4.917
  -165.546	  -118.362	    11.106
   171.005	  -112.160	    20.789
  -168.893	  -108.263	    -2.848
  -169.477	  -122.995	    24.576
  -164.492	  -132.184	    -4.964
  -151.104	  -124.818	     9.013
  -160.958	   -76.445	     9.641
  -169.477	  -153.333	     7.835
   174.128	   -85.196	    25.052
   175.484	  -124.194	    -4.874
  -177.244	  -138.642	    -0.811
   172.197	  -118.172	     3.077
  -167.819	  -112.846	    -1.096
   175.745	  -128.135	   -10.699
   177.087	   -94.898	    -4.456
  -168.102	  -104.417	   -10.829
   164.284	   -89.941	    -9.955
   123.016	  -102.031	     7.737
    75.743	  -105.243	     1.066
    81.878	  -104.340	    -2.259
   109.025	  -122.054	   -15.922
    78.281	   -87.390	    -2.273
    52.858	   -98.212	     5.414
    73.157	  -135.044	    -2.289
    78.235	  -118.593	   -10.050
    81.575	  -103.126	   -17.908
    76.057	   -92.918	    -4.917
    74.032	  -147.283	   -20.784
    74.547	  -101.125	   -21.868
    77.729	   -77.830	    -6.725
    86.454	  -115.538	     8.696
    93.792	  -100.035	    22.513
    90.409	   -91.396	    -6.173
    80.854	   -93.985	   -28.739
    84.383	   -70.217	     4.287
    79.076	  -105.193	   -17.977
    79.843	  -121.212	    -0.297
    73.403	  -110.460	    -1.754
    72.629	  -102.328	    -1.834
    78.814	   -95.850	    16.172
    83.475	  -122.355	     7.242
    75.512	   -94.365	   -11.322
    72.780	   -97.143	    -2.400
    68.416	  -109.907	     5.261
    71.701	  -112.634	     3.246
    82.176	  -118.199	    -5.100
    85.482	  -102.745	   -13.019
    73.726	   -82.551	    -3.337
    87.377	   -99.397	    -1.515
    79.734	  -110.227	   -12.553
    76.779	  -102.193	   -27.257
    74.683	  -112.904	   -28.322
    69.251	  -107.816	    -3.617
    72.847	  -107.049	   -24.350
    76.307	  -100.821	   -10.796
    82.245	  -104.063	     0.620
    83.281	  -115.621	   -11.666
    81.815	   -84.200	   -11.517
    84.285	  -123.860	     0.338
    87.370	   -96.691	    -9.661
    72.513	  -120.606	    -1.564
    77.578	  -110.140	   -21.454
    74.790	  -114.627	    -1.089
    72.756	  -119.318	     3.136
    69.177	  -122.369	    -6.860
