   -92.310	   122.143	    -3.179
  -140.666	   -48.959	   -16.176
  -167.080	   -52.560	     9.421
  -152.740	   -47.412	    -7.325
  -142.892	   -26.166	    -9.722
  -155.395	   -26.731	     4.198
  -149.965	   -40.660	     7.296
  -154.726	   -49.093	     2.990
  -164.504	   -50.752	     2.471
  -166.608	   -37.993	    13.664
  -139.838	   -34.087	     7.239
  -148.684	   -28.412	     8.361
  -153.711	   -38.003	     3.064
  -159.950	   -25.865	    -8.528
  -147.687	   -55.886	    15.920
  -163.006	   -34.368	     2.595
  -155.671	   -21.157	    -7.923
  -155.577	   -40.137	    20.152
  -158.225	   -42.448	    15.930
  -156.226	   -22.195	     2.584
  -159.871	   -44.036	    15.133
  -144.470	   -43.007	     2.937
  -157.258	   -45.682	    -4.130
  -157.938	   -35.661	     8.154
  -162.666	   -28.466	    -0.020
  -148.202	   -32.421	    -2.032
  -160.144	   -27.122	    -9.836
  -152.707	   -24.053	     4.275
  -145.227	   -45.118	    -1.939
  -161.698	   -39.455	    -0.930
  -144.329	   -39.575	    -1.910
  -156.084	   -26.951	     2.533
  -150.957	   -40.046	     6.249
  -150.733	   -41.487	     6.617
  -147.145	   -17.869	     0.264
  -147.514	   -34.228	     6.699
  -137.906	   -57.788	    -6.667
  -151.333	   -32.100	    -7.902
  -161.971	   -45.646	    -3.303
  -149.780	   -35.847	    -1.066
  -149.130	   -45.975	    -0.452
  -164.368	   -26.868	    14.056
  -159.554	   -40.385	     9.474
  -165.892	   -26.782	   -11.854
  -157.372	   -40.277	   -11.767
  -160.870	   -29.851	    17.135
  -143.576	   -35.261	    13.407
  -149.275	   -47.290	     6.490
  -149.343	   -55.459	    -4.868
  -155.449	   -50.626	    -8.279
  -151.400	   -45.920	    -1.278
  -156.974	   -58.455	   -10.156
  -167.483	   -49.669	    -9.932
  -156.071	   -73.491	    -3.519
  -160.802	   -54.467	    -5.015
  -163.236	   -45.843	   -12.012
  -139.105	   -37.187	     7.899
  -147.917	   -23.071	    12.741
  -136.053	   -46.934	     4.103
  -149.859	   -39.157	    25.079
  -161.286	   -35.091	    -2.196
  -145.600	   -32.449	    -0.549
  -153.157	   -52.620	    -6.306
  -162.389	   -49.831	     7.640
  -164.239	   -29.594	    -2.646
  -156.656	   -38.519	   -11.877
  -152.278	   -43.082	    -0.857
  -145.411	   -41.239	    -5.485
  -150.816	   -51.781	     8.425
  -153.958	   -60.229	     4.282
  -163.540	   -43.084	     7.743
  -146.663	   -48.034	    13.287
  -138.619	   -46.263	    13.165
  -170.117	   -37.925	     5.030
  -146.846	   -35.201	    -6.303
  -138.945	   -27.839	    -8.274
  -147.439	   -23.613	    -5.815
  -162.083	   -34.489	    16.000
  -156.133	   -30.311	    11.858
  -156.007	   -17.061	    -3.103
  -149.590	   -35.873	    15.582
  -155.429	   -26.009	     8.634
  -147.047	   -38.708	     8.635
  -154.917	   -47.414	    15.046
  -175.477	   -51.519	    -3.486
  -140.135	   -57.981	   -13.710
  -143.733	   -34.787	     6.604
  -155.962	   -38.306	     8.906
  -162.282	   -35.253	     4.393
  -154.953	   -37.799	   -15.447
  -157.341	   -42.120	    32.413
  -152.724	   -23.177	     7.398
  -141.245	   -31.597	     7.292
  -135.871	   -44.617	    18.467
  -152.508	   -57.954	     5.983
  -160.710	   -42.922	     8.287
  -155.922	   -29.768	    -6.158
  -153.441	   -44.415	     7.294
  -163.043	   -22.761	    -0.308
  -149.982	   -40.614	    -0.560
  -157.000	   -25.826	    -5.054
  -151.259	   -22.584	     1.062
  -159.628	   -37.022	     3.242
  -159.925	   -30.337	    13.314
  -153.252	   -25.732	    -9.280
  -156.587	   -40.595	    11.263
  -159.529	   -36.661	     4.668
  -141.809	   -62.176	    -3.869
  -154.782	   -59.829	     9.706
  -160.791	   -30.641	    10.291
  -152.490	   -46.926	   -10.835
  -144.477	   -49.992	    -4.461
  -174.439	   -47.564	   -16.840
  -155.166	   -39.740	   -14.981
  -155.370	   -49.241	     8.469
  -166.009	   -41.963	    -1.410
  -158.352	   -38.315	   -11.977
  -153.075	   -42.370	     3.543
  -160.256	   -48.727	   -10.354
  -153.312	   -36.559	    -1.505
  -145.158	   -42.541	     5.834
  -153.475	   -40.346	     7.492
  -154.236	   -53.320	     7.193
  -164.955	   -38.381	     4.840
  -159.507	   -14.540	     8.220
  -153.412	   -25.088	    -0.840
  -160.438	   -41.659	    12.976
  -150.959	   -26.087	    21.415
  -151.844	   -43.337	     8.361
  -144.123	   -50.543	    18.625
  -142.920	   -31.999	    -2.230
  -157.031	   -46.426	     2.307
  -141.804	   -17.785	     8.228
  -156.772	   -30.379	     2.515
  -152.530	   -21.219	    -6.996
  -143.868	   -45.368	     4.926
  -148.567	   -43.004	    -7.614
  -162.299	   -53.783	    10.506
  -162.212	   -38.254	     2.060
  -155.724	   -49.013	     7.692
  -149.498	   -39.180	     4.245
  -148.109	   -63.637	   -21.998
  -145.781	   -48.801	    -9.601
  -169.916	   -61.587	   -14.982
  -156.806	   -41.184	     6.796
  -127.486	   -34.867	   -20.950
  -157.918	   -45.956	    12.136
  -162.731	   -39.200	     3.106
  -139.721	   -29.730	     7.145
  -165.776	   -55.527	   -10.897
  -145.709	   -43.306	    -7.795
  -150.906	   -37.960	    17.087
  -152.330	   -36.635	   -14.154
  -177.177	   -26.139	     5.247
  -156.310	   -57.063	    -7.408
  -165.960	   -60.295	   -17.643
  -157.549	   -35.724	   -22.292
  -157.812	   -42.975	     1.193
  -159.844	   -65.641	    -6.157
  -149.170	   -42.238	   -16.339
  -173.526	   -34.615	    -2.973
  -157.214	   -40.498	    -6.803
  -161.686	   -20.161	    12.158
  -153.133	   -32.777	     8.724
  -151.267	   -26.109	     9.527
  -152.235	   -40.747	     6.672
  -142.883	   -26.091	    -1.038
  -177.458	   -15.178	     9.482
  -163.451	   -45.316	     4.402
  -157.012	   -31.004	     4.762
  -153.870	   -35.839	     8.168
  -150.567	   -41.348	   -18.817
  -149.763	   -46.119	   -17.072
  -167.735	   -39.052	   -10.757
  -147.954	   -56.919	    -4.004
  -161.338	   -48.956	     4.773
  -151.380	   -50.137	    -3.373
  -155.859	   -50.252	    -8.409
  -152.256	   -47.428	     5.980
  -162.926	   -46.020	     2.644
  -165.226	   -36.789	     7.143
  -157.313	   -53.610	    -0.101
  -162.614	   -35.865	    21.302
  -148.776	   -28.820	    -0.474
  -137.642	   -26.140	    -5.091
  -158.761	   -45.829	   -13.871
  -158.732	   -46.999	   -21.455
  -151.900	   -35.375	    -7.642
  -148.006	   -57.526	     8.470
  -156.015	   -43.227	    -0.472
  -155.532	   -44.343	    -7.984
  -157.061	   -37.567	     1.386
  -150.951	   -40.655	   -10.187
  -170.648	   -51.103	   -10.919
  -156.659	   -36.704	     3.440
  -159.393	   -46.266	     1.585
  -175.230	   -39.578	     0.157
  -152.488	   -32.991	    -6.318
  -159.071	   -56.158	     9.358
  -148.865	   -56.330	     5.387
  -160.084	   -34.648	    14.931
  -153.891	   -42.271	     0.140
  -155.983	   -38.262	    -8.102
  -161.642	   -45.438	    12.676
  -157.323	   -30.097	     3.797
  -163.009	   -30.391	    19.091
  -158.967	   -42.722	    15.886
  -165.850	   -49.995	     1.934
  -144.195	   -46.578	     2.697
  -175.467	   -32.315	    15.035
  -152.545	   -34.130	   -23.513
  -169.416	   -51.245	    20.335
  -148.792	   -24.723	     2.319
  -142.574	   -45.364	    25.539
  -152.143	   -27.284	     1.788
  -157.659	   -48.279	    -1.631
  -150.236	   -53.692	     2.311
  -154.193	   -50.429	    13.855
  -157.758	   -41.715	    -4.891
  -157.773	   -54.669	    -1.936
  -144.729	   -20.270	     0.642
  -154.405	   -54.742	    11.739
  -151.081	   -41.933	    -5.955
  -168.975	   -56.568	    -1.457
  -153.926	   -42.536	    -6.222
  -150.950	   -19.276	     4.296
  -146.177	   -42.377	    -6.852
  -165.760	   -51.053	    14.645
  -146.250	   -40.663	     7.928
  -167.783	   -44.127	     7.863
  -144.492	   -31.219	    -5.209
  -158.487	   -32.239	     8.192
  -150.431	   -49.743	    -1.492
  -155.946	   -25.625	    15.843
  -153.604	   -31.369	    -0.842
  -171.702	   -59.960	     9.635
  -158.027	   -45.894	   -11.770
  -159.470	   -42.778	     9.509
  -155.777	   -53.744	   -14.518
  -150.123	   -40.770	     8.441
  -154.735	   -53.135	     2.136
  -157.968	   -51.915	    -1.865
  -160.006	   -41.107	     2.400
  -157.587	   -38.455	    15.852
  -152.853	   -35.397	     3.543
  -166.512	   -41.168	   -25.411
  -158.100	   -44.344	   -10.393
  -167.814	   -52.132	     9.700
  -154.087	   -33.793	    -0.742
  -154.819	   -41.887	    -5.076
  -156.152	   -47.445	     9.816
  -143.399	   -44.472	     5.580
  -152.736	   -62.392	     3.004
  -153.614	   -42.165	   -14.237
  -165.221	   -43.404	    -0.054
  -164.766	   -30.876	     8.284
  -154.261	   -38.406	     0.463
  -147.228	   -29.595	    -4.442
  -152.630	   -13.033	     5.455
  -165.304	   -29.848	    -5.857
  -146.736	   -41.453	     4.432
  -143.446	   -42.649	    11.951
  -143.875	   -50.146	   -11.632
  -166.984	   -57.869	     0.587
  -146.219	   -17.500	   -13.745
  -152.982	   -34.553	     3.289
  -160.197	   -26.674	     2.894
  -166.251	   -29.814	   -18.439
  -146.105	   -26.737	     9.013
  -144.270	   -26.505	     8.823
  -151.636	   -30.535	     3.019
  -149.777	   -15.766	    10.437
  -160.862	   -36.782	     8.125
  -154.368	   -43.239	     0.452
  -143.020	   -38.137	    -9.957
  -148.513	   -37.518	   -11.665
  -158.931	   -52.214	    -1.987
  -162.179	   -40.549	     3.834
  -146.506	   -52.056	    -0.187
  -157.024	   -55.805	     6.273
  -157.871	   -45.235	    -0.509
  -138.424	   -49.408	    -2.516
  -151.089	   -41.794	     2.049
  -165.834	   -62.661	     2.832
  -154.869	   -62.961	     0.373
  -141.818	   -52.767	    -2.978
  -157.488	   -33.447	    -7.531
  -151.381	   -22.322	   -14.203
  -150.750	   -26.738	     1.503
  -155.694	   -32.091	    17.636
  -148.927	   -44.312	     0.955
  -160.309	   -47.538	    13.771
  -132.899	   -58.733	     2.821
  -161.234	   -45.795	    -6.058
  -154.539	   -39.381	     8.141
  -162.138	   -38.660	   -16.858
  -139.043	   -60.946	    -8.632
  -156.954	   -53.527	   -19.537
  -162.902	   -35.303	     6.275
  -150.658	   -35.743	     1.873
  -155.145	   -51.926	     3.318
  -161.548	   -37.983	    -9.124
  -160.494	   -35.655	    19.242
  -156.944	   -34.861	     4.086
  -167.651	   -31.864	    -3.360
  -157.213	   -43.740	    14.527
  -147.552	   -33.523	    -8.575
  -157.839	   -47.862	    -3.993
  -156.578	   -36.928	    -2.194
  -146.729	   -33.702	     2.649
  -160.057	   -51.462	     3.530
  -142.100	   -31.128	    -6.925
  -158.522	   -48.030	    12.831
  -154.221	   -36.328	    -1.393
  -136.430	   -34.532	     7.959
  -140.749	   -22.393	     8.807
  -152.354	   -22.070	    15.271
  -156.645	   -29.761	    -6.665
  -143.634	   -44.920	     8.412
  -165.272	   -50.769	    13.307
  -137.383	   -58.525	    -7.480
  -153.937	   -37.542	    10.310
  -150.837	   -41.899	     0.760
  -134.173	   -52.960	     9.999
  -145.182	   -35.271	     0.775
  -140.420	   -48.548	     0.300
  -163.045	   -44.575	     1.771
  -152.042	   -43.709	    -8.841
  -151.510	   -43.826	    -6.925
  -159.042	   -32.023	     3.211
  -154.707	   -34.416	    -0.707
  -165.716	   -24.844	    -6.658
  -155.760	   -47.163	     3.641
  -151.944	   -28.175	    21.989
  -155.636	   -39.382	     8.096
  -162.620	   -34.843	    14.051
  -165.174	   -31.204	    16.638
  -161.169	   -36.529	     7.609
  -139.531	   -37.273	    -4.673
  -153.509	   -29.009	     5.483
  -164.692	   -44.735	   -10.302
  -159.756	   -42.663	     2.723
  -150.671	   -56.563	    13.596
  -150.751	   -35.643	     3.190
  -147.022	   -40.097	    -4.064
  -163.790	   -28.967	     0.409
  -149.218	   -38.817	     3.765
  -153.547	   -35.894	    25.113
  -157.188	   -59.676	    -6.139
  -149.625	   -30.246	    -2.488
  -150.378	   -39.591	    -4.440
  -157.101	   -40.965	    16.268
  -160.572	   -44.169	     3.772
  -162.361	   -46.174	     6.635
  -156.474	   -43.530	    10.744
  -151.326	   -43.883	     5.663
  -142.731	   -47.810	    -9.617
  -140.150	   -31.018	     3.708
  -158.128	   -49.719	     5.409
  -146.767	   -41.832	     6.524
  -135.869	   -31.978	     9.737
  -154.515	   -41.477	    15.866
  -155.800	   -37.869	    -3.661
  -160.715	   -61.092	     0.884
  -161.278	   -40.862	   -19.758
  -145.524	   -68.450	    15.912
  -152.863	   -58.974	     0.997
  -154.072	   -48.994	     6.428
  -175.719	   -54.795	    -0.893
  -161.996	   -28.821	     1.789
  -154.970	   -30.414	     9.910
  -151.330	   -32.686	   -12.576
  -151.271	   -60.859	    12.786
  -152.217	   -34.729	    15.598
  -153.810	   -24.060	    -2.324
  -152.299	   -51.395	     2.707
  -146.404	   -55.723	     5.377
  -141.505	   -28.483	    -6.037
  -154.113	   -42.930	     6.363
  -157.282	   -43.684	     4.050
  -158.887	   -31.341	   -12.403
  -162.675	   -53.755	    19.943
  -152.147	   -39.784	    18.936
  -147.528	   -48.105	   -10.870
  -144.217	   -41.291	    11.534
  -157.120	   -45.447	   -10.693
  -163.331	   -38.105	     0.732
  -158.491	   -35.041	    -8.047
  -157.192	   -39.295	    -1.531
  -160.338	   -30.538	   -10.133
  -172.377	   -33.846	    11.148
  -147.980	   -65.805	    22.210
  -144.755	   -24.038	     9.862
  -155.568	   -56.323	    -9.286
  -138.663	   -51.548	    13.404
  -173.464	   -39.019	     2.221
  -167.104	   -50.951	    -6.464
  -152.479	   -40.345	     5.309
  -138.441	   -19.070	     0.976
  -141.355	   -45.857	    -9.742
  -144.897	   -55.324	    -2.728
  -151.050	   -48.942	    -6.411
  -164.294	   -47.336	    14.289
  -163.651	   -60.671	    16.753
  -162.080	   -44.707	     6.891
  -150.465	   -28.975	    -1.169
  -134.980	   -34.162	     3.852
  -155.792	   -31.682	    -1.904
  -160.299	   -20.216	     5.067
  -150.831	   -24.559	    13.999
  -150.276	   -47.965	    -0.773
  -138.561	   -52.611	     8.585
  -158.100	   -31.226	   -12.989
  -149.099	   -34.205	     2.694
  -147.163	   -39.110	    12.511
  -154.641	   -37.206	     8.325
  -149.075	   -51.992	    -2.579
  -169.545	   -54.495	    34.482
  -156.363	   -41.152	     7.230
  -160.072	   -18.294	     8.827
  -167.119	   -37.819	     9.675
  -167.795	   -43.041	    13.945
  -176.011	   -59.318	    14.369
  -157.946	   -52.810	    -3.771
  -163.976	   -22.208	   -13.153
  -139.554	   -42.360	     1.772
  -143.814	   -55.082	     8.482
  -172.337	   -39.056	    16.718
  -138.384	   -41.734	   -15.953
  -160.564	   -46.912	    -0.991
  -151.920	   -55.602	     2.906
  -152.785	   -44.804	   -16.352
  -146.649	   -29.491	   -14.991
  -161.099	   -66.161	    11.971
  -147.482	   -46.226	   -14.671
  -166.939	   -47.382	    -5.263
  -152.749	   -26.599	     2.680
  -154.044	   -24.153	     1.355
  -157.612	   -40.175	   -17.682
  -171.844	   -49.282	     3.981
  -147.466	   -50.740	    -0.980
  -151.650	   -51.829	    14.319
  -175.653	   -63.989	     1.994
  -146.327	   -36.662	    -8.236
  -158.403	   -45.523	     1.183
  -171.459	   -66.638	     7.433
  -158.609	   -57.505	    -4.551
  -148.242	   -65.022	   -11.383
  -161.344	   -36.628	    -3.988
  -153.204	   -39.255	     5.183
  -162.368	   -39.485	    -8.370
  -167.248	   -39.368	    -4.425
  -162.710	   -45.510	     4.381
  -156.195	   -30.345	     3.537
  -166.325	   -52.118	     5.351
  -149.497	   -37.750	   -15.617
  -142.776	   -29.302	    -8.743
  -149.098	   -26.908	    -4.719
  -143.920	   -29.323	   -16.355
  -146.513	   -37.240	     5.769
  -150.734	   -31.074	    -3.849
  -135.319	   -56.449	    15.635
  -152.435	   -55.294	    -4.608
  -154.146	   -36.332	    12.751
  -146.475	   -12.615	    -4.049
  -151.237	   -32.327	    29.711
  -160.319	   -34.032	    -3.964
  -157.031	   -31.000	     9.003
  -148.917	   -36.091	     5.280
  -153.364	   -46.841	   -11.077
  -149.038	   -39.804	   -17.079
  -160.513	   -26.514	     3.836
  -145.128	   -43.483	    15.036
  -148.508	   -44.502	     7.437
  -160.375	   -38.137	    16.426
  -156.582	   -39.983	     2.147
  -154.554	   -58.452	    13.887
  -157.040	   -36.218	    -5.280
  -144.205	   -42.466	    -8.488
  -153.405	   -40.561	    -8.426
  -163.200	   -48.801	    18.357
  -140.964	   -43.785	     8.698
  -155.568	   -29.803	    24.894
  -159.214	   -33.668	     1.479
  -157.132	   -39.506	    -1.022
  -158.945	   -47.848	     1.315
  -154.357	   -39.572	    12.262
  -152.893	   -14.268	     2.192
  -147.154	   -34.447	    -9.773
  -146.541	   -39.599	    -8.374
  -161.766	   -48.333	     5.369
  -155.830	   -49.311	     4.249
  -142.896	   -28.940	     5.156
  -176.007	   -45.893	    20.346
  -148.564	   -27.993	    -7.722
  -153.946	   -33.683	    -0.497
  -160.456	   -35.889	     5.496
  -155.348	   -35.693	     4.935
  -163.395	   -24.058	    11.883
  -161.496	   -45.521	     5.917
  -162.852	   -43.887	     9.055
  -159.714	   -41.646	    -5.244
  -158.933	   -25.747	     0.399
  -155.660	   -38.533	    -3.707
  -158.718	   -32.612	     4.065
  -146.623	   -56.778	    -4.001
  -150.563	   -53.578	     9.342
  -151.892	   -52.099	    10.732
  -147.600	   -41.108	    -8.278
  -162.252	   -47.865	     7.037
  -158.714	   -52.562	    -0.433
  -162.914	   -51.432	   -10.118
  -148.376	   -27.620	    -0.889
  -158.624	   -21.667	     1.485
  -153.561	   -20.225	    -0.078
  -151.611	   -32.518	   -16.230
  -149.257	   -29.302	    13.713
  -146.261	   -38.892	    -2.235
  -158.134	   -36.751	     3.849
  -145.701	   -36.603	     3.748
  -141.388	   -25.590	     5.122
  -150.194	   -29.593	    18.862
  -152.745	   -31.463	     6.394
  -164.007	   -35.924	     3.095
  -151.272	   -57.669	   -14.903
  -169.270	   -31.322	     0.914
  -162.797	   -41.853	     1.825
  -166.691	   -31.020	    17.052
  -149.060	   -35.214	   -16.426
  -155.447	   -24.909	     5.401
  -162.561	   -27.783	    19.300
  -151.175	   -33.355	    -0.895
  -161.043	   -33.549	    11.408
  -153.797	   -54.783	    -3.216
  -155.550	   -34.928	    17.542
  -152.490	   -36.763	    -0.391
  -146.829	   -32.291	     2.716
  -151.429	   -44.400	     3.797
  -140.660	   -54.903	     0.609
  -170.574	   -66.090	    16.821
  -147.629	   -37.123	     6.275
  -147.713	   -30.506	     1.173
  -151.776	   -50.056	     4.719
  -166.831	   -36.352	     4.361
  -140.687	   -31.822	    -6.451
  -154.121	   -45.282	    -1.660
  -159.279	   -37.018	     3.086
  -149.605	   -32.447	     3.604
  -157.099	   -33.398	    -1.981
  -154.931	   -58.173	   -14.858
  -160.747	   -51.819	   -14.677
  -163.499	   -48.681	    -3.776
  -165.394	   -40.727	    -9.861
  -155.503	   -32.816	    -0.020
  -160.204	   -52.199	   -22.951
  -148.952	   -34.368	   -10.132
  -154.009	   -44.860	     2.075
  -158.248	   -32.615	     5.155
  -161.445	   -40.410	     1.354
  -159.769	   -46.546	   -11.057
  -148.622	   -29.891	    19.048
  -153.434	   -48.175	     9.487
  -149.537	   -54.051	    -4.767
  -143.374	   -40.326	    13.224
  -150.374	   -40.102	    -1.262
  -153.766	   -37.858	     4.169
  -160.637	   -48.889	    13.546
  -150.243	   -42.412	    -0.690
  -145.249	   -13.427	    -7.879
  -142.922	   -45.188	     5.236
  -155.469	   -47.040	   -19.587
  -147.211	   -26.855	   -20.131
  -138.896	   -44.536	    -2.680
  -160.761	   -42.539	    -9.334
  -156.910	   -12.319	    17.036
  -154.349	   -33.309	    -3.146
  -139.391	   -26.286	    11.286
  -169.760	   -41.010	    14.082
  -150.864	   -39.889	    13.040
  -161.408	   -37.870	     3.111
  -146.857	   -45.949	     0.857
  -141.939	   -32.338	    13.143
  -157.206	   -31.854	     7.117
  -146.870	   -32.162	    -7.240
  -145.358	   -29.991	     1.567
  -165.570	   -30.158	     2.561
  -149.833	   -46.069	     7.260
  -152.285	   -18.529	    12.194
  -160.795	   -43.750	    -1.738
  -162.731	   -28.377	    -4.147
  -174.251	   -54.874	     4.453
  -159.363	   -50.721	     4.498
  -159.501	   -40.865	    13.849
  -141.055	   -42.205	     5.407
  -145.136	   -33.176	   -17.200
  -143.794	   -46.543	     4.030
  -160.173	   -32.680	    -1.856
  -140.835	   -47.092	     1.688
  -159.564	   -18.900	     8.085
  -162.137	   -33.428	   -16.419
  -165.956	   -37.087	     2.949
  -161.518	   -60.554	     6.066
  -160.104	   -39.720	     6.202
  -158.977	   -34.239	    -9.822
  -156.706	   -37.084	     3.112
  -142.661	   -20.443	     5.831
  -146.482	   -46.933	     4.709
  -152.178	   -26.450	     6.429
  -149.299	   -37.057	     9.691
  -146.861	   -36.869	    -3.505
  -148.516	   -45.509	    16.852
  -157.862	   -39.720	     5.134
  -142.765	   -25.103	    -2.200
  -139.984	   -44.125	   -16.354
  -143.750	   -50.864	   -13.841
  -150.539	   -51.832	   -13.145
  -164.062	   -33.613	    -6.804
  -143.186	   -38.044	    -2.349
  -153.727	   -37.536	    -1.287
  -156.872	   -20.671	    -7.852
  -153.122	   -37.509	     4.640
  -157.759	   -32.569	    -4.807
  -148.130	   -49.565	     4.100
  -159.807	   -39.214	    -3.069
  -159.591	   -39.916	    15.462
  -158.989	   -18.647	    -2.218
  -157.719	   -49.483	     0.827
  -156.418	   -46.139	    17.861
  -148.023	   -37.284	    17.151
  -163.057	   -42.730	    -0.988
  -140.849	   -56.038	    -8.573
  -166.953	   -26.581	   -17.473
  -144.433	   -51.023	     9.523
  -145.855	   -34.233	    -9.380
  -137.692	   -26.325	    -3.928
  -167.624	   -34.408	     3.364
  -146.250	   -31.976	     6.596
  -141.759	   -44.395	    -1.307
  -147.230	   -38.912	    15.828
  -141.416	   -47.145	   -12.359
  -160.447	   -47.813	    14.223
  -163.229	   -60.142	    -2.548
  -170.817	   -59.036	    -5.506
  -154.887	   -43.518	    -0.352
  -158.439	   -44.794	    -0.067
  -150.863	   -52.841	    -8.335
  -172.504	   -46.381	     8.815
  -151.770	   -53.758	     8.175
  -170.339	   -25.273	     6.920
  -132.498	   -47.950	    -8.465
  -153.572	   -12.453	   -10.264
  -153.669	   -57.906	     6.946
  -162.605	   -44.921	    10.931
  -153.814	   -26.009	    14.344
  -155.404	   -64.329	     2.780
  -153.222	   -36.576	   -16.341
  -163.751	   -44.375	    -4.194
  -153.182	   -32.090	   -21.663
  -146.299	   -43.507	     9.005
  -172.785	   -51.658	     7.751
  -154.697	   -16.457	    -2.721
  -163.077	   -63.418	    -3.800
  -149.510	   -43.978	    -5.918
  -166.532	   -35.737	   -10.460
  -162.524	   -33.570	     4.967
  -150.158	   -54.080	    -0.340
  -148.150	   -36.497	     1.050
  -154.953	   -32.825	     1.249
  -147.339	   -43.516	    19.167
  -140.573	   -46.215	     4.399
  -152.592	   -48.971	    -4.331
  -149.286	   -35.566	     5.845
  -142.306	   -52.569	    13.708
  -159.778	   -37.477	     7.977
  -149.413	   -48.809	     6.807
  -152.545	   -30.552	    14.629
  -156.950	   -36.439	   -13.101
  -157.856	   -30.197	   -14.253
  -164.596	   -31.639	    11.515
  -146.594	   -35.976	     0.735
  -140.640	   -55.598	    16.230
  -148.155	   -26.020	     2.747
  -149.658	   -28.716	    -9.840
  -145.041	   -34.465	     6.239
  -139.615	   -34.707	    -2.754
  -137.689	   -51.643	     3.700
  -133.801	   -64.481	    -0.246
  -153.572	   -35.877	    12.506
  -156.176	   -19.784	    -6.748
  -150.097	   -35.145	     4.234
  -149.390	   -54.899	    11.347
  -147.213	   -45.027	    18.757
  -156.497	   -40.597	    10.117
  -155.908	   -46.182	    -3.118
  -154.543	   -52.700	     4.033
  -148.681	   -44.739	    -9.323
  -148.175	   -43.386	    12.671
  -164.457	   -38.027	     4.563
  -153.890	   -27.713	     0.348
  -164.960	   -40.071	    -0.940
  -143.425	   -43.176	    -1.707
  -148.257	   -35.399	     5.424
  -147.393	   -48.470	     0.364
  -157.168	   -26.824	   -10.785
  -142.685	   -27.744	   -23.818
  -157.151	   -25.218	     2.958
  -159.860	   -37.087	    -0.875
  -148.517	   -25.274	    -5.103
  -158.228	   -24.404	    19.973
  -151.394	   -18.385	    -7.700
  -132.876	   -45.468	    24.305
  -136.320	   -21.345	     8.148
  -152.102	   -34.199	     5.097
  -144.465	   -46.835	    -0.244
  -154.724	   -36.339	     0.010
  -155.722	   -33.795	    -1.026
  -150.870	   -49.549	     3.947
  -153.167	   -27.248	    -1.073
  -142.419	   -42.924	    -2.048
  -148.467	   -28.721	     8.154
  -155.619	   -32.096	     5.088
  -163.076	   -32.112	   -14.129
  -157.475	   -47.984	   -10.943
  -158.963	   -37.391	    16.574
  -165.313	   -43.018	     6.116
  -166.273	   -40.076	    15.359
  -160.243	   -55.405	     2.731
  -155.970	   -45.567	     6.459
  -167.644	   -26.224	    -3.020
  -151.880	   -40.661	     4.363
  -147.882	   -47.123	    -6.913
  -138.931	   -45.497	    -3.330
  -152.081	   -61.141	     1.176
  -150.826	   -38.390	     0.898
  -160.486	   -61.684	     5.262
  -149.536	   -46.580	     6.189
  -160.024	   -45.612	    -4.443
  -152.743	   -56.558	    -1.943
  -143.736	   -39.395	    -4.707
  -142.108	   -18.119	     3.056
  -152.265	   -37.553	     5.498
  -160.108	   -32.966	     4.988
  -159.886	   -48.967	     5.286
  -154.467	   -28.331	     3.659
  -167.706	   -46.116	     6.938
  -157.611	   -32.376	   -19.787
  -169.332	   -45.105	   -15.661
  -158.392	   -82.667	    -8.070
  -157.603	   -57.035	     7.151
  -154.269	   -52.757	   -14.273
  -143.064	   -50.982	     3.276
  -150.487	   -37.238	   -10.669
  -167.108	   -32.710	     9.774
  -164.267	   -37.103	     3.321
  -162.733	   -21.528	    -0.633
  -159.775	   -35.413	    -1.598
  -172.018	   -41.748	     6.542
  -150.911	   -44.001	    -2.876
  -149.232	   -37.800	    -0.106
  -158.157	   -44.122	     2.257
  -140.521	   -48.675	    10.106
  -159.872	   -44.122	     3.058
  -161.822	   -47.014	    -8.408
  -165.303	   -48.439	     6.621
  -149.780	   -28.681	    20.059
  -148.711	   -44.491	    -3.338
  -163.519	   -28.771	    -5.081
  -162.049	   -27.166	     6.896
  -154.254	   -20.414	     4.097
  -162.942	   -23.716	    -1.636
  -149.569	   -27.139	   -14.919
  -158.116	   -37.876	    10.636
  -149.453	   -48.104	   -10.533
  -164.291	   -49.993	     1.535
  -159.377	   -57.041	     6.162
  -166.284	   -34.948	   -18.687
  -144.909	   -58.234	     9.763
  -144.234	   -42.028	    10.586
  -150.537	   -40.115	    12.248
  -145.701	   -59.331	     5.502
  -156.937	   -22.448	     3.903
  -143.390	   -55.852	    -6.455
  -167.398	   -41.630	     6.402
  -149.454	   -39.430	    -3.364
  -155.167	   -39.881	    -2.731
  -143.876	   -42.251	     4.260
  -168.242	   -26.214	   -10.823
  -168.372	   -37.290	     7.468
  -140.091	   -49.008	     0.069
  -160.524	   -41.890	    13.328
  -128.132	   -39.155	     3.328
  -141.883	   -36.112	    -5.346
  -151.621	   -35.715	     9.984
  -162.908	   -32.755	    16.753
  -153.947	   -26.867	    12.702
  -138.827	   -23.505	    11.873
  -160.977	   -49.297	    16.742
  -177.765	   -26.119	   -11.667
  -153.260	   -47.977	    -8.603
  -143.029	   -48.145	    20.235
  -148.753	   -40.094	    -6.976
  -134.560	   -64.790	   -18.024
  -158.177	   -47.771	     2.774
  -149.598	   -34.780	   -11.110
  -159.201	   -38.002	     2.510
  -151.835	   -48.425	   -12.275
  -148.468	   -22.150	    -0.321
  -155.445	   -44.055	    -4.080
  -155.059	   -41.999	     8.918
  -146.930	   -40.921	     3.407
  -167.404	   -53.841	     1.405
  -152.755	   -36.075	    11.739
  -157.793	   -32.921	    -5.198
  -153.993	   -44.935	     8.159
  -152.675	   -41.212	   -18.870
  -158.484	   -22.766	    -0.044
  -148.861	   -24.495	    11.353
  -158.685	   -45.577	    16.962
  -149.051	   -21.838	    -0.702
  -156.989	   -32.251	    -1.475
  -160.836	   -29.760	     3.989
  -156.267	   -30.327	    10.030
  -151.510	   -32.279	   -13.927
  -169.851	   -65.198	     6.530
  -150.577	   -44.487	   -18.874
  -144.552	   -37.924	    -2.771
  -153.570	   -19.167	     1.123
  -150.582	   -28.053	    17.602
  -136.707	   -25.265	     5.678
  -156.823	   -26.872	    11.153
  -145.216	   -26.720	    11.706
  -147.766	   -28.093	     2.100
  -162.772	   -34.297	    -7.684
  -151.806	   -41.641	   -20.180
  -157.667	   -32.275	    -3.553
  -167.320	   -32.500	   -11.525
  -168.742	   -47.639	    -4.628
  -156.873	   -32.342	    -4.493
  -169.236	   -51.684	    -0.104
  -162.971	   -42.763	   -14.973
  -159.624	   -41.530	     3.305
  -168.080	   -47.802	     5.859
  -146.965	   -19.926	    -5.538
  -155.640	   -39.960	     2.909
  -154.808	   -41.871	    -1.626
  -141.068	   -43.878	     3.993
  -153.332	   -15.505	     5.513
  -141.862	   -47.836	    -0.844
  -159.519	   -35.471	    -4.375
  -141.409	   -33.160	    -0.594
  -164.836	   -32.174	    -1.837
  -150.763	   -27.526	    -1.434
  -161.895	   -52.611	     1.538
  -135.826	   -40.827	    -7.800
  -152.982	   -34.046	     5.239
  -150.528	   -32.742	     2.830
  -148.896	   -47.136	     6.607
  -153.868	   -53.888	    -2.526
  -159.348	   -38.857	     4.960
  -157.325	   -40.181	    -8.537
  -158.218	   -36.314	    21.507
  -156.840	   -32.084	     2.081
  -158.600	   -21.615	     7.953
  -130.741	   -16.651	     1.704
  -149.395	   -21.168	     1.611
  -156.556	   -34.990	   -11.819
  -154.084	   -18.915	     4.108
  -137.924	   -28.015	    -0.536
  -156.199	   -49.517	     2.551
  -147.870	   -41.514	     4.830
  -155.274	   -26.925	    26.494
  -151.551	   -21.963	    24.458
  -156.935	   -44.786	     8.831
  -156.968	   -31.507	     2.108
  -168.756	   -42.615	    -1.927
  -153.250	   -31.263	    10.309
  -147.917	   -32.859	     9.044
  -159.653	   -47.318	    -1.982
  -153.193	   -41.147	     6.984
  -151.059	   -41.085	     2.018
  -149.070	   -35.904	     7.441
  -167.278	   -61.209	    -9.865
  -148.351	   -34.582	    -5.216
  -150.642	   -42.624	   -12.257
  -150.907	   -52.929	     8.452
  -151.323	   -15.682	     4.063
  -161.998	   -53.501	    12.825
  -167.183	   -28.513	    -0.287
  -147.669	    -9.100	     4.615
  -144.710	   -42.421	     8.792
  -152.627	   -45.639	    -4.189
  -148.185	   -47.241	    -0.745
  -161.125	   -34.181	    -0.754
  -150.035	   -44.017	     3.456
  -161.839	   -48.134	     9.280
  -158.802	   -34.684	     3.238
  -163.084	   -40.362	    -7.232
  -150.543	   -37.685	    -1.799
  -161.475	   -41.836	     9.094
  -149.022	   -15.705	     5.439
  -128.735	   -41.805	    -5.785
  -161.718	   -41.462	    15.934
  -152.021	   -59.260	   -11.484
  -168.686	   -25.818	    -7.723
  -159.841	   -50.672	    -7.139
  -165.668	   -39.287	     4.307
  -146.068	   -59.805	     4.715
  -150.129	   -44.726	    -2.962
  -154.374	   -34.335	     6.455
  -156.434	   -46.028	   -15.227
  -151.065	   -44.663	    10.107
  -144.725	   -34.279	    11.824
  -161.270	   -41.756	     6.120
  -158.146	   -57.241	    12.455
  -158.806	   -43.432	    10.859
  -153.365	   -51.649	     8.393
  -139.392	   -34.966	     1.027
  -163.637	   -29.898	     9.137
  -168.048	   -56.020	    -1.461
  -152.413	   -34.291	    -2.860
  -138.790	   -54.842	    15.583
  -150.354	   -37.497	     2.550
  -151.736	   -18.525	     8.196
  -163.301	   -61.212	    10.391
  -156.360	   -46.273	    10.963
  -158.377	   -43.328	     8.583
  -154.698	   -47.528	     2.667
  -163.462	   -33.955	    21.046
  -145.121	   -29.986	    -3.253
  -167.184	   -38.249	    10.707
  -158.222	   -43.309	     2.435
  -143.408	   -19.590	    18.295
  -155.109	   -23.494	   -10.431
  -134.183	   -31.113	    -1.622
  -164.216	   -39.860	    13.962
  -161.433	   -49.842	     5.879
  -153.362	   -38.823	    -6.072
  -144.742	   -38.020	    11.943
  -144.889	   -25.804	     2.585
  -155.780	   -28.784	    -4.281
  -148.597	   -30.901	    -0.529
  -168.399	   -44.307	    10.569
  -151.517	   -28.806	     2.893
  -156.425	   -23.486	    17.812
  -163.388	   -39.471	    25.392
  -150.838	   -40.900	   -14.350
  -153.005	   -44.281	     6.975
  -159.936	   -42.979	    22.875
  -149.381	   -34.894	     6.533
  -163.038	   -31.875	     5.701
  -161.890	   -43.225	     3.869
  -156.772	   -47.019	    11.646
  -148.831	   -42.762	   -13.722
  -164.675	   -31.853	    14.819
   176.913	   -41.462	   -25.707
  -169.066	   -31.009	     0.142
  -146.195	   -27.242	     5.918
  -142.601	   -50.856	     4.837
  -150.663	   -34.499	   -11.582
  -143.535	   -25.138	    -8.677
  -159.993	   -43.697	     7.371
  -158.623	   -43.399	     5.543
  -156.341	   -28.779	   -13.765
  -146.291	   -29.329	    -6.028
  -151.103	   -29.957	     6.963
  -145.729	   -23.900	     4.066
  -143.003	   -35.419	     5.471
  -153.509	   -25.036	    10.941
  -155.899	   -39.899	    18.148
  -161.253	   -39.677	   -10.834
  -153.669	   -43.798	     3.653
  -159.625	   -40.002	    12.024
  -149.296	   -47.623	   -14.036
  -160.459	   -57.667	     7.109
  -160.819	   -49.018	    -7.768
  -161.147	   -56.609	    -3.806
  -153.120	   -50.417	    -6.813
  -156.714	   -29.386	    -2.854
  -167.936	   -31.578	    21.010
  -134.407	   -45.865	    -8.750
  -144.675	   -51.597	    -3.730
  -167.027	   -34.335	     6.000
  -161.545	   -12.442	    11.690
  -147.215	   -17.991	    -3.550
  -151.137	   -49.982	   -18.455
  -158.141	   -39.004	   -10.215
  -141.949	   -58.271	     4.420
  -140.138	   -54.847	     4.592
  -159.190	   -35.754	    -0.389
  -142.723	   -54.056	    12.169
  -146.814	   -30.972	    -2.633
  -140.263	   -37.733	     4.560
  -144.008	   -52.708	    -6.458
  -152.984	   -39.799	    -1.712
  -155.343	   -32.941	     0.395
  -158.671	   -52.011	     2.299
  -154.359	   -21.821	     4.208
  -147.935	   -49.825	    -5.734
  -168.491	   -43.468	     5.774
  -155.942	   -43.576	    12.344
  -159.447	   -41.521	    -6.368
