   -92.310	   122.143	    -3.179
   -91.592	   -35.960	    18.306
   -74.797	   -27.731	   -24.808
  -100.444	   -41.381	     4.271
   -88.380	   -31.012	    -9.531
  -122.102	   -23.425	     3.271
   -84.707	   -47.159	    -0.437
   -88.481	   -41.794	    15.501
   -97.869	   -42.398	     4.423
   -95.263	   -33.871	     2.229
  -139.921	   -47.042	     9.213
  -136.308	   -48.965	    -5.295
  -106.893	   -49.792	    -5.721
   -93.978	   -34.399	    -4.819
  -101.596	   -22.166	    -5.893
  -114.931	   -33.867	     6.479
   -85.201	   -39.895	    -1.720
   -97.891	   -35.663	    14.219
   -98.517	   -44.415	    -7.882
  -124.274	   -56.936	     8.696
  -133.415	   -59.713	    17.386
   -99.686	   -42.356	    13.978
  -101.973	   -56.547	     0.387
   -91.401	   -46.057	    -1.756
  -134.222	   -38.431	     9.578
   -79.794	   -47.290	     6.505
   -93.057	   -54.455	   -12.768
  -110.586	   -52.805	    -1.652
  -134.491	   -37.387	     8.644
  -126.696	   -25.206	    -3.261
  -109.019	   -45.233	    14.397
  -104.920	   -21.695	    -7.459
  -107.805	   -33.835	    -6.980
  -124.586	   -34.914	     0.306
   -92.721	   -19.165	     3.064
   -98.152	   -30.698	     7.558
  -107.671	   -33.459	    16.735
   -88.816	   -32.253	   -16.758
  -106.819	   -52.754	    14.872
  -115.518	   -37.732	    10.751
  -118.753	   -49.536	    -1.434
  -110.974	   -28.208	     4.967
  -107.043	   -37.045	   -11.465
   -86.069	   -51.709	    17.386
   -95.953	   -37.052	    -1.066
  -119.602	   -38.924	     9.751
  -107.061	   -38.434	    -1.885
  -102.261	   -39.667	     0.922
  -111.855	   -46.729	    16.746
  -105.009	   -40.909	   -13.244
  -124.981	   -28.779	   -21.328
  -111.812	   -46.306	   -11.026
  -127.712	   -37.174	   -22.705
  -134.696	   -26.112	     1.509
   -99.959	   -44.125	    -7.403
  -106.164	   -31.190	    21.556
  -122.807	    -8.170	     7.909
  -114.364	   -34.511	     7.004
  -108.114	   -30.142	    -2.735
   -99.819	   -47.135	    -3.175
  -107.351	   -43.737	    23.364
  -101.525	   -38.952	     2.526
  -123.159	   -45.214	    -5.363
  -113.543	   -44.144	     2.719
  -103.385	   -46.243	    -0.562
  -111.691	   -39.521	    -2.940
   -95.299	   -28.968	     5.484
  -106.116	   -43.252	     2.879
  -102.813	   -56.855	   -14.021
   -93.445	   -56.403	    -3.047
   -95.435	   -47.251	    -5.948
   -94.380	   -43.012	     4.999
   -99.518	   -47.486	    14.759
   -96.435	   -26.896	   -10.783
  -114.738	   -46.596	    -0.495
  -110.002	   -52.072	     6.551
  -120.964	   -54.495	    15.894
   -99.712	   -38.229	     8.368
  -106.646	   -33.946	    10.344
   -90.832	   -36.563	    12.533
  -123.627	   -26.113	     9.670
  -140.292	   -51.583	    11.131
  -117.139	   -52.518	   -11.402
  -107.896	   -20.466	    -6.566
  -128.461	   -28.848	    -6.906
   -99.100	   -36.955	     3.422
   -84.549	   -16.044	     8.525
   -99.555	   -19.693	   -12.266
  -110.372	   -42.505	     2.525
  -113.490	   -40.958	    16.173
  -122.602	   -35.617	     2.164
  -101.451	   -30.822	    16.423
  -105.432	   -48.063	    13.557
  -117.277	   -32.747	     6.329
   -84.143	   -45.253	    -4.595
   -90.636	   -47.585	    -0.800
  -110.140	   -42.486	     4.287
  -112.118	   -45.469	    -5.122
   -97.338	   -47.104	    -5.713
  -113.874	   -37.385	    -6.754
  -100.302	   -51.293	     8.322
   -94.399	   -48.042	    -5.166
  -110.661	   -33.709	    11.071
  -100.113	   -36.654	    -4.779
   -80.145	   -40.110	     4.736
  -106.218	   -38.869	    19.641
   -85.442	   -43.389	    -0.333
   -94.512	   -38.606	    10.005
   -95.345	   -41.385	     2.086
  -119.175	   -36.891	    -5.735
  -116.950	   -34.633	     5.104
  -103.779	   -38.096	    -1.160
  -103.258	   -39.411	     7.505
  -105.297	   -36.435	    -4.179
  -119.170	   -29.606	    -2.759
  -115.629	   -38.789	     7.826
  -112.957	   -18.687	     3.451
  -129.855	   -24.448	    15.771
   -86.669	    -2.377	     7.027
   -95.638	   -44.266	    -5.387
   -83.867	   -35.014	    23.603
  -101.269	   -55.124	    26.480
  -101.118	   -25.087	    23.036
   -88.981	   -16.754	     8.181
   -83.816	   -29.218	    10.632
  -113.990	   -33.131	    10.599
   -95.828	   -42.307	    -0.452
  -117.982	   -33.496	    19.781
  -120.796	   -33.458	     4.533
  -118.265	   -42.092	    -7.528
   -93.131	   -44.958	    -4.256
  -122.184	   -56.939	     9.739
  -121.588	   -36.121	     3.503
   -99.599	   -44.232	   -16.471
   -82.350	   -12.236	     7.060
  -107.305	   -32.138	    11.034
  -106.411	   -31.521	     8.795
  -121.780	   -36.794	    -8.222
   -94.267	   -26.218	   -11.184
  -122.044	   -34.616	     2.197
   -98.742	   -22.987	     6.950
  -108.652	   -43.921	    -1.816
   -97.245	   -52.852	    20.785
  -101.459	   -33.273	    27.517
   -96.726	   -27.751	     7.197
  -102.082	   -44.353	    -8.448
   -88.342	   -29.224	     2.938
   -90.991	   -30.338	    17.792
   -99.256	   -39.125	     1.801
  -106.676	   -44.013	     0.350
  -107.875	   -28.751	    -0.731
  -124.451	   -31.963	    -8.835
   -93.764	   -36.185	     0.004
   -91.128	   -44.444	     1.113
   -73.921	   -40.100	    -2.586
   -68.848	   -31.263	    -4.657
   -81.448	   -44.689	    12.450
   -74.647	   -41.010	    12.675
   -81.737	   -46.544	     3.289
  -112.550	   -43.835	     1.989
   -86.829	   -43.505	    -3.990
   -91.867	   -26.138	    -0.218
  -107.533	   -38.507	     3.881
  -115.265	   -57.254	    28.236
   -93.557	   -33.920	   -20.422
  -110.829	   -25.533	    -9.035
  -114.682	   -52.410	   -16.619
  -112.211	   -42.316	    -1.417
  -112.438	   -48.390	    -6.501
  -130.512	   -19.258	    -5.446
  -120.361	   -25.217	    23.402
   -76.513	   -46.415	     4.373
  -103.343	   -25.327	    20.322
   -89.756	   -33.386	     3.079
  -100.532	   -29.804	   -10.240
   -98.331	   -13.280	     8.060
  -112.243	   -26.334	     4.600
   -88.006	   -29.204	    -0.829
   -96.586	   -40.030	     2.325
  -127.262	   -21.232	   -15.775
  -102.567	   -54.993	     7.094
  -105.289	   -41.931	     8.399
  -106.944	   -38.105	     2.822
  -103.241	   -34.266	   -12.205
  -103.973	   -40.684	    13.385
  -130.825	   -36.619	    -6.703
  -115.442	   -42.269	   -10.990
  -113.030	   -14.192	    -2.581
  -108.977	   -34.786	   -15.044
   -84.352	   -31.037	     2.243
  -106.289	   -18.250	    -8.720
  -110.523	   -35.462	    -4.989
  -136.462	   -21.889	    10.311
  -108.936	   -53.079	    16.724
  -117.561	   -50.548	    -7.727
  -113.781	   -42.337	     1.429
  -116.952	   -35.541	   -15.195
   -98.247	   -36.008	   -10.906
  -112.092	   -40.422	    13.692
  -109.992	   -44.937	    -1.968
  -129.858	   -45.198	    20.573
   -96.724	   -51.039	    -4.873
  -116.428	   -54.460	    -9.656
  -127.758	   -38.284	     7.157
   -82.929	   -41.567	    15.462
  -108.952	   -52.536	     1.346
   -96.054	   -39.377	     9.778
  -129.265	   -55.492	     0.712
   -94.379	   -32.610	    16.995
   -95.782	   -22.184	    -1.470
  -101.732	   -41.973	    -0.355
  -106.949	   -47.463	     3.269
   -90.474	   -26.769	    -1.486
   -99.808	   -52.101	    -2.576
  -115.713	   -39.893	     0.573
  -126.533	   -34.314	    10.948
  -132.102	   -33.109	     9.778
  -101.988	   -36.383	   -12.616
  -101.030	   -27.367	    12.057
  -128.553	   -31.201	    20.575
  -117.316	   -23.410	    -0.226
  -126.114	   -24.309	     0.045
  -102.796	   -39.268	     5.368
  -120.391	   -41.539	    -3.887
  -121.601	   -42.293	     6.254
  -127.178	   -39.897	    -9.999
   -96.374	   -39.066	    10.920
  -131.719	   -30.786	    21.864
  -108.390	   -41.670	    -9.646
  -117.519	   -38.184	     8.624
  -102.134	   -53.019	    10.210
   -97.635	   -50.326	   -10.532
  -130.272	   -25.299	    -1.132
   -98.494	   -30.146	    13.728
   -75.627	   -49.493	    -2.663
   -92.966	   -21.181	    14.676
   -96.915	   -12.123	     3.589
  -107.035	   -26.148	    16.864
   -85.834	   -23.316	    12.201
   -94.971	   -27.925	    16.878
   -92.007	   -55.575	    -9.703
   -93.125	   -39.333	     8.644
   -99.844	   -40.331	     6.136
  -107.815	   -55.685	    13.858
  -110.403	   -36.654	    11.265
  -118.773	   -31.121	   -13.170
  -125.824	   -38.546	    11.330
   -99.757	   -55.811	   -12.732
  -120.337	   -28.550	   -18.315
  -102.354	   -54.430	    -0.078
  -106.997	   -58.959	    -6.395
   -96.181	   -42.660	     2.306
   -81.766	   -37.368	     5.916
  -127.143	   -21.715	     7.630
  -134.955	   -59.755	    -4.192
  -127.926	   -53.187	     9.042
   -95.249	   -55.715	    -3.181
   -87.379	   -47.256	     0.430
   -96.487	   -36.560	    -0.247
   -89.580	   -33.376	    -8.227
  -106.590	   -42.524	    29.924
  -102.820	   -52.335	     6.172
   -89.803	   -51.548	     2.130
  -112.687	   -56.578	    -3.115
   -89.651	   -37.500	    -1.682
   -93.942	   -38.331	   -12.531
  -131.415	   -18.786	    12.120
  -108.590	   -46.156	     6.857
  -126.562	   -16.794	     1.820
  -116.628	   -20.828	   -15.235
  -127.028	   -48.005	    19.209
   -83.463	   -32.281	     0.551
  -112.729	   -19.253	    -4.268
   -97.369	   -39.952	    -1.726
  -120.928	   -45.140	   -13.068
  -107.356	   -44.247	     2.840
  -103.563	   -43.128	   -13.239
  -114.260	   -31.444	    -9.847
  -117.458	   -53.644	     8.360
  -107.303	   -41.656	     3.006
  -111.478	   -37.282	    -0.511
  -130.684	   -41.933	    -3.750
   -97.302	   -33.478	   -15.728
  -102.378	   -47.397	    -0.927
   -80.740	   -37.650	     0.072
   -86.555	   -21.046	     0.391
   -81.787	   -15.396	   -10.631
  -122.684	   -19.381	    -6.522
  -115.157	   -16.788	     6.866
   -93.513	   -16.059	     7.177
  -121.473	   -22.809	   -14.330
  -116.197	   -42.613	     6.876
  -117.836	   -44.248	     5.881
   -87.647	   -61.454	    -2.647
   -76.693	   -43.089	     0.756
  -123.089	   -18.312	     9.787
   -78.928	   -35.603	    16.240
   -97.658	   -35.269	    -0.596
   -89.253	   -41.399	    -9.913
  -111.333	   -14.903	    -2.313
   -98.334	   -39.509	    -3.394
   -93.381	   -39.241	     1.159
  -115.644	   -39.092	     2.136
  -108.371	   -56.639	   -13.505
  -101.435	   -42.204	     1.965
  -112.314	   -37.104	    -2.563
  -135.625	   -47.093	    19.426
  -114.817	   -51.077	     4.296
  -109.001	   -54.535	    -4.700
  -143.685	   -42.335	    -8.688
  -110.825	   -37.220	    -7.802
  -112.748	   -34.965	    10.157
  -121.359	   -36.722	     1.982
  -120.326	   -40.220	    -5.625
  -107.524	   -54.406	   -19.719
  -121.536	   -36.953	     0.916
   -99.381	   -53.885	   -13.584
  -129.627	   -38.148	    -6.250
   -74.917	   -22.401	   -13.230
  -120.817	   -34.390	    -5.529
   -93.709	   -18.639	    -2.573
   -98.461	   -34.724	     3.407
  -102.427	   -29.138	    12.549
  -109.010	   -31.231	    10.401
   -93.275	   -18.571	    24.593
  -113.184	   -44.838	    -7.624
  -109.196	   -50.772	    -1.303
  -116.926	   -40.663	    -6.406
  -110.716	   -43.069	    -9.359
  -122.490	   -45.402	     3.027
  -104.902	   -36.947	     6.043
  -114.483	   -48.094	     1.174
  -116.019	   -23.045	   -12.345
   -97.070	   -65.264	     7.989
   -75.187	   -42.399	    -6.964
   -89.445	   -30.062	    18.942
   -93.189	   -33.949	     3.131
  -101.803	   -30.485	    14.398
   -94.848	   -40.870	    21.457
   -96.292	   -32.740	    17.089
   -94.667	   -40.175	    19.879
  -101.943	   -27.696	     2.291
   -87.540	   -30.122	    -2.719
  -109.922	   -45.892	     0.163
  -108.919	   -26.819	     6.895
  -102.924	   -49.333	   -16.177
  -123.637	   -47.591	    -0.965
  -138.517	   -37.533	    15.723
  -126.796	   -34.558	    -0.681
  -120.831	   -31.651	     0.616
  -139.033	   -49.056	     2.189
   -69.914	   -36.067	     5.261
  -118.019	   -49.352	     0.805
  -131.912	   -24.302	     4.365
  -105.697	   -35.374	     1.222
  -101.087	   -32.359	     6.910
  -120.442	   -42.568	     4.957
  -102.899	   -52.327	    -3.609
   -95.090	   -28.024	    11.269
   -99.994	   -37.863	    10.134
   -96.775	   -66.757	    10.307
  -106.724	   -58.724	    -4.573
  -111.559	   -40.867	    -7.535
   -92.413	   -61.178	   -14.382
  -118.967	   -37.025	   -11.264
  -107.205	   -57.931	    -1.797
   -82.918	   -27.767	   -20.078
  -128.651	   -32.140	    26.403
  -112.925	   -28.953	    -1.863
  -101.288	   -45.658	    -6.149
  -108.053	   -43.274	     0.964
  -120.995	   -47.497	     6.593
  -125.200	   -38.741	     3.978
  -104.911	   -36.107	     4.261
  -128.699	   -53.922	    15.985
   -83.168	   -29.673	    13.678
   -96.847	   -46.967	     7.876
   -95.074	   -40.541	     8.847
  -102.480	   -35.844	    18.460
  -112.253	   -49.848	   -17.657
  -118.791	   -27.783	     4.923
  -107.739	   -54.890	    16.588
   -98.571	   -39.227	     5.738
  -100.500	    -8.392	    11.311
  -114.593	   -31.826	    -4.836
  -106.268	   -32.843	     4.616
  -106.115	   -39.638	    10.005
  -103.073	   -48.157	    -9.741
   -91.948	   -41.579	    -0.727
  -108.519	   -49.549	     6.756
   -93.284	   -22.762	     3.064
  -102.060	   -28.606	     5.699
  -100.546	   -32.335	    21.099
  -108.382	   -30.116	    -5.374
  -114.964	   -39.081	    11.974
  -122.444	   -48.074	     1.309
  -112.338	   -38.114	    15.422
  -131.609	   -28.631	    13.238
  -102.621	   -33.979	     6.579
   -84.109	   -29.021	    -1.576
  -104.427	   -35.759	    -0.195
  -138.232	   -41.555	    -7.479
  -140.087	   -33.001	    -0.934
  -119.518	   -34.049	     0.168
   -99.743	   -25.330	    -3.687
  -104.416	   -35.619	     3.948
  -115.468	   -35.411	    -6.254
  -105.019	   -30.332	     1.326
   -92.644	   -56.559	    -4.739
  -104.772	   -47.044	    30.458
  -114.490	   -48.714	    24.393
  -129.102	   -28.488	     6.757
   -92.629	   -47.690	    20.037
  -114.451	   -45.368	   -13.603
  -122.388	   -39.242	     9.236
   -81.435	   -41.014	     4.009
   -92.682	   -21.776	     5.689
   -88.279	   -47.394	     4.261
   -88.026	   -38.603	    20.529
  -100.921	   -45.227	     4.035
  -117.533	   -27.653	    -8.942
  -112.829	   -33.352	    19.362
   -97.834	   -23.602	     3.218
   -93.306	   -49.564	    -4.401
  -110.223	   -27.250	    -7.465
  -113.673	   -46.993	    18.170
  -149.062	   -21.044	     5.222
  -112.796	   -46.112	    27.904
   -96.331	   -33.279	   -15.796
   -93.213	   -24.717	    16.852
  -112.955	   -32.655	     5.840
  -111.459	   -37.809	    -4.088
  -107.552	   -34.809	     8.027
   -99.230	   -55.124	    12.167
  -108.546	   -49.005	    15.938
   -98.088	   -37.909	    13.048
  -127.892	   -33.473	     8.639
  -109.933	   -29.327	     0.367
   -93.012	   -50.467	    17.628
  -116.044	   -43.236	    12.952
   -89.297	   -48.724	   -12.089
  -126.597	   -34.805	    -2.405
  -114.244	   -53.952	     0.918
  -118.031	   -28.463	     3.496
  -108.274	   -49.514	    -8.692
  -121.737	   -42.195	   -15.580
  -145.602	   -27.228	    -9.023
  -113.184	   -52.939	    -6.060
  -106.212	   -32.234	    11.421
   -88.896	   -42.433	    14.372
   -99.830	   -40.253	     8.475
  -145.452	   -32.181	    -1.402
   -93.312	   -29.582	    13.888
  -113.097	   -45.994	     4.685
   -93.293	   -33.005	   -13.518
   -87.983	   -28.997	    -1.627
  -110.797	   -32.674	    -7.095
  -112.569	   -30.175	   -10.629
  -127.617	   -39.237	   -14.476
  -132.596	   -32.144	     5.547
   -90.205	   -32.256	     0.351
  -120.871	   -41.292	    -0.039
  -123.099	   -24.873	     0.646
  -114.479	   -43.913	    -2.265
  -100.958	   -56.877	    -9.030
   -98.312	   -43.963	     1.507
   -97.419	   -36.964	   -11.002
  -107.622	   -10.966	   -14.548
  -108.416	   -32.130	     0.889
   -86.700	   -22.445	     5.273
  -111.368	   -35.373	    -9.160
  -103.099	   -14.998	    27.350
  -107.108	   -32.928	    15.159
   -99.311	   -31.212	     6.038
   -85.664	   -25.802	    15.045
   -91.228	   -30.290	     7.237
  -100.020	   -50.901	     7.082
   -87.870	   -54.976	    10.853
   -92.458	   -34.344	     4.305
  -117.625	   -35.838	     6.139
   -97.842	   -35.965	     7.985
  -114.454	   -27.249	    21.801
   -72.096	   -33.509	     8.845
   -95.951	   -42.432	    26.519
   -97.619	   -43.518	    -2.917
  -135.750	   -28.291	     3.072
  -113.489	   -40.599	     7.758
  -132.800	   -39.413	    -6.745
  -111.890	   -46.389	    -4.418
   -99.302	   -31.470	    -3.882
  -127.291	   -42.544	    10.933
   -95.388	   -43.734	   -13.881
  -144.729	   -39.270	     4.341
  -103.044	   -36.650	    -3.795
  -112.076	   -32.698	    -6.294
  -115.820	   -24.061	     4.311
  -119.855	   -28.483	    -6.033
  -108.594	   -60.898	   -18.896
  -101.111	   -29.685	    -0.704
  -122.353	   -42.164	    -5.022
  -101.617	   -14.494	   -12.571
  -113.558	   -33.358	     8.293
  -107.997	   -42.048	   -20.412
  -117.279	   -39.756	    -6.072
  -122.166	   -50.011	    -8.302
  -107.353	   -32.077	    -9.966
   -96.095	   -45.270	    -0.943
  -103.902	   -36.122	    10.230
   -98.750	   -50.392	     4.791
  -112.592	   -37.119	    -8.382
   -87.995	   -24.184	     9.433
   -95.448	   -32.759	     5.866
  -116.006	   -21.816	    -3.029
  -100.777	   -56.473	    -1.568
  -103.877	   -29.969	    19.746
  -116.872	   -31.929	     1.921
  -115.478	   -43.062	     2.326
   -84.007	   -51.408	     0.397
   -93.012	   -44.377	     0.902
   -89.612	   -59.698	    -6.779
   -93.528	   -32.748	    -7.586
  -101.352	   -46.222	     7.258
   -82.815	   -41.575	     1.127
  -107.589	   -53.349	   -12.012
   -88.936	   -15.168	    22.310
   -89.153	   -67.175	    -7.267
   -97.991	   -49.559	     5.526
  -110.686	   -32.596	    13.539
  -108.981	   -43.264	    14.188
   -97.412	   -17.436	    -5.495
  -104.502	   -38.757	   -14.979
  -122.947	   -42.781	     9.250
  -106.960	   -47.924	   -16.630
   -96.020	   -42.778	   -17.774
  -130.568	   -45.209	     9.992
  -116.589	   -54.756	    -0.869
   -94.961	   -49.486	    -6.245
   -86.560	   -46.392	     1.984
  -106.108	   -33.492	    -5.120
   -98.323	   -24.157	     3.253
   -92.582	   -42.614	     7.431
  -114.001	   -55.064	    -7.337
   -99.870	   -27.183	    25.111
   -76.721	   -36.734	    -6.333
  -113.090	   -41.313	   -12.186
  -124.076	   -36.490	    -2.020
   -97.727	   -15.873	     5.225
  -110.823	   -21.135	    -9.965
  -100.056	   -40.892	    -5.089
   -93.719	   -36.805	     6.597
   -72.152	   -38.659	   -16.167
   -73.718	   -30.876	     7.582
  -105.889	    -9.194	     2.741
   -97.658	   -26.955	     1.781
  -120.829	   -36.877	     3.658
  -118.512	   -32.867	    -6.485
  -115.588	   -25.146	    -3.394
   -76.417	   -44.097	     5.800
   -73.490	   -30.237	    -3.869
   -88.089	   -49.244	    10.326
   -96.536	   -39.325	     0.973
  -106.704	   -42.507	    10.097
  -132.958	   -46.518	    -1.259
   -85.835	   -43.610	    -4.174
  -101.279	   -20.745	    17.175
  -111.423	   -73.078	    15.644
  -102.253	   -27.519	     5.123
   -81.976	   -42.625	     6.461
  -119.802	   -30.282	   -10.079
  -129.680	   -30.920	    -9.349
  -125.976	   -32.266	     0.369
  -121.047	   -32.035	     0.359
  -108.656	   -35.795	    -7.793
  -121.494	   -28.472	    -8.423
   -92.820	   -45.723	   -22.347
  -132.383	   -40.102	    -9.554
   -94.184	   -39.340	    -1.721
  -135.152	   -50.622	    -6.693
  -116.876	   -51.783	     6.472
  -124.049	   -42.809	    16.003
  -101.895	   -22.046	    -8.280
  -122.532	   -32.212	     6.681
  -102.837	   -28.523	     1.812
  -120.094	   -41.021	     1.576
   -98.835	   -29.026	    12.688
   -88.384	   -45.102	    10.300
   -88.217	   -58.408	    -4.176
  -106.078	   -54.925	     1.364
  -112.598	   -33.709	    10.545
   -91.109	   -23.436	    -2.767
  -102.626	   -36.266	    14.795
   -96.969	   -34.589	    22.099
   -96.013	   -53.556	    -7.165
   -83.117	   -35.485	     3.322
  -102.366	   -32.975	     2.425
  -107.417	   -43.102	    -1.175
   -93.728	   -30.371	   -12.079
  -117.937	   -21.122	     0.723
  -133.549	   -22.125	    12.542
   -92.314	   -44.662	    -1.581
  -107.315	   -46.444	    11.749
  -110.640	   -26.072	    21.122
  -115.463	   -25.756	    -5.524
  -131.592	   -38.997	    -1.093
  -124.339	   -44.819	    -6.472
  -130.206	   -24.467	    -1.960
  -110.826	   -34.142	     3.171
   -98.576	   -43.323	    26.588
  -109.066	   -57.461	     7.892
   -95.733	   -28.219	    25.544
  -113.601	   -37.900	    10.180
   -86.976	   -35.845	     6.080
  -122.970	   -37.915	    20.685
   -95.340	   -28.448	     2.113
  -118.144	   -35.982	    10.651
  -132.938	   -26.953	     4.810
  -118.709	   -52.875	    -8.813
  -108.041	   -51.050	     9.947
  -102.510	   -38.508	    -1.790
  -104.627	   -38.751	    -3.402
  -103.384	    -7.883	     8.547
  -112.435	   -40.136	    26.036
  -107.125	   -45.298	    18.646
   -91.093	   -29.344	     1.138
  -124.760	   -36.567	    -0.811
   -96.622	   -54.180	    -6.161
  -114.163	   -30.604	    -4.926
  -109.574	    -7.703	    -6.922
  -137.263	   -37.244	     9.952
  -121.504	   -27.448	     0.130
   -89.312	   -23.528	   -10.629
  -103.058	   -23.167	   -15.527
  -130.774	   -25.792	    16.233
  -102.004	   -40.335	     8.065
   -97.799	   -36.564	    -4.448
   -99.442	   -70.923	     9.752
  -137.888	   -35.100	     0.317
  -120.819	   -38.669	   -10.470
   -88.130	   -26.215	   -19.588
  -110.636	   -55.255	     5.522
   -67.166	   -17.005	    -9.948
  -115.493	   -42.726	    -3.917
  -111.708	   -48.553	    -3.882
   -80.766	   -26.314	    -2.314
   -72.502	   -36.917	    -2.187
   -98.205	   -51.917	    11.497
   -98.806	   -55.143	    11.083
  -114.782	   -35.429	    -9.067
  -128.932	   -39.434	   -11.908
  -111.309	   -30.930	     4.533
  -119.601	   -40.489	     4.309
  -102.886	   -33.928	    18.253
  -105.285	   -45.109	    -2.249
  -117.521	   -24.018	   -11.558
  -104.552	   -40.618	     6.403
   -74.760	   -46.440	    22.566
  -126.558	   -34.039	    -1.972
   -90.871	   -39.295	   -12.569
   -96.067	   -31.675	    18.479
  -109.781	   -27.342	     1.765
   -95.511	   -24.534	     2.372
  -130.265	   -43.169	    -4.208
  -118.337	   -52.465	     2.669
  -108.627	   -46.218	    -3.620
  -137.188	   -54.480	     8.010
  -114.321	   -46.744	    -0.694
   -82.430	   -38.967	    -5.189
  -111.102	   -35.521	   -11.963
  -112.917	   -40.537	     8.253
  -123.960	   -40.404	    16.326
  -128.541	   -35.574	     1.630
  -100.927	   -33.428	    -7.337
  -125.415	   -33.845	    -0.607
  -104.818	   -23.451	    -7.219
  -111.008	   -23.486	     3.187
  -101.894	   -27.798	     1.427
  -117.188	   -38.490	   -19.158
  -105.631	   -46.283	    -6.554
  -110.926	   -38.904	    -2.934
  -108.791	   -37.460	    -5.799
  -121.267	   -24.339	    -4.844
   -88.409	   -28.957	   -17.596
  -125.959	   -54.462	    12.114
   -98.029	   -42.421	     1.885
  -123.212	   -27.668	     0.585
  -118.026	   -43.140	    -0.007
  -116.364	   -47.770	    -6.240
   -84.878	   -44.438	   -11.014
   -83.179	   -44.815	     5.905
   -91.917	   -21.889	    14.356
   -89.267	   -46.975	    12.590
   -82.680	   -38.359	    -0.927
   -79.388	   -31.611	   -22.953
  -109.415	   -18.228	     4.989
  -122.430	   -29.546	   -10.095
  -107.213	   -47.632	    -9.716
   -76.224	   -38.653	    -9.343
   -86.373	   -31.920	    14.428
   -83.221	   -30.789	    20.427
   -90.347	   -45.144	     1.854
   -93.880	   -49.962	    -0.530
   -97.613	   -18.576	    -1.441
  -114.371	   -53.344	    11.815
   -89.591	   -52.458	   -11.952
   -97.845	   -25.386	    11.106
   -87.489	   -38.410	     6.141
  -101.693	   -34.348	    18.488
   -82.846	   -48.679	    31.320
   -89.549	   -18.791	    27.217
   -92.240	   -39.445	     5.146
  -119.111	   -32.602	   -29.260
  -126.192	   -43.130	   -11.459
  -101.030	   -27.105	   -17.919
   -98.993	   -32.165	    -5.975
  -117.434	   -42.248	    13.814
  -134.944	   -38.722	   -11.491
  -132.744	   -47.061	   -22.965
  -119.719	   -32.902	     6.217
  -116.988	   -44.625	    24.228
  -133.241	    -7.928	    -1.161
   -99.581	   -36.444	    -0.005
  -100.891	   -61.929	     9.672
   -96.497	   -36.948	     1.999
   -99.655	   -29.934	    -0.832
  -112.715	   -39.846	     8.867
  -110.022	   -27.330	    16.621
  -121.047	   -41.134	    -4.700
  -128.452	   -25.735	   -11.177
  -105.989	   -45.245	   -10.188
  -120.164	   -28.936	    -5.241
  -103.354	   -35.858	    -3.686
  -125.791	   -46.931	     7.990
  -103.172	   -41.125	     6.570
  -107.369	   -36.112	    11.178
  -104.419	   -31.437	    -0.221
  -101.467	   -34.443	    -4.387
  -123.193	   -33.024	     2.707
  -122.823	   -44.842	    -9.055
  -110.216	   -42.720	     0.090
   -99.187	   -45.113	     3.591
  -104.297	   -51.876	    -5.545
  -120.364	   -33.151	     6.272
  -111.351	   -25.897	    -2.060
  -100.267	   -27.549	    -1.590
   -87.482	    -7.486	     3.724
  -112.599	   -17.047	     1.427
   -90.704	   -37.612	    11.730
  -101.538	    -9.126	     6.836
   -94.645	   -36.701	    12.908
  -103.132	   -36.878	     3.225
   -98.821	   -40.349	    26.288
   -97.488	   -19.002	     7.264
  -119.423	   -20.215	    31.077
  -118.810	   -21.958	     4.380
   -67.851	   -42.836	   -11.126
   -97.088	   -25.168	    23.187
   -98.807	   -34.210	     3.362
  -106.888	   -27.313	   -13.810
  -121.488	   -34.486	    12.041
  -120.146	   -24.998	     4.942
  -113.781	   -50.182	     2.466
   -88.821	   -42.936	    -0.096
  -103.547	   -64.705	    12.495
  -129.691	   -45.343	     2.765
  -126.974	   -34.456	   -10.812
  -119.224	   -27.057	     2.850
  -124.319	   -36.189	    -3.663
  -115.279	   -43.205	   -22.390
  -119.441	   -44.612	   -13.427
  -113.352	   -36.453	   -13.576
  -124.497	   -37.782	    -7.533
   -88.144	   -28.398	     4.154
  -129.560	   -47.776	   -20.094
   -81.314	   -30.249	    -1.648
  -104.041	   -44.872	     3.930
  -106.778	   -45.040	     5.147
  -108.701	   -28.257	     3.387
  -106.545	   -60.438	    -7.867
  -103.406	   -30.130	    -1.226
  -123.786	   -38.020	     6.605
  -103.556	   -29.355	     2.490
  -114.369	   -48.924	     5.611
   -82.739	   -50.809	    10.834
  -103.834	   -36.502	     3.159
  -103.391	   -47.278	     4.808
   -86.140	   -24.512	     3.937
   -98.104	   -58.694	    -8.333
  -103.397	   -43.359	   -10.342
  -103.310	   -25.771	    -3.982
  -113.476	   -37.434	     1.145
  -115.615	   -27.125	    18.664
   -99.292	   -24.036	     6.893
   -83.862	   -26.582	    11.157
  -107.480	   -34.318	     6.371
  -108.275	   -34.447	    -3.721
  -123.528	   -58.499	    -1.624
  -111.946	   -42.423	   -13.373
  -106.428	   -35.364	    -2.420
  -115.792	   -33.180	    -1.515
  -122.166	   -42.726	    -2.591
  -132.278	   -48.928	    13.482
  -127.671	   -26.097	   -14.380
  -121.099	   -43.888	    -1.937
   -96.573	   -44.680	     6.031
  -104.940	   -38.145	    -3.769
  -128.581	   -41.412	   -12.335
  -113.129	   -20.683	     9.684
   -79.563	   -62.347	   -10.471
  -114.925	   -24.633	     0.848
   -92.111	   -25.487	    -4.817
  -113.256	   -27.255	    -7.998
  -117.736	   -28.603	     7.152
  -126.861	   -24.195	    19.283
  -102.009	   -34.156	   -17.932
  -130.477	   -36.590	     4.227
   -92.723	   -34.004	    -5.950
  -130.471	   -50.562	    15.222
   -85.771	   -25.586	   -12.066
  -125.532	   -32.048	     5.668
  -103.773	   -18.932	     0.284
  -108.295	   -33.185	     2.210
  -102.846	   -43.589	    10.668
  -105.541	   -44.232	    -4.173
  -108.235	   -35.087	    -6.961
  -124.979	   -41.663	    -4.976
   -99.840	   -32.811	     9.747
   -91.348	    -7.853	    -1.311
   -70.608	   -22.432	    11.524
  -114.138	   -37.458	     7.108
  -124.896	   -31.954	    -2.122
   -91.032	   -30.802	     0.611
   -94.857	   -47.464	     2.890
  -105.378	   -32.705	    -6.905
  -112.623	   -40.355	     5.351
  -141.109	   -60.287	   -18.079
  -112.463	   -42.543	     2.259
  -126.052	   -31.034	    -4.805
  -115.026	   -45.116	   -13.903
  -111.500	   -41.788	    -4.904
  -104.017	   -42.357	    -2.230
   -91.911	   -41.181	   -13.266
   -89.379	   -29.567	   -33.954
  -128.966	   -40.556	   -20.111
  -103.054	   -63.932	     4.104
   -90.114	   -18.867	   -11.448
   -72.806	   -40.266	     8.114
  -127.316	   -25.418	    -2.950
  -124.479	   -58.793	    10.185
   -87.133	   -38.719	    25.136
   -92.707	   -38.043	   -14.510
  -115.845	   -46.305	    14.867
  -126.754	   -39.997	    -2.618
  -136.432	   -21.448	    -7.719
   -89.126	   -23.097	    14.438
  -102.614	   -21.343	    -2.384
  -109.862	   -26.206	    15.732
   -96.074	   -33.453	     2.394
   -91.079	   -27.686	    11.969
   -95.610	   -62.921	    13.949
  -102.235	   -37.205	     4.379
   -95.445	   -35.257	    -4.315
  -109.414	   -27.701	    -3.082
  -106.702	   -30.976	    16.339
  -108.519	   -73.581	   -13.623
  -105.102	   -43.893	    14.207
  -106.161	   -29.705	     9.402
   -92.642	   -36.789	    13.719
  -100.354	   -36.580	    21.212
   -68.092	   -27.083	    25.784
   -96.831	   -26.562	    22.008
   -74.672	   -26.054	     1.772
   -82.619	   -20.750	     0.936
   -70.995	   -19.306	    19.739
   -90.272	   -42.586	    -0.998
  -111.011	   -29.312	     2.936
   -89.367	   -32.169	   -17.651
   -92.163	   -50.339	    22.000
   -96.753	   -44.354	    -0.075
  -107.061	   -45.725	   -14.550
   -88.292	   -27.332	     0.842
  -113.470	   -46.549	   -20.138
   -81.492	   -20.407	    -2.889
  -112.368	   -36.242	    15.324
  -106.827	   -45.314	     1.103
  -102.249	   -38.992	    15.967
   -98.875	   -40.734	     7.156
   -99.060	   -55.260	    18.947
  -114.786	   -17.567	     1.681
   -94.968	   -28.293	    -0.333
  -120.167	   -45.483	     5.804
  -105.930	   -26.751	     4.226
  -116.645	   -40.860	    10.508
  -112.850	   -37.045	    -3.443
   -94.194	   -28.531	    -2.782
   -98.873	   -38.921	    -2.241
  -108.787	   -35.168	     3.266
  -107.528	   -36.064	     5.906
   -97.042	   -49.217	     5.198
   -95.179	   -47.365	   -20.763
   -92.829	   -23.661	     9.425
   -96.981	   -40.847	     5.630
  -114.003	   -34.137	    -2.957
  -104.647	   -55.373	    18.705
   -96.356	   -18.772	     1.513
   -79.035	   -38.316	    -4.020
   -98.030	   -25.426	    -5.534
   -93.833	   -52.923	    -5.624
  -110.762	   -49.038	   -22.975
   -95.789	   -50.426	    -4.458
   -84.502	   -49.076	    15.735
  -106.900	   -49.401	     1.558
   -97.620	   -42.126	    -3.489
  -104.005	   -49.309	    -0.183
   -91.673	   -47.448	   -17.000
   -95.100	   -51.481	    -1.665
  -106.033	   -39.781	     0.309
  -112.789	   -45.308	    10.933
  -109.414	   -51.296	     7.530
  -110.450	   -28.096	    -8.867
  -148.410	   -27.533	    -6.084
  -123.604	   -42.252	   -18.316
  -116.023	   -44.558	   -20.280
  -109.296	   -23.429	     2.957
  -127.452	   -50.729	    12.631
  -107.448	   -45.405	    -3.724
   -93.838	   -33.258	    10.458
  -102.005	   -16.032	     9.425
  -109.800	   -40.348	     1.636
  -125.151	   -36.705	    -7.103
   -97.185	   -40.456	     1.442
  -112.630	   -31.704	    12.928
   -80.474	   -35.301	    10.198
   -80.653	   -29.440	     7.642
  -101.237	   -14.445	    11.165
  -101.095	   -34.381	     8.608
   -91.627	   -35.957	     5.317
   -92.892	   -45.531	    14.959
  -107.353	   -39.529	    -1.939
  -101.386	   -37.705	     8.305
  -109.572	   -37.008	    -3.506
  -118.335	   -38.817	   -23.612
  -113.089	   -38.452	     2.593
   -92.469	   -42.115	    -0.680
   -92.337	   -24.315	    10.991
   -94.668	   -37.286	     1.454
  -114.890	   -44.118	    13.743
  -123.032	   -30.877	    10.000
  -108.218	   -32.721	     3.219
  -105.302	   -45.619	    -7.169
  -100.786	   -39.280	   -19.375
  -135.919	   -54.838	    -0.982
  -131.352	   -25.604	    -7.695
  -124.646	   -45.007	    13.499
  -112.207	   -36.491	    15.198
  -105.375	   -39.213	     4.778
  -123.959	   -21.856	    14.466
  -105.516	   -24.812	    15.444
   -99.244	   -40.505	     1.580
  -103.164	   -58.272	    -1.470
  -128.820	   -46.034	     4.972
  -129.479	   -38.574	     6.395
  -116.765	   -34.546	    13.508
  -113.070	   -55.148	    -1.010
  -115.935	   -50.293	    -6.508
  -114.167	   -12.165	    -4.761
  -132.173	   -28.320	     6.491
  -133.441	   -36.599	     4.878
  -106.626	   -39.311	   -13.977
   -91.570	   -42.374	    -3.655
  -106.443	   -35.045	    -2.214
  -107.575	   -47.503	     9.495
  -122.603	   -31.703	     2.635
   -93.231	   -30.658	    -0.912
  -102.092	   -32.367	    12.278
  -111.702	   -46.015	     5.191
  -128.435	   -47.367	     9.260
  -101.914	   -17.636	    22.834
  -105.848	   -18.358	     0.446
  -105.373	   -18.436	   -12.708
  -102.307	   -31.538	   -12.451
  -101.827	   -43.957	     3.081
  -106.532	   -38.873	    -6.672
  -109.178	   -56.635	     2.798
  -102.633	   -35.990	    10.336
   -74.544	   -39.055	     0.894
   -85.291	   -36.657	     8.216
  -117.054	   -47.599	   -13.734
  -141.191	   -57.387	    -5.650
  -132.836	   -45.283	    -2.948
   -88.322	   -31.794	   -14.306
  -103.430	   -36.926	    -2.644
  -101.178	   -14.230	     5.813
   -84.449	   -36.828	    -2.590
   -81.763	   -38.948	     4.934
   -85.459	   -33.576	    -1.140
   -93.305	   -58.015	     5.296
  -124.534	   -54.421	    -2.977
  -114.117	   -22.883	    22.552
  -125.081	   -41.533	    10.288
  -123.633	   -34.474	     3.900
  -121.624	   -42.996	    -2.684
